%!PS-Adobe-3.0 EPSF-3.0
%%Title: C:/Users/jgembarovic/Documents/Python/Python scripts/odr/figure_1.eps
%%Creator: matplotlib version 1.5.1, http://matplotlib.org/
%%CreationDate: Fri Mar 04 13:53:53 2016
%%Orientation: portrait
%%BoundingBox: -558 -37 1170 829
%%EndComments
%%BeginProlog
/mpldict 8 dict def
mpldict begin
/m { moveto } bind def
/l { lineto } bind def
/r { rlineto } bind def
/c { curveto } bind def
/cl { closepath } bind def
/box {
m
1 index 0 r
0 exch r
neg 0 r
cl
} bind def
/clipbox {
box
clip
newpath
} bind def
%!PS-Adobe-3.0 Resource-Font
%%Title: Bitstream Vera Sans
%%Copyright: Copyright (c) 2003 by Bitstream, Inc. All Rights Reserved.
%%Creator: Converted from TrueType to type 3 by PPR
25 dict begin
/_d{bind def}bind def
/_m{moveto}_d
/_l{lineto}_d
/_cl{closepath eofill}_d
/_c{curveto}_d
/_sc{7 -1 roll{setcachedevice}{pop pop pop pop pop pop}ifelse}_d
/_e{exec}_d
/FontName /BitstreamVeraSans-Roman def
/PaintType 0 def
/FontMatrix[.001 0 0 .001 0 0]def
/FontBBox[-183 -236 1287 928]def
/FontType 3 def
/Encoding [ /period /zero /one /two /three /four /five /six /eight /a /d /e /h /i /l /m /n /o /p /r /s /t /u /x /y /minus ] def
/FontInfo 10 dict dup begin
/FamilyName (Bitstream Vera Sans) def
/FullName (Bitstream Vera Sans) def
/Notice (Copyright (c) 2003 by Bitstream, Inc. All Rights Reserved. Bitstream Vera is a trademark of Bitstream, Inc.) def
/Weight (Roman) def
/Version (Release 1.10) def
/ItalicAngle 0.0 def
/isFixedPitch false def
/UnderlinePosition -213 def
/UnderlineThickness 143 def
end readonly def
/CharStrings 26 dict dup begin
/period{318 0 107 0 210 124 _sc
107 124 _m
210 124 _l
210 0 _l
107 0 _l
107 124 _l
_cl}_d
/zero{636 0 66 -13 570 742 _sc
318 664 _m
267 664 229 639 203 589 _c
177 539 165 464 165 364 _c
165 264 177 189 203 139 _c
229 89 267 64 318 64 _c
369 64 407 89 433 139 _c
458 189 471 264 471 364 _c
471 464 458 539 433 589 _c
407 639 369 664 318 664 _c
318 742 _m
399 742 461 709 505 645 _c
548 580 570 486 570 364 _c
570 241 548 147 505 83 _c
461 19 399 -13 318 -13 _c
236 -13 173 19 130 83 _c
87 147 66 241 66 364 _c
66 486 87 580 130 645 _c
173 709 236 742 318 742 _c
_cl}_d
/one{636 0 110 0 544 729 _sc
124 83 _m
285 83 _l
285 639 _l
110 604 _l
110 694 _l
284 729 _l
383 729 _l
383 83 _l
544 83 _l
544 0 _l
124 0 _l
124 83 _l
_cl}_d
/two{{636 0 73 0 536 742 _sc
192 83 _m
536 83 _l
536 0 _l
73 0 _l
73 83 _l
110 121 161 173 226 239 _c
290 304 331 346 348 365 _c
380 400 402 430 414 455 _c
426 479 433 504 433 528 _c
433 566 419 598 392 622 _c
365 646 330 659 286 659 _c
255 659 222 653 188 643 _c
154 632 117 616 78 594 _c
78 694 _l
118 710 155 722 189 730 _c
223 738 255 742 284 742 _c
}_e{359 742 419 723 464 685 _c
509 647 532 597 532 534 _c
532 504 526 475 515 449 _c
504 422 484 390 454 354 _c
446 344 420 317 376 272 _c
332 227 271 164 192 83 _c
_cl}_e}_d
/three{{636 0 76 -13 556 742 _sc
406 393 _m
453 383 490 362 516 330 _c
542 298 556 258 556 212 _c
556 140 531 84 482 45 _c
432 6 362 -13 271 -13 _c
240 -13 208 -10 176 -4 _c
144 1 110 10 76 22 _c
76 117 _l
103 101 133 89 166 81 _c
198 73 232 69 268 69 _c
330 69 377 81 409 105 _c
441 129 458 165 458 212 _c
458 254 443 288 413 312 _c
383 336 341 349 287 349 _c
}_e{202 349 _l
202 430 _l
291 430 _l
339 430 376 439 402 459 _c
428 478 441 506 441 543 _c
441 580 427 609 401 629 _c
374 649 336 659 287 659 _c
260 659 231 656 200 650 _c
169 644 135 635 98 623 _c
98 711 _l
135 721 170 729 203 734 _c
235 739 266 742 296 742 _c
370 742 429 725 473 691 _c
517 657 539 611 539 553 _c
539 513 527 479 504 451 _c
481 423 448 403 406 393 _c
_cl}_e}_d
/four{636 0 49 0 580 729 _sc
378 643 _m
129 254 _l
378 254 _l
378 643 _l
352 729 _m
476 729 _l
476 254 _l
580 254 _l
580 172 _l
476 172 _l
476 0 _l
378 0 _l
378 172 _l
49 172 _l
49 267 _l
352 729 _l
_cl}_d
/five{{636 0 77 -13 549 729 _sc
108 729 _m
495 729 _l
495 646 _l
198 646 _l
198 467 _l
212 472 227 476 241 478 _c
255 480 270 482 284 482 _c
365 482 429 459 477 415 _c
525 370 549 310 549 234 _c
549 155 524 94 475 51 _c
426 8 357 -13 269 -13 _c
238 -13 207 -10 175 -6 _c
143 -1 111 6 77 17 _c
77 116 _l
106 100 136 88 168 80 _c
199 72 232 69 267 69 _c
}_e{323 69 368 83 401 113 _c
433 143 450 183 450 234 _c
450 284 433 324 401 354 _c
368 384 323 399 267 399 _c
241 399 214 396 188 390 _c
162 384 135 375 108 363 _c
108 729 _l
_cl}_e}_d
/six{{636 0 70 -13 573 742 _sc
330 404 _m
286 404 251 388 225 358 _c
199 328 186 286 186 234 _c
186 181 199 139 225 109 _c
251 79 286 64 330 64 _c
374 64 409 79 435 109 _c
461 139 474 181 474 234 _c
474 286 461 328 435 358 _c
409 388 374 404 330 404 _c
526 713 _m
526 623 _l
501 635 476 644 451 650 _c
425 656 400 659 376 659 _c
310 659 260 637 226 593 _c
}_e{192 549 172 482 168 394 _c
187 422 211 444 240 459 _c
269 474 301 482 336 482 _c
409 482 467 459 509 415 _c
551 371 573 310 573 234 _c
573 159 550 99 506 54 _c
462 9 403 -13 330 -13 _c
246 -13 181 19 137 83 _c
92 147 70 241 70 364 _c
70 479 97 571 152 639 _c
206 707 280 742 372 742 _c
396 742 421 739 447 735 _c
472 730 498 723 526 713 _c
_cl}_e}_d
/eight{{636 0 68 -13 568 742 _sc
318 346 _m
271 346 234 333 207 308 _c
180 283 167 249 167 205 _c
167 161 180 126 207 101 _c
234 76 271 64 318 64 _c
364 64 401 76 428 102 _c
455 127 469 161 469 205 _c
469 249 455 283 429 308 _c
402 333 365 346 318 346 _c
219 388 _m
177 398 144 418 120 447 _c
96 476 85 511 85 553 _c
85 611 105 657 147 691 _c
188 725 245 742 318 742 _c
}_e{390 742 447 725 489 691 _c
530 657 551 611 551 553 _c
551 511 539 476 515 447 _c
491 418 459 398 417 388 _c
464 377 501 355 528 323 _c
554 291 568 251 568 205 _c
568 134 546 80 503 43 _c
459 5 398 -13 318 -13 _c
237 -13 175 5 132 43 _c
89 80 68 134 68 205 _c
68 251 81 291 108 323 _c
134 355 171 377 219 388 _c
183 544 _m
183 506 194 476 218 455 _c
}_e{242 434 275 424 318 424 _c
360 424 393 434 417 455 _c
441 476 453 506 453 544 _c
453 582 441 611 417 632 _c
393 653 360 664 318 664 _c
275 664 242 653 218 632 _c
194 611 183 582 183 544 _c
_cl}_e}_d
/a{{613 0 60 -13 522 560 _sc
343 275 _m
270 275 220 266 192 250 _c
164 233 150 205 150 165 _c
150 133 160 107 181 89 _c
202 70 231 61 267 61 _c
317 61 357 78 387 114 _c
417 149 432 196 432 255 _c
432 275 _l
343 275 _l
522 312 _m
522 0 _l
432 0 _l
432 83 _l
411 49 385 25 355 10 _c
325 -5 287 -13 243 -13 _c
187 -13 142 2 109 33 _c
76 64 60 106 60 159 _c
}_e{60 220 80 266 122 298 _c
163 329 224 345 306 345 _c
432 345 _l
432 354 _l
432 395 418 427 391 450 _c
364 472 326 484 277 484 _c
245 484 215 480 185 472 _c
155 464 127 453 100 439 _c
100 522 _l
132 534 164 544 195 550 _c
226 556 256 560 286 560 _c
365 560 424 539 463 498 _c
502 457 522 395 522 312 _c
_cl}_e}_d
/d{{635 0 55 -13 544 760 _sc
454 464 _m
454 760 _l
544 760 _l
544 0 _l
454 0 _l
454 82 _l
435 49 411 25 382 10 _c
353 -5 319 -13 279 -13 _c
213 -13 159 13 117 65 _c
75 117 55 187 55 273 _c
55 359 75 428 117 481 _c
159 533 213 560 279 560 _c
319 560 353 552 382 536 _c
411 520 435 496 454 464 _c
148 273 _m
148 207 161 155 188 117 _c
215 79 253 61 301 61 _c
}_e{348 61 385 79 413 117 _c
440 155 454 207 454 273 _c
454 339 440 390 413 428 _c
385 466 348 485 301 485 _c
253 485 215 466 188 428 _c
161 390 148 339 148 273 _c
_cl}_e}_d
/e{{615 0 55 -13 562 560 _sc
562 296 _m
562 252 _l
149 252 _l
153 190 171 142 205 110 _c
238 78 284 62 344 62 _c
378 62 412 66 444 74 _c
476 82 509 95 541 113 _c
541 28 _l
509 14 476 3 442 -3 _c
408 -9 373 -13 339 -13 _c
251 -13 182 12 131 62 _c
80 112 55 181 55 268 _c
55 357 79 428 127 481 _c
175 533 241 560 323 560 _c
397 560 455 536 498 489 _c
}_e{540 441 562 377 562 296 _c
472 322 _m
471 371 457 410 431 440 _c
404 469 368 484 324 484 _c
274 484 234 469 204 441 _c
174 413 156 373 152 322 _c
472 322 _l
_cl}_e}_d
/h{634 0 91 0 549 760 _sc
549 330 _m
549 0 _l
459 0 _l
459 327 _l
459 379 448 417 428 443 _c
408 469 378 482 338 482 _c
289 482 251 466 223 435 _c
195 404 181 362 181 309 _c
181 0 _l
91 0 _l
91 760 _l
181 760 _l
181 462 _l
202 494 227 519 257 535 _c
286 551 320 560 358 560 _c
420 560 468 540 500 501 _c
532 462 549 405 549 330 _c
_cl}_d
/i{278 0 94 0 184 760 _sc
94 547 _m
184 547 _l
184 0 _l
94 0 _l
94 547 _l
94 760 _m
184 760 _l
184 646 _l
94 646 _l
94 760 _l
_cl}_d
/l{278 0 94 0 184 760 _sc
94 760 _m
184 760 _l
184 0 _l
94 0 _l
94 760 _l
_cl}_d
/m{{974 0 91 0 889 560 _sc
520 442 _m
542 482 569 511 600 531 _c
631 550 668 560 711 560 _c
767 560 811 540 842 500 _c
873 460 889 403 889 330 _c
889 0 _l
799 0 _l
799 327 _l
799 379 789 418 771 444 _c
752 469 724 482 686 482 _c
639 482 602 466 575 435 _c
548 404 535 362 535 309 _c
535 0 _l
445 0 _l
445 327 _l
445 379 435 418 417 444 _c
398 469 369 482 331 482 _c
}_e{285 482 248 466 221 435 _c
194 404 181 362 181 309 _c
181 0 _l
91 0 _l
91 547 _l
181 547 _l
181 462 _l
201 495 226 520 255 536 _c
283 552 317 560 357 560 _c
397 560 430 550 458 530 _c
486 510 506 480 520 442 _c
_cl}_e}_d
/n{634 0 91 0 549 560 _sc
549 330 _m
549 0 _l
459 0 _l
459 327 _l
459 379 448 417 428 443 _c
408 469 378 482 338 482 _c
289 482 251 466 223 435 _c
195 404 181 362 181 309 _c
181 0 _l
91 0 _l
91 547 _l
181 547 _l
181 462 _l
202 494 227 519 257 535 _c
286 551 320 560 358 560 _c
420 560 468 540 500 501 _c
532 462 549 405 549 330 _c
_cl}_d
/o{612 0 55 -13 557 560 _sc
306 484 _m
258 484 220 465 192 427 _c
164 389 150 338 150 273 _c
150 207 163 156 191 118 _c
219 80 257 62 306 62 _c
354 62 392 80 420 118 _c
448 156 462 207 462 273 _c
462 337 448 389 420 427 _c
392 465 354 484 306 484 _c
306 560 _m
384 560 445 534 490 484 _c
534 433 557 363 557 273 _c
557 183 534 113 490 63 _c
445 12 384 -13 306 -13 _c
227 -13 165 12 121 63 _c
77 113 55 183 55 273 _c
55 363 77 433 121 484 _c
165 534 227 560 306 560 _c
_cl}_d
/p{{635 0 91 -207 580 560 _sc
181 82 _m
181 -207 _l
91 -207 _l
91 547 _l
181 547 _l
181 464 _l
199 496 223 520 252 536 _c
281 552 316 560 356 560 _c
422 560 476 533 518 481 _c
559 428 580 359 580 273 _c
580 187 559 117 518 65 _c
476 13 422 -13 356 -13 _c
316 -13 281 -5 252 10 _c
223 25 199 49 181 82 _c
487 273 _m
487 339 473 390 446 428 _c
418 466 381 485 334 485 _c
}_e{286 485 249 466 222 428 _c
194 390 181 339 181 273 _c
181 207 194 155 222 117 _c
249 79 286 61 334 61 _c
381 61 418 79 446 117 _c
473 155 487 207 487 273 _c
_cl}_e}_d
/r{411 0 91 0 411 560 _sc
411 463 _m
401 469 390 473 378 476 _c
366 478 353 480 339 480 _c
288 480 249 463 222 430 _c
194 397 181 350 181 288 _c
181 0 _l
91 0 _l
91 547 _l
181 547 _l
181 462 _l
199 495 224 520 254 536 _c
284 552 321 560 365 560 _c
371 560 378 559 386 559 _c
393 558 401 557 411 555 _c
411 463 _l
_cl}_d
/s{{521 0 54 -13 472 560 _sc
443 531 _m
443 446 _l
417 458 391 468 364 475 _c
336 481 308 485 279 485 _c
234 485 200 478 178 464 _c
156 450 145 430 145 403 _c
145 382 153 366 169 354 _c
185 342 217 330 265 320 _c
296 313 _l
360 299 405 279 432 255 _c
458 230 472 195 472 151 _c
472 100 452 60 412 31 _c
372 1 316 -13 246 -13 _c
216 -13 186 -10 154 -5 _c
}_e{122 0 89 8 54 20 _c
54 113 _l
87 95 120 82 152 74 _c
184 65 216 61 248 61 _c
290 61 323 68 346 82 _c
368 96 380 117 380 144 _c
380 168 371 187 355 200 _c
339 213 303 226 247 238 _c
216 245 _l
160 257 119 275 95 299 _c
70 323 58 356 58 399 _c
58 450 76 490 112 518 _c
148 546 200 560 268 560 _c
301 560 332 557 362 552 _c
391 547 418 540 443 531 _c
}_e{_cl}_e}_d
/t{392 0 27 0 368 702 _sc
183 702 _m
183 547 _l
368 547 _l
368 477 _l
183 477 _l
183 180 _l
183 135 189 106 201 94 _c
213 81 238 75 276 75 _c
368 75 _l
368 0 _l
276 0 _l
206 0 158 13 132 39 _c
106 65 93 112 93 180 _c
93 477 _l
27 477 _l
27 547 _l
93 547 _l
93 702 _l
183 702 _l
_cl}_d
/u{634 0 85 -13 543 547 _sc
85 216 _m
85 547 _l
175 547 _l
175 219 _l
175 167 185 129 205 103 _c
225 77 255 64 296 64 _c
344 64 383 79 411 110 _c
439 141 453 183 453 237 _c
453 547 _l
543 547 _l
543 0 _l
453 0 _l
453 84 _l
431 50 405 26 377 10 _c
348 -5 315 -13 277 -13 _c
214 -13 166 6 134 45 _c
101 83 85 140 85 216 _c
_cl}_d
/x{592 0 29 0 559 547 _sc
549 547 _m
351 281 _l
559 0 _l
453 0 _l
294 215 _l
135 0 _l
29 0 _l
241 286 _l
47 547 _l
153 547 _l
298 352 _l
443 547 _l
549 547 _l
_cl}_d
/y{592 0 30 -207 562 547 _sc
322 -50 _m
296 -114 271 -157 247 -177 _c
223 -197 191 -207 151 -207 _c
79 -207 _l
79 -132 _l
132 -132 _l
156 -132 175 -126 189 -114 _c
203 -102 218 -75 235 -31 _c
251 9 _l
30 547 _l
125 547 _l
296 119 _l
467 547 _l
562 547 _l
322 -50 _l
_cl}_d
/minus{838 0 106 272 732 355 _sc
106 355 _m
732 355 _l
732 272 _l
106 272 _l
106 355 _l
_cl}_d
end readonly def

/BuildGlyph
 {exch begin
 CharStrings exch
 2 copy known not{pop /.notdef}if
 true 3 1 roll get exec
 end}_d

/BuildChar {
 1 index /Encoding get exch get
 1 index /BuildGlyph get exec
}_d

FontName currentdict end definefont pop
end
%%EndProlog
mpldict begin
-558 -37.8 translate
1728 867.6 0 0 clipbox
100000 setmiterlimit
gsave
0 0 m
1728 0 l
1728 867.6 l
0 867.6 l
cl
1.000 setgray
fill
grestore
gsave
210.816 84.1572 m
1555.2 84.1572 l
1555.2 830.2932 l
210.816 830.2932 l
cl
1.000 setgray
fill
grestore
1.000 setlinewidth
1 setlinejoin
2 setlinecap
[] 0 setdash
0.000 0.000 1.000 setrgbcolor
gsave
1344 746.1 210.8 84.16 clipbox
278.443744 109.868528 m
282.030988 111.07635 l
285.618233 120.774977 l
289.205477 131.205203 l
292.792721 117.034926 l
296.379965 130.05889 l
299.967209 116.349911 l
303.554454 139.999926 l
307.141698 106.202082 l
310.728942 109.393175 l
314.316186 126.644701 l
317.903431 135.767378 l
321.490675 107.744003 l
325.077919 135.016966 l
328.665163 138.660235 l
332.252408 128.141015 l
335.839652 140.534579 l
339.426896 152.165606 l
343.01414 154.899156 l
346.601385 191.98957 l
350.188629 209.483472 l
353.775873 203.560363 l
357.363117 218.54762 l
360.950362 201.868313 l
364.537606 225.599574 l
368.12485 227.690355 l
371.712094 257.636064 l
375.299339 304.342465 l
378.886583 320.586414 l
382.473827 284.378206 l
386.061071 257.573348 l
389.648315 338.495367 l
393.23556 288.553726 l
396.822804 317.630126 l
400.410048 339.327893 l
403.997292 350.751431 l
407.584537 348.279784 l
411.171781 379.369124 l
414.759025 364.8839 l
418.346269 396.250059 l
421.933514 374.132782 l
425.520758 420.743168 l
429.108002 416.34897 l
432.695246 415.283649 l
436.282491 416.470255 l
439.869735 434.183474 l
443.456979 439.269146 l
447.044223 461.888198 l
450.631468 458.883042 l
454.218712 428.979723 l
457.805956 496.873216 l
461.3932 491.616272 l
464.980445 438.066634 l
468.567689 491.216476 l
472.154933 484.104114 l
475.742177 492.610665 l
479.329421 474.739922 l
482.916666 511.562291 l
486.50391 515.970926 l
490.091154 515.602532 l
493.678398 522.972098 l
497.265643 504.058092 l
500.852887 544.518573 l
504.440131 489.787385 l
508.027375 515.041791 l
511.61462 532.522486 l
515.201864 524.998519 l
518.789108 523.828583 l
522.376352 545.516641 l
525.963597 536.517765 l
529.550841 539.316551 l
533.138085 522.936803 l
536.725329 537.681177 l
540.312574 557.746735 l
543.899818 562.466877 l
547.487062 543.659308 l
551.074306 567.721175 l
554.661551 554.84269 l
558.248795 565.97026 l
561.836039 560.921401 l
565.423283 560.96206 l
569.010527 564.227798 l
572.597772 534.265555 l
576.185016 587.713925 l
579.77226 565.337407 l
583.359504 577.85946 l
586.946749 577.233804 l
590.533993 577.885756 l
594.121237 566.302962 l
597.708481 584.979437 l
601.295726 580.397866 l
604.88297 590.125905 l
608.470214 598.541281 l
612.057458 577.33505 l
615.644703 595.938646 l
619.231947 597.421126 l
622.819191 566.517265 l
626.406435 598.51685 l
629.99368 574.757345 l
633.580924 589.896574 l
637.168168 588.984759 l
640.755412 618.537334 l
644.342657 574.814333 l
647.929901 578.893062 l
651.517145 611.442402 l
655.104389 583.084234 l
658.691633 590.958965 l
662.278878 585.908407 l
665.866122 593.480276 l
669.453366 579.972307 l
673.04061 566.929341 l
676.627855 590.349077 l
680.215099 590.844011 l
683.802343 603.140227 l
687.389587 588.741151 l
690.976832 575.883003 l
694.564076 588.683183 l
698.15132 569.620062 l
701.738564 614.132608 l
705.325809 594.926498 l
708.913053 603.516171 l
712.500297 602.385184 l
716.087541 584.144914 l
719.674786 594.98521 l
723.26203 591.594119 l
726.849274 577.415442 l
730.436518 610.077972 l
734.023763 575.152888 l
737.611007 571.804474 l
741.198251 581.323148 l
744.785495 603.786408 l
748.372739 603.982576 l
751.959984 607.431854 l
755.547228 598.932087 l
759.134472 589.258855 l
762.721716 598.266064 l
766.308961 600.412007 l
769.896205 616.000054 l
773.483449 586.934492 l
777.070693 567.228937 l
780.657938 618.995962 l
784.245182 600.316154 l
787.832426 577.605975 l
791.41967 588.130021 l
795.006915 577.913111 l
798.594159 592.55087 l
802.181403 572.834491 l
805.768647 625.786697 l
809.355892 562.469938 l
812.943136 602.840935 l
816.53038 595.256741 l
820.117624 568.953105 l
823.704869 565.534915 l
827.292113 591.799571 l
830.879357 564.981545 l
834.466601 562.776378 l
838.053845 589.806115 l
841.64109 586.187411 l
845.228334 605.033805 l
848.815578 578.390499 l
852.402822 613.421874 l
855.990067 594.783338 l
859.577311 607.017476 l
863.164555 569.482649 l
866.751799 570.855142 l
870.339044 570.281181 l
873.926288 573.490307 l
877.513532 592.653802 l
881.100776 578.866675 l
884.688021 579.055763 l
888.275265 586.584006 l
891.862509 559.863496 l
895.449753 559.778377 l
899.036998 580.811798 l
902.624242 580.047827 l
906.211486 552.781401 l
909.79873 593.200296 l
913.385975 599.739158 l
916.973219 591.055323 l
920.560463 540.646453 l
924.147707 615.602443 l
927.734951 562.806893 l
931.322196 601.163691 l
934.90944 584.66495 l
938.496684 577.114938 l
942.083928 581.457531 l
945.671173 576.49847 l
949.258417 593.365181 l
952.845661 564.257379 l
956.432905 569.160526 l
960.02015 539.671804 l
963.607394 580.078975 l
967.194638 563.097748 l
970.781882 553.137379 l
974.369127 585.801474 l
977.956371 554.439015 l
981.543615 576.259342 l
985.130859 603.032732 l
988.718104 573.768228 l
992.305348 540.249963 l
995.892592 559.089436 l
999.479836 579.207312 l
1003.067081 546.917963 l
1006.654325 556.055704 l
1010.241569 564.252419 l
1013.828813 535.958972 l
1017.416057 549.972904 l
1021.003302 536.96324 l
1024.590546 545.737242 l
1028.17779 570.280045 l
1031.765034 547.153242 l
1035.352279 540.657639 l
1038.939523 529.449546 l
1042.526767 557.952715 l
1046.114011 543.656665 l
1049.701256 548.807194 l
1053.2885 551.935425 l
1056.875744 563.123952 l
1060.462988 575.774298 l
1064.050233 541.415648 l
1067.637477 571.223738 l
1071.224721 559.15893 l
1074.811965 593.361624 l
1078.39921 560.151509 l
1081.986454 573.211211 l
1085.573698 541.559104 l
1089.160942 563.733882 l
1092.748187 518.383428 l
1096.335431 576.234838 l
1099.922675 550.546998 l
1103.509919 546.132213 l
1107.097163 533.246511 l
1110.684408 569.651185 l
1114.271652 539.28058 l
1117.858896 551.989188 l
1121.44614 552.930215 l
1125.033385 559.96925 l
1128.620629 528.399595 l
1132.207873 574.479855 l
1135.795117 546.16113 l
1139.382362 568.328685 l
1142.969606 533.987432 l
1146.55685 554.732848 l
1150.144094 553.562944 l
1153.731339 542.132814 l
1157.318583 551.439446 l
1160.905827 556.815246 l
1164.493071 566.31842 l
1168.080316 549.395931 l
1171.66756 555.910441 l
1175.254804 541.577826 l
1178.842048 549.588236 l
1182.429293 536.854528 l
1186.016537 542.197201 l
1189.603781 530.68603 l
1193.191025 526.612721 l
1196.778269 539.382128 l
1200.365514 522.499663 l
1203.952758 522.866031 l
1207.540002 531.375786 l
1211.127246 545.32522 l
1214.714491 508.953606 l
1218.301735 559.65303 l
1221.888979 529.199944 l
1225.476223 556.040479 l
1229.063468 538.371042 l
1232.650712 531.927532 l
1236.237956 545.081382 l
1239.8252 554.260428 l
1243.412445 547.288566 l
1246.999689 528.681687 l
1250.586933 545.702863 l
1254.174177 547.478898 l
1257.761422 519.384837 l
1261.348666 533.891774 l
1264.93591 564.8948 l
1268.523154 555.454566 l
1272.110399 544.594608 l
1275.697643 547.382383 l
1279.284887 531.281052 l
1282.872131 526.815106 l
1286.459375 535.042505 l
1290.04662 491.1588 l
1293.633864 537.090205 l
1297.221108 518.889501 l
1300.808352 532.386049 l
1304.395597 523.266389 l
1307.982841 530.446113 l
1311.570085 523.115688 l
1315.157329 532.665357 l
1318.744574 504.966784 l
1322.331818 532.773265 l
1325.919062 526.938551 l
1329.506306 560.381495 l
1333.093551 536.107569 l
1336.680795 503.526034 l
1340.268039 527.317386 l
1343.855283 508.311101 l
1347.442528 506.33729 l
1351.029772 547.261508 l
1354.617016 496.629685 l
1358.20426 524.28322 l
1361.791505 530.951308 l
1365.378749 515.413296 l
1368.965993 532.048855 l
1372.553237 504.856813 l
1376.140481 538.49415 l
1379.727726 524.174005 l
1383.31497 531.693052 l
1386.902214 533.056046 l
1390.489458 528.360271 l
1394.076703 540.887855 l
1397.663947 536.998923 l
1401.251191 513.164935 l
1404.838435 547.722992 l
1408.42568 518.870131 l
1412.012924 529.089666 l
1415.600168 498.561273 l
1419.187412 489.669101 l
1422.774657 512.749531 l
1426.361901 506.036029 l
1429.949145 533.360127 l
1433.536389 484.596053 l
1437.123634 507.379715 l
1440.710878 499.782577 l
1444.298122 519.54132 l
1447.885366 480.43139 l
1451.472611 508.944954 l
1455.059855 510.88104 l
1458.647099 481.564289 l
1462.234343 500.275641 l
1465.821587 530.632044 l
1469.408832 488.12646 l
1472.996076 505.242385 l
1476.58332 500.545053 l
1480.170564 504.402273 l
1483.757809 502.920164 l
1490.932297 524.051827 l
1494.519541 525.713656 l
1498.106786 507.636263 l
1501.69403 526.607964 l
1505.281274 497.224766 l
1508.868518 493.390265 l
1512.455763 527.8756 l
1516.043007 526.405757 l
1519.630251 499.405474 l
1523.217495 509.892791 l
1526.80474 511.252554 l
1530.391984 489.641765 l
1533.979228 512.129003 l
1537.566472 504.999817 l
1541.153717 498.276625 l
1544.740961 472.712781 l
1548.328205 510.957009 l
1551.915449 502.90727 l
1555.502693 526.874526 l
1555.502693 526.874526 l
stroke
grestore
0.500 setlinewidth
0 setlinejoin
0 setlinecap
0.000 0.502 0.000 setrgbcolor
gsave
1344 746.1 210.8 84.16 clipbox
/o {
gsave
newpath
translate
0.5 setlinewidth
0 setlinejoin
0 setlinecap
-3 -3 m
3 -3 l
3 3 l
-3 3 l
cl

gsave
0.000 0.667 0.000 setrgbcolor
fill
grestore
stroke
grestore
} bind def
278.444 109.869 o
282.031 111.076 o
285.618 120.775 o
289.205 131.205 o
292.793 117.035 o
296.38 130.059 o
299.967 116.35 o
303.554 140 o
307.142 106.202 o
310.729 109.393 o
314.316 126.645 o
317.903 135.767 o
321.491 107.744 o
325.078 135.017 o
328.665 138.66 o
332.252 128.141 o
335.84 140.535 o
339.427 152.166 o
343.014 154.899 o
346.601 191.99 o
350.189 209.483 o
353.776 203.56 o
357.363 218.548 o
360.95 201.868 o
364.538 225.6 o
368.125 227.69 o
371.712 257.636 o
375.299 304.342 o
378.887 320.586 o
382.474 284.378 o
386.061 257.573 o
389.648 338.495 o
393.236 288.554 o
396.823 317.63 o
400.41 339.328 o
403.997 350.751 o
407.585 348.28 o
411.172 379.369 o
414.759 364.884 o
418.346 396.25 o
421.934 374.133 o
425.521 420.743 o
429.108 416.349 o
432.695 415.284 o
436.282 416.47 o
439.87 434.183 o
443.457 439.269 o
447.044 461.888 o
450.631 458.883 o
454.219 428.98 o
457.806 496.873 o
461.393 491.616 o
464.98 438.067 o
468.568 491.216 o
472.155 484.104 o
475.742 492.611 o
479.329 474.74 o
482.917 511.562 o
486.504 515.971 o
490.091 515.603 o
493.678 522.972 o
497.266 504.058 o
500.853 544.519 o
504.44 489.787 o
508.027 515.042 o
511.615 532.522 o
515.202 524.999 o
518.789 523.829 o
522.376 545.517 o
525.964 536.518 o
529.551 539.317 o
533.138 522.937 o
536.725 537.681 o
540.313 557.747 o
543.9 562.467 o
547.487 543.659 o
551.074 567.721 o
554.662 554.843 o
558.249 565.97 o
561.836 560.921 o
565.423 560.962 o
569.011 564.228 o
572.598 534.266 o
576.185 587.714 o
579.772 565.337 o
583.36 577.859 o
586.947 577.234 o
590.534 577.886 o
594.121 566.303 o
597.708 584.979 o
601.296 580.398 o
604.883 590.126 o
608.47 598.541 o
612.057 577.335 o
615.645 595.939 o
619.232 597.421 o
622.819 566.517 o
626.406 598.517 o
629.994 574.757 o
633.581 589.897 o
637.168 588.985 o
640.755 618.537 o
644.343 574.814 o
647.93 578.893 o
651.517 611.442 o
655.104 583.084 o
658.692 590.959 o
662.279 585.908 o
665.866 593.48 o
669.453 579.972 o
673.041 566.929 o
676.628 590.349 o
680.215 590.844 o
683.802 603.14 o
687.39 588.741 o
690.977 575.883 o
694.564 588.683 o
698.151 569.62 o
701.739 614.133 o
705.326 594.926 o
708.913 603.516 o
712.5 602.385 o
716.088 584.145 o
719.675 594.985 o
723.262 591.594 o
726.849 577.415 o
730.437 610.078 o
734.024 575.153 o
737.611 571.804 o
741.198 581.323 o
744.785 603.786 o
748.373 603.983 o
751.96 607.432 o
755.547 598.932 o
759.134 589.259 o
762.722 598.266 o
766.309 600.412 o
769.896 616 o
773.483 586.934 o
777.071 567.229 o
780.658 618.996 o
784.245 600.316 o
787.832 577.606 o
791.42 588.13 o
795.007 577.913 o
798.594 592.551 o
802.181 572.834 o
805.769 625.787 o
809.356 562.47 o
812.943 602.841 o
816.53 595.257 o
820.118 568.953 o
823.705 565.535 o
827.292 591.8 o
830.879 564.982 o
834.467 562.776 o
838.054 589.806 o
841.641 586.187 o
845.228 605.034 o
848.816 578.39 o
852.403 613.422 o
855.99 594.783 o
859.577 607.017 o
863.165 569.483 o
866.752 570.855 o
870.339 570.281 o
873.926 573.49 o
877.514 592.654 o
881.101 578.867 o
884.688 579.056 o
888.275 586.584 o
891.863 559.863 o
895.45 559.778 o
899.037 580.812 o
902.624 580.048 o
906.211 552.781 o
909.799 593.2 o
913.386 599.739 o
916.973 591.055 o
920.56 540.646 o
924.148 615.602 o
927.735 562.807 o
931.322 601.164 o
934.909 584.665 o
938.497 577.115 o
942.084 581.458 o
945.671 576.498 o
949.258 593.365 o
952.846 564.257 o
956.433 569.161 o
960.02 539.672 o
963.607 580.079 o
967.195 563.098 o
970.782 553.137 o
974.369 585.801 o
977.956 554.439 o
981.544 576.259 o
985.131 603.033 o
988.718 573.768 o
992.305 540.25 o
995.893 559.089 o
999.48 579.207 o
1003.07 546.918 o
1006.65 556.056 o
1010.24 564.252 o
1013.83 535.959 o
1017.42 549.973 o
1021 536.963 o
1024.59 545.737 o
1028.18 570.28 o
1031.77 547.153 o
1035.35 540.658 o
1038.94 529.45 o
1042.53 557.953 o
1046.11 543.657 o
1049.7 548.807 o
1053.29 551.935 o
1056.88 563.124 o
1060.46 575.774 o
1064.05 541.416 o
1067.64 571.224 o
1071.22 559.159 o
1074.81 593.362 o
1078.4 560.152 o
1081.99 573.211 o
1085.57 541.559 o
1089.16 563.734 o
1092.75 518.383 o
1096.34 576.235 o
1099.92 550.547 o
1103.51 546.132 o
1107.1 533.247 o
1110.68 569.651 o
1114.27 539.281 o
1117.86 551.989 o
1121.45 552.93 o
1125.03 559.969 o
1128.62 528.4 o
1132.21 574.48 o
1135.8 546.161 o
1139.38 568.329 o
1142.97 533.987 o
1146.56 554.733 o
1150.14 553.563 o
1153.73 542.133 o
1157.32 551.439 o
1160.91 556.815 o
1164.49 566.318 o
1168.08 549.396 o
1171.67 555.91 o
1175.25 541.578 o
1178.84 549.588 o
1182.43 536.855 o
1186.02 542.197 o
1189.6 530.686 o
1193.19 526.613 o
1196.78 539.382 o
1200.37 522.5 o
1203.95 522.866 o
1207.54 531.376 o
1211.13 545.325 o
1214.71 508.954 o
1218.3 559.653 o
1221.89 529.2 o
1225.48 556.04 o
1229.06 538.371 o
1232.65 531.928 o
1236.24 545.081 o
1239.83 554.26 o
1243.41 547.289 o
1247 528.682 o
1250.59 545.703 o
1254.17 547.479 o
1257.76 519.385 o
1261.35 533.892 o
1264.94 564.895 o
1268.52 555.455 o
1272.11 544.595 o
1275.7 547.382 o
1279.28 531.281 o
1282.87 526.815 o
1286.46 535.043 o
1290.05 491.159 o
1293.63 537.09 o
1297.22 518.89 o
1300.81 532.386 o
1304.4 523.266 o
1307.98 530.446 o
1311.57 523.116 o
1315.16 532.665 o
1318.74 504.967 o
1322.33 532.773 o
1325.92 526.939 o
1329.51 560.381 o
1333.09 536.108 o
1336.68 503.526 o
1340.27 527.317 o
1343.86 508.311 o
1347.44 506.337 o
1351.03 547.262 o
1354.62 496.63 o
1358.2 524.283 o
1361.79 530.951 o
1365.38 515.413 o
1368.97 532.049 o
1372.55 504.857 o
1376.14 538.494 o
1379.73 524.174 o
1383.31 531.693 o
1386.9 533.056 o
1390.49 528.36 o
1394.08 540.888 o
1397.66 536.999 o
1401.25 513.165 o
1404.84 547.723 o
1408.43 518.87 o
1412.01 529.09 o
1415.6 498.561 o
1419.19 489.669 o
1422.77 512.75 o
1426.36 506.036 o
1429.95 533.36 o
1433.54 484.596 o
1437.12 507.38 o
1440.71 499.783 o
1444.3 519.541 o
1447.89 480.431 o
1451.47 508.945 o
1455.06 510.881 o
1458.65 481.564 o
1462.23 500.276 o
1465.82 530.632 o
1469.41 488.126 o
1473 505.242 o
1476.58 500.545 o
1480.17 504.402 o
1483.76 502.92 o
1487.35 513.566 o
1490.93 524.052 o
1494.52 525.714 o
1498.11 507.636 o
1501.69 526.608 o
1505.28 497.225 o
1508.87 493.39 o
1512.46 527.876 o
1516.04 526.406 o
1519.63 499.405 o
1523.22 509.893 o
1526.8 511.253 o
1530.39 489.642 o
1533.98 512.129 o
1537.57 505 o
1541.15 498.277 o
1544.74 472.713 o
1548.33 510.957 o
1551.92 502.907 o
1555.5 526.875 o
grestore
1.000 setlinewidth
1 setlinejoin
2 setlinecap
1.000 0.000 0.000 setrgbcolor
gsave
1344 746.1 210.8 84.16 clipbox
278.443744 115.462446 m
299.967209 115.522472 l
303.554454 115.717384 l
307.141698 116.2212 l
310.728942 117.2381 l
314.316186 118.968298 l
317.903431 121.573957 l
321.490675 125.161519 l
325.077919 129.778735 l
328.665163 135.421117 l
332.252408 142.042795 l
335.839652 149.568292 l
339.426896 157.903263 l
343.01414 166.943357 l
346.601385 176.581025 l
350.188629 186.710432 l
357.363117 208.048444 l
368.12485 241.475244 l
378.886583 275.021924 l
386.061071 296.834103 l
393.23556 317.920544 l
400.410048 338.125654 l
407.584537 357.352322 l
414.759025 375.547481 l
421.933514 392.690603 l
429.108002 408.784743 l
436.282491 423.849674 l
443.456979 437.916686 l
450.631468 451.024692 l
454.218712 457.232584 l
457.805956 463.217333 l
461.3932 468.984785 l
464.980445 474.540847 l
468.567689 479.891451 l
475.742177 489.999963 l
482.916666 499.357218 l
490.091154 508.00898 l
497.265643 515.999447 l
504.440131 523.370962 l
511.61462 530.16385 l
518.789108 536.416332 l
525.963597 542.164504 l
533.138085 547.442353 l
540.312574 552.281809 l
547.487062 556.712812 l
554.661551 560.763398 l
561.836039 564.459783 l
569.010527 567.826463 l
576.185016 570.886307 l
583.359504 573.660652 l
590.533993 576.169393 l
597.708481 578.431075 l
604.88297 580.46298 l
612.057458 582.281204 l
619.231947 583.90074 l
626.406435 585.335547 l
633.580924 586.598622 l
640.755412 587.702062 l
651.517145 589.082325 l
662.278878 590.163333 l
673.04061 590.976299 l
683.802343 591.549243 l
694.564076 591.907314 l
705.325809 592.073083 l
719.674786 592.029683 l
734.023763 591.722562 l
748.372739 591.188401 l
762.721716 590.458953 l
780.657938 589.314041 l
798.594159 587.952393 l
820.117624 586.085626 l
845.228334 583.654067 l
873.926288 580.622765 l
906.211486 576.982374 l
949.258417 571.881983 l
1010.241569 564.401545 l
1196.778269 541.379569 l
1272.110399 532.365043 l
1343.855283 523.997747 l
1415.600168 515.853411 l
1487.345053 507.933504 l
1555.502693 500.614808 l
1555.502693 500.614808 l
stroke
grestore
0.500 setlinewidth
0 setlinecap
0.000 0.000 1.000 setrgbcolor
gsave
1344 746.1 210.8 84.16 clipbox
/o {
gsave
newpath
translate
0.5 setlinewidth
1 setlinejoin
0 setlinecap
-3 0 m
3 0 l
0 -3 m
0 3 l

gsave
0.000 0.000 1.000 setrgbcolor
fill
grestore
stroke
grestore
} bind def
278.444 773.081 o
282.031 774.289 o
285.618 783.987 o
289.205 794.417 o
292.793 780.247 o
296.38 793.263 o
299.967 779.502 o
303.554 802.957 o
307.142 768.656 o
310.729 770.83 o
314.316 786.351 o
317.903 792.868 o
321.491 761.257 o
325.078 783.913 o
328.665 781.914 o
332.252 764.773 o
335.84 769.641 o
339.427 772.937 o
343.014 766.63 o
346.601 794.083 o
350.189 801.448 o
353.776 785.004 o
357.363 789.174 o
360.95 761.465 o
364.538 774.031 o
368.125 764.89 o
371.712 783.595 o
375.299 819.105 o
378.887 824.239 o
382.474 777.047 o
386.061 739.414 o
389.648 809.691 o
393.236 749.308 o
396.823 768.164 o
400.41 779.877 o
403.997 781.561 o
407.585 769.602 o
411.172 791.463 o
414.759 768.011 o
418.346 790.674 o
421.934 760.117 o
425.521 798.55 o
429.108 786.239 o
432.695 777.514 o
436.282 771.295 o
439.87 781.853 o
443.457 780.027 o
447.044 795.975 o
450.631 786.533 o
454.219 750.422 o
457.806 812.331 o
461.393 801.306 o
464.98 742.2 o
468.568 790 o
472.155 777.736 o
475.742 781.285 o
479.329 758.645 o
482.917 790.88 o
486.504 790.877 o
490.091 786.268 o
493.678 789.563 o
497.266 766.733 o
500.853 803.433 o
504.44 745.091 o
508.027 766.879 o
511.615 781.033 o
515.202 770.318 o
518.789 766.087 o
522.376 784.84 o
525.964 773.028 o
529.551 773.131 o
533.138 754.169 o
536.725 766.441 o
540.313 784.14 o
543.9 786.595 o
547.487 765.621 o
551.074 787.612 o
554.662 772.754 o
558.249 781.991 o
561.836 775.136 o
565.423 773.454 o
569.011 775.076 o
572.598 743.547 o
576.185 795.502 o
579.772 771.704 o
583.36 782.874 o
586.947 780.961 o
590.534 780.391 o
594.121 767.648 o
597.708 785.223 o
601.296 779.598 o
604.883 788.338 o
608.47 795.818 o
612.057 773.729 o
615.645 791.498 o
619.232 792.195 o
622.819 760.552 o
626.406 791.856 o
629.994 767.444 o
633.581 781.973 o
637.168 780.49 o
640.755 809.51 o
644.343 765.292 o
647.93 768.911 o
651.517 801.035 o
655.104 772.285 o
658.692 779.799 o
662.279 774.42 o
665.866 781.692 o
669.453 767.914 o
673.041 754.628 o
676.628 777.831 o
680.215 778.135 o
683.802 790.266 o
687.39 775.725 o
690.977 762.747 o
694.564 775.451 o
698.151 756.312 o
701.739 800.769 o
705.326 781.528 o
708.913 790.102 o
712.5 788.973 o
716.088 770.753 o
719.675 781.63 o
723.262 778.293 o
726.849 764.183 o
730.437 796.931 o
734.024 762.105 o
737.611 758.87 o
741.198 768.516 o
744.785 791.12 o
748.373 791.469 o
751.96 795.083 o
755.547 786.761 o
759.134 777.276 o
762.722 786.482 o
766.309 788.837 o
769.896 804.645 o
773.483 775.809 o
777.071 756.342 o
780.658 808.357 o
784.245 789.933 o
787.832 767.488 o
791.42 778.284 o
795.007 768.348 o
798.594 783.273 o
802.181 763.852 o
805.769 817.106 o
809.356 754.097 o
812.943 794.783 o
816.53 787.519 o
820.118 761.542 o
823.705 758.456 o
827.292 785.058 o
830.879 758.583 o
834.467 756.726 o
838.054 784.108 o
841.641 780.846 o
845.228 800.054 o
848.816 773.777 o
852.403 809.178 o
855.99 790.913 o
859.577 803.525 o
863.165 766.371 o
866.752 768.128 o
870.339 767.942 o
873.926 771.542 o
877.514 791.1 o
881.101 777.71 o
884.688 778.298 o
888.275 786.229 o
891.863 759.913 o
895.45 760.235 o
899.037 781.678 o
902.624 781.326 o
906.211 754.474 o
909.799 795.309 o
913.386 802.265 o
916.973 794.001 o
920.56 744.014 o
924.148 819.393 o
927.735 767.022 o
931.322 805.805 o
934.909 789.734 o
938.497 782.613 o
942.084 787.386 o
945.671 782.858 o
949.258 800.158 o
952.846 771.484 o
956.433 776.822 o
960.02 747.769 o
963.607 788.613 o
967.195 772.069 o
970.782 762.547 o
974.369 795.651 o
977.956 764.728 o
981.544 786.989 o
985.131 814.204 o
988.718 785.381 o
992.305 752.305 o
995.893 771.587 o
999.48 792.148 o
1003.07 760.303 o
1006.65 769.884 o
1010.24 778.526 o
1013.83 750.677 o
1017.42 765.136 o
1021 752.571 o
1024.59 761.791 o
1028.18 786.779 o
1031.77 764.098 o
1035.35 758.049 o
1038.94 747.287 o
1042.53 776.236 o
1046.11 762.386 o
1049.7 767.983 o
1053.29 771.557 o
1056.88 783.192 o
1060.46 796.289 o
1064.05 762.376 o
1067.64 792.63 o
1071.22 781.012 o
1074.81 815.66 o
1078.4 782.896 o
1081.99 796.401 o
1085.57 765.194 o
1089.16 787.814 o
1092.75 742.909 o
1096.34 801.205 o
1099.92 775.962 o
1103.51 771.992 o
1107.1 759.55 o
1110.68 796.399 o
1114.27 766.472 o
1117.86 779.624 o
1121.45 781.008 o
1125.03 788.489 o
1128.62 757.362 o
1132.21 803.884 o
1135.8 776.007 o
1139.38 798.616 o
1142.97 764.716 o
1146.56 785.902 o
1150.14 785.172 o
1153.73 774.182 o
1157.32 783.928 o
1160.91 789.743 o
1164.49 799.685 o
1168.08 783.201 o
1171.67 790.153 o
1175.25 776.258 o
1178.84 784.705 o
1182.43 772.408 o
1186.02 778.187 o
1189.6 767.111 o
1193.19 763.473 o
1196.78 776.677 o
1200.37 760.229 o
1203.95 761.029 o
1207.54 769.972 o
1211.13 784.354 o
1214.71 748.415 o
1218.3 799.546 o
1221.89 769.525 o
1225.48 796.796 o
1229.06 779.557 o
1232.65 773.543 o
1236.24 787.126 o
1239.83 796.734 o
1243.41 790.191 o
1247 772.012 o
1250.59 789.46 o
1254.17 791.663 o
1257.76 763.995 o
1261.35 778.928 o
1264.94 810.356 o
1268.52 801.34 o
1272.11 790.904 o
1275.7 794.116 o
1279.28 778.437 o
1282.87 774.394 o
1286.46 783.043 o
1290.05 739.581 o
1293.63 785.933 o
1297.22 768.153 o
1300.81 782.069 o
1304.4 773.369 o
1307.98 780.967 o
1311.57 774.055 o
1315.16 784.022 o
1318.74 756.74 o
1322.33 784.963 o
1325.92 779.544 o
1329.51 813.403 o
1333.09 789.544 o
1336.68 757.376 o
1340.27 781.581 o
1343.86 762.988 o
1347.44 761.427 o
1351.03 802.763 o
1354.62 752.543 o
1358.2 780.607 o
1361.79 787.685 o
1365.38 772.557 o
1368.97 789.602 o
1372.55 762.818 o
1376.14 796.864 o
1379.73 782.951 o
1383.31 790.877 o
1386.9 792.647 o
1390.49 788.357 o
1394.08 801.289 o
1397.66 797.805 o
1401.25 774.375 o
1404.84 809.337 o
1408.43 780.887 o
1412.01 791.509 o
1415.6 761.383 o
1419.19 752.892 o
1422.77 776.373 o
1426.36 770.06 o
1429.95 797.783 o
1433.54 749.418 o
1437.12 772.6 o
1440.71 765.401 o
1444.3 785.557 o
1447.89 746.844 o
1451.47 775.754 o
1455.06 778.086 o
1458.65 749.164 o
1462.23 768.27 o
1465.82 799.021 o
1469.41 756.909 o
1473 774.417 o
1476.58 770.112 o
1480.17 774.362 o
1483.76 773.271 o
1487.35 784.307 o
1490.93 795.183 o
1494.52 797.235 o
1498.11 779.546 o
1501.69 798.906 o
1505.28 769.911 o
1508.87 766.464 o
1512.46 801.336 o
1516.04 800.253 o
1519.63 773.638 o
1523.22 784.511 o
1526.8 786.255 o
1530.39 765.028 o
1533.98 787.899 o
1537.57 781.153 o
1541.15 774.812 o
1544.74 749.63 o
1548.33 788.256 o
1551.92 780.587 o
1555.5 804.934 o
grestore
1.000 setlinewidth
0 setlinejoin
2 setlinecap
0.000 setgray
gsave
210.816 830.2932 m
1555.2 830.2932 l
stroke
grestore
gsave
1555.2 84.1572 m
1555.2 830.2932 l
stroke
grestore
gsave
210.816 84.1572 m
1555.2 84.1572 l
stroke
grestore
gsave
210.816 84.1572 m
210.816 830.2932 l
stroke
grestore
0.500 setlinewidth
1 setlinejoin
0 setlinecap
gsave
/o {
gsave
newpath
translate
0.5 setlinewidth
1 setlinejoin
0 setlinecap
0 0 m
0 4 l

gsave
0.000 setgray
fill
grestore
stroke
grestore
} bind def
277.248 84.1572 o
grestore
gsave
/o {
gsave
newpath
translate
0.5 setlinewidth
1 setlinejoin
0 setlinecap
0 0 m
0 -4 l

gsave
0.000 setgray
fill
grestore
stroke
grestore
} bind def
277.248 830.293 o
grestore
/BitstreamVeraSans-Roman findfont
12.000 scalefont
setfont
gsave
267.701520 71.032200 translate
0.000000 rotate
0.000000 0.000000 m /zero glyphshow
7.634766 0.000000 m /period glyphshow
11.449219 0.000000 m /zero glyphshow
grestore
gsave
/o {
gsave
newpath
translate
0.5 setlinewidth
1 setlinejoin
0 setlinecap
0 0 m
0 4 l

gsave
0.000 setgray
fill
grestore
stroke
grestore
} bind def
516.318 84.1572 o
grestore
gsave
/o {
gsave
newpath
translate
0.5 setlinewidth
1 setlinejoin
0 setlinecap
0 0 m
0 -4 l

gsave
0.000 setgray
fill
grestore
stroke
grestore
} bind def
516.318 830.293 o
grestore
gsave
506.771406 71.032200 translate
0.000000 rotate
0.000000 0.000000 m /zero glyphshow
7.634766 0.000000 m /period glyphshow
11.449219 0.000000 m /two glyphshow
grestore
gsave
/o {
gsave
newpath
translate
0.5 setlinewidth
1 setlinejoin
0 setlinecap
0 0 m
0 4 l

gsave
0.000 setgray
fill
grestore
stroke
grestore
} bind def
755.388 84.1572 o
grestore
gsave
/o {
gsave
newpath
translate
0.5 setlinewidth
1 setlinejoin
0 setlinecap
0 0 m
0 -4 l

gsave
0.000 setgray
fill
grestore
stroke
grestore
} bind def
755.388 830.293 o
grestore
gsave
745.841292 71.032200 translate
0.000000 rotate
0.000000 0.000000 m /zero glyphshow
7.634766 0.000000 m /period glyphshow
11.449219 0.000000 m /four glyphshow
grestore
gsave
/o {
gsave
newpath
translate
0.5 setlinewidth
1 setlinejoin
0 setlinecap
0 0 m
0 4 l

gsave
0.000 setgray
fill
grestore
stroke
grestore
} bind def
994.458 84.1572 o
grestore
gsave
/o {
gsave
newpath
translate
0.5 setlinewidth
1 setlinejoin
0 setlinecap
0 0 m
0 -4 l

gsave
0.000 setgray
fill
grestore
stroke
grestore
} bind def
994.458 830.293 o
grestore
gsave
984.911178 71.032200 translate
0.000000 rotate
0.000000 0.000000 m /zero glyphshow
7.634766 0.000000 m /period glyphshow
11.449219 0.000000 m /six glyphshow
grestore
gsave
/o {
gsave
newpath
translate
0.5 setlinewidth
1 setlinejoin
0 setlinecap
0 0 m
0 4 l

gsave
0.000 setgray
fill
grestore
stroke
grestore
} bind def
1233.53 84.1572 o
grestore
gsave
/o {
gsave
newpath
translate
0.5 setlinewidth
1 setlinejoin
0 setlinecap
0 0 m
0 -4 l

gsave
0.000 setgray
fill
grestore
stroke
grestore
} bind def
1233.53 830.293 o
grestore
gsave
1223.981064 71.032200 translate
0.000000 rotate
0.000000 0.000000 m /zero glyphshow
7.634766 0.000000 m /period glyphshow
11.449219 0.000000 m /eight glyphshow
grestore
gsave
/o {
gsave
newpath
translate
0.5 setlinewidth
1 setlinejoin
0 setlinecap
0 0 m
0 4 l

gsave
0.000 setgray
fill
grestore
stroke
grestore
} bind def
1472.6 84.1572 o
grestore
gsave
/o {
gsave
newpath
translate
0.5 setlinewidth
1 setlinejoin
0 setlinecap
0 0 m
0 -4 l

gsave
0.000 setgray
fill
grestore
stroke
grestore
} bind def
1472.6 830.293 o
grestore
gsave
1463.050950 71.032200 translate
0.000000 rotate
0.000000 0.000000 m /one glyphshow
7.634766 0.000000 m /period glyphshow
11.449219 0.000000 m /zero glyphshow
grestore
gsave
869.453313 54.407200 translate
0.000000 rotate
0.000000 0.000000 m /t glyphshow
4.705078 0.000000 m /i glyphshow
8.039062 0.000000 m /m glyphshow
19.728516 0.000000 m /e glyphshow
grestore
gsave
/o {
gsave
newpath
translate
0.5 setlinewidth
1 setlinejoin
0 setlinecap
0 0 m
4 0 l

gsave
0.000 setgray
fill
grestore
stroke
grestore
} bind def
210.816 122.172 o
grestore
gsave
/o {
gsave
newpath
translate
0.5 setlinewidth
1 setlinejoin
0 setlinecap
0 0 m
-4 0 l

gsave
0.000 setgray
fill
grestore
stroke
grestore
} bind def
1555.2 122.172 o
grestore
gsave
189.112875 118.859901 translate
0.000000 rotate
0.000000 0.000000 m /minus glyphshow
10.054688 0.000000 m /five glyphshow
grestore
gsave
/o {
gsave
newpath
translate
0.5 setlinewidth
1 setlinejoin
0 setlinecap
0 0 m
4 0 l

gsave
0.000 setgray
fill
grestore
stroke
grestore
} bind def
210.816 253.473 o
grestore
gsave
/o {
gsave
newpath
translate
0.5 setlinewidth
1 setlinejoin
0 setlinecap
0 0 m
-4 0 l

gsave
0.000 setgray
fill
grestore
stroke
grestore
} bind def
1555.2 253.473 o
grestore
gsave
189.112875 250.160361 translate
0.000000 rotate
0.000000 0.000000 m /minus glyphshow
10.054688 0.000000 m /four glyphshow
grestore
gsave
/o {
gsave
newpath
translate
0.5 setlinewidth
1 setlinejoin
0 setlinecap
0 0 m
4 0 l

gsave
0.000 setgray
fill
grestore
stroke
grestore
} bind def
210.816 384.773 o
grestore
gsave
/o {
gsave
newpath
translate
0.5 setlinewidth
1 setlinejoin
0 setlinecap
0 0 m
-4 0 l

gsave
0.000 setgray
fill
grestore
stroke
grestore
} bind def
1555.2 384.773 o
grestore
gsave
189.112875 381.460821 translate
0.000000 rotate
0.000000 0.000000 m /minus glyphshow
10.054688 0.000000 m /three glyphshow
grestore
gsave
/o {
gsave
newpath
translate
0.5 setlinewidth
1 setlinejoin
0 setlinecap
0 0 m
4 0 l

gsave
0.000 setgray
fill
grestore
stroke
grestore
} bind def
210.816 516.074 o
grestore
gsave
/o {
gsave
newpath
translate
0.5 setlinewidth
1 setlinejoin
0 setlinecap
0 0 m
-4 0 l

gsave
0.000 setgray
fill
grestore
stroke
grestore
} bind def
1555.2 516.074 o
grestore
gsave
189.112875 512.761281 translate
0.000000 rotate
0.000000 0.000000 m /minus glyphshow
10.054688 0.000000 m /two glyphshow
grestore
gsave
/o {
gsave
newpath
translate
0.5 setlinewidth
1 setlinejoin
0 setlinecap
0 0 m
4 0 l

gsave
0.000 setgray
fill
grestore
stroke
grestore
} bind def
210.816 647.374 o
grestore
gsave
/o {
gsave
newpath
translate
0.5 setlinewidth
1 setlinejoin
0 setlinecap
0 0 m
-4 0 l

gsave
0.000 setgray
fill
grestore
stroke
grestore
} bind def
1555.2 647.374 o
grestore
gsave
189.112875 644.061741 translate
0.000000 rotate
0.000000 0.000000 m /minus glyphshow
10.054688 0.000000 m /one glyphshow
grestore
gsave
/o {
gsave
newpath
translate
0.5 setlinewidth
1 setlinejoin
0 setlinecap
0 0 m
4 0 l

gsave
0.000 setgray
fill
grestore
stroke
grestore
} bind def
210.816 778.675 o
grestore
gsave
/o {
gsave
newpath
translate
0.5 setlinewidth
1 setlinejoin
0 setlinecap
0 0 m
-4 0 l

gsave
0.000 setgray
fill
grestore
stroke
grestore
} bind def
1555.2 778.675 o
grestore
gsave
199.175375 775.362201 translate
0.000000 rotate
0.000000 0.000000 m /zero glyphshow
grestore
gsave
181.612875 419.358012 translate
90.000000 rotate
0.000000 0.000000 m /t glyphshow
4.705078 0.000000 m /e glyphshow
12.087891 0.000000 m /m glyphshow
23.777344 0.000000 m /p glyphshow
31.394531 0.000000 m /e glyphshow
38.777344 0.000000 m /r glyphshow
43.710938 0.000000 m /a glyphshow
51.064453 0.000000 m /t glyphshow
55.769531 0.000000 m /u glyphshow
63.375000 0.000000 m /r glyphshow
68.308594 0.000000 m /e glyphshow
grestore
1.000 setlinewidth
0 setlinejoin
gsave
1413.331875 91.3572 m
1548 91.3572 l
1548 157.917825 l
1413.331875 157.917825 l
cl
gsave
1.000 setgray
fill
grestore
stroke
grestore
1 setlinejoin
2 setlinecap
0.000 0.500 0.000 setrgbcolor
gsave
1423.411875 146.5572 m
1443.571875 146.5572 l
stroke
grestore
0.000 setgray
/BitstreamVeraSans-Roman findfont
14.400 scalefont
setfont
gsave
1459.411875 141.517200 translate
0.000000 rotate
0.000000 0.000000 m /e glyphshow
8.843994 0.000000 m /x glyphshow
17.351074 0.000000 m /p glyphshow
26.475830 0.000000 m /e glyphshow
35.319824 0.000000 m /r glyphshow
41.229858 0.000000 m /i glyphshow
45.223694 0.000000 m /m glyphshow
59.226685 0.000000 m /e glyphshow
68.070679 0.000000 m /n glyphshow
77.181396 0.000000 m /t glyphshow
grestore
1.000 0.000 0.000 setrgbcolor
gsave
1423.411875 125.810325 m
1443.571875 125.810325 l
stroke
grestore
0.000 setgray
gsave
1459.411875 120.770325 translate
0.000000 rotate
0.000000 0.000000 m /t glyphshow
5.636292 0.000000 m /h glyphshow
14.747009 0.000000 m /e glyphshow
23.591003 0.000000 m /o glyphshow
32.385864 0.000000 m /r glyphshow
38.295898 0.000000 m /y glyphshow
grestore
0.500 setlinewidth
0 setlinecap
0.000 0.000 1.000 setrgbcolor
gsave
/o {
gsave
newpath
translate
0.5 setlinewidth
1 setlinejoin
0 setlinecap
-3 0 m
3 0 l
0 -3 m
0 3 l

gsave
0.000 0.000 1.000 setrgbcolor
fill
grestore
stroke
grestore
} bind def
1423.41 105.063 o
1443.57 105.063 o
grestore
0.000 setgray
gsave
1459.411875 100.023450 translate
0.000000 rotate
0.000000 0.000000 m /r glyphshow
5.910034 0.000000 m /e glyphshow
14.754028 0.000000 m /s glyphshow
22.243347 0.000000 m /i glyphshow
26.237183 0.000000 m /d glyphshow
35.361938 0.000000 m /u glyphshow
44.472656 0.000000 m /a glyphshow
53.281555 0.000000 m /l glyphshow
57.275391 0.000000 m /s glyphshow
grestore

end
showpage
