%!PS-Adobe-3.0 EPSF-3.0
%%DocumentNeededResources: font Helvetica
%%+ font Helvetica-Bold
%%+ font Helvetica-Oblique
%%+ font Helvetica-BoldOblique
%%+ font Symbol
%%Title: R Graphics Output
%%Creator: R Software
%%Pages: (atend)
%%BoundingBox: 0 0 341 347
%%EndComments
%%BeginProlog
/bp  { gs sRGB gs } def
% begin .ps.prolog
/gs  { gsave } bind def
/gr  { grestore } bind def
/ep  { showpage gr gr } bind def
/m   { moveto } bind def
/l  { rlineto } bind def
/np  { newpath } bind def
/cp  { closepath } bind def
/f   { fill } bind def
/o   { stroke } bind def
/c   { newpath 0 360 arc } bind def
/r   { 4 2 roll moveto 1 copy 3 -1 roll exch 0 exch rlineto 0 rlineto -1 mul 0 exch rlineto closepath } bind def
/p1  { stroke } bind def
/p2  { gsave bg fill grestore newpath } bind def
/p3  { gsave bg fill grestore stroke } bind def
/p6  { gsave bg eofill grestore newpath } bind def
/p7  { gsave bg eofill grestore stroke } bind def
/t   { 5 -2 roll moveto gsave rotate
       1 index stringwidth pop
       mul neg 0 rmoveto show grestore } bind def
/ta  { 4 -2 roll moveto gsave rotate show } bind def
/tb  { 2 -1 roll 0 rmoveto show } bind def
/cl  { grestore gsave newpath 3 index 3 index moveto 1 index
       4 -1 roll lineto  exch 1 index lineto lineto
       closepath clip newpath } bind def
/rgb { setrgbcolor } bind def
/s   { scalefont setfont } bind def
% end   .ps.prolog
/sRGB { [ /CIEBasedABC
          << /DecodeLMN
               [ { dup 0.03928 le
                        {12.92321 div}
                        {0.055 add 1.055 div 2.4 exp }
                     ifelse
                 } bind dup dup
               ]
             /MatrixLMN [0.412457 0.212673 0.019334
                         0.357576 0.715152 0.119192
                         0.180437 0.072175 0.950301]
             /WhitePoint [0.9505 1.0 1.0890]
           >>
         ] setcolorspace } bind def
/srgb { setcolor } bind def
% begin encoding
/WinAnsiEncoding [
 /.notdef /.notdef /.notdef /.notdef /.notdef /.notdef /.notdef /.notdef
 /.notdef /.notdef /.notdef /.notdef /.notdef /.notdef /.notdef /.notdef
 /.notdef /.notdef /.notdef /.notdef /.notdef /.notdef /.notdef /.notdef
 /.notdef /.notdef /.notdef /.notdef /.notdef /.notdef /.notdef /.notdef
 /space /exclam /quotedbl /numbersign /dollar /percent /ampersand /quoteright
 /parenleft /parenright /asterisk /plus /comma /minus /period /slash
 /zero /one /two /three /four /five /six /seven
 /eight /nine /colon /semicolon /less /equal /greater /question
 /at /A /B /C /D /E /F /G
 /H /I /J /K /L /M /N /O
 /P /Q /R /S /T /U /V /W
 /X /Y /Z /bracketleft /backslash /bracketright /asciicircum /underscore
 /grave /a /b /c /d /e /f /g
 /h /i /j /k /l /m /n /o
 /p /q /r /s /t /u /v /w
 /x /y /z /braceleft /bar /braceright /asciitilde /.notdef
 /Euro /.notdef /quotesinglbase /florin /quotedblbase /ellipsis /dagger /daggerdbl
 /circumflex /perthousand /Scaron /guilsinglleft /OE /.notdef /Zcaron /.notdef
 /.notdef /quoteleft /quoteright /quotedblleft /quotedblright /bullet /endash /emdash
 /tilde /trademark /scaron /guilsinglright /oe /.notdef /zcaron /Ydieresis
 /space /exclamdown /cent /sterling /currency /yen /brokenbar /section
 /dieresis /copyright /ordfeminine /guillemotleft /logicalnot /hyphen /registered /macron
 /degree /plusminus /twosuperior /threesuperior /acute /mu /paragraph /periodcentered
 /cedilla /onesuperior /ordmasculine /guillemotright /onequarter /onehalf /threequarters /questiondown
 /Agrave /Aacute /Acircumflex /Atilde /Adieresis /Aring /AE /Ccedilla
 /Egrave /Eacute /Ecircumflex /Edieresis /Igrave /Iacute /Icircumflex /Idieresis
 /Eth /Ntilde /Ograve /Oacute /Ocircumflex /Otilde /Odieresis /multiply
 /Oslash /Ugrave /Uacute /Ucircumflex /Udieresis /Yacute /Thorn /germandbls
 /agrave /aacute /acircumflex /atilde /adieresis /aring /ae /ccedilla
 /egrave /eacute /ecircumflex /edieresis /igrave /iacute /icircumflex /idieresis
 /eth /ntilde /ograve /oacute /ocircumflex /otilde /odieresis /divide
 /oslash /ugrave /uacute /ucircumflex /udieresis /yacute /thorn /ydieresis
]
 def
% end encoding
%%IncludeResource: font Helvetica
/Helvetica findfont
dup length dict begin
  {1 index /FID ne {def} {pop pop} ifelse} forall
  /Encoding WinAnsiEncoding def
  currentdict
  end
/Font1 exch definefont pop
%%IncludeResource: font Helvetica-Bold
/Helvetica-Bold findfont
dup length dict begin
  {1 index /FID ne {def} {pop pop} ifelse} forall
  /Encoding WinAnsiEncoding def
  currentdict
  end
/Font2 exch definefont pop
%%IncludeResource: font Helvetica-Oblique
/Helvetica-Oblique findfont
dup length dict begin
  {1 index /FID ne {def} {pop pop} ifelse} forall
  /Encoding WinAnsiEncoding def
  currentdict
  end
/Font3 exch definefont pop
%%IncludeResource: font Helvetica-BoldOblique
/Helvetica-BoldOblique findfont
dup length dict begin
  {1 index /FID ne {def} {pop pop} ifelse} forall
  /Encoding WinAnsiEncoding def
  currentdict
  end
/Font4 exch definefont pop
%%IncludeResource: font Symbol
/Symbol findfont
dup length dict begin
  {1 index /FID ne {def} {pop pop} ifelse} forall
  currentdict
  end
/Font5 exch definefont pop
%%EndProlog
%%Page: 1 1
bp
/bg { 1 1 1 srgb } def
0.00 0.00 341.25 346.50 r p2
59.04 73.44 311.01 287.46 cl
59.04 73.44 311.01 287.46 cl
1 0 0 srgb
0.75 setlinewidth
[] 0 setdash
1 setlinecap
1 setlinejoin
10.00 setmiterlimit
np
68.37 81.36 m
0 0.01 l
o
np
68.84 81.36 m
0 0.01 l
o
np
69.31 81.36 m
0 0.01 l
o
np
69.77 81.36 m
0 0.01 l
o
np
70.24 81.36 m
0 0.01 l
o
np
70.71 81.36 m
0 0.01 l
o
np
71.18 81.36 m
0 0.01 l
o
np
71.65 81.36 m
0 0.01 l
o
np
72.11 81.36 m
0 0.01 l
o
np
72.58 81.36 m
0 0.02 l
o
np
73.05 81.36 m
0 0.02 l
o
np
73.52 81.36 m
0 0.02 l
o
np
73.98 81.36 m
0 0.02 l
o
np
74.45 81.36 m
0 0.02 l
o
np
74.92 81.36 m
0 0.02 l
o
np
75.39 81.36 m
0 0.03 l
o
np
75.85 81.36 m
0 0.03 l
o
np
76.32 81.36 m
0 0.03 l
o
np
76.79 81.36 m
0 0.03 l
o
np
77.26 81.36 m
0 0.04 l
o
np
77.72 81.36 m
0 0.04 l
o
np
78.19 81.36 m
0 0.04 l
o
np
78.66 81.36 m
0 0.05 l
o
np
79.13 81.36 m
0 0.05 l
o
np
79.59 81.36 m
0 0.05 l
o
np
80.06 81.36 m
0 0.06 l
o
np
80.53 81.36 m
0 0.06 l
o
np
81.00 81.36 m
0 0.07 l
o
np
81.46 81.36 m
0 0.07 l
o
np
81.93 81.36 m
0 0.08 l
o
np
82.40 81.36 m
0 0.08 l
o
np
82.87 81.36 m
0 0.09 l
o
np
83.33 81.36 m
0 0.10 l
o
np
83.80 81.36 m
0 0.10 l
o
np
84.27 81.36 m
0 0.11 l
o
np
84.74 81.36 m
0 0.12 l
o
np
85.20 81.36 m
0 0.13 l
o
np
85.67 81.36 m
0 0.14 l
o
np
86.14 81.36 m
0 0.15 l
o
np
86.61 81.36 m
0 0.16 l
o
np
87.07 81.36 m
0 0.17 l
o
np
87.54 81.36 m
0 0.18 l
o
np
88.01 81.36 m
0 0.19 l
o
np
88.48 81.36 m
0 0.21 l
o
np
88.94 81.36 m
0 0.22 l
o
np
89.41 81.36 m
0 0.24 l
o
np
89.88 81.36 m
0 0.25 l
o
np
90.35 81.36 m
0 0.27 l
o
np
90.81 81.36 m
0 0.29 l
o
np
91.28 81.36 m
0 0.31 l
o
np
91.75 81.36 m
0 0.33 l
o
np
92.22 81.36 m
0 0.35 l
o
np
92.68 81.36 m
0 0.37 l
o
np
93.15 81.36 m
0 0.40 l
o
np
93.62 81.36 m
0 0.42 l
o
np
94.09 81.36 m
0 0.45 l
o
np
94.55 81.36 m
0 0.48 l
o
np
95.02 81.36 m
0 0.51 l
o
np
95.49 81.36 m
0 0.55 l
o
np
95.96 81.36 m
0 0.58 l
o
np
96.42 81.36 m
0 0.62 l
o
np
96.89 81.36 m
0 0.66 l
o
np
97.36 81.36 m
0 0.70 l
o
np
97.83 81.36 m
0 0.74 l
o
np
98.30 81.36 m
0 0.79 l
o
np
98.76 81.36 m
0 0.83 l
o
np
99.23 81.36 m
0 0.88 l
o
np
99.70 81.36 m
0 0.94 l
o
np
100.17 81.36 m
0 0.99 l
o
np
100.63 81.36 m
0 1.05 l
o
np
101.10 81.36 m
0 1.12 l
o
np
101.57 81.36 m
0 1.18 l
o
np
102.04 81.36 m
0 1.25 l
o
np
102.50 81.36 m
0 1.33 l
o
np
102.97 81.36 m
0 1.40 l
o
np
103.44 81.36 m
0 1.49 l
o
np
103.91 81.36 m
0 1.57 l
o
np
104.37 81.36 m
0 1.66 l
o
np
104.84 81.36 m
0 1.76 l
o
np
105.31 81.36 m
0 1.86 l
o
np
105.78 81.36 m
0 1.96 l
o
np
106.24 81.36 m
0 2.07 l
o
np
106.71 81.36 m
0 2.18 l
o
np
107.18 81.36 m
0 2.30 l
o
np
107.65 81.36 m
0 2.43 l
o
np
108.11 81.36 m
0 2.56 l
o
np
108.58 81.36 m
0 2.70 l
o
np
109.05 81.36 m
0 2.85 l
o
np
109.52 81.36 m
0 3.00 l
o
np
109.98 81.36 m
0 3.16 l
o
np
110.45 81.36 m
0 3.33 l
o
np
110.92 81.36 m
0 3.50 l
o
np
111.39 81.36 m
0 3.68 l
o
np
111.85 81.36 m
0 3.87 l
o
np
112.32 81.36 m
0 4.07 l
o
np
112.79 81.36 m
0 4.28 l
o
np
113.26 81.36 m
0 4.50 l
o
np
113.72 81.36 m
0 4.72 l
o
np
114.19 81.36 m
0 4.96 l
o
np
114.66 81.36 m
0 5.21 l
o
np
115.13 81.36 m
0 5.47 l
o
np
115.59 81.36 m
0 5.73 l
o
np
116.06 81.36 m
0 6.01 l
o
np
116.53 81.36 m
0 6.30 l
o
np
117.00 81.36 m
0 6.61 l
o
np
117.46 81.36 m
0 6.92 l
o
np
117.93 81.36 m
0 7.25 l
o
np
118.40 81.36 m
0 7.59 l
o
np
118.87 81.36 m
0 7.94 l
o
np
119.33 81.36 m
0 8.31 l
o
np
119.80 81.36 m
0 8.70 l
o
np
120.27 81.36 m
0 9.09 l
o
np
120.74 81.36 m
0 9.50 l
o
np
121.20 81.36 m
0 9.93 l
o
np
121.67 81.36 m
0 10.38 l
o
np
122.14 81.36 m
0 10.84 l
o
np
122.61 81.36 m
0 11.31 l
o
np
123.08 81.36 m
0 11.81 l
o
np
123.54 81.36 m
0 12.32 l
o
np
124.01 81.36 m
0 12.85 l
o
np
124.48 81.36 m
0 13.40 l
o
np
124.95 81.36 m
0 13.96 l
o
np
125.41 81.36 m
0 14.55 l
o
np
125.88 81.36 m
0 15.16 l
o
np
126.35 81.36 m
0 15.78 l
o
np
126.82 81.36 m
0 16.43 l
o
np
127.28 81.36 m
0 17.10 l
o
np
127.75 81.36 m
0 17.79 l
o
np
128.22 81.36 m
0 18.50 l
o
np
128.69 81.36 m
0 19.23 l
o
np
129.15 81.36 m
0 19.99 l
o
np
129.62 81.36 m
0 20.77 l
o
np
130.09 81.36 m
0 21.57 l
o
np
130.56 81.36 m
0 22.39 l
o
np
131.02 81.36 m
0 23.25 l
o
np
131.49 81.36 m
0 24.12 l
o
np
131.96 81.36 m
0 25.02 l
o
np
132.43 81.36 m
0 25.95 l
o
np
132.89 81.36 m
0 26.90 l
o
np
133.36 81.36 m
0 27.87 l
o
np
133.83 81.36 m
0 28.88 l
o
np
134.30 81.36 m
0 29.90 l
o
np
134.76 81.36 m
0 30.96 l
o
np
135.23 81.36 m
0 32.04 l
o
np
135.70 81.36 m
0 33.15 l
o
np
136.17 81.36 m
0 34.29 l
o
np
136.63 81.36 m
0 35.46 l
o
np
137.10 81.36 m
0 36.65 l
o
np
137.57 81.36 m
0 37.87 l
o
np
138.04 81.36 m
0 39.12 l
o
np
138.50 81.36 m
0 40.40 l
o
np
138.97 81.36 m
0 41.70 l
o
np
139.44 81.36 m
0 43.04 l
o
np
139.91 81.36 m
0 44.40 l
o
np
140.37 81.36 m
0 45.79 l
o
np
140.84 81.36 m
0 47.21 l
o
np
141.31 81.36 m
0 48.66 l
o
np
141.78 81.36 m
0 50.13 l
o
np
142.24 81.36 m
0 51.64 l
o
np
142.71 81.36 m
0 53.17 l
o
np
143.18 81.36 m
0 54.73 l
o
np
143.65 81.36 m
0 56.32 l
o
np
144.11 81.36 m
0 57.93 l
o
np
144.58 81.36 m
0 59.57 l
o
np
145.05 81.36 m
0 61.24 l
o
np
145.52 81.36 m
0 62.94 l
o
np
145.98 81.36 m
0 64.66 l
o
np
146.45 81.36 m
0 66.41 l
o
np
146.92 81.36 m
0 68.18 l
o
np
147.39 81.36 m
0 69.98 l
o
np
147.85 81.36 m
0 71.80 l
o
np
148.32 81.36 m
0 73.64 l
o
np
148.79 81.36 m
0 75.51 l
o
np
149.26 81.36 m
0 77.40 l
o
np
149.73 81.36 m
0 79.32 l
o
np
150.19 81.36 m
0 81.25 l
o
np
150.66 81.36 m
0 83.21 l
o
np
151.13 81.36 m
0 85.18 l
o
np
151.60 81.36 m
0 87.18 l
o
np
152.06 81.36 m
0 89.19 l
o
np
152.53 81.36 m
0 91.22 l
o
np
153.00 81.36 m
0 93.26 l
o
np
153.47 81.36 m
0 95.32 l
o
np
153.93 81.36 m
0 97.39 l
o
np
154.40 81.36 m
0 99.48 l
o
np
154.87 81.36 m
0 101.58 l
o
np
155.34 81.36 m
0 103.69 l
o
np
155.80 81.36 m
0 105.81 l
o
np
156.27 81.36 m
0 107.94 l
o
np
156.74 81.36 m
0 110.08 l
o
np
157.21 81.36 m
0 112.22 l
o
np
157.67 81.36 m
0 114.37 l
o
np
158.14 81.36 m
0 116.52 l
o
np
158.61 81.36 m
0 118.67 l
o
np
159.08 81.36 m
0 120.83 l
o
np
159.54 81.36 m
0 122.98 l
o
np
160.01 81.36 m
0 125.13 l
o
np
160.48 81.36 m
0 127.28 l
o
np
160.95 81.36 m
0 129.43 l
o
np
161.41 81.36 m
0 131.56 l
o
np
161.88 81.36 m
0 133.70 l
o
np
162.35 81.36 m
0 135.82 l
o
np
162.82 81.36 m
0 137.93 l
o
np
163.28 81.36 m
0 140.03 l
o
np
163.75 81.36 m
0 142.11 l
o
np
164.22 81.36 m
0 144.18 l
o
np
164.69 81.36 m
0 146.23 l
o
np
165.15 81.36 m
0 148.27 l
o
np
165.62 81.36 m
0 150.28 l
o
np
166.09 81.36 m
0 152.27 l
o
np
166.56 81.36 m
0 154.24 l
o
np
167.02 81.36 m
0 156.19 l
o
np
167.49 81.36 m
0 158.11 l
o
np
167.96 81.36 m
0 160.00 l
o
np
168.43 81.36 m
0 161.86 l
o
np
168.89 81.36 m
0 163.69 l
o
np
169.36 81.36 m
0 165.49 l
o
np
169.83 81.36 m
0 167.25 l
o
np
170.30 81.36 m
0 168.98 l
o
np
170.76 81.36 m
0 170.67 l
o
np
171.23 81.36 m
0 172.32 l
o
np
171.70 81.36 m
0 173.94 l
o
np
172.17 81.36 m
0 175.51 l
o
np
172.63 81.36 m
0 177.04 l
o
np
173.10 81.36 m
0 178.52 l
o
np
173.57 81.36 m
0 179.96 l
o
np
174.04 81.36 m
0 181.36 l
o
np
174.51 81.36 m
0 182.70 l
o
np
174.97 81.36 m
0 184.00 l
o
np
175.44 81.36 m
0 185.24 l
o
np
175.91 81.36 m
0 186.44 l
o
np
176.38 81.36 m
0 187.58 l
o
np
176.84 81.36 m
0 188.67 l
o
np
177.31 81.36 m
0 189.70 l
o
np
177.78 81.36 m
0 190.68 l
o
np
178.25 81.36 m
0 191.60 l
o
np
178.71 81.36 m
0 192.46 l
o
np
179.18 81.36 m
0 193.27 l
o
np
179.65 81.36 m
0 194.02 l
o
np
180.12 81.36 m
0 194.70 l
o
np
180.58 81.36 m
0 195.33 l
o
np
181.05 81.36 m
0 195.89 l
o
np
181.52 81.36 m
0 196.40 l
o
np
181.99 81.36 m
0 196.84 l
o
np
182.45 81.36 m
0 197.22 l
o
np
182.92 81.36 m
0 197.54 l
o
np
183.39 81.36 m
0 197.79 l
o
np
183.86 81.36 m
0 197.98 l
o
np
184.32 81.36 m
0 198.11 l
o
np
184.79 81.36 m
0 198.17 l
o
np
185.26 81.36 m
0 198.17 l
o
np
185.73 81.36 m
0 198.11 l
o
np
186.19 81.36 m
0 197.98 l
o
np
186.66 81.36 m
0 197.79 l
o
np
187.13 81.36 m
0 197.54 l
o
np
187.60 81.36 m
0 197.22 l
o
np
188.06 81.36 m
0 196.84 l
o
np
188.53 81.36 m
0 196.40 l
o
np
189.00 81.36 m
0 195.89 l
o
np
189.47 81.36 m
0 195.33 l
o
np
189.93 81.36 m
0 194.70 l
o
np
190.40 81.36 m
0 194.02 l
o
np
190.87 81.36 m
0 193.27 l
o
np
191.34 81.36 m
0 192.46 l
o
np
191.80 81.36 m
0 191.60 l
o
np
192.27 81.36 m
0 190.68 l
o
np
192.74 81.36 m
0 189.70 l
o
np
193.21 81.36 m
0 188.67 l
o
np
193.67 81.36 m
0 187.58 l
o
np
194.14 81.36 m
0 186.44 l
o
np
194.61 81.36 m
0 185.24 l
o
np
195.08 81.36 m
0 184.00 l
o
np
195.54 81.36 m
0 182.70 l
o
np
196.01 81.36 m
0 181.36 l
o
np
196.48 81.36 m
0 179.96 l
o
np
196.95 81.36 m
0 178.52 l
o
np
197.41 81.36 m
0 177.04 l
o
np
197.88 81.36 m
0 175.51 l
o
np
198.35 81.36 m
0 173.94 l
o
np
198.82 81.36 m
0 172.32 l
o
np
199.29 81.36 m
0 170.67 l
o
np
199.75 81.36 m
0 168.98 l
o
np
200.22 81.36 m
0 167.25 l
o
np
200.69 81.36 m
0 165.49 l
o
np
201.16 81.36 m
0 163.69 l
o
np
201.62 81.36 m
0 161.86 l
o
np
202.09 81.36 m
0 160.00 l
o
np
202.56 81.36 m
0 158.11 l
o
np
203.03 81.36 m
0 156.19 l
o
np
203.49 81.36 m
0 154.24 l
o
np
203.96 81.36 m
0 152.27 l
o
np
204.43 81.36 m
0 150.28 l
o
np
204.90 81.36 m
0 148.27 l
o
np
205.36 81.36 m
0 146.23 l
o
np
205.83 81.36 m
0 144.18 l
o
np
206.30 81.36 m
0 142.11 l
o
np
206.77 81.36 m
0 140.03 l
o
np
207.23 81.36 m
0 137.93 l
o
np
207.70 81.36 m
0 135.82 l
o
np
208.17 81.36 m
0 133.70 l
o
np
208.64 81.36 m
0 131.56 l
o
np
209.10 81.36 m
0 129.43 l
o
np
209.57 81.36 m
0 127.28 l
o
np
210.04 81.36 m
0 125.13 l
o
np
210.51 81.36 m
0 122.98 l
o
np
210.97 81.36 m
0 120.83 l
o
np
211.44 81.36 m
0 118.67 l
o
np
211.91 81.36 m
0 116.52 l
o
np
212.38 81.36 m
0 114.37 l
o
np
212.84 81.36 m
0 112.22 l
o
np
213.31 81.36 m
0 110.08 l
o
np
213.78 81.36 m
0 107.94 l
o
np
214.25 81.36 m
0 105.81 l
o
np
214.71 81.36 m
0 103.69 l
o
np
215.18 81.36 m
0 101.58 l
o
np
215.65 81.36 m
0 99.48 l
o
np
216.12 81.36 m
0 97.39 l
o
np
216.58 81.36 m
0 95.32 l
o
np
217.05 81.36 m
0 93.26 l
o
np
217.52 81.36 m
0 91.22 l
o
np
217.99 81.36 m
0 89.19 l
o
np
218.45 81.36 m
0 87.18 l
o
np
218.92 81.36 m
0 85.18 l
o
np
219.39 81.36 m
0 83.21 l
o
np
219.86 81.36 m
0 81.25 l
o
np
220.32 81.36 m
0 79.32 l
o
np
220.79 81.36 m
0 77.40 l
o
np
221.26 81.36 m
0 75.51 l
o
np
221.73 81.36 m
0 73.64 l
o
np
222.19 81.36 m
0 71.80 l
o
np
222.66 81.36 m
0 69.98 l
o
np
223.13 81.36 m
0 68.18 l
o
np
223.60 81.36 m
0 66.41 l
o
np
224.06 81.36 m
0 64.66 l
o
np
224.53 81.36 m
0 62.94 l
o
np
225.00 81.36 m
0 61.24 l
o
np
225.47 81.36 m
0 59.57 l
o
np
225.94 81.36 m
0 57.93 l
o
np
226.40 81.36 m
0 56.32 l
o
np
226.87 81.36 m
0 54.73 l
o
np
227.34 81.36 m
0 53.17 l
o
np
227.81 81.36 m
0 51.64 l
o
np
228.27 81.36 m
0 50.13 l
o
np
228.74 81.36 m
0 48.66 l
o
np
229.21 81.36 m
0 47.21 l
o
np
229.68 81.36 m
0 45.79 l
o
np
230.14 81.36 m
0 44.40 l
o
np
230.61 81.36 m
0 43.04 l
o
np
231.08 81.36 m
0 41.70 l
o
np
231.55 81.36 m
0 40.40 l
o
np
232.01 81.36 m
0 39.12 l
o
np
232.48 81.36 m
0 37.87 l
o
np
232.95 81.36 m
0 36.65 l
o
np
233.42 81.36 m
0 35.46 l
o
np
233.88 81.36 m
0 34.29 l
o
np
234.35 81.36 m
0 33.15 l
o
np
234.82 81.36 m
0 32.04 l
o
np
235.29 81.36 m
0 30.96 l
o
np
235.75 81.36 m
0 29.90 l
o
np
236.22 81.36 m
0 28.88 l
o
np
236.69 81.36 m
0 27.87 l
o
np
237.16 81.36 m
0 26.90 l
o
np
237.62 81.36 m
0 25.95 l
o
np
238.09 81.36 m
0 25.02 l
o
np
238.56 81.36 m
0 24.12 l
o
np
239.03 81.36 m
0 23.25 l
o
np
239.49 81.36 m
0 22.39 l
o
np
239.96 81.36 m
0 21.57 l
o
np
240.43 81.36 m
0 20.77 l
o
np
240.90 81.36 m
0 19.99 l
o
np
241.36 81.36 m
0 19.23 l
o
np
241.83 81.36 m
0 18.50 l
o
np
242.30 81.36 m
0 17.79 l
o
np
242.77 81.36 m
0 17.10 l
o
np
243.23 81.36 m
0 16.43 l
o
np
243.70 81.36 m
0 15.78 l
o
np
244.17 81.36 m
0 15.16 l
o
np
244.64 81.36 m
0 14.55 l
o
np
245.10 81.36 m
0 13.96 l
o
np
245.57 81.36 m
0 13.40 l
o
np
246.04 81.36 m
0 12.85 l
o
np
246.51 81.36 m
0 12.32 l
o
np
246.97 81.36 m
0 11.81 l
o
np
247.44 81.36 m
0 11.31 l
o
np
247.91 81.36 m
0 10.84 l
o
np
248.38 81.36 m
0 10.38 l
o
np
248.84 81.36 m
0 9.93 l
o
np
249.31 81.36 m
0 9.50 l
o
np
249.78 81.36 m
0 9.09 l
o
np
250.25 81.36 m
0 8.70 l
o
np
250.72 81.36 m
0 8.31 l
o
np
251.18 81.36 m
0 7.94 l
o
np
251.65 81.36 m
0 7.59 l
o
np
252.12 81.36 m
0 7.25 l
o
np
252.59 81.36 m
0 6.92 l
o
np
253.05 81.36 m
0 6.61 l
o
np
253.52 81.36 m
0 6.30 l
o
np
253.99 81.36 m
0 6.01 l
o
np
254.46 81.36 m
0 5.73 l
o
np
254.92 81.36 m
0 5.47 l
o
np
255.39 81.36 m
0 5.21 l
o
np
255.86 81.36 m
0 4.96 l
o
np
256.33 81.36 m
0 4.72 l
o
np
256.79 81.36 m
0 4.50 l
o
np
257.26 81.36 m
0 4.28 l
o
np
257.73 81.36 m
0 4.07 l
o
np
258.20 81.36 m
0 3.87 l
o
np
258.66 81.36 m
0 3.68 l
o
np
259.13 81.36 m
0 3.50 l
o
np
259.60 81.36 m
0 3.33 l
o
np
260.07 81.36 m
0 3.16 l
o
np
260.53 81.36 m
0 3.00 l
o
np
261.00 81.36 m
0 2.85 l
o
np
261.47 81.36 m
0 2.70 l
o
np
261.94 81.36 m
0 2.56 l
o
np
262.40 81.36 m
0 2.43 l
o
np
262.87 81.36 m
0 2.30 l
o
np
263.34 81.36 m
0 2.18 l
o
np
263.81 81.36 m
0 2.07 l
o
np
264.27 81.36 m
0 1.96 l
o
np
264.74 81.36 m
0 1.86 l
o
np
265.21 81.36 m
0 1.76 l
o
np
265.68 81.36 m
0 1.66 l
o
np
266.14 81.36 m
0 1.57 l
o
np
266.61 81.36 m
0 1.49 l
o
np
267.08 81.36 m
0 1.40 l
o
np
267.55 81.36 m
0 1.33 l
o
np
268.01 81.36 m
0 1.25 l
o
np
268.48 81.36 m
0 1.18 l
o
np
268.95 81.36 m
0 1.12 l
o
np
269.42 81.36 m
0 1.05 l
o
np
269.88 81.36 m
0 0.99 l
o
np
270.35 81.36 m
0 0.94 l
o
np
270.82 81.36 m
0 0.88 l
o
np
271.29 81.36 m
0 0.83 l
o
np
271.75 81.36 m
0 0.79 l
o
np
272.22 81.36 m
0 0.74 l
o
np
272.69 81.36 m
0 0.70 l
o
np
273.16 81.36 m
0 0.66 l
o
np
273.62 81.36 m
0 0.62 l
o
np
274.09 81.36 m
0 0.58 l
o
np
274.56 81.36 m
0 0.55 l
o
np
275.03 81.36 m
0 0.51 l
o
np
275.49 81.36 m
0 0.48 l
o
np
275.96 81.36 m
0 0.45 l
o
np
276.43 81.36 m
0 0.42 l
o
np
276.90 81.36 m
0 0.40 l
o
np
277.37 81.36 m
0 0.37 l
o
np
277.83 81.36 m
0 0.35 l
o
np
278.30 81.36 m
0 0.33 l
o
np
278.77 81.36 m
0 0.31 l
o
np
279.24 81.36 m
0 0.29 l
o
np
279.70 81.36 m
0 0.27 l
o
np
280.17 81.36 m
0 0.25 l
o
np
280.64 81.36 m
0 0.24 l
o
np
281.11 81.36 m
0 0.22 l
o
np
281.57 81.36 m
0 0.21 l
o
np
282.04 81.36 m
0 0.19 l
o
np
282.51 81.36 m
0 0.18 l
o
np
282.98 81.36 m
0 0.17 l
o
np
283.44 81.36 m
0 0.16 l
o
np
283.91 81.36 m
0 0.15 l
o
np
284.38 81.36 m
0 0.14 l
o
np
284.85 81.36 m
0 0.13 l
o
np
285.31 81.36 m
0 0.12 l
o
np
285.78 81.36 m
0 0.11 l
o
np
286.25 81.36 m
0 0.10 l
o
np
286.72 81.36 m
0 0.10 l
o
np
287.18 81.36 m
0 0.09 l
o
np
287.65 81.36 m
0 0.08 l
o
np
288.12 81.36 m
0 0.08 l
o
np
288.59 81.36 m
0 0.07 l
o
np
289.05 81.36 m
0 0.07 l
o
np
289.52 81.36 m
0 0.06 l
o
np
289.99 81.36 m
0 0.06 l
o
np
290.46 81.36 m
0 0.05 l
o
np
290.92 81.36 m
0 0.05 l
o
np
291.39 81.36 m
0 0.05 l
o
np
291.86 81.36 m
0 0.04 l
o
np
292.33 81.36 m
0 0.04 l
o
np
292.79 81.36 m
0 0.04 l
o
np
293.26 81.36 m
0 0.03 l
o
np
293.73 81.36 m
0 0.03 l
o
np
294.20 81.36 m
0 0.03 l
o
np
294.66 81.36 m
0 0.03 l
o
np
295.13 81.36 m
0 0.02 l
o
np
295.60 81.36 m
0 0.02 l
o
np
296.07 81.36 m
0 0.02 l
o
np
296.53 81.36 m
0 0.02 l
o
np
297.00 81.36 m
0 0.02 l
o
np
297.47 81.36 m
0 0.02 l
o
np
297.94 81.36 m
0 0.01 l
o
np
298.40 81.36 m
0 0.01 l
o
np
298.87 81.36 m
0 0.01 l
o
np
299.34 81.36 m
0 0.01 l
o
np
299.81 81.36 m
0 0.01 l
o
np
300.27 81.36 m
0 0.01 l
o
np
300.74 81.36 m
0 0.01 l
o
np
301.21 81.36 m
0 0.01 l
o
np
301.68 81.36 m
0 0.01 l
o
0.00 0.00 341.25 346.50 cl
0 0 0 srgb
0.75 setlinewidth
[] 0 setdash
1 setlinecap
1 setlinejoin
10.00 setmiterlimit
np
68.37 73.44 m
233.31 0 l
o
np
68.37 73.44 m
0 -7.20 l
o
np
126.70 73.44 m
0 -7.20 l
o
np
185.02 73.44 m
0 -7.20 l
o
np
243.35 73.44 m
0 -7.20 l
o
np
301.68 73.44 m
0 -7.20 l
o
/Font1 findfont 12 s
68.37 47.52 (-1.0) .5 0 t
126.70 47.52 (-0.5) .5 0 t
185.02 47.52 (0.0) .5 0 t
243.35 47.52 (0.5) .5 0 t
301.68 47.52 (1.0) .5 0 t
np
59.04 81.36 m
0 198.18 l
o
np
59.04 81.36 m
-7.20 0 l
o
np
59.04 120.99 m
-7.20 0 l
o
np
59.04 160.63 m
-7.20 0 l
o
np
59.04 200.27 m
-7.20 0 l
o
np
59.04 239.90 m
-7.20 0 l
o
np
59.04 279.54 m
-7.20 0 l
o
41.76 81.36 (0.0) .5 90 t
41.76 120.99 (0.2) .5 90 t
41.76 160.63 (0.4) .5 90 t
41.76 200.27 (0.6) .5 90 t
41.76 239.90 (0.8) .5 90 t
41.76 279.54 (1.0) .5 90 t
np
59.04 73.44 m
251.97 0 l
0 214.02 l
-251.97 0 l
0 -214.02 l
o
0.00 0.00 341.25 346.50 cl
/Font1 findfont 12 s
0 0 0 srgb
185.02 18.72 (r/R) .5 0 t
12.96 180.45 (f\(r\)) .5 90 t
ep
%%Trailer
%%Pages: 1
%%EOF
