%!PS-Adobe-3.0 EPSF-3.0
%%DocumentNeededResources: font Helvetica
%%+ font Helvetica-Bold
%%+ font Helvetica-Oblique
%%+ font Helvetica-BoldOblique
%%+ font Symbol
%%Title: R Graphics Output
%%Creator: R Software
%%Pages: (atend)
%%BoundingBox: 0 0 413 413
%%EndComments
%%BeginProlog
/bp  { gs sRGB gs } def
% begin .ps.prolog
/gs  { gsave } bind def
/gr  { grestore } bind def
/ep  { showpage gr gr } bind def
/m   { moveto } bind def
/l  { rlineto } bind def
/np  { newpath } bind def
/cp  { closepath } bind def
/f   { fill } bind def
/o   { stroke } bind def
/c   { newpath 0 360 arc } bind def
/r   { 4 2 roll moveto 1 copy 3 -1 roll exch 0 exch rlineto 0 rlineto -1 mul 0 exch rlineto closepath } bind def
/p1  { stroke } bind def
/p2  { gsave bg fill grestore newpath } bind def
/p3  { gsave bg fill grestore stroke } bind def
/p6  { gsave bg eofill grestore newpath } bind def
/p7  { gsave bg eofill grestore stroke } bind def
/t   { 5 -2 roll moveto gsave rotate
       1 index stringwidth pop
       mul neg 0 rmoveto show grestore } bind def
/ta  { 4 -2 roll moveto gsave rotate show } bind def
/tb  { 2 -1 roll 0 rmoveto show } bind def
/cl  { grestore gsave newpath 3 index 3 index moveto 1 index
       4 -1 roll lineto  exch 1 index lineto lineto
       closepath clip newpath } bind def
/rgb { setrgbcolor } bind def
/s   { scalefont setfont } bind def
% end   .ps.prolog
/sRGB { [ /CIEBasedABC
          << /DecodeLMN
               [ { dup 0.03928 le
                        {12.92321 div}
                        {0.055 add 1.055 div 2.4 exp }
                     ifelse
                 } bind dup dup
               ]
             /MatrixLMN [0.412457 0.212673 0.019334
                         0.357576 0.715152 0.119192
                         0.180437 0.072175 0.950301]
             /WhitePoint [0.9505 1.0 1.0890]
           >>
         ] setcolorspace } bind def
/srgb { setcolor } bind def
% begin encoding
/WinAnsiEncoding [
 /.notdef /.notdef /.notdef /.notdef /.notdef /.notdef /.notdef /.notdef
 /.notdef /.notdef /.notdef /.notdef /.notdef /.notdef /.notdef /.notdef
 /.notdef /.notdef /.notdef /.notdef /.notdef /.notdef /.notdef /.notdef
 /.notdef /.notdef /.notdef /.notdef /.notdef /.notdef /.notdef /.notdef
 /space /exclam /quotedbl /numbersign /dollar /percent /ampersand /quoteright
 /parenleft /parenright /asterisk /plus /comma /minus /period /slash
 /zero /one /two /three /four /five /six /seven
 /eight /nine /colon /semicolon /less /equal /greater /question
 /at /A /B /C /D /E /F /G
 /H /I /J /K /L /M /N /O
 /P /Q /R /S /T /U /V /W
 /X /Y /Z /bracketleft /backslash /bracketright /asciicircum /underscore
 /grave /a /b /c /d /e /f /g
 /h /i /j /k /l /m /n /o
 /p /q /r /s /t /u /v /w
 /x /y /z /braceleft /bar /braceright /asciitilde /.notdef
 /Euro /.notdef /quotesinglbase /florin /quotedblbase /ellipsis /dagger /daggerdbl
 /circumflex /perthousand /Scaron /guilsinglleft /OE /.notdef /Zcaron /.notdef
 /.notdef /quoteleft /quoteright /quotedblleft /quotedblright /bullet /endash /emdash
 /tilde /trademark /scaron /guilsinglright /oe /.notdef /zcaron /Ydieresis
 /space /exclamdown /cent /sterling /currency /yen /brokenbar /section
 /dieresis /copyright /ordfeminine /guillemotleft /logicalnot /hyphen /registered /macron
 /degree /plusminus /twosuperior /threesuperior /acute /mu /paragraph /periodcentered
 /cedilla /onesuperior /ordmasculine /guillemotright /onequarter /onehalf /threequarters /questiondown
 /Agrave /Aacute /Acircumflex /Atilde /Adieresis /Aring /AE /Ccedilla
 /Egrave /Eacute /Ecircumflex /Edieresis /Igrave /Iacute /Icircumflex /Idieresis
 /Eth /Ntilde /Ograve /Oacute /Ocircumflex /Otilde /Odieresis /multiply
 /Oslash /Ugrave /Uacute /Ucircumflex /Udieresis /Yacute /Thorn /germandbls
 /agrave /aacute /acircumflex /atilde /adieresis /aring /ae /ccedilla
 /egrave /eacute /ecircumflex /edieresis /igrave /iacute /icircumflex /idieresis
 /eth /ntilde /ograve /oacute /ocircumflex /otilde /odieresis /divide
 /oslash /ugrave /uacute /ucircumflex /udieresis /yacute /thorn /ydieresis
]
 def
% end encoding
%%IncludeResource: font Helvetica
/Helvetica findfont
dup length dict begin
  {1 index /FID ne {def} {pop pop} ifelse} forall
  /Encoding WinAnsiEncoding def
  currentdict
  end
/Font1 exch definefont pop
%%IncludeResource: font Helvetica-Bold
/Helvetica-Bold findfont
dup length dict begin
  {1 index /FID ne {def} {pop pop} ifelse} forall
  /Encoding WinAnsiEncoding def
  currentdict
  end
/Font2 exch definefont pop
%%IncludeResource: font Helvetica-Oblique
/Helvetica-Oblique findfont
dup length dict begin
  {1 index /FID ne {def} {pop pop} ifelse} forall
  /Encoding WinAnsiEncoding def
  currentdict
  end
/Font3 exch definefont pop
%%IncludeResource: font Helvetica-BoldOblique
/Helvetica-BoldOblique findfont
dup length dict begin
  {1 index /FID ne {def} {pop pop} ifelse} forall
  /Encoding WinAnsiEncoding def
  currentdict
  end
/Font4 exch definefont pop
%%IncludeResource: font Symbol
/Symbol findfont
dup length dict begin
  {1 index /FID ne {def} {pop pop} ifelse} forall
  currentdict
  end
/Font5 exch definefont pop
%%EndProlog
%%Page: 1 1
bp
/bg { 1 1 1 srgb } def
0.00 0.00 412.50 412.50 r p2
59.04 73.44 382.26 353.46 cl
59.04 73.44 382.26 353.46 cl
0 0 0 srgb
0.75 setlinewidth
[] 0 setdash
1 setlinecap
1 setlinejoin
10.00 setmiterlimit
75.50 83.81 1.35 c p1
79.99 86.43 1.35 c p1
84.48 107.77 1.35 c p1
88.97 147.67 1.35 c p1
93.46 190.41 1.35 c p1
97.95 226.54 1.35 c p1
102.44 253.38 1.35 c p1
106.92 271.66 1.35 c p1
111.41 282.94 1.35 c p1
115.90 289.16 1.35 c p1
120.39 291.49 1.35 c p1
124.88 291.10 1.35 c p1
129.37 288.90 1.35 c p1
133.86 285.53 1.35 c p1
138.35 281.38 1.35 c p1
142.84 276.84 1.35 c p1
147.33 272.05 1.35 c p1
151.82 267.38 1.35 c p1
156.31 262.71 1.35 c p1
160.79 258.31 1.35 c p1
165.28 254.16 1.35 c p1
169.77 250.14 1.35 c p1
174.26 246.51 1.35 c p1
178.75 243.27 1.35 c p1
183.24 240.16 1.35 c p1
187.73 237.43 1.35 c p1
192.22 234.84 1.35 c p1
196.71 232.64 1.35 c p1
201.20 230.56 1.35 c p1
205.69 228.75 1.35 c p1
210.18 227.06 1.35 c p1
214.66 225.51 1.35 c p1
219.15 224.21 1.35 c p1
223.64 223.04 1.35 c p1
228.13 222.01 1.35 c p1
232.62 220.97 1.35 c p1
237.11 220.19 1.35 c p1
241.60 219.41 1.35 c p1
246.09 218.77 1.35 c p1
250.58 218.12 1.35 c p1
255.07 217.60 1.35 c p1
259.56 217.21 1.35 c p1
264.05 216.69 1.35 c p1
268.53 216.30 1.35 c p1
273.02 216.04 1.35 c p1
277.51 215.78 1.35 c p1
282.00 215.52 1.35 c p1
286.49 215.27 1.35 c p1
290.98 215.01 1.35 c p1
295.47 214.88 1.35 c p1
299.96 214.75 1.35 c p1
304.45 214.62 1.35 c p1
308.94 214.49 1.35 c p1
313.43 214.36 1.35 c p1
317.92 214.23 1.35 c p1
322.40 214.10 1.35 c p1
326.89 214.10 1.35 c p1
331.38 213.97 1.35 c p1
335.87 213.97 1.35 c p1
340.36 213.84 1.35 c p1
344.85 213.84 1.35 c p1
349.34 213.84 1.35 c p1
353.83 213.71 1.35 c p1
358.32 213.71 1.35 c p1
362.81 213.71 1.35 c p1
367.30 213.71 1.35 c p1
371.79 213.58 1.35 c p1
376.27 213.58 1.35 c p1
380.76 213.58 1.35 c p1
385.25 213.58 1.35 c p1
389.74 213.58 1.35 c p1
394.23 213.58 1.35 c p1
398.72 213.58 1.35 c p1
403.21 213.58 1.35 c p1
407.70 213.58 1.35 c p1
412.19 213.45 1.35 c p1
0.00 0.00 412.50 412.50 cl
0 0 0 srgb
0.75 setlinewidth
[] 0 setdash
1 setlinecap
1 setlinejoin
10.00 setmiterlimit
np
71.01 73.44 m
299.28 0 l
o
np
71.01 73.44 m
0 -7.20 l
o
np
130.87 73.44 m
0 -7.20 l
o
np
190.72 73.44 m
0 -7.20 l
o
np
250.58 73.44 m
0 -7.20 l
o
np
310.43 73.44 m
0 -7.20 l
o
np
370.29 73.44 m
0 -7.20 l
o
/Font1 findfont 12 s
71.01 47.52 (0.0) .5 0 t
130.87 47.52 (0.2) .5 0 t
190.72 47.52 (0.4) .5 0 t
250.58 47.52 (0.6) .5 0 t
310.43 47.52 (0.8) .5 0 t
370.29 47.52 (1.0) .5 0 t
np
59.04 83.81 m
0 259.28 l
o
np
59.04 83.81 m
-7.20 0 l
o
np
59.04 148.63 m
-7.20 0 l
o
np
59.04 213.45 m
-7.20 0 l
o
np
59.04 278.27 m
-7.20 0 l
o
np
59.04 343.09 m
-7.20 0 l
o
41.76 83.81 (0.0) .5 90 t
41.76 148.63 (0.5) .5 90 t
41.76 213.45 (1.0) .5 90 t
41.76 278.27 (1.5) .5 90 t
41.76 343.09 (2.0) .5 90 t
np
59.04 73.44 m
323.22 0 l
0 280.02 l
-323.22 0 l
0 -280.02 l
o
0.00 0.00 412.50 412.50 cl
/Font5 findfont 12 s
0 0 0 srgb
216.53 18.92 (w) 0 0 t
/Font1 findfont 12 s
12.96 213.45 (V) .5 90 t
59.04 73.44 382.26 353.46 cl
1 0 0 srgb
0.75 setlinewidth
[] 0 setdash
1 setlinecap
1 setlinejoin
10.00 setmiterlimit
np
75.50 85.07 m
1.09 -1.89 l
-2.18 0 l
1.09 1.89 l
o
np
79.99 88.05 m
1.09 -1.89 l
-2.18 0 l
1.09 1.89 l
o
np
84.48 111.24 m
1.09 -1.88 l
-2.18 0 l
1.09 1.88 l
o
np
88.97 153.34 m
1.09 -1.89 l
-2.18 0 l
1.09 1.89 l
o
np
93.46 197.57 m
1.09 -1.89 l
-2.18 0 l
1.09 1.89 l
o
np
97.95 234.29 m
1.09 -1.89 l
-2.18 0 l
1.09 1.89 l
o
np
102.44 261.25 m
1.09 -1.89 l
-2.19 0 l
1.10 1.89 l
o
np
106.92 279.40 m
1.10 -1.89 l
-2.19 0 l
1.09 1.89 l
o
np
111.41 290.42 m
1.09 -1.89 l
-2.18 0 l
1.09 1.89 l
o
np
115.90 296.12 m
1.09 -1.89 l
-2.18 0 l
1.09 1.89 l
o
np
120.39 297.94 m
1.09 -1.89 l
-2.18 0 l
1.09 1.89 l
o
np
124.88 297.16 m
1.09 -1.89 l
-2.18 0 l
1.09 1.89 l
o
np
129.37 294.57 m
1.09 -1.89 l
-2.18 0 l
1.09 1.89 l
o
np
133.86 290.68 m
1.09 -1.89 l
-2.18 0 l
1.09 1.89 l
o
np
138.35 286.14 m
1.09 -1.89 l
-2.18 0 l
1.09 1.89 l
o
np
142.84 281.34 m
1.09 -1.89 l
-2.18 0 l
1.09 1.89 l
o
np
147.33 276.16 m
1.09 -1.89 l
-2.18 0 l
1.09 1.89 l
o
np
151.82 271.23 m
1.09 -1.89 l
-2.18 0 l
1.09 1.89 l
o
np
156.31 266.31 m
1.09 -1.89 l
-2.19 0 l
1.10 1.89 l
o
np
160.79 261.64 m
1.10 -1.89 l
-2.19 0 l
1.09 1.89 l
o
np
165.28 257.23 m
1.09 -1.89 l
-2.18 0 l
1.09 1.89 l
o
np
169.77 253.08 m
1.09 -1.89 l
-2.18 0 l
1.09 1.89 l
o
np
174.26 249.32 m
1.09 -1.89 l
-2.18 0 l
1.09 1.89 l
o
np
178.75 245.82 m
1.09 -1.89 l
-2.18 0 l
1.09 1.89 l
o
np
183.24 242.58 m
1.09 -1.89 l
-2.18 0 l
1.09 1.89 l
o
np
187.73 239.73 m
1.09 -1.89 l
-2.18 0 l
1.09 1.89 l
o
np
192.22 237.01 m
1.09 -1.89 l
-2.18 0 l
1.09 1.89 l
o
np
196.71 234.67 m
1.09 -1.89 l
-2.18 0 l
1.09 1.89 l
o
np
201.20 232.47 m
1.09 -1.89 l
-2.18 0 l
1.09 1.89 l
o
np
205.69 230.66 m
1.09 -1.89 l
-2.18 0 l
1.09 1.89 l
o
np
210.18 228.84 m
1.09 -1.89 l
-2.19 0 l
1.10 1.89 l
o
np
214.66 227.28 m
1.10 -1.88 l
-2.19 0 l
1.09 1.88 l
o
np
219.15 225.99 m
1.09 -1.89 l
-2.18 0 l
1.09 1.89 l
o
np
223.64 224.69 m
1.09 -1.89 l
-2.18 0 l
1.09 1.89 l
o
np
228.13 223.53 m
1.09 -1.89 l
-2.18 0 l
1.09 1.89 l
o
np
232.62 222.62 m
1.09 -1.89 l
-2.18 0 l
1.09 1.89 l
o
np
237.11 221.71 m
1.09 -1.89 l
-2.18 0 l
1.09 1.89 l
o
np
241.60 220.93 m
1.09 -1.89 l
-2.18 0 l
1.09 1.89 l
o
np
246.09 220.28 m
1.09 -1.89 l
-2.18 0 l
1.09 1.89 l
o
np
250.58 219.64 m
1.09 -1.89 l
-2.18 0 l
1.09 1.89 l
o
np
255.07 218.99 m
1.09 -1.89 l
-2.18 0 l
1.09 1.89 l
o
np
259.56 218.60 m
1.09 -1.89 l
-2.18 0 l
1.09 1.89 l
o
np
264.05 218.08 m
1.09 -1.89 l
-2.19 0 l
1.10 1.89 l
o
np
268.53 217.69 m
1.10 -1.89 l
-2.19 0 l
1.09 1.89 l
o
np
273.02 217.43 m
1.09 -1.89 l
-2.18 0 l
1.09 1.89 l
o
np
277.51 217.04 m
1.09 -1.89 l
-2.18 0 l
1.09 1.89 l
o
np
282.00 216.78 m
1.09 -1.89 l
-2.18 0 l
1.09 1.89 l
o
np
286.49 216.52 m
1.09 -1.88 l
-2.18 0 l
1.09 1.88 l
o
np
290.98 216.40 m
1.09 -1.89 l
-2.18 0 l
1.09 1.89 l
o
np
295.47 216.14 m
1.09 -1.89 l
-2.18 0 l
1.09 1.89 l
o
np
299.96 216.01 m
1.09 -1.89 l
-2.18 0 l
1.09 1.89 l
o
np
304.45 215.88 m
1.09 -1.89 l
-2.18 0 l
1.09 1.89 l
o
np
308.94 215.75 m
1.09 -1.89 l
-2.18 0 l
1.09 1.89 l
o
np
313.43 215.62 m
1.09 -1.89 l
-2.18 0 l
1.09 1.89 l
o
np
317.92 215.49 m
1.09 -1.89 l
-2.19 0 l
1.10 1.89 l
o
np
322.40 215.36 m
1.10 -1.89 l
-2.19 0 l
1.09 1.89 l
o
np
326.89 215.36 m
1.09 -1.89 l
-2.18 0 l
1.09 1.89 l
o
np
331.38 215.23 m
1.09 -1.89 l
-2.18 0 l
1.09 1.89 l
o
np
335.87 215.23 m
1.09 -1.89 l
-2.18 0 l
1.09 1.89 l
o
np
340.36 215.10 m
1.09 -1.89 l
-2.18 0 l
1.09 1.89 l
o
np
344.85 215.10 m
1.09 -1.89 l
-2.18 0 l
1.09 1.89 l
o
np
349.34 215.10 m
1.09 -1.89 l
-2.18 0 l
1.09 1.89 l
o
np
353.83 214.97 m
1.09 -1.89 l
-2.18 0 l
1.09 1.89 l
o
np
358.32 214.97 m
1.09 -1.89 l
-2.18 0 l
1.09 1.89 l
o
np
362.81 214.97 m
1.09 -1.89 l
-2.18 0 l
1.09 1.89 l
o
np
367.30 214.97 m
1.09 -1.89 l
-2.18 0 l
1.09 1.89 l
o
np
371.79 214.84 m
1.09 -1.89 l
-2.19 0 l
1.10 1.89 l
o
np
376.27 214.84 m
1.10 -1.89 l
-2.19 0 l
1.09 1.89 l
o
np
380.76 214.84 m
1.09 -1.89 l
-2.18 0 l
1.09 1.89 l
o
np
385.25 214.84 m
1.09 -1.89 l
-2.18 0 l
1.09 1.89 l
o
np
389.74 214.84 m
1.09 -1.89 l
-2.18 0 l
1.09 1.89 l
o
np
394.23 214.84 m
1.09 -1.89 l
-2.18 0 l
1.09 1.89 l
o
np
398.72 214.84 m
1.09 -1.89 l
-2.18 0 l
1.09 1.89 l
o
np
403.21 214.84 m
1.09 -1.89 l
-2.18 0 l
1.09 1.89 l
o
np
407.70 214.84 m
1.09 -1.89 l
-2.18 0 l
1.09 1.89 l
o
np
412.19 214.71 m
0.31 -0.54 l
o
np
412.50 212.82 m
-1.40 0 l
1.09 1.89 l
o
0 0.8039 0 srgb
np
74.35 83.81 m
2.30 0 l
o
np
75.50 82.67 m
0 2.29 l
o
np
78.84 85.70 m
2.29 0 l
o
np
79.99 84.55 m
0 2.30 l
o
np
83.33 102.69 m
2.29 0 l
o
np
84.48 101.54 m
0 2.29 l
o
np
87.82 136.72 m
2.29 0 l
o
np
88.97 135.57 m
0 2.29 l
o
np
92.31 175.09 m
2.29 0 l
o
np
93.46 173.94 m
0 2.30 l
o
np
96.80 208.83 m
2.29 0 l
o
np
97.95 207.69 m
0 2.29 l
o
np
101.29 234.97 m
2.29 0 l
o
np
102.44 233.82 m
0 2.30 l
o
np
105.78 253.38 m
2.29 0 l
o
np
106.92 252.23 m
0 2.29 l
o
np
110.27 265.56 m
2.29 0 l
o
np
111.41 264.42 m
0 2.29 l
o
np
114.76 272.82 m
2.29 0 l
o
np
115.90 271.68 m
0 2.29 l
o
np
119.25 276.45 m
2.29 0 l
o
np
120.39 275.31 m
0 2.29 l
o
np
123.74 277.23 m
2.29 0 l
o
np
124.88 276.09 m
0 2.29 l
o
np
128.22 276.33 m
2.30 0 l
o
np
129.37 275.18 m
0 2.29 l
o
np
132.71 274.12 m
2.30 0 l
o
np
133.86 272.98 m
0 2.29 l
o
np
137.20 271.01 m
2.29 0 l
o
np
138.35 269.86 m
0 2.30 l
o
np
141.69 267.38 m
2.29 0 l
o
np
142.84 266.23 m
0 2.30 l
o
np
146.18 263.62 m
2.29 0 l
o
np
147.33 262.47 m
0 2.30 l
o
np
150.67 259.73 m
2.29 0 l
o
np
151.82 258.59 m
0 2.29 l
o
np
155.16 255.84 m
2.29 0 l
o
np
156.31 254.70 m
0 2.29 l
o
np
159.65 252.21 m
2.29 0 l
o
np
160.79 251.07 m
0 2.29 l
o
np
164.14 248.58 m
2.29 0 l
o
np
165.28 247.44 m
0 2.29 l
o
np
168.63 245.34 m
2.29 0 l
o
np
169.77 244.20 m
0 2.29 l
o
np
173.12 242.23 m
2.29 0 l
o
np
174.26 241.08 m
0 2.30 l
o
np
177.61 239.38 m
2.29 0 l
o
np
178.75 238.23 m
0 2.29 l
o
np
182.09 236.66 m
2.30 0 l
o
np
183.24 235.51 m
0 2.29 l
o
np
186.58 234.32 m
2.30 0 l
o
np
187.73 233.18 m
0 2.29 l
o
np
191.07 232.12 m
2.29 0 l
o
np
192.22 230.97 m
0 2.29 l
o
np
195.56 230.17 m
2.29 0 l
o
np
196.71 229.03 m
0 2.29 l
o
np
200.05 228.36 m
2.29 0 l
o
np
201.20 227.21 m
0 2.29 l
o
np
204.54 226.80 m
2.29 0 l
o
np
205.69 225.66 m
0 2.29 l
o
np
209.03 225.38 m
2.29 0 l
o
np
210.18 224.23 m
0 2.29 l
o
np
213.52 224.08 m
2.29 0 l
o
np
214.66 222.94 m
0 2.29 l
o
np
218.01 222.91 m
2.29 0 l
o
np
219.15 221.77 m
0 2.29 l
o
np
222.50 221.88 m
2.29 0 l
o
np
223.64 220.73 m
0 2.29 l
o
np
226.99 220.97 m
2.29 0 l
o
np
228.13 219.82 m
0 2.29 l
o
np
231.48 220.06 m
2.29 0 l
o
np
232.62 218.92 m
0 2.29 l
o
np
235.96 219.41 m
2.30 0 l
o
np
237.11 218.27 m
0 2.29 l
o
np
240.45 218.77 m
2.30 0 l
o
np
241.60 217.62 m
0 2.29 l
o
np
244.94 218.12 m
2.29 0 l
o
np
246.09 216.97 m
0 2.29 l
o
np
249.43 217.60 m
2.29 0 l
o
np
250.58 216.45 m
0 2.29 l
o
np
253.92 217.08 m
2.29 0 l
o
np
255.07 215.93 m
0 2.30 l
o
np
258.41 216.69 m
2.29 0 l
o
np
259.56 215.55 m
0 2.29 l
o
np
262.90 216.30 m
2.29 0 l
o
np
264.05 215.16 m
0 2.29 l
o
np
267.39 216.04 m
2.29 0 l
o
np
268.53 214.90 m
0 2.29 l
o
np
271.88 215.78 m
2.29 0 l
o
np
273.02 214.64 m
0 2.29 l
o
np
276.37 215.52 m
2.29 0 l
o
np
277.51 214.38 m
0 2.29 l
o
np
280.86 215.27 m
2.29 0 l
o
np
282.00 214.12 m
0 2.29 l
o
np
285.35 215.01 m
2.29 0 l
o
np
286.49 213.86 m
0 2.29 l
o
np
289.83 214.88 m
2.30 0 l
o
np
290.98 213.73 m
0 2.29 l
o
np
294.32 214.75 m
2.30 0 l
o
np
295.47 213.60 m
0 2.29 l
o
np
298.81 214.62 m
2.29 0 l
o
np
299.96 213.47 m
0 2.29 l
o
np
303.30 214.49 m
2.29 0 l
o
np
304.45 213.34 m
0 2.29 l
o
np
307.79 214.36 m
2.29 0 l
o
np
308.94 213.21 m
0 2.29 l
o
np
312.28 214.23 m
2.29 0 l
o
np
313.43 213.08 m
0 2.29 l
o
np
316.77 214.10 m
2.29 0 l
o
np
317.92 212.95 m
0 2.29 l
o
np
321.26 214.10 m
2.29 0 l
o
np
322.40 212.95 m
0 2.29 l
o
np
325.75 213.97 m
2.29 0 l
o
np
326.89 212.82 m
0 2.29 l
o
np
330.24 213.97 m
2.29 0 l
o
np
331.38 212.82 m
0 2.29 l
o
np
334.73 213.84 m
2.29 0 l
o
np
335.87 212.69 m
0 2.29 l
o
np
339.22 213.84 m
2.29 0 l
o
np
340.36 212.69 m
0 2.29 l
o
np
343.70 213.84 m
2.30 0 l
o
np
344.85 212.69 m
0 2.29 l
o
np
348.19 213.71 m
2.30 0 l
o
np
349.34 212.56 m
0 2.29 l
o
np
352.68 213.71 m
2.29 0 l
o
np
353.83 212.56 m
0 2.29 l
o
np
357.17 213.71 m
2.29 0 l
o
np
358.32 212.56 m
0 2.29 l
o
np
361.66 213.71 m
2.29 0 l
o
np
362.81 212.56 m
0 2.29 l
o
np
366.15 213.58 m
2.29 0 l
o
np
367.30 212.43 m
0 2.30 l
o
np
370.64 213.58 m
2.29 0 l
o
np
371.79 212.43 m
0 2.30 l
o
np
375.13 213.58 m
2.29 0 l
o
np
376.27 212.43 m
0 2.30 l
o
np
379.62 213.58 m
2.29 0 l
o
np
380.76 212.43 m
0 2.30 l
o
np
384.11 213.58 m
2.29 0 l
o
np
385.25 212.43 m
0 2.30 l
o
np
388.60 213.58 m
2.29 0 l
o
np
389.74 212.43 m
0 2.30 l
o
np
393.09 213.58 m
2.29 0 l
o
np
394.23 212.43 m
0 2.30 l
o
np
397.58 213.58 m
2.29 0 l
o
np
398.72 212.43 m
0 2.30 l
o
np
402.06 213.58 m
2.30 0 l
o
np
403.21 212.43 m
0 2.30 l
o
np
406.55 213.45 m
2.29 0 l
o
np
407.70 212.30 m
0 2.30 l
o
np
411.04 213.45 m
1.46 0 l
o
np
412.19 212.30 m
0 2.30 l
o
/bg { 1 1 1 srgb } def
0 0 0 srgb
316.42 336.61 32.19 -84.78 r p3
1 0 0 srgb
np
325.04 306.47 m
3.27 -5.67 l
-6.54 0 l
3.27 5.67 l
o
0 0 0 srgb
325.04 285.74 2.43 c p1
0 0.8039 0 srgb
np
321.60 268.78 m
6.88 0 l
o
np
325.04 265.34 m
0 6.88 l
o
/Font5 findfont 11 s
0 0 0 srgb
329.04 319.85 (a) 0 0 t
/Font1 findfont 11 s
333.66 298.74 (40) 0 0 t
333.66 281.79 (10) 0 0 t
333.66 264.83 (5) 0 0 t
0.8275 0.8275 0.8275 srgb
0.75 setlinewidth
[ 0.00 3.00] 0 setdash
np
71.01 73.44 m
0 280.02 l
o
np
130.87 73.44 m
0 280.02 l
o
np
190.72 73.44 m
0 280.02 l
o
np
250.58 73.44 m
0 280.02 l
o
np
310.43 73.44 m
0 280.02 l
o
np
370.29 73.44 m
0 280.02 l
o
np
59.04 83.81 m
323.22 0 l
o
np
59.04 148.63 m
323.22 0 l
o
np
59.04 213.45 m
323.22 0 l
o
np
59.04 278.27 m
323.22 0 l
o
np
59.04 343.09 m
323.22 0 l
o
ep
%%Trailer
%%Pages: 1
%%EOF
