%!PS-Adobe-3.0 EPSF-3.0
%%DocumentNeededResources: font Helvetica
%%+ font Helvetica-Bold
%%+ font Helvetica-Oblique
%%+ font Helvetica-BoldOblique
%%+ font Symbol
%%Title: R Graphics Output
%%Creator: R Software
%%Pages: (atend)
%%BoundingBox: 0 0 436 321
%%EndComments
%%BeginProlog
/bp  { gs sRGB gs } def
% begin .ps.prolog
/gs  { gsave } bind def
/gr  { grestore } bind def
/ep  { showpage gr gr } bind def
/m   { moveto } bind def
/l  { rlineto } bind def
/np  { newpath } bind def
/cp  { closepath } bind def
/f   { fill } bind def
/o   { stroke } bind def
/c   { newpath 0 360 arc } bind def
/r   { 4 2 roll moveto 1 copy 3 -1 roll exch 0 exch rlineto 0 rlineto -1 mul 0 exch rlineto closepath } bind def
/p1  { stroke } bind def
/p2  { gsave bg fill grestore newpath } bind def
/p3  { gsave bg fill grestore stroke } bind def
/p6  { gsave bg eofill grestore newpath } bind def
/p7  { gsave bg eofill grestore stroke } bind def
/t   { 5 -2 roll moveto gsave rotate
       1 index stringwidth pop
       mul neg 0 rmoveto show grestore } bind def
/ta  { 4 -2 roll moveto gsave rotate show } bind def
/tb  { 2 -1 roll 0 rmoveto show } bind def
/cl  { grestore gsave newpath 3 index 3 index moveto 1 index
       4 -1 roll lineto  exch 1 index lineto lineto
       closepath clip newpath } bind def
/rgb { setrgbcolor } bind def
/s   { scalefont setfont } bind def
% end   .ps.prolog
/sRGB { [ /CIEBasedABC
          << /DecodeLMN
               [ { dup 0.03928 le
                        {12.92321 div}
                        {0.055 add 1.055 div 2.4 exp }
                     ifelse
                 } bind dup dup
               ]
             /MatrixLMN [0.412457 0.212673 0.019334
                         0.357576 0.715152 0.119192
                         0.180437 0.072175 0.950301]
             /WhitePoint [0.9505 1.0 1.0890]
           >>
         ] setcolorspace } bind def
/srgb { setcolor } bind def
% begin encoding
/WinAnsiEncoding [
 /.notdef /.notdef /.notdef /.notdef /.notdef /.notdef /.notdef /.notdef
 /.notdef /.notdef /.notdef /.notdef /.notdef /.notdef /.notdef /.notdef
 /.notdef /.notdef /.notdef /.notdef /.notdef /.notdef /.notdef /.notdef
 /.notdef /.notdef /.notdef /.notdef /.notdef /.notdef /.notdef /.notdef
 /space /exclam /quotedbl /numbersign /dollar /percent /ampersand /quoteright
 /parenleft /parenright /asterisk /plus /comma /minus /period /slash
 /zero /one /two /three /four /five /six /seven
 /eight /nine /colon /semicolon /less /equal /greater /question
 /at /A /B /C /D /E /F /G
 /H /I /J /K /L /M /N /O
 /P /Q /R /S /T /U /V /W
 /X /Y /Z /bracketleft /backslash /bracketright /asciicircum /underscore
 /grave /a /b /c /d /e /f /g
 /h /i /j /k /l /m /n /o
 /p /q /r /s /t /u /v /w
 /x /y /z /braceleft /bar /braceright /asciitilde /.notdef
 /Euro /.notdef /quotesinglbase /florin /quotedblbase /ellipsis /dagger /daggerdbl
 /circumflex /perthousand /Scaron /guilsinglleft /OE /.notdef /Zcaron /.notdef
 /.notdef /quoteleft /quoteright /quotedblleft /quotedblright /bullet /endash /emdash
 /tilde /trademark /scaron /guilsinglright /oe /.notdef /zcaron /Ydieresis
 /space /exclamdown /cent /sterling /currency /yen /brokenbar /section
 /dieresis /copyright /ordfeminine /guillemotleft /logicalnot /hyphen /registered /macron
 /degree /plusminus /twosuperior /threesuperior /acute /mu /paragraph /periodcentered
 /cedilla /onesuperior /ordmasculine /guillemotright /onequarter /onehalf /threequarters /questiondown
 /Agrave /Aacute /Acircumflex /Atilde /Adieresis /Aring /AE /Ccedilla
 /Egrave /Eacute /Ecircumflex /Edieresis /Igrave /Iacute /Icircumflex /Idieresis
 /Eth /Ntilde /Ograve /Oacute /Ocircumflex /Otilde /Odieresis /multiply
 /Oslash /Ugrave /Uacute /Ucircumflex /Udieresis /Yacute /Thorn /germandbls
 /agrave /aacute /acircumflex /atilde /adieresis /aring /ae /ccedilla
 /egrave /eacute /ecircumflex /edieresis /igrave /iacute /icircumflex /idieresis
 /eth /ntilde /ograve /oacute /ocircumflex /otilde /odieresis /divide
 /oslash /ugrave /uacute /ucircumflex /udieresis /yacute /thorn /ydieresis
]
 def
% end encoding
%%IncludeResource: font Helvetica
/Helvetica findfont
dup length dict begin
  {1 index /FID ne {def} {pop pop} ifelse} forall
  /Encoding WinAnsiEncoding def
  currentdict
  end
/Font1 exch definefont pop
%%IncludeResource: font Helvetica-Bold
/Helvetica-Bold findfont
dup length dict begin
  {1 index /FID ne {def} {pop pop} ifelse} forall
  /Encoding WinAnsiEncoding def
  currentdict
  end
/Font2 exch definefont pop
%%IncludeResource: font Helvetica-Oblique
/Helvetica-Oblique findfont
dup length dict begin
  {1 index /FID ne {def} {pop pop} ifelse} forall
  /Encoding WinAnsiEncoding def
  currentdict
  end
/Font3 exch definefont pop
%%IncludeResource: font Helvetica-BoldOblique
/Helvetica-BoldOblique findfont
dup length dict begin
  {1 index /FID ne {def} {pop pop} ifelse} forall
  /Encoding WinAnsiEncoding def
  currentdict
  end
/Font4 exch definefont pop
%%IncludeResource: font Symbol
/Symbol findfont
dup length dict begin
  {1 index /FID ne {def} {pop pop} ifelse} forall
  currentdict
  end
/Font5 exch definefont pop
%%EndProlog
%%Page: 1 1
bp
/bg { 1 1 1 srgb } def
0.00 0.00 435.75 321.00 r p2
59.04 73.44 405.51 261.96 cl
59.04 73.44 405.51 261.96 cl
0 0 0 srgb
0.75 setlinewidth
[] 0 setdash
1 setlinecap
1 setlinejoin
10.00 setmiterlimit
71.87 84.47 1.35 c p1
73.48 80.42 1.35 c p1
75.10 85.74 1.35 c p1
76.71 83.86 1.35 c p1
78.32 86.36 1.35 c p1
79.93 87.79 1.35 c p1
81.54 86.31 1.35 c p1
83.16 89.05 1.35 c p1
84.77 87.26 1.35 c p1
86.38 88.38 1.35 c p1
87.99 90.33 1.35 c p1
89.61 88.05 1.35 c p1
91.22 91.73 1.35 c p1
92.83 92.57 1.35 c p1
94.44 93.63 1.35 c p1
96.05 97.68 1.35 c p1
97.67 96.77 1.35 c p1
99.28 102.16 1.35 c p1
100.89 105.49 1.35 c p1
102.50 107.44 1.35 c p1
104.11 113.72 1.35 c p1
105.73 116.62 1.35 c p1
107.34 122.89 1.35 c p1
108.95 127.24 1.35 c p1
110.56 129.61 1.35 c p1
112.17 136.49 1.35 c p1
113.79 138.94 1.35 c p1
115.40 144.91 1.35 c p1
117.01 150.46 1.35 c p1
118.62 152.49 1.35 c p1
120.23 160.25 1.35 c p1
121.85 163.14 1.35 c p1
123.46 168.37 1.35 c p1
125.07 174.21 1.35 c p1
126.68 174.81 1.35 c p1
128.30 181.41 1.35 c p1
129.91 184.58 1.35 c p1
131.52 187.64 1.35 c p1
133.13 192.65 1.35 c p1
134.74 193.53 1.35 c p1
136.36 199.07 1.35 c p1
137.97 202.76 1.35 c p1
139.58 203.31 1.35 c p1
141.19 207.91 1.35 c p1
142.80 208.54 1.35 c p1
144.42 212.95 1.35 c p1
146.03 215.44 1.35 c p1
147.64 216.18 1.35 c p1
149.25 220.85 1.35 c p1
150.86 220.57 1.35 c p1
152.48 224.41 1.35 c p1
154.09 227.38 1.35 c p1
155.70 226.68 1.35 c p1
157.31 231.20 1.35 c p1
158.92 231.15 1.35 c p1
160.54 233.27 1.35 c p1
162.15 235.38 1.35 c p1
163.76 232.97 1.35 c p1
165.37 237.02 1.35 c p1
166.99 237.40 1.35 c p1
168.60 237.26 1.35 c p1
170.21 240.03 1.35 c p1
171.82 238.86 1.35 c p1
173.43 242.54 1.35 c p1
175.05 242.38 1.35 c p1
176.66 241.95 1.35 c p1
178.27 245.02 1.35 c p1
179.88 243.21 1.35 c p1
181.49 245.53 1.35 c p1
183.11 247.22 1.35 c p1
184.72 245.98 1.35 c p1
186.33 249.28 1.35 c p1
187.94 247.51 1.35 c p1
189.55 247.99 1.35 c p1
191.17 249.30 1.35 c p1
192.78 247.72 1.35 c p1
194.39 251.45 1.35 c p1
196.00 250.38 1.35 c p1
197.62 250.23 1.35 c p1
199.23 252.04 1.35 c p1
200.84 249.39 1.35 c p1
202.45 252.72 1.35 c p1
204.06 252.16 1.35 c p1
205.68 251.12 1.35 c p1
207.29 253.48 1.35 c p1
208.90 250.80 1.35 c p1
210.51 252.67 1.35 c p1
212.12 252.71 1.35 c p1
213.74 250.69 1.35 c p1
215.35 253.82 1.35 c p1
216.96 251.42 1.35 c p1
218.57 253.69 1.35 c p1
220.18 253.26 1.35 c p1
221.80 251.88 1.35 c p1
223.41 254.46 1.35 c p1
225.02 252.40 1.35 c p1
226.63 252.91 1.35 c p1
228.24 253.76 1.35 c p1
229.86 251.64 1.35 c p1
231.47 254.79 1.35 c p1
233.08 253.36 1.35 c p1
234.69 252.91 1.35 c p1
236.31 254.15 1.35 c p1
237.92 251.21 1.35 c p1
239.53 254.81 1.35 c p1
241.14 254.24 1.35 c p1
242.75 252.72 1.35 c p1
244.37 254.60 1.35 c p1
245.98 252.40 1.35 c p1
247.59 254.41 1.35 c p1
249.20 254.50 1.35 c p1
250.81 252.19 1.35 c p1
252.43 254.98 1.35 c p1
254.04 252.66 1.35 c p1
255.65 254.03 1.35 c p1
257.26 254.13 1.35 c p1
258.87 252.43 1.35 c p1
260.49 254.93 1.35 c p1
262.10 252.29 1.35 c p1
263.71 253.09 1.35 c p1
265.32 253.41 1.35 c p1
266.93 251.11 1.35 c p1
268.55 254.07 1.35 c p1
270.16 252.09 1.35 c p1
271.77 252.21 1.35 c p1
273.38 254.05 1.35 c p1
275.00 251.02 1.35 c p1
276.61 253.46 1.35 c p1
278.22 252.72 1.35 c p1
279.83 251.74 1.35 c p1
281.44 253.67 1.35 c p1
283.06 251.54 1.35 c p1
284.67 254.10 1.35 c p1
286.28 254.08 1.35 c p1
287.89 251.81 1.35 c p1
289.50 253.45 1.35 c p1
291.12 250.59 1.35 c p1
292.73 252.52 1.35 c p1
294.34 253.02 1.35 c p1
295.95 251.11 1.35 c p1
297.56 253.15 1.35 c p1
299.18 250.64 1.35 c p1
300.79 251.43 1.35 c p1
302.40 252.12 1.35 c p1
304.01 249.27 1.35 c p1
305.62 251.85 1.35 c p1
307.24 251.09 1.35 c p1
308.85 250.52 1.35 c p1
310.46 252.26 1.35 c p1
312.07 249.35 1.35 c p1
313.69 251.95 1.35 c p1
315.30 250.49 1.35 c p1
316.91 249.52 1.35 c p1
318.52 251.83 1.35 c p1
320.13 249.87 1.35 c p1
321.75 252.31 1.35 c p1
323.36 252.12 1.35 c p1
324.97 249.58 1.35 c p1
326.58 251.24 1.35 c p1
328.19 249.08 1.35 c p1
329.81 250.21 1.35 c p1
331.42 250.35 1.35 c p1
333.03 248.23 1.35 c p1
334.64 250.28 1.35 c p1
336.25 248.85 1.35 c p1
337.87 249.28 1.35 c p1
339.48 250.54 1.35 c p1
341.09 248.04 1.35 c p1
342.70 250.33 1.35 c p1
344.31 249.32 1.35 c p1
345.93 249.06 1.35 c p1
347.54 250.44 1.35 c p1
349.15 248.49 1.35 c p1
350.76 250.97 1.35 c p1
352.38 249.80 1.35 c p1
353.99 248.53 1.35 c p1
355.60 250.25 1.35 c p1
357.21 247.67 1.35 c p1
358.82 249.46 1.35 c p1
360.44 249.28 1.35 c p1
362.05 247.73 1.35 c p1
363.66 250.26 1.35 c p1
365.27 247.49 1.35 c p1
366.88 248.94 1.35 c p1
368.50 248.72 1.35 c p1
370.11 246.93 1.35 c p1
371.72 249.40 1.35 c p1
373.33 247.51 1.35 c p1
374.94 248.51 1.35 c p1
376.56 250.35 1.35 c p1
378.17 247.34 1.35 c p1
379.78 249.25 1.35 c p1
381.39 247.96 1.35 c p1
383.01 248.04 1.35 c p1
384.62 249.95 1.35 c p1
386.23 247.34 1.35 c p1
387.84 249.73 1.35 c p1
389.45 248.01 1.35 c p1
391.07 246.94 1.35 c p1
392.68 248.42 1.35 c p1
0.00 0.00 435.75 321.00 cl
0 0 0 srgb
0.75 setlinewidth
[] 0 setdash
1 setlinecap
1 setlinejoin
10.00 setmiterlimit
np
71.87 73.44 m
322.42 0 l
o
np
71.87 73.44 m
0 -7.20 l
o
np
136.36 73.44 m
0 -7.20 l
o
np
200.84 73.44 m
0 -7.20 l
o
np
265.32 73.44 m
0 -7.20 l
o
np
329.81 73.44 m
0 -7.20 l
o
np
394.29 73.44 m
0 -7.20 l
o
/Font1 findfont 12 s
71.87 47.52 (0) .5 0 t
136.36 47.52 (2) .5 0 t
200.84 47.52 (4) .5 0 t
265.32 47.52 (6) .5 0 t
329.81 47.52 (8) .5 0 t
394.29 47.52 (10) .5 0 t
np
59.04 84.47 m
0 170.34 l
o
np
59.04 84.47 m
-7.20 0 l
o
np
59.04 118.54 m
-7.20 0 l
o
np
59.04 152.60 m
-7.20 0 l
o
np
59.04 186.67 m
-7.20 0 l
o
np
59.04 220.74 m
-7.20 0 l
o
np
59.04 254.81 m
-7.20 0 l
o
41.76 84.47 (0.0) .5 90 t
41.76 118.54 (0.2) .5 90 t
41.76 152.60 (0.4) .5 90 t
41.76 186.67 (0.6) .5 90 t
41.76 220.74 (0.8) .5 90 t
41.76 254.81 (1.0) .5 90 t
np
59.04 73.44 m
346.47 0 l
0 188.52 l
-346.47 0 l
0 -188.52 l
o
0.00 0.00 435.75 321.00 cl
/Font1 findfont 12 s
0 0 0 srgb
232.27 18.72 (time [s]) .5 0 t
12.96 167.70 (T/Tmax) .5 90 t
59.04 73.44 405.51 261.96 cl
1 0 0 srgb
0.75 setlinewidth
[] 0 setdash
1 setlinecap
1 setlinejoin
10.00 setmiterlimit
np
71.87 85.73 m
1.09 -1.89 l
-2.18 0 l
1.09 1.89 l
o
np
73.48 85.39 m
1.10 -1.89 l
-2.19 0 l
1.09 1.89 l
o
np
75.10 85.49 m
1.09 -1.89 l
-2.18 0 l
1.09 1.89 l
o
np
76.71 86.15 m
1.09 -1.88 l
-2.18 0 l
1.09 1.88 l
o
np
78.32 85.38 m
1.09 -1.89 l
-2.18 0 l
1.09 1.89 l
o
np
79.93 85.81 m
1.09 -1.89 l
-2.18 0 l
1.09 1.89 l
o
np
81.54 86.26 m
1.10 -1.89 l
-2.19 0 l
1.09 1.89 l
o
np
83.16 84.67 m
1.09 -1.89 l
-2.18 0 l
1.09 1.89 l
o
np
84.77 86.29 m
1.09 -1.89 l
-2.18 0 l
1.09 1.89 l
o
np
86.38 84.64 m
1.09 -1.89 l
-2.18 0 l
1.09 1.89 l
o
np
87.99 86.50 m
1.09 -1.89 l
-2.18 0 l
1.09 1.89 l
o
np
89.61 86.54 m
1.09 -1.89 l
-2.19 0 l
1.10 1.89 l
o
np
91.22 86.71 m
1.09 -1.89 l
-2.18 0 l
1.09 1.89 l
o
np
92.83 88.18 m
1.09 -1.88 l
-2.18 0 l
1.09 1.88 l
o
np
94.44 87.14 m
1.09 -1.89 l
-2.18 0 l
1.09 1.89 l
o
np
96.05 88.07 m
1.09 -1.88 l
-2.18 0 l
1.09 1.88 l
o
np
97.67 89.82 m
1.09 -1.89 l
-2.19 0 l
1.10 1.89 l
o
np
99.28 88.92 m
1.09 -1.89 l
-2.18 0 l
1.09 1.89 l
o
np
100.89 91.68 m
1.09 -1.89 l
-2.18 0 l
1.09 1.89 l
o
np
102.50 90.32 m
1.09 -1.89 l
-2.18 0 l
1.09 1.89 l
o
np
104.11 92.99 m
1.09 -1.89 l
-2.18 0 l
1.09 1.89 l
o
np
105.73 94.23 m
1.09 -1.89 l
-2.18 0 l
1.09 1.89 l
o
np
107.34 94.23 m
1.09 -1.89 l
-2.18 0 l
1.09 1.89 l
o
np
108.95 97.70 m
1.09 -1.89 l
-2.18 0 l
1.09 1.89 l
o
np
110.56 98.41 m
1.09 -1.89 l
-2.18 0 l
1.09 1.89 l
o
np
112.17 101.65 m
1.10 -1.89 l
-2.19 0 l
1.09 1.89 l
o
np
113.79 104.45 m
1.09 -1.89 l
-2.18 0 l
1.09 1.89 l
o
np
115.40 105.63 m
1.09 -1.88 l
-2.18 0 l
1.09 1.88 l
o
np
117.01 109.75 m
1.09 -1.89 l
-2.18 0 l
1.09 1.89 l
o
np
118.62 111.85 m
1.09 -1.89 l
-2.18 0 l
1.09 1.89 l
o
np
120.23 116.35 m
1.10 -1.89 l
-2.19 0 l
1.09 1.89 l
o
np
121.85 120.41 m
1.09 -1.89 l
-2.18 0 l
1.09 1.89 l
o
np
123.46 122.49 m
1.09 -1.88 l
-2.18 0 l
1.09 1.88 l
o
np
125.07 127.71 m
1.09 -1.89 l
-2.18 0 l
1.09 1.89 l
o
np
126.68 130.48 m
1.09 -1.89 l
-2.18 0 l
1.09 1.89 l
o
np
128.30 135.36 m
1.09 -1.89 l
-2.19 0 l
1.10 1.89 l
o
np
129.91 140.87 m
1.09 -1.89 l
-2.18 0 l
1.09 1.89 l
o
np
131.52 143.38 m
1.09 -1.89 l
-2.18 0 l
1.09 1.89 l
o
np
133.13 149.45 m
1.09 -1.89 l
-2.18 0 l
1.09 1.89 l
o
np
134.74 152.88 m
1.09 -1.89 l
-2.18 0 l
1.09 1.89 l
o
np
136.36 157.37 m
1.09 -1.89 l
-2.19 0 l
1.10 1.89 l
o
np
137.97 162.87 m
1.09 -1.89 l
-2.18 0 l
1.09 1.89 l
o
np
139.58 165.87 m
1.09 -1.89 l
-2.18 0 l
1.09 1.89 l
o
np
141.19 172.01 m
1.09 -1.89 l
-2.18 0 l
1.09 1.89 l
o
np
142.80 174.83 m
1.09 -1.89 l
-2.18 0 l
1.09 1.89 l
o
np
144.42 178.54 m
1.09 -1.88 l
-2.18 0 l
1.09 1.88 l
o
np
146.03 183.33 m
1.09 -1.89 l
-2.18 0 l
1.09 1.89 l
o
np
147.64 185.86 m
1.09 -1.89 l
-2.18 0 l
1.09 1.89 l
o
np
149.25 191.19 m
1.09 -1.89 l
-2.18 0 l
1.09 1.89 l
o
np
150.86 193.98 m
1.10 -1.89 l
-2.19 0 l
1.09 1.89 l
o
np
152.48 196.64 m
1.09 -1.89 l
-2.18 0 l
1.09 1.89 l
o
np
154.09 200.62 m
1.09 -1.89 l
-2.18 0 l
1.09 1.89 l
o
np
155.70 201.98 m
1.09 -1.89 l
-2.18 0 l
1.09 1.89 l
o
np
157.31 207.17 m
1.09 -1.89 l
-2.18 0 l
1.09 1.89 l
o
np
158.92 209.06 m
1.10 -1.89 l
-2.19 0 l
1.09 1.89 l
o
np
160.54 211.80 m
1.09 -1.89 l
-2.18 0 l
1.09 1.89 l
o
np
162.15 216.05 m
1.09 -1.89 l
-2.18 0 l
1.09 1.89 l
o
np
163.76 216.31 m
1.09 -1.89 l
-2.18 0 l
1.09 1.89 l
o
np
165.37 219.99 m
1.09 -1.89 l
-2.18 0 l
1.09 1.89 l
o
np
166.99 222.59 m
1.09 -1.89 l
-2.19 0 l
1.10 1.89 l
o
np
168.60 223.67 m
1.09 -1.89 l
-2.18 0 l
1.09 1.89 l
o
np
170.21 227.40 m
1.09 -1.89 l
-2.18 0 l
1.09 1.89 l
o
np
171.82 227.83 m
1.09 -1.89 l
-2.18 0 l
1.09 1.89 l
o
np
173.43 230.40 m
1.09 -1.89 l
-2.18 0 l
1.09 1.89 l
o
np
175.05 231.39 m
1.09 -1.88 l
-2.19 0 l
1.10 1.88 l
o
np
176.66 232.43 m
1.09 -1.89 l
-2.18 0 l
1.09 1.89 l
o
np
178.27 235.47 m
1.09 -1.89 l
-2.18 0 l
1.09 1.89 l
o
np
179.88 235.39 m
1.09 -1.89 l
-2.18 0 l
1.09 1.89 l
o
np
181.49 237.62 m
1.10 -1.89 l
-2.19 0 l
1.09 1.89 l
o
np
183.11 239.29 m
1.09 -1.89 l
-2.18 0 l
1.09 1.89 l
o
np
184.72 239.57 m
1.09 -1.89 l
-2.18 0 l
1.09 1.89 l
o
np
186.33 241.77 m
1.09 -1.89 l
-2.18 0 l
1.09 1.89 l
o
np
187.94 241.01 m
1.09 -1.89 l
-2.18 0 l
1.09 1.89 l
o
np
189.55 243.37 m
1.10 -1.89 l
-2.19 0 l
1.09 1.89 l
o
np
191.17 244.28 m
1.09 -1.89 l
-2.18 0 l
1.09 1.89 l
o
np
192.78 243.92 m
1.09 -1.89 l
-2.18 0 l
1.09 1.89 l
o
np
194.39 245.97 m
1.09 -1.89 l
-2.18 0 l
1.09 1.89 l
o
np
196.00 245.33 m
1.09 -1.89 l
-2.18 0 l
1.09 1.89 l
o
np
197.62 247.05 m
1.09 -1.89 l
-2.19 0 l
1.10 1.89 l
o
np
199.23 248.27 m
1.09 -1.89 l
-2.18 0 l
1.09 1.89 l
o
np
200.84 247.88 m
1.09 -1.89 l
-2.18 0 l
1.09 1.89 l
o
np
202.45 249.84 m
1.09 -1.89 l
-2.18 0 l
1.09 1.89 l
o
np
204.06 248.38 m
1.09 -1.89 l
-2.18 0 l
1.09 1.89 l
o
np
205.68 249.22 m
1.09 -1.89 l
-2.19 0 l
1.10 1.89 l
o
np
207.29 250.28 m
1.09 -1.88 l
-2.18 0 l
1.09 1.88 l
o
np
208.90 249.84 m
1.09 -1.89 l
-2.18 0 l
1.09 1.89 l
o
np
210.51 252.06 m
1.09 -1.89 l
-2.18 0 l
1.09 1.89 l
o
np
212.12 251.56 m
1.09 -1.89 l
-2.18 0 l
1.09 1.89 l
o
np
213.74 252.47 m
1.09 -1.89 l
-2.19 0 l
1.10 1.89 l
o
np
215.35 253.26 m
1.09 -1.89 l
-2.18 0 l
1.09 1.89 l
o
np
216.96 251.90 m
1.09 -1.89 l
-2.18 0 l
1.09 1.89 l
o
np
218.57 253.67 m
1.09 -1.89 l
-2.18 0 l
1.09 1.89 l
o
np
220.18 252.73 m
1.10 -1.89 l
-2.19 0 l
1.09 1.89 l
o
np
221.80 253.50 m
1.09 -1.89 l
-2.18 0 l
1.09 1.89 l
o
np
223.41 254.64 m
1.09 -1.89 l
-2.18 0 l
1.09 1.89 l
o
np
225.02 252.87 m
1.09 -1.89 l
-2.18 0 l
1.09 1.89 l
o
np
226.63 255.39 m
1.09 -1.89 l
-2.18 0 l
1.09 1.89 l
o
np
228.24 254.91 m
1.10 -1.89 l
-2.19 0 l
1.09 1.89 l
o
np
229.86 254.64 m
1.09 -1.89 l
-2.18 0 l
1.09 1.89 l
o
np
231.47 255.33 m
1.09 -1.89 l
-2.18 0 l
1.09 1.89 l
o
np
233.08 253.11 m
1.09 -1.89 l
-2.18 0 l
1.09 1.89 l
o
np
234.69 255.45 m
1.09 -1.89 l
-2.18 0 l
1.09 1.89 l
o
np
236.31 254.62 m
1.09 -1.89 l
-2.19 0 l
1.10 1.89 l
o
np
237.92 254.72 m
1.09 -1.89 l
-2.18 0 l
1.09 1.89 l
o
np
239.53 255.65 m
1.09 -1.89 l
-2.18 0 l
1.09 1.89 l
o
np
241.14 254.12 m
1.09 -1.89 l
-2.18 0 l
1.09 1.89 l
o
np
242.75 256.01 m
1.09 -1.89 l
-2.18 0 l
1.09 1.89 l
o
np
244.37 255.58 m
1.09 -1.89 l
-2.19 0 l
1.10 1.89 l
o
np
245.98 255.20 m
1.09 -1.88 l
-2.18 0 l
1.09 1.88 l
o
np
247.59 256.37 m
1.09 -1.88 l
-2.18 0 l
1.09 1.88 l
o
np
249.20 254.50 m
1.09 -1.89 l
-2.18 0 l
1.09 1.89 l
o
np
250.81 255.77 m
1.09 -1.89 l
-2.18 0 l
1.09 1.89 l
o
np
252.43 255.64 m
1.09 -1.89 l
-2.18 0 l
1.09 1.89 l
o
np
254.04 255.20 m
1.09 -1.88 l
-2.18 0 l
1.09 1.88 l
o
np
255.65 256.53 m
1.09 -1.89 l
-2.18 0 l
1.09 1.89 l
o
np
257.26 254.90 m
1.09 -1.89 l
-2.18 0 l
1.09 1.89 l
o
np
258.87 256.07 m
1.10 -1.89 l
-2.19 0 l
1.09 1.89 l
o
np
260.49 255.94 m
1.09 -1.88 l
-2.18 0 l
1.09 1.88 l
o
np
262.10 255.00 m
1.09 -1.89 l
-2.18 0 l
1.09 1.89 l
o
np
263.71 256.36 m
1.09 -1.89 l
-2.18 0 l
1.09 1.89 l
o
np
265.32 254.67 m
1.09 -1.89 l
-2.18 0 l
1.09 1.89 l
o
np
266.93 255.57 m
1.10 -1.89 l
-2.19 0 l
1.09 1.89 l
o
np
268.55 255.02 m
1.09 -1.89 l
-2.18 0 l
1.09 1.89 l
o
np
270.16 254.41 m
1.09 -1.89 l
-2.18 0 l
1.09 1.89 l
o
np
271.77 255.89 m
1.09 -1.89 l
-2.18 0 l
1.09 1.89 l
o
np
273.38 254.28 m
1.09 -1.89 l
-2.18 0 l
1.09 1.89 l
o
np
275.00 255.67 m
1.09 -1.89 l
-2.19 0 l
1.10 1.89 l
o
np
276.61 255.69 m
1.09 -1.89 l
-2.18 0 l
1.09 1.89 l
o
np
278.22 254.57 m
1.09 -1.89 l
-2.18 0 l
1.09 1.89 l
o
np
279.83 256.20 m
1.09 -1.89 l
-2.18 0 l
1.09 1.89 l
o
np
281.44 253.79 m
1.09 -1.89 l
-2.18 0 l
1.09 1.89 l
o
np
283.06 254.77 m
1.09 -1.88 l
-2.19 0 l
1.10 1.88 l
o
np
284.67 254.79 m
1.09 -1.89 l
-2.18 0 l
1.09 1.89 l
o
np
286.28 253.85 m
1.09 -1.89 l
-2.18 0 l
1.09 1.89 l
o
np
287.89 255.29 m
1.09 -1.89 l
-2.18 0 l
1.09 1.89 l
o
np
289.50 253.93 m
1.09 -1.89 l
-2.18 0 l
1.09 1.89 l
o
np
291.12 254.62 m
1.09 -1.89 l
-2.18 0 l
1.09 1.89 l
o
np
292.73 255.03 m
1.09 -1.89 l
-2.18 0 l
1.09 1.89 l
o
np
294.34 253.55 m
1.09 -1.89 l
-2.18 0 l
1.09 1.89 l
o
np
295.95 254.98 m
1.09 -1.89 l
-2.18 0 l
1.09 1.89 l
o
np
297.56 253.30 m
1.10 -1.89 l
-2.19 0 l
1.09 1.89 l
o
np
299.18 254.21 m
1.09 -1.89 l
-2.18 0 l
1.09 1.89 l
o
np
300.79 254.28 m
1.09 -1.89 l
-2.18 0 l
1.09 1.89 l
o
np
302.40 252.97 m
1.09 -1.89 l
-2.18 0 l
1.09 1.89 l
o
np
304.01 253.90 m
1.09 -1.89 l
-2.18 0 l
1.09 1.89 l
o
np
305.62 253.43 m
1.10 -1.89 l
-2.19 0 l
1.09 1.89 l
o
np
307.24 253.79 m
1.09 -1.89 l
-2.18 0 l
1.09 1.89 l
o
np
308.85 254.02 m
1.09 -1.89 l
-2.18 0 l
1.09 1.89 l
o
np
310.46 252.76 m
1.09 -1.89 l
-2.18 0 l
1.09 1.89 l
o
np
312.07 254.29 m
1.09 -1.89 l
-2.18 0 l
1.09 1.89 l
o
np
313.69 253.26 m
1.09 -1.89 l
-2.19 0 l
1.10 1.89 l
o
np
315.30 253.31 m
1.09 -1.89 l
-2.18 0 l
1.09 1.89 l
o
np
316.91 254.07 m
1.09 -1.89 l
-2.18 0 l
1.09 1.89 l
o
np
318.52 252.18 m
1.09 -1.89 l
-2.18 0 l
1.09 1.89 l
o
np
320.13 253.57 m
1.09 -1.89 l
-2.18 0 l
1.09 1.89 l
o
np
321.75 252.73 m
1.09 -1.89 l
-2.19 0 l
1.10 1.89 l
o
np
323.36 252.35 m
1.09 -1.89 l
-2.18 0 l
1.09 1.89 l
o
np
324.97 253.33 m
1.09 -1.89 l
-2.18 0 l
1.09 1.89 l
o
np
326.58 251.71 m
1.09 -1.89 l
-2.18 0 l
1.09 1.89 l
o
np
328.19 253.23 m
1.09 -1.89 l
-2.18 0 l
1.09 1.89 l
o
np
329.81 252.42 m
1.09 -1.89 l
-2.18 0 l
1.09 1.89 l
o
np
331.42 252.26 m
1.09 -1.89 l
-2.18 0 l
1.09 1.89 l
o
np
333.03 253.38 m
1.09 -1.89 l
-2.18 0 l
1.09 1.89 l
o
np
334.64 251.23 m
1.09 -1.89 l
-2.18 0 l
1.09 1.89 l
o
np
336.25 252.14 m
1.10 -1.89 l
-2.19 0 l
1.09 1.89 l
o
np
337.87 251.66 m
1.09 -1.89 l
-2.18 0 l
1.09 1.89 l
o
np
339.48 251.35 m
1.09 -1.89 l
-2.18 0 l
1.09 1.89 l
o
np
341.09 252.59 m
1.09 -1.89 l
-2.18 0 l
1.09 1.89 l
o
np
342.70 250.75 m
1.09 -1.89 l
-2.18 0 l
1.09 1.89 l
o
np
344.31 252.01 m
1.10 -1.89 l
-2.19 0 l
1.09 1.89 l
o
np
345.93 251.45 m
1.09 -1.88 l
-2.18 0 l
1.09 1.88 l
o
np
347.54 250.65 m
1.09 -1.89 l
-2.18 0 l
1.09 1.89 l
o
np
349.15 252.06 m
1.09 -1.89 l
-2.18 0 l
1.09 1.89 l
o
np
350.76 250.18 m
1.09 -1.89 l
-2.18 0 l
1.09 1.89 l
o
np
352.38 251.23 m
1.09 -1.89 l
-2.19 0 l
1.10 1.89 l
o
np
353.99 250.42 m
1.09 -1.89 l
-2.18 0 l
1.09 1.89 l
o
np
355.60 249.63 m
1.09 -1.89 l
-2.18 0 l
1.09 1.89 l
o
np
357.21 251.45 m
1.09 -1.88 l
-2.18 0 l
1.09 1.88 l
o
np
358.82 249.58 m
1.09 -1.89 l
-2.18 0 l
1.09 1.89 l
o
np
360.44 251.21 m
1.09 -1.89 l
-2.19 0 l
1.10 1.89 l
o
np
362.05 250.47 m
1.09 -1.89 l
-2.18 0 l
1.09 1.89 l
o
np
363.66 249.51 m
1.09 -1.89 l
-2.18 0 l
1.09 1.89 l
o
np
365.27 250.89 m
1.09 -1.89 l
-2.18 0 l
1.09 1.89 l
o
np
366.88 249.20 m
1.10 -1.89 l
-2.19 0 l
1.09 1.89 l
o
np
368.50 250.49 m
1.09 -1.89 l
-2.18 0 l
1.09 1.89 l
o
np
370.11 250.73 m
1.09 -1.89 l
-2.18 0 l
1.09 1.89 l
o
np
371.72 249.22 m
1.09 -1.89 l
-2.18 0 l
1.09 1.89 l
o
np
373.33 250.59 m
1.09 -1.89 l
-2.18 0 l
1.09 1.89 l
o
np
374.94 248.58 m
1.10 -1.89 l
-2.19 0 l
1.09 1.89 l
o
np
376.56 249.61 m
1.09 -1.89 l
-2.18 0 l
1.09 1.89 l
o
np
378.17 249.92 m
1.09 -1.89 l
-2.18 0 l
1.09 1.89 l
o
np
379.78 249.13 m
1.09 -1.89 l
-2.18 0 l
1.09 1.89 l
o
np
381.39 250.28 m
1.09 -1.88 l
-2.18 0 l
1.09 1.88 l
o
np
383.01 248.94 m
1.09 -1.89 l
-2.19 0 l
1.10 1.89 l
o
np
384.62 249.58 m
1.09 -1.89 l
-2.18 0 l
1.09 1.89 l
o
np
386.23 249.51 m
1.09 -1.89 l
-2.18 0 l
1.09 1.89 l
o
np
387.84 248.17 m
1.09 -1.89 l
-2.18 0 l
1.09 1.89 l
o
np
389.45 250.11 m
1.09 -1.89 l
-2.18 0 l
1.09 1.89 l
o
np
391.07 248.75 m
1.09 -1.89 l
-2.19 0 l
1.10 1.89 l
o
np
392.68 249.53 m
1.09 -1.89 l
-2.18 0 l
1.09 1.89 l
o
0 0.8039 0 srgb
np
70.73 84.47 m
2.29 0 l
o
np
71.87 83.32 m
0 2.30 l
o
np
72.34 86.17 m
2.29 0 l
o
np
73.48 85.02 m
0 2.29 l
o
np
73.95 83.30 m
2.29 0 l
o
np
75.10 82.16 m
0 2.29 l
o
np
75.56 86.53 m
2.29 0 l
o
np
76.71 85.39 m
0 2.29 l
o
np
77.18 84.80 m
2.29 0 l
o
np
78.32 83.66 m
0 2.29 l
o
np
78.79 85.01 m
2.29 0 l
o
np
79.93 83.86 m
0 2.29 l
o
np
80.40 85.86 m
2.29 0 l
o
np
81.54 84.71 m
0 2.29 l
o
np
82.01 84.04 m
2.29 0 l
o
np
83.16 82.90 m
0 2.29 l
o
np
83.62 85.53 m
2.29 0 l
o
np
84.77 84.39 m
0 2.29 l
o
np
85.24 85.38 m
2.29 0 l
o
np
86.38 84.24 m
0 2.29 l
o
np
86.85 83.96 m
2.29 0 l
o
np
87.99 82.81 m
0 2.29 l
o
np
88.46 86.30 m
2.29 0 l
o
np
89.61 85.15 m
0 2.29 l
o
np
90.07 83.95 m
2.29 0 l
o
np
91.22 82.80 m
0 2.29 l
o
np
91.68 86.03 m
2.29 0 l
o
np
92.83 84.89 m
0 2.29 l
o
np
93.30 85.48 m
2.29 0 l
o
np
94.44 84.33 m
0 2.29 l
o
np
94.91 84.80 m
2.29 0 l
o
np
96.05 83.66 m
0 2.29 l
o
np
96.52 86.57 m
2.29 0 l
o
np
97.67 85.42 m
0 2.29 l
o
np
98.13 84.79 m
2.29 0 l
o
np
99.28 83.64 m
0 2.30 l
o
np
99.74 86.09 m
2.30 0 l
o
np
100.89 84.94 m
0 2.29 l
o
np
101.36 87.27 m
2.29 0 l
o
np
102.50 86.12 m
0 2.29 l
o
np
102.97 86.15 m
2.29 0 l
o
np
104.11 85.00 m
0 2.29 l
o
np
104.58 88.41 m
2.29 0 l
o
np
105.73 87.26 m
0 2.30 l
o
np
106.19 86.51 m
2.29 0 l
o
np
107.34 85.37 m
0 2.29 l
o
np
107.80 88.95 m
2.30 0 l
o
np
108.95 87.81 m
0 2.29 l
o
np
109.42 89.75 m
2.29 0 l
o
np
110.56 88.60 m
0 2.29 l
o
np
111.03 88.54 m
2.29 0 l
o
np
112.17 87.40 m
0 2.29 l
o
np
112.64 91.90 m
2.29 0 l
o
np
113.79 90.75 m
0 2.29 l
o
np
114.25 91.51 m
2.29 0 l
o
np
115.40 90.36 m
0 2.29 l
o
np
115.87 92.55 m
2.29 0 l
o
np
117.01 91.41 m
0 2.29 l
o
np
117.48 95.26 m
2.29 0 l
o
np
118.62 94.12 m
0 2.29 l
o
np
119.09 94.07 m
2.29 0 l
o
np
120.23 92.92 m
0 2.30 l
o
np
120.70 97.88 m
2.29 0 l
o
np
121.85 96.74 m
0 2.29 l
o
np
122.31 98.28 m
2.29 0 l
o
np
123.46 97.14 m
0 2.29 l
o
np
123.93 100.15 m
2.29 0 l
o
np
125.07 99.01 m
0 2.29 l
o
np
125.54 102.95 m
2.29 0 l
o
np
126.68 101.80 m
0 2.29 l
o
np
127.15 102.90 m
2.29 0 l
o
np
128.30 101.75 m
0 2.29 l
o
np
128.76 106.53 m
2.29 0 l
o
np
129.91 105.38 m
0 2.29 l
o
np
130.37 108.25 m
2.29 0 l
o
np
131.52 107.10 m
0 2.29 l
o
np
131.99 109.76 m
2.29 0 l
o
np
133.13 108.61 m
0 2.30 l
o
np
133.60 114.25 m
2.29 0 l
o
np
134.74 113.10 m
0 2.30 l
o
np
135.21 114.22 m
2.29 0 l
o
np
136.36 113.07 m
0 2.29 l
o
np
136.82 118.83 m
2.29 0 l
o
np
137.97 117.68 m
0 2.29 l
o
np
138.43 121.05 m
2.30 0 l
o
np
139.58 119.90 m
0 2.29 l
o
np
140.05 122.34 m
2.29 0 l
o
np
141.19 121.19 m
0 2.29 l
o
np
141.66 127.38 m
2.29 0 l
o
np
142.80 126.23 m
0 2.29 l
o
np
143.27 128.65 m
2.29 0 l
o
np
144.42 127.50 m
0 2.30 l
o
np
144.88 133.17 m
2.29 0 l
o
np
146.03 132.03 m
0 2.29 l
o
np
146.49 136.20 m
2.30 0 l
o
np
147.64 135.06 m
0 2.29 l
o
np
148.11 138.04 m
2.29 0 l
o
np
149.25 136.90 m
0 2.29 l
o
np
149.72 143.12 m
2.29 0 l
o
np
150.86 141.97 m
0 2.29 l
o
np
151.33 144.98 m
2.29 0 l
o
np
152.48 143.83 m
0 2.29 l
o
np
152.94 149.79 m
2.29 0 l
o
np
154.09 148.65 m
0 2.29 l
o
np
154.56 154.23 m
2.29 0 l
o
np
155.70 153.09 m
0 2.29 l
o
np
156.17 155.94 m
2.29 0 l
o
np
157.31 154.79 m
0 2.29 l
o
np
157.78 161.06 m
2.29 0 l
o
np
158.92 159.92 m
0 2.29 l
o
np
159.39 163.25 m
2.29 0 l
o
np
160.54 162.10 m
0 2.29 l
o
np
161.00 166.45 m
2.29 0 l
o
np
162.15 165.30 m
0 2.29 l
o
np
162.62 171.25 m
2.29 0 l
o
np
163.76 170.10 m
0 2.29 l
o
np
164.23 171.93 m
2.29 0 l
o
np
165.37 170.79 m
0 2.29 l
o
np
165.84 177.29 m
2.29 0 l
o
np
166.99 176.14 m
0 2.29 l
o
np
167.45 180.21 m
2.29 0 l
o
np
168.60 179.06 m
0 2.30 l
o
np
169.06 183.68 m
2.30 0 l
o
np
170.21 182.54 m
0 2.29 l
o
np
170.68 188.36 m
2.29 0 l
o
np
171.82 187.22 m
0 2.29 l
o
np
172.29 188.83 m
2.29 0 l
o
np
173.43 187.68 m
0 2.29 l
o
np
173.90 193.96 m
2.29 0 l
o
np
175.05 192.81 m
0 2.29 l
o
np
175.51 196.11 m
2.29 0 l
o
np
176.66 194.96 m
0 2.29 l
o
np
177.12 198.24 m
2.30 0 l
o
np
178.27 197.09 m
0 2.29 l
o
np
178.74 202.32 m
2.29 0 l
o
np
179.88 201.17 m
0 2.29 l
o
np
180.35 203.57 m
2.29 0 l
o
np
181.49 202.43 m
0 2.29 l
o
np
181.96 207.84 m
2.29 0 l
o
np
183.11 206.69 m
0 2.29 l
o
np
183.57 210.23 m
2.29 0 l
o
np
184.72 209.08 m
0 2.30 l
o
np
185.18 211.12 m
2.30 0 l
o
np
186.33 209.98 m
0 2.29 l
o
np
186.80 216.30 m
2.29 0 l
o
np
187.94 215.16 m
0 2.29 l
o
np
188.41 216.35 m
2.29 0 l
o
np
189.55 215.21 m
0 2.29 l
o
np
190.02 220.09 m
2.29 0 l
o
np
191.17 218.94 m
0 2.29 l
o
np
191.63 221.46 m
2.29 0 l
o
np
192.78 220.32 m
0 2.29 l
o
np
193.25 221.07 m
2.29 0 l
o
np
194.39 219.92 m
0 2.29 l
o
np
194.86 225.25 m
2.29 0 l
o
np
196.00 224.10 m
0 2.29 l
o
np
196.47 225.56 m
2.29 0 l
o
np
197.62 224.41 m
0 2.29 l
o
np
198.08 227.71 m
2.29 0 l
o
np
199.23 226.56 m
0 2.29 l
o
np
199.69 230.10 m
2.29 0 l
o
np
200.84 228.96 m
0 2.29 l
o
np
201.31 229.95 m
2.29 0 l
o
np
202.45 228.80 m
0 2.29 l
o
np
202.92 233.13 m
2.29 0 l
o
np
204.06 231.98 m
0 2.29 l
o
np
204.53 233.11 m
2.29 0 l
o
np
205.68 231.97 m
0 2.29 l
o
np
206.14 234.56 m
2.29 0 l
o
np
207.29 233.41 m
0 2.29 l
o
np
207.75 236.90 m
2.30 0 l
o
np
208.90 235.75 m
0 2.29 l
o
np
209.37 235.69 m
2.29 0 l
o
np
210.51 234.55 m
0 2.29 l
o
np
210.98 239.29 m
2.29 0 l
o
np
212.12 238.14 m
0 2.29 l
o
np
212.59 239.84 m
2.29 0 l
o
np
213.74 238.69 m
0 2.29 l
o
np
214.20 240.49 m
2.29 0 l
o
np
215.35 239.35 m
0 2.29 l
o
np
215.81 243.30 m
2.30 0 l
o
np
216.96 242.15 m
0 2.29 l
o
np
217.43 241.78 m
2.29 0 l
o
np
218.57 240.64 m
0 2.29 l
o
np
219.04 245.15 m
2.29 0 l
o
np
220.18 244.01 m
0 2.29 l
o
np
220.65 244.76 m
2.29 0 l
o
np
221.80 243.61 m
0 2.29 l
o
np
222.26 243.76 m
2.29 0 l
o
np
223.41 242.62 m
0 2.29 l
o
np
223.87 245.60 m
2.30 0 l
o
np
225.02 244.46 m
0 2.29 l
o
np
225.49 244.26 m
2.29 0 l
o
np
226.63 243.11 m
0 2.30 l
o
np
227.10 246.46 m
2.29 0 l
o
np
228.24 245.32 m
0 2.29 l
o
np
228.71 247.49 m
2.29 0 l
o
np
229.86 246.35 m
0 2.29 l
o
np
230.32 246.67 m
2.29 0 l
o
np
231.47 245.52 m
0 2.29 l
o
np
231.94 249.16 m
2.29 0 l
o
np
233.08 248.02 m
0 2.29 l
o
np
233.55 247.63 m
2.29 0 l
o
np
234.69 246.49 m
0 2.29 l
o
np
235.16 250.01 m
2.29 0 l
o
np
236.31 248.86 m
0 2.29 l
o
np
236.77 250.33 m
2.29 0 l
o
np
237.92 249.19 m
0 2.29 l
o
np
238.38 249.39 m
2.29 0 l
o
np
239.53 248.24 m
0 2.29 l
o
np
240.00 251.36 m
2.29 0 l
o
np
241.14 250.22 m
0 2.29 l
o
np
241.61 249.42 m
2.29 0 l
o
np
242.75 248.28 m
0 2.29 l
o
np
243.22 250.26 m
2.29 0 l
o
np
244.37 249.12 m
0 2.29 l
o
np
244.83 251.57 m
2.29 0 l
o
np
245.98 250.43 m
0 2.29 l
o
np
246.44 249.83 m
2.30 0 l
o
np
247.59 248.69 m
0 2.29 l
o
np
248.06 252.79 m
2.29 0 l
o
np
249.20 251.65 m
0 2.29 l
o
np
249.67 251.88 m
2.29 0 l
o
np
250.81 250.74 m
0 2.29 l
o
np
251.28 251.86 m
2.29 0 l
o
np
252.43 250.72 m
0 2.29 l
o
np
252.89 253.26 m
2.29 0 l
o
np
254.04 252.11 m
0 2.29 l
o
np
254.50 250.50 m
2.30 0 l
o
np
255.65 249.36 m
0 2.29 l
o
np
256.12 253.00 m
2.29 0 l
o
np
257.26 251.85 m
0 2.29 l
o
np
257.73 253.14 m
2.29 0 l
o
np
258.87 251.99 m
0 2.29 l
o
np
259.34 252.40 m
2.29 0 l
o
np
260.49 251.25 m
0 2.29 l
o
np
260.95 254.34 m
2.29 0 l
o
np
262.10 253.20 m
0 2.29 l
o
np
262.57 251.85 m
2.29 0 l
o
np
263.71 250.70 m
0 2.29 l
o
np
264.18 254.01 m
2.29 0 l
o
np
265.32 252.87 m
0 2.29 l
o
np
265.79 253.52 m
2.29 0 l
o
np
266.93 252.37 m
0 2.29 l
o
np
267.40 252.72 m
2.29 0 l
o
np
268.55 251.58 m
0 2.29 l
o
np
269.01 253.82 m
2.29 0 l
o
np
270.16 252.68 m
0 2.29 l
o
np
270.63 252.62 m
2.29 0 l
o
np
271.77 251.48 m
0 2.29 l
o
np
272.24 254.48 m
2.29 0 l
o
np
273.38 253.33 m
0 2.29 l
o
np
273.85 254.98 m
2.29 0 l
o
np
275.00 253.83 m
0 2.29 l
o
np
275.46 252.95 m
2.29 0 l
o
np
276.61 251.80 m
0 2.29 l
o
np
277.07 255.13 m
2.29 0 l
o
np
278.22 253.99 m
0 2.29 l
o
np
278.69 253.22 m
2.29 0 l
o
np
279.83 252.08 m
0 2.29 l
o
np
280.30 254.13 m
2.29 0 l
o
np
281.44 252.99 m
0 2.29 l
o
np
281.91 254.77 m
2.29 0 l
o
np
283.06 253.63 m
0 2.29 l
o
np
283.52 253.12 m
2.29 0 l
o
np
284.67 251.97 m
0 2.30 l
o
np
285.13 255.06 m
2.30 0 l
o
np
286.28 253.92 m
0 2.29 l
o
np
286.75 253.29 m
2.29 0 l
o
np
287.89 252.15 m
0 2.29 l
o
np
288.36 253.95 m
2.29 0 l
o
np
289.50 252.80 m
0 2.29 l
o
np
289.97 254.91 m
2.29 0 l
o
np
291.12 253.76 m
0 2.29 l
o
np
291.58 252.53 m
2.29 0 l
o
np
292.73 251.39 m
0 2.29 l
o
np
293.19 254.36 m
2.30 0 l
o
np
294.34 253.21 m
0 2.29 l
o
np
294.81 253.48 m
2.29 0 l
o
np
295.95 252.34 m
0 2.29 l
o
np
296.42 253.24 m
2.29 0 l
o
np
297.56 252.09 m
0 2.30 l
o
np
298.03 254.81 m
2.29 0 l
o
np
299.18 253.66 m
0 2.29 l
o
np
299.64 252.81 m
2.29 0 l
o
np
300.79 251.66 m
0 2.30 l
o
np
301.26 254.81 m
2.29 0 l
o
np
302.40 253.66 m
0 2.29 l
o
np
302.87 254.05 m
2.29 0 l
o
np
304.01 252.90 m
0 2.29 l
o
np
304.48 253.00 m
2.29 0 l
o
np
305.62 251.85 m
0 2.29 l
o
np
306.09 254.99 m
2.29 0 l
o
np
307.24 253.85 m
0 2.29 l
o
np
307.70 252.72 m
2.29 0 l
o
np
308.85 251.58 m
0 2.29 l
o
np
309.32 254.50 m
2.29 0 l
o
np
310.46 253.35 m
0 2.29 l
o
np
310.93 254.22 m
2.29 0 l
o
np
312.07 253.08 m
0 2.29 l
o
np
312.54 253.14 m
2.29 0 l
o
np
313.69 251.99 m
0 2.29 l
o
np
314.15 255.13 m
2.29 0 l
o
np
315.30 253.99 m
0 2.29 l
o
np
315.76 252.60 m
2.29 0 l
o
np
316.91 251.46 m
0 2.29 l
o
np
317.38 254.31 m
2.29 0 l
o
np
318.52 253.16 m
0 2.29 l
o
np
318.99 254.56 m
2.29 0 l
o
np
320.13 253.42 m
0 2.29 l
o
np
320.60 252.93 m
2.29 0 l
o
np
321.75 251.78 m
0 2.30 l
o
np
322.21 255.06 m
2.29 0 l
o
np
323.36 253.92 m
0 2.29 l
o
np
323.82 253.26 m
2.30 0 l
o
np
324.97 252.11 m
0 2.29 l
o
np
325.44 254.82 m
2.29 0 l
o
np
326.58 253.68 m
0 2.29 l
o
np
327.05 254.75 m
2.29 0 l
o
np
328.19 253.61 m
0 2.29 l
o
np
328.66 252.76 m
2.29 0 l
o
np
329.81 251.61 m
0 2.29 l
o
np
330.27 254.55 m
2.29 0 l
o
np
331.42 253.40 m
0 2.29 l
o
np
331.88 253.22 m
2.30 0 l
o
np
333.03 252.08 m
0 2.29 l
o
np
333.50 252.93 m
2.29 0 l
o
np
334.64 251.78 m
0 2.30 l
o
np
335.11 253.76 m
2.29 0 l
o
np
336.25 252.61 m
0 2.29 l
o
np
336.72 251.40 m
2.29 0 l
o
np
337.87 250.25 m
0 2.29 l
o
np
338.33 253.79 m
2.29 0 l
o
np
339.48 252.64 m
0 2.30 l
o
np
339.95 252.74 m
2.29 0 l
o
np
341.09 251.60 m
0 2.29 l
o
np
341.56 252.16 m
2.29 0 l
o
np
342.70 251.01 m
0 2.29 l
o
np
343.17 252.96 m
2.29 0 l
o
np
344.31 251.82 m
0 2.29 l
o
np
344.78 250.95 m
2.29 0 l
o
np
345.93 249.81 m
0 2.29 l
o
np
346.39 253.50 m
2.29 0 l
o
np
347.54 252.35 m
0 2.29 l
o
np
348.01 253.10 m
2.29 0 l
o
np
349.15 251.96 m
0 2.29 l
o
np
349.62 252.07 m
2.29 0 l
o
np
350.76 250.92 m
0 2.30 l
o
np
351.23 253.82 m
2.29 0 l
o
np
352.38 252.68 m
0 2.29 l
o
np
352.84 251.50 m
2.29 0 l
o
np
353.99 250.36 m
0 2.29 l
o
np
354.45 252.64 m
2.30 0 l
o
np
355.60 251.49 m
0 2.29 l
o
np
356.07 252.72 m
2.29 0 l
o
np
357.21 251.58 m
0 2.29 l
o
np
357.68 250.87 m
2.29 0 l
o
np
358.82 249.72 m
0 2.29 l
o
np
359.29 252.84 m
2.29 0 l
o
np
360.44 251.70 m
0 2.29 l
o
np
360.90 250.92 m
2.29 0 l
o
np
362.05 249.77 m
0 2.29 l
o
np
362.51 252.43 m
2.30 0 l
o
np
363.66 251.29 m
0 2.29 l
o
np
364.13 252.64 m
2.29 0 l
o
np
365.27 251.49 m
0 2.29 l
o
np
365.74 250.30 m
2.29 0 l
o
np
366.88 249.15 m
0 2.29 l
o
np
367.35 252.72 m
2.29 0 l
o
np
368.50 251.58 m
0 2.29 l
o
np
368.96 251.07 m
2.29 0 l
o
np
370.11 249.93 m
0 2.29 l
o
np
370.57 252.12 m
2.30 0 l
o
np
371.72 250.98 m
0 2.29 l
o
np
372.19 253.05 m
2.29 0 l
o
np
373.33 251.91 m
0 2.29 l
o
np
373.80 250.76 m
2.29 0 l
o
np
374.94 249.62 m
0 2.29 l
o
np
375.41 252.83 m
2.29 0 l
o
np
376.56 251.68 m
0 2.29 l
o
np
377.02 251.71 m
2.29 0 l
o
np
378.17 250.56 m
0 2.29 l
o
np
378.64 251.21 m
2.29 0 l
o
np
379.78 250.06 m
0 2.30 l
o
np
380.25 252.21 m
2.29 0 l
o
np
381.39 251.06 m
0 2.29 l
o
np
381.86 250.02 m
2.29 0 l
o
np
383.01 248.88 m
0 2.29 l
o
np
383.47 252.09 m
2.29 0 l
o
np
384.62 250.94 m
0 2.29 l
o
np
385.08 250.75 m
2.29 0 l
o
np
386.23 249.60 m
0 2.29 l
o
np
386.70 250.54 m
2.29 0 l
o
np
387.84 249.39 m
0 2.29 l
o
np
388.31 252.26 m
2.29 0 l
o
np
389.45 251.11 m
0 2.29 l
o
np
389.92 250.02 m
2.29 0 l
o
np
391.07 248.88 m
0 2.29 l
o
np
391.53 251.69 m
2.29 0 l
o
np
392.68 250.55 m
0 2.29 l
o
0 0 1 srgb
np
71.06 83.66 m
1.62 1.62 l
o
np
71.06 85.28 m
1.62 -1.62 l
o
np
72.67 83.26 m
1.62 1.62 l
o
np
72.67 84.88 m
1.62 -1.62 l
o
np
74.29 84.40 m
1.62 1.62 l
o
np
74.29 86.02 m
1.62 -1.62 l
o
np
75.90 83.97 m
1.62 1.62 l
o
np
75.90 85.59 m
1.62 -1.62 l
o
np
77.51 84.56 m
1.62 1.62 l
o
np
77.51 86.18 m
1.62 -1.62 l
o
np
79.12 84.50 m
1.62 1.62 l
o
np
79.12 86.12 m
1.62 -1.62 l
o
np
80.73 83.34 m
1.62 1.62 l
o
np
80.73 84.96 m
1.62 -1.62 l
o
np
82.35 85.70 m
1.62 1.62 l
o
np
82.35 87.32 m
1.62 -1.62 l
o
np
83.96 82.40 m
1.62 1.62 l
o
np
83.96 84.02 m
1.62 -1.62 l
o
np
85.57 84.11 m
1.62 1.62 l
o
np
85.57 85.73 m
1.62 -1.62 l
o
np
87.18 84.00 m
1.62 1.62 l
o
np
87.18 85.62 m
1.62 -1.62 l
o
np
88.80 82.98 m
1.62 1.62 l
o
np
88.80 84.60 m
1.62 -1.62 l
o
np
90.41 84.13 m
1.62 1.62 l
o
np
90.41 85.75 m
1.62 -1.62 l
o
np
92.02 82.61 m
1.62 1.62 l
o
np
92.02 84.23 m
1.62 -1.62 l
o
np
93.63 83.86 m
1.62 1.62 l
o
np
93.63 85.48 m
1.62 -1.62 l
o
np
95.24 84.25 m
1.62 1.62 l
o
np
95.24 85.87 m
1.62 -1.62 l
o
np
96.86 82.84 m
1.62 1.62 l
o
np
96.86 84.46 m
1.62 -1.62 l
o
np
98.47 85.16 m
1.62 1.62 l
o
np
98.47 86.78 m
1.62 -1.62 l
o
np
100.08 82.72 m
1.62 1.62 l
o
np
100.08 84.34 m
1.62 -1.62 l
o
np
101.69 85.40 m
1.62 1.62 l
o
np
101.69 87.02 m
1.62 -1.62 l
o
np
103.30 84.73 m
1.62 1.62 l
o
np
103.30 86.35 m
1.62 -1.62 l
o
np
104.92 84.05 m
1.62 1.62 l
o
np
104.92 85.67 m
1.62 -1.62 l
o
np
106.53 85.45 m
1.62 1.62 l
o
np
106.53 87.07 m
1.62 -1.62 l
o
np
108.14 84.22 m
1.62 1.62 l
o
np
108.14 85.84 m
1.62 -1.62 l
o
np
109.75 86.44 m
1.62 1.62 l
o
np
109.75 88.06 m
1.62 -1.62 l
o
np
111.36 85.65 m
1.62 1.62 l
o
np
111.36 87.27 m
1.62 -1.62 l
o
np
112.98 85.28 m
1.62 1.62 l
o
np
112.98 86.90 m
1.62 -1.62 l
o
np
114.59 87.35 m
1.62 1.62 l
o
np
114.59 88.97 m
1.62 -1.62 l
o
np
116.20 85.46 m
1.62 1.62 l
o
np
116.20 87.08 m
1.62 -1.62 l
o
np
117.81 88.96 m
1.62 1.62 l
o
np
117.81 90.58 m
1.62 -1.62 l
o
np
119.42 88.57 m
1.62 1.62 l
o
np
119.42 90.19 m
1.62 -1.62 l
o
np
121.04 88.60 m
1.62 1.62 l
o
np
121.04 90.22 m
1.62 -1.62 l
o
np
122.65 91.36 m
1.62 1.62 l
o
np
122.65 92.98 m
1.62 -1.62 l
o
np
124.26 89.78 m
1.62 1.62 l
o
np
124.26 91.40 m
1.62 -1.62 l
o
np
125.87 92.24 m
1.62 1.62 l
o
np
125.87 93.86 m
1.62 -1.62 l
o
np
127.49 93.33 m
1.62 1.62 l
o
np
127.49 94.95 m
1.62 -1.62 l
o
np
129.10 93.54 m
1.62 1.62 l
o
np
129.10 95.16 m
1.62 -1.62 l
o
np
130.71 96.62 m
1.62 1.62 l
o
np
130.71 98.24 m
1.62 -1.62 l
o
np
132.32 94.56 m
1.62 1.62 l
o
np
132.32 96.18 m
1.62 -1.62 l
o
np
133.93 98.58 m
1.62 1.62 l
o
np
133.93 100.20 m
1.62 -1.62 l
o
np
135.55 99.15 m
1.62 1.62 l
o
np
135.55 100.77 m
1.62 -1.62 l
o
np
137.16 100.31 m
1.62 1.62 l
o
np
137.16 101.93 m
1.62 -1.62 l
o
np
138.77 102.95 m
1.62 1.62 l
o
np
138.77 104.57 m
1.62 -1.62 l
o
np
140.38 101.95 m
1.62 1.62 l
o
np
140.38 103.57 m
1.62 -1.62 l
o
np
141.99 105.99 m
1.62 1.62 l
o
np
141.99 107.61 m
1.62 -1.62 l
o
np
143.61 106.94 m
1.62 1.62 l
o
np
143.61 108.56 m
1.62 -1.62 l
o
np
145.22 108.95 m
1.62 1.62 l
o
np
145.22 110.57 m
1.62 -1.62 l
o
np
146.83 112.60 m
1.62 1.62 l
o
np
146.83 114.22 m
1.62 -1.62 l
o
np
148.44 111.10 m
1.62 1.62 l
o
np
148.44 112.72 m
1.62 -1.62 l
o
np
150.05 116.00 m
1.62 1.62 l
o
np
150.05 117.62 m
1.62 -1.62 l
o
np
151.67 116.86 m
1.62 1.62 l
o
np
151.67 118.48 m
1.62 -1.62 l
o
np
153.28 119.93 m
1.62 1.62 l
o
np
153.28 121.55 m
1.62 -1.62 l
o
np
154.89 123.35 m
1.62 1.62 l
o
np
154.89 124.97 m
1.62 -1.62 l
o
np
156.50 123.21 m
1.62 1.62 l
o
np
156.50 124.83 m
1.62 -1.62 l
o
np
158.11 126.39 m
1.62 1.62 l
o
np
158.11 128.01 m
1.62 -1.62 l
o
np
159.73 128.25 m
1.62 1.62 l
o
np
159.73 129.87 m
1.62 -1.62 l
o
np
161.34 130.76 m
1.62 1.62 l
o
np
161.34 132.38 m
1.62 -1.62 l
o
np
162.95 135.27 m
1.62 1.62 l
o
np
162.95 136.89 m
1.62 -1.62 l
o
np
164.56 135.48 m
1.62 1.62 l
o
np
164.56 137.10 m
1.62 -1.62 l
o
np
166.18 141.07 m
1.62 1.62 l
o
np
166.18 142.69 m
1.62 -1.62 l
o
np
167.79 142.19 m
1.62 1.62 l
o
np
167.79 143.81 m
1.62 -1.62 l
o
np
169.40 145.03 m
1.62 1.62 l
o
np
169.40 146.65 m
1.62 -1.62 l
o
np
171.01 149.05 m
1.62 1.62 l
o
np
171.01 150.67 m
1.62 -1.62 l
o
np
172.62 149.40 m
1.62 1.62 l
o
np
172.62 151.02 m
1.62 -1.62 l
o
np
174.24 154.61 m
1.62 1.62 l
o
np
174.24 156.23 m
1.62 -1.62 l
o
np
175.85 155.11 m
1.62 1.62 l
o
np
175.85 156.73 m
1.62 -1.62 l
o
np
177.46 158.17 m
1.62 1.62 l
o
np
177.46 159.79 m
1.62 -1.62 l
o
np
179.07 161.90 m
1.62 1.62 l
o
np
179.07 163.52 m
1.62 -1.62 l
o
np
180.68 162.35 m
1.62 1.62 l
o
np
180.68 163.97 m
1.62 -1.62 l
o
np
182.30 167.74 m
1.62 1.62 l
o
np
182.30 169.36 m
1.62 -1.62 l
o
np
183.91 169.32 m
1.62 1.62 l
o
np
183.91 170.94 m
1.62 -1.62 l
o
np
185.52 172.29 m
1.62 1.62 l
o
np
185.52 173.91 m
1.62 -1.62 l
o
np
187.13 175.92 m
1.62 1.62 l
o
np
187.13 177.54 m
1.62 -1.62 l
o
np
188.74 176.44 m
1.62 1.62 l
o
np
188.74 178.06 m
1.62 -1.62 l
o
np
190.36 181.84 m
1.62 1.62 l
o
np
190.36 183.46 m
1.62 -1.62 l
o
np
191.97 183.01 m
1.62 1.62 l
o
np
191.97 184.63 m
1.62 -1.62 l
o
np
193.58 186.20 m
1.62 1.62 l
o
np
193.58 187.82 m
1.62 -1.62 l
o
np
195.19 189.07 m
1.62 1.62 l
o
np
195.19 190.69 m
1.62 -1.62 l
o
np
196.81 189.76 m
1.62 1.62 l
o
np
196.81 191.38 m
1.62 -1.62 l
o
np
198.42 194.95 m
1.62 1.62 l
o
np
198.42 196.57 m
1.62 -1.62 l
o
np
200.03 195.92 m
1.62 1.62 l
o
np
200.03 197.54 m
1.62 -1.62 l
o
np
201.64 198.89 m
1.62 1.62 l
o
np
201.64 200.51 m
1.62 -1.62 l
o
np
203.25 202.61 m
1.62 1.62 l
o
np
203.25 204.23 m
1.62 -1.62 l
o
np
204.87 203.05 m
1.62 1.62 l
o
np
204.87 204.67 m
1.62 -1.62 l
o
np
206.48 207.70 m
1.62 1.62 l
o
np
206.48 209.32 m
1.62 -1.62 l
o
np
208.09 208.04 m
1.62 1.62 l
o
np
208.09 209.66 m
1.62 -1.62 l
o
np
209.70 211.62 m
1.62 1.62 l
o
np
209.70 213.24 m
1.62 -1.62 l
o
np
211.31 214.96 m
1.62 1.62 l
o
np
211.31 216.58 m
1.62 -1.62 l
o
np
212.93 215.44 m
1.62 1.62 l
o
np
212.93 217.06 m
1.62 -1.62 l
o
np
214.54 219.21 m
1.62 1.62 l
o
np
214.54 220.83 m
1.62 -1.62 l
o
np
216.15 218.95 m
1.62 1.62 l
o
np
216.15 220.57 m
1.62 -1.62 l
o
np
217.76 221.46 m
1.62 1.62 l
o
np
217.76 223.08 m
1.62 -1.62 l
o
np
219.37 223.94 m
1.62 1.62 l
o
np
219.37 225.56 m
1.62 -1.62 l
o
np
220.99 222.89 m
1.62 1.62 l
o
np
220.99 224.51 m
1.62 -1.62 l
o
np
222.60 227.38 m
1.62 1.62 l
o
np
222.60 229.00 m
1.62 -1.62 l
o
np
224.21 226.59 m
1.62 1.62 l
o
np
224.21 228.21 m
1.62 -1.62 l
o
np
225.82 228.45 m
1.62 1.62 l
o
np
225.82 230.07 m
1.62 -1.62 l
o
np
227.43 230.56 m
1.62 1.62 l
o
np
227.43 232.18 m
1.62 -1.62 l
o
np
229.05 230.84 m
1.62 1.62 l
o
np
229.05 232.46 m
1.62 -1.62 l
o
np
230.66 234.78 m
1.62 1.62 l
o
np
230.66 236.40 m
1.62 -1.62 l
o
np
232.27 233.88 m
1.62 1.62 l
o
np
232.27 235.50 m
1.62 -1.62 l
o
np
233.88 236.16 m
1.62 1.62 l
o
np
233.88 237.78 m
1.62 -1.62 l
o
np
235.50 237.26 m
1.62 1.62 l
o
np
235.50 238.88 m
1.62 -1.62 l
o
np
237.11 236.48 m
1.62 1.62 l
o
np
237.11 238.10 m
1.62 -1.62 l
o
np
238.72 240.08 m
1.62 1.62 l
o
np
238.72 241.70 m
1.62 -1.62 l
o
np
240.33 238.49 m
1.62 1.62 l
o
np
240.33 240.11 m
1.62 -1.62 l
o
np
241.94 242.02 m
1.62 1.62 l
o
np
241.94 243.64 m
1.62 -1.62 l
o
np
243.56 242.73 m
1.62 1.62 l
o
np
243.56 244.35 m
1.62 -1.62 l
o
np
245.17 241.95 m
1.62 1.62 l
o
np
245.17 243.57 m
1.62 -1.62 l
o
np
246.78 244.57 m
1.62 1.62 l
o
np
246.78 246.19 m
1.62 -1.62 l
o
np
248.39 242.47 m
1.62 1.62 l
o
np
248.39 244.09 m
1.62 -1.62 l
o
np
250.00 245.07 m
1.62 1.62 l
o
np
250.00 246.69 m
1.62 -1.62 l
o
np
251.62 246.68 m
1.62 1.62 l
o
np
251.62 248.30 m
1.62 -1.62 l
o
np
253.23 244.52 m
1.62 1.62 l
o
np
253.23 246.14 m
1.62 -1.62 l
o
np
254.84 246.82 m
1.62 1.62 l
o
np
254.84 248.44 m
1.62 -1.62 l
o
np
256.45 245.38 m
1.62 1.62 l
o
np
256.45 247.00 m
1.62 -1.62 l
o
np
258.06 248.04 m
1.62 1.62 l
o
np
258.06 249.66 m
1.62 -1.62 l
o
np
259.68 248.65 m
1.62 1.62 l
o
np
259.68 250.27 m
1.62 -1.62 l
o
np
261.29 247.84 m
1.62 1.62 l
o
np
261.29 249.46 m
1.62 -1.62 l
o
np
262.90 249.76 m
1.62 1.62 l
o
np
262.90 251.38 m
1.62 -1.62 l
o
np
264.51 248.68 m
1.62 1.62 l
o
np
264.51 250.30 m
1.62 -1.62 l
o
np
266.12 250.40 m
1.62 1.62 l
o
np
266.12 252.02 m
1.62 -1.62 l
o
np
267.74 250.35 m
1.62 1.62 l
o
np
267.74 251.97 m
1.62 -1.62 l
o
np
269.35 249.08 m
1.62 1.62 l
o
np
269.35 250.70 m
1.62 -1.62 l
o
np
270.96 251.24 m
1.62 1.62 l
o
np
270.96 252.86 m
1.62 -1.62 l
o
np
272.57 248.82 m
1.62 1.62 l
o
np
272.57 250.44 m
1.62 -1.62 l
o
np
274.19 251.48 m
1.62 1.62 l
o
np
274.19 253.10 m
1.62 -1.62 l
o
np
275.80 251.40 m
1.62 1.62 l
o
np
275.80 253.02 m
1.62 -1.62 l
o
np
277.41 250.54 m
1.62 1.62 l
o
np
277.41 252.16 m
1.62 -1.62 l
o
np
279.02 252.31 m
1.62 1.62 l
o
np
279.02 253.93 m
1.62 -1.62 l
o
np
280.63 250.69 m
1.62 1.62 l
o
np
280.63 252.31 m
1.62 -1.62 l
o
np
282.25 252.89 m
1.62 1.62 l
o
np
282.25 254.51 m
1.62 -1.62 l
o
np
283.86 252.43 m
1.62 1.62 l
o
np
283.86 254.05 m
1.62 -1.62 l
o
np
285.47 251.48 m
1.62 1.62 l
o
np
285.47 253.10 m
1.62 -1.62 l
o
np
287.08 253.29 m
1.62 1.62 l
o
np
287.08 254.91 m
1.62 -1.62 l
o
np
288.69 251.43 m
1.62 1.62 l
o
np
288.69 253.05 m
1.62 -1.62 l
o
np
290.31 253.29 m
1.62 1.62 l
o
np
290.31 254.91 m
1.62 -1.62 l
o
np
291.92 253.26 m
1.62 1.62 l
o
np
291.92 254.88 m
1.62 -1.62 l
o
np
293.53 251.47 m
1.62 1.62 l
o
np
293.53 253.09 m
1.62 -1.62 l
o
np
295.14 253.26 m
1.62 1.62 l
o
np
295.14 254.88 m
1.62 -1.62 l
o
np
296.75 251.36 m
1.62 1.62 l
o
np
296.75 252.98 m
1.62 -1.62 l
o
np
298.37 253.36 m
1.62 1.62 l
o
np
298.37 254.98 m
1.62 -1.62 l
o
np
299.98 253.31 m
1.62 1.62 l
o
np
299.98 254.93 m
1.62 -1.62 l
o
np
301.59 251.21 m
1.62 1.62 l
o
np
301.59 252.83 m
1.62 -1.62 l
o
np
303.20 253.55 m
1.62 1.62 l
o
np
303.20 255.17 m
1.62 -1.62 l
o
np
304.81 251.91 m
1.62 1.62 l
o
np
304.81 253.53 m
1.62 -1.62 l
o
np
306.43 253.82 m
1.62 1.62 l
o
np
306.43 255.44 m
1.62 -1.62 l
o
np
308.04 253.27 m
1.62 1.62 l
o
np
308.04 254.89 m
1.62 -1.62 l
o
np
309.65 252.05 m
1.62 1.62 l
o
np
309.65 253.67 m
1.62 -1.62 l
o
np
311.26 254.51 m
1.62 1.62 l
o
np
311.26 256.13 m
1.62 -1.62 l
o
np
312.88 251.83 m
1.62 1.62 l
o
np
312.88 253.45 m
1.62 -1.62 l
o
np
314.49 253.60 m
1.62 1.62 l
o
np
314.49 255.22 m
1.62 -1.62 l
o
np
316.10 253.29 m
1.62 1.62 l
o
np
316.10 254.91 m
1.62 -1.62 l
o
np
317.71 252.36 m
1.62 1.62 l
o
np
317.71 253.98 m
1.62 -1.62 l
o
np
319.32 253.93 m
1.62 1.62 l
o
np
319.32 255.55 m
1.62 -1.62 l
o
np
320.94 250.86 m
1.62 1.62 l
o
np
320.94 252.48 m
1.62 -1.62 l
o
np
322.55 252.88 m
1.62 1.62 l
o
np
322.55 254.50 m
1.62 -1.62 l
o
np
324.16 252.33 m
1.62 1.62 l
o
np
324.16 253.95 m
1.62 -1.62 l
o
np
325.77 251.76 m
1.62 1.62 l
o
np
325.77 253.38 m
1.62 -1.62 l
o
np
327.38 253.55 m
1.62 1.62 l
o
np
327.38 255.17 m
1.62 -1.62 l
o
np
329.00 251.50 m
1.62 1.62 l
o
np
329.00 253.12 m
1.62 -1.62 l
o
np
330.61 253.10 m
1.62 1.62 l
o
np
330.61 254.72 m
1.62 -1.62 l
o
np
332.22 251.95 m
1.62 1.62 l
o
np
332.22 253.57 m
1.62 -1.62 l
o
np
333.83 251.79 m
1.62 1.62 l
o
np
333.83 253.41 m
1.62 -1.62 l
o
np
335.44 253.72 m
1.62 1.62 l
o
np
335.44 255.34 m
1.62 -1.62 l
o
np
337.06 251.31 m
1.62 1.62 l
o
np
337.06 252.93 m
1.62 -1.62 l
o
np
338.67 253.75 m
1.62 1.62 l
o
np
338.67 255.37 m
1.62 -1.62 l
o
np
340.28 252.28 m
1.62 1.62 l
o
np
340.28 253.90 m
1.62 -1.62 l
o
np
341.89 251.66 m
1.62 1.62 l
o
np
341.89 253.28 m
1.62 -1.62 l
o
np
343.50 252.83 m
1.62 1.62 l
o
np
343.50 254.45 m
1.62 -1.62 l
o
np
345.12 250.09 m
1.62 1.62 l
o
np
345.12 251.71 m
1.62 -1.62 l
o
np
346.73 252.69 m
1.62 1.62 l
o
np
346.73 254.31 m
1.62 -1.62 l
o
np
348.34 251.86 m
1.62 1.62 l
o
np
348.34 253.48 m
1.62 -1.62 l
o
np
349.95 251.62 m
1.62 1.62 l
o
np
349.95 253.24 m
1.62 -1.62 l
o
np
351.57 252.77 m
1.62 1.62 l
o
np
351.57 254.39 m
1.62 -1.62 l
o
np
353.18 250.28 m
1.62 1.62 l
o
np
353.18 251.90 m
1.62 -1.62 l
o
np
354.79 252.76 m
1.62 1.62 l
o
np
354.79 254.38 m
1.62 -1.62 l
o
np
356.40 251.95 m
1.62 1.62 l
o
np
356.40 253.57 m
1.62 -1.62 l
o
np
358.01 251.47 m
1.62 1.62 l
o
np
358.01 253.09 m
1.62 -1.62 l
o
np
359.63 251.97 m
1.62 1.62 l
o
np
359.63 253.59 m
1.62 -1.62 l
o
np
361.24 249.66 m
1.62 1.62 l
o
np
361.24 251.28 m
1.62 -1.62 l
o
np
362.85 252.45 m
1.62 1.62 l
o
np
362.85 254.07 m
1.62 -1.62 l
o
np
364.46 251.67 m
1.62 1.62 l
o
np
364.46 253.29 m
1.62 -1.62 l
o
np
366.07 251.59 m
1.62 1.62 l
o
np
366.07 253.21 m
1.62 -1.62 l
o
np
367.69 252.72 m
1.62 1.62 l
o
np
367.69 254.34 m
1.62 -1.62 l
o
np
369.30 250.00 m
1.62 1.62 l
o
np
369.30 251.62 m
1.62 -1.62 l
o
np
370.91 252.14 m
1.62 1.62 l
o
np
370.91 253.76 m
1.62 -1.62 l
o
np
372.52 250.81 m
1.62 1.62 l
o
np
372.52 252.43 m
1.62 -1.62 l
o
np
374.13 251.24 m
1.62 1.62 l
o
np
374.13 252.86 m
1.62 -1.62 l
o
np
375.75 252.10 m
1.62 1.62 l
o
np
375.75 253.72 m
1.62 -1.62 l
o
np
377.36 249.71 m
1.62 1.62 l
o
np
377.36 251.33 m
1.62 -1.62 l
o
np
378.97 251.71 m
1.62 1.62 l
o
np
378.97 253.33 m
1.62 -1.62 l
o
np
380.58 250.00 m
1.62 1.62 l
o
np
380.58 251.62 m
1.62 -1.62 l
o
np
382.20 250.52 m
1.62 1.62 l
o
np
382.20 252.14 m
1.62 -1.62 l
o
np
383.81 251.72 m
1.62 1.62 l
o
np
383.81 253.34 m
1.62 -1.62 l
o
np
385.42 249.59 m
1.62 1.62 l
o
np
385.42 251.21 m
1.62 -1.62 l
o
np
387.03 251.67 m
1.62 1.62 l
o
np
387.03 253.29 m
1.62 -1.62 l
o
np
388.64 249.95 m
1.62 1.62 l
o
np
388.64 251.57 m
1.62 -1.62 l
o
np
390.26 250.78 m
1.62 1.62 l
o
np
390.26 252.40 m
1.62 -1.62 l
o
np
391.87 251.62 m
1.62 1.62 l
o
np
391.87 253.24 m
1.62 -1.62 l
o
0 1 1 srgb
np
70.73 84.47 m
1.14 1.15 l
1.15 -1.15 l
-1.15 -1.15 l
-1.14 1.15 l
o
np
72.34 83.91 m
1.14 1.15 l
1.15 -1.15 l
-1.15 -1.14 l
-1.14 1.14 l
o
np
73.95 83.34 m
1.15 1.14 l
1.14 -1.14 l
-1.14 -1.15 l
-1.15 1.15 l
o
np
75.56 84.95 m
1.15 1.14 l
1.14 -1.14 l
-1.14 -1.15 l
-1.15 1.15 l
o
np
77.18 83.51 m
1.14 1.15 l
1.15 -1.15 l
-1.15 -1.14 l
-1.14 1.14 l
o
np
78.79 84.32 m
1.14 1.15 l
1.15 -1.15 l
-1.15 -1.14 l
-1.14 1.14 l
o
np
80.40 84.54 m
1.14 1.14 l
1.15 -1.14 l
-1.15 -1.15 l
-1.14 1.15 l
o
np
82.01 82.86 m
1.15 1.15 l
1.14 -1.15 l
-1.14 -1.14 l
-1.15 1.14 l
o
np
83.62 85.34 m
1.15 1.15 l
1.14 -1.15 l
-1.14 -1.14 l
-1.15 1.14 l
o
np
85.24 83.18 m
1.14 1.14 l
1.15 -1.14 l
-1.15 -1.15 l
-1.14 1.15 l
o
np
86.85 85.63 m
1.14 1.14 l
1.15 -1.14 l
-1.15 -1.15 l
-1.14 1.15 l
o
np
88.46 84.36 m
1.15 1.15 l
1.14 -1.15 l
-1.14 -1.14 l
-1.15 1.14 l
o
np
90.07 83.93 m
1.15 1.14 l
1.14 -1.14 l
-1.14 -1.15 l
-1.15 1.15 l
o
np
91.68 85.17 m
1.15 1.14 l
1.14 -1.14 l
-1.14 -1.15 l
-1.15 1.15 l
o
np
93.30 83.30 m
1.14 1.15 l
1.15 -1.15 l
-1.15 -1.14 l
-1.14 1.14 l
o
np
94.91 85.78 m
1.14 1.15 l
1.15 -1.15 l
-1.15 -1.14 l
-1.14 1.14 l
o
np
96.52 85.35 m
1.15 1.15 l
1.14 -1.15 l
-1.14 -1.14 l
-1.15 1.14 l
o
np
98.13 84.76 m
1.15 1.14 l
1.14 -1.14 l
-1.14 -1.15 l
-1.15 1.15 l
o
np
99.74 86.01 m
1.15 1.14 l
1.15 -1.14 l
-1.15 -1.15 l
-1.15 1.15 l
o
np
101.36 83.30 m
1.14 1.15 l
1.15 -1.15 l
-1.15 -1.14 l
-1.14 1.14 l
o
np
102.97 85.95 m
1.14 1.15 l
1.15 -1.15 l
-1.15 -1.14 l
-1.14 1.14 l
o
np
104.58 85.05 m
1.15 1.15 l
1.14 -1.15 l
-1.14 -1.14 l
-1.15 1.14 l
o
np
106.19 85.57 m
1.15 1.15 l
1.14 -1.15 l
-1.14 -1.14 l
-1.15 1.14 l
o
np
107.80 86.06 m
1.15 1.14 l
1.15 -1.14 l
-1.15 -1.15 l
-1.15 1.15 l
o
np
109.42 84.45 m
1.14 1.15 l
1.15 -1.15 l
-1.15 -1.14 l
-1.14 1.14 l
o
np
111.03 86.28 m
1.14 1.14 l
1.15 -1.14 l
-1.15 -1.15 l
-1.14 1.15 l
o
np
112.64 84.93 m
1.15 1.14 l
1.14 -1.14 l
-1.14 -1.15 l
-1.15 1.15 l
o
np
114.25 86.20 m
1.15 1.14 l
1.14 -1.14 l
-1.14 -1.15 l
-1.15 1.15 l
o
np
115.87 87.05 m
1.14 1.15 l
1.15 -1.15 l
-1.15 -1.14 l
-1.14 1.14 l
o
np
117.48 85.62 m
1.14 1.14 l
1.15 -1.14 l
-1.15 -1.15 l
-1.14 1.15 l
o
np
119.09 88.53 m
1.14 1.15 l
1.15 -1.15 l
-1.15 -1.14 l
-1.14 1.14 l
o
np
120.70 86.77 m
1.15 1.14 l
1.14 -1.14 l
-1.14 -1.15 l
-1.15 1.15 l
o
np
122.31 88.74 m
1.15 1.14 l
1.14 -1.14 l
-1.14 -1.15 l
-1.15 1.15 l
o
np
123.93 89.22 m
1.14 1.14 l
1.15 -1.14 l
-1.15 -1.15 l
-1.14 1.15 l
o
np
125.54 88.36 m
1.14 1.14 l
1.15 -1.14 l
-1.15 -1.15 l
-1.14 1.15 l
o
np
127.15 90.39 m
1.15 1.14 l
1.14 -1.14 l
-1.14 -1.15 l
-1.15 1.15 l
o
np
128.76 89.27 m
1.15 1.15 l
1.14 -1.15 l
-1.14 -1.14 l
-1.15 1.14 l
o
np
130.37 91.92 m
1.15 1.15 l
1.14 -1.15 l
-1.14 -1.14 l
-1.15 1.14 l
o
np
131.99 92.80 m
1.14 1.14 l
1.15 -1.14 l
-1.15 -1.15 l
-1.14 1.15 l
o
np
133.60 92.44 m
1.14 1.14 l
1.15 -1.14 l
-1.15 -1.15 l
-1.14 1.15 l
o
np
135.21 95.51 m
1.15 1.15 l
1.14 -1.15 l
-1.14 -1.14 l
-1.15 1.14 l
o
np
136.82 94.22 m
1.15 1.15 l
1.14 -1.15 l
-1.14 -1.14 l
-1.15 1.14 l
o
np
138.43 97.47 m
1.15 1.15 l
1.15 -1.15 l
-1.15 -1.14 l
-1.15 1.14 l
o
np
140.05 97.79 m
1.14 1.15 l
1.15 -1.15 l
-1.15 -1.14 l
-1.14 1.14 l
o
np
141.66 99.04 m
1.14 1.14 l
1.15 -1.14 l
-1.15 -1.15 l
-1.14 1.15 l
o
np
143.27 101.37 m
1.15 1.15 l
1.14 -1.15 l
-1.14 -1.14 l
-1.15 1.14 l
o
np
144.88 99.97 m
1.15 1.14 l
1.14 -1.14 l
-1.14 -1.15 l
-1.15 1.15 l
o
np
146.49 103.38 m
1.15 1.14 l
1.15 -1.14 l
-1.15 -1.15 l
-1.15 1.15 l
o
np
148.11 103.86 m
1.14 1.14 l
1.15 -1.14 l
-1.15 -1.15 l
-1.14 1.15 l
o
np
149.72 105.77 m
1.14 1.14 l
1.15 -1.14 l
-1.15 -1.15 l
-1.14 1.15 l
o
np
151.33 108.16 m
1.15 1.15 l
1.14 -1.15 l
-1.14 -1.15 l
-1.15 1.15 l
o
np
152.94 107.56 m
1.15 1.14 l
1.14 -1.14 l
-1.14 -1.15 l
-1.15 1.15 l
o
np
154.56 112.19 m
1.14 1.14 l
1.15 -1.14 l
-1.15 -1.15 l
-1.14 1.15 l
o
np
156.17 111.77 m
1.14 1.15 l
1.15 -1.15 l
-1.15 -1.14 l
-1.14 1.14 l
o
np
157.78 114.15 m
1.14 1.14 l
1.15 -1.14 l
-1.15 -1.15 l
-1.14 1.15 l
o
np
159.39 116.47 m
1.15 1.14 l
1.14 -1.14 l
-1.14 -1.15 l
-1.15 1.15 l
o
np
161.00 116.56 m
1.15 1.14 l
1.14 -1.14 l
-1.14 -1.15 l
-1.15 1.15 l
o
np
162.62 120.48 m
1.14 1.14 l
1.15 -1.14 l
-1.15 -1.15 l
-1.14 1.15 l
o
np
164.23 120.39 m
1.14 1.15 l
1.15 -1.15 l
-1.15 -1.14 l
-1.14 1.14 l
o
np
165.84 123.47 m
1.15 1.15 l
1.14 -1.15 l
-1.14 -1.14 l
-1.15 1.14 l
o
np
167.45 125.48 m
1.15 1.15 l
1.14 -1.15 l
-1.14 -1.14 l
-1.15 1.14 l
o
np
169.06 125.54 m
1.15 1.14 l
1.15 -1.14 l
-1.15 -1.15 l
-1.15 1.15 l
o
np
170.68 129.66 m
1.14 1.15 l
1.15 -1.15 l
-1.15 -1.14 l
-1.14 1.14 l
o
np
172.29 129.22 m
1.14 1.14 l
1.15 -1.14 l
-1.15 -1.15 l
-1.14 1.15 l
o
np
173.90 132.45 m
1.15 1.15 l
1.14 -1.15 l
-1.14 -1.14 l
-1.15 1.14 l
o
np
175.51 134.15 m
1.15 1.15 l
1.14 -1.15 l
-1.14 -1.14 l
-1.15 1.14 l
o
np
177.12 135.12 m
1.15 1.14 l
1.15 -1.14 l
-1.15 -1.15 l
-1.15 1.15 l
o
np
178.74 138.90 m
1.14 1.15 l
1.15 -1.15 l
-1.15 -1.14 l
-1.14 1.14 l
o
np
180.35 138.70 m
1.14 1.14 l
1.15 -1.14 l
-1.15 -1.15 l
-1.14 1.15 l
o
np
181.96 142.93 m
1.15 1.14 l
1.14 -1.14 l
-1.14 -1.15 l
-1.15 1.15 l
o
np
183.57 144.01 m
1.15 1.15 l
1.14 -1.15 l
-1.14 -1.14 l
-1.15 1.14 l
o
np
185.18 145.87 m
1.15 1.15 l
1.15 -1.15 l
-1.15 -1.14 l
-1.15 1.14 l
o
np
186.80 149.60 m
1.14 1.15 l
1.15 -1.15 l
-1.15 -1.14 l
-1.14 1.14 l
o
np
188.41 149.54 m
1.14 1.14 l
1.15 -1.14 l
-1.15 -1.15 l
-1.14 1.15 l
o
np
190.02 153.53 m
1.15 1.14 l
1.14 -1.14 l
-1.14 -1.15 l
-1.15 1.15 l
o
np
191.63 154.51 m
1.15 1.14 l
1.14 -1.14 l
-1.14 -1.15 l
-1.15 1.15 l
o
np
193.25 157.40 m
1.14 1.14 l
1.15 -1.14 l
-1.15 -1.15 l
-1.14 1.15 l
o
np
194.86 160.73 m
1.14 1.15 l
1.15 -1.15 l
-1.15 -1.14 l
-1.14 1.14 l
o
np
196.47 160.84 m
1.15 1.14 l
1.14 -1.14 l
-1.14 -1.15 l
-1.15 1.15 l
o
np
198.08 165.23 m
1.15 1.14 l
1.14 -1.14 l
-1.14 -1.15 l
-1.15 1.15 l
o
np
199.69 165.90 m
1.15 1.14 l
1.14 -1.14 l
-1.14 -1.15 l
-1.15 1.15 l
o
np
201.31 168.46 m
1.14 1.14 l
1.15 -1.14 l
-1.15 -1.15 l
-1.14 1.15 l
o
np
202.92 171.42 m
1.14 1.14 l
1.15 -1.14 l
-1.15 -1.15 l
-1.14 1.15 l
o
np
204.53 172.14 m
1.15 1.15 l
1.14 -1.15 l
-1.14 -1.14 l
-1.15 1.14 l
o
np
206.14 176.46 m
1.15 1.14 l
1.14 -1.14 l
-1.14 -1.15 l
-1.15 1.15 l
o
np
207.75 177.49 m
1.15 1.15 l
1.15 -1.15 l
-1.15 -1.14 l
-1.15 1.14 l
o
np
209.37 180.26 m
1.14 1.15 l
1.15 -1.15 l
-1.15 -1.14 l
-1.14 1.14 l
o
np
210.98 182.74 m
1.14 1.14 l
1.15 -1.14 l
-1.15 -1.15 l
-1.14 1.15 l
o
np
212.59 183.25 m
1.15 1.15 l
1.14 -1.15 l
-1.14 -1.14 l
-1.15 1.14 l
o
np
214.20 187.57 m
1.15 1.15 l
1.14 -1.15 l
-1.14 -1.14 l
-1.15 1.14 l
o
np
215.81 187.61 m
1.15 1.14 l
1.15 -1.14 l
-1.15 -1.15 l
-1.15 1.15 l
o
np
217.43 191.72 m
1.14 1.14 l
1.15 -1.14 l
-1.15 -1.15 l
-1.14 1.15 l
o
np
219.04 193.01 m
1.14 1.14 l
1.15 -1.14 l
-1.15 -1.15 l
-1.14 1.15 l
o
np
220.65 193.94 m
1.15 1.14 l
1.14 -1.14 l
-1.14 -1.15 l
-1.15 1.15 l
o
np
222.26 197.81 m
1.15 1.14 l
1.14 -1.14 l
-1.14 -1.15 l
-1.15 1.15 l
o
np
223.87 198.29 m
1.15 1.15 l
1.15 -1.15 l
-1.15 -1.14 l
-1.15 1.14 l
o
np
225.49 202.25 m
1.14 1.14 l
1.15 -1.14 l
-1.15 -1.15 l
-1.14 1.15 l
o
np
227.10 203.59 m
1.14 1.15 l
1.15 -1.15 l
-1.15 -1.15 l
-1.14 1.15 l
o
np
228.71 204.07 m
1.15 1.15 l
1.14 -1.15 l
-1.14 -1.14 l
-1.15 1.14 l
o
np
230.32 208.42 m
1.15 1.15 l
1.14 -1.15 l
-1.14 -1.14 l
-1.15 1.14 l
o
np
231.94 208.44 m
1.14 1.15 l
1.15 -1.15 l
-1.15 -1.14 l
-1.14 1.14 l
o
np
233.55 212.79 m
1.14 1.15 l
1.15 -1.15 l
-1.15 -1.14 l
-1.14 1.14 l
o
np
235.16 214.08 m
1.15 1.15 l
1.14 -1.15 l
-1.14 -1.14 l
-1.15 1.14 l
o
np
236.77 215.17 m
1.15 1.14 l
1.14 -1.14 l
-1.14 -1.15 l
-1.15 1.15 l
o
np
238.38 218.30 m
1.15 1.14 l
1.14 -1.14 l
-1.14 -1.15 l
-1.15 1.15 l
o
np
240.00 217.78 m
1.14 1.15 l
1.15 -1.15 l
-1.15 -1.14 l
-1.14 1.14 l
o
np
241.61 221.34 m
1.14 1.15 l
1.15 -1.15 l
-1.15 -1.14 l
-1.14 1.14 l
o
np
243.22 221.98 m
1.15 1.15 l
1.14 -1.15 l
-1.14 -1.14 l
-1.15 1.14 l
o
np
244.83 223.49 m
1.15 1.15 l
1.14 -1.15 l
-1.14 -1.14 l
-1.15 1.14 l
o
np
246.44 226.33 m
1.15 1.15 l
1.15 -1.15 l
-1.15 -1.14 l
-1.15 1.14 l
o
np
248.06 226.01 m
1.14 1.14 l
1.15 -1.14 l
-1.15 -1.15 l
-1.14 1.15 l
o
np
249.67 229.65 m
1.14 1.15 l
1.15 -1.15 l
-1.15 -1.14 l
-1.14 1.14 l
o
np
251.28 229.50 m
1.15 1.14 l
1.14 -1.14 l
-1.14 -1.15 l
-1.15 1.15 l
o
np
252.89 231.86 m
1.15 1.14 l
1.14 -1.14 l
-1.14 -1.15 l
-1.15 1.15 l
o
np
254.50 233.70 m
1.15 1.14 l
1.15 -1.14 l
-1.15 -1.15 l
-1.15 1.15 l
o
np
256.12 233.13 m
1.14 1.14 l
1.15 -1.14 l
-1.15 -1.15 l
-1.14 1.15 l
o
np
257.73 236.14 m
1.14 1.14 l
1.15 -1.14 l
-1.15 -1.15 l
-1.14 1.15 l
o
np
259.34 234.71 m
1.15 1.15 l
1.14 -1.15 l
-1.14 -1.14 l
-1.15 1.14 l
o
np
260.95 237.22 m
1.15 1.15 l
1.14 -1.15 l
-1.14 -1.14 l
-1.15 1.14 l
o
np
262.57 239.00 m
1.14 1.14 l
1.15 -1.14 l
-1.15 -1.15 l
-1.14 1.15 l
o
np
264.18 238.22 m
1.14 1.15 l
1.15 -1.15 l
-1.15 -1.14 l
-1.14 1.14 l
o
np
265.79 240.61 m
1.14 1.15 l
1.15 -1.15 l
-1.15 -1.14 l
-1.14 1.14 l
o
np
267.40 239.01 m
1.15 1.15 l
1.14 -1.15 l
-1.14 -1.14 l
-1.15 1.14 l
o
np
269.01 242.04 m
1.15 1.15 l
1.14 -1.15 l
-1.14 -1.15 l
-1.15 1.15 l
o
np
270.63 243.02 m
1.14 1.15 l
1.15 -1.15 l
-1.15 -1.14 l
-1.14 1.14 l
o
np
272.24 242.75 m
1.14 1.14 l
1.15 -1.14 l
-1.15 -1.15 l
-1.14 1.15 l
o
np
273.85 244.62 m
1.15 1.15 l
1.14 -1.15 l
-1.14 -1.14 l
-1.15 1.14 l
o
np
275.46 243.69 m
1.15 1.15 l
1.14 -1.15 l
-1.14 -1.14 l
-1.15 1.14 l
o
np
277.07 246.38 m
1.15 1.14 l
1.14 -1.14 l
-1.14 -1.15 l
-1.15 1.15 l
o
np
278.69 246.26 m
1.14 1.14 l
1.15 -1.14 l
-1.15 -1.15 l
-1.14 1.15 l
o
np
280.30 246.58 m
1.14 1.15 l
1.15 -1.15 l
-1.15 -1.14 l
-1.14 1.14 l
o
np
281.91 248.25 m
1.15 1.15 l
1.14 -1.15 l
-1.14 -1.14 l
-1.15 1.14 l
o
np
283.52 246.08 m
1.15 1.15 l
1.14 -1.15 l
-1.14 -1.14 l
-1.15 1.14 l
o
np
285.13 248.84 m
1.15 1.14 l
1.15 -1.14 l
-1.15 -1.15 l
-1.15 1.15 l
o
np
286.75 247.96 m
1.14 1.14 l
1.15 -1.14 l
-1.15 -1.15 l
-1.14 1.15 l
o
np
288.36 248.34 m
1.14 1.14 l
1.15 -1.14 l
-1.15 -1.15 l
-1.14 1.15 l
o
np
289.97 250.02 m
1.15 1.15 l
1.14 -1.15 l
-1.14 -1.14 l
-1.15 1.14 l
o
np
291.58 248.01 m
1.15 1.15 l
1.14 -1.15 l
-1.14 -1.15 l
-1.15 1.15 l
o
np
293.19 250.04 m
1.15 1.15 l
1.15 -1.15 l
-1.15 -1.15 l
-1.15 1.15 l
o
np
294.81 249.64 m
1.14 1.15 l
1.15 -1.15 l
-1.15 -1.14 l
-1.14 1.14 l
o
np
296.42 250.02 m
1.14 1.15 l
1.15 -1.15 l
-1.15 -1.14 l
-1.14 1.14 l
o
np
298.03 251.35 m
1.15 1.14 l
1.14 -1.14 l
-1.14 -1.15 l
-1.15 1.15 l
o
np
299.64 249.33 m
1.15 1.15 l
1.14 -1.15 l
-1.14 -1.14 l
-1.15 1.14 l
o
np
301.26 252.36 m
1.14 1.15 l
1.15 -1.15 l
-1.15 -1.14 l
-1.14 1.14 l
o
np
302.87 250.49 m
1.14 1.14 l
1.15 -1.14 l
-1.15 -1.15 l
-1.14 1.15 l
o
np
304.48 251.59 m
1.14 1.14 l
1.15 -1.14 l
-1.15 -1.15 l
-1.14 1.15 l
o
np
306.09 252.35 m
1.15 1.14 l
1.14 -1.14 l
-1.14 -1.15 l
-1.15 1.15 l
o
np
307.70 250.73 m
1.15 1.14 l
1.14 -1.14 l
-1.14 -1.15 l
-1.15 1.15 l
o
np
309.32 253.29 m
1.14 1.15 l
1.15 -1.15 l
-1.15 -1.14 l
-1.14 1.14 l
o
np
310.93 251.69 m
1.14 1.15 l
1.15 -1.15 l
-1.15 -1.14 l
-1.14 1.14 l
o
np
312.54 253.07 m
1.15 1.14 l
1.14 -1.14 l
-1.14 -1.15 l
-1.15 1.15 l
o
np
314.15 254.03 m
1.15 1.15 l
1.14 -1.15 l
-1.14 -1.14 l
-1.15 1.14 l
o
np
315.76 251.83 m
1.15 1.14 l
1.14 -1.14 l
-1.14 -1.15 l
-1.15 1.15 l
o
np
317.38 254.03 m
1.14 1.15 l
1.15 -1.15 l
-1.15 -1.14 l
-1.14 1.14 l
o
np
318.99 251.97 m
1.14 1.14 l
1.15 -1.14 l
-1.15 -1.15 l
-1.14 1.15 l
o
np
320.60 254.15 m
1.15 1.15 l
1.14 -1.15 l
-1.14 -1.14 l
-1.15 1.14 l
o
np
322.21 253.02 m
1.15 1.14 l
1.14 -1.14 l
-1.14 -1.15 l
-1.15 1.15 l
o
np
323.82 252.81 m
1.15 1.15 l
1.15 -1.15 l
-1.15 -1.15 l
-1.15 1.15 l
o
np
325.44 254.62 m
1.14 1.14 l
1.15 -1.14 l
-1.15 -1.15 l
-1.14 1.15 l
o
np
327.05 252.21 m
1.14 1.14 l
1.15 -1.14 l
-1.15 -1.15 l
-1.14 1.15 l
o
np
328.66 254.53 m
1.15 1.15 l
1.14 -1.15 l
-1.14 -1.15 l
-1.15 1.15 l
o
np
330.27 253.81 m
1.15 1.14 l
1.14 -1.14 l
-1.14 -1.15 l
-1.15 1.15 l
o
np
331.88 253.33 m
1.15 1.14 l
1.15 -1.14 l
-1.15 -1.15 l
-1.15 1.15 l
o
np
333.50 254.70 m
1.14 1.15 l
1.15 -1.15 l
-1.15 -1.14 l
-1.14 1.14 l
o
np
335.11 252.40 m
1.14 1.14 l
1.15 -1.14 l
-1.15 -1.15 l
-1.14 1.15 l
o
np
336.72 254.91 m
1.15 1.14 l
1.14 -1.14 l
-1.14 -1.15 l
-1.15 1.15 l
o
np
338.33 253.22 m
1.15 1.15 l
1.14 -1.15 l
-1.14 -1.14 l
-1.15 1.14 l
o
np
339.95 253.05 m
1.14 1.15 l
1.15 -1.15 l
-1.15 -1.14 l
-1.14 1.14 l
o
np
341.56 254.38 m
1.14 1.14 l
1.15 -1.14 l
-1.15 -1.15 l
-1.14 1.15 l
o
np
343.17 252.93 m
1.14 1.15 l
1.15 -1.15 l
-1.15 -1.15 l
-1.14 1.15 l
o
np
344.78 254.67 m
1.15 1.14 l
1.14 -1.14 l
-1.14 -1.15 l
-1.15 1.15 l
o
np
346.39 253.29 m
1.15 1.15 l
1.14 -1.15 l
-1.14 -1.14 l
-1.15 1.14 l
o
np
348.01 253.77 m
1.14 1.15 l
1.15 -1.15 l
-1.15 -1.14 l
-1.14 1.14 l
o
np
349.62 254.53 m
1.14 1.15 l
1.15 -1.15 l
-1.15 -1.15 l
-1.14 1.15 l
o
np
351.23 253.38 m
1.15 1.14 l
1.14 -1.14 l
-1.14 -1.15 l
-1.15 1.15 l
o
np
352.84 255.53 m
1.15 1.14 l
1.14 -1.14 l
-1.14 -1.15 l
-1.15 1.15 l
o
np
354.45 253.15 m
1.15 1.15 l
1.15 -1.15 l
-1.15 -1.14 l
-1.15 1.14 l
o
np
356.07 254.27 m
1.14 1.15 l
1.15 -1.15 l
-1.15 -1.14 l
-1.14 1.14 l
o
np
357.68 254.38 m
1.14 1.14 l
1.15 -1.14 l
-1.15 -1.15 l
-1.14 1.15 l
o
np
359.29 253.22 m
1.15 1.15 l
1.14 -1.15 l
-1.14 -1.14 l
-1.15 1.14 l
o
np
360.90 254.82 m
1.15 1.15 l
1.14 -1.15 l
-1.14 -1.14 l
-1.15 1.14 l
o
np
362.51 252.78 m
1.15 1.14 l
1.15 -1.14 l
-1.15 -1.15 l
-1.15 1.15 l
o
np
364.13 253.70 m
1.14 1.15 l
1.15 -1.15 l
-1.15 -1.14 l
-1.14 1.14 l
o
np
365.74 253.98 m
1.14 1.15 l
1.15 -1.15 l
-1.15 -1.15 l
-1.14 1.15 l
o
np
367.35 252.78 m
1.15 1.14 l
1.14 -1.14 l
-1.14 -1.15 l
-1.15 1.15 l
o
np
368.96 254.70 m
1.15 1.15 l
1.14 -1.15 l
-1.14 -1.14 l
-1.15 1.14 l
o
np
370.57 252.12 m
1.15 1.15 l
1.15 -1.15 l
-1.15 -1.14 l
-1.15 1.14 l
o
np
372.19 254.05 m
1.14 1.14 l
1.15 -1.14 l
-1.15 -1.15 l
-1.14 1.15 l
o
np
373.80 253.60 m
1.14 1.15 l
1.15 -1.15 l
-1.15 -1.14 l
-1.14 1.14 l
o
np
375.41 252.60 m
1.15 1.15 l
1.14 -1.15 l
-1.14 -1.14 l
-1.15 1.14 l
o
np
377.02 254.05 m
1.15 1.14 l
1.14 -1.14 l
-1.14 -1.15 l
-1.15 1.15 l
o
np
378.64 251.86 m
1.14 1.15 l
1.15 -1.15 l
-1.15 -1.14 l
-1.14 1.14 l
o
np
380.25 253.46 m
1.14 1.15 l
1.15 -1.15 l
-1.15 -1.14 l
-1.14 1.14 l
o
np
381.86 253.05 m
1.15 1.15 l
1.14 -1.15 l
-1.14 -1.14 l
-1.15 1.14 l
o
np
383.47 252.78 m
1.15 1.14 l
1.14 -1.14 l
-1.14 -1.15 l
-1.15 1.15 l
o
np
385.08 254.50 m
1.15 1.14 l
1.14 -1.14 l
-1.14 -1.15 l
-1.15 1.15 l
o
np
386.70 251.78 m
1.14 1.14 l
1.15 -1.14 l
-1.15 -1.15 l
-1.14 1.15 l
o
np
388.31 254.86 m
1.14 1.14 l
1.15 -1.14 l
-1.15 -1.15 l
-1.14 1.15 l
o
np
389.92 253.33 m
1.15 1.14 l
1.14 -1.14 l
-1.14 -1.15 l
-1.15 1.15 l
o
np
391.53 253.74 m
1.15 1.14 l
1.14 -1.14 l
-1.14 -1.15 l
-1.15 1.15 l
o
1 0 1 srgb
np
71.87 83.21 m
1.09 1.89 l
-2.18 0 l
1.09 -1.89 l
o
np
73.48 82.45 m
1.10 1.89 l
-2.19 0 l
1.09 -1.89 l
o
np
75.10 82.89 m
1.09 1.89 l
-2.18 0 l
1.09 -1.89 l
o
np
76.71 84.06 m
1.09 1.89 l
-2.18 0 l
1.09 -1.89 l
o
np
78.32 82.17 m
1.09 1.89 l
-2.18 0 l
1.09 -1.89 l
o
np
79.93 85.02 m
1.09 1.89 l
-2.18 0 l
1.09 -1.89 l
o
np
81.54 82.35 m
1.10 1.89 l
-2.19 0 l
1.09 -1.89 l
o
np
83.16 83.53 m
1.09 1.89 l
-2.18 0 l
1.09 -1.89 l
o
np
84.77 84.07 m
1.09 1.89 l
-2.18 0 l
1.09 -1.89 l
o
np
86.38 81.76 m
1.09 1.88 l
-2.18 0 l
1.09 -1.88 l
o
np
87.99 83.81 m
1.09 1.89 l
-2.18 0 l
1.09 -1.89 l
o
np
89.61 82.01 m
1.09 1.89 l
-2.19 0 l
1.10 -1.89 l
o
np
91.22 84.16 m
1.09 1.89 l
-2.18 0 l
1.09 -1.89 l
o
np
92.83 84.37 m
1.09 1.89 l
-2.18 0 l
1.09 -1.89 l
o
np
94.44 81.98 m
1.09 1.89 l
-2.18 0 l
1.09 -1.89 l
o
np
96.05 83.56 m
1.09 1.89 l
-2.18 0 l
1.09 -1.89 l
o
np
97.67 81.57 m
1.09 1.89 l
-2.19 0 l
1.10 -1.89 l
o
np
99.28 84.38 m
1.09 1.89 l
-2.18 0 l
1.09 -1.89 l
o
np
100.89 83.52 m
1.09 1.89 l
-2.18 0 l
1.09 -1.89 l
o
np
102.50 82.91 m
1.09 1.89 l
-2.18 0 l
1.09 -1.89 l
o
np
104.11 84.48 m
1.09 1.89 l
-2.18 0 l
1.09 -1.89 l
o
np
105.73 81.96 m
1.09 1.89 l
-2.18 0 l
1.09 -1.89 l
o
np
107.34 84.17 m
1.09 1.89 l
-2.18 0 l
1.09 -1.89 l
o
np
108.95 82.24 m
1.09 1.89 l
-2.18 0 l
1.09 -1.89 l
o
np
110.56 82.35 m
1.09 1.89 l
-2.18 0 l
1.09 -1.89 l
o
np
112.17 83.91 m
1.10 1.89 l
-2.19 0 l
1.09 -1.89 l
o
np
113.79 81.30 m
1.09 1.89 l
-2.18 0 l
1.09 -1.89 l
o
np
115.40 84.55 m
1.09 1.89 l
-2.18 0 l
1.09 -1.89 l
o
np
117.01 82.67 m
1.09 1.89 l
-2.18 0 l
1.09 -1.89 l
o
np
118.62 84.23 m
1.09 1.89 l
-2.18 0 l
1.09 -1.89 l
o
np
120.23 84.91 m
1.10 1.89 l
-2.19 0 l
1.09 -1.89 l
o
np
121.85 84.18 m
1.09 1.89 l
-2.18 0 l
1.09 -1.89 l
o
np
123.46 86.94 m
1.09 1.89 l
-2.18 0 l
1.09 -1.89 l
o
np
125.07 84.59 m
1.09 1.89 l
-2.18 0 l
1.09 -1.89 l
o
np
126.68 86.85 m
1.09 1.89 l
-2.18 0 l
1.09 -1.89 l
o
np
128.30 86.82 m
1.09 1.89 l
-2.19 0 l
1.10 -1.89 l
o
np
129.91 85.84 m
1.09 1.89 l
-2.18 0 l
1.09 -1.89 l
o
np
131.52 88.62 m
1.09 1.89 l
-2.18 0 l
1.09 -1.89 l
o
np
133.13 85.74 m
1.09 1.89 l
-2.18 0 l
1.09 -1.89 l
o
np
134.74 89.12 m
1.09 1.89 l
-2.18 0 l
1.09 -1.89 l
o
np
136.36 87.85 m
1.09 1.89 l
-2.19 0 l
1.10 -1.89 l
o
np
137.97 87.86 m
1.09 1.89 l
-2.18 0 l
1.09 -1.89 l
o
np
139.58 90.66 m
1.09 1.89 l
-2.18 0 l
1.09 -1.89 l
o
np
141.19 89.13 m
1.09 1.89 l
-2.18 0 l
1.09 -1.89 l
o
np
142.80 92.81 m
1.09 1.89 l
-2.18 0 l
1.09 -1.89 l
o
np
144.42 91.94 m
1.09 1.89 l
-2.18 0 l
1.09 -1.89 l
o
np
146.03 93.50 m
1.09 1.89 l
-2.18 0 l
1.09 -1.89 l
o
np
147.64 95.32 m
1.09 1.89 l
-2.18 0 l
1.09 -1.89 l
o
np
149.25 94.06 m
1.09 1.89 l
-2.18 0 l
1.09 -1.89 l
o
np
150.86 97.85 m
1.10 1.89 l
-2.19 0 l
1.09 -1.89 l
o
np
152.48 96.38 m
1.09 1.89 l
-2.18 0 l
1.09 -1.89 l
o
np
154.09 99.23 m
1.09 1.89 l
-2.18 0 l
1.09 -1.89 l
o
np
155.70 100.23 m
1.09 1.89 l
-2.18 0 l
1.09 -1.89 l
o
np
157.31 99.59 m
1.09 1.89 l
-2.18 0 l
1.09 -1.89 l
o
np
158.92 103.34 m
1.10 1.89 l
-2.19 0 l
1.09 -1.89 l
o
np
160.54 100.84 m
1.09 1.89 l
-2.18 0 l
1.09 -1.89 l
o
np
162.15 105.13 m
1.09 1.89 l
-2.18 0 l
1.09 -1.89 l
o
np
163.76 106.35 m
1.09 1.89 l
-2.18 0 l
1.09 -1.89 l
o
np
165.37 106.06 m
1.09 1.89 l
-2.18 0 l
1.09 -1.89 l
o
np
166.99 109.70 m
1.09 1.89 l
-2.19 0 l
1.10 -1.89 l
o
np
168.60 107.83 m
1.09 1.89 l
-2.18 0 l
1.09 -1.89 l
o
np
170.21 111.67 m
1.09 1.89 l
-2.18 0 l
1.09 -1.89 l
o
np
171.82 111.56 m
1.09 1.89 l
-2.18 0 l
1.09 -1.89 l
o
np
173.43 113.83 m
1.09 1.89 l
-2.18 0 l
1.09 -1.89 l
o
np
175.05 115.98 m
1.09 1.89 l
-2.19 0 l
1.10 -1.89 l
o
np
176.66 114.97 m
1.09 1.89 l
-2.18 0 l
1.09 -1.89 l
o
np
178.27 119.25 m
1.09 1.89 l
-2.18 0 l
1.09 -1.89 l
o
np
179.88 118.74 m
1.09 1.89 l
-2.18 0 l
1.09 -1.89 l
o
np
181.49 121.27 m
1.10 1.88 l
-2.19 0 l
1.09 -1.88 l
o
np
183.11 123.86 m
1.09 1.89 l
-2.18 0 l
1.09 -1.89 l
o
np
184.72 124.26 m
1.09 1.89 l
-2.18 0 l
1.09 -1.89 l
o
np
186.33 127.79 m
1.09 1.89 l
-2.18 0 l
1.09 -1.89 l
o
np
187.94 126.65 m
1.09 1.89 l
-2.18 0 l
1.09 -1.89 l
o
np
189.55 129.95 m
1.10 1.89 l
-2.19 0 l
1.09 -1.89 l
o
np
191.17 132.29 m
1.09 1.89 l
-2.18 0 l
1.09 -1.89 l
o
np
192.78 132.16 m
1.09 1.89 l
-2.18 0 l
1.09 -1.89 l
o
np
194.39 136.27 m
1.09 1.89 l
-2.18 0 l
1.09 -1.89 l
o
np
196.00 135.75 m
1.09 1.89 l
-2.18 0 l
1.09 -1.89 l
o
np
197.62 139.33 m
1.09 1.89 l
-2.19 0 l
1.10 -1.89 l
o
np
199.23 140.98 m
1.09 1.89 l
-2.18 0 l
1.09 -1.89 l
o
np
200.84 140.55 m
1.09 1.89 l
-2.18 0 l
1.09 -1.89 l
o
np
202.45 144.99 m
1.09 1.89 l
-2.18 0 l
1.09 -1.89 l
o
np
204.06 143.82 m
1.09 1.89 l
-2.18 0 l
1.09 -1.89 l
o
np
205.68 148.41 m
1.09 1.89 l
-2.19 0 l
1.10 -1.89 l
o
np
207.29 147.85 m
1.09 1.88 l
-2.18 0 l
1.09 -1.88 l
o
np
208.90 149.67 m
1.09 1.89 l
-2.18 0 l
1.09 -1.89 l
o
np
210.51 152.47 m
1.09 1.89 l
-2.18 0 l
1.09 -1.89 l
o
np
212.12 151.72 m
1.09 1.89 l
-2.18 0 l
1.09 -1.89 l
o
np
213.74 155.52 m
1.09 1.89 l
-2.19 0 l
1.10 -1.89 l
o
np
215.35 156.53 m
1.09 1.89 l
-2.18 0 l
1.09 -1.89 l
o
np
216.96 158.89 m
1.09 1.89 l
-2.18 0 l
1.09 -1.89 l
o
np
218.57 161.73 m
1.09 1.89 l
-2.18 0 l
1.09 -1.89 l
o
np
220.18 161.26 m
1.10 1.89 l
-2.19 0 l
1.09 -1.89 l
o
np
221.80 166.06 m
1.09 1.89 l
-2.18 0 l
1.09 -1.89 l
o
np
223.41 164.50 m
1.09 1.89 l
-2.18 0 l
1.09 -1.89 l
o
np
225.02 169.37 m
1.09 1.89 l
-2.18 0 l
1.09 -1.89 l
o
np
226.63 170.54 m
1.09 1.89 l
-2.18 0 l
1.09 -1.89 l
o
np
228.24 170.93 m
1.10 1.89 l
-2.19 0 l
1.09 -1.89 l
o
np
229.86 174.63 m
1.09 1.89 l
-2.18 0 l
1.09 -1.89 l
o
np
231.47 174.79 m
1.09 1.89 l
-2.18 0 l
1.09 -1.89 l
o
np
233.08 178.31 m
1.09 1.89 l
-2.18 0 l
1.09 -1.89 l
o
np
234.69 180.27 m
1.09 1.89 l
-2.18 0 l
1.09 -1.89 l
o
np
236.31 180.22 m
1.09 1.89 l
-2.19 0 l
1.10 -1.89 l
o
np
237.92 184.16 m
1.09 1.89 l
-2.18 0 l
1.09 -1.89 l
o
np
239.53 183.27 m
1.09 1.89 l
-2.18 0 l
1.09 -1.89 l
o
np
241.14 187.83 m
1.09 1.89 l
-2.18 0 l
1.09 -1.89 l
o
np
242.75 188.07 m
1.09 1.89 l
-2.18 0 l
1.09 -1.89 l
o
np
244.37 189.79 m
1.09 1.89 l
-2.19 0 l
1.10 -1.89 l
o
np
245.98 193.40 m
1.09 1.89 l
-2.18 0 l
1.09 -1.89 l
o
np
247.59 192.66 m
1.09 1.89 l
-2.18 0 l
1.09 -1.89 l
o
np
249.20 197.86 m
1.09 1.89 l
-2.18 0 l
1.09 -1.89 l
o
np
250.81 197.58 m
1.09 1.89 l
-2.18 0 l
1.09 -1.89 l
o
np
252.43 199.53 m
1.09 1.89 l
-2.18 0 l
1.09 -1.89 l
o
np
254.04 201.80 m
1.09 1.89 l
-2.18 0 l
1.09 -1.89 l
o
np
255.65 201.47 m
1.09 1.89 l
-2.18 0 l
1.09 -1.89 l
o
np
257.26 206.29 m
1.09 1.89 l
-2.18 0 l
1.09 -1.89 l
o
np
258.87 205.53 m
1.10 1.89 l
-2.19 0 l
1.09 -1.89 l
o
np
260.49 209.57 m
1.09 1.89 l
-2.18 0 l
1.09 -1.89 l
o
np
262.10 211.09 m
1.09 1.89 l
-2.18 0 l
1.09 -1.89 l
o
np
263.71 211.24 m
1.09 1.89 l
-2.18 0 l
1.09 -1.89 l
o
np
265.32 215.15 m
1.09 1.89 l
-2.18 0 l
1.09 -1.89 l
o
np
266.93 214.67 m
1.10 1.88 l
-2.19 0 l
1.09 -1.88 l
o
np
268.55 217.35 m
1.09 1.89 l
-2.18 0 l
1.09 -1.89 l
o
np
270.16 218.21 m
1.09 1.89 l
-2.18 0 l
1.09 -1.89 l
o
np
271.77 219.03 m
1.09 1.89 l
-2.18 0 l
1.09 -1.89 l
o
np
273.38 223.06 m
1.09 1.89 l
-2.18 0 l
1.09 -1.89 l
o
np
275.00 222.13 m
1.09 1.89 l
-2.19 0 l
1.10 -1.89 l
o
np
276.61 225.23 m
1.09 1.89 l
-2.18 0 l
1.09 -1.89 l
o
np
278.22 225.21 m
1.09 1.89 l
-2.18 0 l
1.09 -1.89 l
o
np
279.83 226.60 m
1.09 1.89 l
-2.18 0 l
1.09 -1.89 l
o
np
281.44 229.46 m
1.09 1.89 l
-2.18 0 l
1.09 -1.89 l
o
np
283.06 228.08 m
1.09 1.89 l
-2.19 0 l
1.10 -1.89 l
o
np
284.67 231.52 m
1.09 1.89 l
-2.18 0 l
1.09 -1.89 l
o
np
286.28 231.25 m
1.09 1.89 l
-2.18 0 l
1.09 -1.89 l
o
np
287.89 233.21 m
1.09 1.89 l
-2.18 0 l
1.09 -1.89 l
o
np
289.50 235.31 m
1.09 1.89 l
-2.18 0 l
1.09 -1.89 l
o
np
291.12 233.54 m
1.09 1.89 l
-2.18 0 l
1.09 -1.89 l
o
np
292.73 237.41 m
1.09 1.89 l
-2.18 0 l
1.09 -1.89 l
o
np
294.34 235.07 m
1.09 1.89 l
-2.18 0 l
1.09 -1.89 l
o
np
295.95 237.67 m
1.09 1.89 l
-2.18 0 l
1.09 -1.89 l
o
np
297.56 239.42 m
1.10 1.89 l
-2.19 0 l
1.09 -1.89 l
o
np
299.18 238.39 m
1.09 1.89 l
-2.18 0 l
1.09 -1.89 l
o
np
300.79 241.81 m
1.09 1.89 l
-2.18 0 l
1.09 -1.89 l
o
np
302.40 239.01 m
1.09 1.89 l
-2.18 0 l
1.09 -1.89 l
o
np
304.01 242.79 m
1.09 1.89 l
-2.18 0 l
1.09 -1.89 l
o
np
305.62 242.28 m
1.10 1.89 l
-2.19 0 l
1.09 -1.89 l
o
np
307.24 242.52 m
1.09 1.89 l
-2.18 0 l
1.09 -1.89 l
o
np
308.85 245.74 m
1.09 1.88 l
-2.18 0 l
1.09 -1.88 l
o
np
310.46 242.91 m
1.09 1.89 l
-2.18 0 l
1.09 -1.89 l
o
np
312.07 245.29 m
1.09 1.89 l
-2.18 0 l
1.09 -1.89 l
o
np
313.69 244.29 m
1.09 1.89 l
-2.19 0 l
1.10 -1.89 l
o
np
315.30 245.10 m
1.09 1.89 l
-2.18 0 l
1.09 -1.89 l
o
np
316.91 246.61 m
1.09 1.89 l
-2.18 0 l
1.09 -1.89 l
o
np
318.52 243.79 m
1.09 1.89 l
-2.18 0 l
1.09 -1.89 l
o
np
320.13 247.37 m
1.09 1.89 l
-2.18 0 l
1.09 -1.89 l
o
np
321.75 245.39 m
1.09 1.89 l
-2.19 0 l
1.10 -1.89 l
o
np
323.36 246.23 m
1.09 1.89 l
-2.18 0 l
1.09 -1.89 l
o
np
324.97 247.77 m
1.09 1.88 l
-2.18 0 l
1.09 -1.88 l
o
np
326.58 246.37 m
1.09 1.89 l
-2.18 0 l
1.09 -1.89 l
o
np
328.19 249.43 m
1.09 1.89 l
-2.18 0 l
1.09 -1.89 l
o
np
329.81 247.44 m
1.09 1.89 l
-2.18 0 l
1.09 -1.89 l
o
np
331.42 248.87 m
1.09 1.89 l
-2.18 0 l
1.09 -1.89 l
o
np
333.03 248.92 m
1.09 1.89 l
-2.18 0 l
1.09 -1.89 l
o
np
334.64 246.99 m
1.09 1.89 l
-2.18 0 l
1.09 -1.89 l
o
np
336.25 249.42 m
1.10 1.89 l
-2.19 0 l
1.09 -1.89 l
o
np
337.87 246.96 m
1.09 1.89 l
-2.18 0 l
1.09 -1.89 l
o
np
339.48 249.71 m
1.09 1.89 l
-2.18 0 l
1.09 -1.89 l
o
np
341.09 248.99 m
1.09 1.89 l
-2.18 0 l
1.09 -1.89 l
o
np
342.70 248.75 m
1.09 1.89 l
-2.18 0 l
1.09 -1.89 l
o
np
344.31 251.24 m
1.10 1.89 l
-2.19 0 l
1.09 -1.89 l
o
np
345.93 248.88 m
1.09 1.89 l
-2.18 0 l
1.09 -1.89 l
o
np
347.54 250.88 m
1.09 1.89 l
-2.18 0 l
1.09 -1.89 l
o
np
349.15 249.40 m
1.09 1.89 l
-2.18 0 l
1.09 -1.89 l
o
np
350.76 249.33 m
1.09 1.89 l
-2.18 0 l
1.09 -1.89 l
o
np
352.38 251.43 m
1.09 1.89 l
-2.19 0 l
1.10 -1.89 l
o
np
353.99 248.73 m
1.09 1.89 l
-2.18 0 l
1.09 -1.89 l
o
np
355.60 251.79 m
1.09 1.89 l
-2.18 0 l
1.09 -1.89 l
o
np
357.21 249.19 m
1.09 1.89 l
-2.18 0 l
1.09 -1.89 l
o
np
358.82 250.23 m
1.09 1.88 l
-2.18 0 l
1.09 -1.88 l
o
np
360.44 251.31 m
1.09 1.89 l
-2.19 0 l
1.10 -1.89 l
o
np
362.05 249.86 m
1.09 1.89 l
-2.18 0 l
1.09 -1.89 l
o
np
363.66 253.00 m
1.09 1.88 l
-2.18 0 l
1.09 -1.88 l
o
np
365.27 249.76 m
1.09 1.89 l
-2.18 0 l
1.09 -1.89 l
o
np
366.88 251.98 m
1.10 1.89 l
-2.19 0 l
1.09 -1.89 l
o
np
368.50 252.94 m
1.09 1.89 l
-2.18 0 l
1.09 -1.89 l
o
np
370.11 250.55 m
1.09 1.89 l
-2.18 0 l
1.09 -1.89 l
o
np
371.72 252.58 m
1.09 1.89 l
-2.18 0 l
1.09 -1.89 l
o
np
373.33 250.35 m
1.09 1.89 l
-2.18 0 l
1.09 -1.89 l
o
np
374.94 253.44 m
1.10 1.89 l
-2.19 0 l
1.09 -1.89 l
o
np
376.56 252.31 m
1.09 1.89 l
-2.18 0 l
1.09 -1.89 l
o
np
378.17 251.53 m
1.09 1.89 l
-2.18 0 l
1.09 -1.89 l
o
np
379.78 252.96 m
1.09 1.89 l
-2.18 0 l
1.09 -1.89 l
o
np
381.39 250.02 m
1.09 1.89 l
-2.18 0 l
1.09 -1.89 l
o
np
383.01 252.86 m
1.09 1.89 l
-2.19 0 l
1.10 -1.89 l
o
np
384.62 251.91 m
1.09 1.89 l
-2.18 0 l
1.09 -1.89 l
o
np
386.23 251.72 m
1.09 1.89 l
-2.18 0 l
1.09 -1.89 l
o
np
387.84 252.55 m
1.09 1.89 l
-2.18 0 l
1.09 -1.89 l
o
np
389.45 249.64 m
1.09 1.89 l
-2.18 0 l
1.09 -1.89 l
o
np
391.07 253.06 m
1.09 1.89 l
-2.19 0 l
1.10 -1.89 l
o
np
392.68 251.03 m
1.09 1.89 l
-2.18 0 l
1.09 -1.89 l
o
/bg { 1 1 1 srgb } def
0 0 0 srgb
345.93 212.22 43.35 -92.16 r p3
354.57 189.18 2.16 c p1
1 0 0 srgb
np
354.57 181.02 m
2.91 -5.04 l
-5.82 0 l
2.91 5.04 l
o
0 0.8039 0 srgb
np
351.51 166.14 m
6.11 0 l
o
np
354.57 163.09 m
0 6.11 l
o
0 0 1 srgb
np
352.41 152.46 m
4.32 4.32 l
o
np
352.41 156.78 m
4.32 -4.32 l
o
0 1 1 srgb
np
351.51 143.10 m
3.06 3.06 l
3.05 -3.06 l
-3.05 -3.05 l
-3.06 3.05 l
o
1 0 1 srgb
np
354.57 128.22 m
2.91 5.04 l
-5.82 0 l
2.91 -5.04 l
o
/Font1 findfont 10 s
0 0 0 srgb
367.60 200.70 (tau =) .5 0 t
363.21 185.59 (0.1 s) 0 0 t
363.21 174.07 (1.0 s) 0 0 t
363.21 162.55 (2.0 s) 0 0 t
363.21 151.03 (3.0 s) 0 0 t
363.21 139.51 (4.0 s) 0 0 t
363.21 127.99 (5.0 s) 0 0 t
0.8275 0.8275 0.8275 srgb
0.75 setlinewidth
[ 0.00 3.00] 0 setdash
np
71.87 73.44 m
0 188.52 l
o
np
136.36 73.44 m
0 188.52 l
o
np
200.84 73.44 m
0 188.52 l
o
np
265.32 73.44 m
0 188.52 l
o
np
329.81 73.44 m
0 188.52 l
o
np
394.29 73.44 m
0 188.52 l
o
np
59.04 84.47 m
346.47 0 l
o
np
59.04 118.54 m
346.47 0 l
o
np
59.04 152.60 m
346.47 0 l
o
np
59.04 186.67 m
346.47 0 l
o
np
59.04 220.74 m
346.47 0 l
o
np
59.04 254.81 m
346.47 0 l
o
ep
%%Trailer
%%Pages: 1
%%EOF
