%!PS-Adobe-3.0 EPSF-3.0
%%DocumentNeededResources: font Helvetica
%%+ font Helvetica-Bold
%%+ font Helvetica-Oblique
%%+ font Helvetica-BoldOblique
%%+ font Symbol
%%Title: R Graphics Output
%%Creator: R Software
%%Pages: (atend)
%%BoundingBox: 0 0 304 216
%%EndComments
%%BeginProlog
/bp  { gs sRGB gs } def
% begin .ps.prolog
/gs  { gsave } bind def
/gr  { grestore } bind def
/ep  { showpage gr gr } bind def
/m   { moveto } bind def
/l  { rlineto } bind def
/np  { newpath } bind def
/cp  { closepath } bind def
/f   { fill } bind def
/o   { stroke } bind def
/c   { newpath 0 360 arc } bind def
/r   { 4 2 roll moveto 1 copy 3 -1 roll exch 0 exch rlineto 0 rlineto -1 mul 0 exch rlineto closepath } bind def
/p1  { stroke } bind def
/p2  { gsave bg fill grestore newpath } bind def
/p3  { gsave bg fill grestore stroke } bind def
/p6  { gsave bg eofill grestore newpath } bind def
/p7  { gsave bg eofill grestore stroke } bind def
/t   { 5 -2 roll moveto gsave rotate
       1 index stringwidth pop
       mul neg 0 rmoveto show grestore } bind def
/ta  { 4 -2 roll moveto gsave rotate show } bind def
/tb  { 2 -1 roll 0 rmoveto show } bind def
/cl  { grestore gsave newpath 3 index 3 index moveto 1 index
       4 -1 roll lineto  exch 1 index lineto lineto
       closepath clip newpath } bind def
/rgb { setrgbcolor } bind def
/s   { scalefont setfont } bind def
% end   .ps.prolog
/sRGB { [ /CIEBasedABC
          << /DecodeLMN
               [ { dup 0.03928 le
                        {12.92321 div}
                        {0.055 add 1.055 div 2.4 exp }
                     ifelse
                 } bind dup dup
               ]
             /MatrixLMN [0.412457 0.212673 0.019334
                         0.357576 0.715152 0.119192
                         0.180437 0.072175 0.950301]
             /WhitePoint [0.9505 1.0 1.0890]
           >>
         ] setcolorspace } bind def
/srgb { setcolor } bind def
% begin encoding
/WinAnsiEncoding [
 /.notdef /.notdef /.notdef /.notdef /.notdef /.notdef /.notdef /.notdef
 /.notdef /.notdef /.notdef /.notdef /.notdef /.notdef /.notdef /.notdef
 /.notdef /.notdef /.notdef /.notdef /.notdef /.notdef /.notdef /.notdef
 /.notdef /.notdef /.notdef /.notdef /.notdef /.notdef /.notdef /.notdef
 /space /exclam /quotedbl /numbersign /dollar /percent /ampersand /quoteright
 /parenleft /parenright /asterisk /plus /comma /minus /period /slash
 /zero /one /two /three /four /five /six /seven
 /eight /nine /colon /semicolon /less /equal /greater /question
 /at /A /B /C /D /E /F /G
 /H /I /J /K /L /M /N /O
 /P /Q /R /S /T /U /V /W
 /X /Y /Z /bracketleft /backslash /bracketright /asciicircum /underscore
 /grave /a /b /c /d /e /f /g
 /h /i /j /k /l /m /n /o
 /p /q /r /s /t /u /v /w
 /x /y /z /braceleft /bar /braceright /asciitilde /.notdef
 /Euro /.notdef /quotesinglbase /florin /quotedblbase /ellipsis /dagger /daggerdbl
 /circumflex /perthousand /Scaron /guilsinglleft /OE /.notdef /Zcaron /.notdef
 /.notdef /quoteleft /quoteright /quotedblleft /quotedblright /bullet /endash /emdash
 /tilde /trademark /scaron /guilsinglright /oe /.notdef /zcaron /Ydieresis
 /space /exclamdown /cent /sterling /currency /yen /brokenbar /section
 /dieresis /copyright /ordfeminine /guillemotleft /logicalnot /hyphen /registered /macron
 /degree /plusminus /twosuperior /threesuperior /acute /mu /paragraph /periodcentered
 /cedilla /onesuperior /ordmasculine /guillemotright /onequarter /onehalf /threequarters /questiondown
 /Agrave /Aacute /Acircumflex /Atilde /Adieresis /Aring /AE /Ccedilla
 /Egrave /Eacute /Ecircumflex /Edieresis /Igrave /Iacute /Icircumflex /Idieresis
 /Eth /Ntilde /Ograve /Oacute /Ocircumflex /Otilde /Odieresis /multiply
 /Oslash /Ugrave /Uacute /Ucircumflex /Udieresis /Yacute /Thorn /germandbls
 /agrave /aacute /acircumflex /atilde /adieresis /aring /ae /ccedilla
 /egrave /eacute /ecircumflex /edieresis /igrave /iacute /icircumflex /idieresis
 /eth /ntilde /ograve /oacute /ocircumflex /otilde /odieresis /divide
 /oslash /ugrave /uacute /ucircumflex /udieresis /yacute /thorn /ydieresis
]
 def
% end encoding
%%IncludeResource: font Helvetica
/Helvetica findfont
dup length dict begin
  {1 index /FID ne {def} {pop pop} ifelse} forall
  /Encoding WinAnsiEncoding def
  currentdict
  end
/Font1 exch definefont pop
%%IncludeResource: font Helvetica-Bold
/Helvetica-Bold findfont
dup length dict begin
  {1 index /FID ne {def} {pop pop} ifelse} forall
  /Encoding WinAnsiEncoding def
  currentdict
  end
/Font2 exch definefont pop
%%IncludeResource: font Helvetica-Oblique
/Helvetica-Oblique findfont
dup length dict begin
  {1 index /FID ne {def} {pop pop} ifelse} forall
  /Encoding WinAnsiEncoding def
  currentdict
  end
/Font3 exch definefont pop
%%IncludeResource: font Helvetica-BoldOblique
/Helvetica-BoldOblique findfont
dup length dict begin
  {1 index /FID ne {def} {pop pop} ifelse} forall
  /Encoding WinAnsiEncoding def
  currentdict
  end
/Font4 exch definefont pop
%%IncludeResource: font Symbol
/Symbol findfont
dup length dict begin
  {1 index /FID ne {def} {pop pop} ifelse} forall
  currentdict
  end
/Font5 exch definefont pop
%%EndProlog
%%Page: 1 1
bp
0.00 0.00 303.75 216.00 cl
0.00 0.00 303.75 216.00 cl
0.00 0.00 303.75 216.00 cl
0.00 0.00 303.75 216.00 cl
0.00 0.00 303.75 216.00 cl
0.00 0.00 303.75 216.00 cl
0.00 0.00 303.75 216.00 cl
0.00 0.00 303.75 216.00 cl
0.00 0.00 303.75 216.00 cl
/bg { 1 1 1 srgb } def
1 1 1 srgb
1.07 setlinewidth
[] 0 setdash
1 setlinecap
1 setlinejoin
10.00 setmiterlimit
0.00 0.00 303.75 216.00 r p3
0.00 0.00 303.75 216.00 cl
41.30 30.25 227.65 210.52 cl
/bg { 0.9216 0.9216 0.9216 srgb } def
41.30 30.25 186.35 180.27 r p2
1 1 1 srgb
0.53 setlinewidth
[] 0 setdash
0 setlinecap
1 setlinejoin
10.00 setmiterlimit
np
41.30 61.99 m
186.35 0 l
o
np
41.30 109.03 m
186.35 0 l
o
np
41.30 156.07 m
186.35 0 l
o
np
41.30 203.12 m
186.35 0 l
o
np
77.14 30.25 m
0 180.27 l
o
np
120.14 30.25 m
0 180.27 l
o
np
163.15 30.25 m
0 180.27 l
o
np
206.15 30.25 m
0 180.27 l
o
1.07 setlinewidth
[] 0 setdash
np
41.30 38.47 m
186.35 0 l
o
np
41.30 85.51 m
186.35 0 l
o
np
41.30 132.55 m
186.35 0 l
o
np
41.30 179.60 m
186.35 0 l
o
np
55.64 30.25 m
0 180.27 l
o
np
98.64 30.25 m
0 180.27 l
o
np
141.65 30.25 m
0 180.27 l
o
np
184.65 30.25 m
0 180.27 l
o
np
227.65 30.25 m
0 180.27 l
o
1 0.3882 0.2784 srgb
1.00 setmiterlimit
np
41.30 38.47 m
0.13 0 l
0.12 0 l
0.13 0 l
0.12 0 l
0.12 0 l
0.13 0 l
0.12 0 l
0.13 0 l
0.12 0 l
0.13 0 l
0.12 0 l
0.12 0 l
0.13 0 l
0.12 0 l
0.13 0 l
0.12 0 l
0.13 0 l
0.12 0 l
0.12 0 l
0.13 0 l
0.12 0 l
0.13 0 l
0.12 0 l
0.13 0 l
0.12 0 l
0.12 0 l
0.13 0 l
0.12 0 l
0.13 0 l
0.12 0 l
0.13 0 l
0.12 0 l
0.12 0 l
0.13 0 l
0.12 0 l
0.13 0 l
0.12 0 l
0.13 0 l
0.12 0 l
0.13 0 l
0.12 0 l
0.12 0 l
0.13 0 l
0.12 0 l
0.13 0 l
0.12 0 l
0.13 0 l
0.12 0 l
0.12 0 l
0.13 0 l
0.12 0 l
0.13 0 l
0.12 0 l
0.13 0 l
0.12 0 l
0.12 0 l
0.13 0 l
0.12 0 l
0.13 0 l
0.12 0 l
0.13 0 l
0.12 0 l
0.12 0 l
0.13 0 l
0.12 0 l
0.13 0 l
0.12 0 l
0.13 0 l
0.12 0 l
0.12 0 l
0.13 0 l
0.12 0 l
0.13 0 l
0.12 0 l
0.13 0 l
0.12 0 l
0.12 0 l
0.13 0 l
0.12 0 l
0.13 0 l
0.12 0 l
0.13 0 l
0.12 0 l
0.13 0 l
0.12 0 l
0.12 0 l
0.13 0 l
0.12 0 l
0.13 0 l
0.12 0 l
0.13 0 l
0.12 0 l
0.12 0 l
0.13 0 l
0.12 0 l
0.13 0 l
0.12 0 l
0.13 0 l
0.12 0 l
53.73 38.47 lineto
0.13 0 l
0.12 0 l
0.13 0 l
0.12 0 l
0.13 0 l
0.12 0 l
0.12 0 l
0.13 0 l
0.12 0 l
0.13 0 l
0.12 0 l
0.13 0 l
0.12 0 l
0.12 0 l
0.13 0 l
0.12 0 l
0.13 0 l
0.12 0 l
0.13 0 l
0.12 0 l
0.12 0 l
0.13 0 l
0.12 0 l
0.13 0 l
0.12 0 l
0.13 0 l
0.12 0 l
0.12 0 l
0.13 0.01 l
0.12 0.01 l
0.13 0.02 l
0.12 0.04 l
0.13 0.06 l
0.12 0.08 l
0.13 0.11 l
0.12 0.14 l
0.12 0.19 l
0.13 0.23 l
0.12 0.27 l
0.13 0.33 l
0.12 0.39 l
0.13 0.44 l
0.12 0.49 l
0.12 0.56 l
0.13 0.62 l
0.12 0.67 l
0.13 0.73 l
0.12 0.79 l
0.13 0.84 l
0.12 0.89 l
0.12 0.94 l
0.13 1.00 l
0.12 1.03 l
0.13 1.08 l
0.12 1.12 l
0.13 1.16 l
0.12 1.19 l
0.12 1.23 l
0.13 1.25 l
0.12 1.28 l
0.13 1.30 l
0.12 1.33 l
0.13 1.35 l
0.12 1.36 l
0.12 1.38 l
0.13 1.39 l
0.12 1.40 l
0.13 1.41 l
0.12 1.42 l
0.13 1.42 l
0.12 1.43 l
0.12 1.43 l
0.13 1.43 l
0.12 1.43 l
0.13 1.43 l
0.12 1.43 l
0.13 1.42 l
0.12 1.42 l
0.13 1.42 l
0.12 1.41 l
0.12 1.40 l
0.13 1.40 l
0.12 1.38 l
0.13 1.38 l
0.12 1.37 l
0.13 1.36 l
0.12 1.35 l
0.12 1.34 l
0.13 1.33 l
0.12 1.32 l
0.13 1.31 l
0.12 1.29 l
0.13 1.29 l
0.12 1.27 l
0.12 1.26 l
0.13 1.24 l
0.12 1.24 l
0.13 1.22 l
0.12 1.21 l
66.17 111.83 lineto
0.12 1.18 l
0.12 1.17 l
0.13 1.16 l
0.12 1.15 l
0.13 1.13 l
0.12 1.12 l
0.13 1.11 l
0.12 1.09 l
0.12 1.09 l
0.13 1.07 l
0.12 1.05 l
0.13 1.05 l
0.12 1.03 l
0.13 1.02 l
0.12 1.01 l
0.12 1.00 l
0.13 0.99 l
0.12 0.97 l
0.13 0.96 l
0.12 0.95 l
0.13 0.94 l
0.12 0.92 l
0.13 0.92 l
0.12 0.90 l
0.12 0.90 l
0.13 0.88 l
0.12 0.87 l
0.13 0.86 l
0.12 0.85 l
0.13 0.84 l
0.12 0.83 l
0.12 0.82 l
0.13 0.80 l
0.12 0.80 l
0.13 0.79 l
0.12 0.78 l
0.13 0.77 l
0.12 0.75 l
0.12 0.75 l
0.13 0.74 l
0.12 0.73 l
0.13 0.72 l
0.12 0.72 l
0.13 0.70 l
0.12 0.69 l
0.12 0.69 l
0.13 0.67 l
0.12 0.67 l
0.13 0.66 l
0.12 0.65 l
0.13 0.64 l
0.12 0.64 l
0.12 0.62 l
0.13 0.62 l
0.12 0.61 l
0.13 0.60 l
0.12 0.60 l
0.13 0.58 l
0.12 0.58 l
0.12 0.57 l
0.13 0.57 l
0.12 0.56 l
0.13 0.55 l
0.12 0.54 l
0.13 0.54 l
0.12 0.52 l
0.13 0.53 l
0.12 0.51 l
0.12 0.51 l
0.13 0.50 l
0.12 0.50 l
0.13 0.49 l
0.12 0.48 l
0.13 0.48 l
0.12 0.47 l
0.12 0.46 l
0.13 0.46 l
0.12 0.45 l
0.13 0.45 l
0.12 0.44 l
0.13 0.43 l
0.12 0.43 l
0.12 0.43 l
0.13 0.42 l
0.12 0.41 l
0.13 0.40 l
0.12 0.41 l
0.13 0.39 l
0.12 0.39 l
0.12 0.39 l
0.13 0.38 l
0.12 0.38 l
0.13 0.37 l
0.12 0.37 l
0.13 0.36 l
0.12 0.35 l
0.12 0.36 l
0.13 0.34 l
0.12 0.35 l
78.60 180.50 lineto
0.12 0.34 l
0.13 0.33 l
0.12 0.32 l
0.12 0.32 l
0.13 0.32 l
0.12 0.31 l
0.13 0.31 l
0.12 0.30 l
0.13 0.30 l
0.12 0.30 l
0.12 0.29 l
0.13 0.29 l
0.12 0.28 l
0.13 0.28 l
0.12 0.28 l
0.13 0.27 l
0.12 0.27 l
0.13 0.26 l
0.12 0.27 l
0.12 0.25 l
0.13 0.26 l
0.12 0.25 l
0.13 0.25 l
0.12 0.24 l
0.13 0.24 l
0.12 0.24 l
0.12 0.24 l
0.13 0.23 l
0.12 0.23 l
0.13 0.22 l
0.12 0.23 l
0.13 0.21 l
0.12 0.22 l
0.12 0.21 l
0.13 0.21 l
0.12 0.21 l
0.13 0.21 l
0.12 0.20 l
0.13 0.20 l
0.12 0.19 l
0.12 0.20 l
0.13 0.19 l
0.12 0.18 l
0.13 0.19 l
0.12 0.18 l
0.13 0.18 l
0.12 0.18 l
0.12 0.18 l
0.13 0.17 l
0.12 0.17 l
0.13 0.17 l
0.12 0.16 l
0.13 0.17 l
0.12 0.16 l
0.12 0.16 l
0.13 0.15 l
0.12 0.16 l
0.13 0.15 l
0.12 0.15 l
0.13 0.15 l
0.12 0.14 l
0.13 0.14 l
0.12 0.15 l
0.12 0.13 l
0.13 0.14 l
0.12 0.14 l
0.13 0.13 l
0.12 0.13 l
0.13 0.13 l
0.12 0.13 l
0.12 0.13 l
0.13 0.12 l
0.12 0.12 l
0.13 0.12 l
0.12 0.12 l
0.13 0.12 l
0.12 0.11 l
0.12 0.11 l
0.13 0.12 l
0.12 0.11 l
0.13 0.10 l
0.12 0.11 l
0.13 0.11 l
0.12 0.10 l
0.12 0.10 l
0.13 0.10 l
0.12 0.10 l
0.13 0.10 l
0.12 0.09 l
0.13 0.10 l
0.12 0.09 l
0.12 0.09 l
0.13 0.09 l
0.12 0.09 l
0.13 0.09 l
0.12 0.08 l
0.13 0.09 l
0.12 0.08 l
0.12 0.08 l
91.03 198.69 lineto
0.12 0.08 l
0.13 0.08 l
0.12 0.08 l
0.13 0.07 l
0.12 0.08 l
0.13 0.07 l
0.12 0.07 l
0.12 0.07 l
0.13 0.07 l
0.12 0.07 l
0.13 0.07 l
0.12 0.06 l
0.13 0.07 l
0.12 0.06 l
0.12 0.06 l
0.13 0.07 l
0.12 0.06 l
0.13 0.06 l
0.12 0.06 l
0.13 0.05 l
0.12 0.06 l
0.12 0.06 l
0.13 0.05 l
0.12 0.05 l
0.13 0.06 l
0.12 0.05 l
0.13 0.05 l
0.12 0.05 l
0.12 0.05 l
0.13 0.05 l
0.12 0.04 l
0.13 0.05 l
0.12 0.05 l
0.13 0.04 l
0.12 0.04 l
0.12 0.05 l
0.13 0.04 l
0.12 0.04 l
0.13 0.04 l
0.12 0.04 l
0.13 0.04 l
0.12 0.04 l
0.12 0.04 l
0.13 0.03 l
0.12 0.04 l
0.13 0.03 l
0.12 0.04 l
0.13 0.03 l
0.12 0.03 l
0.12 0.04 l
0.13 0.03 l
0.12 0.03 l
0.13 0.03 l
0.12 0.03 l
0.13 0.03 l
0.12 0.03 l
0.13 0.02 l
0.12 0.03 l
0.12 0.03 l
0.13 0.02 l
0.12 0.03 l
0.13 0.02 l
0.12 0.03 l
0.13 0.02 l
0.12 0.02 l
0.12 0.03 l
0.13 0.02 l
0.12 0.02 l
0.13 0.02 l
0.12 0.02 l
0.13 0.02 l
0.12 0.02 l
0.12 0.02 l
0.13 0.02 l
0.12 0.01 l
0.13 0.02 l
0.12 0.02 l
0.13 0.01 l
0.12 0.02 l
0.12 0.01 l
0.13 0.02 l
0.12 0.01 l
0.13 0.02 l
0.12 0.01 l
0.13 0.01 l
0.12 0.01 l
0.12 0.02 l
0.13 0.01 l
0.12 0.01 l
0.13 0.01 l
0.12 0.01 l
0.13 0.01 l
0.12 0.01 l
0.12 0.01 l
0.13 0.01 l
0.12 0.01 l
0.13 0 l
0.12 0.01 l
0.13 0.01 l
103.46 202.26 lineto
0.13 0.01 l
0.12 0.01 l
0.12 0 l
0.13 0.01 l
0.12 0 l
0.13 0.01 l
0.12 0 l
0.13 0 l
0.12 0.01 l
0.12 0 l
0.13 0 l
0.12 0.01 l
0.13 0 l
0.12 0 l
0.13 0 l
0.12 0 l
0.12 0.01 l
0.13 0 l
0.12 0 l
0.13 0 l
0.12 0 l
0.13 0 l
0.12 0 l
0.12 -0.01 l
0.13 0 l
0.12 0 l
0.13 0 l
0.12 0 l
0.13 0 l
0.12 -0.01 l
0.12 0 l
0.13 0 l
0.12 -0.01 l
0.13 0 l
0.12 0 l
0.13 -0.01 l
0.12 0 l
0.12 -0.01 l
0.13 0 l
0.12 -0.01 l
0.13 0 l
0.12 -0.01 l
0.13 0 l
0.12 -0.01 l
0.13 0 l
0.12 -0.01 l
0.12 -0.01 l
0.13 0 l
0.12 -0.01 l
0.13 -0.01 l
0.12 0 l
0.13 -0.01 l
0.12 -0.01 l
0.12 -0.01 l
0.13 -0.01 l
0.12 0 l
0.13 -0.01 l
0.12 -0.01 l
0.13 -0.01 l
0.12 -0.01 l
0.12 -0.01 l
0.13 -0.01 l
0.12 -0.01 l
0.13 0 l
0.12 -0.01 l
0.13 -0.01 l
0.12 -0.01 l
0.12 -0.01 l
0.13 -0.01 l
0.12 -0.02 l
0.13 -0.01 l
0.12 -0.01 l
0.13 -0.01 l
0.12 -0.01 l
0.12 -0.01 l
0.13 -0.01 l
0.12 -0.01 l
0.13 -0.01 l
0.12 -0.02 l
0.13 -0.01 l
0.12 -0.01 l
0.12 -0.01 l
0.13 -0.01 l
0.12 -0.02 l
0.13 -0.01 l
0.12 -0.01 l
0.13 -0.02 l
0.12 -0.01 l
0.13 -0.01 l
0.12 -0.01 l
0.12 -0.02 l
0.13 -0.01 l
0.12 -0.02 l
0.13 -0.01 l
0.12 -0.01 l
0.13 -0.02 l
0.12 -0.01 l
0.12 -0.01 l
0.13 -0.02 l
115.89 201.66 lineto
0.13 -0.02 l
0.12 -0.01 l
0.13 -0.02 l
0.12 -0.01 l
0.12 -0.02 l
0.13 -0.01 l
0.12 -0.02 l
0.13 -0.01 l
0.12 -0.02 l
0.13 -0.01 l
0.12 -0.02 l
0.12 -0.01 l
0.13 -0.02 l
0.12 -0.01 l
0.13 -0.02 l
0.12 -0.01 l
0.13 -0.02 l
0.12 -0.02 l
0.12 -0.01 l
0.13 -0.02 l
0.12 -0.02 l
0.13 -0.01 l
0.12 -0.02 l
0.13 -0.01 l
0.12 -0.02 l
0.12 -0.02 l
0.13 -0.01 l
0.12 -0.02 l
0.13 -0.02 l
0.12 -0.01 l
0.13 -0.02 l
0.12 -0.02 l
0.12 -0.02 l
0.13 -0.01 l
0.12 -0.02 l
0.13 -0.02 l
0.12 -0.01 l
0.13 -0.02 l
0.12 -0.02 l
0.13 -0.02 l
0.12 -0.01 l
0.12 -0.02 l
0.13 -0.02 l
0.12 -0.02 l
0.13 -0.02 l
0.12 -0.01 l
0.13 -0.02 l
0.12 -0.02 l
0.12 -0.02 l
0.13 -0.02 l
0.12 -0.01 l
0.13 -0.02 l
0.12 -0.02 l
0.13 -0.02 l
0.12 -0.02 l
0.12 -0.02 l
0.13 -0.01 l
0.12 -0.02 l
0.13 -0.02 l
0.12 -0.02 l
0.13 -0.02 l
0.12 -0.02 l
0.12 -0.02 l
0.13 -0.01 l
0.12 -0.02 l
0.13 -0.02 l
0.12 -0.02 l
0.13 -0.02 l
0.12 -0.02 l
0.12 -0.02 l
0.13 -0.02 l
0.12 -0.02 l
0.13 -0.02 l
0.12 -0.02 l
0.13 -0.01 l
0.12 -0.02 l
0.12 -0.02 l
0.13 -0.02 l
0.12 -0.02 l
0.13 -0.02 l
0.12 -0.02 l
0.13 -0.02 l
0.12 -0.02 l
0.13 -0.02 l
0.12 -0.02 l
0.12 -0.02 l
0.13 -0.02 l
0.12 -0.02 l
0.13 -0.02 l
0.12 -0.02 l
0.13 -0.02 l
0.12 -0.02 l
0.12 -0.02 l
0.13 -0.02 l
0.12 -0.02 l
0.13 -0.02 l
0.12 -0.02 l
0.13 -0.02 l
0.12 -0.02 l
128.32 199.87 lineto
0.13 -0.02 l
0.12 -0.02 l
0.13 -0.02 l
0.12 -0.02 l
0.13 -0.02 l
0.12 -0.02 l
0.12 -0.02 l
0.13 -0.02 l
0.12 -0.02 l
0.13 -0.02 l
0.12 -0.02 l
0.13 -0.02 l
0.12 -0.02 l
0.12 -0.02 l
0.13 -0.02 l
0.12 -0.02 l
0.13 -0.02 l
0.12 -0.02 l
0.13 -0.02 l
0.12 -0.03 l
0.12 -0.02 l
0.13 -0.02 l
0.12 -0.02 l
0.13 -0.02 l
0.12 -0.02 l
0.13 -0.02 l
0.12 -0.02 l
0.13 -0.02 l
0.12 -0.02 l
0.12 -0.02 l
0.13 -0.02 l
0.12 -0.02 l
0.13 -0.02 l
0.12 -0.03 l
0.13 -0.02 l
0.12 -0.02 l
0.12 -0.02 l
0.13 -0.02 l
0.12 -0.02 l
0.13 -0.02 l
0.12 -0.02 l
0.13 -0.02 l
0.12 -0.02 l
0.12 -0.02 l
0.13 -0.03 l
0.12 -0.02 l
0.13 -0.02 l
0.12 -0.02 l
0.13 -0.02 l
0.12 -0.02 l
0.12 -0.02 l
0.13 -0.02 l
0.12 -0.02 l
0.13 -0.03 l
0.12 -0.02 l
0.13 -0.02 l
0.12 -0.02 l
0.12 -0.02 l
0.13 -0.02 l
0.12 -0.02 l
0.13 -0.02 l
0.12 -0.03 l
0.13 -0.02 l
0.12 -0.02 l
0.12 -0.02 l
0.13 -0.02 l
0.12 -0.02 l
0.13 -0.02 l
0.12 -0.02 l
0.13 -0.03 l
0.12 -0.02 l
0.13 -0.02 l
0.12 -0.02 l
0.12 -0.02 l
0.13 -0.02 l
0.12 -0.02 l
0.13 -0.02 l
0.12 -0.03 l
0.13 -0.02 l
0.12 -0.02 l
0.12 -0.02 l
0.13 -0.02 l
0.12 -0.02 l
0.13 -0.02 l
0.12 -0.03 l
0.13 -0.02 l
0.12 -0.02 l
0.12 -0.02 l
0.13 -0.02 l
0.12 -0.02 l
0.13 -0.02 l
0.12 -0.03 l
0.13 -0.02 l
0.12 -0.02 l
0.12 -0.02 l
0.13 -0.02 l
0.12 -0.02 l
0.13 -0.03 l
0.12 -0.02 l
140.76 197.77 lineto
0.12 -0.02 l
0.12 -0.02 l
0.13 -0.02 l
0.12 -0.02 l
0.13 -0.03 l
0.12 -0.02 l
0.13 -0.02 l
0.12 -0.02 l
0.12 -0.02 l
0.13 -0.02 l
0.12 -0.03 l
0.13 -0.02 l
0.12 -0.02 l
0.13 -0.02 l
0.12 -0.02 l
0.12 -0.02 l
0.13 -0.03 l
0.12 -0.02 l
0.13 -0.02 l
0.12 -0.02 l
0.13 -0.02 l
0.12 -0.02 l
0.13 -0.03 l
0.12 -0.02 l
0.12 -0.02 l
0.13 -0.02 l
0.12 -0.02 l
0.13 -0.02 l
0.12 -0.03 l
0.13 -0.02 l
0.12 -0.02 l
0.12 -0.02 l
0.13 -0.02 l
0.12 -0.02 l
0.13 -0.03 l
0.12 -0.02 l
0.13 -0.02 l
0.12 -0.02 l
0.12 -0.02 l
0.13 -0.02 l
0.12 -0.03 l
0.13 -0.02 l
0.12 -0.02 l
0.13 -0.02 l
0.12 -0.02 l
0.12 -0.02 l
0.13 -0.03 l
0.12 -0.02 l
0.13 -0.02 l
0.12 -0.02 l
0.13 -0.02 l
0.12 -0.02 l
0.12 -0.03 l
0.13 -0.02 l
0.12 -0.02 l
0.13 -0.02 l
0.12 -0.02 l
0.13 -0.03 l
0.12 -0.02 l
0.12 -0.02 l
0.13 -0.02 l
0.12 -0.02 l
0.13 -0.02 l
0.12 -0.03 l
0.13 -0.02 l
0.12 -0.02 l
0.13 -0.02 l
0.12 -0.02 l
0.12 -0.02 l
0.13 -0.03 l
0.12 -0.02 l
0.13 -0.02 l
0.12 -0.02 l
0.13 -0.02 l
0.12 -0.02 l
0.12 -0.03 l
0.13 -0.02 l
0.12 -0.02 l
0.13 -0.02 l
0.12 -0.02 l
0.13 -0.03 l
0.12 -0.02 l
0.12 -0.02 l
0.13 -0.02 l
0.12 -0.02 l
0.13 -0.02 l
0.12 -0.03 l
0.13 -0.02 l
0.12 -0.02 l
0.12 -0.02 l
0.13 -0.02 l
0.12 -0.02 l
0.13 -0.03 l
0.12 -0.02 l
0.13 -0.02 l
0.12 -0.02 l
0.12 -0.02 l
0.13 -0.03 l
0.12 -0.02 l
153.19 195.60 lineto
0.12 -0.02 l
0.13 -0.02 l
0.12 -0.02 l
0.12 -0.03 l
0.13 -0.02 l
0.12 -0.02 l
0.13 -0.02 l
0.12 -0.02 l
0.13 -0.02 l
0.12 -0.03 l
0.13 -0.02 l
0.12 -0.02 l
0.12 -0.02 l
0.13 -0.02 l
0.12 -0.02 l
0.13 -0.03 l
0.12 -0.02 l
0.13 -0.02 l
0.12 -0.02 l
0.12 -0.02 l
0.13 -0.03 l
0.12 -0.02 l
0.13 -0.02 l
0.12 -0.02 l
0.13 -0.02 l
0.12 -0.02 l
0.12 -0.03 l
0.13 -0.02 l
0.12 -0.02 l
0.13 -0.02 l
0.12 -0.02 l
0.13 -0.02 l
0.12 -0.03 l
0.12 -0.02 l
0.13 -0.02 l
0.12 -0.02 l
0.13 -0.02 l
0.12 -0.02 l
0.13 -0.03 l
0.12 -0.02 l
0.12 -0.02 l
0.13 -0.02 l
0.12 -0.02 l
0.13 -0.02 l
0.12 -0.03 l
0.13 -0.02 l
0.12 -0.02 l
0.12 -0.02 l
0.13 -0.02 l
0.12 -0.02 l
0.13 -0.03 l
0.12 -0.02 l
0.13 -0.02 l
0.12 -0.02 l
0.13 -0.02 l
0.12 -0.02 l
0.12 -0.03 l
0.13 -0.02 l
0.12 -0.02 l
0.13 -0.02 l
0.12 -0.02 l
0.13 -0.02 l
0.12 -0.03 l
0.12 -0.02 l
0.13 -0.02 l
0.12 -0.02 l
0.13 -0.02 l
0.12 -0.02 l
0.13 -0.03 l
0.12 -0.02 l
0.12 -0.02 l
0.13 -0.02 l
0.12 -0.02 l
0.13 -0.02 l
0.12 -0.03 l
0.13 -0.02 l
0.12 -0.02 l
0.12 -0.02 l
0.13 -0.02 l
0.12 -0.02 l
0.13 -0.03 l
0.12 -0.02 l
0.13 -0.02 l
0.12 -0.02 l
0.12 -0.02 l
0.13 -0.02 l
0.12 -0.03 l
0.13 -0.02 l
0.12 -0.02 l
0.13 -0.02 l
0.12 -0.02 l
0.12 -0.02 l
0.13 -0.03 l
0.12 -0.02 l
0.13 -0.02 l
0.12 -0.02 l
0.13 -0.02 l
0.12 -0.02 l
0.12 -0.02 l
currentpoint o m
165.62 193.43 lineto
0.12 -0.02 l
0.13 -0.02 l
0.12 -0.02 l
0.13 -0.02 l
0.12 -0.02 l
0.13 -0.03 l
0.12 -0.02 l
0.12 -0.02 l
0.13 -0.02 l
0.12 -0.02 l
0.13 -0.02 l
0.12 -0.03 l
0.13 -0.02 l
0.12 -0.02 l
0.12 -0.02 l
0.13 -0.02 l
0.12 -0.02 l
0.13 -0.02 l
0.12 -0.03 l
0.13 -0.02 l
0.12 -0.02 l
0.12 -0.02 l
0.13 -0.02 l
0.12 -0.02 l
0.13 -0.03 l
0.12 -0.02 l
0.13 -0.02 l
0.12 -0.02 l
0.12 -0.02 l
0.13 -0.02 l
0.12 -0.02 l
0.13 -0.03 l
0.12 -0.02 l
0.13 -0.02 l
0.12 -0.02 l
0.12 -0.02 l
0.13 -0.02 l
0.12 -0.02 l
0.13 -0.03 l
0.12 -0.02 l
0.13 -0.02 l
0.12 -0.02 l
0.12 -0.02 l
0.13 -0.02 l
0.12 -0.03 l
0.13 -0.02 l
0.12 -0.02 l
0.13 -0.02 l
0.12 -0.02 l
0.13 -0.02 l
0.12 -0.02 l
0.12 -0.03 l
0.13 -0.02 l
0.12 -0.02 l
0.13 -0.02 l
0.12 -0.02 l
0.13 -0.02 l
0.12 -0.02 l
0.12 -0.03 l
0.13 -0.02 l
0.12 -0.02 l
0.13 -0.02 l
0.12 -0.02 l
0.13 -0.02 l
0.12 -0.02 l
0.12 -0.03 l
0.13 -0.02 l
0.12 -0.02 l
0.13 -0.02 l
0.12 -0.02 l
0.13 -0.02 l
0.12 -0.02 l
0.12 -0.03 l
0.13 -0.02 l
0.12 -0.02 l
0.13 -0.02 l
0.12 -0.02 l
0.13 -0.02 l
0.12 -0.02 l
0.12 -0.03 l
0.13 -0.02 l
0.12 -0.02 l
0.13 -0.02 l
0.12 -0.02 l
0.13 -0.02 l
0.12 -0.02 l
0.12 -0.02 l
0.13 -0.03 l
0.12 -0.02 l
0.13 -0.02 l
0.12 -0.02 l
0.13 -0.02 l
0.12 -0.02 l
0.13 -0.02 l
0.12 -0.03 l
0.12 -0.02 l
0.13 -0.02 l
0.12 -0.02 l
0.13 -0.02 l
178.05 191.29 lineto
0.13 -0.02 l
0.12 -0.02 l
0.12 -0.03 l
0.13 -0.02 l
0.12 -0.02 l
0.13 -0.02 l
0.12 -0.02 l
0.13 -0.02 l
0.12 -0.02 l
0.12 -0.03 l
0.13 -0.02 l
0.12 -0.02 l
0.13 -0.02 l
0.12 -0.02 l
0.13 -0.02 l
0.12 -0.02 l
0.12 -0.02 l
0.13 -0.03 l
0.12 -0.02 l
0.13 -0.02 l
0.12 -0.02 l
0.13 -0.02 l
0.12 -0.02 l
0.12 -0.02 l
0.13 -0.02 l
0.12 -0.03 l
0.13 -0.02 l
0.12 -0.02 l
0.13 -0.02 l
0.12 -0.02 l
0.12 -0.02 l
0.13 -0.02 l
0.12 -0.02 l
0.13 -0.03 l
0.12 -0.02 l
0.13 -0.02 l
0.12 -0.02 l
0.12 -0.02 l
0.13 -0.02 l
0.12 -0.02 l
0.13 -0.02 l
0.12 -0.03 l
0.13 -0.02 l
0.12 -0.02 l
0.13 -0.02 l
0.12 -0.02 l
0.12 -0.02 l
0.13 -0.02 l
0.12 -0.02 l
0.13 -0.03 l
0.12 -0.02 l
0.13 -0.02 l
0.12 -0.02 l
0.12 -0.02 l
0.13 -0.02 l
0.12 -0.02 l
0.13 -0.02 l
0.12 -0.02 l
0.13 -0.03 l
0.12 -0.02 l
0.12 -0.02 l
0.13 -0.02 l
0.12 -0.02 l
0.13 -0.02 l
0.12 -0.02 l
0.13 -0.02 l
0.12 -0.02 l
0.12 -0.03 l
0.13 -0.02 l
0.12 -0.02 l
0.13 -0.02 l
0.12 -0.02 l
0.13 -0.02 l
0.12 -0.02 l
0.12 -0.02 l
0.13 -0.02 l
0.12 -0.03 l
0.13 -0.02 l
0.12 -0.02 l
0.13 -0.02 l
0.12 -0.02 l
0.12 -0.02 l
0.13 -0.02 l
0.12 -0.02 l
0.13 -0.02 l
0.12 -0.03 l
0.13 -0.02 l
0.12 -0.02 l
0.13 -0.02 l
0.12 -0.02 l
0.12 -0.02 l
0.13 -0.02 l
0.12 -0.02 l
0.13 -0.02 l
0.12 -0.03 l
0.13 -0.02 l
0.12 -0.02 l
0.12 -0.02 l
0.13 -0.02 l
190.48 189.17 lineto
0.13 -0.02 l
0.12 -0.02 l
0.13 -0.02 l
0.12 -0.02 l
0.12 -0.03 l
0.13 -0.02 l
0.12 -0.02 l
0.13 -0.02 l
0.12 -0.02 l
0.13 -0.02 l
0.12 -0.02 l
0.12 -0.02 l
0.13 -0.02 l
0.12 -0.03 l
0.13 -0.02 l
0.12 -0.02 l
0.13 -0.02 l
0.12 -0.02 l
0.12 -0.02 l
0.13 -0.02 l
0.12 -0.02 l
0.13 -0.02 l
0.12 -0.02 l
0.13 -0.02 l
0.12 -0.03 l
0.12 -0.02 l
0.13 -0.02 l
0.12 -0.02 l
0.13 -0.02 l
0.12 -0.02 l
0.13 -0.02 l
0.12 -0.02 l
0.13 -0.02 l
0.12 -0.02 l
0.12 -0.03 l
0.13 -0.02 l
0.12 -0.02 l
0.13 -0.02 l
0.12 -0.02 l
0.13 -0.02 l
0.12 -0.02 l
0.12 -0.02 l
0.13 -0.02 l
0.12 -0.02 l
0.13 -0.02 l
0.12 -0.03 l
0.13 -0.02 l
0.12 -0.02 l
0.12 -0.02 l
0.13 -0.02 l
0.12 -0.02 l
0.13 -0.02 l
0.12 -0.02 l
0.13 -0.02 l
0.12 -0.02 l
0.12 -0.02 l
0.13 -0.03 l
0.12 -0.02 l
0.13 -0.02 l
0.12 -0.02 l
0.13 -0.02 l
0.12 -0.02 l
0.12 -0.02 l
0.13 -0.02 l
0.12 -0.02 l
0.13 -0.02 l
0.12 -0.02 l
0.13 -0.02 l
0.12 -0.03 l
0.12 -0.02 l
0.13 -0.02 l
0.12 -0.02 l
0.13 -0.02 l
0.12 -0.02 l
0.13 -0.02 l
0.12 -0.02 l
0.13 -0.02 l
0.12 -0.02 l
0.12 -0.02 l
0.13 -0.02 l
0.12 -0.03 l
0.13 -0.02 l
0.12 -0.02 l
0.13 -0.02 l
0.12 -0.02 l
0.12 -0.02 l
0.13 -0.02 l
0.12 -0.02 l
0.13 -0.02 l
0.12 -0.02 l
0.13 -0.02 l
0.12 -0.02 l
0.12 -0.03 l
0.13 -0.02 l
0.12 -0.02 l
0.13 -0.02 l
0.12 -0.02 l
0.13 -0.02 l
0.12 -0.02 l
202.91 187.08 lineto
0.13 -0.02 l
0.12 -0.02 l
0.13 -0.02 l
0.12 -0.02 l
0.13 -0.02 l
0.12 -0.03 l
0.12 -0.02 l
0.13 -0.02 l
0.12 -0.02 l
0.13 -0.02 l
0.12 -0.02 l
0.13 -0.02 l
0.12 -0.02 l
0.12 -0.02 l
0.13 -0.02 l
0.12 -0.02 l
0.13 -0.02 l
0.12 -0.02 l
0.13 -0.02 l
0.12 -0.03 l
0.12 -0.02 l
0.13 -0.02 l
0.12 -0.02 l
0.13 -0.02 l
0.12 -0.02 l
0.13 -0.02 l
0.12 -0.02 l
0.13 -0.02 l
0.12 -0.02 l
0.12 -0.02 l
0.13 -0.02 l
0.12 -0.02 l
0.13 -0.02 l
0.12 -0.02 l
0.13 -0.03 l
0.12 -0.02 l
0.12 -0.02 l
0.13 -0.02 l
0.12 -0.02 l
0.13 -0.02 l
0.12 -0.02 l
0.13 -0.02 l
0.12 -0.02 l
0.12 -0.02 l
0.13 -0.02 l
0.12 -0.02 l
0.13 -0.02 l
0.12 -0.02 l
0.13 -0.02 l
0.12 -0.02 l
0.12 -0.03 l
0.13 -0.02 l
0.12 -0.02 l
0.13 -0.02 l
0.12 -0.02 l
0.13 -0.02 l
0.12 -0.02 l
0.12 -0.02 l
0.13 -0.02 l
0.12 -0.02 l
0.13 -0.02 l
0.12 -0.02 l
0.13 -0.02 l
0.12 -0.02 l
0.12 -0.02 l
0.13 -0.02 l
0.12 -0.02 l
0.13 -0.03 l
0.12 -0.02 l
0.13 -0.02 l
0.12 -0.02 l
0.13 -0.02 l
0.12 -0.02 l
0.12 -0.02 l
0.13 -0.02 l
0.12 -0.02 l
0.13 -0.02 l
0.12 -0.02 l
0.13 -0.02 l
0.12 -0.02 l
0.12 -0.02 l
0.13 -0.02 l
0.12 -0.02 l
0.13 -0.02 l
0.12 -0.02 l
0.13 -0.02 l
0.12 -0.03 l
0.12 -0.02 l
0.13 -0.02 l
0.12 -0.02 l
0.13 -0.02 l
0.12 -0.02 l
0.13 -0.02 l
0.12 -0.02 l
0.12 -0.02 l
0.13 -0.02 l
0.12 -0.02 l
0.13 -0.02 l
0.12 -0.02 l
215.35 185.02 lineto
0.12 -0.02 l
0.12 -0.02 l
0.13 -0.02 l
0.12 -0.02 l
0.13 -0.02 l
0.12 -0.02 l
0.13 -0.02 l
0.12 -0.03 l
0.12 -0.02 l
0.13 -0.02 l
0.12 -0.02 l
0.13 -0.02 l
0.12 -0.02 l
0.13 -0.02 l
0.12 -0.02 l
0.13 -0.02 l
0.12 -0.02 l
0.12 -0.02 l
0.13 -0.02 l
0.12 -0.02 l
0.13 -0.02 l
0.12 -0.02 l
0.13 -0.02 l
0.12 -0.02 l
0.12 -0.02 l
0.13 -0.02 l
0.12 -0.02 l
0.13 -0.02 l
0.12 -0.02 l
0.13 -0.02 l
0.12 -0.02 l
0.12 -0.03 l
0.13 -0.02 l
0.12 -0.02 l
0.13 -0.02 l
0.12 -0.02 l
0.13 -0.02 l
0.12 -0.02 l
0.12 -0.02 l
0.13 -0.02 l
0.12 -0.02 l
0.13 -0.02 l
0.12 -0.02 l
0.13 -0.02 l
0.12 -0.02 l
0.12 -0.02 l
0.13 -0.02 l
0.12 -0.02 l
0.13 -0.02 l
0.12 -0.02 l
0.13 -0.02 l
0.12 -0.02 l
0.12 -0.02 l
0.13 -0.02 l
0.12 -0.02 l
0.13 -0.02 l
0.12 -0.02 l
0.13 -0.02 l
0.12 -0.02 l
0.13 -0.02 l
0.12 -0.02 l
0.12 -0.03 l
0.13 -0.02 l
0.12 -0.02 l
0.13 -0.02 l
0.12 -0.02 l
0.13 -0.02 l
0.12 -0.02 l
0.12 -0.02 l
0.13 -0.02 l
0.12 -0.02 l
0.13 -0.02 l
0.12 -0.02 l
0.13 -0.02 l
0.12 -0.02 l
0.12 -0.02 l
0.13 -0.02 l
0.12 -0.02 l
0.13 -0.02 l
0.12 -0.02 l
0.13 -0.02 l
0.12 -0.02 l
0.12 -0.02 l
0.13 -0.02 l
0.12 -0.02 l
0.13 -0.02 l
0.12 -0.02 l
0.13 -0.02 l
0.12 -0.02 l
0.12 -0.02 l
0.13 -0.02 l
0.12 -0.02 l
0.13 -0.02 l
0.12 -0.02 l
0.13 -0.02 l
0.12 -0.02 l
0.12 -0.02 l
0.13 -0.02 l
0.12 -0.02 l
o
0.8039 0.7451 0.4392 srgb
np
41.30 38.47 m
0.13 0 l
0.12 0 l
0.13 0 l
0.12 0 l
0.12 0 l
0.13 0 l
0.12 0 l
0.13 0 l
0.12 0 l
0.13 0 l
0.12 0 l
0.12 0 l
0.13 0 l
0.12 0 l
0.13 0 l
0.12 0 l
0.13 0 l
0.12 0 l
0.12 0 l
0.13 0 l
0.12 0 l
0.13 0 l
0.12 0 l
0.13 0 l
0.12 0 l
0.12 0 l
0.13 0 l
0.12 0 l
0.13 0 l
0.12 0 l
0.13 0 l
0.12 0 l
0.12 0 l
0.13 0 l
0.12 0 l
0.13 0 l
0.12 0 l
0.13 0 l
0.12 0 l
0.13 0 l
0.12 0 l
0.12 0 l
0.13 0 l
0.12 0 l
0.13 0 l
0.12 0 l
0.13 0 l
0.12 0 l
0.12 0 l
0.13 0 l
0.12 0 l
0.13 0 l
0.12 0 l
0.13 0 l
0.12 0 l
0.12 0 l
0.13 0 l
0.12 0 l
0.13 0 l
0.12 0 l
0.13 0 l
0.12 0 l
0.12 0 l
0.13 0 l
0.12 0 l
0.13 0 l
0.12 0 l
0.13 0 l
0.12 0 l
0.12 0 l
0.13 0 l
0.12 0 l
0.13 0 l
0.12 0 l
0.13 0 l
0.12 0 l
0.12 0 l
0.13 0 l
0.12 0 l
0.13 0 l
0.12 0 l
0.13 0 l
0.12 0 l
0.13 0 l
0.12 0 l
0.12 0 l
0.13 0 l
0.12 0 l
0.13 0 l
0.12 0 l
0.13 0 l
0.12 0 l
0.12 0 l
0.13 0 l
0.12 0 l
0.13 0 l
0.12 0 l
0.13 0 l
0.12 0 l
53.73 38.47 lineto
0.13 0 l
0.12 0 l
0.13 0 l
0.12 0 l
0.13 0 l
0.12 0 l
0.12 0 l
0.13 0 l
0.12 0 l
0.13 0 l
0.12 0 l
0.13 0 l
0.12 0 l
0.12 0 l
0.13 0 l
0.12 0 l
0.13 0 l
0.12 0 l
0.13 0 l
0.12 0 l
0.12 0 l
0.13 0 l
0.12 0 l
0.13 0 l
0.12 0 l
0.13 0 l
0.12 0 l
0.12 0 l
0.13 0 l
0.12 0.01 l
0.13 0.01 l
0.12 0.02 l
0.13 0.03 l
0.12 0.04 l
0.13 0.06 l
0.12 0.09 l
0.12 0.10 l
0.13 0.14 l
0.12 0.17 l
0.13 0.20 l
0.12 0.25 l
0.13 0.28 l
0.12 0.33 l
0.12 0.37 l
0.13 0.41 l
0.12 0.46 l
0.13 0.51 l
0.12 0.55 l
0.13 0.60 l
0.12 0.64 l
0.12 0.68 l
0.13 0.73 l
0.12 0.76 l
0.13 0.81 l
0.12 0.84 l
0.13 0.88 l
0.12 0.91 l
0.12 0.94 l
0.13 0.98 l
0.12 1.00 l
0.13 1.03 l
0.12 1.05 l
0.13 1.08 l
0.12 1.09 l
0.12 1.12 l
0.13 1.13 l
0.12 1.15 l
0.13 1.16 l
0.12 1.18 l
0.13 1.18 l
0.12 1.20 l
0.12 1.20 l
0.13 1.21 l
0.12 1.22 l
0.13 1.22 l
0.12 1.22 l
0.13 1.23 l
0.12 1.23 l
0.13 1.23 l
0.12 1.23 l
0.12 1.23 l
0.13 1.22 l
0.12 1.23 l
0.13 1.22 l
0.12 1.22 l
0.13 1.21 l
0.12 1.21 l
0.12 1.20 l
0.13 1.20 l
0.12 1.19 l
0.13 1.19 l
0.12 1.18 l
0.13 1.17 l
0.12 1.16 l
0.12 1.16 l
0.13 1.15 l
0.12 1.14 l
0.13 1.13 l
0.12 1.12 l
66.17 99.28 lineto
0.12 1.11 l
0.12 1.09 l
0.13 1.09 l
0.12 1.08 l
0.13 1.07 l
0.12 1.06 l
0.13 1.06 l
0.12 1.04 l
0.12 1.03 l
0.13 1.02 l
0.12 1.02 l
0.13 1.00 l
0.12 1.00 l
0.13 0.99 l
0.12 0.97 l
0.12 0.97 l
0.13 0.96 l
0.12 0.95 l
0.13 0.93 l
0.12 0.93 l
0.13 0.93 l
0.12 0.91 l
0.13 0.90 l
0.12 0.89 l
0.12 0.89 l
0.13 0.87 l
0.12 0.87 l
0.13 0.85 l
0.12 0.85 l
0.13 0.84 l
0.12 0.83 l
0.12 0.83 l
0.13 0.81 l
0.12 0.81 l
0.13 0.79 l
0.12 0.79 l
0.13 0.78 l
0.12 0.77 l
0.12 0.77 l
0.13 0.75 l
0.12 0.75 l
0.13 0.74 l
0.12 0.73 l
0.13 0.73 l
0.12 0.71 l
0.12 0.71 l
0.13 0.70 l
0.12 0.70 l
0.13 0.68 l
0.12 0.68 l
0.13 0.67 l
0.12 0.67 l
0.12 0.66 l
0.13 0.65 l
0.12 0.64 l
0.13 0.64 l
0.12 0.63 l
0.13 0.62 l
0.12 0.61 l
0.12 0.61 l
0.13 0.61 l
0.12 0.59 l
0.13 0.59 l
0.12 0.58 l
0.13 0.58 l
0.12 0.57 l
0.13 0.57 l
0.12 0.55 l
0.12 0.56 l
0.13 0.54 l
0.12 0.54 l
0.13 0.54 l
0.12 0.52 l
0.13 0.53 l
0.12 0.51 l
0.12 0.52 l
0.13 0.50 l
0.12 0.50 l
0.13 0.50 l
0.12 0.48 l
0.13 0.49 l
0.12 0.48 l
0.12 0.47 l
0.13 0.47 l
0.12 0.46 l
0.13 0.46 l
0.12 0.45 l
0.13 0.45 l
0.12 0.44 l
0.12 0.44 l
0.13 0.43 l
0.12 0.43 l
0.13 0.42 l
0.12 0.42 l
0.13 0.42 l
0.12 0.41 l
0.12 0.40 l
0.13 0.40 l
0.12 0.40 l
78.60 169.52 lineto
0.12 0.39 l
0.13 0.38 l
0.12 0.38 l
0.12 0.37 l
0.13 0.37 l
0.12 0.37 l
0.13 0.36 l
0.12 0.36 l
0.13 0.35 l
0.12 0.35 l
0.12 0.35 l
0.13 0.34 l
0.12 0.34 l
0.13 0.33 l
0.12 0.33 l
0.13 0.33 l
0.12 0.33 l
0.13 0.32 l
0.12 0.31 l
0.12 0.31 l
0.13 0.31 l
0.12 0.31 l
0.13 0.30 l
0.12 0.30 l
0.13 0.29 l
0.12 0.30 l
0.12 0.29 l
0.13 0.28 l
0.12 0.28 l
0.13 0.28 l
0.12 0.28 l
0.13 0.27 l
0.12 0.27 l
0.12 0.27 l
0.13 0.26 l
0.12 0.26 l
0.13 0.26 l
0.12 0.25 l
0.13 0.25 l
0.12 0.25 l
0.12 0.25 l
0.13 0.24 l
0.12 0.24 l
0.13 0.24 l
0.12 0.23 l
0.13 0.24 l
0.12 0.22 l
0.12 0.23 l
0.13 0.22 l
0.12 0.23 l
0.13 0.22 l
0.12 0.21 l
0.13 0.22 l
0.12 0.21 l
0.12 0.21 l
0.13 0.20 l
0.12 0.21 l
0.13 0.20 l
0.12 0.20 l
0.13 0.19 l
0.12 0.20 l
0.13 0.19 l
0.12 0.19 l
0.12 0.19 l
0.13 0.18 l
0.12 0.19 l
0.13 0.18 l
0.12 0.18 l
0.13 0.17 l
0.12 0.18 l
0.12 0.17 l
0.13 0.17 l
0.12 0.17 l
0.13 0.17 l
0.12 0.16 l
0.13 0.16 l
0.12 0.17 l
0.12 0.15 l
0.13 0.16 l
0.12 0.16 l
0.13 0.15 l
0.12 0.15 l
0.13 0.15 l
0.12 0.15 l
0.12 0.14 l
0.13 0.15 l
0.12 0.14 l
0.13 0.14 l
0.12 0.14 l
0.13 0.14 l
0.12 0.13 l
0.12 0.14 l
0.13 0.13 l
0.12 0.13 l
0.13 0.13 l
0.12 0.12 l
0.13 0.13 l
0.12 0.12 l
0.12 0.13 l
91.03 192.68 lineto
0.12 0.12 l
0.13 0.12 l
0.12 0.11 l
0.13 0.12 l
0.12 0.11 l
0.13 0.11 l
0.12 0.11 l
0.12 0.11 l
0.13 0.11 l
0.12 0.11 l
0.13 0.10 l
0.12 0.11 l
0.13 0.10 l
0.12 0.10 l
0.12 0.10 l
0.13 0.10 l
0.12 0.10 l
0.13 0.09 l
0.12 0.10 l
0.13 0.09 l
0.12 0.09 l
0.12 0.10 l
0.13 0.09 l
0.12 0.08 l
0.13 0.09 l
0.12 0.09 l
0.13 0.08 l
0.12 0.09 l
0.12 0.08 l
0.13 0.08 l
0.12 0.08 l
0.13 0.08 l
0.12 0.08 l
0.13 0.08 l
0.12 0.08 l
0.12 0.07 l
0.13 0.08 l
0.12 0.07 l
0.13 0.07 l
0.12 0.07 l
0.13 0.07 l
0.12 0.07 l
0.12 0.07 l
0.13 0.07 l
0.12 0.07 l
0.13 0.06 l
0.12 0.07 l
0.13 0.06 l
0.12 0.06 l
0.12 0.06 l
0.13 0.07 l
0.12 0.06 l
0.13 0.06 l
0.12 0.05 l
0.13 0.06 l
0.12 0.06 l
0.13 0.05 l
0.12 0.06 l
0.12 0.05 l
0.13 0.06 l
0.12 0.05 l
0.13 0.05 l
0.12 0.05 l
0.13 0.05 l
0.12 0.05 l
0.12 0.05 l
0.13 0.05 l
0.12 0.05 l
0.13 0.04 l
0.12 0.05 l
0.13 0.04 l
0.12 0.05 l
0.12 0.04 l
0.13 0.04 l
0.12 0.05 l
0.13 0.04 l
0.12 0.04 l
0.13 0.04 l
0.12 0.04 l
0.12 0.04 l
0.13 0.04 l
0.12 0.03 l
0.13 0.04 l
0.12 0.04 l
0.13 0.03 l
0.12 0.04 l
0.12 0.03 l
0.13 0.04 l
0.12 0.03 l
0.13 0.03 l
0.12 0.04 l
0.13 0.03 l
0.12 0.03 l
0.12 0.03 l
0.13 0.03 l
0.12 0.03 l
0.13 0.03 l
0.12 0.02 l
0.13 0.03 l
103.46 199.23 lineto
0.13 0.03 l
0.12 0.02 l
0.12 0.03 l
0.13 0.02 l
0.12 0.03 l
0.13 0.02 l
0.12 0.03 l
0.13 0.02 l
0.12 0.02 l
0.12 0.02 l
0.13 0.02 l
0.12 0.03 l
0.13 0.02 l
0.12 0.02 l
0.13 0.02 l
0.12 0.02 l
0.12 0.02 l
0.13 0.01 l
0.12 0.02 l
0.13 0.02 l
0.12 0.02 l
0.13 0.01 l
0.12 0.02 l
0.12 0.02 l
0.13 0.01 l
0.12 0.02 l
0.13 0.01 l
0.12 0.02 l
0.13 0.01 l
0.12 0.01 l
0.12 0.02 l
0.13 0.01 l
0.12 0.01 l
0.13 0.01 l
0.12 0.02 l
0.13 0.01 l
0.12 0.01 l
0.12 0.01 l
0.13 0.01 l
0.12 0.01 l
0.13 0.01 l
0.12 0.01 l
0.13 0.01 l
0.12 0.01 l
0.13 0 l
0.12 0.01 l
0.12 0.01 l
0.13 0.01 l
0.12 0 l
0.13 0.01 l
0.12 0.01 l
0.13 0 l
0.12 0.01 l
0.12 0.01 l
0.13 0 l
0.12 0.01 l
0.13 0 l
0.12 0 l
0.13 0.01 l
0.12 0 l
0.12 0.01 l
0.13 0 l
0.12 0 l
0.13 0 l
0.12 0.01 l
0.13 0 l
0.12 0 l
0.12 0 l
0.13 0 l
0.12 0.01 l
0.13 0 l
0.12 0 l
0.13 0 l
0.12 0 l
0.12 0 l
0.13 0 l
0.12 0 l
0.13 0 l
0.12 -0.01 l
0.13 0 l
0.12 0 l
0.12 0 l
0.13 0 l
0.12 0 l
0.13 -0.01 l
0.12 0 l
0.13 0 l
0.12 0 l
0.13 -0.01 l
0.12 0 l
0.12 0 l
0.13 -0.01 l
0.12 0 l
0.13 -0.01 l
0.12 0 l
0.13 -0.01 l
0.12 0 l
0.12 0 l
0.13 -0.01 l
115.89 200.02 lineto
0.13 0 l
0.12 -0.01 l
0.13 0 l
0.12 -0.01 l
0.12 0 l
0.13 -0.01 l
0.12 -0.01 l
0.13 0 l
0.12 -0.01 l
0.13 -0.01 l
0.12 0 l
0.12 -0.01 l
0.13 -0.01 l
0.12 -0.01 l
0.13 0 l
0.12 -0.01 l
0.13 -0.01 l
0.12 -0.01 l
0.12 -0.01 l
0.13 -0.01 l
0.12 0 l
0.13 -0.01 l
0.12 -0.01 l
0.13 -0.01 l
0.12 -0.01 l
0.12 -0.01 l
0.13 -0.01 l
0.12 -0.01 l
0.13 -0.01 l
0.12 -0.01 l
0.13 -0.01 l
0.12 -0.01 l
0.12 -0.01 l
0.13 -0.01 l
0.12 -0.01 l
0.13 -0.01 l
0.12 -0.01 l
0.13 -0.01 l
0.12 -0.01 l
0.13 -0.02 l
0.12 -0.01 l
0.12 -0.01 l
0.13 -0.01 l
0.12 -0.01 l
0.13 -0.01 l
0.12 -0.01 l
0.13 -0.02 l
0.12 -0.01 l
0.12 -0.01 l
0.13 -0.01 l
0.12 -0.02 l
0.13 -0.01 l
0.12 -0.01 l
0.13 -0.01 l
0.12 -0.02 l
0.12 -0.01 l
0.13 -0.01 l
0.12 -0.02 l
0.13 -0.01 l
0.12 -0.01 l
0.13 -0.02 l
0.12 -0.01 l
0.12 -0.01 l
0.13 -0.02 l
0.12 -0.01 l
0.13 -0.01 l
0.12 -0.02 l
0.13 -0.01 l
0.12 -0.02 l
0.12 -0.01 l
0.13 -0.01 l
0.12 -0.02 l
0.13 -0.01 l
0.12 -0.02 l
0.13 -0.01 l
0.12 -0.02 l
0.12 -0.01 l
0.13 -0.02 l
0.12 -0.01 l
0.13 -0.02 l
0.12 -0.01 l
0.13 -0.02 l
0.12 -0.01 l
0.13 -0.02 l
0.12 -0.01 l
0.12 -0.02 l
0.13 -0.01 l
0.12 -0.02 l
0.13 -0.01 l
0.12 -0.02 l
0.13 -0.02 l
0.12 -0.01 l
0.12 -0.02 l
0.13 -0.01 l
0.12 -0.02 l
0.13 -0.02 l
0.12 -0.01 l
0.13 -0.02 l
0.12 -0.01 l
128.32 198.84 lineto
0.13 -0.02 l
0.12 -0.01 l
0.13 -0.02 l
0.12 -0.02 l
0.13 -0.01 l
0.12 -0.02 l
0.12 -0.02 l
0.13 -0.01 l
0.12 -0.02 l
0.13 -0.02 l
0.12 -0.01 l
0.13 -0.02 l
0.12 -0.02 l
0.12 -0.02 l
0.13 -0.01 l
0.12 -0.02 l
0.13 -0.02 l
0.12 -0.01 l
0.13 -0.02 l
0.12 -0.02 l
0.12 -0.02 l
0.13 -0.01 l
0.12 -0.02 l
0.13 -0.02 l
0.12 -0.02 l
0.13 -0.02 l
0.12 -0.01 l
0.13 -0.02 l
0.12 -0.02 l
0.12 -0.02 l
0.13 -0.01 l
0.12 -0.02 l
0.13 -0.02 l
0.12 -0.02 l
0.13 -0.02 l
0.12 -0.02 l
0.12 -0.01 l
0.13 -0.02 l
0.12 -0.02 l
0.13 -0.02 l
0.12 -0.02 l
0.13 -0.02 l
0.12 -0.01 l
0.12 -0.02 l
0.13 -0.02 l
0.12 -0.02 l
0.13 -0.02 l
0.12 -0.02 l
0.13 -0.01 l
0.12 -0.02 l
0.12 -0.02 l
0.13 -0.02 l
0.12 -0.02 l
0.13 -0.02 l
0.12 -0.02 l
0.13 -0.02 l
0.12 -0.02 l
0.12 -0.01 l
0.13 -0.02 l
0.12 -0.02 l
0.13 -0.02 l
0.12 -0.02 l
0.13 -0.02 l
0.12 -0.02 l
0.12 -0.02 l
0.13 -0.02 l
0.12 -0.02 l
0.13 -0.02 l
0.12 -0.01 l
0.13 -0.02 l
0.12 -0.02 l
0.13 -0.02 l
0.12 -0.02 l
0.12 -0.02 l
0.13 -0.02 l
0.12 -0.02 l
0.13 -0.02 l
0.12 -0.02 l
0.13 -0.02 l
0.12 -0.02 l
0.12 -0.02 l
0.13 -0.02 l
0.12 -0.02 l
0.13 -0.02 l
0.12 -0.02 l
0.13 -0.02 l
0.12 -0.02 l
0.12 -0.02 l
0.13 -0.02 l
0.12 -0.02 l
0.13 -0.02 l
0.12 -0.02 l
0.13 -0.02 l
0.12 -0.02 l
0.12 -0.02 l
0.13 -0.02 l
0.12 -0.02 l
0.13 -0.02 l
0.12 -0.02 l
140.76 196.98 lineto
0.12 -0.02 l
0.12 -0.02 l
0.13 -0.02 l
0.12 -0.02 l
0.13 -0.02 l
0.12 -0.02 l
0.13 -0.02 l
0.12 -0.02 l
0.12 -0.02 l
0.13 -0.02 l
0.12 -0.02 l
0.13 -0.02 l
0.12 -0.02 l
0.13 -0.02 l
0.12 -0.02 l
0.12 -0.02 l
0.13 -0.02 l
0.12 -0.02 l
0.13 -0.02 l
0.12 -0.02 l
0.13 -0.02 l
0.12 -0.02 l
0.13 -0.02 l
0.12 -0.02 l
0.12 -0.02 l
0.13 -0.02 l
0.12 -0.02 l
0.13 -0.02 l
0.12 -0.02 l
0.13 -0.02 l
0.12 -0.02 l
0.12 -0.02 l
0.13 -0.02 l
0.12 -0.03 l
0.13 -0.02 l
0.12 -0.02 l
0.13 -0.02 l
0.12 -0.02 l
0.12 -0.02 l
0.13 -0.02 l
0.12 -0.02 l
0.13 -0.02 l
0.12 -0.02 l
0.13 -0.02 l
0.12 -0.02 l
0.12 -0.02 l
0.13 -0.02 l
0.12 -0.02 l
0.13 -0.02 l
0.12 -0.03 l
0.13 -0.02 l
0.12 -0.02 l
0.12 -0.02 l
0.13 -0.02 l
0.12 -0.02 l
0.13 -0.02 l
0.12 -0.02 l
0.13 -0.02 l
0.12 -0.02 l
0.12 -0.02 l
0.13 -0.02 l
0.12 -0.03 l
0.13 -0.02 l
0.12 -0.02 l
0.13 -0.02 l
0.12 -0.02 l
0.13 -0.02 l
0.12 -0.02 l
0.12 -0.02 l
0.13 -0.02 l
0.12 -0.02 l
0.13 -0.02 l
0.12 -0.02 l
0.13 -0.03 l
0.12 -0.02 l
0.12 -0.02 l
0.13 -0.02 l
0.12 -0.02 l
0.13 -0.02 l
0.12 -0.02 l
0.13 -0.02 l
0.12 -0.02 l
0.12 -0.02 l
0.13 -0.03 l
0.12 -0.02 l
0.13 -0.02 l
0.12 -0.02 l
0.13 -0.02 l
0.12 -0.02 l
0.12 -0.02 l
0.13 -0.02 l
0.12 -0.02 l
0.13 -0.02 l
0.12 -0.03 l
0.13 -0.02 l
0.12 -0.02 l
0.12 -0.02 l
0.13 -0.02 l
0.12 -0.02 l
153.19 194.92 lineto
0.12 -0.02 l
0.13 -0.02 l
0.12 -0.03 l
0.12 -0.02 l
0.13 -0.02 l
0.12 -0.02 l
0.13 -0.02 l
0.12 -0.02 l
0.13 -0.02 l
0.12 -0.02 l
0.13 -0.02 l
0.12 -0.03 l
0.12 -0.02 l
0.13 -0.02 l
0.12 -0.02 l
0.13 -0.02 l
0.12 -0.02 l
0.13 -0.02 l
0.12 -0.02 l
0.12 -0.02 l
0.13 -0.03 l
0.12 -0.02 l
0.13 -0.02 l
0.12 -0.02 l
0.13 -0.02 l
0.12 -0.02 l
0.12 -0.02 l
0.13 -0.02 l
0.12 -0.03 l
0.13 -0.02 l
0.12 -0.02 l
0.13 -0.02 l
0.12 -0.02 l
0.12 -0.02 l
0.13 -0.02 l
0.12 -0.02 l
0.13 -0.02 l
0.12 -0.03 l
0.13 -0.02 l
0.12 -0.02 l
0.12 -0.02 l
0.13 -0.02 l
0.12 -0.02 l
0.13 -0.02 l
0.12 -0.02 l
0.13 -0.03 l
0.12 -0.02 l
0.12 -0.02 l
0.13 -0.02 l
0.12 -0.02 l
0.13 -0.02 l
0.12 -0.02 l
0.13 -0.02 l
0.12 -0.03 l
0.13 -0.02 l
0.12 -0.02 l
0.12 -0.02 l
0.13 -0.02 l
0.12 -0.02 l
0.13 -0.02 l
0.12 -0.02 l
0.13 -0.03 l
0.12 -0.02 l
0.12 -0.02 l
0.13 -0.02 l
0.12 -0.02 l
0.13 -0.02 l
0.12 -0.02 l
0.13 -0.02 l
0.12 -0.03 l
0.12 -0.02 l
0.13 -0.02 l
0.12 -0.02 l
0.13 -0.02 l
0.12 -0.02 l
0.13 -0.02 l
0.12 -0.02 l
0.12 -0.03 l
0.13 -0.02 l
0.12 -0.02 l
0.13 -0.02 l
0.12 -0.02 l
0.13 -0.02 l
0.12 -0.02 l
0.12 -0.02 l
0.13 -0.03 l
0.12 -0.02 l
0.13 -0.02 l
0.12 -0.02 l
0.13 -0.02 l
0.12 -0.02 l
0.12 -0.02 l
0.13 -0.02 l
0.12 -0.03 l
0.13 -0.02 l
0.12 -0.02 l
0.13 -0.02 l
0.12 -0.02 l
0.12 -0.02 l
currentpoint o m
165.62 192.80 lineto
0.12 -0.02 l
0.13 -0.03 l
0.12 -0.02 l
0.13 -0.02 l
0.12 -0.02 l
0.13 -0.02 l
0.12 -0.02 l
0.12 -0.02 l
0.13 -0.02 l
0.12 -0.03 l
0.13 -0.02 l
0.12 -0.02 l
0.13 -0.02 l
0.12 -0.02 l
0.12 -0.02 l
0.13 -0.02 l
0.12 -0.02 l
0.13 -0.03 l
0.12 -0.02 l
0.13 -0.02 l
0.12 -0.02 l
0.12 -0.02 l
0.13 -0.02 l
0.12 -0.02 l
0.13 -0.02 l
0.12 -0.03 l
0.13 -0.02 l
0.12 -0.02 l
0.12 -0.02 l
0.13 -0.02 l
0.12 -0.02 l
0.13 -0.02 l
0.12 -0.02 l
0.13 -0.03 l
0.12 -0.02 l
0.12 -0.02 l
0.13 -0.02 l
0.12 -0.02 l
0.13 -0.02 l
0.12 -0.02 l
0.13 -0.02 l
0.12 -0.03 l
0.12 -0.02 l
0.13 -0.02 l
0.12 -0.02 l
0.13 -0.02 l
0.12 -0.02 l
0.13 -0.02 l
0.12 -0.02 l
0.13 -0.03 l
0.12 -0.02 l
0.12 -0.02 l
0.13 -0.02 l
0.12 -0.02 l
0.13 -0.02 l
0.12 -0.02 l
0.13 -0.02 l
0.12 -0.03 l
0.12 -0.02 l
0.13 -0.02 l
0.12 -0.02 l
0.13 -0.02 l
0.12 -0.02 l
0.13 -0.02 l
0.12 -0.02 l
0.12 -0.02 l
0.13 -0.03 l
0.12 -0.02 l
0.13 -0.02 l
0.12 -0.02 l
0.13 -0.02 l
0.12 -0.02 l
0.12 -0.02 l
0.13 -0.02 l
0.12 -0.03 l
0.13 -0.02 l
0.12 -0.02 l
0.13 -0.02 l
0.12 -0.02 l
0.12 -0.02 l
0.13 -0.02 l
0.12 -0.02 l
0.13 -0.02 l
0.12 -0.03 l
0.13 -0.02 l
0.12 -0.02 l
0.12 -0.02 l
0.13 -0.02 l
0.12 -0.02 l
0.13 -0.02 l
0.12 -0.02 l
0.13 -0.03 l
0.12 -0.02 l
0.13 -0.02 l
0.12 -0.02 l
0.12 -0.02 l
0.13 -0.02 l
0.12 -0.02 l
0.13 -0.02 l
178.05 190.68 lineto
0.13 -0.03 l
0.12 -0.02 l
0.12 -0.02 l
0.13 -0.02 l
0.12 -0.02 l
0.13 -0.02 l
0.12 -0.02 l
0.13 -0.02 l
0.12 -0.02 l
0.12 -0.03 l
0.13 -0.02 l
0.12 -0.02 l
0.13 -0.02 l
0.12 -0.02 l
0.13 -0.02 l
0.12 -0.02 l
0.12 -0.02 l
0.13 -0.02 l
0.12 -0.03 l
0.13 -0.02 l
0.12 -0.02 l
0.13 -0.02 l
0.12 -0.02 l
0.12 -0.02 l
0.13 -0.02 l
0.12 -0.02 l
0.13 -0.02 l
0.12 -0.03 l
0.13 -0.02 l
0.12 -0.02 l
0.12 -0.02 l
0.13 -0.02 l
0.12 -0.02 l
0.13 -0.02 l
0.12 -0.02 l
0.13 -0.02 l
0.12 -0.02 l
0.12 -0.03 l
0.13 -0.02 l
0.12 -0.02 l
0.13 -0.02 l
0.12 -0.02 l
0.13 -0.02 l
0.12 -0.02 l
0.13 -0.02 l
0.12 -0.02 l
0.12 -0.02 l
0.13 -0.03 l
0.12 -0.02 l
0.13 -0.02 l
0.12 -0.02 l
0.13 -0.02 l
0.12 -0.02 l
0.12 -0.02 l
0.13 -0.02 l
0.12 -0.02 l
0.13 -0.03 l
0.12 -0.02 l
0.13 -0.02 l
0.12 -0.02 l
0.12 -0.02 l
0.13 -0.02 l
0.12 -0.02 l
0.13 -0.02 l
0.12 -0.02 l
0.13 -0.02 l
0.12 -0.02 l
0.12 -0.03 l
0.13 -0.02 l
0.12 -0.02 l
0.13 -0.02 l
0.12 -0.02 l
0.13 -0.02 l
0.12 -0.02 l
0.12 -0.02 l
0.13 -0.02 l
0.12 -0.02 l
0.13 -0.03 l
0.12 -0.02 l
0.13 -0.02 l
0.12 -0.02 l
0.12 -0.02 l
0.13 -0.02 l
0.12 -0.02 l
0.13 -0.02 l
0.12 -0.02 l
0.13 -0.02 l
0.12 -0.02 l
0.13 -0.03 l
0.12 -0.02 l
0.12 -0.02 l
0.13 -0.02 l
0.12 -0.02 l
0.13 -0.02 l
0.12 -0.02 l
0.13 -0.02 l
0.12 -0.02 l
0.12 -0.02 l
0.13 -0.02 l
190.48 188.57 lineto
0.13 -0.02 l
0.12 -0.02 l
0.13 -0.02 l
0.12 -0.02 l
0.12 -0.02 l
0.13 -0.02 l
0.12 -0.02 l
0.13 -0.02 l
0.12 -0.02 l
0.13 -0.02 l
0.12 -0.03 l
0.12 -0.02 l
0.13 -0.02 l
0.12 -0.02 l
0.13 -0.02 l
0.12 -0.02 l
0.13 -0.02 l
0.12 -0.02 l
0.12 -0.02 l
0.13 -0.02 l
0.12 -0.02 l
0.13 -0.02 l
0.12 -0.03 l
0.13 -0.02 l
0.12 -0.02 l
0.12 -0.02 l
0.13 -0.02 l
0.12 -0.02 l
0.13 -0.02 l
0.12 -0.02 l
0.13 -0.02 l
0.12 -0.02 l
0.13 -0.02 l
0.12 -0.02 l
0.12 -0.03 l
0.13 -0.02 l
0.12 -0.02 l
0.13 -0.02 l
0.12 -0.02 l
0.13 -0.02 l
0.12 -0.02 l
0.12 -0.02 l
0.13 -0.02 l
0.12 -0.02 l
0.13 -0.02 l
0.12 -0.02 l
0.13 -0.02 l
0.12 -0.03 l
0.12 -0.02 l
0.13 -0.02 l
0.12 -0.02 l
0.13 -0.02 l
0.12 -0.02 l
0.13 -0.02 l
0.12 -0.02 l
0.12 -0.02 l
0.13 -0.02 l
0.12 -0.02 l
0.13 -0.02 l
0.12 -0.02 l
0.13 -0.03 l
0.12 -0.02 l
0.12 -0.02 l
0.13 -0.02 l
0.12 -0.02 l
0.13 -0.02 l
0.12 -0.02 l
0.13 -0.02 l
0.12 -0.02 l
0.12 -0.02 l
0.13 -0.02 l
0.12 -0.02 l
0.13 -0.02 l
0.12 -0.02 l
0.13 -0.03 l
0.12 -0.02 l
0.13 -0.02 l
0.12 -0.02 l
0.12 -0.02 l
0.13 -0.02 l
0.12 -0.02 l
0.13 -0.02 l
0.12 -0.02 l
0.13 -0.02 l
0.12 -0.02 l
0.12 -0.02 l
0.13 -0.02 l
0.12 -0.02 l
0.13 -0.02 l
0.12 -0.03 l
0.13 -0.02 l
0.12 -0.02 l
0.12 -0.02 l
0.13 -0.02 l
0.12 -0.02 l
0.13 -0.02 l
0.12 -0.02 l
0.13 -0.02 l
0.12 -0.02 l
202.91 186.50 lineto
0.13 -0.02 l
0.12 -0.02 l
0.13 -0.02 l
0.12 -0.02 l
0.13 -0.02 l
0.12 -0.03 l
0.12 -0.02 l
0.13 -0.02 l
0.12 -0.02 l
0.13 -0.02 l
0.12 -0.02 l
0.13 -0.02 l
0.12 -0.02 l
0.12 -0.02 l
0.13 -0.02 l
0.12 -0.02 l
0.13 -0.02 l
0.12 -0.02 l
0.13 -0.02 l
0.12 -0.02 l
0.12 -0.02 l
0.13 -0.02 l
0.12 -0.03 l
0.13 -0.02 l
0.12 -0.02 l
0.13 -0.02 l
0.12 -0.02 l
0.13 -0.02 l
0.12 -0.02 l
0.12 -0.02 l
0.13 -0.02 l
0.12 -0.02 l
0.13 -0.02 l
0.12 -0.02 l
0.13 -0.02 l
0.12 -0.02 l
0.12 -0.02 l
0.13 -0.02 l
0.12 -0.02 l
0.13 -0.02 l
0.12 -0.02 l
0.13 -0.03 l
0.12 -0.02 l
0.12 -0.02 l
0.13 -0.02 l
0.12 -0.02 l
0.13 -0.02 l
0.12 -0.02 l
0.13 -0.02 l
0.12 -0.02 l
0.12 -0.02 l
0.13 -0.02 l
0.12 -0.02 l
0.13 -0.02 l
0.12 -0.02 l
0.13 -0.02 l
0.12 -0.02 l
0.12 -0.02 l
0.13 -0.02 l
0.12 -0.02 l
0.13 -0.02 l
0.12 -0.02 l
0.13 -0.03 l
0.12 -0.02 l
0.12 -0.02 l
0.13 -0.02 l
0.12 -0.02 l
0.13 -0.02 l
0.12 -0.02 l
0.13 -0.02 l
0.12 -0.02 l
0.13 -0.02 l
0.12 -0.02 l
0.12 -0.02 l
0.13 -0.02 l
0.12 -0.02 l
0.13 -0.02 l
0.12 -0.02 l
0.13 -0.02 l
0.12 -0.02 l
0.12 -0.02 l
0.13 -0.02 l
0.12 -0.02 l
0.13 -0.02 l
0.12 -0.02 l
0.13 -0.02 l
0.12 -0.03 l
0.12 -0.02 l
0.13 -0.02 l
0.12 -0.02 l
0.13 -0.02 l
0.12 -0.02 l
0.13 -0.02 l
0.12 -0.02 l
0.12 -0.02 l
0.13 -0.02 l
0.12 -0.02 l
0.13 -0.02 l
0.12 -0.02 l
215.35 184.45 lineto
0.12 -0.02 l
0.12 -0.02 l
0.13 -0.02 l
0.12 -0.02 l
0.13 -0.02 l
0.12 -0.02 l
0.13 -0.02 l
0.12 -0.02 l
0.12 -0.02 l
0.13 -0.02 l
0.12 -0.02 l
0.13 -0.02 l
0.12 -0.02 l
0.13 -0.02 l
0.12 -0.02 l
0.13 -0.03 l
0.12 -0.02 l
0.12 -0.02 l
0.13 -0.02 l
0.12 -0.02 l
0.13 -0.02 l
0.12 -0.02 l
0.13 -0.02 l
0.12 -0.02 l
0.12 -0.02 l
0.13 -0.02 l
0.12 -0.02 l
0.13 -0.02 l
0.12 -0.02 l
0.13 -0.02 l
0.12 -0.02 l
0.12 -0.02 l
0.13 -0.02 l
0.12 -0.02 l
0.13 -0.02 l
0.12 -0.02 l
0.13 -0.02 l
0.12 -0.02 l
0.12 -0.02 l
0.13 -0.02 l
0.12 -0.02 l
0.13 -0.02 l
0.12 -0.02 l
0.13 -0.02 l
0.12 -0.02 l
0.12 -0.02 l
0.13 -0.02 l
0.12 -0.02 l
0.13 -0.02 l
0.12 -0.02 l
0.13 -0.02 l
0.12 -0.02 l
0.12 -0.02 l
0.13 -0.02 l
0.12 -0.02 l
0.13 -0.02 l
0.12 -0.03 l
0.13 -0.02 l
0.12 -0.02 l
0.13 -0.02 l
0.12 -0.02 l
0.12 -0.02 l
0.13 -0.02 l
0.12 -0.02 l
0.13 -0.02 l
0.12 -0.02 l
0.13 -0.02 l
0.12 -0.02 l
0.12 -0.02 l
0.13 -0.02 l
0.12 -0.02 l
0.13 -0.02 l
0.12 -0.02 l
0.13 -0.02 l
0.12 -0.02 l
0.12 -0.02 l
0.13 -0.02 l
0.12 -0.02 l
0.13 -0.02 l
0.12 -0.02 l
0.13 -0.02 l
0.12 -0.02 l
0.12 -0.02 l
0.13 -0.02 l
0.12 -0.02 l
0.13 -0.02 l
0.12 -0.02 l
0.13 -0.02 l
0.12 -0.02 l
0.12 -0.02 l
0.13 -0.02 l
0.12 -0.02 l
0.13 -0.02 l
0.12 -0.02 l
0.13 -0.02 l
0.12 -0.02 l
0.12 -0.02 l
0.13 -0.02 l
0.12 -0.02 l
o
0.5608 0.7373 0.5608 srgb
np
41.30 38.47 m
0.13 0 l
0.12 0 l
0.13 0 l
0.12 0 l
0.12 0 l
0.13 0 l
0.12 0 l
0.13 0 l
0.12 0 l
0.13 0 l
0.12 0 l
0.12 0 l
0.13 0 l
0.12 0 l
0.13 0 l
0.12 0 l
0.13 0 l
0.12 0 l
0.12 0 l
0.13 0 l
0.12 0 l
0.13 0 l
0.12 0 l
0.13 0 l
0.12 0 l
0.12 0 l
0.13 0 l
0.12 0 l
0.13 0 l
0.12 0 l
0.13 0 l
0.12 0 l
0.12 0 l
0.13 0 l
0.12 0 l
0.13 0 l
0.12 0 l
0.13 0 l
0.12 0 l
0.13 0 l
0.12 0 l
0.12 0 l
0.13 0 l
0.12 0 l
0.13 0 l
0.12 0 l
0.13 0 l
0.12 0 l
0.12 0 l
0.13 0 l
0.12 0 l
0.13 0 l
0.12 0 l
0.13 0 l
0.12 0 l
0.12 0 l
0.13 0 l
0.12 0 l
0.13 0 l
0.12 0 l
0.13 0 l
0.12 0 l
0.12 0 l
0.13 0 l
0.12 0 l
0.13 0 l
0.12 0 l
0.13 0 l
0.12 0 l
0.12 0 l
0.13 0 l
0.12 0 l
0.13 0 l
0.12 0 l
0.13 0 l
0.12 0 l
0.12 0 l
0.13 0 l
0.12 0 l
0.13 0 l
0.12 0 l
0.13 0 l
0.12 0 l
0.13 0 l
0.12 0 l
0.12 0 l
0.13 0 l
0.12 0 l
0.13 0 l
0.12 0 l
0.13 0 l
0.12 0 l
0.12 0 l
0.13 0 l
0.12 0 l
0.13 0 l
0.12 0 l
0.13 0 l
0.12 0 l
53.73 38.47 lineto
0.13 0 l
0.12 0 l
0.13 0 l
0.12 0 l
0.13 0 l
0.12 0 l
0.12 0 l
0.13 0 l
0.12 0 l
0.13 0 l
0.12 0 l
0.13 0 l
0.12 0 l
0.12 0 l
0.13 0 l
0.12 -0.01 l
0.13 0 l
0.12 0 l
0.13 0 l
0.12 0 l
0.12 0 l
0.13 0 l
0.12 0 l
0.13 0 l
0.12 0 l
0.13 0 l
0.12 0 l
0.12 0 l
0.13 0 l
0.12 0 l
0.13 0.01 l
0.12 0 l
0.13 0.01 l
0.12 0.02 l
0.13 0.02 l
0.12 0.03 l
0.12 0.04 l
0.13 0.05 l
0.12 0.07 l
0.13 0.08 l
0.12 0.09 l
0.13 0.11 l
0.12 0.14 l
0.12 0.15 l
0.13 0.17 l
0.12 0.20 l
0.13 0.22 l
0.12 0.24 l
0.13 0.26 l
0.12 0.29 l
0.12 0.31 l
0.13 0.33 l
0.12 0.36 l
0.13 0.38 l
0.12 0.40 l
0.13 0.43 l
0.12 0.44 l
0.12 0.47 l
0.13 0.49 l
0.12 0.50 l
0.13 0.53 l
0.12 0.54 l
0.13 0.56 l
0.12 0.58 l
0.12 0.59 l
0.13 0.61 l
0.12 0.62 l
0.13 0.64 l
0.12 0.64 l
0.13 0.66 l
0.12 0.68 l
0.12 0.68 l
0.13 0.69 l
0.12 0.70 l
0.13 0.71 l
0.12 0.72 l
0.13 0.72 l
0.12 0.73 l
0.13 0.74 l
0.12 0.74 l
0.12 0.75 l
0.13 0.75 l
0.12 0.76 l
0.13 0.76 l
0.12 0.76 l
0.13 0.77 l
0.12 0.77 l
0.12 0.77 l
0.13 0.77 l
0.12 0.78 l
0.13 0.77 l
0.12 0.78 l
0.13 0.77 l
0.12 0.78 l
0.12 0.77 l
0.13 0.78 l
0.12 0.77 l
0.13 0.78 l
0.12 0.77 l
66.17 73.23 lineto
0.12 0.77 l
0.12 0.77 l
0.13 0.77 l
0.12 0.76 l
0.13 0.76 l
0.12 0.76 l
0.13 0.76 l
0.12 0.75 l
0.12 0.76 l
0.13 0.75 l
0.12 0.74 l
0.13 0.75 l
0.12 0.74 l
0.13 0.73 l
0.12 0.74 l
0.12 0.73 l
0.13 0.73 l
0.12 0.72 l
0.13 0.72 l
0.12 0.72 l
0.13 0.72 l
0.12 0.71 l
0.13 0.70 l
0.12 0.71 l
0.12 0.70 l
0.13 0.69 l
0.12 0.69 l
0.13 0.69 l
0.12 0.69 l
0.13 0.68 l
0.12 0.67 l
0.12 0.68 l
0.13 0.67 l
0.12 0.66 l
0.13 0.66 l
0.12 0.66 l
0.13 0.66 l
0.12 0.65 l
0.12 0.64 l
0.13 0.65 l
0.12 0.64 l
0.13 0.63 l
0.12 0.63 l
0.13 0.63 l
0.12 0.62 l
0.12 0.62 l
0.13 0.62 l
0.12 0.61 l
0.13 0.61 l
0.12 0.60 l
0.13 0.60 l
0.12 0.60 l
0.12 0.59 l
0.13 0.59 l
0.12 0.59 l
0.13 0.58 l
0.12 0.58 l
0.13 0.57 l
0.12 0.57 l
0.12 0.57 l
0.13 0.57 l
0.12 0.56 l
0.13 0.55 l
0.12 0.56 l
0.13 0.55 l
0.12 0.54 l
0.13 0.54 l
0.12 0.54 l
0.12 0.54 l
0.13 0.53 l
0.12 0.53 l
0.13 0.52 l
0.12 0.53 l
0.13 0.51 l
0.12 0.52 l
0.12 0.51 l
0.13 0.51 l
0.12 0.50 l
0.13 0.50 l
0.12 0.50 l
0.13 0.50 l
0.12 0.49 l
0.12 0.49 l
0.13 0.48 l
0.12 0.49 l
0.13 0.48 l
0.12 0.47 l
0.13 0.47 l
0.12 0.47 l
0.12 0.47 l
0.13 0.46 l
0.12 0.46 l
0.13 0.46 l
0.12 0.46 l
0.13 0.45 l
0.12 0.45 l
0.12 0.44 l
0.13 0.44 l
0.12 0.44 l
78.60 133.71 lineto
0.12 0.43 l
0.13 0.43 l
0.12 0.43 l
0.12 0.43 l
0.13 0.42 l
0.12 0.42 l
0.13 0.41 l
0.12 0.42 l
0.13 0.41 l
0.12 0.41 l
0.12 0.40 l
0.13 0.41 l
0.12 0.40 l
0.13 0.39 l
0.12 0.40 l
0.13 0.39 l
0.12 0.39 l
0.13 0.39 l
0.12 0.38 l
0.12 0.38 l
0.13 0.38 l
0.12 0.38 l
0.13 0.37 l
0.12 0.38 l
0.13 0.37 l
0.12 0.36 l
0.12 0.37 l
0.13 0.36 l
0.12 0.36 l
0.13 0.35 l
0.12 0.36 l
0.13 0.35 l
0.12 0.35 l
0.12 0.35 l
0.13 0.34 l
0.12 0.35 l
0.13 0.34 l
0.12 0.34 l
0.13 0.33 l
0.12 0.33 l
0.12 0.34 l
0.13 0.33 l
0.12 0.32 l
0.13 0.33 l
0.12 0.32 l
0.13 0.32 l
0.12 0.32 l
0.12 0.31 l
0.13 0.32 l
0.12 0.31 l
0.13 0.31 l
0.12 0.31 l
0.13 0.30 l
0.12 0.30 l
0.12 0.31 l
0.13 0.30 l
0.12 0.29 l
0.13 0.30 l
0.12 0.29 l
0.13 0.29 l
0.12 0.29 l
0.13 0.29 l
0.12 0.28 l
0.12 0.29 l
0.13 0.28 l
0.12 0.28 l
0.13 0.27 l
0.12 0.28 l
0.13 0.27 l
0.12 0.28 l
0.12 0.27 l
0.13 0.26 l
0.12 0.27 l
0.13 0.26 l
0.12 0.27 l
0.13 0.26 l
0.12 0.26 l
0.12 0.25 l
0.13 0.26 l
0.12 0.25 l
0.13 0.25 l
0.12 0.25 l
0.13 0.25 l
0.12 0.25 l
0.12 0.24 l
0.13 0.25 l
0.12 0.24 l
0.13 0.24 l
0.12 0.24 l
0.13 0.23 l
0.12 0.24 l
0.12 0.23 l
0.13 0.24 l
0.12 0.23 l
0.13 0.22 l
0.12 0.23 l
0.13 0.23 l
0.12 0.22 l
0.12 0.22 l
91.03 165.33 lineto
0.12 0.22 l
0.13 0.22 l
0.12 0.22 l
0.13 0.21 l
0.12 0.21 l
0.13 0.22 l
0.12 0.21 l
0.12 0.20 l
0.13 0.21 l
0.12 0.21 l
0.13 0.20 l
0.12 0.20 l
0.13 0.21 l
0.12 0.20 l
0.12 0.19 l
0.13 0.20 l
0.12 0.20 l
0.13 0.19 l
0.12 0.19 l
0.13 0.20 l
0.12 0.19 l
0.12 0.19 l
0.13 0.18 l
0.12 0.19 l
0.13 0.18 l
0.12 0.19 l
0.13 0.18 l
0.12 0.18 l
0.12 0.18 l
0.13 0.18 l
0.12 0.18 l
0.13 0.17 l
0.12 0.18 l
0.13 0.17 l
0.12 0.17 l
0.12 0.17 l
0.13 0.17 l
0.12 0.17 l
0.13 0.17 l
0.12 0.17 l
0.13 0.16 l
0.12 0.16 l
0.12 0.17 l
0.13 0.16 l
0.12 0.16 l
0.13 0.16 l
0.12 0.16 l
0.13 0.15 l
0.12 0.16 l
0.12 0.15 l
0.13 0.16 l
0.12 0.15 l
0.13 0.15 l
0.12 0.15 l
0.13 0.15 l
0.12 0.15 l
0.13 0.14 l
0.12 0.15 l
0.12 0.14 l
0.13 0.15 l
0.12 0.14 l
0.13 0.14 l
0.12 0.14 l
0.13 0.14 l
0.12 0.14 l
0.12 0.14 l
0.13 0.13 l
0.12 0.14 l
0.13 0.13 l
0.12 0.14 l
0.13 0.13 l
0.12 0.13 l
0.12 0.13 l
0.13 0.13 l
0.12 0.13 l
0.13 0.13 l
0.12 0.12 l
0.13 0.13 l
0.12 0.12 l
0.12 0.13 l
0.13 0.12 l
0.12 0.12 l
0.13 0.12 l
0.12 0.13 l
0.13 0.11 l
0.12 0.12 l
0.12 0.12 l
0.13 0.12 l
0.12 0.11 l
0.13 0.12 l
0.12 0.11 l
0.13 0.11 l
0.12 0.12 l
0.12 0.11 l
0.13 0.11 l
0.12 0.11 l
0.13 0.11 l
0.12 0.11 l
0.13 0.10 l
103.46 181.03 lineto
0.13 0.10 l
0.12 0.11 l
0.12 0.10 l
0.13 0.11 l
0.12 0.10 l
0.13 0.10 l
0.12 0.10 l
0.13 0.10 l
0.12 0.10 l
0.12 0.10 l
0.13 0.10 l
0.12 0.09 l
0.13 0.10 l
0.12 0.10 l
0.13 0.09 l
0.12 0.09 l
0.12 0.10 l
0.13 0.09 l
0.12 0.09 l
0.13 0.09 l
0.12 0.09 l
0.13 0.09 l
0.12 0.09 l
0.12 0.09 l
0.13 0.09 l
0.12 0.09 l
0.13 0.08 l
0.12 0.09 l
0.13 0.08 l
0.12 0.09 l
0.12 0.08 l
0.13 0.08 l
0.12 0.08 l
0.13 0.09 l
0.12 0.08 l
0.13 0.08 l
0.12 0.08 l
0.12 0.07 l
0.13 0.08 l
0.12 0.08 l
0.13 0.08 l
0.12 0.07 l
0.13 0.08 l
0.12 0.07 l
0.13 0.08 l
0.12 0.07 l
0.12 0.08 l
0.13 0.07 l
0.12 0.07 l
0.13 0.07 l
0.12 0.07 l
0.13 0.07 l
0.12 0.07 l
0.12 0.07 l
0.13 0.07 l
0.12 0.07 l
0.13 0.07 l
0.12 0.06 l
0.13 0.07 l
0.12 0.07 l
0.12 0.06 l
0.13 0.07 l
0.12 0.06 l
0.13 0.06 l
0.12 0.07 l
0.13 0.06 l
0.12 0.06 l
0.12 0.06 l
0.13 0.06 l
0.12 0.06 l
0.13 0.06 l
0.12 0.06 l
0.13 0.06 l
0.12 0.06 l
0.12 0.06 l
0.13 0.05 l
0.12 0.06 l
0.13 0.06 l
0.12 0.05 l
0.13 0.06 l
0.12 0.05 l
0.12 0.06 l
0.13 0.05 l
0.12 0.05 l
0.13 0.06 l
0.12 0.05 l
0.13 0.05 l
0.12 0.05 l
0.13 0.05 l
0.12 0.05 l
0.12 0.05 l
0.13 0.05 l
0.12 0.05 l
0.13 0.05 l
0.12 0.05 l
0.13 0.05 l
0.12 0.05 l
0.12 0.04 l
0.13 0.05 l
115.89 188.30 lineto
0.13 0.05 l
0.12 0.05 l
0.13 0.04 l
0.12 0.04 l
0.12 0.05 l
0.13 0.04 l
0.12 0.05 l
0.13 0.04 l
0.12 0.04 l
0.13 0.04 l
0.12 0.04 l
0.12 0.04 l
0.13 0.05 l
0.12 0.04 l
0.13 0.04 l
0.12 0.04 l
0.13 0.03 l
0.12 0.04 l
0.12 0.04 l
0.13 0.04 l
0.12 0.04 l
0.13 0.03 l
0.12 0.04 l
0.13 0.04 l
0.12 0.03 l
0.12 0.04 l
0.13 0.03 l
0.12 0.04 l
0.13 0.03 l
0.12 0.04 l
0.13 0.03 l
0.12 0.04 l
0.12 0.03 l
0.13 0.03 l
0.12 0.03 l
0.13 0.04 l
0.12 0.03 l
0.13 0.03 l
0.12 0.03 l
0.13 0.03 l
0.12 0.03 l
0.12 0.03 l
0.13 0.03 l
0.12 0.03 l
0.13 0.03 l
0.12 0.03 l
0.13 0.03 l
0.12 0.03 l
0.12 0.03 l
0.13 0.02 l
0.12 0.03 l
0.13 0.03 l
0.12 0.02 l
0.13 0.03 l
0.12 0.03 l
0.12 0.02 l
0.13 0.03 l
0.12 0.02 l
0.13 0.03 l
0.12 0.02 l
0.13 0.03 l
0.12 0.02 l
0.12 0.02 l
0.13 0.03 l
0.12 0.02 l
0.13 0.02 l
0.12 0.03 l
0.13 0.02 l
0.12 0.02 l
0.12 0.02 l
0.13 0.02 l
0.12 0.03 l
0.13 0.02 l
0.12 0.02 l
0.13 0.02 l
0.12 0.02 l
0.12 0.02 l
0.13 0.02 l
0.12 0.02 l
0.13 0.02 l
0.12 0.01 l
0.13 0.02 l
0.12 0.02 l
0.13 0.02 l
0.12 0.02 l
0.12 0.01 l
0.13 0.02 l
0.12 0.02 l
0.13 0.02 l
0.12 0.01 l
0.13 0.02 l
0.12 0.02 l
0.12 0.01 l
0.13 0.02 l
0.12 0.01 l
0.13 0.02 l
0.12 0.01 l
0.13 0.02 l
0.12 0.01 l
128.32 191.14 lineto
0.13 0.01 l
0.12 0.01 l
0.13 0.02 l
0.12 0.01 l
0.13 0.01 l
0.12 0.02 l
0.12 0.01 l
0.13 0.01 l
0.12 0.01 l
0.13 0.02 l
0.12 0.01 l
0.13 0.01 l
0.12 0.01 l
0.12 0.01 l
0.13 0.01 l
0.12 0.01 l
0.13 0.01 l
0.12 0.01 l
0.13 0.01 l
0.12 0.01 l
0.12 0.01 l
0.13 0.01 l
0.12 0.01 l
0.13 0.01 l
0.12 0.01 l
0.13 0.01 l
0.12 0.01 l
0.13 0.01 l
0.12 0.01 l
0.12 0 l
0.13 0.01 l
0.12 0.01 l
0.13 0.01 l
0.12 0 l
0.13 0.01 l
0.12 0.01 l
0.12 0.01 l
0.13 0 l
0.12 0.01 l
0.13 0 l
0.12 0.01 l
0.13 0.01 l
0.12 0 l
0.12 0.01 l
0.13 0 l
0.12 0.01 l
0.13 0 l
0.12 0.01 l
0.13 0 l
0.12 0.01 l
0.12 0 l
0.13 0.01 l
0.12 0 l
0.13 0 l
0.12 0.01 l
0.13 0 l
0.12 0.01 l
0.12 0 l
0.13 0 l
0.12 0 l
0.13 0.01 l
0.12 0 l
0.13 0 l
0.12 0 l
0.12 0.01 l
0.13 0 l
0.12 0 l
0.13 0 l
0.12 0 l
0.13 0.01 l
0.12 0 l
0.13 0 l
0.12 0 l
0.12 0 l
0.13 0 l
0.12 0 l
0.13 0 l
0.12 0 l
0.13 0 l
0.12 0 l
0.12 0 l
0.13 0 l
0.12 0 l
0.13 0 l
0.12 0 l
0.13 0 l
0.12 0 l
0.12 0 l
0.13 0 l
0.12 0 l
0.13 -0.01 l
0.12 0 l
0.13 0 l
0.12 0 l
0.12 0 l
0.13 0 l
0.12 -0.01 l
0.13 0 l
0.12 0 l
140.76 191.63 lineto
0.12 -0.01 l
0.12 0 l
0.13 0 l
0.12 0 l
0.13 -0.01 l
0.12 0 l
0.13 0 l
0.12 -0.01 l
0.12 0 l
0.13 0 l
0.12 -0.01 l
0.13 0 l
0.12 -0.01 l
0.13 0 l
0.12 0 l
0.12 -0.01 l
0.13 0 l
0.12 -0.01 l
0.13 0 l
0.12 -0.01 l
0.13 0 l
0.12 -0.01 l
0.13 0 l
0.12 -0.01 l
0.12 0 l
0.13 -0.01 l
0.12 0 l
0.13 -0.01 l
0.12 0 l
0.13 -0.01 l
0.12 0 l
0.12 -0.01 l
0.13 -0.01 l
0.12 0 l
0.13 -0.01 l
0.12 0 l
0.13 -0.01 l
0.12 -0.01 l
0.12 0 l
0.13 -0.01 l
0.12 -0.01 l
0.13 0 l
0.12 -0.01 l
0.13 -0.01 l
0.12 -0.01 l
0.12 0 l
0.13 -0.01 l
0.12 -0.01 l
0.13 0 l
0.12 -0.01 l
0.13 -0.01 l
0.12 -0.01 l
0.12 -0.01 l
0.13 0 l
0.12 -0.01 l
0.13 -0.01 l
0.12 -0.01 l
0.13 -0.01 l
0.12 0 l
0.12 -0.01 l
0.13 -0.01 l
0.12 -0.01 l
0.13 -0.01 l
0.12 -0.01 l
0.13 0 l
0.12 -0.01 l
0.13 -0.01 l
0.12 -0.01 l
0.12 -0.01 l
0.13 -0.01 l
0.12 -0.01 l
0.13 -0.01 l
0.12 -0.01 l
0.13 -0.01 l
0.12 -0.01 l
0.12 -0.01 l
0.13 -0.01 l
0.12 -0.01 l
0.13 -0.01 l
0.12 0 l
0.13 -0.01 l
0.12 -0.01 l
0.12 -0.01 l
0.13 -0.02 l
0.12 -0.01 l
0.13 -0.01 l
0.12 -0.01 l
0.13 -0.01 l
0.12 -0.01 l
0.12 -0.01 l
0.13 -0.01 l
0.12 -0.01 l
0.13 -0.01 l
0.12 -0.01 l
0.13 -0.01 l
0.12 -0.01 l
0.12 -0.01 l
0.13 -0.01 l
0.12 -0.02 l
153.19 190.89 lineto
0.12 -0.01 l
0.13 -0.01 l
0.12 -0.01 l
0.12 -0.01 l
0.13 -0.01 l
0.12 -0.01 l
0.13 -0.02 l
0.12 -0.01 l
0.13 -0.01 l
0.12 -0.01 l
0.13 -0.01 l
0.12 -0.01 l
0.12 -0.02 l
0.13 -0.01 l
0.12 -0.01 l
0.13 -0.01 l
0.12 -0.02 l
0.13 -0.01 l
0.12 -0.01 l
0.12 -0.01 l
0.13 -0.01 l
0.12 -0.02 l
0.13 -0.01 l
0.12 -0.01 l
0.13 -0.01 l
0.12 -0.02 l
0.12 -0.01 l
0.13 -0.01 l
0.12 -0.02 l
0.13 -0.01 l
0.12 -0.01 l
0.13 -0.01 l
0.12 -0.02 l
0.12 -0.01 l
0.13 -0.01 l
0.12 -0.02 l
0.13 -0.01 l
0.12 -0.01 l
0.13 -0.02 l
0.12 -0.01 l
0.12 -0.01 l
0.13 -0.02 l
0.12 -0.01 l
0.13 -0.01 l
0.12 -0.02 l
0.13 -0.01 l
0.12 -0.01 l
0.12 -0.02 l
0.13 -0.01 l
0.12 -0.01 l
0.13 -0.02 l
0.12 -0.01 l
0.13 -0.02 l
0.12 -0.01 l
0.13 -0.01 l
0.12 -0.02 l
0.12 -0.01 l
0.13 -0.02 l
0.12 -0.01 l
0.13 -0.02 l
0.12 -0.01 l
0.13 -0.01 l
0.12 -0.02 l
0.12 -0.01 l
0.13 -0.02 l
0.12 -0.01 l
0.13 -0.02 l
0.12 -0.01 l
0.13 -0.01 l
0.12 -0.02 l
0.12 -0.01 l
0.13 -0.02 l
0.12 -0.01 l
0.13 -0.02 l
0.12 -0.01 l
0.13 -0.02 l
0.12 -0.01 l
0.12 -0.02 l
0.13 -0.01 l
0.12 -0.02 l
0.13 -0.01 l
0.12 -0.02 l
0.13 -0.01 l
0.12 -0.02 l
0.12 -0.01 l
0.13 -0.02 l
0.12 -0.01 l
0.13 -0.02 l
0.12 -0.01 l
0.13 -0.02 l
0.12 -0.01 l
0.12 -0.02 l
0.13 -0.02 l
0.12 -0.01 l
0.13 -0.02 l
0.12 -0.01 l
0.13 -0.02 l
0.12 -0.01 l
0.12 -0.02 l
currentpoint o m
165.62 189.53 lineto
0.12 -0.02 l
0.13 -0.02 l
0.12 -0.01 l
0.13 -0.02 l
0.12 -0.01 l
0.13 -0.02 l
0.12 -0.01 l
0.12 -0.02 l
0.13 -0.02 l
0.12 -0.01 l
0.13 -0.02 l
0.12 -0.01 l
0.13 -0.02 l
0.12 -0.02 l
0.12 -0.01 l
0.13 -0.02 l
0.12 -0.01 l
0.13 -0.02 l
0.12 -0.02 l
0.13 -0.01 l
0.12 -0.02 l
0.12 -0.02 l
0.13 -0.01 l
0.12 -0.02 l
0.13 -0.01 l
0.12 -0.02 l
0.13 -0.02 l
0.12 -0.01 l
0.12 -0.02 l
0.13 -0.02 l
0.12 -0.01 l
0.13 -0.02 l
0.12 -0.02 l
0.13 -0.01 l
0.12 -0.02 l
0.12 -0.02 l
0.13 -0.01 l
0.12 -0.02 l
0.13 -0.02 l
0.12 -0.01 l
0.13 -0.02 l
0.12 -0.02 l
0.12 -0.01 l
0.13 -0.02 l
0.12 -0.02 l
0.13 -0.01 l
0.12 -0.02 l
0.13 -0.02 l
0.12 -0.02 l
0.13 -0.01 l
0.12 -0.02 l
0.12 -0.02 l
0.13 -0.01 l
0.12 -0.02 l
0.13 -0.02 l
0.12 -0.01 l
0.13 -0.02 l
0.12 -0.02 l
0.12 -0.02 l
0.13 -0.01 l
0.12 -0.02 l
0.13 -0.02 l
0.12 -0.01 l
0.13 -0.02 l
0.12 -0.02 l
0.12 -0.02 l
0.13 -0.01 l
0.12 -0.02 l
0.13 -0.02 l
0.12 -0.02 l
0.13 -0.01 l
0.12 -0.02 l
0.12 -0.02 l
0.13 -0.02 l
0.12 -0.01 l
0.13 -0.02 l
0.12 -0.02 l
0.13 -0.02 l
0.12 -0.01 l
0.12 -0.02 l
0.13 -0.02 l
0.12 -0.02 l
0.13 -0.01 l
0.12 -0.02 l
0.13 -0.02 l
0.12 -0.02 l
0.12 -0.01 l
0.13 -0.02 l
0.12 -0.02 l
0.13 -0.02 l
0.12 -0.01 l
0.13 -0.02 l
0.12 -0.02 l
0.13 -0.02 l
0.12 -0.02 l
0.12 -0.01 l
0.13 -0.02 l
0.12 -0.02 l
0.13 -0.02 l
178.05 187.84 lineto
0.13 -0.02 l
0.12 -0.02 l
0.12 -0.02 l
0.13 -0.02 l
0.12 -0.01 l
0.13 -0.02 l
0.12 -0.02 l
0.13 -0.02 l
0.12 -0.02 l
0.12 -0.01 l
0.13 -0.02 l
0.12 -0.02 l
0.13 -0.02 l
0.12 -0.02 l
0.13 -0.01 l
0.12 -0.02 l
0.12 -0.02 l
0.13 -0.02 l
0.12 -0.02 l
0.13 -0.02 l
0.12 -0.01 l
0.13 -0.02 l
0.12 -0.02 l
0.12 -0.02 l
0.13 -0.02 l
0.12 -0.01 l
0.13 -0.02 l
0.12 -0.02 l
0.13 -0.02 l
0.12 -0.02 l
0.12 -0.02 l
0.13 -0.01 l
0.12 -0.02 l
0.13 -0.02 l
0.12 -0.02 l
0.13 -0.02 l
0.12 -0.02 l
0.12 -0.01 l
0.13 -0.02 l
0.12 -0.02 l
0.13 -0.02 l
0.12 -0.02 l
0.13 -0.02 l
0.12 -0.02 l
0.13 -0.01 l
0.12 -0.02 l
0.12 -0.02 l
0.13 -0.02 l
0.12 -0.02 l
0.13 -0.02 l
0.12 -0.01 l
0.13 -0.02 l
0.12 -0.02 l
0.12 -0.02 l
0.13 -0.02 l
0.12 -0.02 l
0.13 -0.02 l
0.12 -0.01 l
0.13 -0.02 l
0.12 -0.02 l
0.12 -0.02 l
0.13 -0.02 l
0.12 -0.02 l
0.13 -0.02 l
0.12 -0.01 l
0.13 -0.02 l
0.12 -0.02 l
0.12 -0.02 l
0.13 -0.02 l
0.12 -0.02 l
0.13 -0.02 l
0.12 -0.02 l
0.13 -0.01 l
0.12 -0.02 l
0.12 -0.02 l
0.13 -0.02 l
0.12 -0.02 l
0.13 -0.02 l
0.12 -0.02 l
0.13 -0.02 l
0.12 -0.01 l
0.12 -0.02 l
0.13 -0.02 l
0.12 -0.02 l
0.13 -0.02 l
0.12 -0.02 l
0.13 -0.02 l
0.12 -0.02 l
0.13 -0.02 l
0.12 -0.01 l
0.12 -0.02 l
0.13 -0.02 l
0.12 -0.02 l
0.13 -0.02 l
0.12 -0.02 l
0.13 -0.02 l
0.12 -0.02 l
0.12 -0.02 l
0.13 -0.01 l
190.48 185.99 lineto
0.13 -0.02 l
0.12 -0.02 l
0.13 -0.02 l
0.12 -0.02 l
0.12 -0.02 l
0.13 -0.02 l
0.12 -0.02 l
0.13 -0.01 l
0.12 -0.02 l
0.13 -0.02 l
0.12 -0.02 l
0.12 -0.02 l
0.13 -0.02 l
0.12 -0.02 l
0.13 -0.02 l
0.12 -0.02 l
0.13 -0.02 l
0.12 -0.02 l
0.12 -0.01 l
0.13 -0.02 l
0.12 -0.02 l
0.13 -0.02 l
0.12 -0.02 l
0.13 -0.02 l
0.12 -0.02 l
0.12 -0.02 l
0.13 -0.02 l
0.12 -0.02 l
0.13 -0.01 l
0.12 -0.02 l
0.13 -0.02 l
0.12 -0.02 l
0.13 -0.02 l
0.12 -0.02 l
0.12 -0.02 l
0.13 -0.02 l
0.12 -0.02 l
0.13 -0.02 l
0.12 -0.02 l
0.13 -0.02 l
0.12 -0.01 l
0.12 -0.02 l
0.13 -0.02 l
0.12 -0.02 l
0.13 -0.02 l
0.12 -0.02 l
0.13 -0.02 l
0.12 -0.02 l
0.12 -0.02 l
0.13 -0.02 l
0.12 -0.02 l
0.13 -0.02 l
0.12 -0.01 l
0.13 -0.02 l
0.12 -0.02 l
0.12 -0.02 l
0.13 -0.02 l
0.12 -0.02 l
0.13 -0.02 l
0.12 -0.02 l
0.13 -0.02 l
0.12 -0.02 l
0.12 -0.02 l
0.13 -0.02 l
0.12 -0.02 l
0.13 -0.02 l
0.12 -0.01 l
0.13 -0.02 l
0.12 -0.02 l
0.12 -0.02 l
0.13 -0.02 l
0.12 -0.02 l
0.13 -0.02 l
0.12 -0.02 l
0.13 -0.02 l
0.12 -0.02 l
0.13 -0.02 l
0.12 -0.02 l
0.12 -0.02 l
0.13 -0.02 l
0.12 -0.01 l
0.13 -0.02 l
0.12 -0.02 l
0.13 -0.02 l
0.12 -0.02 l
0.12 -0.02 l
0.13 -0.02 l
0.12 -0.02 l
0.13 -0.02 l
0.12 -0.02 l
0.13 -0.02 l
0.12 -0.02 l
0.12 -0.02 l
0.13 -0.02 l
0.12 -0.02 l
0.13 -0.01 l
0.12 -0.02 l
0.13 -0.02 l
0.12 -0.02 l
202.91 184.07 lineto
0.13 -0.02 l
0.12 -0.02 l
0.13 -0.02 l
0.12 -0.02 l
0.13 -0.02 l
0.12 -0.02 l
0.12 -0.02 l
0.13 -0.02 l
0.12 -0.02 l
0.13 -0.02 l
0.12 -0.01 l
0.13 -0.02 l
0.12 -0.02 l
0.12 -0.02 l
0.13 -0.02 l
0.12 -0.02 l
0.13 -0.02 l
0.12 -0.02 l
0.13 -0.02 l
0.12 -0.02 l
0.12 -0.02 l
0.13 -0.02 l
0.12 -0.02 l
0.13 -0.02 l
0.12 -0.02 l
0.13 -0.02 l
0.12 -0.02 l
0.13 -0.01 l
0.12 -0.02 l
0.12 -0.02 l
0.13 -0.02 l
0.12 -0.02 l
0.13 -0.02 l
0.12 -0.02 l
0.13 -0.02 l
0.12 -0.02 l
0.12 -0.02 l
0.13 -0.02 l
0.12 -0.02 l
0.13 -0.02 l
0.12 -0.02 l
0.13 -0.02 l
0.12 -0.02 l
0.12 -0.02 l
0.13 -0.02 l
0.12 -0.01 l
0.13 -0.02 l
0.12 -0.02 l
0.13 -0.02 l
0.12 -0.02 l
0.12 -0.02 l
0.13 -0.02 l
0.12 -0.02 l
0.13 -0.02 l
0.12 -0.02 l
0.13 -0.02 l
0.12 -0.02 l
0.12 -0.02 l
0.13 -0.02 l
0.12 -0.02 l
0.13 -0.02 l
0.12 -0.02 l
0.13 -0.01 l
0.12 -0.02 l
0.12 -0.02 l
0.13 -0.02 l
0.12 -0.02 l
0.13 -0.02 l
0.12 -0.02 l
0.13 -0.02 l
0.12 -0.02 l
0.13 -0.02 l
0.12 -0.02 l
0.12 -0.02 l
0.13 -0.02 l
0.12 -0.02 l
0.13 -0.02 l
0.12 -0.02 l
0.13 -0.02 l
0.12 -0.02 l
0.12 -0.02 l
0.13 -0.01 l
0.12 -0.02 l
0.13 -0.02 l
0.12 -0.02 l
0.13 -0.02 l
0.12 -0.02 l
0.12 -0.02 l
0.13 -0.02 l
0.12 -0.02 l
0.13 -0.02 l
0.12 -0.02 l
0.13 -0.02 l
0.12 -0.02 l
0.12 -0.02 l
0.13 -0.02 l
0.12 -0.02 l
0.13 -0.02 l
0.12 -0.02 l
215.35 182.13 lineto
0.12 -0.02 l
0.12 -0.02 l
0.13 -0.02 l
0.12 -0.02 l
0.13 -0.02 l
0.12 -0.02 l
0.13 -0.02 l
0.12 -0.02 l
0.12 -0.02 l
0.13 -0.02 l
0.12 -0.02 l
0.13 -0.02 l
0.12 -0.02 l
0.13 -0.02 l
0.12 -0.02 l
0.13 -0.02 l
0.12 -0.02 l
0.12 -0.02 l
0.13 -0.01 l
0.12 -0.02 l
0.13 -0.02 l
0.12 -0.02 l
0.13 -0.02 l
0.12 -0.02 l
0.12 -0.02 l
0.13 -0.02 l
0.12 -0.02 l
0.13 -0.02 l
0.12 -0.02 l
0.13 -0.02 l
0.12 -0.02 l
0.12 -0.02 l
0.13 -0.02 l
0.12 -0.02 l
0.13 -0.02 l
0.12 -0.02 l
0.13 -0.01 l
0.12 -0.02 l
0.12 -0.02 l
0.13 -0.02 l
0.12 -0.02 l
0.13 -0.02 l
0.12 -0.02 l
0.13 -0.02 l
0.12 -0.02 l
0.12 -0.02 l
0.13 -0.02 l
0.12 -0.02 l
0.13 -0.02 l
0.12 -0.02 l
0.13 -0.02 l
0.12 -0.02 l
0.12 -0.02 l
0.13 -0.02 l
0.12 -0.01 l
0.13 -0.02 l
0.12 -0.02 l
0.13 -0.02 l
0.12 -0.02 l
0.13 -0.02 l
0.12 -0.02 l
0.12 -0.02 l
0.13 -0.02 l
0.12 -0.02 l
0.13 -0.02 l
0.12 -0.02 l
0.13 -0.02 l
0.12 -0.02 l
0.12 -0.02 l
0.13 -0.02 l
0.12 -0.02 l
0.13 -0.01 l
0.12 -0.02 l
0.13 -0.02 l
0.12 -0.02 l
0.12 -0.02 l
0.13 -0.02 l
0.12 -0.02 l
0.13 -0.02 l
0.12 -0.02 l
0.13 -0.02 l
0.12 -0.02 l
0.12 -0.02 l
0.13 -0.02 l
0.12 -0.02 l
0.13 -0.02 l
0.12 -0.02 l
0.13 -0.02 l
0.12 -0.01 l
0.12 -0.02 l
0.13 -0.02 l
0.12 -0.02 l
0.13 -0.02 l
0.12 -0.02 l
0.13 -0.02 l
0.12 -0.02 l
0.12 -0.02 l
0.13 -0.02 l
0.12 -0.02 l
o
0.5294 0.8078 0.9804 srgb
np
41.30 38.47 m
0.13 0 l
0.12 0 l
0.13 0 l
0.12 0 l
0.12 0 l
0.13 0 l
0.12 0 l
0.13 0 l
0.12 0 l
0.13 0 l
0.12 0 l
0.12 0 l
0.13 0 l
0.12 0 l
0.13 0 l
0.12 0 l
0.13 0 l
0.12 0 l
0.12 0 l
0.13 0 l
0.12 0 l
0.13 0 l
0.12 0 l
0.13 0 l
0.12 0 l
0.12 0 l
0.13 0 l
0.12 0 l
0.13 0 l
0.12 0 l
0.13 0 l
0.12 0 l
0.12 0 l
0.13 0 l
0.12 0 l
0.13 0 l
0.12 0 l
0.13 0 l
0.12 0 l
0.13 0 l
0.12 0 l
0.12 0 l
0.13 0 l
0.12 0 l
0.13 0 l
0.12 0 l
0.13 0 l
0.12 0 l
0.12 0 l
0.13 0 l
0.12 0 l
0.13 0 l
0.12 0 l
0.13 0 l
0.12 0 l
0.12 0 l
0.13 0 l
0.12 0 l
0.13 0 l
0.12 0 l
0.13 0 l
0.12 0 l
0.12 0 l
0.13 0 l
0.12 0 l
0.13 0 l
0.12 0 l
0.13 0 l
0.12 0 l
0.12 0 l
0.13 0 l
0.12 0 l
0.13 0 l
0.12 0 l
0.13 0 l
0.12 0 l
0.12 0 l
0.13 0 l
0.12 0 l
0.13 0 l
0.12 0 l
0.13 0 l
0.12 0 l
0.13 0 l
0.12 0 l
0.12 0 l
0.13 0 l
0.12 0 l
0.13 0 l
0.12 0 l
0.13 0 l
0.12 0 l
0.12 0 l
0.13 0 l
0.12 0 l
0.13 0 l
0.12 0 l
0.13 0 l
0.12 0 l
53.73 38.47 lineto
0.13 0 l
0.12 0 l
0.13 0 l
0.12 0 l
0.13 0 l
0.12 0 l
0.12 0 l
0.13 0 l
0.12 0 l
0.13 0 l
0.12 0 l
0.13 0 l
0.12 0 l
0.12 0 l
0.13 0 l
0.12 -0.03 l
0.13 0 l
0.12 0.01 l
0.13 0 l
0.12 0 l
0.12 0 l
0.13 0 l
0.12 0 l
0.13 0 l
0.12 -0.01 l
0.13 0 l
0.12 0 l
0.12 0.01 l
0.13 0 l
0.12 0 l
0.13 0 l
0.12 0 l
0.13 0 l
0.12 0.01 l
0.13 0.01 l
0.12 0.01 l
0.12 0.01 l
0.13 0.02 l
0.12 0.03 l
0.13 0.03 l
0.12 0.04 l
0.13 0.04 l
0.12 0.06 l
0.12 0.06 l
0.13 0.07 l
0.12 0.08 l
0.13 0.09 l
0.12 0.10 l
0.13 0.10 l
0.12 0.12 l
0.12 0.13 l
0.13 0.14 l
0.12 0.16 l
0.13 0.16 l
0.12 0.17 l
0.13 0.18 l
0.12 0.19 l
0.12 0.20 l
0.13 0.22 l
0.12 0.22 l
0.13 0.23 l
0.12 0.24 l
0.13 0.25 l
0.12 0.26 l
0.12 0.26 l
0.13 0.28 l
0.12 0.28 l
0.13 0.29 l
0.12 0.29 l
0.13 0.31 l
0.12 0.31 l
0.12 0.31 l
0.13 0.33 l
0.12 0.32 l
0.13 0.34 l
0.12 0.34 l
0.13 0.34 l
0.12 0.35 l
0.13 0.35 l
0.12 0.36 l
0.12 0.36 l
0.13 0.37 l
0.12 0.37 l
0.13 0.37 l
0.12 0.38 l
0.13 0.37 l
0.12 0.39 l
0.12 0.38 l
0.13 0.39 l
0.12 0.38 l
0.13 0.40 l
0.12 0.39 l
0.13 0.39 l
0.12 0.40 l
0.12 0.40 l
0.13 0.40 l
0.12 0.40 l
0.13 0.40 l
0.12 0.40 l
66.17 54.88 lineto
0.12 0.41 l
0.12 0.40 l
0.13 0.41 l
0.12 0.41 l
0.13 0.40 l
0.12 0.41 l
0.13 0.41 l
0.12 0.40 l
0.12 0.41 l
0.13 0.41 l
0.12 0.41 l
0.13 0.40 l
0.12 0.41 l
0.13 0.41 l
0.12 0.41 l
0.12 0.40 l
0.13 0.41 l
0.12 0.40 l
0.13 0.41 l
0.12 0.41 l
0.13 0.40 l
0.12 0.40 l
0.13 0.41 l
0.12 0.40 l
0.12 0.40 l
0.13 0.40 l
0.12 0.40 l
0.13 0.40 l
0.12 0.40 l
0.13 0.40 l
0.12 0.40 l
0.12 0.39 l
0.13 0.40 l
0.12 0.39 l
0.13 0.40 l
0.12 0.39 l
0.13 0.39 l
0.12 0.39 l
0.12 0.39 l
0.13 0.39 l
0.12 0.39 l
0.13 0.39 l
0.12 0.38 l
0.13 0.39 l
0.12 0.38 l
0.12 0.38 l
0.13 0.39 l
0.12 0.38 l
0.13 0.38 l
0.12 0.38 l
0.13 0.37 l
0.12 0.38 l
0.12 0.37 l
0.13 0.38 l
0.12 0.37 l
0.13 0.37 l
0.12 0.37 l
0.13 0.37 l
0.12 0.37 l
0.12 0.37 l
0.13 0.37 l
0.12 0.36 l
0.13 0.37 l
0.12 0.36 l
0.13 0.36 l
0.12 0.36 l
0.13 0.36 l
0.12 0.36 l
0.12 0.36 l
0.13 0.35 l
0.12 0.36 l
0.13 0.35 l
0.12 0.35 l
0.13 0.35 l
0.12 0.36 l
0.12 0.34 l
0.13 0.35 l
0.12 0.35 l
0.13 0.35 l
0.12 0.34 l
0.13 0.34 l
0.12 0.35 l
0.12 0.34 l
0.13 0.34 l
0.12 0.34 l
0.13 0.33 l
0.12 0.34 l
0.13 0.34 l
0.12 0.33 l
0.12 0.33 l
0.13 0.34 l
0.12 0.33 l
0.13 0.33 l
0.12 0.33 l
0.13 0.33 l
0.12 0.32 l
0.12 0.33 l
0.13 0.32 l
0.12 0.33 l
78.60 92.29 lineto
0.12 0.32 l
0.13 0.32 l
0.12 0.32 l
0.12 0.32 l
0.13 0.31 l
0.12 0.32 l
0.13 0.31 l
0.12 0.32 l
0.13 0.31 l
0.12 0.31 l
0.12 0.31 l
0.13 0.31 l
0.12 0.31 l
0.13 0.31 l
0.12 0.31 l
0.13 0.30 l
0.12 0.30 l
0.13 0.31 l
0.12 0.30 l
0.12 0.30 l
0.13 0.30 l
0.12 0.30 l
0.13 0.30 l
0.12 0.30 l
0.13 0.29 l
0.12 0.30 l
0.12 0.29 l
0.13 0.29 l
0.12 0.30 l
0.13 0.29 l
0.12 0.29 l
0.13 0.29 l
0.12 0.28 l
0.12 0.29 l
0.13 0.29 l
0.12 0.28 l
0.13 0.29 l
0.12 0.28 l
0.13 0.28 l
0.12 0.28 l
0.12 0.28 l
0.13 0.28 l
0.12 0.28 l
0.13 0.28 l
0.12 0.27 l
0.13 0.28 l
0.12 0.27 l
0.12 0.28 l
0.13 0.27 l
0.12 0.27 l
0.13 0.27 l
0.12 0.27 l
0.13 0.27 l
0.12 0.27 l
0.12 0.26 l
0.13 0.27 l
0.12 0.27 l
0.13 0.26 l
0.12 0.26 l
0.13 0.27 l
0.12 0.26 l
0.13 0.26 l
0.12 0.26 l
0.12 0.26 l
0.13 0.25 l
0.12 0.26 l
0.13 0.26 l
0.12 0.25 l
0.13 0.26 l
0.12 0.25 l
0.12 0.25 l
0.13 0.25 l
0.12 0.25 l
0.13 0.25 l
0.12 0.25 l
0.13 0.25 l
0.12 0.25 l
0.12 0.24 l
0.13 0.25 l
0.12 0.24 l
0.13 0.25 l
0.12 0.24 l
0.13 0.24 l
0.12 0.24 l
0.12 0.24 l
0.13 0.24 l
0.12 0.24 l
0.13 0.24 l
0.12 0.24 l
0.13 0.23 l
0.12 0.24 l
0.12 0.23 l
0.13 0.24 l
0.12 0.23 l
0.13 0.23 l
0.12 0.23 l
0.13 0.23 l
0.12 0.23 l
0.12 0.23 l
91.03 119.52 lineto
0.12 0.23 l
0.13 0.23 l
0.12 0.22 l
0.13 0.23 l
0.12 0.22 l
0.13 0.22 l
0.12 0.23 l
0.12 0.22 l
0.13 0.22 l
0.12 0.22 l
0.13 0.22 l
0.12 0.22 l
0.13 0.21 l
0.12 0.22 l
0.12 0.22 l
0.13 0.21 l
0.12 0.22 l
0.13 0.21 l
0.12 0.22 l
0.13 0.21 l
0.12 0.21 l
0.12 0.21 l
0.13 0.21 l
0.12 0.21 l
0.13 0.21 l
0.12 0.21 l
0.13 0.21 l
0.12 0.20 l
0.12 0.21 l
0.13 0.20 l
0.12 0.21 l
0.13 0.20 l
0.12 0.20 l
0.13 0.21 l
0.12 0.20 l
0.12 0.20 l
0.13 0.20 l
0.12 0.20 l
0.13 0.20 l
0.12 0.19 l
0.13 0.20 l
0.12 0.20 l
0.12 0.19 l
0.13 0.20 l
0.12 0.19 l
0.13 0.20 l
0.12 0.19 l
0.13 0.19 l
0.12 0.20 l
0.12 0.19 l
0.13 0.19 l
0.12 0.19 l
0.13 0.19 l
0.12 0.18 l
0.13 0.19 l
0.12 0.19 l
0.13 0.18 l
0.12 0.19 l
0.12 0.19 l
0.13 0.18 l
0.12 0.18 l
0.13 0.19 l
0.12 0.18 l
0.13 0.18 l
0.12 0.18 l
0.12 0.18 l
0.13 0.18 l
0.12 0.18 l
0.13 0.18 l
0.12 0.18 l
0.13 0.17 l
0.12 0.18 l
0.12 0.18 l
0.13 0.17 l
0.12 0.18 l
0.13 0.17 l
0.12 0.17 l
0.13 0.18 l
0.12 0.17 l
0.12 0.17 l
0.13 0.17 l
0.12 0.17 l
0.13 0.17 l
0.12 0.17 l
0.13 0.17 l
0.12 0.17 l
0.12 0.16 l
0.13 0.17 l
0.12 0.17 l
0.13 0.16 l
0.12 0.17 l
0.13 0.16 l
0.12 0.17 l
0.12 0.16 l
0.13 0.16 l
0.12 0.16 l
0.13 0.16 l
0.12 0.16 l
0.13 0.16 l
103.46 138.68 lineto
0.13 0.16 l
0.12 0.16 l
0.12 0.16 l
0.13 0.16 l
0.12 0.15 l
0.13 0.16 l
0.12 0.16 l
0.13 0.15 l
0.12 0.15 l
0.12 0.16 l
0.13 0.15 l
0.12 0.15 l
0.13 0.16 l
0.12 0.15 l
0.13 0.15 l
0.12 0.15 l
0.12 0.15 l
0.13 0.15 l
0.12 0.15 l
0.13 0.15 l
0.12 0.14 l
0.13 0.15 l
0.12 0.15 l
0.12 0.14 l
0.13 0.15 l
0.12 0.15 l
0.13 0.14 l
0.12 0.14 l
0.13 0.15 l
0.12 0.14 l
0.12 0.14 l
0.13 0.14 l
0.12 0.15 l
0.13 0.14 l
0.12 0.14 l
0.13 0.14 l
0.12 0.14 l
0.12 0.14 l
0.13 0.13 l
0.12 0.14 l
0.13 0.14 l
0.12 0.14 l
0.13 0.13 l
0.12 0.14 l
0.13 0.13 l
0.12 0.14 l
0.12 0.13 l
0.13 0.14 l
0.12 0.13 l
0.13 0.13 l
0.12 0.13 l
0.13 0.14 l
0.12 0.13 l
0.12 0.13 l
0.13 0.13 l
0.12 0.13 l
0.13 0.13 l
0.12 0.13 l
0.13 0.12 l
0.12 0.13 l
0.12 0.13 l
0.13 0.13 l
0.12 0.12 l
0.13 0.13 l
0.12 0.12 l
0.13 0.13 l
0.12 0.12 l
0.12 0.13 l
0.13 0.12 l
0.12 0.13 l
0.13 0.12 l
0.12 0.12 l
0.13 0.12 l
0.12 0.12 l
0.12 0.12 l
0.13 0.13 l
0.12 0.12 l
0.13 0.12 l
0.12 0.11 l
0.13 0.12 l
0.12 0.12 l
0.12 0.12 l
0.13 0.12 l
0.12 0.11 l
0.13 0.12 l
0.12 0.12 l
0.13 0.11 l
0.12 0.12 l
0.13 0.11 l
0.12 0.12 l
0.12 0.11 l
0.13 0.11 l
0.12 0.12 l
0.13 0.11 l
0.12 0.11 l
0.13 0.11 l
0.12 0.11 l
0.12 0.11 l
0.13 0.11 l
115.89 152.00 lineto
0.13 0.11 l
0.12 0.11 l
0.13 0.11 l
0.12 0.11 l
0.12 0.11 l
0.13 0.11 l
0.12 0.10 l
0.13 0.11 l
0.12 0.11 l
0.13 0.10 l
0.12 0.11 l
0.12 0.10 l
0.13 0.11 l
0.12 0.10 l
0.13 0.11 l
0.12 0.10 l
0.13 0.10 l
0.12 0.10 l
0.12 0.11 l
0.13 0.10 l
0.12 0.10 l
0.13 0.10 l
0.12 0.10 l
0.13 0.10 l
0.12 0.10 l
0.12 0.10 l
0.13 0.10 l
0.12 0.10 l
0.13 0.10 l
0.12 0.10 l
0.13 0.09 l
0.12 0.10 l
0.12 0.10 l
0.13 0.09 l
0.12 0.10 l
0.13 0.10 l
0.12 0.09 l
0.13 0.10 l
0.12 0.09 l
0.13 0.10 l
0.12 0.09 l
0.12 0.09 l
0.13 0.10 l
0.12 0.09 l
0.13 0.09 l
0.12 0.09 l
0.13 0.10 l
0.12 0.09 l
0.12 0.09 l
0.13 0.09 l
0.12 0.09 l
0.13 0.09 l
0.12 0.09 l
0.13 0.09 l
0.12 0.09 l
0.12 0.08 l
0.13 0.09 l
0.12 0.09 l
0.13 0.09 l
0.12 0.09 l
0.13 0.08 l
0.12 0.09 l
0.12 0.08 l
0.13 0.09 l
0.12 0.09 l
0.13 0.08 l
0.12 0.09 l
0.13 0.08 l
0.12 0.08 l
0.12 0.09 l
0.13 0.08 l
0.12 0.08 l
0.13 0.09 l
0.12 0.08 l
0.13 0.08 l
0.12 0.08 l
0.12 0.08 l
0.13 0.09 l
0.12 0.08 l
0.13 0.08 l
0.12 0.08 l
0.13 0.08 l
0.12 0.08 l
0.13 0.08 l
0.12 0.07 l
0.12 0.08 l
0.13 0.08 l
0.12 0.08 l
0.13 0.08 l
0.12 0.07 l
0.13 0.08 l
0.12 0.08 l
0.12 0.07 l
0.13 0.08 l
0.12 0.08 l
0.13 0.07 l
0.12 0.08 l
0.13 0.07 l
0.12 0.08 l
128.32 161.10 lineto
0.13 0.07 l
0.12 0.08 l
0.13 0.07 l
0.12 0.07 l
0.13 0.08 l
0.12 0.07 l
0.12 0.07 l
0.13 0.07 l
0.12 0.07 l
0.13 0.08 l
0.12 0.07 l
0.13 0.07 l
0.12 0.07 l
0.12 0.07 l
0.13 0.07 l
0.12 0.07 l
0.13 0.07 l
0.12 0.06 l
0.13 0.07 l
0.12 0.07 l
0.12 0.07 l
0.13 0.07 l
0.12 0.06 l
0.13 0.07 l
0.12 0.07 l
0.13 0.07 l
0.12 0.06 l
0.13 0.07 l
0.12 0.06 l
0.12 0.07 l
0.13 0.06 l
0.12 0.07 l
0.13 0.06 l
0.12 0.07 l
0.13 0.06 l
0.12 0.07 l
0.12 0.06 l
0.13 0.06 l
0.12 0.07 l
0.13 0.06 l
0.12 0.06 l
0.13 0.06 l
0.12 0.07 l
0.12 0.06 l
0.13 0.06 l
0.12 0.06 l
0.13 0.06 l
0.12 0.06 l
0.13 0.06 l
0.12 0.06 l
0.12 0.06 l
0.13 0.06 l
0.12 0.06 l
0.13 0.06 l
0.12 0.06 l
0.13 0.06 l
0.12 0.06 l
0.12 0.06 l
0.13 0.05 l
0.12 0.06 l
0.13 0.06 l
0.12 0.06 l
0.13 0.05 l
0.12 0.06 l
0.12 0.06 l
0.13 0.05 l
0.12 0.06 l
0.13 0.05 l
0.12 0.06 l
0.13 0.05 l
0.12 0.06 l
0.13 0.05 l
0.12 0.06 l
0.12 0.05 l
0.13 0.06 l
0.12 0.05 l
0.13 0.05 l
0.12 0.06 l
0.13 0.05 l
0.12 0.05 l
0.12 0.06 l
0.13 0.05 l
0.12 0.05 l
0.13 0.05 l
0.12 0.05 l
0.13 0.06 l
0.12 0.05 l
0.12 0.05 l
0.13 0.05 l
0.12 0.05 l
0.13 0.05 l
0.12 0.05 l
0.13 0.05 l
0.12 0.05 l
0.12 0.05 l
0.13 0.05 l
0.12 0.05 l
0.13 0.05 l
0.12 0.04 l
140.76 167.14 lineto
0.12 0.05 l
0.12 0.05 l
0.13 0.05 l
0.12 0.04 l
0.13 0.05 l
0.12 0.05 l
0.13 0.04 l
0.12 0.05 l
0.12 0.05 l
0.13 0.04 l
0.12 0.05 l
0.13 0.05 l
0.12 0.04 l
0.13 0.05 l
0.12 0.04 l
0.12 0.05 l
0.13 0.04 l
0.12 0.05 l
0.13 0.04 l
0.12 0.04 l
0.13 0.05 l
0.12 0.04 l
0.13 0.05 l
0.12 0.04 l
0.12 0.04 l
0.13 0.04 l
0.12 0.05 l
0.13 0.04 l
0.12 0.04 l
0.13 0.04 l
0.12 0.05 l
0.12 0.04 l
0.13 0.04 l
0.12 0.04 l
0.13 0.04 l
0.12 0.04 l
0.13 0.04 l
0.12 0.04 l
0.12 0.04 l
0.13 0.04 l
0.12 0.04 l
0.13 0.04 l
0.12 0.04 l
0.13 0.04 l
0.12 0.04 l
0.12 0.04 l
0.13 0.04 l
0.12 0.04 l
0.13 0.04 l
0.12 0.03 l
0.13 0.04 l
0.12 0.04 l
0.12 0.04 l
0.13 0.04 l
0.12 0.03 l
0.13 0.04 l
0.12 0.04 l
0.13 0.03 l
0.12 0.04 l
0.12 0.04 l
0.13 0.03 l
0.12 0.04 l
0.13 0.03 l
0.12 0.04 l
0.13 0.04 l
0.12 0.03 l
0.13 0.04 l
0.12 0.03 l
0.12 0.04 l
0.13 0.03 l
0.12 0.04 l
0.13 0.03 l
0.12 0.03 l
0.13 0.04 l
0.12 0.03 l
0.12 0.04 l
0.13 0.03 l
0.12 0.03 l
0.13 0.03 l
0.12 0.04 l
0.13 0.03 l
0.12 0.03 l
0.12 0.04 l
0.13 0.03 l
0.12 0.03 l
0.13 0.03 l
0.12 0.03 l
0.13 0.04 l
0.12 0.03 l
0.12 0.03 l
0.13 0.03 l
0.12 0.03 l
0.13 0.03 l
0.12 0.03 l
0.13 0.03 l
0.12 0.03 l
0.12 0.03 l
0.13 0.03 l
0.12 0.03 l
153.19 170.98 lineto
0.12 0.03 l
0.13 0.03 l
0.12 0.03 l
0.12 0.03 l
0.13 0.03 l
0.12 0.03 l
0.13 0.03 l
0.12 0.02 l
0.13 0.03 l
0.12 0.03 l
0.13 0.03 l
0.12 0.03 l
0.12 0.02 l
0.13 0.03 l
0.12 0.03 l
0.13 0.03 l
0.12 0.02 l
0.13 0.03 l
0.12 0.03 l
0.12 0.02 l
0.13 0.03 l
0.12 0.03 l
0.13 0.02 l
0.12 0.03 l
0.13 0.02 l
0.12 0.03 l
0.12 0.02 l
0.13 0.03 l
0.12 0.03 l
0.13 0.02 l
0.12 0.03 l
0.13 0.02 l
0.12 0.03 l
0.12 0.02 l
0.13 0.02 l
0.12 0.03 l
0.13 0.02 l
0.12 0.03 l
0.13 0.02 l
0.12 0.02 l
0.12 0.03 l
0.13 0.02 l
0.12 0.02 l
0.13 0.03 l
0.12 0.02 l
0.13 0.02 l
0.12 0.03 l
0.12 0.02 l
0.13 0.02 l
0.12 0.02 l
0.13 0.03 l
0.12 0.02 l
0.13 0.02 l
0.12 0.02 l
0.13 0.02 l
0.12 0.03 l
0.12 0.02 l
0.13 0.02 l
0.12 0.02 l
0.13 0.02 l
0.12 0.02 l
0.13 0.02 l
0.12 0.02 l
0.12 0.02 l
0.13 0.02 l
0.12 0.02 l
0.13 0.02 l
0.12 0.03 l
0.13 0.01 l
0.12 0.02 l
0.12 0.02 l
0.13 0.02 l
0.12 0.02 l
0.13 0.02 l
0.12 0.02 l
0.13 0.02 l
0.12 0.02 l
0.12 0.02 l
0.13 0.02 l
0.12 0.02 l
0.13 0.01 l
0.12 0.02 l
0.13 0.02 l
0.12 0.02 l
0.12 0.02 l
0.13 0.01 l
0.12 0.02 l
0.13 0.02 l
0.12 0.02 l
0.13 0.01 l
0.12 0.02 l
0.12 0.02 l
0.13 0.02 l
0.12 0.01 l
0.13 0.02 l
0.12 0.02 l
0.13 0.01 l
0.12 0.02 l
0.12 0.02 l
currentpoint o m
165.62 173.23 lineto
0.12 0.02 l
0.13 0.01 l
0.12 0.02 l
0.13 0.02 l
0.12 0.01 l
0.13 0.02 l
0.12 0.01 l
0.12 0.02 l
0.13 0.01 l
0.12 0.02 l
0.13 0.01 l
0.12 0.02 l
0.13 0.01 l
0.12 0.02 l
0.12 0.01 l
0.13 0.02 l
0.12 0.01 l
0.13 0.02 l
0.12 0.01 l
0.13 0.01 l
0.12 0.02 l
0.12 0.01 l
0.13 0.01 l
0.12 0.02 l
0.13 0.01 l
0.12 0.02 l
0.13 0.01 l
0.12 0.01 l
0.12 0.01 l
0.13 0.02 l
0.12 0.01 l
0.13 0.01 l
0.12 0.02 l
0.13 0.01 l
0.12 0.01 l
0.12 0.01 l
0.13 0.02 l
0.12 0.01 l
0.13 0.01 l
0.12 0.01 l
0.13 0.01 l
0.12 0.02 l
0.12 0.01 l
0.13 0.01 l
0.12 0.01 l
0.13 0.01 l
0.12 0.01 l
0.13 0.01 l
0.12 0.02 l
0.13 0.01 l
0.12 0.01 l
0.12 0.01 l
0.13 0.01 l
0.12 0.01 l
0.13 0.01 l
0.12 0.01 l
0.13 0.01 l
0.12 0.01 l
0.12 0.01 l
0.13 0.01 l
0.12 0.01 l
0.13 0.01 l
0.12 0.01 l
0.13 0.01 l
0.12 0.01 l
0.12 0.01 l
0.13 0.01 l
0.12 0.01 l
0.13 0.01 l
0.12 0.01 l
0.13 0.01 l
0.12 0 l
0.12 0.01 l
0.13 0.01 l
0.12 0.01 l
0.13 0.01 l
0.12 0.01 l
0.13 0.01 l
0.12 0 l
0.12 0.01 l
0.13 0.01 l
0.12 0.01 l
0.13 0.01 l
0.12 0 l
0.13 0.01 l
0.12 0.01 l
0.12 0.01 l
0.13 0.01 l
0.12 0 l
0.13 0.01 l
0.12 0.01 l
0.13 0 l
0.12 0.01 l
0.13 0.01 l
0.12 0.01 l
0.12 0 l
0.13 0.01 l
0.12 0.01 l
0.13 0 l
178.05 174.34 lineto
0.13 0.01 l
0.12 0 l
0.12 0.01 l
0.13 0 l
0.12 0.01 l
0.13 0.01 l
0.12 0 l
0.13 0.01 l
0.12 0 l
0.12 0.01 l
0.13 0.01 l
0.12 0 l
0.13 0.01 l
0.12 0 l
0.13 0.01 l
0.12 0 l
0.12 0.01 l
0.13 0 l
0.12 0.01 l
0.13 0 l
0.12 0.01 l
0.13 0 l
0.12 0.01 l
0.12 0 l
0.13 0.01 l
0.12 0 l
0.13 0.01 l
0.12 0 l
0.13 0 l
0.12 0.01 l
0.12 0 l
0.13 0.01 l
0.12 0 l
0.13 0.01 l
0.12 0 l
0.13 0 l
0.12 0.01 l
0.12 0 l
0.13 0 l
0.12 0.01 l
0.13 0 l
0.12 0 l
0.13 0.01 l
0.12 0 l
0.13 0 l
0.12 0.01 l
0.12 0 l
0.13 0 l
0.12 0.01 l
0.13 0 l
0.12 0 l
0.13 0 l
0.12 0.01 l
0.12 0 l
0.13 0 l
0.12 0 l
0.13 0.01 l
0.12 0 l
0.13 0 l
0.12 0 l
0.12 0 l
0.13 0.01 l
0.12 0 l
0.13 0 l
0.12 0 l
0.13 0 l
0.12 0.01 l
0.12 0 l
0.13 0 l
0.12 0 l
0.13 0 l
0.12 0 l
0.13 0 l
0.12 0.01 l
0.12 0 l
0.13 0 l
0.12 0 l
0.13 0 l
0.12 0 l
0.13 0 l
0.12 0 l
0.12 0 l
0.13 0 l
0.12 0 l
0.13 0 l
0.12 0 l
0.13 0.01 l
0.12 0 l
0.13 0 l
0.12 0 l
0.12 0 l
0.13 0 l
0.12 0 l
0.13 0 l
0.12 0 l
0.13 0 l
0.12 0 l
0.12 0 l
0.13 0 l
190.48 174.62 lineto
0.13 0 l
0.12 0 l
0.13 0 l
0.12 0 l
0.12 0 l
0.13 0 l
0.12 0 l
0.13 0 l
0.12 0 l
0.13 0 l
0.12 0 l
0.12 0 l
0.13 -0.01 l
0.12 0 l
0.13 0 l
0.12 0 l
0.13 0 l
0.12 0 l
0.12 0 l
0.13 0 l
0.12 -0.01 l
0.13 0 l
0.12 0 l
0.13 0 l
0.12 0 l
0.12 0 l
0.13 -0.01 l
0.12 0 l
0.13 0 l
0.12 0 l
0.13 0 l
0.12 -0.01 l
0.13 0 l
0.12 0 l
0.12 0 l
0.13 -0.01 l
0.12 0 l
0.13 0 l
0.12 0 l
0.13 -0.01 l
0.12 0 l
0.12 0 l
0.13 0 l
0.12 -0.01 l
0.13 0 l
0.12 0 l
0.13 -0.01 l
0.12 0 l
0.12 0 l
0.13 0 l
0.12 -0.01 l
0.13 0 l
0.12 0 l
0.13 -0.01 l
0.12 0 l
0.12 0 l
0.13 -0.01 l
0.12 0 l
0.13 0 l
0.12 -0.01 l
0.13 0 l
0.12 -0.01 l
0.12 0 l
0.13 0 l
0.12 -0.01 l
0.13 0 l
0.12 0 l
0.13 -0.01 l
0.12 0 l
0.12 -0.01 l
0.13 0 l
0.12 0 l
0.13 -0.01 l
0.12 0 l
0.13 -0.01 l
0.12 0 l
0.13 -0.01 l
0.12 0 l
0.12 0 l
0.13 -0.01 l
0.12 0 l
0.13 -0.01 l
0.12 0 l
0.13 -0.01 l
0.12 0 l
0.12 -0.01 l
0.13 0 l
0.12 -0.01 l
0.13 0 l
0.12 -0.01 l
0.13 0 l
0.12 -0.01 l
0.12 0 l
0.13 -0.01 l
0.12 0 l
0.13 -0.01 l
0.12 0 l
0.13 -0.01 l
0.12 0 l
202.91 174.32 lineto
0.13 0 l
0.12 -0.01 l
0.13 0 l
0.12 -0.01 l
0.13 0 l
0.12 -0.01 l
0.12 -0.01 l
0.13 0 l
0.12 -0.01 l
0.13 0 l
0.12 -0.01 l
0.13 0 l
0.12 -0.01 l
0.12 -0.01 l
0.13 0 l
0.12 -0.01 l
0.13 0 l
0.12 -0.01 l
0.13 -0.01 l
0.12 0 l
0.12 -0.01 l
0.13 0 l
0.12 -0.01 l
0.13 -0.01 l
0.12 0 l
0.13 -0.01 l
0.12 -0.01 l
0.13 0 l
0.12 -0.01 l
0.12 -0.01 l
0.13 0 l
0.12 -0.01 l
0.13 -0.01 l
0.12 0 l
0.13 -0.01 l
0.12 -0.01 l
0.12 0 l
0.13 -0.01 l
0.12 -0.01 l
0.13 0 l
0.12 -0.01 l
0.13 -0.01 l
0.12 0 l
0.12 -0.01 l
0.13 -0.01 l
0.12 -0.01 l
0.13 0 l
0.12 -0.01 l
0.13 -0.01 l
0.12 0 l
0.12 -0.01 l
0.13 -0.01 l
0.12 -0.01 l
0.13 0 l
0.12 -0.01 l
0.13 -0.01 l
0.12 -0.01 l
0.12 0 l
0.13 -0.01 l
0.12 -0.01 l
0.13 -0.01 l
0.12 0 l
0.13 -0.01 l
0.12 -0.01 l
0.12 -0.01 l
0.13 0 l
0.12 -0.01 l
0.13 -0.01 l
0.12 -0.01 l
0.13 -0.01 l
0.12 0 l
0.13 -0.01 l
0.12 -0.01 l
0.12 -0.01 l
0.13 -0.01 l
0.12 0 l
0.13 -0.01 l
0.12 -0.01 l
0.13 -0.01 l
0.12 -0.01 l
0.12 -0.01 l
0.13 0 l
0.12 -0.01 l
0.13 -0.01 l
0.12 -0.01 l
0.13 -0.01 l
0.12 -0.01 l
0.12 0 l
0.13 -0.01 l
0.12 -0.01 l
0.13 -0.01 l
0.12 -0.01 l
0.13 -0.01 l
0.12 -0.01 l
0.12 0 l
0.13 -0.01 l
0.12 -0.01 l
0.13 -0.01 l
0.12 -0.01 l
215.35 173.60 lineto
0.12 -0.01 l
0.12 -0.01 l
0.13 -0.01 l
0.12 0 l
0.13 -0.01 l
0.12 -0.01 l
0.13 -0.01 l
0.12 -0.01 l
0.12 -0.01 l
0.13 -0.01 l
0.12 -0.01 l
0.13 -0.01 l
0.12 -0.01 l
0.13 -0.01 l
0.12 0 l
0.13 -0.01 l
0.12 -0.01 l
0.12 -0.01 l
0.13 -0.01 l
0.12 -0.01 l
0.13 -0.01 l
0.12 -0.01 l
0.13 -0.01 l
0.12 -0.01 l
0.12 -0.01 l
0.13 -0.01 l
0.12 -0.01 l
0.13 -0.01 l
0.12 -0.01 l
0.13 -0.01 l
0.12 -0.01 l
0.12 -0.01 l
0.13 -0.01 l
0.12 -0.01 l
0.13 -0.01 l
0.12 -0.01 l
0.13 -0.01 l
0.12 -0.01 l
0.12 -0.01 l
0.13 -0.01 l
0.12 -0.01 l
0.13 -0.01 l
0.12 -0.01 l
0.13 -0.01 l
0.12 -0.01 l
0.12 -0.01 l
0.13 -0.01 l
0.12 -0.01 l
0.13 -0.01 l
0.12 -0.01 l
0.13 -0.01 l
0.12 -0.01 l
0.12 -0.01 l
0.13 -0.01 l
0.12 -0.01 l
0.13 -0.01 l
0.12 -0.01 l
0.13 -0.01 l
0.12 -0.01 l
0.13 -0.01 l
0.12 -0.01 l
0.12 -0.01 l
0.13 -0.01 l
0.12 -0.01 l
0.13 -0.01 l
0.12 -0.01 l
0.13 -0.01 l
0.12 -0.01 l
0.12 -0.01 l
0.13 -0.02 l
0.12 -0.01 l
0.13 -0.01 l
0.12 -0.01 l
0.13 -0.01 l
0.12 -0.01 l
0.12 -0.01 l
0.13 -0.01 l
0.12 -0.01 l
0.13 -0.01 l
0.12 -0.01 l
0.13 -0.01 l
0.12 -0.02 l
0.12 -0.01 l
0.13 -0.01 l
0.12 -0.01 l
0.13 -0.01 l
0.12 -0.01 l
0.13 -0.01 l
0.12 -0.01 l
0.12 -0.01 l
0.13 -0.01 l
0.12 -0.02 l
0.13 -0.01 l
0.12 -0.01 l
0.13 -0.01 l
0.12 -0.01 l
0.12 -0.01 l
0.13 -0.01 l
0.12 -0.01 l
o
0.00 0.00 303.75 216.00 cl
0.00 0.00 303.75 216.00 cl
0.00 0.00 303.75 216.00 cl
0.00 0.00 303.75 216.00 cl
0.00 0.00 303.75 216.00 cl
0.00 0.00 303.75 216.00 cl
0.00 0.00 303.75 216.00 cl
0.00 0.00 303.75 216.00 cl
0.00 0.00 303.75 216.00 cl
0.00 0.00 303.75 216.00 cl
0.00 0.00 303.75 216.00 cl
0.00 0.00 303.75 216.00 cl
0.00 0.00 303.75 216.00 cl
0.00 0.00 303.75 216.00 cl
0.00 0.00 303.75 216.00 cl
0.00 0.00 303.75 216.00 cl
/Font1 findfont 9 s
0.3020 0.3020 0.3020 srgb
36.37 35.23 (0.00) 1 0 t
36.37 82.28 (0.25) 1 0 t
36.37 129.32 (0.50) 1 0 t
36.37 176.37 (0.75) 1 0 t
0.00 0.00 303.75 216.00 cl
0.00 0.00 303.75 216.00 cl
0.2000 0.2000 0.2000 srgb
1.07 setlinewidth
[] 0 setdash
0 setlinecap
1 setlinejoin
10.00 setmiterlimit
np
38.56 38.47 m
2.74 0 l
o
np
38.56 85.51 m
2.74 0 l
o
np
38.56 132.55 m
2.74 0 l
o
np
38.56 179.60 m
2.74 0 l
o
0.00 0.00 303.75 216.00 cl
0.00 0.00 303.75 216.00 cl
0.00 0.00 303.75 216.00 cl
0.00 0.00 303.75 216.00 cl
0.00 0.00 303.75 216.00 cl
0.00 0.00 303.75 216.00 cl
0.00 0.00 303.75 216.00 cl
0.00 0.00 303.75 216.00 cl
0.00 0.00 303.75 216.00 cl
0.00 0.00 303.75 216.00 cl
0.2000 0.2000 0.2000 srgb
1.07 setlinewidth
[] 0 setdash
0 setlinecap
1 setlinejoin
10.00 setmiterlimit
np
55.64 27.51 m
0 2.74 l
o
np
98.64 27.51 m
0 2.74 l
o
np
141.65 27.51 m
0 2.74 l
o
np
184.65 27.51 m
0 2.74 l
o
np
227.65 27.51 m
0 2.74 l
o
0.00 0.00 303.75 216.00 cl
0.00 0.00 303.75 216.00 cl
/Font1 findfont 9 s
0.3020 0.3020 0.3020 srgb
55.64 18.86 (0.00) .5 0 t
98.64 18.86 (0.03) .5 0 t
141.65 18.86 (0.06) .5 0 t
184.65 18.86 (0.09) .5 0 t
227.65 18.86 (0.12) .5 0 t
0.00 0.00 303.75 216.00 cl
0.00 0.00 303.75 216.00 cl
0.00 0.00 303.75 216.00 cl
0.00 0.00 303.75 216.00 cl
0.00 0.00 303.75 216.00 cl
0.00 0.00 303.75 216.00 cl
/Font1 findfont 11 s
0 0 0 srgb
134.48 5.48 (time) .5 0 t
0.00 0.00 303.75 216.00 cl
0.00 0.00 303.75 216.00 cl
/Font1 findfont 11 s
0 0 0 srgb
13.38 120.39 (V) .5 90 t
0.00 0.00 303.75 216.00 cl
0.00 0.00 303.75 216.00 cl
0.00 0.00 303.75 216.00 cl
0.00 0.00 303.75 216.00 cl
0.00 0.00 303.75 216.00 cl
0.00 0.00 303.75 216.00 cl
0.00 0.00 303.75 216.00 cl
0.00 0.00 303.75 216.00 cl
/bg { 1 1 1 srgb } def
238.99 73.50 59.28 93.78 r p2
0.00 0.00 303.75 216.00 cl
0.00 0.00 303.75 216.00 cl
/Font5 findfont 11 s
0 0 0 srgb
244.66 153.16 ( ) 0 0 t
247.41 153.16 ( ) 0 0 t
/Font3 findfont 11 s
250.16 153.16 (R) 0 0 t
0.00 0.00 303.75 216.00 cl
0.00 0.00 303.75 216.00 cl
/bg { 0.9490 0.9490 0.9490 srgb } def
1 1 1 srgb
1.07 setlinewidth
[] 0 setdash
1 setlinecap
1 setlinejoin
10.00 setmiterlimit
244.66 131.01 17.28 17.28 r p3
0.00 0.00 303.75 216.00 cl
0.00 0.00 303.75 216.00 cl
1 0.3882 0.2784 srgb
1.07 setlinewidth
[] 0 setdash
0 setlinecap
1 setlinejoin
10.00 setmiterlimit
np
246.39 139.65 m
13.82 0 l
o
0.00 0.00 303.75 216.00 cl
0.00 0.00 303.75 216.00 cl
1 0.3882 0.2784 srgb
1.07 setlinewidth
[] 0 setdash
0 setlinecap
1 setlinejoin
10.00 setmiterlimit
np
246.39 139.65 m
13.82 0 l
o
0.00 0.00 303.75 216.00 cl
0.00 0.00 303.75 216.00 cl
1 0.3882 0.2784 srgb
1.07 setlinewidth
[] 0 setdash
0 setlinecap
1 setlinejoin
10.00 setmiterlimit
np
246.39 139.65 m
13.82 0 l
o
0.00 0.00 303.75 216.00 cl
0.00 0.00 303.75 216.00 cl
1 0.3882 0.2784 srgb
1.07 setlinewidth
[] 0 setdash
0 setlinecap
1 setlinejoin
10.00 setmiterlimit
np
246.39 139.65 m
13.82 0 l
o
0.00 0.00 303.75 216.00 cl
0.00 0.00 303.75 216.00 cl
/bg { 0.9490 0.9490 0.9490 srgb } def
1 1 1 srgb
1.07 setlinewidth
[] 0 setdash
1 setlinecap
1 setlinejoin
10.00 setmiterlimit
244.66 113.73 17.28 17.28 r p3
0.00 0.00 303.75 216.00 cl
0.00 0.00 303.75 216.00 cl
0.8039 0.7451 0.4392 srgb
1.07 setlinewidth
[] 0 setdash
0 setlinecap
1 setlinejoin
10.00 setmiterlimit
np
246.39 122.37 m
13.82 0 l
o
0.00 0.00 303.75 216.00 cl
0.00 0.00 303.75 216.00 cl
0.8039 0.7451 0.4392 srgb
1.07 setlinewidth
[] 0 setdash
0 setlinecap
1 setlinejoin
10.00 setmiterlimit
np
246.39 122.37 m
13.82 0 l
o
0.00 0.00 303.75 216.00 cl
0.00 0.00 303.75 216.00 cl
0.8039 0.7451 0.4392 srgb
1.07 setlinewidth
[] 0 setdash
0 setlinecap
1 setlinejoin
10.00 setmiterlimit
np
246.39 122.37 m
13.82 0 l
o
0.00 0.00 303.75 216.00 cl
0.00 0.00 303.75 216.00 cl
0.8039 0.7451 0.4392 srgb
1.07 setlinewidth
[] 0 setdash
0 setlinecap
1 setlinejoin
10.00 setmiterlimit
np
246.39 122.37 m
13.82 0 l
o
0.00 0.00 303.75 216.00 cl
0.00 0.00 303.75 216.00 cl
/bg { 0.9490 0.9490 0.9490 srgb } def
1 1 1 srgb
1.07 setlinewidth
[] 0 setdash
1 setlinecap
1 setlinejoin
10.00 setmiterlimit
244.66 96.45 17.28 17.28 r p3
0.00 0.00 303.75 216.00 cl
0.00 0.00 303.75 216.00 cl
0.5608 0.7373 0.5608 srgb
1.07 setlinewidth
[] 0 setdash
0 setlinecap
1 setlinejoin
10.00 setmiterlimit
np
246.39 105.09 m
13.82 0 l
o
0.00 0.00 303.75 216.00 cl
0.00 0.00 303.75 216.00 cl
0.5608 0.7373 0.5608 srgb
1.07 setlinewidth
[] 0 setdash
0 setlinecap
1 setlinejoin
10.00 setmiterlimit
np
246.39 105.09 m
13.82 0 l
o
0.00 0.00 303.75 216.00 cl
0.00 0.00 303.75 216.00 cl
0.5608 0.7373 0.5608 srgb
1.07 setlinewidth
[] 0 setdash
0 setlinecap
1 setlinejoin
10.00 setmiterlimit
np
246.39 105.09 m
13.82 0 l
o
0.00 0.00 303.75 216.00 cl
0.00 0.00 303.75 216.00 cl
0.5608 0.7373 0.5608 srgb
1.07 setlinewidth
[] 0 setdash
0 setlinecap
1 setlinejoin
10.00 setmiterlimit
np
246.39 105.09 m
13.82 0 l
o
0.00 0.00 303.75 216.00 cl
0.00 0.00 303.75 216.00 cl
/bg { 0.9490 0.9490 0.9490 srgb } def
1 1 1 srgb
1.07 setlinewidth
[] 0 setdash
1 setlinecap
1 setlinejoin
10.00 setmiterlimit
244.66 79.17 17.28 17.28 r p3
0.00 0.00 303.75 216.00 cl
0.00 0.00 303.75 216.00 cl
0.5294 0.8078 0.9804 srgb
1.07 setlinewidth
[] 0 setdash
0 setlinecap
1 setlinejoin
10.00 setmiterlimit
np
246.39 87.81 m
13.82 0 l
o
0.00 0.00 303.75 216.00 cl
0.00 0.00 303.75 216.00 cl
0.5294 0.8078 0.9804 srgb
1.07 setlinewidth
[] 0 setdash
0 setlinecap
1 setlinejoin
10.00 setmiterlimit
np
246.39 87.81 m
13.82 0 l
o
0.00 0.00 303.75 216.00 cl
0.00 0.00 303.75 216.00 cl
0.5294 0.8078 0.9804 srgb
1.07 setlinewidth
[] 0 setdash
0 setlinecap
1 setlinejoin
10.00 setmiterlimit
np
246.39 87.81 m
13.82 0 l
o
0.00 0.00 303.75 216.00 cl
0.00 0.00 303.75 216.00 cl
0.5294 0.8078 0.9804 srgb
1.07 setlinewidth
[] 0 setdash
0 setlinecap
1 setlinejoin
10.00 setmiterlimit
np
246.39 87.81 m
13.82 0 l
o
0.00 0.00 303.75 216.00 cl
0.00 0.00 303.75 216.00 cl
/Font1 findfont 9 s
0 0 0 srgb
264.10 136.41 (0.0001) 0 0 t
0.00 0.00 303.75 216.00 cl
0.00 0.00 303.75 216.00 cl
/Font1 findfont 9 s
0 0 0 srgb
264.10 119.13 (0.1) 0 0 t
0.00 0.00 303.75 216.00 cl
0.00 0.00 303.75 216.00 cl
/Font1 findfont 9 s
0 0 0 srgb
264.10 101.85 (0.5) 0 0 t
0.00 0.00 303.75 216.00 cl
0.00 0.00 303.75 216.00 cl
/Font1 findfont 9 s
0 0 0 srgb
264.10 84.57 (1.5) 0 0 t
0.00 0.00 303.75 216.00 cl
0.00 0.00 303.75 216.00 cl
0.00 0.00 303.75 216.00 cl
0.00 0.00 303.75 216.00 cl
0.00 0.00 303.75 216.00 cl
0.00 0.00 303.75 216.00 cl
0.00 0.00 303.75 216.00 cl
0.00 0.00 303.75 216.00 cl
0.00 0.00 303.75 216.00 cl
0.00 0.00 303.75 216.00 cl
ep
%%Trailer
%%Pages: 1
%%EOF
