%!PS-Adobe-3.0 EPSF-3.0
%%DocumentNeededResources: font Helvetica
%%+ font Helvetica-Bold
%%+ font Helvetica-Oblique
%%+ font Helvetica-BoldOblique
%%+ font Symbol
%%Title: R Graphics Output
%%Creator: R Software
%%Pages: (atend)
%%BoundingBox: 0 0 323 258
%%EndComments
%%BeginProlog
/bp  { gs sRGB gs } def
% begin .ps.prolog
/gs  { gsave } bind def
/gr  { grestore } bind def
/ep  { showpage gr gr } bind def
/m   { moveto } bind def
/l  { rlineto } bind def
/np  { newpath } bind def
/cp  { closepath } bind def
/f   { fill } bind def
/o   { stroke } bind def
/c   { newpath 0 360 arc } bind def
/r   { 4 2 roll moveto 1 copy 3 -1 roll exch 0 exch rlineto 0 rlineto -1 mul 0 exch rlineto closepath } bind def
/p1  { stroke } bind def
/p2  { gsave bg fill grestore newpath } bind def
/p3  { gsave bg fill grestore stroke } bind def
/p6  { gsave bg eofill grestore newpath } bind def
/p7  { gsave bg eofill grestore stroke } bind def
/t   { 5 -2 roll moveto gsave rotate
       1 index stringwidth pop
       mul neg 0 rmoveto show grestore } bind def
/ta  { 4 -2 roll moveto gsave rotate show } bind def
/tb  { 2 -1 roll 0 rmoveto show } bind def
/cl  { grestore gsave newpath 3 index 3 index moveto 1 index
       4 -1 roll lineto  exch 1 index lineto lineto
       closepath clip newpath } bind def
/rgb { setrgbcolor } bind def
/s   { scalefont setfont } bind def
% end   .ps.prolog
/sRGB { [ /CIEBasedABC
          << /DecodeLMN
               [ { dup 0.03928 le
                        {12.92321 div}
                        {0.055 add 1.055 div 2.4 exp }
                     ifelse
                 } bind dup dup
               ]
             /MatrixLMN [0.412457 0.212673 0.019334
                         0.357576 0.715152 0.119192
                         0.180437 0.072175 0.950301]
             /WhitePoint [0.9505 1.0 1.0890]
           >>
         ] setcolorspace } bind def
/srgb { setcolor } bind def
% begin encoding
/WinAnsiEncoding [
 /.notdef /.notdef /.notdef /.notdef /.notdef /.notdef /.notdef /.notdef
 /.notdef /.notdef /.notdef /.notdef /.notdef /.notdef /.notdef /.notdef
 /.notdef /.notdef /.notdef /.notdef /.notdef /.notdef /.notdef /.notdef
 /.notdef /.notdef /.notdef /.notdef /.notdef /.notdef /.notdef /.notdef
 /space /exclam /quotedbl /numbersign /dollar /percent /ampersand /quoteright
 /parenleft /parenright /asterisk /plus /comma /minus /period /slash
 /zero /one /two /three /four /five /six /seven
 /eight /nine /colon /semicolon /less /equal /greater /question
 /at /A /B /C /D /E /F /G
 /H /I /J /K /L /M /N /O
 /P /Q /R /S /T /U /V /W
 /X /Y /Z /bracketleft /backslash /bracketright /asciicircum /underscore
 /grave /a /b /c /d /e /f /g
 /h /i /j /k /l /m /n /o
 /p /q /r /s /t /u /v /w
 /x /y /z /braceleft /bar /braceright /asciitilde /.notdef
 /Euro /.notdef /quotesinglbase /florin /quotedblbase /ellipsis /dagger /daggerdbl
 /circumflex /perthousand /Scaron /guilsinglleft /OE /.notdef /Zcaron /.notdef
 /.notdef /quoteleft /quoteright /quotedblleft /quotedblright /bullet /endash /emdash
 /tilde /trademark /scaron /guilsinglright /oe /.notdef /zcaron /Ydieresis
 /space /exclamdown /cent /sterling /currency /yen /brokenbar /section
 /dieresis /copyright /ordfeminine /guillemotleft /logicalnot /hyphen /registered /macron
 /degree /plusminus /twosuperior /threesuperior /acute /mu /paragraph /periodcentered
 /cedilla /onesuperior /ordmasculine /guillemotright /onequarter /onehalf /threequarters /questiondown
 /Agrave /Aacute /Acircumflex /Atilde /Adieresis /Aring /AE /Ccedilla
 /Egrave /Eacute /Ecircumflex /Edieresis /Igrave /Iacute /Icircumflex /Idieresis
 /Eth /Ntilde /Ograve /Oacute /Ocircumflex /Otilde /Odieresis /multiply
 /Oslash /Ugrave /Uacute /Ucircumflex /Udieresis /Yacute /Thorn /germandbls
 /agrave /aacute /acircumflex /atilde /adieresis /aring /ae /ccedilla
 /egrave /eacute /ecircumflex /edieresis /igrave /iacute /icircumflex /idieresis
 /eth /ntilde /ograve /oacute /ocircumflex /otilde /odieresis /divide
 /oslash /ugrave /uacute /ucircumflex /udieresis /yacute /thorn /ydieresis
]
 def
% end encoding
%%IncludeResource: font Helvetica
/Helvetica findfont
dup length dict begin
  {1 index /FID ne {def} {pop pop} ifelse} forall
  /Encoding WinAnsiEncoding def
  currentdict
  end
/Font1 exch definefont pop
%%IncludeResource: font Helvetica-Bold
/Helvetica-Bold findfont
dup length dict begin
  {1 index /FID ne {def} {pop pop} ifelse} forall
  /Encoding WinAnsiEncoding def
  currentdict
  end
/Font2 exch definefont pop
%%IncludeResource: font Helvetica-Oblique
/Helvetica-Oblique findfont
dup length dict begin
  {1 index /FID ne {def} {pop pop} ifelse} forall
  /Encoding WinAnsiEncoding def
  currentdict
  end
/Font3 exch definefont pop
%%IncludeResource: font Helvetica-BoldOblique
/Helvetica-BoldOblique findfont
dup length dict begin
  {1 index /FID ne {def} {pop pop} ifelse} forall
  /Encoding WinAnsiEncoding def
  currentdict
  end
/Font4 exch definefont pop
%%IncludeResource: font Symbol
/Symbol findfont
dup length dict begin
  {1 index /FID ne {def} {pop pop} ifelse} forall
  currentdict
  end
/Font5 exch definefont pop
%%EndProlog
%%Page: 1 1
bp
0.00 0.00 322.50 258.00 cl
0.00 0.00 322.50 258.00 cl
0.00 0.00 322.50 258.00 cl
0.00 0.00 322.50 258.00 cl
0.00 0.00 322.50 258.00 cl
0.00 0.00 322.50 258.00 cl
0.00 0.00 322.50 258.00 cl
0.00 0.00 322.50 258.00 cl
0.00 0.00 322.50 258.00 cl
/bg { 1 1 1 srgb } def
1 1 1 srgb
1.07 setlinewidth
[] 0 setdash
1 setlinecap
1 setlinejoin
10.00 setmiterlimit
0.00 0.00 322.50 258.00 r p3
0.00 0.00 322.50 258.00 cl
41.30 30.25 317.02 252.52 cl
/bg { 0.9216 0.9216 0.9216 srgb } def
41.30 30.25 275.72 222.27 r p2
1 1 1 srgb
0.53 setlinewidth
[] 0 setdash
0 setlinecap
1 setlinejoin
10.00 setmiterlimit
np
41.30 65.61 m
275.72 0 l
o
np
41.30 116.13 m
275.72 0 l
o
np
41.30 166.64 m
275.72 0 l
o
np
41.30 217.16 m
275.72 0 l
o
np
78.16 30.25 m
0 222.27 l
o
np
146.40 30.25 m
0 222.27 l
o
np
214.65 30.25 m
0 222.27 l
o
np
282.90 30.25 m
0 222.27 l
o
1.07 setlinewidth
[] 0 setdash
np
41.30 40.35 m
275.72 0 l
o
np
41.30 90.87 m
275.72 0 l
o
np
41.30 141.39 m
275.72 0 l
o
np
41.30 191.90 m
275.72 0 l
o
np
41.30 242.42 m
275.72 0 l
o
np
44.03 30.25 m
0 222.27 l
o
np
112.28 30.25 m
0 222.27 l
o
np
180.53 30.25 m
0 222.27 l
o
np
248.77 30.25 m
0 222.27 l
o
np
317.02 30.25 m
0 222.27 l
o
0.9569 0.6431 0.3765 srgb
2.35 setlinewidth
[] 0 setdash
1.00 setmiterlimit
np
41.30 40.35 m
0.19 0 l
0.18 0 l
0.18 0 l
0.19 0 l
0.18 0 l
0.19 0 l
0.18 0 l
0.18 0 l
0.19 0 l
0.18 0 l
0.19 0 l
0.18 0 l
0.18 0 l
0.19 0 l
0.18 0 l
0.19 0 l
0.18 0 l
0.18 0 l
0.19 0 l
0.18 0.01 l
0.19 0.05 l
0.18 0.16 l
0.18 0.40 l
0.19 0.78 l
0.18 1.29 l
0.18 1.89 l
0.19 2.53 l
0.18 3.19 l
0.19 3.82 l
0.18 4.40 l
0.18 4.92 l
0.19 5.35 l
0.18 5.70 l
0.19 5.99 l
0.18 6.19 l
0.18 6.33 l
0.19 6.40 l
0.18 6.42 l
0.19 6.38 l
0.18 6.32 l
0.18 6.20 l
0.19 6.07 l
0.18 5.90 l
0.19 5.73 l
0.18 5.53 l
0.18 5.32 l
0.19 5.12 l
0.18 4.89 l
0.19 4.68 l
0.18 4.46 l
0.18 4.24 l
0.19 4.03 l
0.18 3.82 l
0.18 3.61 l
0.19 3.42 l
0.18 3.23 l
0.19 3.05 l
0.18 2.87 l
0.18 2.70 l
0.19 2.54 l
0.18 2.38 l
0.19 2.24 l
0.18 2.11 l
0.18 1.97 l
0.19 1.84 l
0.18 1.73 l
0.19 1.62 l
0.18 1.52 l
0.18 1.41 l
0.19 1.32 l
0.18 1.24 l
0.19 1.15 l
0.18 1.08 l
0.18 1.01 l
0.19 0.93 l
0.18 0.88 l
0.19 0.81 l
0.18 0.76 l
0.18 0.71 l
0.19 0.66 l
0.18 0.62 l
0.19 0.57 l
0.18 0.53 l
0.18 0.50 l
0.19 0.46 l
0.18 0.43 l
0.18 0.40 l
0.19 0.37 l
0.18 0.35 l
0.19 0.32 l
0.18 0.30 l
0.18 0.28 l
0.19 0.25 l
0.18 0.25 l
0.19 0.22 l
0.18 0.21 l
0.18 0.19 l
0.19 0.18 l
0.18 0.17 l
59.70 240.40 lineto
0.18 0.14 l
0.18 0.14 l
0.19 0.12 l
0.18 0.12 l
0.19 0.10 l
0.18 0.10 l
0.18 0.10 l
0.19 0.08 l
0.18 0.08 l
0.19 0.08 l
0.18 0.07 l
0.18 0.06 l
0.19 0.06 l
0.18 0.05 l
0.18 0.06 l
0.19 0.04 l
0.18 0.05 l
0.19 0.04 l
0.18 0.04 l
0.18 0.03 l
0.19 0.03 l
0.18 0.03 l
0.19 0.03 l
0.18 0.03 l
0.18 0.02 l
0.19 0.03 l
0.18 0.02 l
0.19 0.02 l
0.18 0.01 l
0.18 0.02 l
0.19 0.02 l
0.18 0.01 l
0.19 0.01 l
0.18 0.02 l
0.18 0.01 l
0.19 0.01 l
0.18 0.01 l
0.19 0.01 l
0.18 0.01 l
0.18 0 l
0.19 0.01 l
0.18 0.01 l
0.19 0.01 l
0.18 0 l
0.18 0.01 l
0.19 0 l
0.18 0.01 l
0.18 0 l
0.19 0 l
0.18 0.01 l
0.19 0 l
0.18 0.01 l
0.18 0 l
0.19 0 l
0.18 0 l
0.19 0.01 l
0.18 0 l
0.18 0 l
0.19 0 l
0.18 0 l
0.19 0.01 l
0.18 0 l
0.18 0 l
0.19 0 l
0.18 0 l
0.19 0 l
0.18 0 l
0.18 0 l
0.19 0.01 l
0.18 0 l
0.19 0 l
0.18 0 l
0.18 0 l
0.19 0 l
0.18 0 l
0.18 0 l
0.19 0 l
0.18 0 l
0.19 0 l
0.18 0 l
0.18 0 l
0.19 0 l
0.18 0 l
0.19 0 l
0.18 0 l
0.18 0 l
0.19 0 l
0.18 0 l
0.19 0 l
0.18 0 l
0.18 0 l
0.19 0.01 l
0.18 0 l
0.19 0 l
0.18 0 l
0.18 0 l
0.19 0 l
0.18 0 l
0.19 0 l
78.09 242.42 lineto
0.18 0 l
0.19 0 l
0.18 0 l
0.19 0 l
0.18 0 l
0.18 0 l
0.19 0 l
0.18 0 l
0.18 0 l
0.19 0 l
0.18 0 l
0.19 0 l
0.18 0 l
0.18 0 l
0.19 0 l
0.18 0 l
0.19 0 l
0.18 0 l
0.18 0 l
0.19 0 l
0.18 0 l
0.19 0 l
0.18 0 l
0.18 0 l
0.19 0 l
0.18 0 l
0.19 0 l
0.18 0 l
0.18 0 l
0.19 0 l
0.18 0 l
0.19 0 l
0.18 0 l
0.18 0 l
0.19 0 l
0.18 0 l
0.18 0 l
0.19 0 l
0.18 0 l
0.19 0 l
0.18 0 l
0.18 0 l
0.19 0 l
0.18 0 l
0.19 0 l
0.18 0 l
0.18 0 l
0.19 0 l
0.18 0 l
0.19 0 l
0.18 0 l
0.18 0 l
0.19 0 l
0.18 0 l
0.19 0 l
0.18 0 l
0.18 0 l
0.19 0 l
0.18 0 l
0.19 0 l
0.18 0 l
0.18 0 l
0.19 0 l
0.18 0 l
0.19 0 l
0.18 0 l
0.18 0 l
0.19 0 l
0.18 0 l
0.18 0 l
0.19 0 l
0.18 0 l
0.19 0 l
0.18 0 l
0.18 0 l
0.19 0 l
0.18 0 l
0.19 0 l
0.18 0 l
0.18 0 l
0.19 0 l
0.18 0 l
0.19 0 l
0.18 0 l
0.18 0 l
0.19 0 l
0.18 0 l
0.19 0 l
0.18 0 l
0.18 0 l
0.19 0 l
0.18 0 l
0.19 0 l
0.18 0 l
0.18 0 l
0.19 0 l
0.18 0 l
0.19 0 l
0.18 0 l
96.48 242.42 lineto
0.19 0 l
0.18 0 l
0.18 0 l
0.19 0 l
0.18 0 l
0.19 0 l
0.18 0 l
0.18 0 l
0.19 0 l
0.18 0 l
0.19 0 l
0.18 0 l
0.18 0 l
0.19 0 l
0.18 0 l
0.19 0 l
0.18 0 l
0.18 0 l
0.19 0 l
0.18 0 l
0.19 0 l
0.18 0 l
0.18 0 l
0.19 0 l
0.18 0 l
0.19 0 l
0.18 0 l
0.18 0 l
0.19 0 l
0.18 0 l
0.18 0 l
0.19 0 l
0.18 0 l
0.19 0 l
0.18 0 l
0.18 0 l
0.19 0 l
0.18 0 l
0.19 0 l
0.18 0 l
0.18 0 l
0.19 0 l
0.18 0 l
0.19 0 l
0.18 0 l
0.18 0 l
0.19 0 l
0.18 0 l
0.19 0 l
0.18 0 l
0.18 0 l
0.19 0 l
0.18 0 l
0.19 0 l
0.18 0 l
0.18 0 l
0.19 0 l
0.18 0 l
0.19 0 l
0.18 0 l
0.18 0 l
0.19 0 l
0.18 0 l
0.18 0 l
0.19 0 l
0.18 0 l
0.19 0 l
0.18 0 l
0.18 0 l
0.19 0 l
0.18 0 l
0.19 0 l
0.18 0 l
0.18 0 l
0.19 0 l
0.18 0 l
0.19 0 l
0.18 0 l
0.18 0 l
0.19 0 l
0.18 0 l
0.19 0 l
0.18 0 l
0.18 0 l
0.19 0 l
0.18 0 l
0.19 0 l
0.18 0 l
0.18 0 l
0.19 0 l
0.18 0 l
0.18 0 l
0.19 0 l
0.18 0 l
0.19 0 l
0.18 0 l
0.18 0 l
0.19 0 l
0.18 0 l
114.88 242.42 lineto
0.18 0 l
0.18 0 l
0.19 0 l
0.18 0 l
0.19 0 l
0.18 0 l
0.18 0 l
0.19 0 l
0.18 0 l
0.19 0 l
0.18 0 l
0.18 0 l
0.19 0 l
0.18 0 l
0.19 0 l
0.18 0 l
0.18 0 l
0.19 0 l
0.18 0 l
0.19 0 l
0.18 0 l
0.18 0 l
0.19 0 l
0.18 0 l
0.18 0 l
0.19 0 l
0.18 0 l
0.19 0 l
0.18 0 l
0.18 0 l
0.19 0 l
0.18 0 l
0.19 0 l
0.18 0 l
0.18 0 l
0.19 0 l
0.18 0 l
0.19 0 l
0.18 0 l
0.18 0 l
0.19 0 l
0.18 0 l
0.19 0 l
0.18 0 l
0.18 0 l
0.19 0 l
0.18 0 l
0.19 0 l
0.18 0 l
0.18 0 l
0.19 0 l
0.18 0 l
0.18 0 l
0.19 0 l
0.18 0 l
0.19 0 l
0.18 0 l
0.18 0 l
0.19 0 l
0.18 0 l
0.19 0 l
0.18 0 l
0.18 0 l
0.19 0 l
0.18 0 l
0.19 0 l
0.18 0 l
0.18 0 l
0.19 0 l
0.18 0 l
0.19 0 l
0.18 0 l
0.18 0 l
0.19 0 l
0.18 0 l
0.19 0 l
0.18 0 l
0.18 0 l
0.19 0 l
0.18 0 l
0.19 0 l
0.18 0 l
0.18 0 l
0.19 0 l
0.18 0 l
0.18 0 l
0.19 0 l
0.18 0 l
0.19 0 l
0.18 0 l
0.18 0 l
0.19 0 l
0.18 0 l
0.19 0 l
0.18 0 l
0.18 0 l
0.19 0 l
0.18 0 l
0.19 0 l
133.27 242.42 lineto
0.18 0 l
0.19 0 l
0.18 0 l
0.19 0 l
0.18 0 l
0.18 0 l
0.19 0 l
0.18 0 l
0.19 0 l
0.18 0 l
0.18 0 l
0.19 0 l
0.18 0 l
0.18 0 l
0.19 0 l
0.18 0 l
0.19 0 l
0.18 0 l
0.18 0 l
0.19 0 l
0.18 0 l
0.19 0 l
0.18 0 l
0.18 0 l
0.19 0 l
0.18 0 l
0.19 0 l
0.18 0 l
0.18 0 l
0.19 0 l
0.18 0 l
0.19 0 l
0.18 0 l
0.18 0 l
0.19 0 l
0.18 0 l
0.19 0 l
0.18 0 l
0.18 0 l
0.19 0 l
0.18 0 l
0.19 0 l
0.18 0 l
0.18 0 l
0.19 0 l
0.18 0 l
0.18 0 l
0.19 0 l
0.18 0 l
0.19 0 l
0.18 0 l
0.18 0 l
0.19 0 l
0.18 0 l
0.19 0 l
0.18 0 l
0.18 0 l
0.19 0 l
0.18 0 l
0.19 0 l
0.18 0 l
0.18 0 l
0.19 0 l
0.18 0 l
0.19 0 l
0.18 0 l
0.18 0 l
0.19 0 l
0.18 0 l
0.19 0 l
0.18 0 l
0.18 0 l
0.19 0 l
0.18 0 l
0.18 0 l
0.19 0 l
0.18 0 l
0.19 0 l
0.18 0 l
0.18 0 l
0.19 0 l
0.18 0 l
0.19 0 l
0.18 0 l
0.18 0 l
0.19 0 l
0.18 0 l
0.19 0 l
0.18 0 l
0.18 0 l
0.19 0 l
0.18 0 l
0.19 0 l
0.18 0 l
0.18 0 l
0.19 0 l
0.18 0 l
0.19 0 l
0.18 0 l
151.66 242.42 lineto
0.19 0 l
0.18 0 l
0.19 0 l
0.18 0 l
0.18 0 l
0.19 0 l
0.18 0 l
0.18 0 l
0.19 0 l
0.18 0 l
0.19 0 l
0.18 0 l
0.18 0 l
0.19 0 l
0.18 0 l
0.19 0 l
0.18 0 l
0.18 0 l
0.19 0 l
0.18 0 l
0.19 0 l
0.18 0 l
0.18 0 l
0.19 0 l
0.18 0 l
0.19 0 l
0.18 0 l
0.18 0 l
0.19 0 l
0.18 0 l
0.19 0 l
0.18 0 l
0.18 0 l
0.19 0 l
0.18 0 l
0.18 0 l
0.19 0 l
0.18 0 l
0.19 0 l
0.18 0 l
0.18 0 l
0.19 0 l
0.18 0 l
0.19 0 l
0.18 0 l
0.18 0 l
0.19 0 l
0.18 0 l
0.19 0 l
0.18 0 l
0.18 0 l
0.19 0 l
0.18 0 l
0.19 0 l
0.18 0 l
0.18 0 l
0.19 0 l
0.18 0 l
0.19 0 l
0.18 0 l
0.18 0 l
0.19 0 l
0.18 0 l
0.19 0 l
0.18 0 l
0.18 0 l
0.19 0 l
0.18 0 l
0.18 0 l
0.19 0 l
0.18 0 l
0.19 0 l
0.18 0 l
0.18 0 l
0.19 0 l
0.18 0 l
0.19 0 l
0.18 0 l
0.18 0 l
0.19 0 l
0.18 0 l
0.19 0 l
0.18 0 l
0.18 0 l
0.19 0 l
0.18 0 l
0.19 0 l
0.18 0 l
0.18 0 l
0.19 0 l
0.18 0 l
0.19 0 l
0.18 0 l
0.18 0 l
0.19 0 l
0.18 0 l
0.19 0 l
0.18 0 l
0.18 0 l
170.06 242.42 lineto
0.18 0 l
0.18 0 l
0.19 0 l
0.18 0 l
0.19 0 l
0.18 0 l
0.18 0 l
0.19 0 l
0.18 0 l
0.19 0 l
0.18 0 l
0.18 0 l
0.19 0 l
0.18 0 l
0.19 0 l
0.18 0 l
0.18 0 l
0.19 0 l
0.18 0 l
0.19 0 l
0.18 0 l
0.18 0 l
0.19 0 l
0.18 0 l
0.19 0 l
0.18 0 l
0.18 0 l
0.19 0 l
0.18 0 l
0.18 0 l
0.19 0 l
0.18 0 l
0.19 0 l
0.18 0 l
0.18 0 l
0.19 0 l
0.18 0 l
0.19 0 l
0.18 0 l
0.18 0 l
0.19 0 l
0.18 0 l
0.19 0 l
0.18 0 l
0.18 0 l
0.19 0 l
0.18 0 l
0.19 0 l
0.18 0 l
0.18 0 l
0.19 0 l
0.18 0 l
0.19 0 l
0.18 0 l
0.18 0 l
0.19 0 l
0.18 0 l
0.19 0 l
0.18 0 l
0.18 0 l
0.19 0 l
0.18 0 l
0.18 0 l
0.19 0 l
0.18 0 l
0.19 0 l
0.18 0 l
0.18 0 l
0.19 0 l
0.18 0 l
0.19 0 l
0.18 0 l
0.18 0 l
0.19 0 l
0.18 0 l
0.19 0 l
0.18 0 l
0.18 0 l
0.19 0 l
0.18 0 l
0.19 0 l
0.18 0 l
0.18 0 l
0.19 0 l
0.18 0 l
0.19 0 l
0.18 0 l
0.18 0 l
0.19 0 l
0.18 0 l
0.18 0 l
0.19 0 l
0.18 0 l
0.19 0 l
0.18 0 l
0.18 0 l
0.19 0 l
0.18 0 l
0.19 0 l
188.45 242.42 lineto
0.18 0 l
0.19 0 l
0.18 0 l
0.19 0 l
0.18 0 l
0.18 0 l
0.19 0 l
0.18 0 l
0.19 0 l
0.18 0 l
0.18 0 l
0.19 0 l
0.18 0 l
0.19 0 l
0.18 0 l
0.18 0 l
0.19 0 l
0.18 0 l
0.19 0 l
0.18 0 l
0.18 0 l
0.19 0 l
0.18 0 l
0.18 0 l
0.19 0 l
0.18 0 l
0.19 0 l
0.18 0 l
0.18 0 l
0.19 0 l
0.18 0 l
0.19 0 l
0.18 0 l
0.18 0 l
0.19 0 l
0.18 0 l
0.19 0 l
0.18 0 l
0.18 0 l
0.19 0 l
0.18 0 l
0.19 0 l
0.18 0 l
0.18 0 l
0.19 0 l
0.18 0 l
0.19 0 l
0.18 0 l
0.18 0 l
0.19 0 l
0.18 0 l
0.18 0 l
0.19 0 l
0.18 0 l
0.19 0 l
0.18 0 l
0.18 0 l
0.19 0 l
0.18 0 l
0.19 0 l
0.18 0 l
0.18 0 l
0.19 0 l
0.18 0 l
0.19 0 l
0.18 0 l
0.18 0 l
0.19 0 l
0.18 0 l
0.19 0 l
0.18 0 l
0.18 0 l
0.19 0 l
0.18 0 l
0.19 0 l
0.18 0 l
0.18 0 l
0.19 0 l
0.18 0 l
0.19 0 l
0.18 0 l
0.18 0 l
0.19 0 l
0.18 0 l
0.18 0 l
0.19 0 l
0.18 0 l
0.19 0 l
0.18 0 l
0.18 0 l
0.19 0 l
0.18 0 l
0.19 0 l
0.18 0 l
0.18 0 l
0.19 0 l
0.18 0 l
0.19 0 l
0.18 0 l
206.84 242.42 lineto
0.19 0 l
0.18 0 l
0.19 0 l
0.18 0 l
0.18 0 l
0.19 0 l
0.18 0 l
0.19 0 l
0.18 0 l
0.18 0 l
0.19 0 l
0.18 0 l
0.18 0 l
0.19 0 l
0.18 0 l
0.19 0 l
0.18 0 l
0.18 0 l
0.19 0 l
0.18 0 l
0.19 0 l
0.18 0 l
0.18 0 l
0.19 0 l
0.18 0 l
0.19 0 l
0.18 0 l
0.18 0 l
0.19 0 l
0.18 0 l
0.19 0 l
0.18 0 l
0.18 0 l
0.19 0 l
0.18 0 l
0.19 0 l
0.18 0 l
0.18 0 l
0.19 0 l
0.18 0 l
0.19 0 l
0.18 0 l
0.18 0 l
0.19 0 l
0.18 0 l
0.18 0 l
0.19 0 l
0.18 0 l
0.19 0 l
0.18 0 l
0.18 0 l
0.19 0 l
0.18 0 l
0.19 0 l
0.18 0 l
0.18 0 l
0.19 0 l
0.18 0 l
0.19 0 l
0.18 0 l
0.18 0 l
0.19 0 l
0.18 0 l
0.19 0 l
0.18 0 l
0.18 0 l
0.19 0 l
0.18 0 l
0.19 0 l
0.18 0 l
0.18 0 l
0.19 0 l
0.18 0 l
0.18 0 l
0.19 0 l
0.18 0 l
0.19 0 l
0.18 0 l
0.18 0 l
0.19 0 l
0.18 0 l
0.19 0 l
0.18 0 l
0.18 0 l
0.19 0 l
0.18 0 l
0.19 0 l
0.18 0 l
0.18 0 l
0.19 0 l
0.18 0 l
0.19 0 l
0.18 0 l
0.18 0 l
0.19 0 l
0.18 0 l
0.19 0 l
0.18 0 l
0.18 0 l
currentpoint o m
225.24 242.42 lineto
0.18 0 l
0.19 0 l
0.18 0 l
0.18 0 l
0.19 0 l
0.18 0 l
0.18 0 l
0.19 0 l
0.18 0 l
0.19 0 l
0.18 0 l
0.18 0 l
0.19 0 l
0.18 0 l
0.19 0 l
0.18 0 l
0.18 0 l
0.19 0 l
0.18 0 l
0.19 0 l
0.18 0 l
0.18 0 l
0.19 0 l
0.18 0 l
0.19 0 l
0.18 0 l
0.18 0 l
0.19 0 l
0.18 0 l
0.19 0 l
0.18 0 l
0.18 0 l
0.19 0 l
0.18 0 l
0.19 0 l
0.18 0 l
0.18 0 l
0.19 0 l
0.18 0 l
0.18 0 l
0.19 0 l
0.18 0 l
0.19 0 l
0.18 0 l
0.18 0 l
0.19 0 l
0.18 0 l
0.19 0 l
0.18 0 l
0.18 0 l
0.19 0 l
0.18 0 l
0.19 0 l
0.18 0 l
0.18 0 l
0.19 0 l
0.18 0 l
0.19 0 l
0.18 0 l
0.18 0 l
0.19 0 l
0.18 0 l
0.19 0 l
0.18 0 l
0.18 0 l
0.19 0 l
0.18 0 l
0.18 0 l
0.19 0 l
0.18 0 l
0.19 0 l
0.18 0 l
0.18 0 l
0.19 0 l
0.18 0 l
0.19 0 l
0.18 0 l
0.18 0 l
0.19 0 l
0.18 0 l
0.19 0 l
0.18 0 l
0.18 0 l
0.19 0 l
0.18 0 l
0.19 0 l
0.18 0 l
0.18 0 l
0.19 0 l
0.18 0 l
0.19 0 l
0.18 0 l
0.18 0 l
0.19 0 l
0.18 0 l
0.19 0 l
0.18 0 l
0.18 0 l
0.19 0 l
243.63 242.42 lineto
0.18 0 l
0.19 0 l
0.18 0 l
0.19 0 l
0.18 0 l
0.18 0 l
0.19 0 l
0.18 0 l
0.19 0 l
0.18 0 l
0.18 0 l
0.19 0 l
0.18 0 l
0.19 0 l
0.18 0 l
0.18 0 l
0.19 0 l
0.18 0 l
0.19 0 l
0.18 0 l
0.18 0 l
0.19 0 l
0.18 0 l
0.19 0 l
0.18 0 l
0.18 0 l
0.19 0 l
0.18 0 l
0.18 0 l
0.19 0 l
0.18 0 l
0.19 0 l
0.18 0 l
0.18 0 l
0.19 0 l
0.18 0 l
0.19 0 l
0.18 0 l
0.18 0 l
0.19 0 l
0.18 0 l
0.19 0 l
0.18 0 l
0.18 0 l
0.19 0 l
0.18 0 l
0.19 0 l
0.18 0 l
0.18 0 l
0.19 0 l
0.18 0 l
0.19 0 l
0.18 0 l
0.18 0 l
0.19 0 l
0.18 0 l
0.19 0 l
0.18 0 l
0.18 0 l
0.19 0 l
0.18 0 l
0.18 0 l
0.19 0 l
0.18 0 l
0.19 0 l
0.18 0 l
0.18 0 l
0.19 0 l
0.18 0 l
0.19 0 l
0.18 0 l
0.18 0 l
0.19 0 l
0.18 0 l
0.19 0 l
0.18 0 l
0.18 0 l
0.19 0 l
0.18 0 l
0.19 0 l
0.18 0 l
0.18 0 l
0.19 0 l
0.18 0 l
0.19 0 l
0.18 0 l
0.18 0 l
0.19 0 l
0.18 0 l
0.18 0 l
0.19 0 l
0.18 0 l
0.19 0 l
0.18 0 l
0.18 0 l
0.19 0 l
0.18 0 l
0.19 0 l
0.18 0 l
262.02 242.42 lineto
0.19 0 l
0.18 0 l
0.19 0 l
0.18 0 l
0.18 0 l
0.19 0 l
0.18 0 l
0.19 0 l
0.18 0 l
0.18 0 l
0.19 0 l
0.18 0 l
0.19 0 l
0.18 0 l
0.18 0 l
0.19 0 l
0.18 0 l
0.19 0 l
0.18 0 l
0.18 0 l
0.19 0 l
0.18 0 l
0.18 0 l
0.19 0 l
0.18 0 l
0.19 0 l
0.18 0 l
0.18 0 l
0.19 0 l
0.18 0 l
0.19 0 l
0.18 0 l
0.18 0 l
0.19 0 l
0.18 0 l
0.19 0 l
0.18 0 l
0.18 0 l
0.19 0 l
0.18 0 l
0.19 0 l
0.18 0 l
0.18 0 l
0.19 0 l
0.18 0 l
0.19 0 l
0.18 0 l
0.18 0 l
0.19 0 l
0.18 0 l
0.18 0 l
0.19 0 l
0.18 0 l
0.19 0 l
0.18 0 l
0.18 0 l
0.19 0 l
0.18 0 l
0.19 0 l
0.18 0 l
0.18 0 l
0.19 0 l
0.18 0 l
0.19 0 l
0.18 0 l
0.18 0 l
0.19 0 l
0.18 0 l
0.19 0 l
0.18 0 l
0.18 0 l
0.19 0 l
0.18 0 l
0.19 0 l
0.18 0 l
0.18 0 l
0.19 0 l
0.18 0 l
0.19 0 l
0.18 0 l
0.18 0 l
0.19 0 l
0.18 0 l
0.18 0 l
0.19 0 l
0.18 0 l
0.19 0 l
0.18 0 l
0.18 0 l
0.19 0 l
0.18 0 l
0.19 0 l
0.18 0 l
0.18 0 l
0.19 0 l
0.18 0 l
0.19 0 l
0.18 0 l
0.18 0 l
280.42 242.42 lineto
0.18 0 l
0.19 0 l
0.18 0 l
0.18 0 l
0.19 0 l
0.18 0 l
0.19 0 l
0.18 0 l
0.18 0 l
0.19 0 l
0.18 0 l
0.18 0 l
0.19 0 l
0.18 0 l
0.19 0 l
0.18 0 l
0.18 0 l
0.19 0 l
0.18 0 l
0.19 0 l
0.18 0 l
0.18 0 l
0.19 0 l
0.18 0 l
0.19 0 l
0.18 0 l
0.18 0 l
0.19 0 l
0.18 0 l
0.19 0 l
0.18 0 l
0.18 0 l
0.19 0 l
0.18 0 l
0.19 0 l
0.18 0 l
0.18 0 l
0.19 0 l
0.18 0 l
0.19 0 l
0.18 0 l
0.18 0 l
0.19 0 l
0.18 0 l
0.18 0 l
0.19 0 l
0.18 0 l
0.19 0 l
0.18 0 l
0.18 0 l
0.19 0 l
0.18 0 l
0.19 0 l
0.18 0 l
0.18 0 l
0.19 0 l
0.18 0 l
0.19 0 l
0.18 0 l
0.18 0 l
0.19 0 l
0.18 0 l
0.19 0 l
0.18 0 l
0.18 0 l
0.19 0 l
0.18 0 l
0.19 0 l
0.18 0 l
0.18 0 l
0.19 0 l
0.18 0 l
0.18 0 l
0.19 0 l
0.18 0 l
0.19 0 l
0.18 0 l
0.18 0 l
0.19 0 l
0.18 0 l
0.19 0 l
0.18 0 l
0.18 0 l
0.19 0 l
0.18 0 l
0.19 0 l
0.18 0 l
0.18 0 l
0.19 0 l
0.18 0 l
0.19 0 l
0.18 0 l
0.18 0 l
0.19 0 l
0.18 0 l
0.19 0 l
0.18 0 l
0.18 0 l
0.19 0 l
298.81 242.42 lineto
0.19 0 l
0.18 0 l
0.18 0 l
0.19 0 l
0.18 0 l
0.18 0 l
0.19 0 l
0.18 0 l
0.19 0 l
0.18 0 l
0.18 0 l
0.19 0 l
0.18 0 l
0.19 0 l
0.18 0 l
0.18 0 l
0.19 0 l
0.18 0 l
0.19 0 l
0.18 0 l
0.18 0 l
0.19 0 l
0.18 0 l
0.19 0 l
0.18 0 l
0.18 0 l
0.19 0 l
0.18 0 l
0.19 0 l
0.18 0 l
0.18 0 l
0.19 0 l
0.18 0 l
0.19 0 l
0.18 0 l
0.18 0 l
0.19 0 l
0.18 0 l
0.18 0 l
0.19 0 l
0.18 0 l
0.19 0 l
0.18 0 l
0.18 0 l
0.19 0 l
0.18 0 l
0.19 0 l
0.18 0 l
0.18 0 l
0.19 0 l
0.18 0 l
0.19 0 l
0.18 0 l
0.18 0 l
0.19 0 l
0.18 0 l
0.19 0 l
0.18 0 l
0.18 0 l
0.19 0 l
0.18 0 l
0.19 0 l
0.18 0 l
0.18 0 l
0.19 0 l
0.18 0 l
0.18 0 l
0.19 0 l
0.18 0 l
0.19 0 l
0.18 0 l
0.18 0 l
0.19 0 l
0.18 0 l
0.19 0 l
0.18 0 l
0.18 0 l
0.19 0 l
0.18 0 l
0.19 0 l
0.18 0 l
0.18 0 l
0.19 0 l
0.18 0 l
0.19 0 l
0.18 0 l
0.18 0 l
0.19 0 l
0.18 0 l
0.19 0 l
0.18 0 l
0.18 0 l
0.19 0 l
0.18 0 l
0.19 0 l
0.18 0 l
0.18 0 l
0.19 0 l
0.18 0 l
o
0.5294 0.8078 0.9804 srgb
np
41.30 40.35 m
0.19 0 l
0.18 0 l
0.18 0 l
0.19 0 l
0.18 0 l
0.19 0 l
0.18 0 l
0.18 0 l
0.19 0 l
0.18 0 l
0.19 0 l
0.18 0 l
0.18 0 l
0.19 0 l
0.18 0 l
0.19 0 l
0.18 0 l
0.18 0 l
0.19 0 l
0.18 0 l
0.19 0.01 l
0.18 0.01 l
0.18 0.04 l
0.19 0.07 l
0.18 0.12 l
0.18 0.17 l
0.19 0.23 l
0.18 0.28 l
0.19 0.35 l
0.18 0.40 l
0.18 0.45 l
0.19 0.50 l
0.18 0.53 l
0.19 0.57 l
0.18 0.60 l
0.18 0.62 l
0.19 0.63 l
0.18 0.66 l
0.19 0.67 l
0.18 0.68 l
0.18 0.68 l
0.19 0.70 l
0.18 0.69 l
0.19 0.70 l
0.18 0.71 l
0.18 0.70 l
0.19 0.71 l
0.18 0.71 l
0.19 0.70 l
0.18 0.71 l
0.18 0.70 l
0.19 0.70 l
0.18 0.70 l
0.18 0.70 l
0.19 0.70 l
0.18 0.70 l
0.19 0.69 l
0.18 0.69 l
0.18 0.69 l
0.19 0.69 l
0.18 0.68 l
0.19 0.68 l
0.18 0.68 l
0.18 0.68 l
0.19 0.67 l
0.18 0.67 l
0.19 0.67 l
0.18 0.67 l
0.18 0.66 l
0.19 0.66 l
0.18 0.66 l
0.19 0.66 l
0.18 0.66 l
0.18 0.65 l
0.19 0.65 l
0.18 0.64 l
0.19 0.65 l
0.18 0.64 l
0.18 0.64 l
0.19 0.64 l
0.18 0.63 l
0.19 0.63 l
0.18 0.63 l
0.18 0.63 l
0.19 0.63 l
0.18 0.62 l
0.18 0.62 l
0.19 0.62 l
0.18 0.62 l
0.19 0.61 l
0.18 0.61 l
0.18 0.61 l
0.19 0.61 l
0.18 0.60 l
0.19 0.60 l
0.18 0.60 l
0.18 0.60 l
0.19 0.59 l
0.18 0.60 l
59.70 87.37 lineto
0.18 0.59 l
0.18 0.58 l
0.19 0.59 l
0.18 0.58 l
0.19 0.58 l
0.18 0.57 l
0.18 0.58 l
0.19 0.57 l
0.18 0.57 l
0.19 0.57 l
0.18 0.57 l
0.18 0.56 l
0.19 0.56 l
0.18 0.56 l
0.18 0.56 l
0.19 0.56 l
0.18 0.55 l
0.19 0.55 l
0.18 0.55 l
0.18 0.55 l
0.19 0.54 l
0.18 0.55 l
0.19 0.54 l
0.18 0.54 l
0.18 0.54 l
0.19 0.53 l
0.18 0.53 l
0.19 0.53 l
0.18 0.53 l
0.18 0.53 l
0.19 0.53 l
0.18 0.52 l
0.19 0.52 l
0.18 0.52 l
0.18 0.52 l
0.19 0.51 l
0.18 0.51 l
0.19 0.51 l
0.18 0.51 l
0.18 0.51 l
0.19 0.51 l
0.18 0.50 l
0.19 0.50 l
0.18 0.50 l
0.18 0.50 l
0.19 0.49 l
0.18 0.50 l
0.18 0.49 l
0.19 0.49 l
0.18 0.49 l
0.19 0.49 l
0.18 0.48 l
0.18 0.48 l
0.19 0.48 l
0.18 0.48 l
0.19 0.48 l
0.18 0.48 l
0.18 0.47 l
0.19 0.47 l
0.18 0.47 l
0.19 0.47 l
0.18 0.47 l
0.18 0.46 l
0.19 0.47 l
0.18 0.46 l
0.19 0.46 l
0.18 0.45 l
0.18 0.46 l
0.19 0.45 l
0.18 0.46 l
0.19 0.45 l
0.18 0.45 l
0.18 0.44 l
0.19 0.45 l
0.18 0.44 l
0.18 0.45 l
0.19 0.44 l
0.18 0.44 l
0.19 0.43 l
0.18 0.44 l
0.18 0.43 l
0.19 0.44 l
0.18 0.43 l
0.19 0.43 l
0.18 0.42 l
0.18 0.43 l
0.19 0.42 l
0.18 0.43 l
0.19 0.42 l
0.18 0.42 l
0.18 0.41 l
0.19 0.42 l
0.18 0.42 l
0.19 0.41 l
0.18 0.41 l
0.18 0.41 l
0.19 0.41 l
0.18 0.41 l
0.19 0.40 l
78.09 136.40 lineto
0.18 0.41 l
0.19 0.40 l
0.18 0.40 l
0.19 0.39 l
0.18 0.40 l
0.18 0.40 l
0.19 0.39 l
0.18 0.39 l
0.18 0.39 l
0.19 0.39 l
0.18 0.39 l
0.19 0.38 l
0.18 0.39 l
0.18 0.38 l
0.19 0.38 l
0.18 0.38 l
0.19 0.38 l
0.18 0.38 l
0.18 0.37 l
0.19 0.38 l
0.18 0.37 l
0.19 0.37 l
0.18 0.37 l
0.18 0.37 l
0.19 0.37 l
0.18 0.36 l
0.19 0.37 l
0.18 0.36 l
0.18 0.36 l
0.19 0.36 l
0.18 0.36 l
0.19 0.36 l
0.18 0.36 l
0.18 0.35 l
0.19 0.35 l
0.18 0.36 l
0.18 0.35 l
0.19 0.35 l
0.18 0.34 l
0.19 0.35 l
0.18 0.35 l
0.18 0.34 l
0.19 0.34 l
0.18 0.35 l
0.19 0.34 l
0.18 0.33 l
0.18 0.34 l
0.19 0.34 l
0.18 0.33 l
0.19 0.34 l
0.18 0.33 l
0.18 0.33 l
0.19 0.33 l
0.18 0.33 l
0.19 0.33 l
0.18 0.32 l
0.18 0.33 l
0.19 0.32 l
0.18 0.33 l
0.19 0.32 l
0.18 0.32 l
0.18 0.32 l
0.19 0.32 l
0.18 0.31 l
0.19 0.32 l
0.18 0.31 l
0.18 0.31 l
0.19 0.32 l
0.18 0.31 l
0.18 0.31 l
0.19 0.30 l
0.18 0.31 l
0.19 0.31 l
0.18 0.30 l
0.18 0.31 l
0.19 0.30 l
0.18 0.30 l
0.19 0.30 l
0.18 0.30 l
0.18 0.30 l
0.19 0.29 l
0.18 0.30 l
0.19 0.29 l
0.18 0.30 l
0.18 0.29 l
0.19 0.29 l
0.18 0.29 l
0.19 0.29 l
0.18 0.29 l
0.18 0.28 l
0.19 0.29 l
0.18 0.29 l
0.19 0.28 l
0.18 0.28 l
0.18 0.28 l
0.19 0.28 l
0.18 0.28 l
0.19 0.28 l
0.18 0.28 l
96.48 169.93 lineto
0.19 0.28 l
0.18 0.27 l
0.18 0.28 l
0.19 0.27 l
0.18 0.27 l
0.19 0.27 l
0.18 0.27 l
0.18 0.26 l
0.19 0.27 l
0.18 0.27 l
0.19 0.26 l
0.18 0.27 l
0.18 0.26 l
0.19 0.26 l
0.18 0.26 l
0.19 0.26 l
0.18 0.26 l
0.18 0.26 l
0.19 0.25 l
0.18 0.26 l
0.19 0.26 l
0.18 0.25 l
0.18 0.25 l
0.19 0.25 l
0.18 0.26 l
0.19 0.25 l
0.18 0.25 l
0.18 0.24 l
0.19 0.25 l
0.18 0.25 l
0.18 0.24 l
0.19 0.25 l
0.18 0.24 l
0.19 0.24 l
0.18 0.24 l
0.18 0.25 l
0.19 0.24 l
0.18 0.23 l
0.19 0.24 l
0.18 0.24 l
0.18 0.24 l
0.19 0.23 l
0.18 0.24 l
0.19 0.23 l
0.18 0.23 l
0.18 0.23 l
0.19 0.23 l
0.18 0.23 l
0.19 0.23 l
0.18 0.23 l
0.18 0.23 l
0.19 0.23 l
0.18 0.22 l
0.19 0.23 l
0.18 0.22 l
0.18 0.22 l
0.19 0.23 l
0.18 0.22 l
0.19 0.22 l
0.18 0.22 l
0.18 0.22 l
0.19 0.22 l
0.18 0.21 l
0.18 0.22 l
0.19 0.21 l
0.18 0.22 l
0.19 0.21 l
0.18 0.22 l
0.18 0.21 l
0.19 0.21 l
0.18 0.21 l
0.19 0.21 l
0.18 0.21 l
0.18 0.21 l
0.19 0.21 l
0.18 0.20 l
0.19 0.21 l
0.18 0.20 l
0.18 0.21 l
0.19 0.20 l
0.18 0.21 l
0.19 0.20 l
0.18 0.20 l
0.18 0.20 l
0.19 0.20 l
0.18 0.20 l
0.19 0.20 l
0.18 0.19 l
0.18 0.20 l
0.19 0.20 l
0.18 0.19 l
0.18 0.20 l
0.19 0.19 l
0.18 0.19 l
0.19 0.20 l
0.18 0.19 l
0.18 0.19 l
0.19 0.19 l
0.18 0.19 l
114.88 192.86 lineto
0.18 0.19 l
0.18 0.18 l
0.19 0.19 l
0.18 0.19 l
0.19 0.18 l
0.18 0.19 l
0.18 0.18 l
0.19 0.18 l
0.18 0.19 l
0.19 0.18 l
0.18 0.18 l
0.18 0.18 l
0.19 0.18 l
0.18 0.18 l
0.19 0.18 l
0.18 0.17 l
0.18 0.18 l
0.19 0.18 l
0.18 0.17 l
0.19 0.18 l
0.18 0.17 l
0.18 0.17 l
0.19 0.18 l
0.18 0.17 l
0.18 0.17 l
0.19 0.17 l
0.18 0.17 l
0.19 0.17 l
0.18 0.17 l
0.18 0.17 l
0.19 0.17 l
0.18 0.17 l
0.19 0.16 l
0.18 0.17 l
0.18 0.16 l
0.19 0.17 l
0.18 0.16 l
0.19 0.16 l
0.18 0.17 l
0.18 0.16 l
0.19 0.16 l
0.18 0.16 l
0.19 0.16 l
0.18 0.16 l
0.18 0.16 l
0.19 0.16 l
0.18 0.16 l
0.19 0.15 l
0.18 0.16 l
0.18 0.16 l
0.19 0.15 l
0.18 0.16 l
0.18 0.15 l
0.19 0.16 l
0.18 0.15 l
0.19 0.15 l
0.18 0.15 l
0.18 0.16 l
0.19 0.15 l
0.18 0.15 l
0.19 0.15 l
0.18 0.15 l
0.18 0.14 l
0.19 0.15 l
0.18 0.15 l
0.19 0.15 l
0.18 0.14 l
0.18 0.15 l
0.19 0.14 l
0.18 0.15 l
0.19 0.14 l
0.18 0.15 l
0.18 0.14 l
0.19 0.14 l
0.18 0.14 l
0.19 0.14 l
0.18 0.15 l
0.18 0.14 l
0.19 0.14 l
0.18 0.14 l
0.19 0.13 l
0.18 0.14 l
0.18 0.14 l
0.19 0.14 l
0.18 0.13 l
0.18 0.14 l
0.19 0.14 l
0.18 0.13 l
0.19 0.14 l
0.18 0.13 l
0.18 0.13 l
0.19 0.14 l
0.18 0.13 l
0.19 0.13 l
0.18 0.13 l
0.18 0.13 l
0.19 0.13 l
0.18 0.13 l
0.19 0.13 l
133.27 208.53 lineto
0.18 0.13 l
0.19 0.13 l
0.18 0.13 l
0.19 0.12 l
0.18 0.13 l
0.18 0.13 l
0.19 0.12 l
0.18 0.13 l
0.19 0.12 l
0.18 0.13 l
0.18 0.12 l
0.19 0.12 l
0.18 0.13 l
0.18 0.12 l
0.19 0.12 l
0.18 0.12 l
0.19 0.12 l
0.18 0.12 l
0.18 0.12 l
0.19 0.12 l
0.18 0.12 l
0.19 0.12 l
0.18 0.12 l
0.18 0.12 l
0.19 0.11 l
0.18 0.12 l
0.19 0.12 l
0.18 0.11 l
0.18 0.12 l
0.19 0.11 l
0.18 0.12 l
0.19 0.11 l
0.18 0.12 l
0.18 0.11 l
0.19 0.11 l
0.18 0.12 l
0.19 0.11 l
0.18 0.11 l
0.18 0.11 l
0.19 0.11 l
0.18 0.11 l
0.19 0.11 l
0.18 0.11 l
0.18 0.11 l
0.19 0.11 l
0.18 0.11 l
0.18 0.11 l
0.19 0.10 l
0.18 0.11 l
0.19 0.11 l
0.18 0.10 l
0.18 0.11 l
0.19 0.11 l
0.18 0.10 l
0.19 0.11 l
0.18 0.10 l
0.18 0.10 l
0.19 0.11 l
0.18 0.10 l
0.19 0.10 l
0.18 0.11 l
0.18 0.10 l
0.19 0.10 l
0.18 0.10 l
0.19 0.10 l
0.18 0.10 l
0.18 0.10 l
0.19 0.10 l
0.18 0.10 l
0.19 0.10 l
0.18 0.10 l
0.18 0.10 l
0.19 0.09 l
0.18 0.10 l
0.18 0.10 l
0.19 0.10 l
0.18 0.09 l
0.19 0.10 l
0.18 0.09 l
0.18 0.10 l
0.19 0.09 l
0.18 0.10 l
0.19 0.09 l
0.18 0.10 l
0.18 0.09 l
0.19 0.09 l
0.18 0.10 l
0.19 0.09 l
0.18 0.09 l
0.18 0.09 l
0.19 0.09 l
0.18 0.09 l
0.19 0.09 l
0.18 0.09 l
0.18 0.09 l
0.19 0.09 l
0.18 0.09 l
0.19 0.09 l
0.18 0.09 l
151.66 219.25 lineto
0.19 0.09 l
0.18 0.08 l
0.19 0.09 l
0.18 0.09 l
0.18 0.09 l
0.19 0.08 l
0.18 0.09 l
0.18 0.08 l
0.19 0.09 l
0.18 0.08 l
0.19 0.09 l
0.18 0.08 l
0.18 0.09 l
0.19 0.08 l
0.18 0.08 l
0.19 0.09 l
0.18 0.08 l
0.18 0.08 l
0.19 0.08 l
0.18 0.09 l
0.19 0.08 l
0.18 0.08 l
0.18 0.08 l
0.19 0.08 l
0.18 0.08 l
0.19 0.08 l
0.18 0.08 l
0.18 0.08 l
0.19 0.08 l
0.18 0.08 l
0.19 0.07 l
0.18 0.08 l
0.18 0.08 l
0.19 0.08 l
0.18 0.08 l
0.18 0.07 l
0.19 0.08 l
0.18 0.08 l
0.19 0.07 l
0.18 0.08 l
0.18 0.07 l
0.19 0.08 l
0.18 0.07 l
0.19 0.08 l
0.18 0.07 l
0.18 0.08 l
0.19 0.07 l
0.18 0.07 l
0.19 0.08 l
0.18 0.07 l
0.18 0.07 l
0.19 0.08 l
0.18 0.07 l
0.19 0.07 l
0.18 0.07 l
0.18 0.07 l
0.19 0.07 l
0.18 0.07 l
0.19 0.07 l
0.18 0.07 l
0.18 0.07 l
0.19 0.07 l
0.18 0.07 l
0.19 0.07 l
0.18 0.07 l
0.18 0.07 l
0.19 0.07 l
0.18 0.07 l
0.18 0.06 l
0.19 0.07 l
0.18 0.07 l
0.19 0.07 l
0.18 0.06 l
0.18 0.07 l
0.19 0.07 l
0.18 0.06 l
0.19 0.07 l
0.18 0.06 l
0.18 0.07 l
0.19 0.06 l
0.18 0.07 l
0.19 0.06 l
0.18 0.07 l
0.18 0.06 l
0.19 0.07 l
0.18 0.06 l
0.19 0.06 l
0.18 0.07 l
0.18 0.06 l
0.19 0.06 l
0.18 0.07 l
0.19 0.06 l
0.18 0.06 l
0.18 0.06 l
0.19 0.06 l
0.18 0.06 l
0.19 0.06 l
0.18 0.07 l
0.18 0.06 l
170.06 226.58 lineto
0.18 0.06 l
0.18 0.06 l
0.19 0.06 l
0.18 0.06 l
0.19 0.05 l
0.18 0.06 l
0.18 0.06 l
0.19 0.06 l
0.18 0.06 l
0.19 0.06 l
0.18 0.06 l
0.18 0.05 l
0.19 0.06 l
0.18 0.06 l
0.19 0.05 l
0.18 0.06 l
0.18 0.06 l
0.19 0.05 l
0.18 0.06 l
0.19 0.06 l
0.18 0.05 l
0.18 0.06 l
0.19 0.05 l
0.18 0.06 l
0.19 0.05 l
0.18 0.06 l
0.18 0.05 l
0.19 0.06 l
0.18 0.05 l
0.18 0.05 l
0.19 0.06 l
0.18 0.05 l
0.19 0.05 l
0.18 0.06 l
0.18 0.05 l
0.19 0.05 l
0.18 0.06 l
0.19 0.05 l
0.18 0.05 l
0.18 0.05 l
0.19 0.05 l
0.18 0.05 l
0.19 0.06 l
0.18 0.05 l
0.18 0.05 l
0.19 0.05 l
0.18 0.05 l
0.19 0.05 l
0.18 0.05 l
0.18 0.05 l
0.19 0.05 l
0.18 0.05 l
0.19 0.05 l
0.18 0.05 l
0.18 0.05 l
0.19 0.04 l
0.18 0.05 l
0.19 0.05 l
0.18 0.05 l
0.18 0.05 l
0.19 0.05 l
0.18 0.04 l
0.18 0.05 l
0.19 0.05 l
0.18 0.04 l
0.19 0.05 l
0.18 0.05 l
0.18 0.05 l
0.19 0.04 l
0.18 0.05 l
0.19 0.04 l
0.18 0.05 l
0.18 0.05 l
0.19 0.04 l
0.18 0.05 l
0.19 0.04 l
0.18 0.05 l
0.18 0.04 l
0.19 0.05 l
0.18 0.04 l
0.19 0.05 l
0.18 0.04 l
0.18 0.04 l
0.19 0.05 l
0.18 0.04 l
0.19 0.04 l
0.18 0.05 l
0.18 0.04 l
0.19 0.04 l
0.18 0.05 l
0.18 0.04 l
0.19 0.04 l
0.18 0.04 l
0.19 0.05 l
0.18 0.04 l
0.18 0.04 l
0.19 0.04 l
0.18 0.04 l
0.19 0.05 l
188.45 231.59 lineto
0.18 0.04 l
0.19 0.04 l
0.18 0.04 l
0.19 0.04 l
0.18 0.04 l
0.18 0.04 l
0.19 0.04 l
0.18 0.04 l
0.19 0.04 l
0.18 0.04 l
0.18 0.04 l
0.19 0.04 l
0.18 0.04 l
0.19 0.04 l
0.18 0.04 l
0.18 0.04 l
0.19 0.03 l
0.18 0.04 l
0.19 0.04 l
0.18 0.04 l
0.18 0.04 l
0.19 0.04 l
0.18 0.03 l
0.18 0.04 l
0.19 0.04 l
0.18 0.04 l
0.19 0.03 l
0.18 0.04 l
0.18 0.04 l
0.19 0.03 l
0.18 0.04 l
0.19 0.04 l
0.18 0.03 l
0.18 0.04 l
0.19 0.04 l
0.18 0.03 l
0.19 0.04 l
0.18 0.03 l
0.18 0.04 l
0.19 0.03 l
0.18 0.04 l
0.19 0.03 l
0.18 0.04 l
0.18 0.03 l
0.19 0.04 l
0.18 0.03 l
0.19 0.04 l
0.18 0.03 l
0.18 0.04 l
0.19 0.03 l
0.18 0.04 l
0.18 0.03 l
0.19 0.03 l
0.18 0.04 l
0.19 0.03 l
0.18 0.03 l
0.18 0.04 l
0.19 0.03 l
0.18 0.03 l
0.19 0.04 l
0.18 0.03 l
0.18 0.03 l
0.19 0.03 l
0.18 0.04 l
0.19 0.03 l
0.18 0.03 l
0.18 0.03 l
0.19 0.03 l
0.18 0.04 l
0.19 0.03 l
0.18 0.03 l
0.18 0.03 l
0.19 0.03 l
0.18 0.03 l
0.19 0.03 l
0.18 0.03 l
0.18 0.04 l
0.19 0.03 l
0.18 0.03 l
0.19 0.03 l
0.18 0.03 l
0.18 0.03 l
0.19 0.03 l
0.18 0.03 l
0.18 0.03 l
0.19 0.03 l
0.18 0.03 l
0.19 0.03 l
0.18 0.03 l
0.18 0.02 l
0.19 0.03 l
0.18 0.03 l
0.19 0.03 l
0.18 0.03 l
0.18 0.03 l
0.19 0.03 l
0.18 0.03 l
0.19 0.03 l
0.18 0.02 l
206.84 235.01 lineto
0.19 0.03 l
0.18 0.03 l
0.19 0.03 l
0.18 0.02 l
0.18 0.03 l
0.19 0.03 l
0.18 0.03 l
0.19 0.02 l
0.18 0.03 l
0.18 0.03 l
0.19 0.03 l
0.18 0.02 l
0.18 0.03 l
0.19 0.03 l
0.18 0.02 l
0.19 0.03 l
0.18 0.03 l
0.18 0.02 l
0.19 0.03 l
0.18 0.02 l
0.19 0.03 l
0.18 0.03 l
0.18 0.02 l
0.19 0.03 l
0.18 0.02 l
0.19 0.03 l
0.18 0.02 l
0.18 0.03 l
0.19 0.02 l
0.18 0.03 l
0.19 0.03 l
0.18 0.02 l
0.18 0.03 l
0.19 0.02 l
0.18 0.02 l
0.19 0.03 l
0.18 0.02 l
0.18 0.03 l
0.19 0.02 l
0.18 0.03 l
0.19 0.02 l
0.18 0.02 l
0.18 0.03 l
0.19 0.02 l
0.18 0.03 l
0.18 0.02 l
0.19 0.02 l
0.18 0.03 l
0.19 0.02 l
0.18 0.02 l
0.18 0.03 l
0.19 0.02 l
0.18 0.02 l
0.19 0.03 l
0.18 0.02 l
0.18 0.02 l
0.19 0.02 l
0.18 0.03 l
0.19 0.02 l
0.18 0.02 l
0.18 0.02 l
0.19 0.03 l
0.18 0.02 l
0.19 0.02 l
0.18 0.02 l
0.18 0.03 l
0.19 0.02 l
0.18 0.02 l
0.19 0.02 l
0.18 0.02 l
0.18 0.02 l
0.19 0.03 l
0.18 0.02 l
0.18 0.02 l
0.19 0.02 l
0.18 0.02 l
0.19 0.02 l
0.18 0.02 l
0.18 0.02 l
0.19 0.02 l
0.18 0.02 l
0.19 0.03 l
0.18 0.02 l
0.18 0.02 l
0.19 0.02 l
0.18 0.02 l
0.19 0.02 l
0.18 0.02 l
0.18 0.02 l
0.19 0.02 l
0.18 0.02 l
0.19 0.02 l
0.18 0.02 l
0.18 0.02 l
0.19 0.02 l
0.18 0.02 l
0.19 0.02 l
0.18 0.02 l
0.18 0.01 l
currentpoint o m
225.24 237.35 lineto
0.18 0.02 l
0.19 0.02 l
0.18 0.02 l
0.18 0.02 l
0.19 0.02 l
0.18 0.02 l
0.18 0.02 l
0.19 0.02 l
0.18 0.01 l
0.19 0.02 l
0.18 0.02 l
0.18 0.02 l
0.19 0.02 l
0.18 0.02 l
0.19 0.01 l
0.18 0.02 l
0.18 0.02 l
0.19 0.02 l
0.18 0.02 l
0.19 0.01 l
0.18 0.02 l
0.18 0.02 l
0.19 0.02 l
0.18 0.02 l
0.19 0.01 l
0.18 0.02 l
0.18 0.02 l
0.19 0.02 l
0.18 0.01 l
0.19 0.02 l
0.18 0.02 l
0.18 0.01 l
0.19 0.02 l
0.18 0.02 l
0.19 0.01 l
0.18 0.02 l
0.18 0.02 l
0.19 0.02 l
0.18 0.01 l
0.18 0.02 l
0.19 0.01 l
0.18 0.02 l
0.19 0.02 l
0.18 0.01 l
0.18 0.02 l
0.19 0.02 l
0.18 0.01 l
0.19 0.02 l
0.18 0.01 l
0.18 0.02 l
0.19 0.02 l
0.18 0.01 l
0.19 0.02 l
0.18 0.01 l
0.18 0.02 l
0.19 0.01 l
0.18 0.02 l
0.19 0.02 l
0.18 0.01 l
0.18 0.02 l
0.19 0.01 l
0.18 0.02 l
0.19 0.01 l
0.18 0.02 l
0.18 0.01 l
0.19 0.02 l
0.18 0.01 l
0.18 0.02 l
0.19 0.01 l
0.18 0.02 l
0.19 0.01 l
0.18 0.02 l
0.18 0.01 l
0.19 0.02 l
0.18 0.01 l
0.19 0.01 l
0.18 0.02 l
0.18 0.01 l
0.19 0.02 l
0.18 0.01 l
0.19 0.02 l
0.18 0.01 l
0.18 0.01 l
0.19 0.02 l
0.18 0.01 l
0.19 0.02 l
0.18 0.01 l
0.18 0.01 l
0.19 0.02 l
0.18 0.01 l
0.19 0.01 l
0.18 0.02 l
0.18 0.01 l
0.19 0.02 l
0.18 0.01 l
0.19 0.01 l
0.18 0.02 l
0.18 0.01 l
0.19 0.01 l
243.63 238.96 lineto
0.18 0.01 l
0.19 0.01 l
0.18 0.01 l
0.19 0.02 l
0.18 0.01 l
0.18 0.01 l
0.19 0.02 l
0.18 0.01 l
0.19 0.01 l
0.18 0.01 l
0.18 0.02 l
0.19 0.01 l
0.18 0.01 l
0.19 0.01 l
0.18 0.02 l
0.18 0.01 l
0.19 0.01 l
0.18 0.01 l
0.19 0.02 l
0.18 0.01 l
0.18 0.01 l
0.19 0.01 l
0.18 0.02 l
0.19 0.01 l
0.18 0.01 l
0.18 0.01 l
0.19 0.01 l
0.18 0.01 l
0.18 0.02 l
0.19 0.01 l
0.18 0.01 l
0.19 0.01 l
0.18 0.01 l
0.18 0.02 l
0.19 0.01 l
0.18 0.01 l
0.19 0.01 l
0.18 0.01 l
0.18 0.01 l
0.19 0.01 l
0.18 0.01 l
0.19 0.02 l
0.18 0.01 l
0.18 0.01 l
0.19 0.01 l
0.18 0.01 l
0.19 0.01 l
0.18 0.01 l
0.18 0.01 l
0.19 0.01 l
0.18 0.02 l
0.19 0.01 l
0.18 0.01 l
0.18 0.01 l
0.19 0.01 l
0.18 0.01 l
0.19 0.01 l
0.18 0.01 l
0.18 0.01 l
0.19 0.01 l
0.18 0.01 l
0.18 0.01 l
0.19 0.01 l
0.18 0.01 l
0.19 0.01 l
0.18 0.01 l
0.18 0.01 l
0.19 0.01 l
0.18 0.01 l
0.19 0.01 l
0.18 0.01 l
0.18 0.01 l
0.19 0.01 l
0.18 0.01 l
0.19 0.01 l
0.18 0.01 l
0.18 0.01 l
0.19 0.01 l
0.18 0.01 l
0.19 0.01 l
0.18 0.01 l
0.18 0.01 l
0.19 0.01 l
0.18 0.01 l
0.19 0.01 l
0.18 0.01 l
0.18 0.01 l
0.19 0.01 l
0.18 0.01 l
0.18 0.01 l
0.19 0.01 l
0.18 0.01 l
0.19 0.01 l
0.18 0.01 l
0.18 0 l
0.19 0.01 l
0.18 0.01 l
0.19 0.01 l
0.18 0.01 l
262.02 240.05 lineto
0.19 0.01 l
0.18 0.01 l
0.19 0.01 l
0.18 0.01 l
0.18 0 l
0.19 0.01 l
0.18 0.01 l
0.19 0.01 l
0.18 0.01 l
0.18 0.01 l
0.19 0.01 l
0.18 0.01 l
0.19 0 l
0.18 0.01 l
0.18 0.01 l
0.19 0.01 l
0.18 0.01 l
0.19 0.01 l
0.18 0.01 l
0.18 0 l
0.19 0.01 l
0.18 0.01 l
0.18 0.01 l
0.19 0.01 l
0.18 0 l
0.19 0.01 l
0.18 0.01 l
0.18 0.01 l
0.19 0.01 l
0.18 0.01 l
0.19 0 l
0.18 0.01 l
0.18 0.01 l
0.19 0.01 l
0.18 0.01 l
0.19 0 l
0.18 0.01 l
0.18 0.01 l
0.19 0.01 l
0.18 0 l
0.19 0.01 l
0.18 0.01 l
0.18 0.01 l
0.19 0 l
0.18 0.01 l
0.19 0.01 l
0.18 0.01 l
0.18 0 l
0.19 0.01 l
0.18 0.01 l
0.18 0.01 l
0.19 0 l
0.18 0.01 l
0.19 0.01 l
0.18 0.01 l
0.18 0 l
0.19 0.01 l
0.18 0.01 l
0.19 0.01 l
0.18 0 l
0.18 0.01 l
0.19 0.01 l
0.18 0 l
0.19 0.01 l
0.18 0.01 l
0.18 0.01 l
0.19 0 l
0.18 0.01 l
0.19 0.01 l
0.18 0 l
0.18 0.01 l
0.19 0.01 l
0.18 0 l
0.19 0.01 l
0.18 0.01 l
0.18 0 l
0.19 0.01 l
0.18 0.01 l
0.19 0 l
0.18 0.01 l
0.18 0.01 l
0.19 0 l
0.18 0.01 l
0.18 0.01 l
0.19 0 l
0.18 0.01 l
0.19 0.01 l
0.18 0 l
0.18 0.01 l
0.19 0.01 l
0.18 0 l
0.19 0.01 l
0.18 0.01 l
0.18 0 l
0.19 0.01 l
0.18 0 l
0.19 0.01 l
0.18 0.01 l
0.18 0 l
280.42 240.80 lineto
0.18 0 l
0.19 0.01 l
0.18 0.01 l
0.18 0 l
0.19 0.01 l
0.18 0.01 l
0.19 0 l
0.18 0.01 l
0.18 0 l
0.19 0.01 l
0.18 0.01 l
0.18 0 l
0.19 0.01 l
0.18 0 l
0.19 0.01 l
0.18 0 l
0.18 0.01 l
0.19 0.01 l
0.18 0 l
0.19 0.01 l
0.18 0 l
0.18 0.01 l
0.19 0 l
0.18 0.01 l
0.19 0.01 l
0.18 0 l
0.18 0.01 l
0.19 0 l
0.18 0.01 l
0.19 0 l
0.18 0.01 l
0.18 0 l
0.19 0.01 l
0.18 0.01 l
0.19 0 l
0.18 0.01 l
0.18 0 l
0.19 0.01 l
0.18 0 l
0.19 0.01 l
0.18 0 l
0.18 0.01 l
0.19 0 l
0.18 0.01 l
0.18 0 l
0.19 0.01 l
0.18 0 l
0.19 0.01 l
0.18 0 l
0.18 0.01 l
0.19 0 l
0.18 0.01 l
0.19 0 l
0.18 0.01 l
0.18 0 l
0.19 0.01 l
0.18 0 l
0.19 0.01 l
0.18 0 l
0.18 0.01 l
0.19 0 l
0.18 0.01 l
0.19 0 l
0.18 0.01 l
0.18 0 l
0.19 0.01 l
0.18 0 l
0.19 0.01 l
0.18 0 l
0.18 0.01 l
0.19 0 l
0.18 0.01 l
0.18 0 l
0.19 0.01 l
0.18 0 l
0.19 0 l
0.18 0.01 l
0.18 0 l
0.19 0.01 l
0.18 0 l
0.19 0.01 l
0.18 0 l
0.18 0.01 l
0.19 0 l
0.18 0.01 l
0.19 0 l
0.18 0 l
0.18 0.01 l
0.19 0 l
0.18 0.01 l
0.19 0 l
0.18 0.01 l
0.18 0 l
0.19 0.01 l
0.18 0 l
0.19 0 l
0.18 0.01 l
0.18 0 l
0.19 0.01 l
298.81 241.31 lineto
0.19 0 l
0.18 0.01 l
0.18 0 l
0.19 0.01 l
0.18 0 l
0.18 0.01 l
0.19 0 l
0.18 0 l
0.19 0.01 l
0.18 0 l
0.18 0.01 l
0.19 0 l
0.18 0 l
0.19 0.01 l
0.18 0 l
0.18 0.01 l
0.19 0 l
0.18 0 l
0.19 0.01 l
0.18 0 l
0.18 0.01 l
0.19 0 l
0.18 0 l
0.19 0.01 l
0.18 0 l
0.18 0 l
0.19 0.01 l
0.18 0 l
0.19 0.01 l
0.18 0 l
0.18 0 l
0.19 0.01 l
0.18 0 l
0.19 0 l
0.18 0.01 l
0.18 0 l
0.19 0.01 l
0.18 0 l
0.18 0 l
0.19 0.01 l
0.18 0 l
0.19 0 l
0.18 0.01 l
0.18 0 l
0.19 0 l
0.18 0.01 l
0.19 0 l
0.18 0.01 l
0.18 0 l
0.19 0 l
0.18 0.01 l
0.19 0 l
0.18 0 l
0.18 0.01 l
0.19 0 l
0.18 0 l
0.19 0.01 l
0.18 0 l
0.18 0 l
0.19 0.01 l
0.18 0 l
0.19 0 l
0.18 0.01 l
0.18 0 l
0.19 0 l
0.18 0.01 l
0.18 0 l
0.19 0 l
0.18 0.01 l
0.19 0 l
0.18 0 l
0.18 0.01 l
0.19 0 l
0.18 0 l
0.19 0.01 l
0.18 0 l
0.18 0 l
0.19 0 l
0.18 0.01 l
0.19 0 l
0.18 0 l
0.18 0.01 l
0.19 0 l
0.18 0 l
0.19 0.01 l
0.18 0 l
0.18 0 l
0.19 0.01 l
0.18 0 l
0.19 0 l
0.18 0 l
0.18 0.01 l
0.19 0 l
0.18 0 l
0.19 0.01 l
0.18 0 l
0.18 0 l
0.19 0 l
0.18 0.01 l
o
0.00 0.00 322.50 258.00 cl
0.00 0.00 322.50 258.00 cl
0.00 0.00 322.50 258.00 cl
0.00 0.00 322.50 258.00 cl
0.00 0.00 322.50 258.00 cl
0.00 0.00 322.50 258.00 cl
0.00 0.00 322.50 258.00 cl
0.00 0.00 322.50 258.00 cl
0.00 0.00 322.50 258.00 cl
0.00 0.00 322.50 258.00 cl
0.00 0.00 322.50 258.00 cl
0.00 0.00 322.50 258.00 cl
0.00 0.00 322.50 258.00 cl
0.00 0.00 322.50 258.00 cl
0.00 0.00 322.50 258.00 cl
0.00 0.00 322.50 258.00 cl
/Font1 findfont 9 s
0.3020 0.3020 0.3020 srgb
36.37 37.12 (0.00) 1 0 t
36.37 87.64 (0.25) 1 0 t
36.37 138.15 (0.50) 1 0 t
36.37 188.67 (0.75) 1 0 t
36.37 239.19 (1.00) 1 0 t
0.00 0.00 322.50 258.00 cl
0.00 0.00 322.50 258.00 cl
0.2000 0.2000 0.2000 srgb
1.07 setlinewidth
[] 0 setdash
0 setlinecap
1 setlinejoin
10.00 setmiterlimit
np
38.56 40.35 m
2.74 0 l
o
np
38.56 90.87 m
2.74 0 l
o
np
38.56 141.39 m
2.74 0 l
o
np
38.56 191.90 m
2.74 0 l
o
np
38.56 242.42 m
2.74 0 l
o
0.00 0.00 322.50 258.00 cl
0.00 0.00 322.50 258.00 cl
0.00 0.00 322.50 258.00 cl
0.00 0.00 322.50 258.00 cl
0.00 0.00 322.50 258.00 cl
0.00 0.00 322.50 258.00 cl
0.00 0.00 322.50 258.00 cl
0.00 0.00 322.50 258.00 cl
0.00 0.00 322.50 258.00 cl
0.00 0.00 322.50 258.00 cl
0.2000 0.2000 0.2000 srgb
1.07 setlinewidth
[] 0 setdash
0 setlinecap
1 setlinejoin
10.00 setmiterlimit
np
44.03 27.51 m
0 2.74 l
o
np
112.28 27.51 m
0 2.74 l
o
np
180.53 27.51 m
0 2.74 l
o
np
248.77 27.51 m
0 2.74 l
o
np
317.02 27.51 m
0 2.74 l
o
0.00 0.00 322.50 258.00 cl
0.00 0.00 322.50 258.00 cl
/Font1 findfont 9 s
0.3020 0.3020 0.3020 srgb
44.03 18.86 (0.00) .5 0 t
112.28 18.86 (0.25) .5 0 t
180.53 18.86 (0.50) .5 0 t
248.77 18.86 (0.75) .5 0 t
317.02 18.86 (1.00) .5 0 t
0.00 0.00 322.50 258.00 cl
0.00 0.00 322.50 258.00 cl
0.00 0.00 322.50 258.00 cl
0.00 0.00 322.50 258.00 cl
0.00 0.00 322.50 258.00 cl
0.00 0.00 322.50 258.00 cl
/Font1 findfont 11 s
0 0 0 srgb
179.16 5.48 (time) .5 0 t
0.00 0.00 322.50 258.00 cl
0.00 0.00 322.50 258.00 cl
/Font1 findfont 11 s
0 0 0 srgb
13.38 141.39 (V) .5 90 t
0.00 0.00 322.50 258.00 cl
0.00 0.00 322.50 258.00 cl
0.00 0.00 322.50 258.00 cl
0.00 0.00 322.50 258.00 cl
0.00 0.00 322.50 258.00 cl
0.00 0.00 322.50 258.00 cl
0.00 0.00 322.50 258.00 cl
0.00 0.00 322.50 258.00 cl
/bg { 1 1 1 srgb } def
218.33 166.22 87.09 61.47 r p2
0.00 0.00 322.50 258.00 cl
0.00 0.00 322.50 258.00 cl
/Font1 findfont 11 s
0 0 0 srgb
224.00 213.52 (Order of la) 0 ta
-0.330 (y) tb
-0.220 (ers:) tb gr
0.00 0.00 322.50 258.00 cl
0.00 0.00 322.50 258.00 cl
/bg { 0.9490 0.9490 0.9490 srgb } def
1 1 1 srgb
1.07 setlinewidth
[] 0 setdash
1 setlinecap
1 setlinejoin
10.00 setmiterlimit
224.00 189.17 17.28 17.28 r p3
0.00 0.00 322.50 258.00 cl
0.00 0.00 322.50 258.00 cl
0.9569 0.6431 0.3765 srgb
2.35 setlinewidth
[] 0 setdash
0 setlinecap
1 setlinejoin
10.00 setmiterlimit
np
225.73 197.81 m
13.82 0 l
o
0.00 0.00 322.50 258.00 cl
0.00 0.00 322.50 258.00 cl
0.9569 0.6431 0.3765 srgb
2.35 setlinewidth
[] 0 setdash
0 setlinecap
1 setlinejoin
10.00 setmiterlimit
np
225.73 197.81 m
13.82 0 l
o
0.00 0.00 322.50 258.00 cl
0.00 0.00 322.50 258.00 cl
/bg { 0.9490 0.9490 0.9490 srgb } def
1 1 1 srgb
1.07 setlinewidth
[] 0 setdash
1 setlinecap
1 setlinejoin
10.00 setmiterlimit
224.00 171.89 17.28 17.28 r p3
0.00 0.00 322.50 258.00 cl
0.00 0.00 322.50 258.00 cl
0.5294 0.8078 0.9804 srgb
2.35 setlinewidth
[] 0 setdash
0 setlinecap
1 setlinejoin
10.00 setmiterlimit
np
225.73 180.53 m
13.82 0 l
o
0.00 0.00 322.50 258.00 cl
0.00 0.00 322.50 258.00 cl
0.5294 0.8078 0.9804 srgb
2.35 setlinewidth
[] 0 setdash
0 setlinecap
1 setlinejoin
10.00 setmiterlimit
np
225.73 180.53 m
13.82 0 l
o
0.00 0.00 322.50 258.00 cl
0.00 0.00 322.50 258.00 cl
/Font1 findfont 12 s
0 0 0 srgb
243.44 193.50 (1-2-3) 0 0 t
0.00 0.00 322.50 258.00 cl
0.00 0.00 322.50 258.00 cl
/Font1 findfont 12 s
0 0 0 srgb
243.44 176.22 (2-1-3) 0 0 t
0.00 0.00 322.50 258.00 cl
0.00 0.00 322.50 258.00 cl
0.00 0.00 322.50 258.00 cl
0.00 0.00 322.50 258.00 cl
0.00 0.00 322.50 258.00 cl
0.00 0.00 322.50 258.00 cl
0.00 0.00 322.50 258.00 cl
0.00 0.00 322.50 258.00 cl
0.00 0.00 322.50 258.00 cl
0.00 0.00 322.50 258.00 cl
ep
%%Trailer
%%Pages: 1
%%EOF
