%!PS-Adobe-3.0 EPSF-3.0
%%DocumentNeededResources: font Helvetica
%%+ font Helvetica-Bold
%%+ font Helvetica-Oblique
%%+ font Helvetica-BoldOblique
%%+ font Symbol
%%Title: R Graphics Output
%%Creator: R Software
%%Pages: (atend)
%%BoundingBox: 0 0 450 262
%%EndComments
%%BeginProlog
/bp  { gs sRGB gs } def
% begin .ps.prolog
/gs  { gsave } bind def
/gr  { grestore } bind def
/ep  { showpage gr gr } bind def
/m   { moveto } bind def
/l  { rlineto } bind def
/np  { newpath } bind def
/cp  { closepath } bind def
/f   { fill } bind def
/o   { stroke } bind def
/c   { newpath 0 360 arc } bind def
/r   { 4 2 roll moveto 1 copy 3 -1 roll exch 0 exch rlineto 0 rlineto -1 mul 0 exch rlineto closepath } bind def
/p1  { stroke } bind def
/p2  { gsave bg fill grestore newpath } bind def
/p3  { gsave bg fill grestore stroke } bind def
/p6  { gsave bg eofill grestore newpath } bind def
/p7  { gsave bg eofill grestore stroke } bind def
/t   { 5 -2 roll moveto gsave rotate
       1 index stringwidth pop
       mul neg 0 rmoveto show grestore } bind def
/ta  { 4 -2 roll moveto gsave rotate show } bind def
/tb  { 2 -1 roll 0 rmoveto show } bind def
/cl  { grestore gsave newpath 3 index 3 index moveto 1 index
       4 -1 roll lineto  exch 1 index lineto lineto
       closepath clip newpath } bind def
/rgb { setrgbcolor } bind def
/s   { scalefont setfont } bind def
% end   .ps.prolog
/sRGB { [ /CIEBasedABC
          << /DecodeLMN
               [ { dup 0.03928 le
                        {12.92321 div}
                        {0.055 add 1.055 div 2.4 exp }
                     ifelse
                 } bind dup dup
               ]
             /MatrixLMN [0.412457 0.212673 0.019334
                         0.357576 0.715152 0.119192
                         0.180437 0.072175 0.950301]
             /WhitePoint [0.9505 1.0 1.0890]
           >>
         ] setcolorspace } bind def
/srgb { setcolor } bind def
% begin encoding
/WinAnsiEncoding [
 /.notdef /.notdef /.notdef /.notdef /.notdef /.notdef /.notdef /.notdef
 /.notdef /.notdef /.notdef /.notdef /.notdef /.notdef /.notdef /.notdef
 /.notdef /.notdef /.notdef /.notdef /.notdef /.notdef /.notdef /.notdef
 /.notdef /.notdef /.notdef /.notdef /.notdef /.notdef /.notdef /.notdef
 /space /exclam /quotedbl /numbersign /dollar /percent /ampersand /quoteright
 /parenleft /parenright /asterisk /plus /comma /minus /period /slash
 /zero /one /two /three /four /five /six /seven
 /eight /nine /colon /semicolon /less /equal /greater /question
 /at /A /B /C /D /E /F /G
 /H /I /J /K /L /M /N /O
 /P /Q /R /S /T /U /V /W
 /X /Y /Z /bracketleft /backslash /bracketright /asciicircum /underscore
 /grave /a /b /c /d /e /f /g
 /h /i /j /k /l /m /n /o
 /p /q /r /s /t /u /v /w
 /x /y /z /braceleft /bar /braceright /asciitilde /.notdef
 /Euro /.notdef /quotesinglbase /florin /quotedblbase /ellipsis /dagger /daggerdbl
 /circumflex /perthousand /Scaron /guilsinglleft /OE /.notdef /Zcaron /.notdef
 /.notdef /quoteleft /quoteright /quotedblleft /quotedblright /bullet /endash /emdash
 /tilde /trademark /scaron /guilsinglright /oe /.notdef /zcaron /Ydieresis
 /space /exclamdown /cent /sterling /currency /yen /brokenbar /section
 /dieresis /copyright /ordfeminine /guillemotleft /logicalnot /hyphen /registered /macron
 /degree /plusminus /twosuperior /threesuperior /acute /mu /paragraph /periodcentered
 /cedilla /onesuperior /ordmasculine /guillemotright /onequarter /onehalf /threequarters /questiondown
 /Agrave /Aacute /Acircumflex /Atilde /Adieresis /Aring /AE /Ccedilla
 /Egrave /Eacute /Ecircumflex /Edieresis /Igrave /Iacute /Icircumflex /Idieresis
 /Eth /Ntilde /Ograve /Oacute /Ocircumflex /Otilde /Odieresis /multiply
 /Oslash /Ugrave /Uacute /Ucircumflex /Udieresis /Yacute /Thorn /germandbls
 /agrave /aacute /acircumflex /atilde /adieresis /aring /ae /ccedilla
 /egrave /eacute /ecircumflex /edieresis /igrave /iacute /icircumflex /idieresis
 /eth /ntilde /ograve /oacute /ocircumflex /otilde /odieresis /divide
 /oslash /ugrave /uacute /ucircumflex /udieresis /yacute /thorn /ydieresis
]
 def
% end encoding
%%IncludeResource: font Helvetica
/Helvetica findfont
dup length dict begin
  {1 index /FID ne {def} {pop pop} ifelse} forall
  /Encoding WinAnsiEncoding def
  currentdict
  end
/Font1 exch definefont pop
%%IncludeResource: font Helvetica-Bold
/Helvetica-Bold findfont
dup length dict begin
  {1 index /FID ne {def} {pop pop} ifelse} forall
  /Encoding WinAnsiEncoding def
  currentdict
  end
/Font2 exch definefont pop
%%IncludeResource: font Helvetica-Oblique
/Helvetica-Oblique findfont
dup length dict begin
  {1 index /FID ne {def} {pop pop} ifelse} forall
  /Encoding WinAnsiEncoding def
  currentdict
  end
/Font3 exch definefont pop
%%IncludeResource: font Helvetica-BoldOblique
/Helvetica-BoldOblique findfont
dup length dict begin
  {1 index /FID ne {def} {pop pop} ifelse} forall
  /Encoding WinAnsiEncoding def
  currentdict
  end
/Font4 exch definefont pop
%%IncludeResource: font Symbol
/Symbol findfont
dup length dict begin
  {1 index /FID ne {def} {pop pop} ifelse} forall
  currentdict
  end
/Font5 exch definefont pop
%%EndProlog
%%Page: 1 1
bp
0.00 0.00 450.00 262.50 cl
0.00 0.00 450.00 262.50 cl
0.00 0.00 450.00 262.50 cl
0.00 0.00 450.00 262.50 cl
0.00 0.00 450.00 262.50 cl
0.00 0.00 450.00 262.50 cl
0.00 0.00 450.00 262.50 cl
0.00 0.00 450.00 262.50 cl
0.00 0.00 450.00 262.50 cl
/bg { 1 1 1 srgb } def
1 1 1 srgb
1.07 setlinewidth
[] 0 setdash
1 setlinecap
1 setlinejoin
10.00 setmiterlimit
0.00 0.00 450.00 262.50 r p3
0.00 0.00 450.00 262.50 cl
41.30 32.50 342.40 257.02 cl
/bg { 0.9216 0.9216 0.9216 srgb } def
41.30 32.50 301.10 224.52 r p2
1 1 1 srgb
0.53 setlinewidth
[] 0 setdash
0 setlinecap
1 setlinejoin
10.00 setmiterlimit
np
41.30 68.22 m
301.10 0 l
o
np
41.30 119.25 m
301.10 0 l
o
np
41.30 170.27 m
301.10 0 l
o
np
41.30 221.30 m
301.10 0 l
o
np
100.15 32.50 m
0 224.52 l
o
np
191.58 32.50 m
0 224.52 l
o
np
283.00 32.50 m
0 224.52 l
o
1.07 setlinewidth
[] 0 setdash
np
41.30 42.71 m
301.10 0 l
o
np
41.30 93.73 m
301.10 0 l
o
np
41.30 144.76 m
301.10 0 l
o
np
41.30 195.79 m
301.10 0 l
o
np
41.30 246.81 m
301.10 0 l
o
np
54.44 32.50 m
0 224.52 l
o
np
145.87 32.50 m
0 224.52 l
o
np
237.29 32.50 m
0 224.52 l
o
np
328.72 32.50 m
0 224.52 l
o
0.9725 0.4627 0.4275 srgb
1.00 setmiterlimit
np
54.99 42.71 m
0.55 0 l
0.55 0 l
0.54 0 l
0.55 0 l
0.55 0 l
0.55 0 l
0.55 0 l
0.55 0 l
0.55 0 l
0.54 0 l
0.55 0 l
0.55 0 l
0.55 0 l
0.55 0 l
0.55 0 l
0.55 0 l
0.54 0 l
0.55 0 l
0.55 0 l
0.55 0 l
0.55 0 l
0.55 0 l
0.55 0 l
0.54 0.01 l
0.55 0 l
0.55 0.01 l
0.55 0.01 l
0.55 0.02 l
0.55 0.02 l
0.55 0.04 l
0.54 0.04 l
0.55 0.05 l
0.55 0.06 l
0.55 0.08 l
0.55 0.10 l
0.55 0.11 l
0.55 0.14 l
0.54 0.15 l
0.55 0.19 l
0.55 0.21 l
0.55 0.24 l
0.55 0.27 l
0.55 0.30 l
0.55 0.34 l
0.54 0.38 l
0.55 0.41 l
0.55 0.45 l
0.55 0.49 l
0.55 0.53 l
0.55 0.58 l
0.55 0.61 l
0.54 0.66 l
0.55 0.70 l
0.55 0.75 l
0.55 0.78 l
0.55 0.83 l
0.55 0.88 l
0.54 0.92 l
0.55 0.96 l
0.55 1.00 l
0.55 1.04 l
0.55 1.09 l
0.55 1.12 l
0.55 1.16 l
0.54 1.21 l
0.55 1.23 l
0.55 1.28 l
0.55 1.31 l
0.55 1.34 l
0.55 1.38 l
0.55 1.41 l
0.54 1.43 l
0.55 1.47 l
0.55 1.49 l
0.55 1.52 l
0.55 1.55 l
0.55 1.57 l
0.55 1.59 l
0.54 1.62 l
0.55 1.63 l
0.55 1.65 l
0.55 1.67 l
0.55 1.69 l
0.55 1.70 l
0.55 1.71 l
0.54 1.73 l
0.55 1.74 l
0.55 1.75 l
0.55 1.75 l
0.55 1.77 l
0.55 1.77 l
0.55 1.78 l
0.54 1.79 l
0.55 1.78 l
0.55 1.80 l
0.55 1.79 l
0.55 1.79 l
0.55 1.80 l
0.55 1.79 l
109.84 118.51 lineto
0.55 1.79 l
0.55 1.79 l
0.55 1.78 l
0.55 1.78 l
0.55 1.78 l
0.55 1.76 l
0.54 1.77 l
0.55 1.75 l
0.55 1.75 l
0.55 1.74 l
0.55 1.73 l
0.55 1.72 l
0.55 1.71 l
0.54 1.70 l
0.55 1.69 l
0.55 1.68 l
0.55 1.67 l
0.55 1.66 l
0.55 1.64 l
0.55 1.63 l
0.54 1.62 l
0.55 1.61 l
0.55 1.59 l
0.55 1.58 l
0.55 1.56 l
0.55 1.55 l
0.55 1.54 l
0.54 1.52 l
0.55 1.51 l
0.55 1.49 l
0.55 1.48 l
0.55 1.46 l
0.55 1.45 l
0.54 1.43 l
0.55 1.42 l
0.55 1.40 l
0.55 1.38 l
0.55 1.37 l
0.55 1.35 l
0.55 1.34 l
0.54 1.32 l
0.55 1.30 l
0.55 1.29 l
0.55 1.27 l
0.55 1.26 l
0.55 1.24 l
0.55 1.22 l
0.54 1.21 l
0.55 1.19 l
0.55 1.17 l
0.55 1.16 l
0.55 1.15 l
0.55 1.12 l
0.55 1.11 l
0.54 1.10 l
0.55 1.08 l
0.55 1.06 l
0.55 1.05 l
0.55 1.03 l
0.55 1.02 l
0.55 1.00 l
0.54 0.98 l
0.55 0.97 l
0.55 0.95 l
0.55 0.94 l
0.55 0.93 l
0.55 0.91 l
0.55 0.89 l
0.54 0.88 l
0.55 0.86 l
0.55 0.85 l
0.55 0.84 l
0.55 0.82 l
0.55 0.80 l
0.55 0.79 l
0.54 0.78 l
0.55 0.76 l
0.55 0.75 l
0.55 0.74 l
0.55 0.72 l
0.55 0.71 l
0.55 0.70 l
0.54 0.68 l
0.55 0.67 l
0.55 0.65 l
0.55 0.64 l
0.55 0.63 l
0.55 0.62 l
0.55 0.60 l
0.54 0.60 l
0.55 0.57 l
0.55 0.57 l
0.55 0.56 l
0.55 0.54 l
0.55 0.53 l
0.55 0.52 l
0.54 0.51 l
0.55 0.49 l
0.55 0.49 l
164.70 234.94 lineto
0.55 0.46 l
0.55 0.45 l
0.55 0.44 l
0.54 0.43 l
0.55 0.42 l
0.55 0.41 l
0.55 0.39 l
0.55 0.39 l
0.55 0.38 l
0.55 0.36 l
0.54 0.36 l
0.55 0.35 l
0.55 0.33 l
0.55 0.33 l
0.55 0.32 l
0.55 0.31 l
0.54 0.30 l
0.55 0.28 l
0.55 0.29 l
0.55 0.27 l
0.55 0.26 l
0.55 0.25 l
0.55 0.25 l
0.54 0.23 l
0.55 0.23 l
0.55 0.22 l
0.55 0.21 l
0.55 0.20 l
0.55 0.20 l
0.55 0.19 l
0.54 0.17 l
0.55 0.18 l
0.55 0.16 l
0.55 0.16 l
0.55 0.14 l
0.55 0.14 l
0.55 0.14 l
0.54 0.12 l
0.55 0.12 l
0.55 0.12 l
0.55 0.10 l
0.55 0.10 l
0.55 0.09 l
0.55 0.09 l
0.54 0.08 l
0.55 0.07 l
0.55 0.06 l
0.55 0.06 l
0.55 0.06 l
0.55 0.04 l
0.55 0.04 l
0.54 0.04 l
0.55 0.03 l
0.55 0.02 l
0.55 0.02 l
0.55 0.01 l
0.55 0 l
0.55 0 l
0.54 0 l
0.55 -0.01 l
0.55 -0.02 l
0.55 -0.02 l
0.55 -0.02 l
0.55 -0.03 l
0.55 -0.04 l
0.54 -0.04 l
0.55 -0.05 l
0.55 -0.05 l
0.55 -0.05 l
0.55 -0.06 l
0.55 -0.07 l
0.55 -0.07 l
0.54 -0.07 l
0.55 -0.08 l
0.55 -0.08 l
0.55 -0.09 l
0.55 -0.09 l
0.55 -0.09 l
0.55 -0.10 l
0.54 -0.11 l
0.55 -0.10 l
0.55 -0.12 l
0.55 -0.11 l
0.55 -0.12 l
0.55 -0.12 l
0.55 -0.13 l
0.54 -0.13 l
0.55 -0.13 l
0.55 -0.14 l
0.55 -0.14 l
0.55 -0.14 l
0.55 -0.15 l
0.54 -0.15 l
0.55 -0.15 l
0.55 -0.16 l
0.55 -0.16 l
0.55 -0.17 l
0.55 -0.16 l
0.55 -0.17 l
219.55 242.75 lineto
0.55 -0.18 l
0.55 -0.18 l
0.55 -0.18 l
0.55 -0.18 l
0.55 -0.19 l
0.55 -0.19 l
0.54 -0.19 l
0.55 -0.19 l
0.55 -0.20 l
0.55 -0.20 l
0.55 -0.20 l
0.55 -0.21 l
0.55 -0.20 l
0.54 -0.21 l
0.55 -0.22 l
0.55 -0.21 l
0.55 -0.22 l
0.55 -0.21 l
0.55 -0.22 l
0.55 -0.23 l
0.54 -0.22 l
0.55 -0.23 l
0.55 -0.23 l
0.55 -0.23 l
0.55 -0.23 l
0.55 -0.24 l
0.55 -0.23 l
0.54 -0.24 l
0.55 -0.24 l
0.55 -0.24 l
0.55 -0.25 l
0.55 -0.24 l
0.55 -0.25 l
0.55 -0.25 l
0.54 -0.25 l
0.55 -0.25 l
0.55 -0.26 l
0.55 -0.25 l
0.55 -0.26 l
0.55 -0.26 l
0.55 -0.26 l
0.54 -0.26 l
0.55 -0.26 l
0.55 -0.27 l
0.55 -0.26 l
0.55 -0.27 l
0.55 -0.27 l
0.55 -0.27 l
0.54 -0.27 l
0.55 -0.27 l
0.55 -0.27 l
0.55 -0.27 l
0.55 -0.28 l
0.55 -0.28 l
0.55 -0.27 l
0.54 -0.28 l
0.55 -0.28 l
0.55 -0.28 l
0.55 -0.28 l
0.55 -0.29 l
0.55 -0.28 l
0.55 -0.29 l
0.54 -0.28 l
0.55 -0.29 l
0.55 -0.28 l
0.55 -0.29 l
0.55 -0.29 l
0.55 -0.29 l
0.55 -0.29 l
0.54 -0.29 l
0.55 -0.30 l
0.55 -0.29 l
0.55 -0.29 l
0.55 -0.30 l
0.55 -0.29 l
0.54 -0.30 l
0.55 -0.29 l
0.55 -0.30 l
0.55 -0.30 l
0.55 -0.30 l
0.55 -0.30 l
0.55 -0.29 l
0.54 -0.30 l
0.55 -0.30 l
0.55 -0.31 l
0.55 -0.30 l
0.55 -0.30 l
0.55 -0.30 l
0.55 -0.30 l
0.54 -0.31 l
0.55 -0.30 l
0.55 -0.31 l
0.55 -0.30 l
0.55 -0.31 l
0.55 -0.30 l
0.55 -0.31 l
0.54 -0.30 l
0.55 -0.31 l
0.55 -0.31 l
274.41 216.56 lineto
0.55 -0.31 l
0.55 -0.31 l
0.55 -0.30 l
0.54 -0.31 l
0.55 -0.31 l
0.55 -0.31 l
0.55 -0.31 l
0.55 -0.31 l
0.55 -0.31 l
0.55 -0.31 l
0.54 -0.31 l
0.55 -0.31 l
0.55 -0.30 l
0.55 -0.31 l
0.55 -0.31 l
0.55 -0.32 l
0.55 -0.31 l
0.54 -0.31 l
0.55 -0.31 l
0.55 -0.31 l
0.55 -0.31 l
0.55 -0.31 l
0.55 -0.31 l
0.55 -0.31 l
0.54 -0.31 l
0.55 -0.31 l
0.55 -0.31 l
0.55 -0.31 l
0.55 -0.31 l
0.55 -0.32 l
0.55 -0.31 l
0.54 -0.31 l
0.55 -0.31 l
0.55 -0.31 l
0.55 -0.31 l
0.55 -0.31 l
0.55 -0.31 l
0.55 -0.31 l
0.54 -0.31 l
0.55 -0.31 l
0.55 -0.31 l
0.55 -0.31 l
0.55 -0.31 l
0.55 -0.31 l
0.55 -0.31 l
0.54 -0.31 l
0.55 -0.31 l
0.55 -0.31 l
0.55 -0.31 l
0.55 -0.31 l
0.55 -0.31 l
0.54 -0.31 l
0.55 -0.31 l
0.55 -0.31 l
0.55 -0.30 l
0.55 -0.31 l
0.55 -0.31 l
0.55 -0.31 l
0.54 -0.30 l
0.55 -0.31 l
0.55 -0.31 l
0.55 -0.31 l
0.55 -0.30 l
0.55 -0.31 l
0.55 -0.31 l
0.54 -0.30 l
0.55 -0.31 l
0.55 -0.30 l
0.55 -0.31 l
0.55 -0.30 l
0.55 -0.31 l
0.55 -0.30 l
0.54 -0.31 l
0.55 -0.30 l
0.55 -0.30 l
0.55 -0.31 l
0.55 -0.30 l
0.55 -0.30 l
0.55 -0.30 l
0.54 -0.31 l
0.55 -0.30 l
0.55 -0.30 l
0.55 -0.30 l
0.55 -0.30 l
0.55 -0.30 l
0.55 -0.30 l
0.54 -0.30 l
0.55 -0.30 l
0.55 -0.30 l
0.55 -0.30 l
0.55 -0.30 l
0.55 -0.30 l
0.55 -0.29 l
0.54 -0.30 l
0.55 -0.30 l
0.55 -0.30 l
0.55 -0.29 l
0.55 -0.30 l
0.55 -0.29 l
o
1.07 setlinewidth
[ 2.13 2.13] 0 setdash
np
54.99 42.71 m
0.55 0 l
0.55 0 l
0.54 0 l
0.55 0 l
0.55 0 l
0.55 0 l
0.55 0 l
0.55 0 l
0.55 0 l
0.54 0 l
0.55 0 l
0.55 0 l
0.55 0 l
0.55 0 l
0.55 0 l
0.55 0 l
0.54 0 l
0.55 0 l
0.55 0 l
0.55 0 l
0.55 0 l
0.55 0 l
0.55 0 l
0.54 0.01 l
0.55 0 l
0.55 0.01 l
0.55 0.01 l
0.55 0.02 l
0.55 0.02 l
0.55 0.03 l
0.54 0.04 l
0.55 0.06 l
0.55 0.06 l
0.55 0.08 l
0.55 0.09 l
0.55 0.12 l
0.55 0.13 l
0.54 0.16 l
0.55 0.18 l
0.55 0.21 l
0.55 0.24 l
0.55 0.27 l
0.55 0.30 l
0.55 0.34 l
0.54 0.37 l
0.55 0.41 l
0.55 0.45 l
0.55 0.49 l
0.55 0.53 l
0.55 0.57 l
0.55 0.62 l
0.54 0.66 l
0.55 0.70 l
0.55 0.74 l
0.55 0.79 l
0.55 0.83 l
0.55 0.87 l
0.54 0.92 l
0.55 0.95 l
0.55 1.01 l
0.55 1.04 l
0.55 1.08 l
0.55 1.13 l
0.55 1.16 l
0.54 1.20 l
0.55 1.24 l
0.55 1.27 l
0.55 1.31 l
0.55 1.34 l
0.55 1.38 l
0.55 1.40 l
0.54 1.44 l
0.55 1.47 l
0.55 1.49 l
0.55 1.52 l
0.55 1.55 l
0.55 1.57 l
0.55 1.59 l
0.54 1.62 l
0.55 1.63 l
0.55 1.65 l
0.55 1.67 l
0.55 1.69 l
0.55 1.70 l
0.55 1.71 l
0.54 1.73 l
0.55 1.74 l
0.55 1.75 l
0.55 1.76 l
0.55 1.76 l
0.55 1.78 l
0.55 1.78 l
0.54 1.78 l
0.55 1.79 l
0.55 1.79 l
0.55 1.80 l
0.55 1.79 l
0.55 1.80 l
0.55 1.79 l
109.84 118.48 lineto
0.55 1.79 l
0.55 1.79 l
0.55 1.79 l
0.55 1.77 l
0.55 1.78 l
0.55 1.77 l
0.54 1.76 l
0.55 1.76 l
0.55 1.74 l
0.55 1.74 l
0.55 1.73 l
0.55 1.73 l
0.55 1.71 l
0.54 1.70 l
0.55 1.69 l
0.55 1.68 l
0.55 1.67 l
0.55 1.66 l
0.55 1.64 l
0.55 1.63 l
0.54 1.62 l
0.55 1.61 l
0.55 1.59 l
0.55 1.58 l
0.55 1.57 l
0.55 1.55 l
0.55 1.54 l
0.54 1.52 l
0.55 1.51 l
0.55 1.49 l
0.55 1.48 l
0.55 1.46 l
0.55 1.45 l
0.54 1.43 l
0.55 1.42 l
0.55 1.40 l
0.55 1.38 l
0.55 1.37 l
0.55 1.35 l
0.55 1.34 l
0.54 1.32 l
0.55 1.30 l
0.55 1.29 l
0.55 1.28 l
0.55 1.25 l
0.55 1.24 l
0.55 1.22 l
0.54 1.21 l
0.55 1.19 l
0.55 1.18 l
0.55 1.16 l
0.55 1.14 l
0.55 1.13 l
0.55 1.11 l
0.54 1.09 l
0.55 1.08 l
0.55 1.07 l
0.55 1.04 l
0.55 1.04 l
0.55 1.01 l
0.55 1.00 l
0.54 0.99 l
0.55 0.97 l
0.55 0.95 l
0.55 0.94 l
0.55 0.92 l
0.55 0.91 l
0.55 0.90 l
0.54 0.88 l
0.55 0.86 l
0.55 0.85 l
0.55 0.83 l
0.55 0.82 l
0.55 0.81 l
0.55 0.79 l
0.54 0.78 l
0.55 0.76 l
0.55 0.75 l
0.55 0.74 l
0.55 0.72 l
0.55 0.71 l
0.55 0.69 l
0.54 0.69 l
0.55 0.66 l
0.55 0.66 l
0.55 0.64 l
0.55 0.63 l
0.55 0.62 l
0.55 0.60 l
0.54 0.59 l
0.55 0.58 l
0.55 0.57 l
0.55 0.56 l
0.55 0.54 l
0.55 0.53 l
0.55 0.52 l
0.54 0.51 l
0.55 0.49 l
0.55 0.49 l
164.70 234.94 lineto
0.55 0.46 l
0.55 0.45 l
0.55 0.44 l
0.54 0.43 l
0.55 0.42 l
0.55 0.41 l
0.55 0.39 l
0.55 0.39 l
0.55 0.38 l
0.55 0.36 l
0.54 0.36 l
0.55 0.35 l
0.55 0.33 l
0.55 0.33 l
0.55 0.32 l
0.55 0.31 l
0.54 0.30 l
0.55 0.28 l
0.55 0.28 l
0.55 0.28 l
0.55 0.26 l
0.55 0.25 l
0.55 0.25 l
0.54 0.23 l
0.55 0.23 l
0.55 0.22 l
0.55 0.21 l
0.55 0.20 l
0.55 0.20 l
0.55 0.19 l
0.54 0.17 l
0.55 0.18 l
0.55 0.16 l
0.55 0.16 l
0.55 0.14 l
0.55 0.14 l
0.55 0.14 l
0.54 0.12 l
0.55 0.12 l
0.55 0.12 l
0.55 0.10 l
0.55 0.10 l
0.55 0.09 l
0.55 0.09 l
0.54 0.08 l
0.55 0.07 l
0.55 0.06 l
0.55 0.06 l
0.55 0.06 l
0.55 0.04 l
0.55 0.04 l
0.54 0.04 l
0.55 0.03 l
0.55 0.02 l
0.55 0.02 l
0.55 0.01 l
0.55 0 l
0.55 0 l
0.54 0 l
0.55 -0.01 l
0.55 -0.02 l
0.55 -0.02 l
0.55 -0.02 l
0.55 -0.03 l
0.55 -0.04 l
0.54 -0.04 l
0.55 -0.05 l
0.55 -0.05 l
0.55 -0.05 l
0.55 -0.06 l
0.55 -0.07 l
0.55 -0.07 l
0.54 -0.07 l
0.55 -0.08 l
0.55 -0.08 l
0.55 -0.09 l
0.55 -0.09 l
0.55 -0.09 l
0.55 -0.10 l
0.54 -0.11 l
0.55 -0.10 l
0.55 -0.12 l
0.55 -0.11 l
0.55 -0.12 l
0.55 -0.12 l
0.55 -0.13 l
0.54 -0.13 l
0.55 -0.13 l
0.55 -0.14 l
0.55 -0.14 l
0.55 -0.14 l
0.55 -0.15 l
0.54 -0.15 l
0.55 -0.15 l
0.55 -0.16 l
0.55 -0.16 l
0.55 -0.16 l
0.55 -0.17 l
0.55 -0.17 l
219.55 242.75 lineto
0.55 -0.18 l
0.55 -0.18 l
0.55 -0.18 l
0.55 -0.18 l
0.55 -0.19 l
0.55 -0.19 l
0.54 -0.19 l
0.55 -0.19 l
0.55 -0.20 l
0.55 -0.20 l
0.55 -0.20 l
0.55 -0.21 l
0.55 -0.20 l
0.54 -0.21 l
0.55 -0.22 l
0.55 -0.21 l
0.55 -0.22 l
0.55 -0.21 l
0.55 -0.22 l
0.55 -0.23 l
0.54 -0.22 l
0.55 -0.23 l
0.55 -0.23 l
0.55 -0.23 l
0.55 -0.23 l
0.55 -0.24 l
0.55 -0.23 l
0.54 -0.24 l
0.55 -0.24 l
0.55 -0.24 l
0.55 -0.25 l
0.55 -0.24 l
0.55 -0.25 l
0.55 -0.25 l
0.54 -0.25 l
0.55 -0.25 l
0.55 -0.26 l
0.55 -0.25 l
0.55 -0.26 l
0.55 -0.26 l
0.55 -0.26 l
0.54 -0.26 l
0.55 -0.26 l
0.55 -0.27 l
0.55 -0.26 l
0.55 -0.27 l
0.55 -0.27 l
0.55 -0.27 l
0.54 -0.27 l
0.55 -0.27 l
0.55 -0.27 l
0.55 -0.27 l
0.55 -0.28 l
0.55 -0.28 l
0.55 -0.27 l
0.54 -0.28 l
0.55 -0.28 l
0.55 -0.28 l
0.55 -0.28 l
0.55 -0.29 l
0.55 -0.28 l
0.55 -0.29 l
0.54 -0.28 l
0.55 -0.29 l
0.55 -0.28 l
0.55 -0.29 l
0.55 -0.29 l
0.55 -0.29 l
0.55 -0.29 l
0.54 -0.29 l
0.55 -0.30 l
0.55 -0.29 l
0.55 -0.29 l
0.55 -0.30 l
0.55 -0.29 l
0.54 -0.30 l
0.55 -0.29 l
0.55 -0.30 l
0.55 -0.30 l
0.55 -0.30 l
0.55 -0.30 l
0.55 -0.29 l
0.54 -0.30 l
0.55 -0.30 l
0.55 -0.31 l
0.55 -0.30 l
0.55 -0.30 l
0.55 -0.30 l
0.55 -0.30 l
0.54 -0.31 l
0.55 -0.30 l
0.55 -0.31 l
0.55 -0.30 l
0.55 -0.30 l
0.55 -0.31 l
0.55 -0.31 l
0.54 -0.30 l
0.55 -0.31 l
0.55 -0.30 l
274.41 216.56 lineto
0.55 -0.31 l
0.55 -0.31 l
0.55 -0.30 l
0.54 -0.31 l
0.55 -0.31 l
0.55 -0.31 l
0.55 -0.31 l
0.55 -0.31 l
0.55 -0.31 l
0.55 -0.31 l
0.54 -0.30 l
0.55 -0.31 l
0.55 -0.31 l
0.55 -0.31 l
0.55 -0.31 l
0.55 -0.31 l
0.55 -0.32 l
0.54 -0.31 l
0.55 -0.31 l
0.55 -0.31 l
0.55 -0.31 l
0.55 -0.31 l
0.55 -0.31 l
0.55 -0.31 l
0.54 -0.31 l
0.55 -0.31 l
0.55 -0.31 l
0.55 -0.31 l
0.55 -0.31 l
0.55 -0.31 l
0.55 -0.32 l
0.54 -0.31 l
0.55 -0.31 l
0.55 -0.31 l
0.55 -0.31 l
0.55 -0.31 l
0.55 -0.31 l
0.55 -0.31 l
0.54 -0.31 l
0.55 -0.31 l
0.55 -0.31 l
0.55 -0.31 l
0.55 -0.31 l
0.55 -0.31 l
0.55 -0.31 l
0.54 -0.31 l
0.55 -0.31 l
0.55 -0.31 l
0.55 -0.31 l
0.55 -0.31 l
0.55 -0.31 l
0.54 -0.31 l
0.55 -0.31 l
0.55 -0.30 l
0.55 -0.31 l
0.55 -0.31 l
0.55 -0.31 l
0.55 -0.31 l
0.54 -0.30 l
0.55 -0.31 l
0.55 -0.31 l
0.55 -0.30 l
0.55 -0.31 l
0.55 -0.31 l
0.55 -0.30 l
0.54 -0.31 l
0.55 -0.31 l
0.55 -0.30 l
0.55 -0.31 l
0.55 -0.30 l
0.55 -0.31 l
0.55 -0.30 l
0.54 -0.30 l
0.55 -0.31 l
0.55 -0.30 l
0.55 -0.30 l
0.55 -0.31 l
0.55 -0.30 l
0.55 -0.30 l
0.54 -0.30 l
0.55 -0.31 l
0.55 -0.30 l
0.55 -0.30 l
0.55 -0.30 l
0.55 -0.30 l
0.55 -0.30 l
0.54 -0.30 l
0.55 -0.30 l
0.55 -0.30 l
0.55 -0.30 l
0.55 -0.30 l
0.55 -0.29 l
0.55 -0.30 l
0.54 -0.30 l
0.55 -0.30 l
0.55 -0.29 l
0.55 -0.30 l
0.55 -0.29 l
0.55 -0.30 l
o
0.6392 0.6471 0 srgb
1.07 setlinewidth
[] 0 setdash
np
54.99 42.71 m
0.55 0 l
0.55 0 l
0.54 0 l
0.55 0 l
0.55 0 l
0.55 0 l
0.55 0 l
0.55 0 l
0.55 0 l
0.54 0 l
0.55 0 l
0.55 0 l
0.55 0 l
0.55 0 l
0.55 0 l
0.55 0 l
0.54 0 l
0.55 0 l
0.55 0 l
0.55 0 l
0.55 0 l
0.55 0 l
0.55 0 l
0.54 0.01 l
0.55 0 l
0.55 0.01 l
0.55 0.02 l
0.55 0.01 l
0.55 0.03 l
0.55 0.03 l
0.54 0.05 l
0.55 0.05 l
0.55 0.07 l
0.55 0.09 l
0.55 0.10 l
0.55 0.13 l
0.55 0.14 l
0.54 0.17 l
0.55 0.20 l
0.55 0.23 l
0.55 0.26 l
0.55 0.29 l
0.55 0.33 l
0.55 0.37 l
0.54 0.40 l
0.55 0.45 l
0.55 0.49 l
0.55 0.53 l
0.55 0.57 l
0.55 0.62 l
0.55 0.67 l
0.54 0.71 l
0.55 0.76 l
0.55 0.81 l
0.55 0.85 l
0.55 0.90 l
0.55 0.94 l
0.54 1.00 l
0.55 1.04 l
0.55 1.08 l
0.55 1.13 l
0.55 1.17 l
0.55 1.22 l
0.55 1.26 l
0.54 1.30 l
0.55 1.34 l
0.55 1.37 l
0.55 1.42 l
0.55 1.45 l
0.55 1.49 l
0.55 1.52 l
0.54 1.56 l
0.55 1.58 l
0.55 1.62 l
0.55 1.64 l
0.55 1.67 l
0.55 1.70 l
0.55 1.72 l
0.54 1.74 l
0.55 1.77 l
0.55 1.78 l
0.55 1.81 l
0.55 1.82 l
0.55 1.83 l
0.55 1.85 l
0.54 1.87 l
0.55 1.87 l
0.55 1.89 l
0.55 1.89 l
0.55 1.91 l
0.55 1.91 l
0.55 1.92 l
0.54 1.92 l
0.55 1.92 l
0.55 1.93 l
0.55 1.93 l
0.55 1.93 l
0.55 1.93 l
0.55 1.93 l
109.84 124.55 lineto
0.55 1.93 l
0.55 1.91 l
0.55 1.92 l
0.55 1.91 l
0.55 1.90 l
0.55 1.89 l
0.54 1.89 l
0.55 1.87 l
0.55 1.87 l
0.55 1.86 l
0.55 1.85 l
0.55 1.83 l
0.55 1.83 l
0.54 1.81 l
0.55 1.80 l
0.55 1.79 l
0.55 1.77 l
0.55 1.76 l
0.55 1.74 l
0.55 1.73 l
0.54 1.72 l
0.55 1.70 l
0.55 1.68 l
0.55 1.67 l
0.55 1.65 l
0.55 1.63 l
0.55 1.61 l
0.54 1.60 l
0.55 1.58 l
0.55 1.57 l
0.55 1.54 l
0.55 1.53 l
0.55 1.51 l
0.54 1.49 l
0.55 1.47 l
0.55 1.45 l
0.55 1.44 l
0.55 1.42 l
0.55 1.39 l
0.55 1.38 l
0.54 1.36 l
0.55 1.34 l
0.55 1.32 l
0.55 1.30 l
0.55 1.28 l
0.55 1.26 l
0.55 1.25 l
0.54 1.22 l
0.55 1.20 l
0.55 1.19 l
0.55 1.16 l
0.55 1.15 l
0.55 1.13 l
0.55 1.11 l
0.54 1.09 l
0.55 1.07 l
0.55 1.05 l
0.55 1.03 l
0.55 1.02 l
0.55 0.99 l
0.55 0.98 l
0.54 0.96 l
0.55 0.94 l
0.55 0.92 l
0.55 0.90 l
0.55 0.89 l
0.55 0.87 l
0.55 0.85 l
0.54 0.83 l
0.55 0.81 l
0.55 0.80 l
0.55 0.78 l
0.55 0.76 l
0.55 0.75 l
0.55 0.72 l
0.54 0.72 l
0.55 0.69 l
0.55 0.68 l
0.55 0.66 l
0.55 0.64 l
0.55 0.63 l
0.55 0.62 l
0.54 0.59 l
0.55 0.58 l
0.55 0.57 l
0.55 0.55 l
0.55 0.53 l
0.55 0.52 l
0.55 0.51 l
0.54 0.49 l
0.55 0.47 l
0.55 0.46 l
0.55 0.45 l
0.55 0.43 l
0.55 0.42 l
0.55 0.40 l
0.54 0.39 l
0.55 0.38 l
0.55 0.36 l
164.70 241.81 lineto
0.55 0.34 l
0.55 0.32 l
0.55 0.31 l
0.54 0.30 l
0.55 0.28 l
0.55 0.28 l
0.55 0.26 l
0.55 0.24 l
0.55 0.24 l
0.55 0.22 l
0.54 0.22 l
0.55 0.20 l
0.55 0.19 l
0.55 0.18 l
0.55 0.16 l
0.55 0.16 l
0.54 0.14 l
0.55 0.14 l
0.55 0.12 l
0.55 0.11 l
0.55 0.11 l
0.55 0.09 l
0.55 0.08 l
0.54 0.07 l
0.55 0.07 l
0.55 0.05 l
0.55 0.04 l
0.55 0.04 l
0.55 0.02 l
0.55 0.02 l
0.54 0 l
0.55 0 l
0.55 -0.01 l
0.55 -0.02 l
0.55 -0.03 l
0.55 -0.03 l
0.55 -0.05 l
0.54 -0.05 l
0.55 -0.06 l
0.55 -0.07 l
0.55 -0.08 l
0.55 -0.08 l
0.55 -0.09 l
0.55 -0.10 l
0.54 -0.11 l
0.55 -0.11 l
0.55 -0.12 l
0.55 -0.13 l
0.55 -0.14 l
0.55 -0.14 l
0.55 -0.15 l
0.54 -0.15 l
0.55 -0.16 l
0.55 -0.17 l
0.55 -0.17 l
0.55 -0.18 l
0.55 -0.19 l
0.55 -0.19 l
0.54 -0.20 l
0.55 -0.20 l
0.55 -0.21 l
0.55 -0.22 l
0.55 -0.22 l
0.55 -0.23 l
0.55 -0.23 l
0.54 -0.23 l
0.55 -0.25 l
0.55 -0.24 l
0.55 -0.26 l
0.55 -0.25 l
0.55 -0.26 l
0.55 -0.27 l
0.54 -0.27 l
0.55 -0.28 l
0.55 -0.28 l
0.55 -0.28 l
0.55 -0.29 l
0.55 -0.29 l
0.55 -0.30 l
0.54 -0.30 l
0.55 -0.30 l
0.55 -0.31 l
0.55 -0.32 l
0.55 -0.31 l
0.55 -0.32 l
0.55 -0.33 l
0.54 -0.32 l
0.55 -0.33 l
0.55 -0.34 l
0.55 -0.34 l
0.55 -0.34 l
0.55 -0.34 l
0.54 -0.35 l
0.55 -0.35 l
0.55 -0.35 l
0.55 -0.36 l
0.55 -0.36 l
0.55 -0.36 l
0.55 -0.37 l
219.55 231.71 lineto
0.55 -0.37 l
0.55 -0.38 l
0.55 -0.37 l
0.55 -0.38 l
0.55 -0.38 l
0.55 -0.38 l
0.54 -0.39 l
0.55 -0.39 l
0.55 -0.38 l
0.55 -0.40 l
0.55 -0.39 l
0.55 -0.40 l
0.55 -0.39 l
0.54 -0.40 l
0.55 -0.41 l
0.55 -0.40 l
0.55 -0.40 l
0.55 -0.41 l
0.55 -0.41 l
0.55 -0.41 l
0.54 -0.41 l
0.55 -0.42 l
0.55 -0.41 l
0.55 -0.42 l
0.55 -0.42 l
0.55 -0.42 l
0.55 -0.42 l
0.54 -0.42 l
0.55 -0.42 l
0.55 -0.43 l
0.55 -0.42 l
0.55 -0.43 l
0.55 -0.43 l
0.55 -0.43 l
0.54 -0.43 l
0.55 -0.43 l
0.55 -0.44 l
0.55 -0.43 l
0.55 -0.43 l
0.55 -0.44 l
0.55 -0.43 l
0.54 -0.44 l
0.55 -0.44 l
0.55 -0.44 l
0.55 -0.44 l
0.55 -0.44 l
0.55 -0.44 l
0.55 -0.44 l
0.54 -0.44 l
0.55 -0.44 l
0.55 -0.45 l
0.55 -0.44 l
0.55 -0.44 l
0.55 -0.45 l
0.55 -0.44 l
0.54 -0.45 l
0.55 -0.44 l
0.55 -0.45 l
0.55 -0.45 l
0.55 -0.44 l
0.55 -0.45 l
0.55 -0.45 l
0.54 -0.44 l
0.55 -0.45 l
0.55 -0.45 l
0.55 -0.45 l
0.55 -0.45 l
0.55 -0.44 l
0.55 -0.45 l
0.54 -0.45 l
0.55 -0.45 l
0.55 -0.45 l
0.55 -0.44 l
0.55 -0.45 l
0.55 -0.45 l
0.54 -0.45 l
0.55 -0.45 l
0.55 -0.44 l
0.55 -0.45 l
0.55 -0.45 l
0.55 -0.45 l
0.55 -0.44 l
0.54 -0.45 l
0.55 -0.45 l
0.55 -0.44 l
0.55 -0.45 l
0.55 -0.45 l
0.55 -0.44 l
0.55 -0.45 l
0.54 -0.44 l
0.55 -0.45 l
0.55 -0.44 l
0.55 -0.45 l
0.55 -0.44 l
0.55 -0.44 l
0.55 -0.45 l
0.54 -0.44 l
0.55 -0.44 l
0.55 -0.44 l
274.41 188.67 lineto
0.55 -0.44 l
0.55 -0.44 l
0.55 -0.44 l
0.54 -0.44 l
0.55 -0.43 l
0.55 -0.44 l
0.55 -0.44 l
0.55 -0.44 l
0.55 -0.43 l
0.55 -0.44 l
0.54 -0.44 l
0.55 -0.43 l
0.55 -0.44 l
0.55 -0.43 l
0.55 -0.43 l
0.55 -0.43 l
0.55 -0.44 l
0.54 -0.43 l
0.55 -0.43 l
0.55 -0.43 l
0.55 -0.43 l
0.55 -0.43 l
0.55 -0.42 l
0.55 -0.43 l
0.54 -0.43 l
0.55 -0.42 l
0.55 -0.43 l
0.55 -0.42 l
0.55 -0.42 l
0.55 -0.43 l
0.55 -0.42 l
0.54 -0.42 l
0.55 -0.42 l
0.55 -0.42 l
0.55 -0.42 l
0.55 -0.42 l
0.55 -0.41 l
0.55 -0.42 l
0.54 -0.41 l
0.55 -0.42 l
0.55 -0.41 l
0.55 -0.42 l
0.55 -0.41 l
0.55 -0.41 l
0.55 -0.41 l
0.54 -0.41 l
0.55 -0.41 l
0.55 -0.41 l
0.55 -0.40 l
0.55 -0.41 l
0.55 -0.40 l
0.54 -0.41 l
0.55 -0.40 l
0.55 -0.41 l
0.55 -0.40 l
0.55 -0.40 l
0.55 -0.40 l
0.55 -0.40 l
0.54 -0.39 l
0.55 -0.40 l
0.55 -0.40 l
0.55 -0.39 l
0.55 -0.40 l
0.55 -0.39 l
0.55 -0.39 l
0.54 -0.40 l
0.55 -0.39 l
0.55 -0.39 l
0.55 -0.39 l
0.55 -0.38 l
0.55 -0.39 l
0.55 -0.39 l
0.54 -0.38 l
0.55 -0.39 l
0.55 -0.38 l
0.55 -0.38 l
0.55 -0.38 l
0.55 -0.38 l
0.55 -0.38 l
0.54 -0.38 l
0.55 -0.38 l
0.55 -0.37 l
0.55 -0.38 l
0.55 -0.37 l
0.55 -0.38 l
0.55 -0.37 l
0.54 -0.37 l
0.55 -0.37 l
0.55 -0.37 l
0.55 -0.37 l
0.55 -0.37 l
0.55 -0.36 l
0.55 -0.37 l
0.54 -0.36 l
0.55 -0.37 l
0.55 -0.36 l
0.55 -0.36 l
0.55 -0.36 l
0.55 -0.36 l
o
1.07 setlinewidth
[ 2.13 2.13] 0 setdash
np
54.99 42.71 m
0.55 0 l
0.55 0 l
0.54 0 l
0.55 0 l
0.55 0 l
0.55 0 l
0.55 0 l
0.55 0 l
0.55 0 l
0.54 0 l
0.55 0 l
0.55 0 l
0.55 0 l
0.55 0 l
0.55 0 l
0.55 0 l
0.54 0 l
0.55 0 l
0.55 0 l
0.55 0 l
0.55 0 l
0.55 0 l
0.55 0 l
0.54 0.01 l
0.55 0 l
0.55 0.01 l
0.55 0.01 l
0.55 0.02 l
0.55 0.03 l
0.55 0.03 l
0.54 0.04 l
0.55 0.06 l
0.55 0.07 l
0.55 0.08 l
0.55 0.10 l
0.55 0.12 l
0.55 0.14 l
0.54 0.17 l
0.55 0.19 l
0.55 0.23 l
0.55 0.25 l
0.55 0.28 l
0.55 0.32 l
0.55 0.36 l
0.54 0.40 l
0.55 0.43 l
0.55 0.47 l
0.55 0.52 l
0.55 0.56 l
0.55 0.60 l
0.55 0.65 l
0.54 0.69 l
0.55 0.74 l
0.55 0.79 l
0.55 0.83 l
0.55 0.87 l
0.55 0.92 l
0.54 0.97 l
0.55 1.01 l
0.55 1.06 l
0.55 1.10 l
0.55 1.14 l
0.55 1.18 l
0.55 1.23 l
0.54 1.26 l
0.55 1.31 l
0.55 1.34 l
0.55 1.38 l
0.55 1.41 l
0.55 1.45 l
0.55 1.48 l
0.54 1.52 l
0.55 1.54 l
0.55 1.57 l
0.55 1.60 l
0.55 1.63 l
0.55 1.65 l
0.55 1.68 l
0.54 1.70 l
0.55 1.72 l
0.55 1.74 l
0.55 1.75 l
0.55 1.78 l
0.55 1.79 l
0.55 1.80 l
0.54 1.82 l
0.55 1.82 l
0.55 1.84 l
0.55 1.85 l
0.55 1.86 l
0.55 1.86 l
0.55 1.87 l
0.54 1.88 l
0.55 1.88 l
0.55 1.88 l
0.55 1.88 l
0.55 1.89 l
0.55 1.88 l
0.55 1.88 l
109.84 122.47 lineto
0.55 1.87 l
0.55 1.88 l
0.55 1.87 l
0.55 1.87 l
0.55 1.85 l
0.55 1.86 l
0.54 1.84 l
0.55 1.84 l
0.55 1.83 l
0.55 1.82 l
0.55 1.81 l
0.55 1.80 l
0.55 1.79 l
0.54 1.78 l
0.55 1.77 l
0.55 1.75 l
0.55 1.74 l
0.55 1.73 l
0.55 1.71 l
0.55 1.70 l
0.54 1.69 l
0.55 1.67 l
0.55 1.66 l
0.55 1.64 l
0.55 1.63 l
0.55 1.61 l
0.55 1.59 l
0.54 1.58 l
0.55 1.56 l
0.55 1.55 l
0.55 1.52 l
0.55 1.52 l
0.55 1.49 l
0.54 1.48 l
0.55 1.46 l
0.55 1.44 l
0.55 1.42 l
0.55 1.41 l
0.55 1.39 l
0.55 1.37 l
0.54 1.35 l
0.55 1.33 l
0.55 1.32 l
0.55 1.30 l
0.55 1.28 l
0.55 1.26 l
0.55 1.25 l
0.54 1.22 l
0.55 1.21 l
0.55 1.19 l
0.55 1.17 l
0.55 1.16 l
0.55 1.13 l
0.55 1.12 l
0.54 1.10 l
0.55 1.08 l
0.55 1.06 l
0.55 1.05 l
0.55 1.03 l
0.55 1.01 l
0.55 0.99 l
0.54 0.98 l
0.55 0.96 l
0.55 0.94 l
0.55 0.92 l
0.55 0.91 l
0.55 0.89 l
0.55 0.87 l
0.54 0.86 l
0.55 0.83 l
0.55 0.83 l
0.55 0.80 l
0.55 0.79 l
0.55 0.78 l
0.55 0.75 l
0.54 0.74 l
0.55 0.73 l
0.55 0.71 l
0.55 0.69 l
0.55 0.68 l
0.55 0.66 l
0.55 0.65 l
0.54 0.63 l
0.55 0.62 l
0.55 0.60 l
0.55 0.59 l
0.55 0.57 l
0.55 0.56 l
0.55 0.55 l
0.54 0.53 l
0.55 0.51 l
0.55 0.50 l
0.55 0.49 l
0.55 0.48 l
0.55 0.46 l
0.55 0.44 l
0.54 0.44 l
0.55 0.42 l
0.55 0.41 l
164.70 240.03 lineto
0.55 0.38 l
0.55 0.37 l
0.55 0.36 l
0.54 0.35 l
0.55 0.33 l
0.55 0.32 l
0.55 0.31 l
0.55 0.30 l
0.55 0.28 l
0.55 0.28 l
0.54 0.26 l
0.55 0.25 l
0.55 0.24 l
0.55 0.23 l
0.55 0.22 l
0.55 0.20 l
0.54 0.20 l
0.55 0.19 l
0.55 0.17 l
0.55 0.17 l
0.55 0.16 l
0.55 0.14 l
0.55 0.14 l
0.54 0.12 l
0.55 0.12 l
0.55 0.11 l
0.55 0.09 l
0.55 0.09 l
0.55 0.08 l
0.55 0.07 l
0.54 0.06 l
0.55 0.06 l
0.55 0.04 l
0.55 0.04 l
0.55 0.02 l
0.55 0.02 l
0.55 0.01 l
0.54 0 l
0.55 0 l
0.55 -0.01 l
0.55 -0.03 l
0.55 -0.02 l
0.55 -0.04 l
0.55 -0.04 l
0.54 -0.06 l
0.55 -0.05 l
0.55 -0.07 l
0.55 -0.07 l
0.55 -0.08 l
0.55 -0.09 l
0.55 -0.09 l
0.54 -0.10 l
0.55 -0.11 l
0.55 -0.11 l
0.55 -0.12 l
0.55 -0.13 l
0.55 -0.13 l
0.55 -0.14 l
0.54 -0.14 l
0.55 -0.15 l
0.55 -0.15 l
0.55 -0.17 l
0.55 -0.16 l
0.55 -0.18 l
0.55 -0.17 l
0.54 -0.19 l
0.55 -0.18 l
0.55 -0.20 l
0.55 -0.20 l
0.55 -0.20 l
0.55 -0.21 l
0.55 -0.21 l
0.54 -0.22 l
0.55 -0.23 l
0.55 -0.22 l
0.55 -0.24 l
0.55 -0.23 l
0.55 -0.24 l
0.55 -0.25 l
0.54 -0.25 l
0.55 -0.25 l
0.55 -0.26 l
0.55 -0.27 l
0.55 -0.26 l
0.55 -0.27 l
0.55 -0.28 l
0.54 -0.28 l
0.55 -0.28 l
0.55 -0.28 l
0.55 -0.29 l
0.55 -0.29 l
0.55 -0.30 l
0.54 -0.30 l
0.55 -0.30 l
0.55 -0.31 l
0.55 -0.31 l
0.55 -0.31 l
0.55 -0.32 l
0.55 -0.31 l
219.55 235.13 lineto
0.55 -0.32 l
0.55 -0.33 l
0.55 -0.33 l
0.55 -0.33 l
0.55 -0.34 l
0.55 -0.34 l
0.54 -0.34 l
0.55 -0.34 l
0.55 -0.35 l
0.55 -0.34 l
0.55 -0.36 l
0.55 -0.35 l
0.55 -0.35 l
0.54 -0.36 l
0.55 -0.36 l
0.55 -0.36 l
0.55 -0.37 l
0.55 -0.36 l
0.55 -0.37 l
0.55 -0.37 l
0.54 -0.38 l
0.55 -0.37 l
0.55 -0.38 l
0.55 -0.37 l
0.55 -0.38 l
0.55 -0.38 l
0.55 -0.39 l
0.54 -0.38 l
0.55 -0.39 l
0.55 -0.39 l
0.55 -0.38 l
0.55 -0.40 l
0.55 -0.39 l
0.55 -0.39 l
0.54 -0.40 l
0.55 -0.39 l
0.55 -0.40 l
0.55 -0.40 l
0.55 -0.40 l
0.55 -0.40 l
0.55 -0.40 l
0.54 -0.41 l
0.55 -0.40 l
0.55 -0.41 l
0.55 -0.40 l
0.55 -0.41 l
0.55 -0.41 l
0.55 -0.41 l
0.54 -0.41 l
0.55 -0.41 l
0.55 -0.41 l
0.55 -0.41 l
0.55 -0.42 l
0.55 -0.41 l
0.55 -0.42 l
0.54 -0.41 l
0.55 -0.42 l
0.55 -0.42 l
0.55 -0.41 l
0.55 -0.42 l
0.55 -0.42 l
0.55 -0.42 l
0.54 -0.42 l
0.55 -0.42 l
0.55 -0.42 l
0.55 -0.42 l
0.55 -0.42 l
0.55 -0.43 l
0.55 -0.42 l
0.54 -0.42 l
0.55 -0.42 l
0.55 -0.43 l
0.55 -0.42 l
0.55 -0.43 l
0.55 -0.42 l
0.54 -0.42 l
0.55 -0.43 l
0.55 -0.42 l
0.55 -0.43 l
0.55 -0.42 l
0.55 -0.43 l
0.55 -0.42 l
0.54 -0.43 l
0.55 -0.42 l
0.55 -0.43 l
0.55 -0.42 l
0.55 -0.43 l
0.55 -0.43 l
0.55 -0.42 l
0.54 -0.43 l
0.55 -0.42 l
0.55 -0.43 l
0.55 -0.42 l
0.55 -0.43 l
0.55 -0.42 l
0.55 -0.43 l
0.54 -0.42 l
0.55 -0.42 l
0.55 -0.43 l
274.41 195.23 lineto
0.55 -0.43 l
0.55 -0.42 l
0.55 -0.42 l
0.54 -0.43 l
0.55 -0.42 l
0.55 -0.42 l
0.55 -0.42 l
0.55 -0.42 l
0.55 -0.43 l
0.55 -0.42 l
0.54 -0.42 l
0.55 -0.42 l
0.55 -0.42 l
0.55 -0.42 l
0.55 -0.42 l
0.55 -0.42 l
0.55 -0.41 l
0.54 -0.42 l
0.55 -0.42 l
0.55 -0.42 l
0.55 -0.41 l
0.55 -0.42 l
0.55 -0.41 l
0.55 -0.42 l
0.54 -0.41 l
0.55 -0.42 l
0.55 -0.41 l
0.55 -0.41 l
0.55 -0.42 l
0.55 -0.41 l
0.55 -0.41 l
0.54 -0.41 l
0.55 -0.41 l
0.55 -0.41 l
0.55 -0.41 l
0.55 -0.41 l
0.55 -0.41 l
0.55 -0.40 l
0.54 -0.41 l
0.55 -0.41 l
0.55 -0.40 l
0.55 -0.41 l
0.55 -0.40 l
0.55 -0.41 l
0.55 -0.40 l
0.54 -0.40 l
0.55 -0.40 l
0.55 -0.40 l
0.55 -0.40 l
0.55 -0.40 l
0.55 -0.40 l
0.54 -0.40 l
0.55 -0.40 l
0.55 -0.39 l
0.55 -0.40 l
0.55 -0.39 l
0.55 -0.40 l
0.55 -0.39 l
0.54 -0.40 l
0.55 -0.39 l
0.55 -0.39 l
0.55 -0.39 l
0.55 -0.39 l
0.55 -0.39 l
0.55 -0.39 l
0.54 -0.39 l
0.55 -0.38 l
0.55 -0.39 l
0.55 -0.38 l
0.55 -0.39 l
0.55 -0.38 l
0.55 -0.39 l
0.54 -0.38 l
0.55 -0.38 l
0.55 -0.38 l
0.55 -0.38 l
0.55 -0.38 l
0.55 -0.38 l
0.55 -0.37 l
0.54 -0.38 l
0.55 -0.38 l
0.55 -0.37 l
0.55 -0.37 l
0.55 -0.38 l
0.55 -0.37 l
0.55 -0.37 l
0.54 -0.37 l
0.55 -0.37 l
0.55 -0.37 l
0.55 -0.37 l
0.55 -0.37 l
0.55 -0.36 l
0.55 -0.37 l
0.54 -0.36 l
0.55 -0.37 l
0.55 -0.36 l
0.55 -0.36 l
0.55 -0.36 l
0.55 -0.36 l
o
0 0.7490 0.4902 srgb
1.07 setlinewidth
[] 0 setdash
np
54.99 42.71 m
0.55 0 l
0.55 0 l
0.54 0 l
0.55 0 l
0.55 0 l
0.55 0 l
0.55 0 l
0.55 0 l
0.55 0 l
0.54 0 l
0.55 0 l
0.55 0 l
0.55 0 l
0.55 0 l
0.55 0 l
0.55 0 l
0.54 0 l
0.55 0 l
0.55 0 l
0.55 0 l
0.55 0 l
0.55 0 l
0.55 0 l
0.54 0.01 l
0.55 0.01 l
0.55 0.01 l
0.55 0.01 l
0.55 0.03 l
0.55 0.03 l
0.55 0.04 l
0.54 0.05 l
0.55 0.07 l
0.55 0.08 l
0.55 0.10 l
0.55 0.12 l
0.55 0.15 l
0.55 0.18 l
0.54 0.20 l
0.55 0.24 l
0.55 0.27 l
0.55 0.31 l
0.55 0.35 l
0.55 0.39 l
0.55 0.43 l
0.54 0.49 l
0.55 0.53 l
0.55 0.58 l
0.55 0.63 l
0.55 0.68 l
0.55 0.73 l
0.55 0.79 l
0.54 0.85 l
0.55 0.89 l
0.55 0.96 l
0.55 1.00 l
0.55 1.07 l
0.55 1.11 l
0.54 1.17 l
0.55 1.23 l
0.55 1.27 l
0.55 1.33 l
0.55 1.38 l
0.55 1.43 l
0.55 1.47 l
0.54 1.52 l
0.55 1.57 l
0.55 1.61 l
0.55 1.65 l
0.55 1.69 l
0.55 1.73 l
0.55 1.77 l
0.54 1.80 l
0.55 1.84 l
0.55 1.87 l
0.55 1.90 l
0.55 1.92 l
0.55 1.95 l
0.55 1.98 l
0.54 2.00 l
0.55 2.02 l
0.55 2.04 l
0.55 2.06 l
0.55 2.07 l
0.55 2.09 l
0.55 2.09 l
0.54 2.11 l
0.55 2.12 l
0.55 2.13 l
0.55 2.13 l
0.55 2.14 l
0.55 2.14 l
0.55 2.14 l
0.54 2.14 l
0.55 2.14 l
0.55 2.14 l
0.55 2.14 l
0.55 2.13 l
0.55 2.12 l
0.55 2.12 l
109.84 136.50 lineto
0.55 2.10 l
0.55 2.09 l
0.55 2.08 l
0.55 2.07 l
0.55 2.05 l
0.55 2.05 l
0.54 2.02 l
0.55 2.02 l
0.55 1.99 l
0.55 1.98 l
0.55 1.96 l
0.55 1.95 l
0.55 1.93 l
0.54 1.90 l
0.55 1.89 l
0.55 1.87 l
0.55 1.85 l
0.55 1.83 l
0.55 1.80 l
0.55 1.79 l
0.54 1.76 l
0.55 1.74 l
0.55 1.72 l
0.55 1.70 l
0.55 1.67 l
0.55 1.65 l
0.55 1.63 l
0.54 1.60 l
0.55 1.58 l
0.55 1.56 l
0.55 1.53 l
0.55 1.50 l
0.55 1.49 l
0.54 1.46 l
0.55 1.43 l
0.55 1.41 l
0.55 1.39 l
0.55 1.36 l
0.55 1.34 l
0.55 1.31 l
0.54 1.29 l
0.55 1.27 l
0.55 1.24 l
0.55 1.21 l
0.55 1.20 l
0.55 1.17 l
0.55 1.14 l
0.54 1.12 l
0.55 1.10 l
0.55 1.07 l
0.55 1.05 l
0.55 1.03 l
0.55 1.01 l
0.55 0.98 l
0.54 0.96 l
0.55 0.93 l
0.55 0.92 l
0.55 0.89 l
0.55 0.87 l
0.55 0.85 l
0.55 0.82 l
0.54 0.81 l
0.55 0.78 l
0.55 0.76 l
0.55 0.74 l
0.55 0.72 l
0.55 0.70 l
0.55 0.68 l
0.54 0.66 l
0.55 0.64 l
0.55 0.62 l
0.55 0.60 l
0.55 0.58 l
0.55 0.56 l
0.55 0.54 l
0.54 0.53 l
0.55 0.50 l
0.55 0.49 l
0.55 0.47 l
0.55 0.45 l
0.55 0.43 l
0.55 0.42 l
0.54 0.40 l
0.55 0.38 l
0.55 0.37 l
0.55 0.35 l
0.55 0.33 l
0.55 0.32 l
0.55 0.30 l
0.54 0.28 l
0.55 0.27 l
0.55 0.25 l
0.55 0.24 l
0.55 0.23 l
0.55 0.21 l
0.55 0.19 l
0.54 0.19 l
0.55 0.16 l
0.55 0.16 l
164.70 246.12 lineto
0.55 0.12 l
0.55 0.12 l
0.55 0.10 l
0.54 0.08 l
0.55 0.08 l
0.55 0.06 l
0.55 0.05 l
0.55 0.04 l
0.55 0.03 l
0.55 0.01 l
0.54 0 l
0.55 0 l
0.55 -0.02 l
0.55 -0.03 l
0.55 -0.04 l
0.55 -0.05 l
0.54 -0.07 l
0.55 -0.07 l
0.55 -0.08 l
0.55 -0.09 l
0.55 -0.10 l
0.55 -0.11 l
0.55 -0.12 l
0.54 -0.13 l
0.55 -0.14 l
0.55 -0.15 l
0.55 -0.16 l
0.55 -0.16 l
0.55 -0.18 l
0.55 -0.18 l
0.54 -0.19 l
0.55 -0.19 l
0.55 -0.21 l
0.55 -0.21 l
0.55 -0.23 l
0.55 -0.22 l
0.55 -0.24 l
0.54 -0.24 l
0.55 -0.25 l
0.55 -0.26 l
0.55 -0.26 l
0.55 -0.27 l
0.55 -0.28 l
0.55 -0.28 l
0.54 -0.29 l
0.55 -0.30 l
0.55 -0.30 l
0.55 -0.31 l
0.55 -0.31 l
0.55 -0.32 l
0.55 -0.32 l
0.54 -0.33 l
0.55 -0.34 l
0.55 -0.34 l
0.55 -0.34 l
0.55 -0.35 l
0.55 -0.36 l
0.55 -0.36 l
0.54 -0.36 l
0.55 -0.37 l
0.55 -0.37 l
0.55 -0.38 l
0.55 -0.38 l
0.55 -0.39 l
0.55 -0.39 l
0.54 -0.39 l
0.55 -0.40 l
0.55 -0.40 l
0.55 -0.41 l
0.55 -0.41 l
0.55 -0.41 l
0.55 -0.42 l
0.54 -0.42 l
0.55 -0.42 l
0.55 -0.42 l
0.55 -0.43 l
0.55 -0.44 l
0.55 -0.43 l
0.55 -0.44 l
0.54 -0.44 l
0.55 -0.44 l
0.55 -0.45 l
0.55 -0.45 l
0.55 -0.45 l
0.55 -0.45 l
0.55 -0.46 l
0.54 -0.46 l
0.55 -0.46 l
0.55 -0.46 l
0.55 -0.46 l
0.55 -0.47 l
0.55 -0.47 l
0.54 -0.47 l
0.55 -0.47 l
0.55 -0.48 l
0.55 -0.47 l
0.55 -0.48 l
0.55 -0.48 l
0.55 -0.48 l
219.55 218.82 lineto
0.55 -0.49 l
0.55 -0.48 l
0.55 -0.49 l
0.55 -0.48 l
0.55 -0.49 l
0.55 -0.49 l
0.54 -0.50 l
0.55 -0.49 l
0.55 -0.49 l
0.55 -0.50 l
0.55 -0.49 l
0.55 -0.50 l
0.55 -0.49 l
0.54 -0.50 l
0.55 -0.50 l
0.55 -0.50 l
0.55 -0.50 l
0.55 -0.50 l
0.55 -0.50 l
0.55 -0.50 l
0.54 -0.51 l
0.55 -0.50 l
0.55 -0.50 l
0.55 -0.51 l
0.55 -0.50 l
0.55 -0.50 l
0.55 -0.51 l
0.54 -0.50 l
0.55 -0.51 l
0.55 -0.51 l
0.55 -0.50 l
0.55 -0.51 l
0.55 -0.50 l
0.55 -0.51 l
0.54 -0.50 l
0.55 -0.51 l
0.55 -0.51 l
0.55 -0.50 l
0.55 -0.51 l
0.55 -0.50 l
0.55 -0.51 l
0.54 -0.50 l
0.55 -0.51 l
0.55 -0.51 l
0.55 -0.50 l
0.55 -0.50 l
0.55 -0.51 l
0.55 -0.50 l
0.54 -0.51 l
0.55 -0.50 l
0.55 -0.50 l
0.55 -0.50 l
0.55 -0.51 l
0.55 -0.50 l
0.55 -0.50 l
0.54 -0.50 l
0.55 -0.50 l
0.55 -0.50 l
0.55 -0.50 l
0.55 -0.50 l
0.55 -0.50 l
0.55 -0.49 l
0.54 -0.50 l
0.55 -0.50 l
0.55 -0.49 l
0.55 -0.50 l
0.55 -0.49 l
0.55 -0.49 l
0.55 -0.50 l
0.54 -0.49 l
0.55 -0.49 l
0.55 -0.49 l
0.55 -0.49 l
0.55 -0.49 l
0.55 -0.48 l
0.54 -0.49 l
0.55 -0.49 l
0.55 -0.48 l
0.55 -0.49 l
0.55 -0.48 l
0.55 -0.48 l
0.55 -0.49 l
0.54 -0.48 l
0.55 -0.48 l
0.55 -0.48 l
0.55 -0.48 l
0.55 -0.47 l
0.55 -0.48 l
0.55 -0.47 l
0.54 -0.48 l
0.55 -0.47 l
0.55 -0.47 l
0.55 -0.48 l
0.55 -0.47 l
0.55 -0.47 l
0.55 -0.46 l
0.54 -0.47 l
0.55 -0.47 l
0.55 -0.46 l
274.41 169.48 lineto
0.55 -0.46 l
0.55 -0.46 l
0.55 -0.46 l
0.54 -0.46 l
0.55 -0.46 l
0.55 -0.46 l
0.55 -0.45 l
0.55 -0.46 l
0.55 -0.45 l
0.55 -0.46 l
0.54 -0.45 l
0.55 -0.45 l
0.55 -0.45 l
0.55 -0.45 l
0.55 -0.44 l
0.55 -0.45 l
0.55 -0.44 l
0.54 -0.45 l
0.55 -0.44 l
0.55 -0.44 l
0.55 -0.44 l
0.55 -0.44 l
0.55 -0.44 l
0.55 -0.43 l
0.54 -0.44 l
0.55 -0.43 l
0.55 -0.44 l
0.55 -0.43 l
0.55 -0.43 l
0.55 -0.43 l
0.55 -0.43 l
0.54 -0.42 l
0.55 -0.43 l
0.55 -0.42 l
0.55 -0.42 l
0.55 -0.43 l
0.55 -0.42 l
0.55 -0.42 l
0.54 -0.41 l
0.55 -0.42 l
0.55 -0.42 l
0.55 -0.41 l
0.55 -0.41 l
0.55 -0.42 l
0.55 -0.41 l
0.54 -0.41 l
0.55 -0.40 l
0.55 -0.41 l
0.55 -0.41 l
0.55 -0.40 l
0.55 -0.40 l
0.54 -0.41 l
0.55 -0.40 l
0.55 -0.40 l
0.55 -0.39 l
0.55 -0.40 l
0.55 -0.40 l
0.55 -0.39 l
0.54 -0.39 l
0.55 -0.40 l
0.55 -0.39 l
0.55 -0.39 l
0.55 -0.38 l
0.55 -0.39 l
0.55 -0.39 l
0.54 -0.38 l
0.55 -0.38 l
0.55 -0.38 l
0.55 -0.39 l
0.55 -0.37 l
0.55 -0.38 l
0.55 -0.38 l
0.54 -0.37 l
0.55 -0.38 l
0.55 -0.37 l
0.55 -0.37 l
0.55 -0.37 l
0.55 -0.37 l
0.55 -0.37 l
0.54 -0.37 l
0.55 -0.36 l
0.55 -0.37 l
0.55 -0.36 l
0.55 -0.36 l
0.55 -0.36 l
0.55 -0.36 l
0.54 -0.36 l
0.55 -0.36 l
0.55 -0.35 l
0.55 -0.36 l
0.55 -0.35 l
0.55 -0.35 l
0.55 -0.35 l
0.54 -0.35 l
0.55 -0.35 l
0.55 -0.35 l
0.55 -0.34 l
0.55 -0.35 l
0.55 -0.34 l
o
1.07 setlinewidth
[ 2.13 2.13] 0 setdash
np
54.99 42.71 m
0.55 0 l
0.55 0 l
0.54 0 l
0.55 0 l
0.55 0 l
0.55 0 l
0.55 0 l
0.55 0 l
0.55 0 l
0.54 0 l
0.55 0 l
0.55 0 l
0.55 0 l
0.55 0 l
0.55 0 l
0.55 0 l
0.54 0 l
0.55 0 l
0.55 0 l
0.55 0 l
0.55 0 l
0.55 0 l
0.55 0 l
0.54 0.01 l
0.55 0 l
0.55 0.02 l
0.55 0.01 l
0.55 0.02 l
0.55 0.03 l
0.55 0.04 l
0.54 0.05 l
0.55 0.06 l
0.55 0.08 l
0.55 0.10 l
0.55 0.12 l
0.55 0.14 l
0.55 0.16 l
0.54 0.20 l
0.55 0.22 l
0.55 0.26 l
0.55 0.30 l
0.55 0.33 l
0.55 0.37 l
0.55 0.41 l
0.54 0.46 l
0.55 0.51 l
0.55 0.55 l
0.55 0.60 l
0.55 0.65 l
0.55 0.70 l
0.55 0.75 l
0.54 0.81 l
0.55 0.86 l
0.55 0.91 l
0.55 0.96 l
0.55 1.01 l
0.55 1.07 l
0.54 1.12 l
0.55 1.17 l
0.55 1.22 l
0.55 1.27 l
0.55 1.32 l
0.55 1.36 l
0.55 1.42 l
0.54 1.46 l
0.55 1.50 l
0.55 1.54 l
0.55 1.59 l
0.55 1.62 l
0.55 1.67 l
0.55 1.70 l
0.54 1.73 l
0.55 1.77 l
0.55 1.80 l
0.55 1.83 l
0.55 1.85 l
0.55 1.89 l
0.55 1.90 l
0.54 1.94 l
0.55 1.95 l
0.55 1.97 l
0.55 1.99 l
0.55 2.01 l
0.55 2.02 l
0.55 2.03 l
0.54 2.05 l
0.55 2.06 l
0.55 2.06 l
0.55 2.08 l
0.55 2.08 l
0.55 2.08 l
0.55 2.09 l
0.54 2.08 l
0.55 2.09 l
0.55 2.09 l
0.55 2.09 l
0.55 2.08 l
0.55 2.08 l
0.55 2.08 l
109.84 133.28 lineto
0.55 2.06 l
0.55 2.05 l
0.55 2.05 l
0.55 2.03 l
0.55 2.02 l
0.55 2.01 l
0.54 2.00 l
0.55 1.99 l
0.55 1.97 l
0.55 1.96 l
0.55 1.94 l
0.55 1.93 l
0.55 1.91 l
0.54 1.89 l
0.55 1.88 l
0.55 1.85 l
0.55 1.84 l
0.55 1.82 l
0.55 1.80 l
0.55 1.79 l
0.54 1.76 l
0.55 1.74 l
0.55 1.72 l
0.55 1.70 l
0.55 1.67 l
0.55 1.66 l
0.55 1.63 l
0.54 1.62 l
0.55 1.59 l
0.55 1.57 l
0.55 1.54 l
0.55 1.52 l
0.55 1.50 l
0.54 1.48 l
0.55 1.46 l
0.55 1.43 l
0.55 1.41 l
0.55 1.38 l
0.55 1.37 l
0.55 1.34 l
0.54 1.31 l
0.55 1.30 l
0.55 1.27 l
0.55 1.24 l
0.55 1.23 l
0.55 1.20 l
0.55 1.18 l
0.54 1.16 l
0.55 1.13 l
0.55 1.11 l
0.55 1.09 l
0.55 1.07 l
0.55 1.04 l
0.55 1.02 l
0.54 1.00 l
0.55 0.98 l
0.55 0.96 l
0.55 0.93 l
0.55 0.91 l
0.55 0.90 l
0.55 0.87 l
0.54 0.85 l
0.55 0.82 l
0.55 0.81 l
0.55 0.79 l
0.55 0.77 l
0.55 0.75 l
0.55 0.72 l
0.54 0.71 l
0.55 0.69 l
0.55 0.67 l
0.55 0.65 l
0.55 0.63 l
0.55 0.61 l
0.55 0.59 l
0.54 0.58 l
0.55 0.55 l
0.55 0.54 l
0.55 0.52 l
0.55 0.50 l
0.55 0.49 l
0.55 0.47 l
0.54 0.45 l
0.55 0.43 l
0.55 0.42 l
0.55 0.40 l
0.55 0.38 l
0.55 0.37 l
0.55 0.36 l
0.54 0.33 l
0.55 0.32 l
0.55 0.31 l
0.55 0.29 l
0.55 0.28 l
0.55 0.26 l
0.55 0.25 l
0.54 0.23 l
0.55 0.22 l
0.55 0.20 l
164.70 245.47 lineto
0.55 0.17 l
0.55 0.17 l
0.55 0.15 l
0.54 0.14 l
0.55 0.12 l
0.55 0.12 l
0.55 0.10 l
0.55 0.08 l
0.55 0.08 l
0.55 0.06 l
0.54 0.06 l
0.55 0.04 l
0.55 0.03 l
0.55 0.02 l
0.55 0 l
0.55 0 l
0.54 -0.01 l
0.55 -0.03 l
0.55 -0.03 l
0.55 -0.05 l
0.55 -0.05 l
0.55 -0.07 l
0.55 -0.07 l
0.54 -0.08 l
0.55 -0.10 l
0.55 -0.10 l
0.55 -0.11 l
0.55 -0.12 l
0.55 -0.13 l
0.55 -0.14 l
0.54 -0.14 l
0.55 -0.16 l
0.55 -0.16 l
0.55 -0.17 l
0.55 -0.18 l
0.55 -0.19 l
0.55 -0.19 l
0.54 -0.20 l
0.55 -0.21 l
0.55 -0.22 l
0.55 -0.22 l
0.55 -0.23 l
0.55 -0.24 l
0.55 -0.24 l
0.54 -0.25 l
0.55 -0.26 l
0.55 -0.26 l
0.55 -0.27 l
0.55 -0.27 l
0.55 -0.29 l
0.55 -0.28 l
0.54 -0.30 l
0.55 -0.29 l
0.55 -0.31 l
0.55 -0.31 l
0.55 -0.31 l
0.55 -0.32 l
0.55 -0.33 l
0.54 -0.33 l
0.55 -0.33 l
0.55 -0.34 l
0.55 -0.35 l
0.55 -0.35 l
0.55 -0.35 l
0.55 -0.36 l
0.54 -0.36 l
0.55 -0.37 l
0.55 -0.37 l
0.55 -0.37 l
0.55 -0.38 l
0.55 -0.38 l
0.55 -0.39 l
0.54 -0.39 l
0.55 -0.39 l
0.55 -0.40 l
0.55 -0.40 l
0.55 -0.40 l
0.55 -0.41 l
0.55 -0.41 l
0.54 -0.41 l
0.55 -0.42 l
0.55 -0.42 l
0.55 -0.42 l
0.55 -0.43 l
0.55 -0.42 l
0.55 -0.44 l
0.54 -0.43 l
0.55 -0.43 l
0.55 -0.44 l
0.55 -0.44 l
0.55 -0.45 l
0.55 -0.44 l
0.54 -0.45 l
0.55 -0.45 l
0.55 -0.45 l
0.55 -0.45 l
0.55 -0.46 l
0.55 -0.45 l
0.55 -0.46 l
219.55 221.86 lineto
0.55 -0.46 l
0.55 -0.46 l
0.55 -0.47 l
0.55 -0.47 l
0.55 -0.46 l
0.55 -0.48 l
0.54 -0.47 l
0.55 -0.47 l
0.55 -0.48 l
0.55 -0.47 l
0.55 -0.48 l
0.55 -0.48 l
0.55 -0.48 l
0.54 -0.48 l
0.55 -0.48 l
0.55 -0.48 l
0.55 -0.48 l
0.55 -0.49 l
0.55 -0.48 l
0.55 -0.49 l
0.54 -0.48 l
0.55 -0.49 l
0.55 -0.49 l
0.55 -0.49 l
0.55 -0.49 l
0.55 -0.49 l
0.55 -0.49 l
0.54 -0.49 l
0.55 -0.49 l
0.55 -0.49 l
0.55 -0.49 l
0.55 -0.50 l
0.55 -0.49 l
0.55 -0.49 l
0.54 -0.50 l
0.55 -0.49 l
0.55 -0.49 l
0.55 -0.50 l
0.55 -0.49 l
0.55 -0.49 l
0.55 -0.50 l
0.54 -0.49 l
0.55 -0.50 l
0.55 -0.49 l
0.55 -0.50 l
0.55 -0.49 l
0.55 -0.49 l
0.55 -0.50 l
0.54 -0.49 l
0.55 -0.50 l
0.55 -0.49 l
0.55 -0.49 l
0.55 -0.49 l
0.55 -0.50 l
0.55 -0.49 l
0.54 -0.49 l
0.55 -0.49 l
0.55 -0.50 l
0.55 -0.49 l
0.55 -0.49 l
0.55 -0.49 l
0.55 -0.49 l
0.54 -0.49 l
0.55 -0.48 l
0.55 -0.49 l
0.55 -0.49 l
0.55 -0.49 l
0.55 -0.48 l
0.55 -0.49 l
0.54 -0.49 l
0.55 -0.48 l
0.55 -0.49 l
0.55 -0.48 l
0.55 -0.48 l
0.55 -0.49 l
0.54 -0.48 l
0.55 -0.48 l
0.55 -0.48 l
0.55 -0.48 l
0.55 -0.48 l
0.55 -0.48 l
0.55 -0.47 l
0.54 -0.48 l
0.55 -0.48 l
0.55 -0.47 l
0.55 -0.47 l
0.55 -0.48 l
0.55 -0.47 l
0.55 -0.47 l
0.54 -0.47 l
0.55 -0.47 l
0.55 -0.47 l
0.55 -0.47 l
0.55 -0.47 l
0.55 -0.46 l
0.55 -0.47 l
0.54 -0.46 l
0.55 -0.47 l
0.55 -0.46 l
274.41 173.56 lineto
0.55 -0.46 l
0.55 -0.46 l
0.55 -0.46 l
0.54 -0.46 l
0.55 -0.46 l
0.55 -0.45 l
0.55 -0.46 l
0.55 -0.45 l
0.55 -0.45 l
0.55 -0.45 l
0.54 -0.46 l
0.55 -0.45 l
0.55 -0.44 l
0.55 -0.45 l
0.55 -0.45 l
0.55 -0.44 l
0.55 -0.45 l
0.54 -0.44 l
0.55 -0.44 l
0.55 -0.44 l
0.55 -0.44 l
0.55 -0.44 l
0.55 -0.44 l
0.55 -0.44 l
0.54 -0.43 l
0.55 -0.44 l
0.55 -0.43 l
0.55 -0.43 l
0.55 -0.43 l
0.55 -0.43 l
0.55 -0.43 l
0.54 -0.43 l
0.55 -0.42 l
0.55 -0.43 l
0.55 -0.42 l
0.55 -0.43 l
0.55 -0.42 l
0.55 -0.42 l
0.54 -0.42 l
0.55 -0.42 l
0.55 -0.41 l
0.55 -0.42 l
0.55 -0.41 l
0.55 -0.42 l
0.55 -0.41 l
0.54 -0.41 l
0.55 -0.41 l
0.55 -0.41 l
0.55 -0.41 l
0.55 -0.40 l
0.55 -0.41 l
0.54 -0.40 l
0.55 -0.41 l
0.55 -0.40 l
0.55 -0.40 l
0.55 -0.40 l
0.55 -0.40 l
0.55 -0.39 l
0.54 -0.40 l
0.55 -0.39 l
0.55 -0.40 l
0.55 -0.39 l
0.55 -0.39 l
0.55 -0.39 l
0.55 -0.39 l
0.54 -0.38 l
0.55 -0.39 l
0.55 -0.38 l
0.55 -0.39 l
0.55 -0.38 l
0.55 -0.38 l
0.55 -0.38 l
0.54 -0.38 l
0.55 -0.38 l
0.55 -0.38 l
0.55 -0.37 l
0.55 -0.37 l
0.55 -0.38 l
0.55 -0.37 l
0.54 -0.37 l
0.55 -0.37 l
0.55 -0.37 l
0.55 -0.36 l
0.55 -0.37 l
0.55 -0.36 l
0.55 -0.37 l
0.54 -0.36 l
0.55 -0.36 l
0.55 -0.36 l
0.55 -0.36 l
0.55 -0.36 l
0.55 -0.35 l
0.55 -0.36 l
0.54 -0.35 l
0.55 -0.35 l
0.55 -0.35 l
0.55 -0.35 l
0.55 -0.35 l
0.55 -0.35 l
o
0 0.6902 0.9647 srgb
1.07 setlinewidth
[] 0 setdash
np
54.99 42.71 m
0.55 0 l
0.55 0 l
0.54 0 l
0.55 0 l
0.55 0 l
0.55 0 l
0.55 0 l
0.55 0 l
0.55 0 l
0.54 0 l
0.55 0 l
0.55 0 l
0.55 0 l
0.55 0 l
0.55 0 l
0.55 0 l
0.54 0 l
0.55 0 l
0.55 0 l
0.55 0 l
0.55 0 l
0.55 0 l
0.55 0 l
0.54 0.01 l
0.55 0.01 l
0.55 0.01 l
0.55 0.02 l
0.55 0.02 l
0.55 0.04 l
0.55 0.04 l
0.54 0.06 l
0.55 0.08 l
0.55 0.09 l
0.55 0.11 l
0.55 0.14 l
0.55 0.17 l
0.55 0.19 l
0.54 0.23 l
0.55 0.27 l
0.55 0.30 l
0.55 0.34 l
0.55 0.39 l
0.55 0.44 l
0.55 0.48 l
0.54 0.53 l
0.55 0.59 l
0.55 0.64 l
0.55 0.69 l
0.55 0.75 l
0.55 0.81 l
0.55 0.87 l
0.54 0.92 l
0.55 0.99 l
0.55 1.04 l
0.55 1.10 l
0.55 1.16 l
0.55 1.21 l
0.54 1.27 l
0.55 1.33 l
0.55 1.38 l
0.55 1.44 l
0.55 1.48 l
0.55 1.54 l
0.55 1.59 l
0.54 1.63 l
0.55 1.69 l
0.55 1.72 l
0.55 1.77 l
0.55 1.80 l
0.55 1.85 l
0.55 1.88 l
0.54 1.92 l
0.55 1.95 l
0.55 1.98 l
0.55 2.00 l
0.55 2.04 l
0.55 2.06 l
0.55 2.08 l
0.54 2.10 l
0.55 2.12 l
0.55 2.14 l
0.55 2.15 l
0.55 2.17 l
0.55 2.18 l
0.55 2.18 l
0.54 2.20 l
0.55 2.20 l
0.55 2.20 l
0.55 2.21 l
0.55 2.21 l
0.55 2.21 l
0.55 2.21 l
0.54 2.21 l
0.55 2.20 l
0.55 2.19 l
0.55 2.19 l
0.55 2.18 l
0.55 2.18 l
0.55 2.16 l
109.84 141.79 lineto
0.55 2.14 l
0.55 2.12 l
0.55 2.11 l
0.55 2.10 l
0.55 2.08 l
0.55 2.06 l
0.54 2.05 l
0.55 2.03 l
0.55 2.00 l
0.55 1.99 l
0.55 1.97 l
0.55 1.95 l
0.55 1.93 l
0.54 1.91 l
0.55 1.88 l
0.55 1.86 l
0.55 1.84 l
0.55 1.82 l
0.55 1.79 l
0.55 1.77 l
0.54 1.74 l
0.55 1.72 l
0.55 1.69 l
0.55 1.67 l
0.55 1.65 l
0.55 1.62 l
0.55 1.59 l
0.54 1.57 l
0.55 1.54 l
0.55 1.52 l
0.55 1.49 l
0.55 1.47 l
0.55 1.44 l
0.54 1.41 l
0.55 1.39 l
0.55 1.36 l
0.55 1.34 l
0.55 1.31 l
0.55 1.28 l
0.55 1.26 l
0.54 1.24 l
0.55 1.21 l
0.55 1.18 l
0.55 1.16 l
0.55 1.13 l
0.55 1.11 l
0.55 1.09 l
0.54 1.06 l
0.55 1.03 l
0.55 1.01 l
0.55 0.99 l
0.55 0.96 l
0.55 0.94 l
0.55 0.91 l
0.54 0.89 l
0.55 0.87 l
0.55 0.85 l
0.55 0.82 l
0.55 0.80 l
0.55 0.78 l
0.55 0.75 l
0.54 0.74 l
0.55 0.71 l
0.55 0.69 l
0.55 0.67 l
0.55 0.65 l
0.55 0.62 l
0.55 0.61 l
0.54 0.59 l
0.55 0.56 l
0.55 0.55 l
0.55 0.53 l
0.55 0.50 l
0.55 0.49 l
0.55 0.47 l
0.54 0.45 l
0.55 0.43 l
0.55 0.42 l
0.55 0.39 l
0.55 0.38 l
0.55 0.36 l
0.55 0.34 l
0.54 0.33 l
0.55 0.31 l
0.55 0.29 l
0.55 0.28 l
0.55 0.26 l
0.55 0.24 l
0.55 0.23 l
0.54 0.21 l
0.55 0.20 l
0.55 0.18 l
0.55 0.17 l
0.55 0.15 l
0.55 0.14 l
0.55 0.13 l
0.54 0.11 l
0.55 0.09 l
0.55 0.09 l
164.70 246.66 lineto
0.55 0.05 l
0.55 0.05 l
0.55 0.03 l
0.54 0.02 l
0.55 0 l
0.55 0 l
0.55 -0.02 l
0.55 -0.03 l
0.55 -0.04 l
0.55 -0.05 l
0.54 -0.06 l
0.55 -0.08 l
0.55 -0.08 l
0.55 -0.09 l
0.55 -0.11 l
0.55 -0.12 l
0.54 -0.12 l
0.55 -0.14 l
0.55 -0.14 l
0.55 -0.16 l
0.55 -0.16 l
0.55 -0.17 l
0.55 -0.18 l
0.54 -0.20 l
0.55 -0.20 l
0.55 -0.20 l
0.55 -0.22 l
0.55 -0.22 l
0.55 -0.24 l
0.55 -0.24 l
0.54 -0.25 l
0.55 -0.25 l
0.55 -0.26 l
0.55 -0.27 l
0.55 -0.28 l
0.55 -0.29 l
0.55 -0.29 l
0.54 -0.30 l
0.55 -0.30 l
0.55 -0.31 l
0.55 -0.32 l
0.55 -0.32 l
0.55 -0.33 l
0.55 -0.34 l
0.54 -0.34 l
0.55 -0.35 l
0.55 -0.35 l
0.55 -0.36 l
0.55 -0.36 l
0.55 -0.37 l
0.55 -0.38 l
0.54 -0.37 l
0.55 -0.39 l
0.55 -0.39 l
0.55 -0.39 l
0.55 -0.40 l
0.55 -0.40 l
0.55 -0.41 l
0.54 -0.41 l
0.55 -0.41 l
0.55 -0.42 l
0.55 -0.42 l
0.55 -0.43 l
0.55 -0.43 l
0.55 -0.44 l
0.54 -0.43 l
0.55 -0.45 l
0.55 -0.44 l
0.55 -0.45 l
0.55 -0.45 l
0.55 -0.45 l
0.55 -0.46 l
0.54 -0.46 l
0.55 -0.46 l
0.55 -0.47 l
0.55 -0.47 l
0.55 -0.47 l
0.55 -0.47 l
0.55 -0.48 l
0.54 -0.48 l
0.55 -0.48 l
0.55 -0.48 l
0.55 -0.49 l
0.55 -0.49 l
0.55 -0.49 l
0.55 -0.49 l
0.54 -0.49 l
0.55 -0.50 l
0.55 -0.49 l
0.55 -0.50 l
0.55 -0.50 l
0.55 -0.51 l
0.54 -0.50 l
0.55 -0.51 l
0.55 -0.50 l
0.55 -0.51 l
0.55 -0.51 l
0.55 -0.51 l
0.55 -0.51 l
219.55 214.34 lineto
0.55 -0.51 l
0.55 -0.52 l
0.55 -0.51 l
0.55 -0.52 l
0.55 -0.52 l
0.55 -0.52 l
0.54 -0.52 l
0.55 -0.52 l
0.55 -0.52 l
0.55 -0.52 l
0.55 -0.52 l
0.55 -0.53 l
0.55 -0.52 l
0.54 -0.52 l
0.55 -0.53 l
0.55 -0.52 l
0.55 -0.53 l
0.55 -0.53 l
0.55 -0.52 l
0.55 -0.53 l
0.54 -0.52 l
0.55 -0.53 l
0.55 -0.53 l
0.55 -0.52 l
0.55 -0.53 l
0.55 -0.53 l
0.55 -0.53 l
0.54 -0.52 l
0.55 -0.53 l
0.55 -0.53 l
0.55 -0.52 l
0.55 -0.53 l
0.55 -0.53 l
0.55 -0.52 l
0.54 -0.53 l
0.55 -0.53 l
0.55 -0.52 l
0.55 -0.53 l
0.55 -0.52 l
0.55 -0.53 l
0.55 -0.52 l
0.54 -0.52 l
0.55 -0.53 l
0.55 -0.52 l
0.55 -0.52 l
0.55 -0.52 l
0.55 -0.52 l
0.55 -0.53 l
0.54 -0.52 l
0.55 -0.51 l
0.55 -0.52 l
0.55 -0.52 l
0.55 -0.52 l
0.55 -0.52 l
0.55 -0.51 l
0.54 -0.52 l
0.55 -0.51 l
0.55 -0.52 l
0.55 -0.51 l
0.55 -0.51 l
0.55 -0.51 l
0.55 -0.51 l
0.54 -0.51 l
0.55 -0.51 l
0.55 -0.51 l
0.55 -0.51 l
0.55 -0.50 l
0.55 -0.51 l
0.55 -0.50 l
0.54 -0.51 l
0.55 -0.50 l
0.55 -0.50 l
0.55 -0.50 l
0.55 -0.50 l
0.55 -0.50 l
0.54 -0.50 l
0.55 -0.49 l
0.55 -0.50 l
0.55 -0.49 l
0.55 -0.50 l
0.55 -0.49 l
0.55 -0.49 l
0.54 -0.49 l
0.55 -0.49 l
0.55 -0.49 l
0.55 -0.48 l
0.55 -0.49 l
0.55 -0.48 l
0.55 -0.49 l
0.54 -0.48 l
0.55 -0.48 l
0.55 -0.48 l
0.55 -0.48 l
0.55 -0.47 l
0.55 -0.48 l
0.55 -0.48 l
0.54 -0.47 l
0.55 -0.47 l
0.55 -0.47 l
274.41 163.33 lineto
0.55 -0.47 l
0.55 -0.47 l
0.55 -0.46 l
0.54 -0.47 l
0.55 -0.46 l
0.55 -0.47 l
0.55 -0.46 l
0.55 -0.46 l
0.55 -0.45 l
0.55 -0.46 l
0.54 -0.46 l
0.55 -0.45 l
0.55 -0.46 l
0.55 -0.45 l
0.55 -0.45 l
0.55 -0.45 l
0.55 -0.45 l
0.54 -0.44 l
0.55 -0.45 l
0.55 -0.44 l
0.55 -0.44 l
0.55 -0.45 l
0.55 -0.44 l
0.55 -0.43 l
0.54 -0.44 l
0.55 -0.44 l
0.55 -0.43 l
0.55 -0.44 l
0.55 -0.43 l
0.55 -0.43 l
0.55 -0.43 l
0.54 -0.43 l
0.55 -0.42 l
0.55 -0.43 l
0.55 -0.42 l
0.55 -0.42 l
0.55 -0.42 l
0.55 -0.42 l
0.54 -0.42 l
0.55 -0.42 l
0.55 -0.42 l
0.55 -0.41 l
0.55 -0.41 l
0.55 -0.41 l
0.55 -0.41 l
0.54 -0.41 l
0.55 -0.41 l
0.55 -0.41 l
0.55 -0.40 l
0.55 -0.40 l
0.55 -0.41 l
0.54 -0.40 l
0.55 -0.40 l
0.55 -0.39 l
0.55 -0.40 l
0.55 -0.40 l
0.55 -0.39 l
0.55 -0.39 l
0.54 -0.39 l
0.55 -0.39 l
0.55 -0.39 l
0.55 -0.39 l
0.55 -0.38 l
0.55 -0.39 l
0.55 -0.38 l
0.54 -0.38 l
0.55 -0.38 l
0.55 -0.38 l
0.55 -0.38 l
0.55 -0.38 l
0.55 -0.37 l
0.55 -0.37 l
0.54 -0.38 l
0.55 -0.37 l
0.55 -0.37 l
0.55 -0.37 l
0.55 -0.36 l
0.55 -0.37 l
0.55 -0.36 l
0.54 -0.36 l
0.55 -0.37 l
0.55 -0.36 l
0.55 -0.36 l
0.55 -0.35 l
0.55 -0.36 l
0.55 -0.35 l
0.54 -0.36 l
0.55 -0.35 l
0.55 -0.35 l
0.55 -0.35 l
0.55 -0.35 l
0.55 -0.35 l
0.55 -0.34 l
0.54 -0.35 l
0.55 -0.34 l
0.55 -0.34 l
0.55 -0.34 l
0.55 -0.34 l
0.55 -0.34 l
o
1.07 setlinewidth
[ 2.13 2.13] 0 setdash
np
54.99 42.71 m
0.55 0 l
0.55 0 l
0.54 0 l
0.55 0 l
0.55 0 l
0.55 0 l
0.55 0 l
0.55 0 l
0.55 0 l
0.54 0 l
0.55 0 l
0.55 0 l
0.55 0 l
0.55 0 l
0.55 0 l
0.55 0 l
0.54 0 l
0.55 0 l
0.55 0 l
0.55 0 l
0.55 0 l
0.55 0 l
0.55 0 l
0.54 0.01 l
0.55 0.01 l
0.55 0.01 l
0.55 0.02 l
0.55 0.02 l
0.55 0.03 l
0.55 0.05 l
0.54 0.05 l
0.55 0.08 l
0.55 0.09 l
0.55 0.11 l
0.55 0.13 l
0.55 0.16 l
0.55 0.19 l
0.54 0.22 l
0.55 0.25 l
0.55 0.29 l
0.55 0.34 l
0.55 0.37 l
0.55 0.42 l
0.55 0.47 l
0.54 0.51 l
0.55 0.57 l
0.55 0.62 l
0.55 0.67 l
0.55 0.73 l
0.55 0.79 l
0.55 0.84 l
0.54 0.90 l
0.55 0.95 l
0.55 1.01 l
0.55 1.07 l
0.55 1.13 l
0.55 1.18 l
0.54 1.24 l
0.55 1.30 l
0.55 1.35 l
0.55 1.40 l
0.55 1.45 l
0.55 1.50 l
0.55 1.55 l
0.54 1.60 l
0.55 1.65 l
0.55 1.69 l
0.55 1.73 l
0.55 1.77 l
0.55 1.81 l
0.55 1.85 l
0.54 1.88 l
0.55 1.91 l
0.55 1.95 l
0.55 1.98 l
0.55 2.00 l
0.55 2.02 l
0.55 2.06 l
0.54 2.07 l
0.55 2.09 l
0.55 2.11 l
0.55 2.12 l
0.55 2.14 l
0.55 2.15 l
0.55 2.17 l
0.54 2.17 l
0.55 2.17 l
0.55 2.19 l
0.55 2.19 l
0.55 2.19 l
0.55 2.19 l
0.55 2.19 l
0.54 2.19 l
0.55 2.18 l
0.55 2.18 l
0.55 2.18 l
0.55 2.17 l
0.55 2.16 l
0.55 2.15 l
109.84 140.18 lineto
0.55 2.13 l
0.55 2.12 l
0.55 2.10 l
0.55 2.09 l
0.55 2.08 l
0.55 2.06 l
0.54 2.04 l
0.55 2.03 l
0.55 2.00 l
0.55 1.99 l
0.55 1.97 l
0.55 1.95 l
0.55 1.93 l
0.54 1.91 l
0.55 1.89 l
0.55 1.87 l
0.55 1.84 l
0.55 1.82 l
0.55 1.80 l
0.55 1.78 l
0.54 1.75 l
0.55 1.73 l
0.55 1.70 l
0.55 1.68 l
0.55 1.66 l
0.55 1.63 l
0.55 1.60 l
0.54 1.58 l
0.55 1.56 l
0.55 1.53 l
0.55 1.50 l
0.55 1.48 l
0.55 1.46 l
0.54 1.43 l
0.55 1.40 l
0.55 1.38 l
0.55 1.35 l
0.55 1.33 l
0.55 1.30 l
0.55 1.28 l
0.54 1.25 l
0.55 1.23 l
0.55 1.20 l
0.55 1.18 l
0.55 1.15 l
0.55 1.12 l
0.55 1.11 l
0.54 1.08 l
0.55 1.05 l
0.55 1.03 l
0.55 1.01 l
0.55 0.98 l
0.55 0.96 l
0.55 0.93 l
0.54 0.91 l
0.55 0.89 l
0.55 0.87 l
0.55 0.84 l
0.55 0.82 l
0.55 0.80 l
0.55 0.78 l
0.54 0.75 l
0.55 0.74 l
0.55 0.71 l
0.55 0.69 l
0.55 0.67 l
0.55 0.65 l
0.55 0.62 l
0.54 0.61 l
0.55 0.59 l
0.55 0.57 l
0.55 0.54 l
0.55 0.53 l
0.55 0.51 l
0.55 0.49 l
0.54 0.47 l
0.55 0.46 l
0.55 0.43 l
0.55 0.42 l
0.55 0.40 l
0.55 0.38 l
0.55 0.36 l
0.54 0.35 l
0.55 0.33 l
0.55 0.32 l
0.55 0.29 l
0.55 0.28 l
0.55 0.27 l
0.55 0.25 l
0.54 0.23 l
0.55 0.22 l
0.55 0.20 l
0.55 0.19 l
0.55 0.17 l
0.55 0.16 l
0.55 0.15 l
0.54 0.13 l
0.55 0.12 l
0.55 0.10 l
164.70 246.54 lineto
0.55 0.08 l
0.55 0.06 l
0.55 0.05 l
0.54 0.04 l
0.55 0.03 l
0.55 0.01 l
0.55 0 l
0.55 0 l
0.55 -0.03 l
0.55 -0.03 l
0.54 -0.04 l
0.55 -0.06 l
0.55 -0.06 l
0.55 -0.08 l
0.55 -0.09 l
0.55 -0.09 l
0.54 -0.11 l
0.55 -0.12 l
0.55 -0.12 l
0.55 -0.14 l
0.55 -0.15 l
0.55 -0.15 l
0.55 -0.16 l
0.54 -0.18 l
0.55 -0.18 l
0.55 -0.19 l
0.55 -0.20 l
0.55 -0.21 l
0.55 -0.21 l
0.55 -0.23 l
0.54 -0.23 l
0.55 -0.24 l
0.55 -0.24 l
0.55 -0.26 l
0.55 -0.26 l
0.55 -0.27 l
0.55 -0.27 l
0.54 -0.28 l
0.55 -0.29 l
0.55 -0.30 l
0.55 -0.30 l
0.55 -0.31 l
0.55 -0.31 l
0.55 -0.32 l
0.54 -0.33 l
0.55 -0.33 l
0.55 -0.34 l
0.55 -0.34 l
0.55 -0.35 l
0.55 -0.35 l
0.55 -0.36 l
0.54 -0.37 l
0.55 -0.37 l
0.55 -0.37 l
0.55 -0.38 l
0.55 -0.38 l
0.55 -0.39 l
0.55 -0.39 l
0.54 -0.40 l
0.55 -0.40 l
0.55 -0.41 l
0.55 -0.41 l
0.55 -0.41 l
0.55 -0.42 l
0.55 -0.42 l
0.54 -0.42 l
0.55 -0.43 l
0.55 -0.43 l
0.55 -0.44 l
0.55 -0.44 l
0.55 -0.44 l
0.55 -0.45 l
0.54 -0.44 l
0.55 -0.45 l
0.55 -0.46 l
0.55 -0.46 l
0.55 -0.46 l
0.55 -0.46 l
0.55 -0.46 l
0.54 -0.47 l
0.55 -0.47 l
0.55 -0.47 l
0.55 -0.48 l
0.55 -0.47 l
0.55 -0.48 l
0.55 -0.48 l
0.54 -0.49 l
0.55 -0.48 l
0.55 -0.49 l
0.55 -0.49 l
0.55 -0.49 l
0.55 -0.49 l
0.54 -0.49 l
0.55 -0.50 l
0.55 -0.49 l
0.55 -0.50 l
0.55 -0.50 l
0.55 -0.50 l
0.55 -0.51 l
219.55 215.70 lineto
0.55 -0.50 l
0.55 -0.51 l
0.55 -0.51 l
0.55 -0.51 l
0.55 -0.51 l
0.55 -0.51 l
0.54 -0.51 l
0.55 -0.51 l
0.55 -0.51 l
0.55 -0.51 l
0.55 -0.52 l
0.55 -0.51 l
0.55 -0.52 l
0.54 -0.52 l
0.55 -0.51 l
0.55 -0.52 l
0.55 -0.52 l
0.55 -0.51 l
0.55 -0.52 l
0.55 -0.52 l
0.54 -0.52 l
0.55 -0.52 l
0.55 -0.52 l
0.55 -0.52 l
0.55 -0.52 l
0.55 -0.52 l
0.55 -0.52 l
0.54 -0.52 l
0.55 -0.52 l
0.55 -0.52 l
0.55 -0.52 l
0.55 -0.52 l
0.55 -0.52 l
0.55 -0.52 l
0.54 -0.52 l
0.55 -0.52 l
0.55 -0.52 l
0.55 -0.52 l
0.55 -0.52 l
0.55 -0.52 l
0.55 -0.51 l
0.54 -0.52 l
0.55 -0.52 l
0.55 -0.52 l
0.55 -0.51 l
0.55 -0.52 l
0.55 -0.52 l
0.55 -0.51 l
0.54 -0.52 l
0.55 -0.51 l
0.55 -0.51 l
0.55 -0.52 l
0.55 -0.51 l
0.55 -0.51 l
0.55 -0.51 l
0.54 -0.51 l
0.55 -0.51 l
0.55 -0.51 l
0.55 -0.51 l
0.55 -0.51 l
0.55 -0.51 l
0.55 -0.50 l
0.54 -0.51 l
0.55 -0.50 l
0.55 -0.51 l
0.55 -0.50 l
0.55 -0.50 l
0.55 -0.50 l
0.55 -0.50 l
0.54 -0.50 l
0.55 -0.50 l
0.55 -0.50 l
0.55 -0.50 l
0.55 -0.49 l
0.55 -0.50 l
0.54 -0.49 l
0.55 -0.50 l
0.55 -0.49 l
0.55 -0.49 l
0.55 -0.49 l
0.55 -0.49 l
0.55 -0.49 l
0.54 -0.48 l
0.55 -0.49 l
0.55 -0.49 l
0.55 -0.48 l
0.55 -0.48 l
0.55 -0.48 l
0.55 -0.48 l
0.54 -0.48 l
0.55 -0.48 l
0.55 -0.48 l
0.55 -0.48 l
0.55 -0.47 l
0.55 -0.47 l
0.55 -0.48 l
0.54 -0.47 l
0.55 -0.47 l
0.55 -0.47 l
274.41 165.21 lineto
0.55 -0.46 l
0.55 -0.47 l
0.55 -0.46 l
0.54 -0.47 l
0.55 -0.46 l
0.55 -0.46 l
0.55 -0.46 l
0.55 -0.46 l
0.55 -0.45 l
0.55 -0.46 l
0.54 -0.45 l
0.55 -0.46 l
0.55 -0.45 l
0.55 -0.45 l
0.55 -0.45 l
0.55 -0.45 l
0.55 -0.44 l
0.54 -0.45 l
0.55 -0.44 l
0.55 -0.45 l
0.55 -0.44 l
0.55 -0.44 l
0.55 -0.44 l
0.55 -0.44 l
0.54 -0.43 l
0.55 -0.44 l
0.55 -0.43 l
0.55 -0.43 l
0.55 -0.44 l
0.55 -0.43 l
0.55 -0.42 l
0.54 -0.43 l
0.55 -0.43 l
0.55 -0.42 l
0.55 -0.43 l
0.55 -0.42 l
0.55 -0.42 l
0.55 -0.42 l
0.54 -0.42 l
0.55 -0.41 l
0.55 -0.42 l
0.55 -0.41 l
0.55 -0.42 l
0.55 -0.41 l
0.55 -0.41 l
0.54 -0.41 l
0.55 -0.40 l
0.55 -0.41 l
0.55 -0.41 l
0.55 -0.40 l
0.55 -0.40 l
0.54 -0.40 l
0.55 -0.40 l
0.55 -0.40 l
0.55 -0.40 l
0.55 -0.39 l
0.55 -0.40 l
0.55 -0.39 l
0.54 -0.39 l
0.55 -0.39 l
0.55 -0.39 l
0.55 -0.39 l
0.55 -0.38 l
0.55 -0.39 l
0.55 -0.38 l
0.54 -0.39 l
0.55 -0.38 l
0.55 -0.38 l
0.55 -0.37 l
0.55 -0.38 l
0.55 -0.38 l
0.55 -0.37 l
0.54 -0.37 l
0.55 -0.38 l
0.55 -0.37 l
0.55 -0.37 l
0.55 -0.36 l
0.55 -0.37 l
0.55 -0.37 l
0.54 -0.36 l
0.55 -0.36 l
0.55 -0.36 l
0.55 -0.36 l
0.55 -0.36 l
0.55 -0.36 l
0.55 -0.36 l
0.54 -0.35 l
0.55 -0.36 l
0.55 -0.35 l
0.55 -0.35 l
0.55 -0.35 l
0.55 -0.35 l
0.55 -0.34 l
0.54 -0.35 l
0.55 -0.35 l
0.55 -0.34 l
0.55 -0.34 l
0.55 -0.34 l
0.55 -0.34 l
o
0.9059 0.4196 0.9529 srgb
1.07 setlinewidth
[] 0 setdash
np
54.99 42.71 m
0.55 0 l
0.55 0 l
0.54 0 l
0.55 0 l
0.55 0 l
0.55 0 l
0.55 0 l
0.55 0 l
0.55 0 l
0.54 0 l
0.55 0 l
0.55 0 l
0.55 0 l
0.55 0 l
0.55 0 l
0.55 0 l
0.54 0 l
0.55 0 l
0.55 0 l
0.55 0 l
0.55 0 l
0.55 0 l
0.55 0 l
0.54 0.01 l
0.55 0.01 l
0.55 0.01 l
0.55 0.02 l
0.55 0.03 l
0.55 0.04 l
0.55 0.04 l
0.54 0.07 l
0.55 0.08 l
0.55 0.09 l
0.55 0.12 l
0.55 0.15 l
0.55 0.17 l
0.55 0.21 l
0.54 0.24 l
0.55 0.27 l
0.55 0.32 l
0.55 0.36 l
0.55 0.41 l
0.55 0.45 l
0.55 0.50 l
0.54 0.56 l
0.55 0.61 l
0.55 0.66 l
0.55 0.72 l
0.55 0.78 l
0.55 0.84 l
0.55 0.89 l
0.54 0.96 l
0.55 1.01 l
0.55 1.08 l
0.55 1.13 l
0.55 1.19 l
0.55 1.25 l
0.54 1.31 l
0.55 1.36 l
0.55 1.42 l
0.55 1.47 l
0.55 1.53 l
0.55 1.57 l
0.55 1.63 l
0.54 1.67 l
0.55 1.72 l
0.55 1.76 l
0.55 1.80 l
0.55 1.85 l
0.55 1.88 l
0.55 1.91 l
0.54 1.96 l
0.55 1.98 l
0.55 2.01 l
0.55 2.04 l
0.55 2.07 l
0.55 2.09 l
0.55 2.11 l
0.54 2.14 l
0.55 2.15 l
0.55 2.16 l
0.55 2.18 l
0.55 2.20 l
0.55 2.20 l
0.55 2.21 l
0.54 2.22 l
0.55 2.23 l
0.55 2.22 l
0.55 2.23 l
0.55 2.23 l
0.55 2.23 l
0.55 2.23 l
0.54 2.22 l
0.55 2.22 l
0.55 2.22 l
0.55 2.20 l
0.55 2.19 l
0.55 2.19 l
0.55 2.17 l
109.84 143.54 lineto
0.55 2.14 l
0.55 2.14 l
0.55 2.12 l
0.55 2.10 l
0.55 2.09 l
0.55 2.07 l
0.54 2.05 l
0.55 2.03 l
0.55 2.01 l
0.55 2.00 l
0.55 1.97 l
0.55 1.95 l
0.55 1.93 l
0.54 1.90 l
0.55 1.88 l
0.55 1.86 l
0.55 1.84 l
0.55 1.81 l
0.55 1.79 l
0.55 1.76 l
0.54 1.74 l
0.55 1.71 l
0.55 1.69 l
0.55 1.66 l
0.55 1.64 l
0.55 1.61 l
0.55 1.58 l
0.54 1.56 l
0.55 1.53 l
0.55 1.51 l
0.55 1.48 l
0.55 1.45 l
0.55 1.43 l
0.54 1.40 l
0.55 1.38 l
0.55 1.34 l
0.55 1.33 l
0.55 1.29 l
0.55 1.27 l
0.55 1.25 l
0.54 1.21 l
0.55 1.20 l
0.55 1.16 l
0.55 1.14 l
0.55 1.12 l
0.55 1.09 l
0.55 1.06 l
0.54 1.04 l
0.55 1.02 l
0.55 0.99 l
0.55 0.96 l
0.55 0.94 l
0.55 0.92 l
0.55 0.89 l
0.54 0.87 l
0.55 0.85 l
0.55 0.82 l
0.55 0.80 l
0.55 0.78 l
0.55 0.76 l
0.55 0.73 l
0.54 0.71 l
0.55 0.68 l
0.55 0.67 l
0.55 0.65 l
0.55 0.62 l
0.55 0.60 l
0.55 0.58 l
0.54 0.56 l
0.55 0.54 l
0.55 0.53 l
0.55 0.50 l
0.55 0.48 l
0.55 0.46 l
0.55 0.44 l
0.54 0.43 l
0.55 0.40 l
0.55 0.39 l
0.55 0.37 l
0.55 0.35 l
0.55 0.33 l
0.55 0.32 l
0.54 0.30 l
0.55 0.28 l
0.55 0.26 l
0.55 0.25 l
0.55 0.23 l
0.55 0.22 l
0.55 0.20 l
0.54 0.19 l
0.55 0.17 l
0.55 0.15 l
0.55 0.14 l
0.55 0.13 l
0.55 0.11 l
0.55 0.10 l
0.54 0.08 l
0.55 0.07 l
0.55 0.05 l
164.70 246.77 lineto
0.55 0.02 l
0.55 0.02 l
0.55 0 l
0.54 0 l
0.55 -0.02 l
0.55 -0.04 l
0.55 -0.04 l
0.55 -0.06 l
0.55 -0.07 l
0.55 -0.08 l
0.54 -0.09 l
0.55 -0.10 l
0.55 -0.11 l
0.55 -0.12 l
0.55 -0.13 l
0.55 -0.15 l
0.54 -0.15 l
0.55 -0.16 l
0.55 -0.17 l
0.55 -0.18 l
0.55 -0.20 l
0.55 -0.19 l
0.55 -0.21 l
0.54 -0.22 l
0.55 -0.23 l
0.55 -0.23 l
0.55 -0.24 l
0.55 -0.25 l
0.55 -0.26 l
0.55 -0.27 l
0.54 -0.27 l
0.55 -0.28 l
0.55 -0.29 l
0.55 -0.30 l
0.55 -0.30 l
0.55 -0.31 l
0.55 -0.32 l
0.54 -0.32 l
0.55 -0.33 l
0.55 -0.34 l
0.55 -0.34 l
0.55 -0.35 l
0.55 -0.35 l
0.55 -0.36 l
0.54 -0.37 l
0.55 -0.37 l
0.55 -0.38 l
0.55 -0.38 l
0.55 -0.38 l
0.55 -0.40 l
0.55 -0.39 l
0.54 -0.41 l
0.55 -0.40 l
0.55 -0.41 l
0.55 -0.42 l
0.55 -0.42 l
0.55 -0.43 l
0.55 -0.42 l
0.54 -0.44 l
0.55 -0.43 l
0.55 -0.45 l
0.55 -0.44 l
0.55 -0.45 l
0.55 -0.45 l
0.55 -0.46 l
0.54 -0.45 l
0.55 -0.47 l
0.55 -0.46 l
0.55 -0.47 l
0.55 -0.47 l
0.55 -0.48 l
0.55 -0.48 l
0.54 -0.48 l
0.55 -0.48 l
0.55 -0.48 l
0.55 -0.49 l
0.55 -0.49 l
0.55 -0.50 l
0.55 -0.49 l
0.54 -0.50 l
0.55 -0.50 l
0.55 -0.50 l
0.55 -0.51 l
0.55 -0.50 l
0.55 -0.51 l
0.55 -0.51 l
0.54 -0.51 l
0.55 -0.52 l
0.55 -0.51 l
0.55 -0.52 l
0.55 -0.51 l
0.55 -0.52 l
0.54 -0.53 l
0.55 -0.52 l
0.55 -0.52 l
0.55 -0.53 l
0.55 -0.52 l
0.55 -0.53 l
0.55 -0.53 l
219.55 212.16 lineto
0.55 -0.53 l
0.55 -0.53 l
0.55 -0.53 l
0.55 -0.53 l
0.55 -0.53 l
0.55 -0.54 l
0.54 -0.53 l
0.55 -0.54 l
0.55 -0.53 l
0.55 -0.54 l
0.55 -0.54 l
0.55 -0.54 l
0.55 -0.53 l
0.54 -0.54 l
0.55 -0.54 l
0.55 -0.54 l
0.55 -0.54 l
0.55 -0.54 l
0.55 -0.54 l
0.55 -0.53 l
0.54 -0.54 l
0.55 -0.54 l
0.55 -0.54 l
0.55 -0.54 l
0.55 -0.54 l
0.55 -0.54 l
0.55 -0.54 l
0.54 -0.54 l
0.55 -0.54 l
0.55 -0.54 l
0.55 -0.53 l
0.55 -0.54 l
0.55 -0.54 l
0.55 -0.54 l
0.54 -0.53 l
0.55 -0.54 l
0.55 -0.54 l
0.55 -0.53 l
0.55 -0.54 l
0.55 -0.53 l
0.55 -0.54 l
0.54 -0.53 l
0.55 -0.53 l
0.55 -0.54 l
0.55 -0.53 l
0.55 -0.53 l
0.55 -0.53 l
0.55 -0.53 l
0.54 -0.53 l
0.55 -0.53 l
0.55 -0.52 l
0.55 -0.53 l
0.55 -0.53 l
0.55 -0.52 l
0.55 -0.53 l
0.54 -0.52 l
0.55 -0.52 l
0.55 -0.53 l
0.55 -0.52 l
0.55 -0.52 l
0.55 -0.52 l
0.55 -0.51 l
0.54 -0.52 l
0.55 -0.52 l
0.55 -0.51 l
0.55 -0.52 l
0.55 -0.51 l
0.55 -0.51 l
0.55 -0.51 l
0.54 -0.51 l
0.55 -0.51 l
0.55 -0.51 l
0.55 -0.51 l
0.55 -0.50 l
0.55 -0.51 l
0.54 -0.50 l
0.55 -0.50 l
0.55 -0.50 l
0.55 -0.50 l
0.55 -0.50 l
0.55 -0.50 l
0.55 -0.50 l
0.54 -0.49 l
0.55 -0.50 l
0.55 -0.49 l
0.55 -0.49 l
0.55 -0.49 l
0.55 -0.49 l
0.55 -0.49 l
0.54 -0.48 l
0.55 -0.49 l
0.55 -0.48 l
0.55 -0.48 l
0.55 -0.49 l
0.55 -0.48 l
0.55 -0.47 l
0.54 -0.48 l
0.55 -0.48 l
0.55 -0.47 l
274.41 160.23 lineto
0.55 -0.47 l
0.55 -0.47 l
0.55 -0.47 l
0.54 -0.47 l
0.55 -0.46 l
0.55 -0.47 l
0.55 -0.46 l
0.55 -0.47 l
0.55 -0.46 l
0.55 -0.46 l
0.54 -0.45 l
0.55 -0.46 l
0.55 -0.46 l
0.55 -0.45 l
0.55 -0.45 l
0.55 -0.46 l
0.55 -0.45 l
0.54 -0.44 l
0.55 -0.45 l
0.55 -0.45 l
0.55 -0.44 l
0.55 -0.45 l
0.55 -0.44 l
0.55 -0.44 l
0.54 -0.44 l
0.55 -0.43 l
0.55 -0.44 l
0.55 -0.43 l
0.55 -0.44 l
0.55 -0.43 l
0.55 -0.43 l
0.54 -0.43 l
0.55 -0.43 l
0.55 -0.42 l
0.55 -0.43 l
0.55 -0.42 l
0.55 -0.42 l
0.55 -0.42 l
0.54 -0.42 l
0.55 -0.42 l
0.55 -0.41 l
0.55 -0.42 l
0.55 -0.41 l
0.55 -0.41 l
0.55 -0.41 l
0.54 -0.41 l
0.55 -0.41 l
0.55 -0.40 l
0.55 -0.41 l
0.55 -0.40 l
0.55 -0.40 l
0.54 -0.40 l
0.55 -0.40 l
0.55 -0.40 l
0.55 -0.40 l
0.55 -0.39 l
0.55 -0.39 l
0.55 -0.40 l
0.54 -0.39 l
0.55 -0.39 l
0.55 -0.38 l
0.55 -0.39 l
0.55 -0.38 l
0.55 -0.39 l
0.55 -0.38 l
0.54 -0.38 l
0.55 -0.38 l
0.55 -0.38 l
0.55 -0.37 l
0.55 -0.38 l
0.55 -0.37 l
0.55 -0.37 l
0.54 -0.37 l
0.55 -0.37 l
0.55 -0.37 l
0.55 -0.37 l
0.55 -0.36 l
0.55 -0.37 l
0.55 -0.36 l
0.54 -0.36 l
0.55 -0.36 l
0.55 -0.36 l
0.55 -0.35 l
0.55 -0.36 l
0.55 -0.35 l
0.55 -0.36 l
0.54 -0.35 l
0.55 -0.35 l
0.55 -0.35 l
0.55 -0.34 l
0.55 -0.35 l
0.55 -0.34 l
0.55 -0.35 l
0.54 -0.34 l
0.55 -0.34 l
0.55 -0.34 l
0.55 -0.34 l
0.55 -0.34 l
0.55 -0.33 l
o
1.07 setlinewidth
[ 2.13 2.13] 0 setdash
np
54.99 42.71 m
0.55 0 l
0.55 0 l
0.54 0 l
0.55 0 l
0.55 0 l
0.55 0 l
0.55 0 l
0.55 0 l
0.55 0 l
0.54 0 l
0.55 0 l
0.55 0 l
0.55 0 l
0.55 0 l
0.55 0 l
0.55 0 l
0.54 0 l
0.55 0 l
0.55 0 l
0.55 0 l
0.55 0 l
0.55 0 l
0.55 0 l
0.54 0.01 l
0.55 0.01 l
0.55 0.01 l
0.55 0.02 l
0.55 0.03 l
0.55 0.03 l
0.55 0.05 l
0.54 0.06 l
0.55 0.08 l
0.55 0.10 l
0.55 0.11 l
0.55 0.15 l
0.55 0.17 l
0.55 0.20 l
0.54 0.24 l
0.55 0.27 l
0.55 0.31 l
0.55 0.36 l
0.55 0.40 l
0.55 0.45 l
0.55 0.49 l
0.54 0.55 l
0.55 0.60 l
0.55 0.66 l
0.55 0.71 l
0.55 0.77 l
0.55 0.83 l
0.55 0.89 l
0.54 0.95 l
0.55 1.00 l
0.55 1.07 l
0.55 1.12 l
0.55 1.18 l
0.55 1.24 l
0.54 1.30 l
0.55 1.35 l
0.55 1.41 l
0.55 1.46 l
0.55 1.52 l
0.55 1.56 l
0.55 1.62 l
0.54 1.66 l
0.55 1.71 l
0.55 1.75 l
0.55 1.79 l
0.55 1.83 l
0.55 1.87 l
0.55 1.91 l
0.54 1.94 l
0.55 1.98 l
0.55 2.00 l
0.55 2.03 l
0.55 2.06 l
0.55 2.08 l
0.55 2.10 l
0.54 2.13 l
0.55 2.14 l
0.55 2.16 l
0.55 2.17 l
0.55 2.19 l
0.55 2.19 l
0.55 2.21 l
0.54 2.21 l
0.55 2.22 l
0.55 2.22 l
0.55 2.22 l
0.55 2.22 l
0.55 2.23 l
0.55 2.22 l
0.54 2.22 l
0.55 2.21 l
0.55 2.21 l
0.55 2.20 l
0.55 2.19 l
0.55 2.18 l
0.55 2.17 l
109.84 143.03 lineto
0.55 2.14 l
0.55 2.13 l
0.55 2.12 l
0.55 2.10 l
0.55 2.08 l
0.55 2.07 l
0.54 2.05 l
0.55 2.03 l
0.55 2.01 l
0.55 1.99 l
0.55 1.97 l
0.55 1.95 l
0.55 1.93 l
0.54 1.90 l
0.55 1.88 l
0.55 1.86 l
0.55 1.84 l
0.55 1.81 l
0.55 1.79 l
0.55 1.76 l
0.54 1.74 l
0.55 1.72 l
0.55 1.69 l
0.55 1.66 l
0.55 1.64 l
0.55 1.61 l
0.55 1.59 l
0.54 1.56 l
0.55 1.53 l
0.55 1.51 l
0.55 1.49 l
0.55 1.45 l
0.55 1.43 l
0.54 1.41 l
0.55 1.38 l
0.55 1.35 l
0.55 1.32 l
0.55 1.30 l
0.55 1.28 l
0.55 1.25 l
0.54 1.22 l
0.55 1.20 l
0.55 1.17 l
0.55 1.14 l
0.55 1.12 l
0.55 1.10 l
0.55 1.07 l
0.54 1.04 l
0.55 1.02 l
0.55 1.00 l
0.55 0.97 l
0.55 0.95 l
0.55 0.92 l
0.55 0.90 l
0.54 0.88 l
0.55 0.85 l
0.55 0.83 l
0.55 0.81 l
0.55 0.78 l
0.55 0.77 l
0.55 0.73 l
0.54 0.72 l
0.55 0.70 l
0.55 0.67 l
0.55 0.65 l
0.55 0.63 l
0.55 0.61 l
0.55 0.59 l
0.54 0.57 l
0.55 0.55 l
0.55 0.53 l
0.55 0.51 l
0.55 0.49 l
0.55 0.47 l
0.55 0.45 l
0.54 0.43 l
0.55 0.41 l
0.55 0.40 l
0.55 0.38 l
0.55 0.36 l
0.55 0.34 l
0.55 0.32 l
0.54 0.31 l
0.55 0.29 l
0.55 0.27 l
0.55 0.26 l
0.55 0.24 l
0.55 0.23 l
0.55 0.21 l
0.54 0.19 l
0.55 0.18 l
0.55 0.16 l
0.55 0.15 l
0.55 0.14 l
0.55 0.12 l
0.55 0.10 l
0.54 0.09 l
0.55 0.08 l
0.55 0.07 l
164.70 246.74 lineto
0.55 0.04 l
0.55 0.02 l
0.55 0.01 l
0.54 0 l
0.55 -0.01 l
0.55 -0.02 l
0.55 -0.04 l
0.55 -0.04 l
0.55 -0.06 l
0.55 -0.07 l
0.54 -0.09 l
0.55 -0.09 l
0.55 -0.10 l
0.55 -0.11 l
0.55 -0.13 l
0.55 -0.13 l
0.54 -0.15 l
0.55 -0.15 l
0.55 -0.16 l
0.55 -0.17 l
0.55 -0.19 l
0.55 -0.19 l
0.55 -0.20 l
0.54 -0.21 l
0.55 -0.21 l
0.55 -0.23 l
0.55 -0.23 l
0.55 -0.25 l
0.55 -0.25 l
0.55 -0.25 l
0.54 -0.27 l
0.55 -0.27 l
0.55 -0.28 l
0.55 -0.29 l
0.55 -0.29 l
0.55 -0.31 l
0.55 -0.30 l
0.54 -0.32 l
0.55 -0.32 l
0.55 -0.33 l
0.55 -0.33 l
0.55 -0.34 l
0.55 -0.35 l
0.55 -0.35 l
0.54 -0.36 l
0.55 -0.36 l
0.55 -0.37 l
0.55 -0.38 l
0.55 -0.38 l
0.55 -0.38 l
0.55 -0.39 l
0.54 -0.40 l
0.55 -0.39 l
0.55 -0.41 l
0.55 -0.41 l
0.55 -0.41 l
0.55 -0.42 l
0.55 -0.42 l
0.54 -0.43 l
0.55 -0.42 l
0.55 -0.44 l
0.55 -0.44 l
0.55 -0.44 l
0.55 -0.44 l
0.55 -0.45 l
0.54 -0.45 l
0.55 -0.46 l
0.55 -0.46 l
0.55 -0.46 l
0.55 -0.46 l
0.55 -0.47 l
0.55 -0.47 l
0.54 -0.48 l
0.55 -0.47 l
0.55 -0.48 l
0.55 -0.48 l
0.55 -0.49 l
0.55 -0.49 l
0.55 -0.49 l
0.54 -0.49 l
0.55 -0.49 l
0.55 -0.50 l
0.55 -0.50 l
0.55 -0.50 l
0.55 -0.50 l
0.55 -0.50 l
0.54 -0.51 l
0.55 -0.50 l
0.55 -0.51 l
0.55 -0.51 l
0.55 -0.52 l
0.55 -0.51 l
0.54 -0.52 l
0.55 -0.51 l
0.55 -0.52 l
0.55 -0.52 l
0.55 -0.52 l
0.55 -0.52 l
0.55 -0.53 l
219.55 212.88 lineto
0.55 -0.52 l
0.55 -0.53 l
0.55 -0.53 l
0.55 -0.53 l
0.55 -0.52 l
0.55 -0.53 l
0.54 -0.53 l
0.55 -0.53 l
0.55 -0.53 l
0.55 -0.54 l
0.55 -0.53 l
0.55 -0.53 l
0.55 -0.53 l
0.54 -0.54 l
0.55 -0.53 l
0.55 -0.54 l
0.55 -0.53 l
0.55 -0.54 l
0.55 -0.53 l
0.55 -0.54 l
0.54 -0.53 l
0.55 -0.54 l
0.55 -0.53 l
0.55 -0.54 l
0.55 -0.53 l
0.55 -0.54 l
0.55 -0.53 l
0.54 -0.54 l
0.55 -0.53 l
0.55 -0.54 l
0.55 -0.53 l
0.55 -0.54 l
0.55 -0.53 l
0.55 -0.53 l
0.54 -0.54 l
0.55 -0.53 l
0.55 -0.53 l
0.55 -0.54 l
0.55 -0.53 l
0.55 -0.53 l
0.55 -0.53 l
0.54 -0.53 l
0.55 -0.53 l
0.55 -0.53 l
0.55 -0.53 l
0.55 -0.53 l
0.55 -0.52 l
0.55 -0.53 l
0.54 -0.53 l
0.55 -0.52 l
0.55 -0.53 l
0.55 -0.52 l
0.55 -0.52 l
0.55 -0.53 l
0.55 -0.52 l
0.54 -0.52 l
0.55 -0.52 l
0.55 -0.52 l
0.55 -0.52 l
0.55 -0.52 l
0.55 -0.51 l
0.55 -0.52 l
0.54 -0.51 l
0.55 -0.52 l
0.55 -0.51 l
0.55 -0.51 l
0.55 -0.51 l
0.55 -0.51 l
0.55 -0.51 l
0.54 -0.51 l
0.55 -0.51 l
0.55 -0.50 l
0.55 -0.51 l
0.55 -0.50 l
0.55 -0.50 l
0.54 -0.50 l
0.55 -0.51 l
0.55 -0.49 l
0.55 -0.50 l
0.55 -0.50 l
0.55 -0.50 l
0.55 -0.49 l
0.54 -0.49 l
0.55 -0.50 l
0.55 -0.49 l
0.55 -0.49 l
0.55 -0.49 l
0.55 -0.48 l
0.55 -0.49 l
0.54 -0.48 l
0.55 -0.49 l
0.55 -0.48 l
0.55 -0.48 l
0.55 -0.48 l
0.55 -0.48 l
0.55 -0.48 l
0.54 -0.47 l
0.55 -0.48 l
0.55 -0.47 l
274.41 161.24 lineto
0.55 -0.47 l
0.55 -0.47 l
0.55 -0.47 l
0.54 -0.46 l
0.55 -0.47 l
0.55 -0.46 l
0.55 -0.47 l
0.55 -0.46 l
0.55 -0.46 l
0.55 -0.46 l
0.54 -0.45 l
0.55 -0.46 l
0.55 -0.46 l
0.55 -0.45 l
0.55 -0.45 l
0.55 -0.45 l
0.55 -0.45 l
0.54 -0.45 l
0.55 -0.45 l
0.55 -0.44 l
0.55 -0.45 l
0.55 -0.44 l
0.55 -0.44 l
0.55 -0.44 l
0.54 -0.44 l
0.55 -0.43 l
0.55 -0.44 l
0.55 -0.43 l
0.55 -0.44 l
0.55 -0.43 l
0.55 -0.43 l
0.54 -0.43 l
0.55 -0.42 l
0.55 -0.43 l
0.55 -0.42 l
0.55 -0.43 l
0.55 -0.42 l
0.55 -0.42 l
0.54 -0.42 l
0.55 -0.41 l
0.55 -0.42 l
0.55 -0.42 l
0.55 -0.41 l
0.55 -0.41 l
0.55 -0.41 l
0.54 -0.41 l
0.55 -0.41 l
0.55 -0.40 l
0.55 -0.41 l
0.55 -0.40 l
0.55 -0.40 l
0.54 -0.40 l
0.55 -0.40 l
0.55 -0.40 l
0.55 -0.40 l
0.55 -0.39 l
0.55 -0.39 l
0.55 -0.40 l
0.54 -0.39 l
0.55 -0.39 l
0.55 -0.38 l
0.55 -0.39 l
0.55 -0.39 l
0.55 -0.38 l
0.55 -0.38 l
0.54 -0.38 l
0.55 -0.38 l
0.55 -0.38 l
0.55 -0.38 l
0.55 -0.37 l
0.55 -0.38 l
0.55 -0.37 l
0.54 -0.37 l
0.55 -0.37 l
0.55 -0.37 l
0.55 -0.36 l
0.55 -0.37 l
0.55 -0.36 l
0.55 -0.37 l
0.54 -0.36 l
0.55 -0.36 l
0.55 -0.36 l
0.55 -0.36 l
0.55 -0.35 l
0.55 -0.36 l
0.55 -0.35 l
0.54 -0.35 l
0.55 -0.35 l
0.55 -0.35 l
0.55 -0.35 l
0.55 -0.35 l
0.55 -0.34 l
0.55 -0.35 l
0.54 -0.34 l
0.55 -0.34 l
0.55 -0.34 l
0.55 -0.34 l
0.55 -0.34 l
0.55 -0.34 l
o
0.00 0.00 450.00 262.50 cl
0.00 0.00 450.00 262.50 cl
0.00 0.00 450.00 262.50 cl
0.00 0.00 450.00 262.50 cl
0.00 0.00 450.00 262.50 cl
0.00 0.00 450.00 262.50 cl
0.00 0.00 450.00 262.50 cl
0.00 0.00 450.00 262.50 cl
0.00 0.00 450.00 262.50 cl
0.00 0.00 450.00 262.50 cl
0.00 0.00 450.00 262.50 cl
0.00 0.00 450.00 262.50 cl
0.00 0.00 450.00 262.50 cl
0.00 0.00 450.00 262.50 cl
0.00 0.00 450.00 262.50 cl
0.00 0.00 450.00 262.50 cl
/Font1 findfont 9 s
0.3020 0.3020 0.3020 srgb
36.37 39.47 (0.00) 1 0 t
36.37 90.50 (0.25) 1 0 t
36.37 141.53 (0.50) 1 0 t
36.37 192.56 (0.75) 1 0 t
36.37 243.58 (1.00) 1 0 t
0.00 0.00 450.00 262.50 cl
0.00 0.00 450.00 262.50 cl
0.2000 0.2000 0.2000 srgb
1.07 setlinewidth
[] 0 setdash
0 setlinecap
1 setlinejoin
10.00 setmiterlimit
np
38.56 42.71 m
2.74 0 l
o
np
38.56 93.73 m
2.74 0 l
o
np
38.56 144.76 m
2.74 0 l
o
np
38.56 195.79 m
2.74 0 l
o
np
38.56 246.81 m
2.74 0 l
o
0.00 0.00 450.00 262.50 cl
0.00 0.00 450.00 262.50 cl
0.00 0.00 450.00 262.50 cl
0.00 0.00 450.00 262.50 cl
0.00 0.00 450.00 262.50 cl
0.00 0.00 450.00 262.50 cl
0.00 0.00 450.00 262.50 cl
0.00 0.00 450.00 262.50 cl
0.00 0.00 450.00 262.50 cl
0.00 0.00 450.00 262.50 cl
0.2000 0.2000 0.2000 srgb
1.07 setlinewidth
[] 0 setdash
0 setlinecap
1 setlinejoin
10.00 setmiterlimit
np
54.44 29.76 m
0 2.74 l
o
np
145.87 29.76 m
0 2.74 l
o
np
237.29 29.76 m
0 2.74 l
o
np
328.72 29.76 m
0 2.74 l
o
0.00 0.00 450.00 262.50 cl
0.00 0.00 450.00 262.50 cl
/Font1 findfont 9 s
0.3020 0.3020 0.3020 srgb
54.44 21.11 (0.0) .5 0 t
145.87 21.11 (0.1) .5 0 t
237.29 21.11 (0.2) .5 0 t
328.72 21.11 (0.3) .5 0 t
0.00 0.00 450.00 262.50 cl
0.00 0.00 450.00 262.50 cl
0.00 0.00 450.00 262.50 cl
0.00 0.00 450.00 262.50 cl
0.00 0.00 450.00 262.50 cl
0.00 0.00 450.00 262.50 cl
/Font1 findfont 11 s
0 0 0 srgb
191.85 7.73 (time [s]) .5 0 t
0.00 0.00 450.00 262.50 cl
0.00 0.00 450.00 262.50 cl
/Font1 findfont 11 s
0 0 0 srgb
13.38 144.76 (V) .5 90 t
0.00 0.00 450.00 262.50 cl
0.00 0.00 450.00 262.50 cl
0.00 0.00 450.00 262.50 cl
0.00 0.00 450.00 262.50 cl
0.00 0.00 450.00 262.50 cl
0.00 0.00 450.00 262.50 cl
0.00 0.00 450.00 262.50 cl
0.00 0.00 450.00 262.50 cl
/bg { 1 1 1 srgb } def
353.74 174.85 90.78 59.22 r p2
0.00 0.00 450.00 262.50 cl
0.00 0.00 450.00 262.50 cl
/Font1 findfont 11 s
0 0 0 srgb
359.41 219.95 (shape) 0 0 t
0.00 0.00 450.00 262.50 cl
0.00 0.00 450.00 262.50 cl
/bg { 0.9490 0.9490 0.9490 srgb } def
1 1 1 srgb
1.07 setlinewidth
[] 0 setdash
1 setlinecap
1 setlinejoin
10.00 setmiterlimit
359.41 197.80 17.28 17.28 r p3
0.00 0.00 450.00 262.50 cl
0.00 0.00 450.00 262.50 cl
0 0 0 srgb
1.07 setlinewidth
[] 0 setdash
0 setlinecap
1 setlinejoin
10.00 setmiterlimit
np
361.14 206.44 m
13.82 0 l
o
0.00 0.00 450.00 262.50 cl
0.00 0.00 450.00 262.50 cl
/bg { 0.9490 0.9490 0.9490 srgb } def
1 1 1 srgb
1.07 setlinewidth
[] 0 setdash
1 setlinecap
1 setlinejoin
10.00 setmiterlimit
359.41 180.52 17.28 17.28 r p3
0.00 0.00 450.00 262.50 cl
0.00 0.00 450.00 262.50 cl
0 0 0 srgb
1.07 setlinewidth
[ 2.13 2.13] 0 setdash
0 setlinecap
1 setlinejoin
10.00 setmiterlimit
np
361.14 189.16 m
13.82 0 l
o
0.00 0.00 450.00 262.50 cl
0.00 0.00 450.00 262.50 cl
/Font1 findfont 9 s
0 0 0 srgb
378.85 203.21 (Cylinder) 0 0 t
0.00 0.00 450.00 262.50 cl
0.00 0.00 450.00 262.50 cl
/Font1 findfont 9 s
0 0 0 srgb
378.85 185.93 (P) 0 ta
-0.360 (ar) tb
-0.090 (allelepiped) tb gr
0.00 0.00 450.00 262.50 cl
0.00 0.00 450.00 262.50 cl
0.00 0.00 450.00 262.50 cl
0.00 0.00 450.00 262.50 cl
/bg { 1 1 1 srgb } def
353.74 55.45 51.03 108.06 r p2
0.00 0.00 450.00 262.50 cl
0.00 0.00 450.00 262.50 cl
/Font5 findfont 11 s
0 0 0 srgb
359.41 151.78 ( ) 0 0 t
362.16 151.78 ( ) 0 0 t
364.91 151.78 (l) 0 0 t
/Font3 findfont 8 s
370.95 149.77 (L) 0 0 t
/Font5 findfont 11 s
375.40 151.78 ( ) 0 0 t
378.15 151.78 ( ) 0 0 t
380.90 151.78 (l) 0 0 t
/Font3 findfont 8 s
386.94 149.77 (r) 0 0 t
0.00 0.00 450.00 262.50 cl
0.00 0.00 450.00 262.50 cl
/bg { 0.9490 0.9490 0.9490 srgb } def
1 1 1 srgb
1.07 setlinewidth
[] 0 setdash
1 setlinecap
1 setlinejoin
10.00 setmiterlimit
359.41 130.24 17.28 17.28 r p3
0.00 0.00 450.00 262.50 cl
0.00 0.00 450.00 262.50 cl
0.9725 0.4627 0.4275 srgb
1.07 setlinewidth
[] 0 setdash
0 setlinecap
1 setlinejoin
10.00 setmiterlimit
np
361.14 138.88 m
13.82 0 l
o
0.00 0.00 450.00 262.50 cl
0.00 0.00 450.00 262.50 cl
/bg { 0.9490 0.9490 0.9490 srgb } def
1 1 1 srgb
1.07 setlinewidth
[] 0 setdash
1 setlinecap
1 setlinejoin
10.00 setmiterlimit
359.41 112.96 17.28 17.28 r p3
0.00 0.00 450.00 262.50 cl
0.00 0.00 450.00 262.50 cl
0.6392 0.6471 0 srgb
1.07 setlinewidth
[] 0 setdash
0 setlinecap
1 setlinejoin
10.00 setmiterlimit
np
361.14 121.60 m
13.82 0 l
o
0.00 0.00 450.00 262.50 cl
0.00 0.00 450.00 262.50 cl
/bg { 0.9490 0.9490 0.9490 srgb } def
1 1 1 srgb
1.07 setlinewidth
[] 0 setdash
1 setlinecap
1 setlinejoin
10.00 setmiterlimit
359.41 95.68 17.28 17.28 r p3
0.00 0.00 450.00 262.50 cl
0.00 0.00 450.00 262.50 cl
0 0.7490 0.4902 srgb
1.07 setlinewidth
[] 0 setdash
0 setlinecap
1 setlinejoin
10.00 setmiterlimit
np
361.14 104.32 m
13.82 0 l
o
0.00 0.00 450.00 262.50 cl
0.00 0.00 450.00 262.50 cl
/bg { 0.9490 0.9490 0.9490 srgb } def
1 1 1 srgb
1.07 setlinewidth
[] 0 setdash
1 setlinecap
1 setlinejoin
10.00 setmiterlimit
359.41 78.40 17.28 17.28 r p3
0.00 0.00 450.00 262.50 cl
0.00 0.00 450.00 262.50 cl
0 0.6902 0.9647 srgb
1.07 setlinewidth
[] 0 setdash
0 setlinecap
1 setlinejoin
10.00 setmiterlimit
np
361.14 87.04 m
13.82 0 l
o
0.00 0.00 450.00 262.50 cl
0.00 0.00 450.00 262.50 cl
/bg { 0.9490 0.9490 0.9490 srgb } def
1 1 1 srgb
1.07 setlinewidth
[] 0 setdash
1 setlinecap
1 setlinejoin
10.00 setmiterlimit
359.41 61.12 17.28 17.28 r p3
0.00 0.00 450.00 262.50 cl
0.00 0.00 450.00 262.50 cl
0.9059 0.4196 0.9529 srgb
1.07 setlinewidth
[] 0 setdash
0 setlinecap
1 setlinejoin
10.00 setmiterlimit
np
361.14 69.76 m
13.82 0 l
o
0.00 0.00 450.00 262.50 cl
0.00 0.00 450.00 262.50 cl
/Font1 findfont 9 s
0 0 0 srgb
378.85 135.65 (2 0.2) 0 0 t
0.00 0.00 450.00 262.50 cl
0.00 0.00 450.00 262.50 cl
/Font1 findfont 9 s
0 0 0 srgb
378.85 118.37 (2 2) 0 0 t
0.00 0.00 450.00 262.50 cl
0.00 0.00 450.00 262.50 cl
/Font1 findfont 9 s
0 0 0 srgb
378.85 101.09 (2 5) 0 0 t
0.00 0.00 450.00 262.50 cl
0.00 0.00 450.00 262.50 cl
/Font1 findfont 9 s
0 0 0 srgb
378.85 83.81 (2 10) 0 0 t
0.00 0.00 450.00 262.50 cl
0.00 0.00 450.00 262.50 cl
/Font1 findfont 9 s
0 0 0 srgb
378.85 66.53 (2 20) 0 0 t
0.00 0.00 450.00 262.50 cl
0.00 0.00 450.00 262.50 cl
0.00 0.00 450.00 262.50 cl
0.00 0.00 450.00 262.50 cl
0.00 0.00 450.00 262.50 cl
0.00 0.00 450.00 262.50 cl
0.00 0.00 450.00 262.50 cl
0.00 0.00 450.00 262.50 cl
0.00 0.00 450.00 262.50 cl
0.00 0.00 450.00 262.50 cl
ep
%%Trailer
%%Pages: 1
%%EOF
