%!PS-Adobe-3.0 EPSF-3.0
%%DocumentNeededResources: font Helvetica
%%+ font Helvetica-Bold
%%+ font Helvetica-Oblique
%%+ font Helvetica-BoldOblique
%%+ font Symbol
%%Title: R Graphics Output
%%Creator: R Software
%%Pages: (atend)
%%BoundingBox: 0 0 332 208
%%EndComments
%%BeginProlog
/bp  { gs sRGB gs } def
% begin .ps.prolog
/gs  { gsave } bind def
/gr  { grestore } bind def
/ep  { showpage gr gr } bind def
/m   { moveto } bind def
/l  { rlineto } bind def
/np  { newpath } bind def
/cp  { closepath } bind def
/f   { fill } bind def
/o   { stroke } bind def
/c   { newpath 0 360 arc } bind def
/r   { 4 2 roll moveto 1 copy 3 -1 roll exch 0 exch rlineto 0 rlineto -1 mul 0 exch rlineto closepath } bind def
/p1  { stroke } bind def
/p2  { gsave bg fill grestore newpath } bind def
/p3  { gsave bg fill grestore stroke } bind def
/p6  { gsave bg eofill grestore newpath } bind def
/p7  { gsave bg eofill grestore stroke } bind def
/t   { 5 -2 roll moveto gsave rotate
       1 index stringwidth pop
       mul neg 0 rmoveto show grestore } bind def
/ta  { 4 -2 roll moveto gsave rotate show } bind def
/tb  { 2 -1 roll 0 rmoveto show } bind def
/cl  { grestore gsave newpath 3 index 3 index moveto 1 index
       4 -1 roll lineto  exch 1 index lineto lineto
       closepath clip newpath } bind def
/rgb { setrgbcolor } bind def
/s   { scalefont setfont } bind def
% end   .ps.prolog
/sRGB { [ /CIEBasedABC
          << /DecodeLMN
               [ { dup 0.03928 le
                        {12.92321 div}
                        {0.055 add 1.055 div 2.4 exp }
                     ifelse
                 } bind dup dup
               ]
             /MatrixLMN [0.412457 0.212673 0.019334
                         0.357576 0.715152 0.119192
                         0.180437 0.072175 0.950301]
             /WhitePoint [0.9505 1.0 1.0890]
           >>
         ] setcolorspace } bind def
/srgb { setcolor } bind def
% begin encoding
/WinAnsiEncoding [
 /.notdef /.notdef /.notdef /.notdef /.notdef /.notdef /.notdef /.notdef
 /.notdef /.notdef /.notdef /.notdef /.notdef /.notdef /.notdef /.notdef
 /.notdef /.notdef /.notdef /.notdef /.notdef /.notdef /.notdef /.notdef
 /.notdef /.notdef /.notdef /.notdef /.notdef /.notdef /.notdef /.notdef
 /space /exclam /quotedbl /numbersign /dollar /percent /ampersand /quoteright
 /parenleft /parenright /asterisk /plus /comma /minus /period /slash
 /zero /one /two /three /four /five /six /seven
 /eight /nine /colon /semicolon /less /equal /greater /question
 /at /A /B /C /D /E /F /G
 /H /I /J /K /L /M /N /O
 /P /Q /R /S /T /U /V /W
 /X /Y /Z /bracketleft /backslash /bracketright /asciicircum /underscore
 /grave /a /b /c /d /e /f /g
 /h /i /j /k /l /m /n /o
 /p /q /r /s /t /u /v /w
 /x /y /z /braceleft /bar /braceright /asciitilde /.notdef
 /Euro /.notdef /quotesinglbase /florin /quotedblbase /ellipsis /dagger /daggerdbl
 /circumflex /perthousand /Scaron /guilsinglleft /OE /.notdef /Zcaron /.notdef
 /.notdef /quoteleft /quoteright /quotedblleft /quotedblright /bullet /endash /emdash
 /tilde /trademark /scaron /guilsinglright /oe /.notdef /zcaron /Ydieresis
 /space /exclamdown /cent /sterling /currency /yen /brokenbar /section
 /dieresis /copyright /ordfeminine /guillemotleft /logicalnot /hyphen /registered /macron
 /degree /plusminus /twosuperior /threesuperior /acute /mu /paragraph /periodcentered
 /cedilla /onesuperior /ordmasculine /guillemotright /onequarter /onehalf /threequarters /questiondown
 /Agrave /Aacute /Acircumflex /Atilde /Adieresis /Aring /AE /Ccedilla
 /Egrave /Eacute /Ecircumflex /Edieresis /Igrave /Iacute /Icircumflex /Idieresis
 /Eth /Ntilde /Ograve /Oacute /Ocircumflex /Otilde /Odieresis /multiply
 /Oslash /Ugrave /Uacute /Ucircumflex /Udieresis /Yacute /Thorn /germandbls
 /agrave /aacute /acircumflex /atilde /adieresis /aring /ae /ccedilla
 /egrave /eacute /ecircumflex /edieresis /igrave /iacute /icircumflex /idieresis
 /eth /ntilde /ograve /oacute /ocircumflex /otilde /odieresis /divide
 /oslash /ugrave /uacute /ucircumflex /udieresis /yacute /thorn /ydieresis
]
 def
% end encoding
%%IncludeResource: font Helvetica
/Helvetica findfont
dup length dict begin
  {1 index /FID ne {def} {pop pop} ifelse} forall
  /Encoding WinAnsiEncoding def
  currentdict
  end
/Font1 exch definefont pop
%%IncludeResource: font Helvetica-Bold
/Helvetica-Bold findfont
dup length dict begin
  {1 index /FID ne {def} {pop pop} ifelse} forall
  /Encoding WinAnsiEncoding def
  currentdict
  end
/Font2 exch definefont pop
%%IncludeResource: font Helvetica-Oblique
/Helvetica-Oblique findfont
dup length dict begin
  {1 index /FID ne {def} {pop pop} ifelse} forall
  /Encoding WinAnsiEncoding def
  currentdict
  end
/Font3 exch definefont pop
%%IncludeResource: font Helvetica-BoldOblique
/Helvetica-BoldOblique findfont
dup length dict begin
  {1 index /FID ne {def} {pop pop} ifelse} forall
  /Encoding WinAnsiEncoding def
  currentdict
  end
/Font4 exch definefont pop
%%IncludeResource: font Symbol
/Symbol findfont
dup length dict begin
  {1 index /FID ne {def} {pop pop} ifelse} forall
  currentdict
  end
/Font5 exch definefont pop
%%EndProlog
%%Page: 1 1
bp
0.00 0.00 331.50 207.75 cl
0.00 0.00 331.50 207.75 cl
0.00 0.00 331.50 207.75 cl
0.00 0.00 331.50 207.75 cl
0.00 0.00 331.50 207.75 cl
0.00 0.00 331.50 207.75 cl
0.00 0.00 331.50 207.75 cl
0.00 0.00 331.50 207.75 cl
0.00 0.00 331.50 207.75 cl
/bg { 1 1 1 srgb } def
1 1 1 srgb
1.07 setlinewidth
[] 0 setdash
1 setlinecap
1 setlinejoin
10.00 setmiterlimit
0.00 0.00 331.50 207.75 r p3
0.00 0.00 331.50 207.75 cl
0.00 0.00 331.50 207.75 cl
0.00 0.00 331.50 207.75 cl
44.41 31.35 263.07 202.27 cl
/bg { 0.9216 0.9216 0.9216 srgb } def
44.41 31.35 218.66 170.92 r p2
1 1 1 srgb
0.53 setlinewidth
[] 0 setdash
0 setlinecap
1 setlinejoin
10.00 setmiterlimit
np
44.41 58.75 m
218.66 0 l
o
np
44.41 97.59 m
218.66 0 l
o
np
44.41 136.43 m
218.66 0 l
o
np
44.41 175.26 m
218.66 0 l
o
np
85.37 31.35 m
0 170.92 l
o
np
147.51 31.35 m
0 170.92 l
o
np
209.64 31.35 m
0 170.92 l
o
1.07 setlinewidth
[] 0 setdash
np
44.41 39.33 m
218.66 0 l
o
np
44.41 78.17 m
218.66 0 l
o
np
44.41 117.01 m
218.66 0 l
o
np
44.41 155.85 m
218.66 0 l
o
np
44.41 194.68 m
218.66 0 l
o
np
54.31 31.35 m
0 170.92 l
o
np
116.44 31.35 m
0 170.92 l
o
np
178.57 31.35 m
0 170.92 l
o
np
240.70 31.35 m
0 170.92 l
o
0.5294 0.8078 0.9216 srgb
1.00 setmiterlimit
np
54.43 39.33 m
0.40 0 l
0.40 0 l
0.40 0 l
0.40 0 l
0.39 0 l
0.40 0 l
0.40 0 l
0.40 0 l
0.40 0 l
0.40 0 l
0.39 0 l
0.40 0 l
0.40 0.01 l
0.40 0.01 l
0.40 0.02 l
0.39 0.03 l
0.40 0.06 l
0.40 0.07 l
0.40 0.11 l
0.40 0.14 l
0.40 0.17 l
0.39 0.23 l
0.40 0.27 l
0.40 0.33 l
0.40 0.38 l
0.40 0.44 l
0.39 0.50 l
0.40 0.55 l
0.40 0.62 l
0.40 0.68 l
0.40 0.74 l
0.40 0.80 l
0.39 0.85 l
0.40 0.91 l
0.40 0.96 l
0.40 1.01 l
0.40 1.06 l
0.39 1.10 l
0.40 1.14 l
0.40 1.18 l
0.40 1.22 l
0.40 1.26 l
0.40 1.28 l
0.39 1.32 l
0.40 1.33 l
0.40 1.37 l
0.40 1.38 l
0.40 1.40 l
0.39 1.41 l
0.40 1.43 l
0.40 1.45 l
0.40 1.45 l
0.40 1.46 l
0.40 1.46 l
0.39 1.47 l
0.40 1.47 l
0.40 1.48 l
0.40 1.47 l
0.40 1.47 l
0.39 1.47 l
0.40 1.47 l
0.40 1.46 l
0.40 1.46 l
0.40 1.44 l
0.40 1.45 l
0.39 1.43 l
0.40 1.42 l
0.40 1.42 l
0.40 1.40 l
0.40 1.40 l
0.39 1.38 l
0.40 1.37 l
0.40 1.36 l
0.40 1.34 l
0.40 1.34 l
0.40 1.32 l
0.39 1.30 l
0.40 1.30 l
0.40 1.27 l
0.40 1.27 l
0.40 1.25 l
0.39 1.24 l
0.40 1.22 l
0.40 1.21 l
0.40 1.19 l
0.40 1.18 l
0.40 1.16 l
0.39 1.15 l
0.40 1.14 l
0.40 1.12 l
0.40 1.10 l
0.40 1.09 l
0.39 1.08 l
0.40 1.06 l
0.40 1.05 l
0.40 1.04 l
0.40 1.02 l
0.40 1.00 l
0.39 0.99 l
94.25 131.62 lineto
0.40 0.96 l
0.40 0.96 l
0.40 0.93 l
0.39 0.93 l
0.40 0.91 l
0.40 0.89 l
0.40 0.89 l
0.40 0.87 l
0.40 0.86 l
0.39 0.85 l
0.40 0.83 l
0.40 0.82 l
0.40 0.81 l
0.40 0.80 l
0.40 0.78 l
0.39 0.78 l
0.40 0.76 l
0.40 0.75 l
0.40 0.74 l
0.40 0.73 l
0.39 0.72 l
0.40 0.70 l
0.40 0.70 l
0.40 0.69 l
0.40 0.67 l
0.40 0.67 l
0.39 0.65 l
0.40 0.65 l
0.40 0.63 l
0.40 0.63 l
0.40 0.61 l
0.39 0.61 l
0.40 0.60 l
0.40 0.58 l
0.40 0.58 l
0.40 0.57 l
0.40 0.56 l
0.39 0.56 l
0.40 0.54 l
0.40 0.53 l
0.40 0.53 l
0.40 0.52 l
0.39 0.51 l
0.40 0.51 l
0.40 0.49 l
0.40 0.49 l
0.40 0.48 l
0.40 0.47 l
0.39 0.47 l
0.40 0.45 l
0.40 0.46 l
0.40 0.44 l
0.40 0.44 l
0.39 0.43 l
0.40 0.42 l
0.40 0.42 l
0.40 0.41 l
0.40 0.40 l
0.40 0.40 l
0.39 0.39 l
0.40 0.39 l
0.40 0.38 l
0.40 0.37 l
0.40 0.37 l
0.39 0.36 l
0.40 0.35 l
0.40 0.36 l
0.40 0.34 l
0.40 0.34 l
0.40 0.34 l
0.39 0.32 l
0.40 0.33 l
0.40 0.32 l
0.40 0.31 l
0.40 0.31 l
0.39 0.31 l
0.40 0.29 l
0.40 0.30 l
0.40 0.29 l
0.40 0.29 l
0.40 0.28 l
0.39 0.27 l
0.40 0.28 l
0.40 0.26 l
0.40 0.27 l
0.40 0.26 l
0.39 0.25 l
0.40 0.26 l
0.40 0.24 l
0.40 0.25 l
0.40 0.24 l
0.40 0.23 l
0.39 0.24 l
0.40 0.23 l
0.40 0.22 l
0.40 0.22 l
0.40 0.22 l
0.39 0.22 l
0.40 0.21 l
134.07 181.58 lineto
0.40 0.20 l
0.40 0.20 l
0.40 0.20 l
0.39 0.20 l
0.40 0.19 l
0.40 0.19 l
0.40 0.19 l
0.40 0.18 l
0.39 0.18 l
0.40 0.18 l
0.40 0.17 l
0.40 0.18 l
0.40 0.16 l
0.40 0.17 l
0.39 0.17 l
0.40 0.16 l
0.40 0.16 l
0.40 0.15 l
0.40 0.16 l
0.40 0.15 l
0.39 0.15 l
0.40 0.15 l
0.40 0.14 l
0.40 0.14 l
0.40 0.14 l
0.39 0.14 l
0.40 0.14 l
0.40 0.13 l
0.40 0.13 l
0.40 0.13 l
0.40 0.13 l
0.39 0.13 l
0.40 0.12 l
0.40 0.12 l
0.40 0.12 l
0.40 0.12 l
0.39 0.11 l
0.40 0.12 l
0.40 0.11 l
0.40 0.11 l
0.40 0.11 l
0.40 0.11 l
0.39 0.10 l
0.40 0.11 l
0.40 0.10 l
0.40 0.10 l
0.40 0.10 l
0.39 0.10 l
0.40 0.09 l
0.40 0.10 l
0.40 0.09 l
0.40 0.09 l
0.40 0.09 l
0.39 0.09 l
0.40 0.09 l
0.40 0.08 l
0.40 0.09 l
0.40 0.08 l
0.39 0.08 l
0.40 0.08 l
0.40 0.08 l
0.40 0.08 l
0.40 0.08 l
0.40 0.07 l
0.39 0.08 l
0.40 0.07 l
0.40 0.07 l
0.40 0.07 l
0.40 0.07 l
0.39 0.07 l
0.40 0.07 l
0.40 0.07 l
0.40 0.06 l
0.40 0.07 l
0.40 0.06 l
0.39 0.06 l
0.40 0.07 l
0.40 0.06 l
0.40 0.06 l
0.40 0.05 l
0.39 0.06 l
0.40 0.06 l
0.40 0.05 l
0.40 0.06 l
0.40 0.05 l
0.40 0.06 l
0.39 0.05 l
0.40 0.05 l
0.40 0.05 l
0.40 0.05 l
0.40 0.05 l
0.39 0.05 l
0.40 0.05 l
0.40 0.05 l
0.40 0.04 l
0.40 0.05 l
0.40 0.04 l
0.39 0.05 l
0.40 0.04 l
173.89 191.95 lineto
0.40 0.04 l
0.40 0.05 l
0.39 0.04 l
0.40 0.04 l
0.40 0.04 l
0.40 0.04 l
0.40 0.03 l
0.40 0.04 l
0.39 0.04 l
0.40 0.03 l
0.40 0.04 l
0.40 0.04 l
0.40 0.03 l
0.39 0.03 l
0.40 0.04 l
0.40 0.03 l
0.40 0.03 l
0.40 0.04 l
0.40 0.03 l
0.39 0.03 l
0.40 0.03 l
0.40 0.03 l
0.40 0.03 l
0.40 0.03 l
0.39 0.03 l
0.40 0.03 l
0.40 0.02 l
0.40 0.03 l
0.40 0.03 l
0.40 0.02 l
0.39 0.03 l
0.40 0.03 l
0.40 0.02 l
0.40 0.03 l
0.40 0.02 l
0.40 0.03 l
0.39 0.02 l
0.40 0.02 l
0.40 0.03 l
0.40 0.02 l
0.40 0.02 l
0.39 0.02 l
0.40 0.02 l
0.40 0.03 l
0.40 0.02 l
0.40 0.02 l
0.40 0.02 l
0.39 0.02 l
0.40 0.02 l
0.40 0.02 l
0.40 0.02 l
0.40 0.01 l
0.39 0.02 l
0.40 0.02 l
0.40 0.02 l
0.40 0.02 l
0.40 0.01 l
0.40 0.02 l
0.39 0.02 l
0.40 0.01 l
0.40 0.02 l
0.40 0.02 l
0.40 0.01 l
0.39 0.02 l
0.40 0.01 l
0.40 0.02 l
0.40 0.01 l
0.40 0.02 l
0.40 0.01 l
0.39 0.01 l
0.40 0.02 l
0.40 0.01 l
0.40 0.02 l
0.40 0.01 l
0.39 0.01 l
0.40 0.01 l
0.40 0.02 l
0.40 0.01 l
0.40 0.01 l
0.40 0.01 l
0.39 0.01 l
0.40 0.02 l
0.40 0.01 l
0.40 0.01 l
0.40 0.01 l
0.39 0.01 l
0.40 0.01 l
0.40 0.01 l
0.40 0.01 l
0.40 0.01 l
0.40 0.01 l
0.39 0.01 l
0.40 0.01 l
0.40 0.01 l
0.40 0.01 l
0.40 0.01 l
0.39 0.01 l
0.40 0.01 l
0.40 0.01 l
213.71 194.08 lineto
0.40 0.01 l
0.40 0 l
0.39 0.01 l
0.40 0.01 l
0.40 0.01 l
0.40 0.01 l
0.40 0 l
0.39 0.01 l
0.40 0.01 l
0.40 0.01 l
0.40 0 l
0.40 0.01 l
0.40 0.01 l
0.39 0 l
0.40 0.01 l
0.40 0.01 l
0.40 0 l
0.40 0.01 l
0.39 0.01 l
0.40 0 l
0.40 0.01 l
0.40 0.01 l
0.40 0 l
0.40 0.01 l
0.39 0 l
0.40 0.01 l
0.40 0.01 l
0.40 0 l
0.40 0.01 l
0.39 0 l
0.40 0.01 l
0.40 0 l
0.40 0.01 l
0.40 0 l
0.40 0.01 l
0.39 0 l
0.40 0.01 l
0.40 0 l
0.40 0.01 l
0.40 0 l
0.40 0.01 l
0.39 0 l
0.40 0 l
0.40 0.01 l
0.40 0 l
0.40 0.01 l
0.39 0 l
0.40 0 l
0.40 0.01 l
0.40 0 l
0.40 0.01 l
0.40 0 l
0.39 0 l
0.40 0.01 l
0.40 0 l
0.40 0 l
0.40 0.01 l
0.39 0 l
0.40 0 l
0.40 0.01 l
0.40 0 l
0.40 0 l
0.40 0.01 l
0.39 0 l
0.40 0 l
0.40 0.01 l
0.40 0 l
0.40 0 l
0.39 0.01 l
0.40 0 l
0.40 0 l
0.40 0 l
0.40 0.01 l
0.40 0 l
0.39 0 l
0.40 0 l
0.40 0.01 l
0.40 0 l
0.40 0 l
0.39 0 l
0.40 0.01 l
0.40 0 l
0.40 0 l
0.40 0 l
0.40 0 l
0.39 0.01 l
0.40 0 l
0.40 0 l
0.40 0 l
0.40 0 l
0.39 0.01 l
0.40 0 l
0.40 0 l
0.40 0 l
0.40 0 l
0.40 0.01 l
0.39 0 l
0.40 0 l
0.40 0 l
o
0.9137 0.5882 0.4784 srgb
np
54.39 39.20 m
0 0 l
0.39 -0.04 l
0 0 l
0.40 -0.04 l
0 0 l
0.40 0.21 l
0.40 0 l
0.40 0 l
0.39 0 l
0.40 0 l
0.40 0 l
0.40 0 l
0.40 0 l
0.40 0 l
0.39 0.01 l
0.40 0.01 l
0.40 0.01 l
0.40 0.03 l
0.40 0.04 l
0.39 0.06 l
0.40 0.08 l
0.40 0.11 l
0.40 0.14 l
0.40 0.18 l
0.40 0.23 l
0.39 0.27 l
0.40 0.32 l
0.40 0.38 l
0.40 0.44 l
0.40 0.49 l
0.39 0.55 l
0.40 0.61 l
0.40 0.67 l
0.40 0.73 l
0.40 0.79 l
0.40 0.84 l
0.39 0.90 l
0.40 0.95 l
0.40 1.00 l
0.40 1.05 l
0.40 1.09 l
0.39 1.14 l
0.40 1.17 l
0.40 1.21 l
0.40 1.25 l
0.40 1.27 l
0.40 1.31 l
0.39 1.33 l
0.40 1.35 l
0.40 1.38 l
0.40 1.39 l
0.40 1.42 l
0.39 1.42 l
0.40 1.44 l
0.40 1.44 l
0.40 1.46 l
0.40 1.46 l
0.40 1.47 l
0.39 1.47 l
0.40 1.47 l
0.40 1.47 l
0.40 1.47 l
0.40 1.47 l
0.39 1.46 l
0.40 1.47 l
0.40 1.45 l
0.40 1.45 l
0.40 1.44 l
0.40 1.43 l
0.39 1.43 l
0.40 1.41 l
0.40 1.41 l
0.40 1.39 l
0.40 1.38 l
0.39 1.37 l
0.40 1.36 l
0.40 1.35 l
0.40 1.33 l
0.40 1.33 l
0.40 1.30 l
0.39 1.30 l
0.40 1.28 l
0.40 1.26 l
0.40 1.26 l
0.40 1.23 l
0.39 1.23 l
0.40 1.21 l
0.40 1.19 l
0.40 1.18 l
0.40 1.17 l
0.40 1.15 l
0.39 1.14 l
0.40 1.12 l
0.40 1.11 l
0.40 1.09 l
0.40 1.08 l
0.40 1.06 l
0.39 1.05 l
0.40 1.04 l
93.01 128.50 lineto
0.40 1.01 l
0.40 0.99 l
0.39 0.98 l
0.40 0.97 l
0.40 0.95 l
0.40 0.94 l
0.40 0.92 l
0.40 0.92 l
0.39 0.90 l
0.40 0.88 l
0.40 0.88 l
0.40 0.86 l
0.40 0.84 l
0.39 0.84 l
0.40 0.82 l
0.40 0.81 l
0.40 0.80 l
0.40 0.79 l
0.40 0.78 l
0.39 0.76 l
0.40 0.75 l
0.40 0.74 l
0.40 0.73 l
0.40 0.72 l
0.39 0.71 l
0.40 0.70 l
0.40 0.69 l
0.40 0.67 l
0.40 0.67 l
0.40 0.66 l
0.39 0.64 l
0.40 0.64 l
0.40 0.63 l
0.40 0.61 l
0.40 0.61 l
0.39 0.60 l
0.40 0.59 l
0.40 0.58 l
0.40 0.57 l
0.40 0.56 l
0.40 0.55 l
0.39 0.55 l
0.40 0.54 l
0.40 0.53 l
0.40 0.52 l
0.40 0.51 l
0.39 0.50 l
0.40 0.50 l
0.40 0.49 l
0.40 0.48 l
0.40 0.47 l
0.40 0.47 l
0.39 0.46 l
0.40 0.45 l
0.40 0.44 l
0.40 0.44 l
0.40 0.43 l
0.39 0.43 l
0.40 0.42 l
0.40 0.41 l
0.40 0.40 l
0.40 0.40 l
0.40 0.39 l
0.39 0.39 l
0.40 0.38 l
0.40 0.37 l
0.40 0.37 l
0.40 0.37 l
0.39 0.35 l
0.40 0.35 l
0.40 0.35 l
0.40 0.34 l
0.40 0.34 l
0.40 0.33 l
0.39 0.32 l
0.40 0.32 l
0.40 0.32 l
0.40 0.31 l
0.40 0.30 l
0.39 0.30 l
0.40 0.30 l
0.40 0.29 l
0.40 0.28 l
0.40 0.29 l
0.40 0.27 l
0.39 0.28 l
0.40 0.27 l
0.40 0.26 l
0.40 0.26 l
0.40 0.26 l
0.39 0.25 l
0.40 0.25 l
0.40 0.24 l
0.40 0.24 l
0.40 0.24 l
0.40 0.23 l
0.39 0.23 l
0.40 0.23 l
0.40 0.22 l
132.83 180.91 lineto
0.40 0.22 l
0.39 0.21 l
0.40 0.21 l
0.40 0.20 l
0.40 0.20 l
0.40 0.20 l
0.40 0.20 l
0.39 0.19 l
0.40 0.19 l
0.40 0.19 l
0.40 0.18 l
0.40 0.18 l
0.40 0.18 l
0.39 0.18 l
0.40 0.17 l
0.40 0.17 l
0.40 0.17 l
0.40 0.16 l
0.39 0.16 l
0.40 0.16 l
0.40 0.16 l
0.40 0.16 l
0.40 0.15 l
0.40 0.15 l
0.39 0.14 l
0.40 0.15 l
0.40 0.14 l
0.40 0.14 l
0.40 0.14 l
0.39 0.14 l
0.40 0.13 l
0.40 0.13 l
0.40 0.13 l
0.40 0.13 l
0.40 0.13 l
0.39 0.12 l
0.40 0.12 l
0.40 0.12 l
0.40 0.12 l
0.40 0.12 l
0.39 0.11 l
0.40 0.12 l
0.40 0.11 l
0.40 0.11 l
0.40 0.10 l
0.40 0.11 l
0.39 0.10 l
0.40 0.10 l
0.40 0.11 l
0.40 0.09 l
0.40 0.10 l
0.39 0.10 l
0.40 0.09 l
0.40 0.10 l
0.40 0.09 l
0.40 0.09 l
0.40 0.09 l
0.39 0.08 l
0.40 0.09 l
0.40 0.09 l
0.40 0.08 l
0.40 0.08 l
0.39 0.08 l
0.40 0.08 l
0.40 0.08 l
0.40 0.08 l
0.40 0.07 l
0.40 0.08 l
0.39 0.07 l
0.40 0.07 l
0.40 0.07 l
0.40 0.07 l
0.40 0.07 l
0.39 0.07 l
0.40 0.07 l
0.40 0.06 l
0.40 0.07 l
0.40 0.06 l
0.40 0.06 l
0.39 0.07 l
0.40 0.06 l
0.40 0.06 l
0.40 0.06 l
0.40 0.05 l
0.39 0.06 l
0.40 0.06 l
0.40 0.05 l
0.40 0.06 l
0.40 0.05 l
0.40 0.05 l
0.39 0.05 l
0.40 0.06 l
0.40 0.05 l
0.40 0.04 l
0.40 0.05 l
0.39 0.05 l
0.40 0.05 l
0.40 0.04 l
0.40 0.05 l
172.65 191.82 lineto
0.40 0.04 l
0.39 0.04 l
0.40 0.05 l
0.40 0.04 l
0.40 0.04 l
0.40 0.04 l
0.39 0.04 l
0.40 0.04 l
0.40 0.04 l
0.40 0.04 l
0.40 0.04 l
0.40 0.03 l
0.39 0.04 l
0.40 0.04 l
0.40 0.03 l
0.40 0.04 l
0.40 0.03 l
0.40 0.03 l
0.39 0.04 l
0.40 0.03 l
0.40 0.03 l
0.40 0.03 l
0.40 0.03 l
0.39 0.04 l
0.40 0.03 l
0.40 0.03 l
0.40 0.02 l
0.40 0.03 l
0.40 0.03 l
0.39 0.03 l
0.40 0.03 l
0.40 0.02 l
0.40 0.03 l
0.40 0.03 l
0.39 0.02 l
0.40 0.03 l
0.40 0.02 l
0.40 0.03 l
0.40 0.02 l
0.40 0.03 l
0.39 0.02 l
0.40 0.02 l
0.40 0.03 l
0.40 0.02 l
0.40 0.02 l
0.39 0.02 l
0.40 0.02 l
0.40 0.02 l
0.40 0.02 l
0.40 0.02 l
0.40 0.02 l
0.39 0.02 l
0.40 0.02 l
0.40 0.02 l
0.40 0.02 l
0.40 0.02 l
0.39 0.02 l
0.40 0.02 l
0.40 0.01 l
0.40 0.02 l
0.40 0.02 l
0.40 0.01 l
0.39 0.02 l
0.40 0.02 l
0.40 0.01 l
0.40 0.02 l
0.40 0.01 l
0.39 0.02 l
0.40 0.01 l
0.40 0.02 l
0.40 0.01 l
0.40 0.02 l
0.40 0.01 l
0.39 0.02 l
0.40 0.01 l
0.40 0.01 l
0.40 0.02 l
0.40 0.01 l
0.39 0.01 l
0.40 0.01 l
0.40 0.02 l
0.40 0.01 l
0.40 0.01 l
0.40 0.01 l
0.39 0.01 l
0.40 0.02 l
0.40 0.01 l
0.40 0.01 l
0.40 0.01 l
0.39 0.01 l
0.40 0.01 l
0.40 0.01 l
0.40 0.01 l
0.40 0.01 l
0.40 0.01 l
0.39 0.01 l
0.40 0.01 l
0.40 0.01 l
0.40 0.01 l
212.47 194.05 lineto
0.39 0.01 l
0.40 0.01 l
0.40 0.01 l
0.40 0 l
0.40 0.01 l
0.40 0.01 l
0.39 0.01 l
0.40 0.01 l
0.40 0 l
0.40 0.01 l
0.40 0.01 l
0.39 0.01 l
0.40 0.01 l
0.40 0 l
0.40 0.01 l
0.40 0.01 l
0.40 0 l
0.39 0.01 l
0.40 0.01 l
0.40 0 l
0.40 0.01 l
0.40 0.01 l
0.39 0 l
0.40 0.01 l
0.40 0.01 l
0.40 0 l
0.40 0.01 l
0.40 0 l
0.39 0.01 l
0.40 0 l
0.40 0.01 l
0.40 0.01 l
0.40 0 l
0.40 0.01 l
0.39 0 l
0.40 0.01 l
0.40 0 l
0.40 0.01 l
0.40 0 l
0.39 0.01 l
0.40 0 l
0.40 0.01 l
0.40 0 l
0.40 0 l
0.40 0.01 l
0.39 0 l
0.40 0.01 l
0.40 0 l
0.40 0.01 l
0.40 0 l
0.39 0 l
0.40 0.01 l
0.40 0 l
0.40 0.01 l
0.40 0 l
0.40 0 l
0.39 0.01 l
0.40 0 l
0.40 0 l
0.40 0.01 l
0.40 0 l
0.39 0 l
0.40 0.01 l
0.40 0 l
0.40 0 l
0.40 0.01 l
0.40 0 l
0.39 0 l
0.40 0.01 l
0.40 0 l
0.40 0 l
0.40 0 l
0.39 0.01 l
0.40 0 l
0.40 0 l
0.40 0.01 l
0.40 0 l
0.40 0 l
0.39 0 l
0.40 0.01 l
0.40 0 l
0.40 0 l
0.40 0 l
0.39 0.01 l
0.40 0 l
0.40 0 l
0.40 0 l
0.40 0 l
0.40 0.01 l
0.39 0 l
0.40 0 l
0.40 0 l
0.40 0 l
0.40 0.01 l
0.39 0 l
0.40 0 l
0.40 0 l
0.40 0 l
0.40 0.01 l
o
1 0.5490 0 srgb
np
54.59 39.30 m
0 0 l
0.40 0 l
0 0 l
0.40 0.01 l
0 0 l
0.40 0 l
0 0 l
0.39 0.01 l
0 0 l
0.40 0.01 l
0 0 l
0.40 0.01 l
0 0 l
0.40 0.03 l
0 0 l
0.40 0.03 l
0 0 l
0.39 0.05 l
0 0 l
0.40 0.06 l
0 0 l
0.40 0.08 l
0 0 l
0.40 0.09 l
0 0 l
0.40 0.12 l
0 0 l
0.40 0.15 l
0 0 l
0.39 0.23 l
0 0 l
0.40 0.19 l
0.40 0.21 l
0.40 0.24 l
0.40 0.27 l
0.39 0.30 l
0.40 0.33 l
0.40 0.37 l
0.40 0.40 l
0.40 0.44 l
0.40 0.48 l
0.39 0.52 l
0.40 0.56 l
0.40 0.61 l
0.40 0.64 l
0.40 0.69 l
0.40 0.73 l
0.39 0.77 l
0.40 0.82 l
0.40 0.86 l
0.40 0.90 l
0.40 0.94 l
0.39 0.99 l
0.40 1.02 l
0.40 1.06 l
0.40 1.10 l
0.40 1.13 l
0.40 1.17 l
0.39 1.19 l
0.40 1.22 l
0.40 1.25 l
0.40 1.28 l
0.40 1.30 l
0.39 1.31 l
0.40 1.34 l
0.40 1.35 l
0.40 1.37 l
0.40 1.38 l
0.40 1.39 l
0.39 1.40 l
0.40 1.41 l
0.40 1.41 l
0.40 1.42 l
0.40 1.42 l
0.39 1.42 l
0.40 1.42 l
0.40 1.43 l
0.40 1.41 l
0.40 1.42 l
0.40 1.41 l
0.39 1.41 l
0.40 1.40 l
0.40 1.39 l
0.40 1.39 l
0.40 1.37 l
0.39 1.37 l
0.40 1.36 l
0.40 1.35 l
0.40 1.34 l
0.40 1.32 l
0.40 1.32 l
0.39 1.30 l
0.40 1.29 l
0.40 1.28 l
0.40 1.27 l
0.40 1.25 l
0.39 1.24 l
0.40 1.23 l
0.40 1.21 l
88.04 114.16 lineto
0.40 1.19 l
0.40 1.17 l
0.39 1.15 l
0.40 1.15 l
0.40 1.13 l
0.40 1.11 l
0.40 1.10 l
0.39 1.09 l
0.40 1.08 l
0.40 1.06 l
0.40 1.04 l
0.40 1.03 l
0.40 1.02 l
0.39 1.00 l
0.40 0.99 l
0.40 0.98 l
0.40 0.97 l
0.40 0.95 l
0.39 0.93 l
0.40 0.93 l
0.40 0.91 l
0.40 0.89 l
0.40 0.89 l
0.40 0.87 l
0.39 0.86 l
0.40 0.85 l
0.40 0.83 l
0.40 0.82 l
0.40 0.81 l
0.39 0.80 l
0.40 0.79 l
0.40 0.78 l
0.40 0.76 l
0.40 0.75 l
0.40 0.74 l
0.39 0.73 l
0.40 0.72 l
0.40 0.71 l
0.40 0.70 l
0.40 0.68 l
0.39 0.68 l
0.40 0.67 l
0.40 0.65 l
0.40 0.65 l
0.40 0.64 l
0.40 0.62 l
0.39 0.62 l
0.40 0.61 l
0.40 0.60 l
0.40 0.59 l
0.40 0.58 l
0.39 0.57 l
0.40 0.56 l
0.40 0.56 l
0.40 0.54 l
0.40 0.54 l
0.40 0.53 l
0.39 0.52 l
0.40 0.51 l
0.40 0.51 l
0.40 0.49 l
0.40 0.49 l
0.40 0.49 l
0.39 0.47 l
0.40 0.47 l
0.40 0.46 l
0.40 0.45 l
0.40 0.44 l
0.39 0.44 l
0.40 0.43 l
0.40 0.43 l
0.40 0.42 l
0.40 0.41 l
0.40 0.41 l
0.39 0.39 l
0.40 0.40 l
0.40 0.38 l
0.40 0.38 l
0.40 0.38 l
0.39 0.37 l
0.40 0.36 l
0.40 0.36 l
0.40 0.35 l
0.40 0.35 l
0.40 0.34 l
0.39 0.33 l
0.40 0.34 l
0.40 0.32 l
0.40 0.32 l
0.40 0.32 l
0.39 0.31 l
0.40 0.30 l
0.40 0.30 l
0.40 0.30 l
0.40 0.29 l
0.40 0.29 l
0.39 0.28 l
0.40 0.28 l
0.40 0.27 l
127.86 177.75 lineto
0.40 0.26 l
0.39 0.27 l
0.40 0.25 l
0.40 0.25 l
0.40 0.25 l
0.40 0.25 l
0.40 0.24 l
0.39 0.24 l
0.40 0.23 l
0.40 0.23 l
0.40 0.23 l
0.40 0.22 l
0.39 0.22 l
0.40 0.21 l
0.40 0.22 l
0.40 0.21 l
0.40 0.20 l
0.40 0.20 l
0.39 0.20 l
0.40 0.20 l
0.40 0.19 l
0.40 0.19 l
0.40 0.19 l
0.39 0.19 l
0.40 0.18 l
0.40 0.17 l
0.40 0.18 l
0.40 0.17 l
0.40 0.17 l
0.39 0.17 l
0.40 0.17 l
0.40 0.16 l
0.40 0.16 l
0.40 0.16 l
0.39 0.15 l
0.40 0.15 l
0.40 0.15 l
0.40 0.15 l
0.40 0.15 l
0.40 0.14 l
0.39 0.14 l
0.40 0.14 l
0.40 0.13 l
0.40 0.14 l
0.40 0.13 l
0.39 0.13 l
0.40 0.13 l
0.40 0.13 l
0.40 0.12 l
0.40 0.12 l
0.40 0.12 l
0.39 0.12 l
0.40 0.12 l
0.40 0.11 l
0.40 0.11 l
0.40 0.12 l
0.39 0.10 l
0.40 0.11 l
0.40 0.11 l
0.40 0.10 l
0.40 0.10 l
0.40 0.11 l
0.39 0.10 l
0.40 0.09 l
0.40 0.10 l
0.40 0.09 l
0.40 0.10 l
0.39 0.09 l
0.40 0.09 l
0.40 0.09 l
0.40 0.09 l
0.40 0.08 l
0.40 0.09 l
0.39 0.08 l
0.40 0.08 l
0.40 0.08 l
0.40 0.08 l
0.40 0.08 l
0.40 0.08 l
0.39 0.07 l
0.40 0.08 l
0.40 0.07 l
0.40 0.08 l
0.40 0.07 l
0.39 0.07 l
0.40 0.07 l
0.40 0.06 l
0.40 0.07 l
0.40 0.07 l
0.40 0.06 l
0.39 0.07 l
0.40 0.06 l
0.40 0.06 l
0.40 0.06 l
0.40 0.06 l
0.39 0.06 l
0.40 0.06 l
0.40 0.05 l
0.40 0.06 l
167.68 191.17 lineto
0.40 0.05 l
0.39 0.05 l
0.40 0.06 l
0.40 0.05 l
0.40 0.05 l
0.40 0.05 l
0.39 0.05 l
0.40 0.05 l
0.40 0.05 l
0.40 0.04 l
0.40 0.05 l
0.40 0.05 l
0.39 0.04 l
0.40 0.05 l
0.40 0.04 l
0.40 0.04 l
0.40 0.04 l
0.39 0.05 l
0.40 0.04 l
0.40 0.04 l
0.40 0.04 l
0.40 0.04 l
0.40 0.03 l
0.39 0.04 l
0.40 0.04 l
0.40 0.04 l
0.40 0.03 l
0.40 0.04 l
0.39 0.03 l
0.40 0.04 l
0.40 0.03 l
0.40 0.03 l
0.40 0.04 l
0.40 0.03 l
0.39 0.03 l
0.40 0.03 l
0.40 0.03 l
0.40 0.03 l
0.40 0.03 l
0.39 0.03 l
0.40 0.03 l
0.40 0.03 l
0.40 0.03 l
0.40 0.02 l
0.40 0.03 l
0.39 0.03 l
0.40 0.02 l
0.40 0.03 l
0.40 0.03 l
0.40 0.02 l
0.39 0.03 l
0.40 0.02 l
0.40 0.02 l
0.40 0.03 l
0.40 0.02 l
0.40 0.02 l
0.39 0.03 l
0.40 0.02 l
0.40 0.02 l
0.40 0.02 l
0.40 0.02 l
0.39 0.02 l
0.40 0.02 l
0.40 0.02 l
0.40 0.02 l
0.40 0.02 l
0.40 0.02 l
0.39 0.02 l
0.40 0.02 l
0.40 0.02 l
0.40 0.01 l
0.40 0.02 l
0.39 0.02 l
0.40 0.02 l
0.40 0.01 l
0.40 0.02 l
0.40 0.02 l
0.40 0.01 l
0.39 0.02 l
0.40 0.01 l
0.40 0.02 l
0.40 0.01 l
0.40 0.02 l
0.40 0.01 l
0.39 0.02 l
0.40 0.01 l
0.40 0.01 l
0.40 0.02 l
0.40 0.01 l
0.39 0.02 l
0.40 0.01 l
0.40 0.01 l
0.40 0.01 l
0.40 0.02 l
0.40 0.01 l
0.39 0.01 l
0.40 0.01 l
0.40 0.01 l
0.40 0.02 l
207.50 193.92 lineto
0.39 0.01 l
0.40 0.01 l
0.40 0.01 l
0.40 0.01 l
0.40 0.01 l
0.40 0.01 l
0.39 0.01 l
0.40 0.01 l
0.40 0.01 l
0.40 0.01 l
0.40 0.01 l
0.39 0.01 l
0.40 0.01 l
0.40 0.01 l
0.40 0.01 l
0.40 0 l
0.40 0.01 l
0.39 0.01 l
0.40 0.01 l
0.40 0.01 l
0.40 0.01 l
0.40 0 l
0.39 0.01 l
0.40 0.01 l
0.40 0.01 l
0.40 0 l
0.40 0.01 l
0.40 0.01 l
0.39 0.01 l
0.40 0 l
0.40 0.01 l
0.40 0.01 l
0.40 0 l
0.39 0.01 l
0.40 0.01 l
0.40 0 l
0.40 0.01 l
0.40 0 l
0.40 0.01 l
0.39 0.01 l
0.40 0 l
0.40 0.01 l
0.40 0 l
0.40 0.01 l
0.39 0 l
0.40 0.01 l
0.40 0.01 l
0.40 0 l
0.40 0.01 l
0.40 0 l
0.39 0.01 l
0.40 0 l
0.40 0.01 l
0.40 0 l
0.40 0 l
0.39 0.01 l
0.40 0 l
0.40 0.01 l
0.40 0 l
0.40 0.01 l
0.40 0 l
0.39 0.01 l
0.40 0 l
0.40 0 l
0.40 0.01 l
0.40 0 l
0.39 0.01 l
0.40 0 l
0.40 0 l
0.40 0.01 l
0.40 0 l
0.40 0 l
0.39 0.01 l
0.40 0 l
0.40 0 l
0.40 0.01 l
0.40 0 l
0.39 0 l
0.40 0.01 l
0.40 0 l
0.40 0 l
0.40 0.01 l
0.40 0 l
0.39 0 l
0.40 0 l
0.40 0.01 l
0.40 0 l
0.40 0 l
0.39 0.01 l
0.40 0 l
0.40 0 l
0.40 0 l
0.40 0.01 l
0.40 0 l
0.39 0 l
0.40 0 l
0.40 0.01 l
0.40 0 l
0.40 0 l
o
0.9333 0.7059 0.1333 srgb
np
54.35 39.53 m
0 0 l
0.40 0.05 l
0 0 l
0.40 0.07 l
0 0 l
0.40 0.07 l
0 0 l
0.39 0.09 l
0 0 l
0.40 0.10 l
0 0 l
0.40 0.12 l
0 0 l
0.40 0.13 l
0 0 l
0.40 0.15 l
0 0 l
0.39 0.17 l
0 0 l
0.40 0.18 l
0 0 l
0.40 0.21 l
0 0 l
0.40 0.23 l
0 0 l
0.40 0.26 l
0 0 l
0.40 0.28 l
0 0 l
0.39 0.30 l
0 0 l
0.40 0.34 l
0 0 l
0.40 0.36 l
0 0 l
0.40 0.39 l
0 0 l
0.40 0.43 l
0 0 l
0.39 0.46 l
0 0 l
0.40 0.49 l
0 0 l
0.40 0.52 l
0 0 l
0.40 0.57 l
0 0 l
0.40 0.60 l
0 0 l
0.40 0.64 l
0 0 l
0.39 0.68 l
0 0 l
0.40 0.72 l
0 0 l
0.40 0.76 l
0 0 l
0.40 0.81 l
0 0 l
0.40 0.85 l
0 0 l
0.39 0.90 l
0.40 0.78 l
0.40 0.76 l
0.40 0.79 l
0.40 0.81 l
0.40 0.83 l
0.39 0.85 l
0.40 0.88 l
0.40 0.89 l
0.40 0.92 l
0.40 0.95 l
0.39 0.96 l
0.40 0.99 l
0.40 1.01 l
0.40 1.02 l
0.40 1.05 l
0.40 1.07 l
0.39 1.09 l
0.40 1.11 l
0.40 1.13 l
0.40 1.15 l
0.40 1.16 l
0.39 1.18 l
0.40 1.20 l
0.40 1.21 l
0.40 1.23 l
0.40 1.23 l
0.40 1.25 l
0.39 1.26 l
0.40 1.26 l
0.40 1.28 l
0.40 1.28 l
0.40 1.28 l
0.39 1.29 l
0.40 1.30 l
0.40 1.29 l
0.40 1.30 l
0.40 1.29 l
81.83 93.09 lineto
0.39 1.29 l
0.40 1.29 l
0.40 1.28 l
0.40 1.28 l
0.40 1.28 l
0.40 1.27 l
0.39 1.26 l
0.40 1.25 l
0.40 1.25 l
0.40 1.24 l
0.40 1.23 l
0.39 1.22 l
0.40 1.20 l
0.40 1.20 l
0.40 1.19 l
0.40 1.18 l
0.40 1.17 l
0.39 1.15 l
0.40 1.15 l
0.40 1.13 l
0.40 1.12 l
0.40 1.11 l
0.39 1.09 l
0.40 1.08 l
0.40 1.07 l
0.40 1.06 l
0.40 1.05 l
0.40 1.03 l
0.39 1.02 l
0.40 1.01 l
0.40 0.99 l
0.40 0.98 l
0.40 0.97 l
0.39 0.96 l
0.40 0.94 l
0.40 0.93 l
0.40 0.92 l
0.40 0.91 l
0.40 0.89 l
0.39 0.88 l
0.40 0.87 l
0.40 0.86 l
0.40 0.85 l
0.40 0.83 l
0.39 0.82 l
0.40 0.81 l
0.40 0.80 l
0.40 0.79 l
0.40 0.77 l
0.40 0.77 l
0.39 0.75 l
0.40 0.74 l
0.40 0.74 l
0.40 0.72 l
0.40 0.71 l
0.39 0.70 l
0.40 0.69 l
0.40 0.67 l
0.40 0.67 l
0.40 0.66 l
0.40 0.65 l
0.39 0.64 l
0.40 0.63 l
0.40 0.62 l
0.40 0.61 l
0.40 0.60 l
0.39 0.60 l
0.40 0.58 l
0.40 0.57 l
0.40 0.57 l
0.40 0.56 l
0.40 0.55 l
0.39 0.54 l
0.40 0.53 l
0.40 0.52 l
0.40 0.52 l
0.40 0.50 l
0.39 0.51 l
0.40 0.49 l
0.40 0.48 l
0.40 0.48 l
0.40 0.47 l
0.40 0.46 l
0.39 0.46 l
0.40 0.45 l
0.40 0.44 l
0.40 0.43 l
0.40 0.43 l
0.39 0.42 l
0.40 0.42 l
0.40 0.40 l
0.40 0.41 l
0.40 0.39 l
0.40 0.39 l
0.39 0.39 l
0.40 0.37 l
0.40 0.38 l
0.40 0.36 l
0.40 0.36 l
121.64 172.37 lineto
0.40 0.35 l
0.40 0.34 l
0.40 0.34 l
0.40 0.33 l
0.40 0.33 l
0.39 0.32 l
0.40 0.32 l
0.40 0.31 l
0.40 0.31 l
0.40 0.30 l
0.40 0.30 l
0.39 0.29 l
0.40 0.29 l
0.40 0.29 l
0.40 0.28 l
0.40 0.27 l
0.39 0.27 l
0.40 0.27 l
0.40 0.26 l
0.40 0.26 l
0.40 0.26 l
0.40 0.25 l
0.39 0.24 l
0.40 0.25 l
0.40 0.24 l
0.40 0.23 l
0.40 0.23 l
0.39 0.23 l
0.40 0.23 l
0.40 0.22 l
0.40 0.22 l
0.40 0.21 l
0.40 0.21 l
0.39 0.21 l
0.40 0.20 l
0.40 0.20 l
0.40 0.20 l
0.40 0.20 l
0.39 0.19 l
0.40 0.19 l
0.40 0.18 l
0.40 0.18 l
0.40 0.18 l
0.40 0.18 l
0.39 0.18 l
0.40 0.17 l
0.40 0.17 l
0.40 0.16 l
0.40 0.17 l
0.39 0.16 l
0.40 0.16 l
0.40 0.15 l
0.40 0.16 l
0.40 0.15 l
0.40 0.15 l
0.39 0.14 l
0.40 0.15 l
0.40 0.14 l
0.40 0.14 l
0.40 0.14 l
0.39 0.13 l
0.40 0.13 l
0.40 0.14 l
0.40 0.12 l
0.40 0.13 l
0.40 0.13 l
0.39 0.12 l
0.40 0.12 l
0.40 0.12 l
0.40 0.12 l
0.40 0.11 l
0.39 0.12 l
0.40 0.11 l
0.40 0.11 l
0.40 0.11 l
0.40 0.10 l
0.40 0.11 l
0.39 0.10 l
0.40 0.10 l
0.40 0.10 l
0.40 0.10 l
0.40 0.10 l
0.39 0.10 l
0.40 0.09 l
0.40 0.09 l
0.40 0.09 l
0.40 0.09 l
0.40 0.09 l
0.39 0.09 l
0.40 0.08 l
0.40 0.09 l
0.40 0.08 l
0.40 0.08 l
0.39 0.08 l
0.40 0.08 l
0.40 0.08 l
0.40 0.08 l
0.40 0.07 l
0.40 0.08 l
161.46 190.06 lineto
0.40 0.07 l
0.40 0.07 l
0.40 0.07 l
0.40 0.07 l
0.39 0.07 l
0.40 0.06 l
0.40 0.07 l
0.40 0.06 l
0.40 0.07 l
0.40 0.06 l
0.39 0.06 l
0.40 0.06 l
0.40 0.06 l
0.40 0.06 l
0.40 0.06 l
0.39 0.05 l
0.40 0.06 l
0.40 0.05 l
0.40 0.06 l
0.40 0.05 l
0.40 0.05 l
0.39 0.05 l
0.40 0.05 l
0.40 0.05 l
0.40 0.05 l
0.40 0.05 l
0.40 0.05 l
0.39 0.05 l
0.40 0.04 l
0.40 0.05 l
0.40 0.04 l
0.40 0.05 l
0.39 0.04 l
0.40 0.04 l
0.40 0.04 l
0.40 0.05 l
0.40 0.04 l
0.40 0.04 l
0.39 0.04 l
0.40 0.03 l
0.40 0.04 l
0.40 0.04 l
0.40 0.04 l
0.39 0.03 l
0.40 0.04 l
0.40 0.03 l
0.40 0.04 l
0.40 0.03 l
0.40 0.04 l
0.39 0.03 l
0.40 0.03 l
0.40 0.03 l
0.40 0.04 l
0.40 0.03 l
0.39 0.03 l
0.40 0.03 l
0.40 0.03 l
0.40 0.03 l
0.40 0.02 l
0.40 0.03 l
0.39 0.03 l
0.40 0.03 l
0.40 0.02 l
0.40 0.03 l
0.40 0.03 l
0.39 0.02 l
0.40 0.03 l
0.40 0.02 l
0.40 0.03 l
0.40 0.02 l
0.40 0.02 l
0.39 0.03 l
0.40 0.02 l
0.40 0.02 l
0.40 0.03 l
0.40 0.02 l
0.39 0.02 l
0.40 0.02 l
0.40 0.02 l
0.40 0.02 l
0.40 0.02 l
0.40 0.02 l
0.39 0.02 l
0.40 0.02 l
0.40 0.02 l
0.40 0.02 l
0.40 0.02 l
0.39 0.01 l
0.40 0.02 l
0.40 0.02 l
0.40 0.02 l
0.40 0.01 l
0.40 0.02 l
0.39 0.02 l
0.40 0.01 l
0.40 0.02 l
0.40 0.01 l
0.40 0.02 l
0.39 0.02 l
201.28 193.69 lineto
0.40 0.01 l
0.40 0.02 l
0.40 0.01 l
0.40 0.02 l
0.39 0.01 l
0.40 0.01 l
0.40 0.02 l
0.40 0.01 l
0.40 0.01 l
0.39 0.02 l
0.40 0.01 l
0.40 0.01 l
0.40 0.01 l
0.40 0.02 l
0.40 0.01 l
0.39 0.01 l
0.40 0.01 l
0.40 0.01 l
0.40 0.01 l
0.40 0.01 l
0.39 0.01 l
0.40 0.01 l
0.40 0.01 l
0.40 0.02 l
0.40 0.01 l
0.40 0 l
0.39 0.01 l
0.40 0.01 l
0.40 0.01 l
0.40 0.01 l
0.40 0.01 l
0.39 0.01 l
0.40 0.01 l
0.40 0.01 l
0.40 0.01 l
0.40 0.01 l
0.40 0 l
0.39 0.01 l
0.40 0.01 l
0.40 0.01 l
0.40 0.01 l
0.40 0 l
0.40 0.01 l
0.39 0.01 l
0.40 0 l
0.40 0.01 l
0.40 0.01 l
0.40 0.01 l
0.39 0 l
0.40 0.01 l
0.40 0.01 l
0.40 0 l
0.40 0.01 l
0.40 0.01 l
0.39 0 l
0.40 0.01 l
0.40 0 l
0.40 0.01 l
0.40 0.01 l
0.39 0 l
0.40 0.01 l
0.40 0 l
0.40 0.01 l
0.40 0 l
0.40 0.01 l
0.39 0 l
0.40 0.01 l
0.40 0 l
0.40 0.01 l
0.40 0 l
0.39 0.01 l
0.40 0 l
0.40 0.01 l
0.40 0 l
0.40 0.01 l
0.40 0 l
0.39 0 l
0.40 0.01 l
0.40 0 l
0.40 0.01 l
0.40 0 l
0.39 0.01 l
0.40 0 l
0.40 0 l
0.40 0.01 l
0.40 0 l
0.40 0 l
0.39 0.01 l
0.40 0 l
0.40 0 l
0.40 0.01 l
0.40 0 l
0.39 0.01 l
0.40 0 l
0.40 0 l
0.40 0 l
0.40 0.01 l
0.40 0 l
0.39 0 l
o
0.8667 0.6275 0.8667 srgb
np
54.51 40.64 m
0 0 l
0.40 0.16 l
0 0 l
0.40 0.17 l
0 0 l
0.39 0.19 l
0 0 l
0.40 0.21 l
0 0 l
0.40 0.22 l
0 0 l
0.40 0.23 l
0 0 l
0.40 0.25 l
0 0 l
0.39 0.27 l
0 0 l
0.40 0.28 l
0 0 l
0.40 0.30 l
0 0 l
0.40 0.32 l
0 0 l
0.40 0.34 l
0 0 l
0.40 0.36 l
0 0 l
0.39 0.38 l
0 0 l
0.40 0.40 l
0 0 l
0.40 0.42 l
0 0 l
0.40 0.44 l
0 0 l
0.40 0.46 l
0 0 l
0.39 0.49 l
0 0 l
0.40 0.50 l
0 0 l
0.40 0.53 l
0 0 l
0.40 0.55 l
0 0 l
0.40 0.58 l
0 0 l
0.40 0.60 l
0 0 l
0.39 0.63 l
0 0 l
0.40 0.65 l
0 0 l
0.40 0.67 l
0 0 l
0.40 0.70 l
0 0 l
0.40 0.73 l
0 0 l
0.39 0.75 l
0 0 l
0.40 0.78 l
0 0 l
0.40 0.81 l
0 0 l
0.40 0.83 l
0 0 l
0.40 0.86 l
0 0 l
0.40 0.89 l
0 0 l
0.39 0.92 l
0 0 l
0.40 0.94 l
0 0 l
0.40 0.98 l
0 0 l
0.40 1.00 l
0 0 l
0.40 1.03 l
0 0 l
0.39 1.06 l
0 0 l
0.40 1.10 l
0 0 l
0.40 1.12 l
0 0 l
0.40 1.15 l
0 0 l
0.40 1.18 l
0 0 l
0.40 1.21 l
0 0 l
0.39 1.03 l
0.40 0.93 l
0.40 0.94 l
0.40 0.95 l
0.40 0.95 l
0.39 0.97 l
75.61 76.04 lineto
0.40 0.99 l
0.40 1.00 l
0.40 1.01 l
0.40 1.02 l
0.39 1.03 l
0.40 1.04 l
0.40 1.05 l
0.40 1.06 l
0.40 1.07 l
0.39 1.08 l
0.40 1.08 l
0.40 1.10 l
0.40 1.10 l
0.40 1.11 l
0.40 1.11 l
0.39 1.12 l
0.40 1.13 l
0.40 1.13 l
0.40 1.13 l
0.40 1.14 l
0.39 1.14 l
0.40 1.15 l
0.40 1.14 l
0.40 1.14 l
0.40 1.15 l
0.40 1.14 l
0.39 1.14 l
0.40 1.13 l
0.40 1.14 l
0.40 1.13 l
0.40 1.12 l
0.39 1.12 l
0.40 1.12 l
0.40 1.11 l
0.40 1.10 l
0.40 1.09 l
0.40 1.09 l
0.39 1.08 l
0.40 1.06 l
0.40 1.07 l
0.40 1.05 l
0.40 1.04 l
0.39 1.03 l
0.40 1.03 l
0.40 1.01 l
0.40 1.00 l
0.40 1.00 l
0.40 0.98 l
0.39 0.97 l
0.40 0.96 l
0.40 0.95 l
0.40 0.94 l
0.40 0.93 l
0.40 0.91 l
0.39 0.91 l
0.40 0.89 l
0.40 0.89 l
0.40 0.87 l
0.40 0.86 l
0.39 0.85 l
0.40 0.84 l
0.40 0.83 l
0.40 0.81 l
0.40 0.81 l
0.40 0.79 l
0.39 0.79 l
0.40 0.77 l
0.40 0.76 l
0.40 0.76 l
0.40 0.74 l
0.39 0.73 l
0.40 0.72 l
0.40 0.71 l
0.40 0.70 l
0.40 0.69 l
0.40 0.68 l
0.39 0.67 l
0.40 0.66 l
0.40 0.65 l
0.40 0.65 l
0.40 0.63 l
0.39 0.62 l
0.40 0.62 l
0.40 0.60 l
0.40 0.60 l
0.40 0.58 l
0.40 0.58 l
0.39 0.57 l
0.40 0.56 l
0.40 0.55 l
0.40 0.55 l
0.40 0.53 l
0.39 0.53 l
0.40 0.52 l
0.40 0.51 l
0.40 0.51 l
0.40 0.49 l
0.40 0.49 l
0.39 0.48 l
115.43 164.73 lineto
0.40 0.46 l
0.40 0.46 l
0.40 0.46 l
0.39 0.44 l
0.40 0.44 l
0.40 0.43 l
0.40 0.43 l
0.40 0.42 l
0.40 0.41 l
0.39 0.40 l
0.40 0.40 l
0.40 0.40 l
0.40 0.38 l
0.40 0.39 l
0.39 0.37 l
0.40 0.37 l
0.40 0.37 l
0.40 0.35 l
0.40 0.36 l
0.40 0.34 l
0.39 0.35 l
0.40 0.33 l
0.40 0.33 l
0.40 0.33 l
0.40 0.32 l
0.39 0.32 l
0.40 0.31 l
0.40 0.30 l
0.40 0.31 l
0.40 0.29 l
0.40 0.29 l
0.39 0.29 l
0.40 0.28 l
0.40 0.28 l
0.40 0.28 l
0.40 0.27 l
0.39 0.26 l
0.40 0.27 l
0.40 0.25 l
0.40 0.26 l
0.40 0.25 l
0.40 0.24 l
0.39 0.24 l
0.40 0.24 l
0.40 0.24 l
0.40 0.23 l
0.40 0.22 l
0.39 0.23 l
0.40 0.22 l
0.40 0.21 l
0.40 0.22 l
0.40 0.21 l
0.40 0.20 l
0.39 0.21 l
0.40 0.20 l
0.40 0.19 l
0.40 0.20 l
0.40 0.19 l
0.39 0.19 l
0.40 0.18 l
0.40 0.18 l
0.40 0.18 l
0.40 0.18 l
0.40 0.17 l
0.39 0.17 l
0.40 0.17 l
0.40 0.17 l
0.40 0.16 l
0.40 0.16 l
0.40 0.16 l
0.39 0.15 l
0.40 0.16 l
0.40 0.15 l
0.40 0.15 l
0.40 0.14 l
0.39 0.14 l
0.40 0.15 l
0.40 0.14 l
0.40 0.13 l
0.40 0.14 l
0.40 0.13 l
0.39 0.13 l
0.40 0.13 l
0.40 0.12 l
0.40 0.13 l
0.40 0.12 l
0.39 0.12 l
0.40 0.12 l
0.40 0.12 l
0.40 0.11 l
0.40 0.12 l
0.40 0.11 l
0.39 0.11 l
0.40 0.11 l
0.40 0.10 l
0.40 0.11 l
0.40 0.10 l
0.39 0.10 l
0.40 0.10 l
155.25 188.48 lineto
0.40 0.10 l
0.40 0.09 l
0.40 0.09 l
0.39 0.10 l
0.40 0.09 l
0.40 0.09 l
0.40 0.08 l
0.40 0.09 l
0.39 0.09 l
0.40 0.08 l
0.40 0.08 l
0.40 0.08 l
0.40 0.08 l
0.40 0.08 l
0.39 0.08 l
0.40 0.08 l
0.40 0.07 l
0.40 0.08 l
0.40 0.07 l
0.39 0.07 l
0.40 0.07 l
0.40 0.07 l
0.40 0.07 l
0.40 0.06 l
0.40 0.07 l
0.39 0.07 l
0.40 0.06 l
0.40 0.06 l
0.40 0.06 l
0.40 0.07 l
0.39 0.06 l
0.40 0.06 l
0.40 0.05 l
0.40 0.06 l
0.40 0.06 l
0.40 0.05 l
0.39 0.06 l
0.40 0.05 l
0.40 0.05 l
0.40 0.06 l
0.40 0.05 l
0.39 0.05 l
0.40 0.05 l
0.40 0.05 l
0.40 0.04 l
0.40 0.05 l
0.40 0.05 l
0.39 0.04 l
0.40 0.05 l
0.40 0.04 l
0.40 0.05 l
0.40 0.04 l
0.39 0.04 l
0.40 0.05 l
0.40 0.04 l
0.40 0.04 l
0.40 0.04 l
0.40 0.04 l
0.39 0.03 l
0.40 0.04 l
0.40 0.04 l
0.40 0.04 l
0.40 0.03 l
0.39 0.04 l
0.40 0.03 l
0.40 0.04 l
0.40 0.03 l
0.40 0.04 l
0.40 0.03 l
0.39 0.03 l
0.40 0.03 l
0.40 0.03 l
0.40 0.03 l
0.40 0.03 l
0.39 0.03 l
0.40 0.03 l
0.40 0.03 l
0.40 0.03 l
0.40 0.03 l
0.40 0.03 l
0.39 0.02 l
0.40 0.03 l
0.40 0.03 l
0.40 0.02 l
0.40 0.03 l
0.40 0.02 l
0.39 0.03 l
0.40 0.02 l
0.40 0.03 l
0.40 0.02 l
0.40 0.02 l
0.39 0.03 l
0.40 0.02 l
0.40 0.02 l
0.40 0.02 l
0.40 0.02 l
0.40 0.03 l
0.39 0.02 l
0.40 0.02 l
195.07 193.37 lineto
0.40 0.02 l
0.40 0.02 l
0.39 0.02 l
0.40 0.01 l
0.40 0.02 l
0.40 0.02 l
0.40 0.02 l
0.40 0.02 l
0.39 0.01 l
0.40 0.02 l
0.40 0.02 l
0.40 0.01 l
0.40 0.02 l
0.39 0.02 l
0.40 0.01 l
0.40 0.02 l
0.40 0.01 l
0.40 0.02 l
0.40 0.01 l
0.39 0.02 l
0.40 0.01 l
0.40 0.02 l
0.40 0.01 l
0.40 0.01 l
0.39 0.02 l
0.40 0.01 l
0.40 0.01 l
0.40 0.02 l
0.40 0.01 l
0.40 0.01 l
0.39 0.01 l
0.40 0.02 l
0.40 0.01 l
0.40 0.01 l
0.40 0.01 l
0.39 0.01 l
0.40 0.01 l
0.40 0.02 l
0.40 0.01 l
0.40 0.01 l
0.40 0.01 l
0.39 0.01 l
0.40 0.01 l
0.40 0.01 l
0.40 0.01 l
0.40 0.01 l
0.39 0.01 l
0.40 0.01 l
0.40 0 l
0.40 0.01 l
0.40 0.01 l
0.40 0.01 l
0.39 0.01 l
0.40 0.01 l
0.40 0.01 l
0.40 0.01 l
0.40 0 l
0.39 0.01 l
0.40 0.01 l
0.40 0.01 l
0.40 0 l
0.40 0.01 l
0.40 0.01 l
0.39 0.01 l
0.40 0 l
0.40 0.01 l
0.40 0.01 l
0.40 0 l
0.39 0.01 l
0.40 0.01 l
0.40 0 l
0.40 0.01 l
0.40 0.01 l
0.40 0 l
0.39 0.01 l
0.40 0 l
0.40 0.01 l
0.40 0.01 l
0.40 0 l
0.39 0.01 l
0.40 0 l
0.40 0.01 l
0.40 0 l
0.40 0.01 l
0.40 0 l
0.39 0.01 l
0.40 0 l
0.40 0.01 l
0.40 0 l
0.40 0.01 l
0.40 0 l
0.39 0.01 l
0.40 0 l
0.40 0.01 l
0.40 0 l
0.40 0.01 l
0.39 0 l
0.40 0 l
0.40 0.01 l
o
0.9333 0.6039 0.2863 srgb
np
54.67 42.60 m
0 0 l
0.39 0.24 l
0 0 l
0.40 0.26 l
0 0 l
0.40 0.28 l
0 0 l
0.40 0.28 l
0 0 l
0.40 0.30 l
0 0 l
0.40 0.31 l
0 0 l
0.39 0.32 l
0 0 l
0.40 0.34 l
0 0 l
0.40 0.35 l
0 0 l
0.40 0.37 l
0 0 l
0.40 0.38 l
0 0 l
0.39 0.39 l
0 0 l
0.40 0.41 l
0 0 l
0.40 0.43 l
0 0 l
0.40 0.43 l
0 0 l
0.40 0.46 l
0 0 l
0.40 0.47 l
0 0 l
0.39 0.48 l
0 0 l
0.40 0.50 l
0 0 l
0.40 0.52 l
0 0 l
0.40 0.53 l
0 0 l
0.40 0.55 l
0 0 l
0.39 0.56 l
0 0 l
0.40 0.58 l
0 0 l
0.40 0.60 l
0 0 l
0.40 0.61 l
0 0 l
0.40 0.63 l
0 0 l
0.40 0.65 l
0 0 l
0.39 0.66 l
0 0 l
0.40 0.69 l
0 0 l
0.40 0.70 l
0 0 l
0.40 0.71 l
0 0 l
0.40 0.74 l
0 0 l
0.40 0.75 l
0 0 l
0.39 0.77 l
0 0 l
0.40 0.79 l
0 0 l
0.40 0.80 l
0 0 l
0.40 0.83 l
0 0 l
0.40 0.84 l
0 0 l
0.39 0.86 l
0 0 l
0.40 0.88 l
0 0 l
0.40 0.89 l
0 0 l
0.40 0.92 l
0 0 l
0.40 0.93 l
0 0 l
0.40 0.96 l
0 0 l
0.39 0.97 l
0 0 l
0.40 0.99 l
0 0 l
0.40 1.01 l
0 0 l
0.40 1.03 l
0 0 l
74.58 73.59 lineto
0 0 l
0.39 1.07 l
0 0 l
0.40 1.09 l
0 0 l
0.40 1.10 l
0 0 l
0.40 1.13 l
0 0 l
0.40 1.14 l
0 0 l
0.40 1.16 l
0 0 l
0.39 1.19 l
0 0 l
0.40 1.20 l
0 0 l
0.40 1.22 l
0 0 l
0.40 1.25 l
0 0 l
0.40 1.26 l
0 0 l
0.39 1.10 l
0 0 l
0.40 0.91 l
0.40 0.91 l
0.40 0.91 l
0.40 0.93 l
0.40 0.92 l
0.39 0.93 l
0.40 0.94 l
0.40 0.94 l
0.40 0.94 l
0.40 0.95 l
0.39 0.96 l
0.40 0.95 l
0.40 0.97 l
0.40 0.97 l
0.40 0.97 l
0.40 0.97 l
0.39 0.98 l
0.40 0.99 l
0.40 0.98 l
0.40 0.99 l
0.40 0.99 l
0.39 1.00 l
0.40 0.99 l
0.40 1.00 l
0.40 1.00 l
0.40 1.00 l
0.40 1.00 l
0.39 0.99 l
0.40 1.00 l
0.40 0.99 l
0.40 0.99 l
0.40 0.99 l
0.39 0.99 l
0.40 0.98 l
0.40 0.98 l
0.40 0.97 l
0.40 0.97 l
0.40 0.96 l
0.39 0.95 l
0.40 0.95 l
0.40 0.94 l
0.40 0.94 l
0.40 0.93 l
0.39 0.92 l
0.40 0.91 l
0.40 0.90 l
0.40 0.90 l
0.40 0.88 l
0.40 0.88 l
0.39 0.87 l
0.40 0.86 l
0.40 0.85 l
0.40 0.84 l
0.40 0.83 l
0.39 0.82 l
0.40 0.82 l
0.40 0.80 l
0.40 0.79 l
0.40 0.79 l
0.40 0.77 l
0.39 0.77 l
0.40 0.75 l
0.40 0.75 l
0.40 0.73 l
0.40 0.73 l
0.39 0.72 l
0.40 0.70 l
0.40 0.70 l
0.40 0.69 l
0.40 0.68 l
0.40 0.67 l
0.39 0.66 l
0.40 0.65 l
0.40 0.64 l
109.22 153.92 lineto
0.40 0.62 l
0.39 0.62 l
0.40 0.60 l
0.40 0.60 l
0.40 0.59 l
0.40 0.58 l
0.40 0.57 l
0.39 0.57 l
0.40 0.55 l
0.40 0.55 l
0.40 0.54 l
0.40 0.53 l
0.40 0.52 l
0.39 0.52 l
0.40 0.51 l
0.40 0.50 l
0.40 0.49 l
0.40 0.48 l
0.39 0.48 l
0.40 0.47 l
0.40 0.47 l
0.40 0.45 l
0.40 0.45 l
0.40 0.45 l
0.39 0.43 l
0.40 0.43 l
0.40 0.43 l
0.40 0.41 l
0.40 0.41 l
0.39 0.41 l
0.40 0.40 l
0.40 0.39 l
0.40 0.38 l
0.40 0.38 l
0.40 0.38 l
0.39 0.37 l
0.40 0.36 l
0.40 0.36 l
0.40 0.35 l
0.40 0.34 l
0.39 0.34 l
0.40 0.34 l
0.40 0.33 l
0.40 0.32 l
0.40 0.32 l
0.40 0.32 l
0.39 0.31 l
0.40 0.30 l
0.40 0.30 l
0.40 0.30 l
0.40 0.29 l
0.39 0.29 l
0.40 0.28 l
0.40 0.28 l
0.40 0.27 l
0.40 0.27 l
0.40 0.27 l
0.39 0.26 l
0.40 0.26 l
0.40 0.25 l
0.40 0.25 l
0.40 0.24 l
0.39 0.24 l
0.40 0.24 l
0.40 0.23 l
0.40 0.23 l
0.40 0.23 l
0.40 0.22 l
0.39 0.22 l
0.40 0.22 l
0.40 0.21 l
0.40 0.21 l
0.40 0.21 l
0.39 0.20 l
0.40 0.20 l
0.40 0.20 l
0.40 0.19 l
0.40 0.19 l
0.40 0.19 l
0.39 0.18 l
0.40 0.18 l
0.40 0.18 l
0.40 0.18 l
0.40 0.17 l
0.39 0.17 l
0.40 0.17 l
0.40 0.17 l
0.40 0.16 l
0.40 0.16 l
0.40 0.16 l
0.39 0.15 l
0.40 0.15 l
0.40 0.15 l
0.40 0.15 l
0.40 0.15 l
0.39 0.14 l
0.40 0.14 l
0.40 0.14 l
0.40 0.14 l
149.04 186.20 lineto
0.40 0.13 l
0.39 0.13 l
0.40 0.13 l
0.40 0.13 l
0.40 0.12 l
0.40 0.13 l
0.39 0.12 l
0.40 0.11 l
0.40 0.12 l
0.40 0.12 l
0.40 0.11 l
0.40 0.11 l
0.39 0.11 l
0.40 0.11 l
0.40 0.10 l
0.40 0.11 l
0.40 0.10 l
0.40 0.10 l
0.39 0.10 l
0.40 0.10 l
0.40 0.10 l
0.40 0.09 l
0.40 0.09 l
0.39 0.10 l
0.40 0.09 l
0.40 0.09 l
0.40 0.08 l
0.40 0.09 l
0.40 0.09 l
0.39 0.08 l
0.40 0.08 l
0.40 0.08 l
0.40 0.08 l
0.40 0.08 l
0.39 0.08 l
0.40 0.07 l
0.40 0.08 l
0.40 0.07 l
0.40 0.08 l
0.40 0.07 l
0.39 0.07 l
0.40 0.07 l
0.40 0.06 l
0.40 0.07 l
0.40 0.07 l
0.39 0.06 l
0.40 0.07 l
0.40 0.06 l
0.40 0.06 l
0.40 0.06 l
0.40 0.06 l
0.39 0.06 l
0.40 0.06 l
0.40 0.06 l
0.40 0.05 l
0.40 0.06 l
0.39 0.05 l
0.40 0.06 l
0.40 0.05 l
0.40 0.05 l
0.40 0.05 l
0.40 0.05 l
0.39 0.05 l
0.40 0.05 l
0.40 0.05 l
0.40 0.05 l
0.40 0.04 l
0.39 0.05 l
0.40 0.04 l
0.40 0.05 l
0.40 0.04 l
0.40 0.05 l
0.40 0.04 l
0.39 0.04 l
0.40 0.04 l
0.40 0.04 l
0.40 0.04 l
0.40 0.04 l
0.39 0.04 l
0.40 0.04 l
0.40 0.03 l
0.40 0.04 l
0.40 0.04 l
0.40 0.03 l
0.39 0.04 l
0.40 0.03 l
0.40 0.03 l
0.40 0.04 l
0.40 0.03 l
0.39 0.03 l
0.40 0.04 l
0.40 0.03 l
0.40 0.03 l
0.40 0.03 l
0.40 0.03 l
0.39 0.03 l
0.40 0.03 l
0.40 0.02 l
0.40 0.03 l
188.86 192.90 lineto
0.39 0.03 l
0.40 0.02 l
0.40 0.03 l
0.40 0.03 l
0.40 0.02 l
0.40 0.03 l
0.39 0.02 l
0.40 0.03 l
0.40 0.02 l
0.40 0.02 l
0.40 0.03 l
0.39 0.02 l
0.40 0.02 l
0.40 0.02 l
0.40 0.03 l
0.40 0.02 l
0.40 0.02 l
0.39 0.02 l
0.40 0.02 l
0.40 0.02 l
0.40 0.02 l
0.40 0.02 l
0.39 0.02 l
0.40 0.02 l
0.40 0.01 l
0.40 0.02 l
0.40 0.02 l
0.40 0.02 l
0.39 0.02 l
0.40 0.01 l
0.40 0.02 l
0.40 0.02 l
0.40 0.01 l
0.40 0.02 l
0.39 0.01 l
0.40 0.02 l
0.40 0.02 l
0.40 0.01 l
0.40 0.01 l
0.39 0.02 l
0.40 0.01 l
0.40 0.02 l
0.40 0.01 l
0.40 0.02 l
0.40 0.01 l
0.39 0.01 l
0.40 0.02 l
0.40 0.01 l
0.40 0.01 l
0.40 0.01 l
0.39 0.02 l
0.40 0.01 l
0.40 0.01 l
0.40 0.01 l
0.40 0.01 l
0.40 0.01 l
0.39 0.01 l
0.40 0.02 l
0.40 0.01 l
0.40 0.01 l
0.40 0.01 l
0.39 0.01 l
0.40 0.01 l
0.40 0.01 l
0.40 0.01 l
0.40 0.01 l
0.40 0.01 l
0.39 0.01 l
0.40 0.01 l
0.40 0 l
0.40 0.01 l
0.40 0.01 l
0.39 0.01 l
0.40 0.01 l
0.40 0.01 l
0.40 0.01 l
0.40 0 l
0.40 0.01 l
0.39 0.01 l
0.40 0.01 l
0.40 0 l
0.40 0.01 l
0.40 0.01 l
0.39 0.01 l
0.40 0 l
0.40 0.01 l
0.40 0.01 l
0.40 0 l
0.40 0.01 l
0.39 0.01 l
0.40 0 l
0.40 0.01 l
0.40 0.01 l
0.40 0 l
0.39 0.01 l
0.40 0 l
0.40 0.01 l
0.40 0.01 l
0.40 0 l
o
0 0.8078 0.8196 srgb
np
54.43 44.68 m
0 0 l
0.39 0.29 l
0 0 l
0.40 0.30 l
0 0 l
0.40 0.31 l
0 0 l
0.40 0.32 l
0 0 l
0.40 0.33 l
0 0 l
0.40 0.34 l
0 0 l
0.39 0.35 l
0 0 l
0.40 0.36 l
0 0 l
0.40 0.38 l
0 0 l
0.40 0.38 l
0 0 l
0.40 0.39 l
0 0 l
0.39 0.40 l
0 0 l
0.40 0.42 l
0 0 l
0.40 0.42 l
0 0 l
0.40 0.44 l
0 0 l
0.40 0.45 l
0 0 l
0.40 0.46 l
0 0 l
0.39 0.47 l
0 0 l
0.40 0.48 l
0 0 l
0.40 0.49 l
0 0 l
0.40 0.50 l
0 0 l
0.40 0.52 l
0 0 l
0.39 0.53 l
0 0 l
0.40 0.54 l
0 0 l
0.40 0.55 l
0 0 l
0.40 0.56 l
0 0 l
0.40 0.57 l
0 0 l
0.40 0.59 l
0 0 l
0.39 0.60 l
0 0 l
0.40 0.61 l
0 0 l
0.40 0.62 l
0 0 l
0.40 0.63 l
0 0 l
0.40 0.65 l
0 0 l
0.39 0.66 l
0 0 l
0.40 0.67 l
0 0 l
0.40 0.68 l
0 0 l
0.40 0.70 l
0 0 l
0.40 0.70 l
0 0 l
0.40 0.72 l
0 0 l
0.39 0.74 l
0 0 l
0.40 0.74 l
0 0 l
0.40 0.76 l
0 0 l
0.40 0.77 l
0 0 l
0.40 0.78 l
0 0 l
0.39 0.79 l
0 0 l
0.40 0.81 l
0 0 l
0.40 0.82 l
0 0 l
0.40 0.84 l
0 0 l
0.40 0.84 l
0 0 l
74.34 72.81 lineto
0 0 l
0.39 0.87 l
0 0 l
0.40 0.88 l
0 0 l
0.40 0.90 l
0 0 l
0.40 0.91 l
0 0 l
0.40 0.92 l
0 0 l
0.39 0.94 l
0 0 l
0.40 0.95 l
0 0 l
0.40 0.96 l
0 0 l
0.40 0.97 l
0 0 l
0.40 0.99 l
0 0 l
0.40 1.00 l
0 0 l
0.39 1.02 l
0 0 l
0.40 1.02 l
0 0 l
0.40 1.04 l
0 0 l
0.40 1.05 l
0 0 l
0.40 1.07 l
0 0 l
0.39 1.08 l
0 0 l
0.40 1.09 l
0 0 l
0.40 1.11 l
0 0 l
0.40 1.11 l
0 0 l
0.40 1.14 l
0 0 l
0.40 1.14 l
0 0 l
0.39 1.16 l
0 0 l
0.40 1.17 l
0 0 l
0.40 1.18 l
0 0 l
0.40 1.20 l
0 0 l
0.40 1.21 l
0 0 l
0.40 1.12 l
0.39 0.83 l
0.40 0.83 l
0.40 0.84 l
0.40 0.84 l
0.40 0.83 l
0.39 0.85 l
0.40 0.84 l
0.40 0.85 l
0.40 0.84 l
0.40 0.86 l
0.40 0.85 l
0.39 0.85 l
0.40 0.86 l
0.40 0.86 l
0.40 0.86 l
0.40 0.87 l
0.39 0.86 l
0.40 0.87 l
0.40 0.87 l
0.40 0.87 l
0.40 0.87 l
0.40 0.87 l
0.39 0.87 l
0.40 0.87 l
0.40 0.87 l
0.40 0.87 l
0.40 0.87 l
0.39 0.87 l
0.40 0.86 l
0.40 0.87 l
0.40 0.86 l
0.40 0.85 l
0.40 0.86 l
0.39 0.85 l
0.40 0.84 l
0.40 0.84 l
0.40 0.83 l
0.40 0.83 l
0.39 0.83 l
0.40 0.81 l
0.40 0.82 l
0.40 0.80 l
0.40 0.80 l
103.01 139.34 lineto
0.39 0.78 l
0.40 0.78 l
0.40 0.77 l
0.40 0.76 l
0.40 0.75 l
0.39 0.75 l
0.40 0.74 l
0.40 0.72 l
0.40 0.73 l
0.40 0.71 l
0.40 0.70 l
0.39 0.70 l
0.40 0.69 l
0.40 0.68 l
0.40 0.67 l
0.40 0.66 l
0.39 0.66 l
0.40 0.64 l
0.40 0.64 l
0.40 0.63 l
0.40 0.62 l
0.40 0.61 l
0.39 0.61 l
0.40 0.60 l
0.40 0.58 l
0.40 0.59 l
0.40 0.57 l
0.39 0.56 l
0.40 0.56 l
0.40 0.55 l
0.40 0.54 l
0.40 0.53 l
0.40 0.53 l
0.39 0.51 l
0.40 0.52 l
0.40 0.50 l
0.40 0.49 l
0.40 0.49 l
0.39 0.48 l
0.40 0.48 l
0.40 0.47 l
0.40 0.46 l
0.40 0.45 l
0.40 0.45 l
0.39 0.44 l
0.40 0.43 l
0.40 0.43 l
0.40 0.42 l
0.40 0.41 l
0.39 0.41 l
0.40 0.40 l
0.40 0.40 l
0.40 0.39 l
0.40 0.38 l
0.40 0.38 l
0.39 0.37 l
0.40 0.37 l
0.40 0.36 l
0.40 0.36 l
0.40 0.35 l
0.40 0.34 l
0.39 0.34 l
0.40 0.34 l
0.40 0.33 l
0.40 0.32 l
0.40 0.32 l
0.39 0.31 l
0.40 0.31 l
0.40 0.31 l
0.40 0.30 l
0.40 0.29 l
0.40 0.29 l
0.39 0.29 l
0.40 0.28 l
0.40 0.28 l
0.40 0.27 l
0.40 0.27 l
0.39 0.26 l
0.40 0.27 l
0.40 0.25 l
0.40 0.25 l
0.40 0.25 l
0.40 0.25 l
0.39 0.24 l
0.40 0.24 l
0.40 0.23 l
0.40 0.23 l
0.40 0.22 l
0.39 0.23 l
0.40 0.22 l
0.40 0.21 l
0.40 0.21 l
0.40 0.21 l
0.40 0.21 l
0.39 0.20 l
0.40 0.20 l
0.40 0.20 l
0.40 0.19 l
0.40 0.19 l
142.82 182.89 lineto
0.40 0.18 l
0.40 0.18 l
0.40 0.18 l
0.40 0.18 l
0.40 0.17 l
0.39 0.17 l
0.40 0.17 l
0.40 0.16 l
0.40 0.17 l
0.40 0.16 l
0.39 0.15 l
0.40 0.16 l
0.40 0.15 l
0.40 0.15 l
0.40 0.15 l
0.40 0.14 l
0.39 0.15 l
0.40 0.14 l
0.40 0.14 l
0.40 0.13 l
0.40 0.14 l
0.39 0.13 l
0.40 0.13 l
0.40 0.13 l
0.40 0.13 l
0.40 0.12 l
0.40 0.12 l
0.39 0.12 l
0.40 0.12 l
0.40 0.12 l
0.40 0.11 l
0.40 0.11 l
0.39 0.12 l
0.40 0.11 l
0.40 0.10 l
0.40 0.11 l
0.40 0.10 l
0.40 0.11 l
0.39 0.10 l
0.40 0.10 l
0.40 0.09 l
0.40 0.10 l
0.40 0.10 l
0.39 0.09 l
0.40 0.09 l
0.40 0.09 l
0.40 0.09 l
0.40 0.09 l
0.40 0.08 l
0.39 0.09 l
0.40 0.08 l
0.40 0.09 l
0.40 0.08 l
0.40 0.08 l
0.39 0.07 l
0.40 0.08 l
0.40 0.08 l
0.40 0.07 l
0.40 0.08 l
0.40 0.07 l
0.39 0.07 l
0.40 0.07 l
0.40 0.07 l
0.40 0.07 l
0.40 0.06 l
0.39 0.07 l
0.40 0.07 l
0.40 0.06 l
0.40 0.06 l
0.40 0.06 l
0.40 0.06 l
0.39 0.06 l
0.40 0.06 l
0.40 0.06 l
0.40 0.06 l
0.40 0.06 l
0.40 0.05 l
0.39 0.06 l
0.40 0.05 l
0.40 0.05 l
0.40 0.05 l
0.40 0.05 l
0.39 0.05 l
0.40 0.05 l
0.40 0.05 l
0.40 0.05 l
0.40 0.05 l
0.40 0.05 l
0.39 0.04 l
0.40 0.05 l
0.40 0.04 l
0.40 0.04 l
0.40 0.05 l
0.39 0.04 l
0.40 0.04 l
0.40 0.04 l
0.40 0.04 l
0.40 0.04 l
0.40 0.04 l
182.64 192.22 lineto
0.40 0.04 l
0.40 0.03 l
0.40 0.04 l
0.40 0.04 l
0.39 0.03 l
0.40 0.04 l
0.40 0.03 l
0.40 0.04 l
0.40 0.03 l
0.40 0.03 l
0.39 0.03 l
0.40 0.04 l
0.40 0.03 l
0.40 0.03 l
0.40 0.03 l
0.39 0.03 l
0.40 0.03 l
0.40 0.03 l
0.40 0.03 l
0.40 0.02 l
0.40 0.03 l
0.39 0.03 l
0.40 0.02 l
0.40 0.03 l
0.40 0.03 l
0.40 0.02 l
0.39 0.03 l
0.40 0.02 l
0.40 0.03 l
0.40 0.02 l
0.40 0.02 l
0.40 0.03 l
0.39 0.02 l
0.40 0.02 l
0.40 0.02 l
0.40 0.03 l
0.40 0.02 l
0.39 0.02 l
0.40 0.02 l
0.40 0.02 l
0.40 0.02 l
0.40 0.02 l
0.40 0.02 l
0.39 0.02 l
0.40 0.02 l
0.40 0.01 l
0.40 0.02 l
0.40 0.02 l
0.39 0.02 l
0.40 0.02 l
0.40 0.01 l
0.40 0.02 l
0.40 0.02 l
0.40 0.01 l
0.39 0.02 l
0.40 0.01 l
0.40 0.02 l
0.40 0.02 l
0.40 0.01 l
0.39 0.01 l
0.40 0.02 l
0.40 0.01 l
0.40 0.02 l
0.40 0.01 l
0.40 0.02 l
0.39 0.01 l
0.40 0.01 l
0.40 0.02 l
0.40 0.01 l
0.40 0.01 l
0.39 0.01 l
0.40 0.02 l
0.40 0.01 l
0.40 0.01 l
0.40 0.01 l
0.40 0.01 l
0.39 0.01 l
0.40 0.01 l
0.40 0.02 l
0.40 0.01 l
0.40 0.01 l
0.40 0.01 l
0.39 0.01 l
0.40 0.01 l
0.40 0.01 l
0.40 0.01 l
0.40 0.01 l
0.39 0.01 l
0.40 0.01 l
0.40 0.01 l
0.40 0 l
0.40 0.01 l
0.40 0.01 l
0.39 0.01 l
0.40 0.01 l
0.40 0.01 l
0.40 0.01 l
0.40 0 l
0.39 0.01 l
o
0.00 0.00 331.50 207.75 cl
0.00 0.00 331.50 207.75 cl
0.00 0.00 331.50 207.75 cl
0.00 0.00 331.50 207.75 cl
0.00 0.00 331.50 207.75 cl
0.00 0.00 331.50 207.75 cl
/Font1 findfont 9 s
0.3020 0.3020 0.3020 srgb
39.48 36.10 (0.00) 1 0 t
39.48 74.94 (0.25) 1 0 t
39.48 113.77 (0.50) 1 0 t
39.48 152.61 (0.75) 1 0 t
39.48 191.45 (1.00) 1 0 t
0.00 0.00 331.50 207.75 cl
0.00 0.00 331.50 207.75 cl
0.2000 0.2000 0.2000 srgb
1.07 setlinewidth
[] 0 setdash
0 setlinecap
1 setlinejoin
10.00 setmiterlimit
np
41.67 39.33 m
2.74 0 l
o
np
41.67 78.17 m
2.74 0 l
o
np
41.67 117.01 m
2.74 0 l
o
np
41.67 155.85 m
2.74 0 l
o
np
41.67 194.68 m
2.74 0 l
o
0.00 0.00 331.50 207.75 cl
0.00 0.00 331.50 207.75 cl
0.00 0.00 331.50 207.75 cl
0.00 0.00 331.50 207.75 cl
0.00 0.00 331.50 207.75 cl
0.00 0.00 331.50 207.75 cl
0.00 0.00 331.50 207.75 cl
0.00 0.00 331.50 207.75 cl
0.2000 0.2000 0.2000 srgb
1.07 setlinewidth
[] 0 setdash
0 setlinecap
1 setlinejoin
10.00 setmiterlimit
np
54.31 28.61 m
0 2.74 l
o
np
116.44 28.61 m
0 2.74 l
o
np
178.57 28.61 m
0 2.74 l
o
np
240.70 28.61 m
0 2.74 l
o
0.00 0.00 331.50 207.75 cl
0.00 0.00 331.50 207.75 cl
/Font1 findfont 9 s
0.3020 0.3020 0.3020 srgb
54.31 19.95 (0.0) .5 0 t
116.44 19.95 (0.5) .5 0 t
178.57 19.95 (1.0) .5 0 t
240.70 19.95 (1.5) .5 0 t
0.00 0.00 331.50 207.75 cl
0.00 0.00 331.50 207.75 cl
0.00 0.00 331.50 207.75 cl
0.00 0.00 331.50 207.75 cl
/Font1 findfont 11 s
0 0 0 srgb
153.74 7.67 (time) .5 0 t
0.00 0.00 331.50 207.75 cl
0.00 0.00 331.50 207.75 cl
/Font1 findfont 11 s
0 0 0 srgb
15.57 112.03 (V) 0 90 t
/Font1 findfont 8 s
17.58 119.37 (f) 0 90 t
0.00 0.00 331.50 207.75 cl
0.00 0.00 331.50 207.75 cl
0.00 0.00 331.50 207.75 cl
0.00 0.00 331.50 207.75 cl
/bg { 1 1 1 srgb } def
271.57 49.92 45.94 133.78 r p2
0.00 0.00 331.50 207.75 cl
0.00 0.00 331.50 207.75 cl
/Font5 findfont 11 s
0 0 0 srgb
275.82 176.80 (t) 0 0 t
0.00 0.00 331.50 207.75 cl
0.00 0.00 331.50 207.75 cl
/bg { 0.9490 0.9490 0.9490 srgb } def
1 1 1 srgb
1.07 setlinewidth
[] 0 setdash
1 setlinecap
1 setlinejoin
10.00 setmiterlimit
275.82 157.85 17.28 17.28 r p3
0.00 0.00 331.50 207.75 cl
0.00 0.00 331.50 207.75 cl
0.5294 0.8078 0.9216 srgb
1.07 setlinewidth
[] 0 setdash
0 setlinecap
1 setlinejoin
10.00 setmiterlimit
np
277.55 166.49 m
13.83 0 l
o
0.00 0.00 331.50 207.75 cl
0.00 0.00 331.50 207.75 cl
/bg { 0.9490 0.9490 0.9490 srgb } def
1 1 1 srgb
1.07 setlinewidth
[] 0 setdash
1 setlinecap
1 setlinejoin
10.00 setmiterlimit
275.82 140.57 17.28 17.28 r p3
0.00 0.00 331.50 207.75 cl
0.00 0.00 331.50 207.75 cl
0.9137 0.5882 0.4784 srgb
1.07 setlinewidth
[] 0 setdash
0 setlinecap
1 setlinejoin
10.00 setmiterlimit
np
277.55 149.21 m
13.83 0 l
o
0.00 0.00 331.50 207.75 cl
0.00 0.00 331.50 207.75 cl
/bg { 0.9490 0.9490 0.9490 srgb } def
1 1 1 srgb
1.07 setlinewidth
[] 0 setdash
1 setlinecap
1 setlinejoin
10.00 setmiterlimit
275.82 123.29 17.28 17.28 r p3
0.00 0.00 331.50 207.75 cl
0.00 0.00 331.50 207.75 cl
1 0.5490 0 srgb
1.07 setlinewidth
[] 0 setdash
0 setlinecap
1 setlinejoin
10.00 setmiterlimit
np
277.55 131.93 m
13.83 0 l
o
0.00 0.00 331.50 207.75 cl
0.00 0.00 331.50 207.75 cl
/bg { 0.9490 0.9490 0.9490 srgb } def
1 1 1 srgb
1.07 setlinewidth
[] 0 setdash
1 setlinecap
1 setlinejoin
10.00 setmiterlimit
275.82 106.01 17.28 17.28 r p3
0.00 0.00 331.50 207.75 cl
0.00 0.00 331.50 207.75 cl
0.9333 0.7059 0.1333 srgb
1.07 setlinewidth
[] 0 setdash
0 setlinecap
1 setlinejoin
10.00 setmiterlimit
np
277.55 114.65 m
13.83 0 l
o
0.00 0.00 331.50 207.75 cl
0.00 0.00 331.50 207.75 cl
/bg { 0.9490 0.9490 0.9490 srgb } def
1 1 1 srgb
1.07 setlinewidth
[] 0 setdash
1 setlinecap
1 setlinejoin
10.00 setmiterlimit
275.82 88.73 17.28 17.28 r p3
0.00 0.00 331.50 207.75 cl
0.00 0.00 331.50 207.75 cl
0.8667 0.6275 0.8667 srgb
1.07 setlinewidth
[] 0 setdash
0 setlinecap
1 setlinejoin
10.00 setmiterlimit
np
277.55 97.37 m
13.83 0 l
o
0.00 0.00 331.50 207.75 cl
0.00 0.00 331.50 207.75 cl
/bg { 0.9490 0.9490 0.9490 srgb } def
1 1 1 srgb
1.07 setlinewidth
[] 0 setdash
1 setlinecap
1 setlinejoin
10.00 setmiterlimit
275.82 71.45 17.28 17.28 r p3
0.00 0.00 331.50 207.75 cl
0.00 0.00 331.50 207.75 cl
0.9333 0.6039 0.2863 srgb
1.07 setlinewidth
[] 0 setdash
0 setlinecap
1 setlinejoin
10.00 setmiterlimit
np
277.55 80.09 m
13.83 0 l
o
0.00 0.00 331.50 207.75 cl
0.00 0.00 331.50 207.75 cl
/bg { 0.9490 0.9490 0.9490 srgb } def
1 1 1 srgb
1.07 setlinewidth
[] 0 setdash
1 setlinecap
1 setlinejoin
10.00 setmiterlimit
275.82 54.17 17.28 17.28 r p3
0.00 0.00 331.50 207.75 cl
0.00 0.00 331.50 207.75 cl
0 0.8078 0.8196 srgb
1.07 setlinewidth
[] 0 setdash
0 setlinecap
1 setlinejoin
10.00 setmiterlimit
np
277.55 62.81 m
13.83 0 l
o
0.00 0.00 331.50 207.75 cl
0.00 0.00 331.50 207.75 cl
/Font1 findfont 9 s
0 0 0 srgb
295.26 163.26 (0) 0 0 t
0.00 0.00 331.50 207.75 cl
0.00 0.00 331.50 207.75 cl
/Font1 findfont 9 s
0 0 0 srgb
295.26 145.98 (0.02) 0 0 t
0.00 0.00 331.50 207.75 cl
0.00 0.00 331.50 207.75 cl
/Font1 findfont 9 s
0 0 0 srgb
295.26 128.70 (0.1) 0 0 t
0.00 0.00 331.50 207.75 cl
0.00 0.00 331.50 207.75 cl
/Font1 findfont 9 s
0 0 0 srgb
295.26 111.42 (0.2) 0 0 t
0.00 0.00 331.50 207.75 cl
0.00 0.00 331.50 207.75 cl
/Font1 findfont 9 s
0 0 0 srgb
295.26 94.14 (0.3) 0 0 t
0.00 0.00 331.50 207.75 cl
0.00 0.00 331.50 207.75 cl
/Font1 findfont 9 s
0 0 0 srgb
295.26 76.86 (0.4) 0 0 t
0.00 0.00 331.50 207.75 cl
0.00 0.00 331.50 207.75 cl
/Font1 findfont 9 s
0 0 0 srgb
295.26 59.58 (0.5) 0 0 t
0.00 0.00 331.50 207.75 cl
0.00 0.00 331.50 207.75 cl
0.00 0.00 331.50 207.75 cl
0.00 0.00 331.50 207.75 cl
0.00 0.00 331.50 207.75 cl
0.00 0.00 331.50 207.75 cl
ep
%%Trailer
%%Pages: 1
%%EOF
