%!PS-Adobe-3.0 EPSF-3.0
%%DocumentNeededResources: font Helvetica
%%+ font Helvetica-Bold
%%+ font Helvetica-Oblique
%%+ font Helvetica-BoldOblique
%%+ font Symbol
%%Title: R Graphics Output
%%Creator: R Software
%%Pages: (atend)
%%BoundingBox: 0 0 375 375
%%EndComments
%%BeginProlog
/bp  { gs sRGB gs } def
% begin .ps.prolog
/gs  { gsave } bind def
/gr  { grestore } bind def
/ep  { showpage gr gr } bind def
/m   { moveto } bind def
/l  { rlineto } bind def
/np  { newpath } bind def
/cp  { closepath } bind def
/f   { fill } bind def
/o   { stroke } bind def
/c   { newpath 0 360 arc } bind def
/r   { 4 2 roll moveto 1 copy 3 -1 roll exch 0 exch rlineto 0 rlineto -1 mul 0 exch rlineto closepath } bind def
/p1  { stroke } bind def
/p2  { gsave bg fill grestore newpath } bind def
/p3  { gsave bg fill grestore stroke } bind def
/p6  { gsave bg eofill grestore newpath } bind def
/p7  { gsave bg eofill grestore stroke } bind def
/t   { 5 -2 roll moveto gsave rotate
       1 index stringwidth pop
       mul neg 0 rmoveto show grestore } bind def
/ta  { 4 -2 roll moveto gsave rotate show } bind def
/tb  { 2 -1 roll 0 rmoveto show } bind def
/cl  { grestore gsave newpath 3 index 3 index moveto 1 index
       4 -1 roll lineto  exch 1 index lineto lineto
       closepath clip newpath } bind def
/rgb { setrgbcolor } bind def
/s   { scalefont setfont } bind def
% end   .ps.prolog
/sRGB { [ /CIEBasedABC
          << /DecodeLMN
               [ { dup 0.03928 le
                        {12.92321 div}
                        {0.055 add 1.055 div 2.4 exp }
                     ifelse
                 } bind dup dup
               ]
             /MatrixLMN [0.412457 0.212673 0.019334
                         0.357576 0.715152 0.119192
                         0.180437 0.072175 0.950301]
             /WhitePoint [0.9505 1.0 1.0890]
           >>
         ] setcolorspace } bind def
/srgb { setcolor } bind def
% begin encoding
/WinAnsiEncoding [
 /.notdef /.notdef /.notdef /.notdef /.notdef /.notdef /.notdef /.notdef
 /.notdef /.notdef /.notdef /.notdef /.notdef /.notdef /.notdef /.notdef
 /.notdef /.notdef /.notdef /.notdef /.notdef /.notdef /.notdef /.notdef
 /.notdef /.notdef /.notdef /.notdef /.notdef /.notdef /.notdef /.notdef
 /space /exclam /quotedbl /numbersign /dollar /percent /ampersand /quoteright
 /parenleft /parenright /asterisk /plus /comma /minus /period /slash
 /zero /one /two /three /four /five /six /seven
 /eight /nine /colon /semicolon /less /equal /greater /question
 /at /A /B /C /D /E /F /G
 /H /I /J /K /L /M /N /O
 /P /Q /R /S /T /U /V /W
 /X /Y /Z /bracketleft /backslash /bracketright /asciicircum /underscore
 /grave /a /b /c /d /e /f /g
 /h /i /j /k /l /m /n /o
 /p /q /r /s /t /u /v /w
 /x /y /z /braceleft /bar /braceright /asciitilde /.notdef
 /Euro /.notdef /quotesinglbase /florin /quotedblbase /ellipsis /dagger /daggerdbl
 /circumflex /perthousand /Scaron /guilsinglleft /OE /.notdef /Zcaron /.notdef
 /.notdef /quoteleft /quoteright /quotedblleft /quotedblright /bullet /endash /emdash
 /tilde /trademark /scaron /guilsinglright /oe /.notdef /zcaron /Ydieresis
 /space /exclamdown /cent /sterling /currency /yen /brokenbar /section
 /dieresis /copyright /ordfeminine /guillemotleft /logicalnot /hyphen /registered /macron
 /degree /plusminus /twosuperior /threesuperior /acute /mu /paragraph /periodcentered
 /cedilla /onesuperior /ordmasculine /guillemotright /onequarter /onehalf /threequarters /questiondown
 /Agrave /Aacute /Acircumflex /Atilde /Adieresis /Aring /AE /Ccedilla
 /Egrave /Eacute /Ecircumflex /Edieresis /Igrave /Iacute /Icircumflex /Idieresis
 /Eth /Ntilde /Ograve /Oacute /Ocircumflex /Otilde /Odieresis /multiply
 /Oslash /Ugrave /Uacute /Ucircumflex /Udieresis /Yacute /Thorn /germandbls
 /agrave /aacute /acircumflex /atilde /adieresis /aring /ae /ccedilla
 /egrave /eacute /ecircumflex /edieresis /igrave /iacute /icircumflex /idieresis
 /eth /ntilde /ograve /oacute /ocircumflex /otilde /odieresis /divide
 /oslash /ugrave /uacute /ucircumflex /udieresis /yacute /thorn /ydieresis
]
 def
% end encoding
%%IncludeResource: font Helvetica
/Helvetica findfont
dup length dict begin
  {1 index /FID ne {def} {pop pop} ifelse} forall
  /Encoding WinAnsiEncoding def
  currentdict
  end
/Font1 exch definefont pop
%%IncludeResource: font Helvetica-Bold
/Helvetica-Bold findfont
dup length dict begin
  {1 index /FID ne {def} {pop pop} ifelse} forall
  /Encoding WinAnsiEncoding def
  currentdict
  end
/Font2 exch definefont pop
%%IncludeResource: font Helvetica-Oblique
/Helvetica-Oblique findfont
dup length dict begin
  {1 index /FID ne {def} {pop pop} ifelse} forall
  /Encoding WinAnsiEncoding def
  currentdict
  end
/Font3 exch definefont pop
%%IncludeResource: font Helvetica-BoldOblique
/Helvetica-BoldOblique findfont
dup length dict begin
  {1 index /FID ne {def} {pop pop} ifelse} forall
  /Encoding WinAnsiEncoding def
  currentdict
  end
/Font4 exch definefont pop
%%IncludeResource: font Symbol
/Symbol findfont
dup length dict begin
  {1 index /FID ne {def} {pop pop} ifelse} forall
  currentdict
  end
/Font5 exch definefont pop
%%EndProlog
%%Page: 1 1
bp
0.00 0.00 375.00 375.00 cl
0.00 0.00 375.00 375.00 cl
0.00 0.00 375.00 375.00 cl
0.00 0.00 375.00 375.00 cl
0.00 0.00 375.00 375.00 cl
0.00 0.00 375.00 375.00 cl
0.00 0.00 375.00 375.00 cl
0.00 0.00 375.00 375.00 cl
0.00 0.00 375.00 375.00 cl
/bg { 1 1 1 srgb } def
1 1 1 srgb
1.07 setlinewidth
[] 0 setdash
1 setlinecap
1 setlinejoin
10.00 setmiterlimit
0.00 0.00 375.00 375.00 r p3
0.00 0.00 375.00 375.00 cl
0.00 0.00 375.00 375.00 cl
0.00 0.00 375.00 375.00 cl
46.45 31.35 303.57 369.52 cl
/bg { 0.9216 0.9216 0.9216 srgb } def
46.45 31.35 257.12 338.17 r p2
1 1 1 srgb
0.53 setlinewidth
[] 0 setdash
0 setlinecap
1 setlinejoin
10.00 setmiterlimit
np
46.45 46.72 m
257.12 0 l
o
np
46.45 200.43 m
257.12 0 l
o
np
46.45 354.15 m
257.12 0 l
o
np
46.45 31.35 m
0 338.17 l
o
np
69.83 31.35 m
0 338.17 l
o
np
93.20 31.35 m
0 338.17 l
o
np
116.58 31.35 m
0 338.17 l
o
np
139.95 31.35 m
0 338.17 l
o
np
163.32 31.35 m
0 338.17 l
o
np
186.70 31.35 m
0 338.17 l
o
np
210.07 31.35 m
0 338.17 l
o
np
233.45 31.35 m
0 338.17 l
o
np
256.82 31.35 m
0 338.17 l
o
np
280.19 31.35 m
0 338.17 l
o
np
303.57 31.35 m
0 338.17 l
o
1.07 setlinewidth
[] 0 setdash
np
46.45 123.58 m
257.12 0 l
o
np
46.45 277.29 m
257.12 0 l
o
np
58.14 31.35 m
0 338.17 l
o
np
81.51 31.35 m
0 338.17 l
o
np
104.89 31.35 m
0 338.17 l
o
np
128.26 31.35 m
0 338.17 l
o
np
151.64 31.35 m
0 338.17 l
o
np
175.01 31.35 m
0 338.17 l
o
np
198.38 31.35 m
0 338.17 l
o
np
221.76 31.35 m
0 338.17 l
o
np
245.13 31.35 m
0 338.17 l
o
np
268.51 31.35 m
0 338.17 l
o
np
291.88 31.35 m
0 338.17 l
o
/bg { 0.9725 0.4627 0.4275 srgb } def
np
 67.87 343.96 m
3.91 0 l
0 3.91 l
-3.91 0 l
cp p2
np
 79.56 321.32 m
3.91 0 l
0 3.91 l
-3.91 0 l
cp p2
np
 91.25 295.11 m
3.91 0 l
0 3.91 l
-3.91 0 l
cp p2
np
 102.93 264.92 m
3.91 0 l
0 3.91 l
-3.91 0 l
cp p2
np
 114.62 228.28 m
3.91 0 l
0 3.91 l
-3.91 0 l
cp p2
np
 126.31 126.31 m
3.91 0 l
0 3.91 l
-3.91 0 l
cp p2
np
 137.99 189.15 m
3.91 0 l
0 3.91 l
-3.91 0 l
cp p2
np
 149.68 201.11 m
3.91 0 l
0 3.91 l
-3.91 0 l
cp p2
np
 161.37 199.77 m
3.91 0 l
0 3.91 l
-3.91 0 l
cp p2
np
 173.06 196.15 m
3.91 0 l
0 3.91 l
-3.91 0 l
cp p2
np
 184.74 188.51 m
3.91 0 l
0 3.90 l
-3.91 0 l
cp p2
np
 196.43 181.05 m
3.91 0 l
0 3.91 l
-3.91 0 l
cp p2
np
 208.12 170.49 m
3.91 0 l
0 3.91 l
-3.91 0 l
cp p2
np
 219.80 160.93 m
3.91 0 l
0 3.91 l
-3.91 0 l
cp p2
np
 231.49 147.62 m
3.91 0 l
0 3.91 l
-3.91 0 l
cp p2
np
 243.18 136.07 m
3.91 0 l
0 3.91 l
-3.91 0 l
cp p2
np
 254.87 118.31 m
3.91 0 l
0 3.91 l
-3.91 0 l
cp p2
np
 266.55 103.45 m
3.91 0 l
0 3.91 l
-3.91 0 l
cp p2
np
 278.24 72.09 m
3.91 0 l
0 3.91 l
-3.91 0 l
cp p2
0 0.7490 0.7686 srgb
0.71 setlinewidth
[] 0 setdash
1 setlinecap
np
67.06 327.85 m
5.53 0 l
o
np
69.83 325.09 m
0 5.53 l
o
np
78.75 323.35 m
5.53 0 l
o
np
81.51 320.59 m
0 5.53 l
o
np
90.44 290.11 m
5.53 0 l
o
np
93.20 287.34 m
0 5.53 l
o
np
102.12 268.96 m
5.53 0 l
o
np
104.89 266.19 m
0 5.53 l
o
np
113.81 195.86 m
5.53 0 l
o
np
116.58 193.10 m
0 5.53 l
o
np
125.50 84.64 m
5.53 0 l
o
np
128.26 81.88 m
0 5.53 l
o
np
137.18 210.28 m
5.53 0 l
o
np
139.95 207.52 m
0 5.53 l
o
np
148.87 216.92 m
5.53 0 l
o
np
151.64 214.16 m
0 5.52 l
o
np
160.56 210.19 m
5.53 0 l
o
np
163.32 207.43 m
0 5.53 l
o
np
172.25 206.90 m
5.53 0 l
o
np
175.01 204.13 m
0 5.53 l
o
np
183.93 164.97 m
5.53 0 l
o
np
186.70 162.21 m
0 5.53 l
o
np
195.62 155.74 m
5.53 0 l
o
np
198.38 152.97 m
0 5.53 l
o
np
207.31 153.00 m
5.53 0 l
o
np
210.07 150.23 m
0 5.53 l
o
np
218.99 114.80 m
5.53 0 l
o
np
221.76 112.03 m
0 5.53 l
o
np
230.68 145.36 m
5.53 0 l
o
np
233.45 142.59 m
0 5.53 l
o
np
242.37 140.04 m
5.53 0 l
o
np
245.13 137.28 m
0 5.53 l
o
np
254.06 168.58 m
5.52 0 l
o
np
256.82 165.81 m
0 5.53 l
o
np
265.74 137.41 m
5.53 0 l
o
np
268.51 134.65 m
0 5.53 l
o
np
277.43 120.46 m
5.53 0 l
o
np
280.19 117.69 m
0 5.53 l
o
np
289.12 142.98 m
5.53 0 l
o
np
291.88 140.21 m
0 5.53 l
o
69.83 353.16 1.95 c p2
81.51 345.80 1.95 c p2
93.20 335.43 1.95 c p2
104.89 323.41 1.95 c p2
116.58 310.48 1.95 c p2
128.26 296.88 1.95 c p2
139.95 282.55 1.95 c p2
151.64 267.16 1.95 c p2
163.32 250.02 1.95 c p2
175.01 229.65 1.95 c p2
186.70 201.81 1.95 c p2
198.38 136.12 1.95 c p2
210.07 172.17 1.95 c p2
221.76 192.11 1.95 c p2
233.45 199.58 1.95 c p2
245.13 202.51 1.95 c p2
256.82 203.07 1.95 c p2
268.51 202.18 1.95 c p2
280.19 200.29 1.95 c p2
291.88 197.68 1.95 c p2
/bg { 0 0.7490 0.7686 srgb } def
np
 69.83 322.89 m
2.63 -4.56 l
-5.27 0 l
cp p2
np
 81.51 349.04 m
2.64 -4.56 l
-5.27 0 l
cp p2
np
 93.20 328.98 m
2.63 -4.56 l
-5.26 0 l
cp p2
np
 104.89 326.44 m
2.63 -4.56 l
-5.26 0 l
cp p2
np
 116.58 306.38 m
2.63 -4.56 l
-5.27 0 l
cp p2
np
 128.26 300.46 m
2.64 -4.56 l
-5.27 0 l
cp p2
np
 139.95 277.55 m
2.63 -4.56 l
-5.26 0 l
cp p2
np
 151.64 274.37 m
2.63 -4.56 l
-5.27 0 l
cp p2
np
 163.32 235.49 m
2.64 -4.56 l
-5.27 0 l
cp p2
np
 175.01 231.40 m
2.63 -4.56 l
-5.26 0 l
cp p2
np
 186.70 194.51 m
2.63 -4.56 l
-5.26 0 l
cp p2
np
 198.38 164.34 m
2.64 -4.56 l
-5.27 0 l
cp p2
np
 210.07 194.24 m
2.63 -4.56 l
-5.26 0 l
cp p2
np
 221.76 217.07 m
2.63 -4.56 l
-5.26 0 l
cp p2
np
 233.45 213.23 m
2.63 -4.56 l
-5.27 0 l
cp p2
np
 245.13 220.12 m
2.64 -4.56 l
-5.27 0 l
cp p2
np
 256.82 223.56 m
2.63 -4.56 l
-5.26 0 l
cp p2
np
 268.51 206.91 m
2.63 -4.56 l
-5.27 0 l
cp p2
np
 280.19 212.28 m
2.64 -4.56 l
-5.27 0 l
cp p2
np
 291.88 208.96 m
2.63 -4.56 l
-5.26 0 l
cp p2
0 0 0 srgb
1.07 setlinewidth
[] 0 setdash
np
46.45 6.53 m
2.84 0 l
o
np
46.45 16.13 m
2.84 0 l
o
np
46.45 23.58 m
5.67 0 l
o
np
46.45 29.67 m
2.84 0 l
o
np
46.45 34.81 m
2.84 0 l
o
np
46.45 39.27 m
2.84 0 l
o
np
46.45 43.20 m
2.84 0 l
o
np
46.45 46.72 m
8.51 0 l
o
np
46.45 69.85 m
2.84 0 l
o
np
46.45 83.39 m
2.84 0 l
o
np
46.45 92.99 m
2.84 0 l
o
np
46.45 100.44 m
5.67 0 l
o
np
46.45 106.52 m
2.84 0 l
o
np
46.45 111.67 m
2.84 0 l
o
np
46.45 116.13 m
2.84 0 l
o
np
46.45 120.06 m
2.84 0 l
o
np
46.45 123.58 m
8.51 0 l
o
np
46.45 146.71 m
2.84 0 l
o
np
46.45 160.25 m
2.84 0 l
o
np
46.45 169.85 m
2.84 0 l
o
np
46.45 177.30 m
5.67 0 l
o
np
46.45 183.38 m
2.84 0 l
o
np
46.45 188.53 m
2.84 0 l
o
np
46.45 192.99 m
2.84 0 l
o
np
46.45 196.92 m
2.84 0 l
o
np
46.45 200.43 m
8.51 0 l
o
np
46.45 223.57 m
2.84 0 l
o
np
46.45 237.10 m
2.84 0 l
o
np
46.45 246.71 m
2.84 0 l
o
np
46.45 254.15 m
5.67 0 l
o
np
46.45 260.24 m
2.84 0 l
o
np
46.45 265.39 m
2.84 0 l
o
np
46.45 269.84 m
2.84 0 l
o
np
46.45 273.77 m
2.84 0 l
o
np
46.45 277.29 m
8.51 0 l
o
np
46.45 300.43 m
2.84 0 l
o
np
46.45 313.96 m
2.84 0 l
o
np
46.45 323.56 m
2.84 0 l
o
np
46.45 331.01 m
5.67 0 l
o
np
46.45 337.10 m
2.84 0 l
o
np
46.45 342.24 m
2.84 0 l
o
np
46.45 346.70 m
2.84 0 l
o
np
46.45 350.63 m
2.84 0 l
o
np
46.45 354.15 m
8.51 0 l
o
0.00 0.00 375.00 375.00 cl
0.00 0.00 375.00 375.00 cl
0.00 0.00 375.00 375.00 cl
0.00 0.00 375.00 375.00 cl
0.00 0.00 375.00 375.00 cl
0.00 0.00 375.00 375.00 cl
/Font1 findfont 9 s
0.3020 0.3020 0.3020 srgb
41.52 120.34 (0.1) 1 0 t
41.52 274.06 (10.0) 1 0 t
0.00 0.00 375.00 375.00 cl
0.00 0.00 375.00 375.00 cl
0.2000 0.2000 0.2000 srgb
1.07 setlinewidth
[] 0 setdash
0 setlinecap
1 setlinejoin
10.00 setmiterlimit
np
43.71 123.58 m
2.74 0 l
o
np
43.71 277.29 m
2.74 0 l
o
0.00 0.00 375.00 375.00 cl
0.00 0.00 375.00 375.00 cl
0.00 0.00 375.00 375.00 cl
0.00 0.00 375.00 375.00 cl
0.00 0.00 375.00 375.00 cl
0.00 0.00 375.00 375.00 cl
0.00 0.00 375.00 375.00 cl
0.00 0.00 375.00 375.00 cl
0.2000 0.2000 0.2000 srgb
1.07 setlinewidth
[] 0 setdash
0 setlinecap
1 setlinejoin
10.00 setmiterlimit
np
58.14 28.61 m
0 2.74 l
o
np
81.51 28.61 m
0 2.74 l
o
np
104.89 28.61 m
0 2.74 l
o
np
128.26 28.61 m
0 2.74 l
o
np
151.64 28.61 m
0 2.74 l
o
np
175.01 28.61 m
0 2.74 l
o
np
198.38 28.61 m
0 2.74 l
o
np
221.76 28.61 m
0 2.74 l
o
np
245.13 28.61 m
0 2.74 l
o
np
268.51 28.61 m
0 2.74 l
o
np
291.88 28.61 m
0 2.74 l
o
0.00 0.00 375.00 375.00 cl
0.00 0.00 375.00 375.00 cl
/Font1 findfont 9 s
0.3020 0.3020 0.3020 srgb
58.14 19.95 (0) .5 0 t
81.51 19.95 (2) .5 0 t
104.89 19.95 (4) .5 0 t
128.26 19.95 (6) .5 0 t
151.64 19.95 (8) .5 0 t
175.01 19.95 (10) .5 0 t
198.38 19.95 (12) .5 0 t
221.76 19.95 (14) .5 0 t
245.13 19.95 (16) .5 0 t
268.51 19.95 (18) .5 0 t
291.88 19.95 (20) .5 0 t
0.00 0.00 375.00 375.00 cl
0.00 0.00 375.00 375.00 cl
0.00 0.00 375.00 375.00 cl
0.00 0.00 375.00 375.00 cl
/Font1 findfont 11 s
0 0 0 srgb
175.01 7.67 (k) .5 0 t
0.00 0.00 375.00 375.00 cl
0.00 0.00 375.00 375.00 cl
/Font1 findfont 11 s
0 0 0 srgb
17.15 184.88 (R) 0 90 t
17.15 192.82 (e) 0 90 t
17.15 198.93 (|) 0 90 t
17.15 201.79 (E) 0 90 t
0.75 setlinewidth
[] 0 setdash
1 setlinecap
1 setlinejoin
10.00 setmiterlimit
np
7.67 201.79 m
0 7.34 l
o
/Font1 findfont 8 s
19.16 209.13 (k) 0 90 t
/Font1 findfont 11 s
17.15 213.13 (|) 0 90 t
0.00 0.00 375.00 375.00 cl
0.00 0.00 375.00 375.00 cl
0.00 0.00 375.00 375.00 cl
0.00 0.00 375.00 375.00 cl
/bg { 1 1 1 srgb } def
312.07 220.55 39.19 57.13 r p2
0.00 0.00 375.00 375.00 cl
0.00 0.00 375.00 375.00 cl
/Font2 findfont 12 s
0.8235 0.4118 0.1176 srgb
316.32 264.25 (FFT) 0 0 t
0.00 0.00 375.00 375.00 cl
0.00 0.00 375.00 375.00 cl
/bg { 0.9490 0.9490 0.9490 srgb } def
1 1 1 srgb
1.07 setlinewidth
[] 0 setdash
1 setlinecap
1 setlinejoin
10.00 setmiterlimit
316.32 242.08 17.28 17.28 r p3
0.00 0.00 375.00 375.00 cl
0.00 0.00 375.00 375.00 cl
/bg { 0.9725 0.4627 0.4275 srgb } def
0.9725 0.4627 0.4275 srgb
0.71 setlinewidth
[] 0 setdash
1 setlinecap
1 setlinejoin
10.00 setmiterlimit
324.96 250.72 1.95 c p3
0.00 0.00 375.00 375.00 cl
0.00 0.00 375.00 375.00 cl
/bg { 0.9725 0.4627 0.4275 srgb } def
0.9725 0.4627 0.4275 srgb
0.71 setlinewidth
[] 0 setdash
1 setlinecap
1 setlinejoin
10.00 setmiterlimit
324.96 250.72 1.95 c p3
0.00 0.00 375.00 375.00 cl
0.00 0.00 375.00 375.00 cl
/bg { 0.9725 0.4627 0.4275 srgb } def
0.9725 0.4627 0.4275 srgb
0.71 setlinewidth
[] 0 setdash
1 setlinecap
1 setlinejoin
10.00 setmiterlimit
324.96 250.72 1.95 c p3
0.00 0.00 375.00 375.00 cl
0.00 0.00 375.00 375.00 cl
/bg { 0.9725 0.4627 0.4275 srgb } def
0.9725 0.4627 0.4275 srgb
0.71 setlinewidth
[] 0 setdash
1 setlinecap
1 setlinejoin
10.00 setmiterlimit
324.96 250.72 1.95 c p3
0.00 0.00 375.00 375.00 cl
0.00 0.00 375.00 375.00 cl
/bg { 0.9490 0.9490 0.9490 srgb } def
1 1 1 srgb
1.07 setlinewidth
[] 0 setdash
1 setlinecap
1 setlinejoin
10.00 setmiterlimit
316.32 224.80 17.28 17.28 r p3
0.00 0.00 375.00 375.00 cl
0.00 0.00 375.00 375.00 cl
/bg { 0 0.7490 0.7686 srgb } def
0 0.7490 0.7686 srgb
0.71 setlinewidth
[] 0 setdash
1 setlinecap
1 setlinejoin
10.00 setmiterlimit
324.96 233.44 1.95 c p3
0.00 0.00 375.00 375.00 cl
0.00 0.00 375.00 375.00 cl
/bg { 0 0.7490 0.7686 srgb } def
0 0.7490 0.7686 srgb
0.71 setlinewidth
[] 0 setdash
1 setlinecap
1 setlinejoin
10.00 setmiterlimit
324.96 233.44 1.95 c p3
0.00 0.00 375.00 375.00 cl
0.00 0.00 375.00 375.00 cl
/bg { 0 0.7490 0.7686 srgb } def
0 0.7490 0.7686 srgb
0.71 setlinewidth
[] 0 setdash
1 setlinecap
1 setlinejoin
10.00 setmiterlimit
324.96 233.44 1.95 c p3
0.00 0.00 375.00 375.00 cl
0.00 0.00 375.00 375.00 cl
/bg { 0 0.7490 0.7686 srgb } def
0 0.7490 0.7686 srgb
0.71 setlinewidth
[] 0 setdash
1 setlinecap
1 setlinejoin
10.00 setmiterlimit
324.96 233.44 1.95 c p3
0.00 0.00 375.00 375.00 cl
0.00 0.00 375.00 375.00 cl
/Font1 findfont 9 s
0 0 0 srgb
335.76 247.49 (E) 0 0 t
0.00 0.00 375.00 375.00 cl
0.00 0.00 375.00 375.00 cl
/Font1 findfont 9 s
0 0 0 srgb
335.76 230.21 (Es) 0 0 t
0.00 0.00 375.00 375.00 cl
0.00 0.00 375.00 375.00 cl
0.00 0.00 375.00 375.00 cl
0.00 0.00 375.00 375.00 cl
/bg { 1 1 1 srgb } def
312.07 123.18 48.94 91.69 r p2
0.00 0.00 375.00 375.00 cl
0.00 0.00 375.00 375.00 cl
/Font2 findfont 12 s
0.8235 0.4118 0.1176 srgb
316.32 201.44 (shape) 0 0 t
0.00 0.00 375.00 375.00 cl
0.00 0.00 375.00 375.00 cl
/bg { 0.9490 0.9490 0.9490 srgb } def
1 1 1 srgb
1.07 setlinewidth
[] 0 setdash
1 setlinecap
1 setlinejoin
10.00 setmiterlimit
316.32 179.28 17.28 17.28 r p3
0.00 0.00 375.00 375.00 cl
0.00 0.00 375.00 375.00 cl
/bg { 0 0 0 srgb } def
324.96 187.92 1.95 c p2
0.00 0.00 375.00 375.00 cl
0.00 0.00 375.00 375.00 cl
/bg { 0 0 0 srgb } def
324.96 187.92 1.95 c p2
0.00 0.00 375.00 375.00 cl
0.00 0.00 375.00 375.00 cl
/bg { 0 0 0 srgb } def
324.96 187.92 1.95 c p2
0.00 0.00 375.00 375.00 cl
0.00 0.00 375.00 375.00 cl
/bg { 0 0 0 srgb } def
324.96 187.92 1.95 c p2
0.00 0.00 375.00 375.00 cl
0.00 0.00 375.00 375.00 cl
/bg { 0.9490 0.9490 0.9490 srgb } def
1 1 1 srgb
1.07 setlinewidth
[] 0 setdash
1 setlinecap
1 setlinejoin
10.00 setmiterlimit
316.32 162.00 17.28 17.28 r p3
0.00 0.00 375.00 375.00 cl
0.00 0.00 375.00 375.00 cl
/bg { 0 0 0 srgb } def
np
 324.96 173.68 m
2.64 -4.56 l
-5.27 0 l
cp p2
0.00 0.00 375.00 375.00 cl
0.00 0.00 375.00 375.00 cl
/bg { 0 0 0 srgb } def
np
 324.96 173.68 m
2.64 -4.56 l
-5.27 0 l
cp p2
0.00 0.00 375.00 375.00 cl
0.00 0.00 375.00 375.00 cl
/bg { 0 0 0 srgb } def
np
 324.96 173.68 m
2.64 -4.56 l
-5.27 0 l
cp p2
0.00 0.00 375.00 375.00 cl
0.00 0.00 375.00 375.00 cl
/bg { 0 0 0 srgb } def
np
 324.96 173.68 m
2.64 -4.56 l
-5.27 0 l
cp p2
0.00 0.00 375.00 375.00 cl
0.00 0.00 375.00 375.00 cl
/bg { 0.9490 0.9490 0.9490 srgb } def
1 1 1 srgb
1.07 setlinewidth
[] 0 setdash
1 setlinecap
1 setlinejoin
10.00 setmiterlimit
316.32 144.72 17.28 17.28 r p3
0.00 0.00 375.00 375.00 cl
0.00 0.00 375.00 375.00 cl
/bg { 0 0 0 srgb } def
np
 323.01 151.40 m
3.91 0 l
0 3.91 l
-3.91 0 l
cp p2
0.00 0.00 375.00 375.00 cl
0.00 0.00 375.00 375.00 cl
/bg { 0 0 0 srgb } def
np
 323.01 151.40 m
3.91 0 l
0 3.91 l
-3.91 0 l
cp p2
0.00 0.00 375.00 375.00 cl
0.00 0.00 375.00 375.00 cl
/bg { 0 0 0 srgb } def
np
 323.01 151.40 m
3.91 0 l
0 3.91 l
-3.91 0 l
cp p2
0.00 0.00 375.00 375.00 cl
0.00 0.00 375.00 375.00 cl
/bg { 0 0 0 srgb } def
np
 323.01 151.40 m
3.91 0 l
0 3.91 l
-3.91 0 l
cp p2
0.00 0.00 375.00 375.00 cl
0.00 0.00 375.00 375.00 cl
/bg { 0.9490 0.9490 0.9490 srgb } def
1 1 1 srgb
1.07 setlinewidth
[] 0 setdash
1 setlinecap
1 setlinejoin
10.00 setmiterlimit
316.32 127.44 17.28 17.28 r p3
0.00 0.00 375.00 375.00 cl
0.00 0.00 375.00 375.00 cl
0 0 0 srgb
0.71 setlinewidth
[] 0 setdash
1 setlinecap
1 setlinejoin
10.00 setmiterlimit
np
322.20 136.08 m
5.53 0 l
o
np
324.96 133.31 m
0 5.53 l
o
0.00 0.00 375.00 375.00 cl
0.00 0.00 375.00 375.00 cl
0 0 0 srgb
0.71 setlinewidth
[] 0 setdash
1 setlinecap
1 setlinejoin
10.00 setmiterlimit
np
322.20 136.08 m
5.53 0 l
o
np
324.96 133.31 m
0 5.53 l
o
0.00 0.00 375.00 375.00 cl
0.00 0.00 375.00 375.00 cl
0 0 0 srgb
0.71 setlinewidth
[] 0 setdash
1 setlinecap
1 setlinejoin
10.00 setmiterlimit
np
322.20 136.08 m
5.53 0 l
o
np
324.96 133.31 m
0 5.53 l
o
0.00 0.00 375.00 375.00 cl
0.00 0.00 375.00 375.00 cl
0 0 0 srgb
0.71 setlinewidth
[] 0 setdash
1 setlinecap
1 setlinejoin
10.00 setmiterlimit
np
322.20 136.08 m
5.53 0 l
o
np
324.96 133.31 m
0 5.53 l
o
0.00 0.00 375.00 375.00 cl
0.00 0.00 375.00 375.00 cl
/Font1 findfont 9 s
0 0 0 srgb
335.76 184.69 (128) 0 0 t
0.00 0.00 375.00 375.00 cl
0.00 0.00 375.00 375.00 cl
/Font1 findfont 9 s
0 0 0 srgb
335.76 167.41 (128s) 0 0 t
0.00 0.00 375.00 375.00 cl
0.00 0.00 375.00 375.00 cl
/Font1 findfont 9 s
0 0 0 srgb
335.76 150.13 (256) 0 0 t
0.00 0.00 375.00 375.00 cl
0.00 0.00 375.00 375.00 cl
/Font1 findfont 9 s
0 0 0 srgb
335.76 132.85 (256s) 0 0 t
0.00 0.00 375.00 375.00 cl
0.00 0.00 375.00 375.00 cl
0.00 0.00 375.00 375.00 cl
0.00 0.00 375.00 375.00 cl
0.00 0.00 375.00 375.00 cl
0.00 0.00 375.00 375.00 cl
ep
%%Trailer
%%Pages: 1
%%EOF
