%!PS-Adobe-3.0 EPSF-3.0
%%DocumentNeededResources: font Helvetica
%%+ font Helvetica-Bold
%%+ font Helvetica-Oblique
%%+ font Helvetica-BoldOblique
%%+ font Symbol
%%Title: R Graphics Output
%%Creator: R Software
%%Pages: (atend)
%%BoundingBox: 0 0 450 375
%%EndComments
%%BeginProlog
/bp  { gs sRGB gs } def
% begin .ps.prolog
/gs  { gsave } bind def
/gr  { grestore } bind def
/ep  { showpage gr gr } bind def
/m   { moveto } bind def
/l  { rlineto } bind def
/np  { newpath } bind def
/cp  { closepath } bind def
/f   { fill } bind def
/o   { stroke } bind def
/c   { newpath 0 360 arc } bind def
/r   { 4 2 roll moveto 1 copy 3 -1 roll exch 0 exch rlineto 0 rlineto -1 mul 0 exch rlineto closepath } bind def
/p1  { stroke } bind def
/p2  { gsave bg fill grestore newpath } bind def
/p3  { gsave bg fill grestore stroke } bind def
/p6  { gsave bg eofill grestore newpath } bind def
/p7  { gsave bg eofill grestore stroke } bind def
/t   { 5 -2 roll moveto gsave rotate
       1 index stringwidth pop
       mul neg 0 rmoveto show grestore } bind def
/ta  { 4 -2 roll moveto gsave rotate show } bind def
/tb  { 2 -1 roll 0 rmoveto show } bind def
/cl  { grestore gsave newpath 3 index 3 index moveto 1 index
       4 -1 roll lineto  exch 1 index lineto lineto
       closepath clip newpath } bind def
/rgb { setrgbcolor } bind def
/s   { scalefont setfont } bind def
% end   .ps.prolog
/sRGB { [ /CIEBasedABC
          << /DecodeLMN
               [ { dup 0.03928 le
                        {12.92321 div}
                        {0.055 add 1.055 div 2.4 exp }
                     ifelse
                 } bind dup dup
               ]
             /MatrixLMN [0.412457 0.212673 0.019334
                         0.357576 0.715152 0.119192
                         0.180437 0.072175 0.950301]
             /WhitePoint [0.9505 1.0 1.0890]
           >>
         ] setcolorspace } bind def
/srgb { setcolor } bind def
% begin encoding
/WinAnsiEncoding [
 /.notdef /.notdef /.notdef /.notdef /.notdef /.notdef /.notdef /.notdef
 /.notdef /.notdef /.notdef /.notdef /.notdef /.notdef /.notdef /.notdef
 /.notdef /.notdef /.notdef /.notdef /.notdef /.notdef /.notdef /.notdef
 /.notdef /.notdef /.notdef /.notdef /.notdef /.notdef /.notdef /.notdef
 /space /exclam /quotedbl /numbersign /dollar /percent /ampersand /quoteright
 /parenleft /parenright /asterisk /plus /comma /minus /period /slash
 /zero /one /two /three /four /five /six /seven
 /eight /nine /colon /semicolon /less /equal /greater /question
 /at /A /B /C /D /E /F /G
 /H /I /J /K /L /M /N /O
 /P /Q /R /S /T /U /V /W
 /X /Y /Z /bracketleft /backslash /bracketright /asciicircum /underscore
 /grave /a /b /c /d /e /f /g
 /h /i /j /k /l /m /n /o
 /p /q /r /s /t /u /v /w
 /x /y /z /braceleft /bar /braceright /asciitilde /.notdef
 /Euro /.notdef /quotesinglbase /florin /quotedblbase /ellipsis /dagger /daggerdbl
 /circumflex /perthousand /Scaron /guilsinglleft /OE /.notdef /Zcaron /.notdef
 /.notdef /quoteleft /quoteright /quotedblleft /quotedblright /bullet /endash /emdash
 /tilde /trademark /scaron /guilsinglright /oe /.notdef /zcaron /Ydieresis
 /space /exclamdown /cent /sterling /currency /yen /brokenbar /section
 /dieresis /copyright /ordfeminine /guillemotleft /logicalnot /hyphen /registered /macron
 /degree /plusminus /twosuperior /threesuperior /acute /mu /paragraph /periodcentered
 /cedilla /onesuperior /ordmasculine /guillemotright /onequarter /onehalf /threequarters /questiondown
 /Agrave /Aacute /Acircumflex /Atilde /Adieresis /Aring /AE /Ccedilla
 /Egrave /Eacute /Ecircumflex /Edieresis /Igrave /Iacute /Icircumflex /Idieresis
 /Eth /Ntilde /Ograve /Oacute /Ocircumflex /Otilde /Odieresis /multiply
 /Oslash /Ugrave /Uacute /Ucircumflex /Udieresis /Yacute /Thorn /germandbls
 /agrave /aacute /acircumflex /atilde /adieresis /aring /ae /ccedilla
 /egrave /eacute /ecircumflex /edieresis /igrave /iacute /icircumflex /idieresis
 /eth /ntilde /ograve /oacute /ocircumflex /otilde /odieresis /divide
 /oslash /ugrave /uacute /ucircumflex /udieresis /yacute /thorn /ydieresis
]
 def
% end encoding
%%IncludeResource: font Helvetica
/Helvetica findfont
dup length dict begin
  {1 index /FID ne {def} {pop pop} ifelse} forall
  /Encoding WinAnsiEncoding def
  currentdict
  end
/Font1 exch definefont pop
%%IncludeResource: font Helvetica-Bold
/Helvetica-Bold findfont
dup length dict begin
  {1 index /FID ne {def} {pop pop} ifelse} forall
  /Encoding WinAnsiEncoding def
  currentdict
  end
/Font2 exch definefont pop
%%IncludeResource: font Helvetica-Oblique
/Helvetica-Oblique findfont
dup length dict begin
  {1 index /FID ne {def} {pop pop} ifelse} forall
  /Encoding WinAnsiEncoding def
  currentdict
  end
/Font3 exch definefont pop
%%IncludeResource: font Helvetica-BoldOblique
/Helvetica-BoldOblique findfont
dup length dict begin
  {1 index /FID ne {def} {pop pop} ifelse} forall
  /Encoding WinAnsiEncoding def
  currentdict
  end
/Font4 exch definefont pop
%%IncludeResource: font Symbol
/Symbol findfont
dup length dict begin
  {1 index /FID ne {def} {pop pop} ifelse} forall
  currentdict
  end
/Font5 exch definefont pop
%%EndProlog
%%Page: 1 1
bp
0.00 0.00 450.00 375.00 cl
0.00 0.00 450.00 375.00 cl
0.00 0.00 450.00 375.00 cl
0.00 0.00 450.00 375.00 cl
0.00 0.00 450.00 375.00 cl
0.00 0.00 450.00 375.00 cl
/bg { 1 1 1 srgb } def
1 1 1 srgb
1.07 setlinewidth
[] 0 setdash
1 setlinecap
1 setlinejoin
10.00 setmiterlimit
0.00 0.00 450.00 375.00 r p3
0.00 0.00 450.00 375.00 cl
41.79 206.37 356.65 351.06 cl
/bg { 0.9216 0.9216 0.9216 srgb } def
41.79 206.37 314.86 144.69 r p2
1 1 1 srgb
0.53 setlinewidth
[] 0 setdash
0 setlinecap
1 setlinejoin
10.00 setmiterlimit
np
41.79 229.39 m
314.86 0 l
o
np
41.79 262.27 m
314.86 0 l
o
np
41.79 295.16 m
314.86 0 l
o
np
41.79 328.04 m
314.86 0 l
o
np
97.76 206.37 m
0 144.69 l
o
np
209.72 206.37 m
0 144.69 l
o
np
321.67 206.37 m
0 144.69 l
o
1.07 setlinewidth
[] 0 setdash
np
41.79 212.95 m
314.86 0 l
o
np
41.79 245.83 m
314.86 0 l
o
np
41.79 278.72 m
314.86 0 l
o
np
41.79 311.60 m
314.86 0 l
o
np
41.79 344.48 m
314.86 0 l
o
np
41.79 206.37 m
0 144.69 l
o
np
153.74 206.37 m
0 144.69 l
o
np
265.69 206.37 m
0 144.69 l
o
0.9725 0.4627 0.4275 srgb
1.00 setmiterlimit
np
43.47 212.95 m
1.68 0 l
1.68 0 l
1.68 0 l
1.67 0 l
1.68 0 l
1.68 0 l
1.68 0 l
1.68 0 l
1.68 0 l
1.68 0 l
1.68 0 l
1.68 0 l
1.68 0.01 l
1.68 0.02 l
1.68 0.03 l
1.68 0.05 l
1.68 0.07 l
1.67 0.11 l
1.68 0.15 l
1.68 0.20 l
1.68 0.25 l
1.68 0.31 l
1.68 0.38 l
1.68 0.46 l
1.68 0.53 l
1.68 0.61 l
1.68 0.70 l
1.68 0.77 l
1.68 0.86 l
1.68 0.95 l
1.68 1.02 l
1.67 1.11 l
1.68 1.18 l
1.68 1.25 l
1.68 1.33 l
1.68 1.39 l
1.68 1.45 l
1.68 1.51 l
1.68 1.56 l
1.68 1.62 l
1.68 1.66 l
1.68 1.69 l
1.68 1.74 l
1.68 1.77 l
1.68 1.79 l
1.67 1.82 l
1.68 1.84 l
1.68 1.86 l
1.68 1.87 l
1.68 1.88 l
1.68 1.88 l
1.68 1.89 l
1.68 1.90 l
1.68 1.89 l
1.68 1.88 l
1.68 1.88 l
1.68 1.88 l
1.68 1.86 l
1.68 1.85 l
1.67 1.83 l
1.68 1.82 l
1.68 1.81 l
1.68 1.78 l
1.68 1.77 l
1.68 1.74 l
1.68 1.73 l
1.68 1.70 l
1.68 1.68 l
1.68 1.65 l
1.68 1.63 l
1.68 1.61 l
1.68 1.58 l
1.68 1.55 l
1.67 1.53 l
1.68 1.50 l
1.68 1.48 l
1.68 1.45 l
1.68 1.42 l
1.68 1.39 l
1.68 1.37 l
1.68 1.34 l
1.68 1.32 l
1.68 1.28 l
1.68 1.26 l
1.68 1.23 l
1.68 1.21 l
1.68 1.18 l
1.67 1.15 l
1.68 1.13 l
1.68 1.10 l
1.68 1.08 l
1.68 1.05 l
1.68 1.02 l
1.68 1.00 l
1.68 0.98 l
1.68 0.95 l
1.68 0.93 l
1.68 0.90 l
1.68 0.88 l
211.40 323.53 lineto
1.67 0.83 l
1.68 0.82 l
1.68 0.79 l
1.68 0.76 l
1.68 0.75 l
1.68 0.73 l
1.68 0.70 l
1.68 0.69 l
1.68 0.66 l
1.68 0.65 l
1.68 0.62 l
1.68 0.61 l
1.68 0.59 l
1.68 0.57 l
1.67 0.55 l
1.68 0.53 l
1.68 0.52 l
1.68 0.50 l
1.68 0.48 l
1.68 0.46 l
1.68 0.45 l
1.68 0.44 l
1.68 0.41 l
1.68 0.41 l
1.68 0.38 l
1.68 0.38 l
1.68 0.35 l
1.68 0.35 l
1.67 0.33 l
1.68 0.31 l
1.68 0.31 l
1.68 0.29 l
1.68 0.27 l
1.68 0.27 l
1.68 0.25 l
1.68 0.24 l
1.68 0.23 l
1.68 0.21 l
1.68 0.21 l
1.68 0.19 l
1.68 0.19 l
1.68 0.17 l
1.67 0.16 l
1.68 0.15 l
1.68 0.14 l
1.68 0.13 l
1.68 0.13 l
1.68 0.11 l
1.68 0.10 l
1.68 0.10 l
1.68 0.08 l
1.68 0.08 l
1.68 0.06 l
1.68 0.06 l
1.68 0.06 l
1.68 0.04 l
1.67 0.04 l
1.68 0.02 l
1.68 0.02 l
1.68 0.02 l
1.68 0 l
1.68 0 l
1.68 0 l
1.68 -0.02 l
1.68 -0.02 l
1.68 -0.03 l
1.68 -0.03 l
1.68 -0.04 l
1.68 -0.04 l
1.68 -0.06 l
1.67 -0.05 l
1.68 -0.07 l
1.68 -0.06 l
1.68 -0.08 l
1.68 -0.08 l
1.68 -0.08 l
1.68 -0.09 l
1.68 -0.09 l
1.68 -0.10 l
1.68 -0.11 l
1.68 -0.10 l
1.68 -0.12 l
1.68 -0.11 l
1.68 -0.12 l
1.67 -0.13 l
1.68 -0.13 l
o
1.07 setlinewidth
[ 2.13 2.13] 0 setdash
np
43.47 212.95 m
1.68 0 l
1.68 0 l
1.68 0 l
1.67 0 l
1.68 0 l
1.68 0 l
1.68 0 l
1.68 0 l
1.68 0 l
1.68 0 l
1.68 0 l
1.68 0.01 l
1.68 0.01 l
1.68 0.01 l
1.68 0.04 l
1.68 0.05 l
1.68 0.09 l
1.67 0.12 l
1.68 0.16 l
1.68 0.22 l
1.68 0.29 l
1.68 0.35 l
1.68 0.42 l
1.68 0.51 l
1.68 0.60 l
1.68 0.68 l
1.68 0.78 l
1.68 0.87 l
1.68 0.96 l
1.68 1.06 l
1.68 1.14 l
1.67 1.24 l
1.68 1.31 l
1.68 1.40 l
1.68 1.48 l
1.68 1.54 l
1.68 1.62 l
1.68 1.68 l
1.68 1.73 l
1.68 1.79 l
1.68 1.84 l
1.68 1.87 l
1.68 1.92 l
1.68 1.95 l
1.68 1.98 l
1.67 2.00 l
1.68 2.02 l
1.68 2.04 l
1.68 2.05 l
1.68 2.05 l
1.68 2.06 l
1.68 2.07 l
1.68 2.05 l
1.68 2.06 l
1.68 2.04 l
1.68 2.04 l
1.68 2.02 l
1.68 2.01 l
1.68 1.99 l
1.67 1.97 l
1.68 1.95 l
1.68 1.92 l
1.68 1.91 l
1.68 1.88 l
1.68 1.85 l
1.68 1.82 l
1.68 1.80 l
1.68 1.77 l
1.68 1.73 l
1.68 1.71 l
1.68 1.68 l
1.68 1.64 l
1.68 1.61 l
1.67 1.59 l
1.68 1.54 l
1.68 1.52 l
1.68 1.48 l
1.68 1.45 l
1.68 1.42 l
1.68 1.39 l
1.68 1.35 l
1.68 1.32 l
1.68 1.29 l
1.68 1.26 l
1.68 1.22 l
1.68 1.20 l
1.68 1.16 l
1.67 1.13 l
1.68 1.10 l
1.68 1.07 l
1.68 1.04 l
1.68 1.00 l
1.68 0.98 l
1.68 0.96 l
1.68 0.92 l
1.68 0.89 l
1.68 0.87 l
1.68 0.84 l
1.68 0.81 l
211.40 330.00 lineto
1.67 0.75 l
1.68 0.74 l
1.68 0.71 l
1.68 0.68 l
1.68 0.66 l
1.68 0.64 l
1.68 0.61 l
1.68 0.59 l
1.68 0.56 l
1.68 0.55 l
1.68 0.52 l
1.68 0.50 l
1.68 0.48 l
1.68 0.46 l
1.67 0.44 l
1.68 0.42 l
1.68 0.39 l
1.68 0.39 l
1.68 0.36 l
1.68 0.34 l
1.68 0.33 l
1.68 0.31 l
1.68 0.29 l
1.68 0.27 l
1.68 0.26 l
1.68 0.24 l
1.68 0.23 l
1.68 0.21 l
1.67 0.20 l
1.68 0.18 l
1.68 0.17 l
1.68 0.15 l
1.68 0.14 l
1.68 0.12 l
1.68 0.12 l
1.68 0.10 l
1.68 0.09 l
1.68 0.07 l
1.68 0.07 l
1.68 0.05 l
1.68 0.04 l
1.68 0.03 l
1.67 0.02 l
1.68 0 l
1.68 0 l
1.68 -0.01 l
1.68 -0.02 l
1.68 -0.03 l
1.68 -0.04 l
1.68 -0.05 l
1.68 -0.06 l
1.68 -0.07 l
1.68 -0.08 l
1.68 -0.08 l
1.68 -0.09 l
1.68 -0.11 l
1.67 -0.10 l
1.68 -0.12 l
1.68 -0.12 l
1.68 -0.13 l
1.68 -0.14 l
1.68 -0.14 l
1.68 -0.15 l
1.68 -0.16 l
1.68 -0.16 l
1.68 -0.17 l
1.68 -0.18 l
1.68 -0.18 l
1.68 -0.18 l
1.68 -0.19 l
1.67 -0.20 l
1.68 -0.20 l
1.68 -0.21 l
1.68 -0.21 l
1.68 -0.22 l
1.68 -0.22 l
1.68 -0.22 l
1.68 -0.23 l
1.68 -0.24 l
1.68 -0.23 l
1.68 -0.25 l
1.68 -0.24 l
1.68 -0.25 l
1.68 -0.25 l
1.67 -0.26 l
1.68 -0.26 l
o
0.4863 0.6824 0 srgb
1.07 setlinewidth
[] 0 setdash
np
42.63 212.95 m
0.84 0 l
0.84 0 l
0.84 0 l
0.84 0 l
0.84 0 l
0.84 0 l
0.84 0 l
0.84 0 l
0.83 0 l
0.84 0 l
0.84 0 l
0.84 0 l
0.84 0 l
0.84 0 l
0.84 0 l
0.84 0 l
0.84 0 l
0.84 0 l
0.84 0 l
0.84 0 l
0.84 0 l
0.84 0 l
0.84 0 l
0.84 0.01 l
0.84 0 l
0.84 0.01 l
0.84 0 l
0.84 0.02 l
0.84 0.01 l
0.84 0.02 l
0.84 0.03 l
0.84 0.04 l
0.84 0.04 l
0.84 0.06 l
0.84 0.07 l
0.84 0.08 l
0.83 0.09 l
0.84 0.11 l
0.84 0.13 l
0.84 0.15 l
0.84 0.16 l
0.84 0.19 l
0.84 0.21 l
0.84 0.24 l
0.84 0.26 l
0.84 0.29 l
0.84 0.31 l
0.84 0.34 l
0.84 0.38 l
0.84 0.39 l
0.84 0.43 l
0.84 0.46 l
0.84 0.49 l
0.84 0.52 l
0.84 0.55 l
0.84 0.58 l
0.84 0.61 l
0.84 0.64 l
0.84 0.67 l
0.84 0.70 l
0.84 0.73 l
0.84 0.75 l
0.84 0.78 l
0.84 0.82 l
0.83 0.83 l
0.84 0.87 l
0.84 0.88 l
0.84 0.92 l
0.84 0.93 l
0.84 0.96 l
0.84 0.98 l
0.84 1.00 l
0.84 1.03 l
0.84 1.04 l
0.84 1.06 l
0.84 1.07 l
0.84 1.10 l
0.84 1.11 l
0.84 1.12 l
0.84 1.14 l
0.84 1.15 l
0.84 1.16 l
0.84 1.17 l
0.84 1.18 l
0.84 1.20 l
0.84 1.20 l
0.84 1.21 l
0.84 1.21 l
0.84 1.23 l
0.84 1.22 l
0.84 1.23 l
0.83 1.24 l
0.84 1.24 l
0.84 1.24 l
0.84 1.24 l
0.84 1.24 l
0.84 1.25 l
0.84 1.24 l
0.84 1.24 l
126.59 265.69 lineto
0.84 1.24 l
0.84 1.24 l
0.84 1.23 l
0.84 1.23 l
0.84 1.23 l
0.84 1.22 l
0.84 1.21 l
0.84 1.21 l
0.84 1.21 l
0.84 1.19 l
0.84 1.20 l
0.84 1.18 l
0.84 1.17 l
0.84 1.17 l
0.84 1.16 l
0.84 1.15 l
0.84 1.15 l
0.84 1.13 l
0.84 1.12 l
0.83 1.12 l
0.84 1.10 l
0.84 1.10 l
0.84 1.08 l
0.84 1.08 l
0.84 1.06 l
0.84 1.05 l
0.84 1.04 l
0.84 1.03 l
0.84 1.02 l
0.84 1.01 l
0.84 1.00 l
0.84 0.98 l
0.84 0.97 l
0.84 0.96 l
0.84 0.95 l
0.84 0.94 l
0.84 0.92 l
0.84 0.91 l
0.84 0.90 l
0.84 0.89 l
0.84 0.88 l
0.84 0.86 l
0.84 0.85 l
0.84 0.84 l
0.84 0.83 l
0.84 0.81 l
0.84 0.80 l
0.83 0.79 l
0.84 0.78 l
0.84 0.76 l
0.84 0.75 l
0.84 0.74 l
0.84 0.73 l
0.84 0.71 l
0.84 0.70 l
0.84 0.69 l
0.84 0.68 l
0.84 0.67 l
0.84 0.65 l
0.84 0.64 l
0.84 0.63 l
0.84 0.62 l
0.84 0.61 l
0.84 0.59 l
0.84 0.58 l
0.84 0.57 l
0.84 0.56 l
0.84 0.55 l
0.84 0.54 l
0.84 0.52 l
0.84 0.51 l
0.84 0.51 l
0.84 0.49 l
0.84 0.48 l
0.84 0.47 l
0.83 0.45 l
0.84 0.45 l
0.84 0.44 l
0.84 0.43 l
0.84 0.41 l
0.84 0.41 l
0.84 0.39 l
0.84 0.39 l
0.84 0.37 l
0.84 0.36 l
0.84 0.36 l
0.84 0.34 l
0.84 0.34 l
0.84 0.32 l
0.84 0.32 l
0.84 0.31 l
0.84 0.29 l
0.84 0.29 l
0.84 0.28 l
0.84 0.27 l
0.84 0.26 l
0.84 0.25 l
0.84 0.24 l
0.84 0.24 l
210.56 341.26 lineto
0.84 0.22 l
0.84 0.21 l
0.83 0.20 l
0.84 0.19 l
0.84 0.18 l
0.84 0.18 l
0.84 0.16 l
0.84 0.16 l
0.84 0.16 l
0.84 0.14 l
0.84 0.14 l
0.84 0.13 l
0.84 0.12 l
0.84 0.11 l
0.84 0.11 l
0.84 0.10 l
0.84 0.09 l
0.84 0.09 l
0.84 0.08 l
0.84 0.07 l
0.84 0.07 l
0.84 0.06 l
0.84 0.05 l
0.84 0.05 l
0.84 0.04 l
0.84 0.03 l
0.84 0.03 l
0.84 0.02 l
0.84 0.02 l
0.84 0.01 l
0.83 0 l
0.84 0 l
0.84 0 l
0.84 -0.02 l
0.84 -0.01 l
0.84 -0.03 l
0.84 -0.03 l
0.84 -0.03 l
0.84 -0.04 l
0.84 -0.04 l
0.84 -0.05 l
0.84 -0.06 l
0.84 -0.06 l
0.84 -0.06 l
0.84 -0.07 l
0.84 -0.07 l
0.84 -0.08 l
0.84 -0.08 l
0.84 -0.09 l
0.84 -0.09 l
0.84 -0.10 l
0.84 -0.10 l
0.84 -0.10 l
0.84 -0.11 l
0.84 -0.11 l
0.84 -0.12 l
0.84 -0.12 l
0.84 -0.12 l
0.83 -0.13 l
0.84 -0.13 l
0.84 -0.14 l
0.84 -0.13 l
0.84 -0.15 l
0.84 -0.14 l
0.84 -0.15 l
0.84 -0.15 l
0.84 -0.16 l
0.84 -0.16 l
0.84 -0.16 l
0.84 -0.17 l
0.84 -0.17 l
0.84 -0.17 l
0.84 -0.17 l
0.84 -0.18 l
0.84 -0.18 l
0.84 -0.18 l
0.84 -0.19 l
0.84 -0.19 l
0.84 -0.19 l
0.84 -0.19 l
0.84 -0.20 l
0.84 -0.20 l
0.84 -0.20 l
0.84 -0.20 l
0.84 -0.21 l
0.84 -0.21 l
0.83 -0.21 l
0.84 -0.21 l
0.84 -0.22 l
0.84 -0.22 l
0.84 -0.22 l
0.84 -0.22 l
0.84 -0.22 l
0.84 -0.23 l
0.84 -0.23 l
0.84 -0.22 l
0.84 -0.24 l
0.84 -0.23 l
0.84 -0.23 l
294.52 334.75 lineto
0.84 -0.24 l
0.84 -0.24 l
0.84 -0.24 l
0.84 -0.25 l
0.84 -0.24 l
0.84 -0.25 l
0.84 -0.25 l
0.84 -0.25 l
0.84 -0.25 l
0.84 -0.25 l
0.84 -0.25 l
0.84 -0.26 l
0.84 -0.25 l
0.83 -0.26 l
0.84 -0.26 l
0.84 -0.26 l
0.84 -0.26 l
0.84 -0.26 l
0.84 -0.27 l
0.84 -0.26 l
0.84 -0.27 l
0.84 -0.26 l
0.84 -0.27 l
0.84 -0.27 l
0.84 -0.27 l
0.84 -0.27 l
0.84 -0.27 l
0.84 -0.27 l
0.84 -0.28 l
0.84 -0.27 l
0.84 -0.28 l
0.84 -0.27 l
0.84 -0.28 l
0.84 -0.27 l
0.84 -0.28 l
0.84 -0.28 l
0.84 -0.28 l
0.84 -0.28 l
0.84 -0.28 l
0.84 -0.28 l
0.84 -0.28 l
0.83 -0.28 l
0.84 -0.28 l
0.84 -0.29 l
0.84 -0.28 l
0.84 -0.28 l
0.84 -0.29 l
0.84 -0.28 l
0.84 -0.29 l
0.84 -0.28 l
0.84 -0.29 l
0.84 -0.28 l
0.84 -0.29 l
0.84 -0.29 l
0.84 -0.28 l
0.84 -0.29 l
0.84 -0.29 l
0.84 -0.28 l
0.84 -0.29 l
0.84 -0.29 l
0.84 -0.29 l
0.84 -0.28 l
0.84 -0.29 l
0.84 -0.29 l
0.84 -0.29 l
0.84 -0.29 l
0.84 -0.29 l
0.84 -0.29 l
0.84 -0.28 l
0.83 -0.29 l
0.84 -0.29 l
0.84 -0.29 l
0.84 -0.29 l
0.84 -0.29 l
o
1.07 setlinewidth
[ 2.13 2.13] 0 setdash
np
42.63 212.95 m
0.84 0 l
0.84 0 l
0.84 0 l
0.84 0 l
0.84 0 l
0.84 0 l
0.84 0 l
0.84 0 l
0.83 0 l
0.84 0 l
0.84 0 l
0.84 0 l
0.84 0 l
0.84 0 l
0.84 0 l
0.84 0 l
0.84 0 l
0.84 0 l
0.84 0 l
0.84 0 l
0.84 0 l
0.84 0 l
0.84 0 l
0.84 0.01 l
0.84 0 l
0.84 0.01 l
0.84 0.02 l
0.84 0.01 l
0.84 0.03 l
0.84 0.03 l
0.84 0.04 l
0.84 0.05 l
0.84 0.06 l
0.84 0.08 l
0.84 0.09 l
0.84 0.11 l
0.83 0.14 l
0.84 0.15 l
0.84 0.18 l
0.84 0.20 l
0.84 0.24 l
0.84 0.26 l
0.84 0.29 l
0.84 0.32 l
0.84 0.36 l
0.84 0.39 l
0.84 0.43 l
0.84 0.47 l
0.84 0.50 l
0.84 0.54 l
0.84 0.57 l
0.84 0.62 l
0.84 0.65 l
0.84 0.70 l
0.84 0.73 l
0.84 0.76 l
0.84 0.81 l
0.84 0.84 l
0.84 0.88 l
0.84 0.92 l
0.84 0.94 l
0.84 0.99 l
0.84 1.01 l
0.84 1.05 l
0.83 1.08 l
0.84 1.10 l
0.84 1.14 l
0.84 1.16 l
0.84 1.19 l
0.84 1.21 l
0.84 1.24 l
0.84 1.25 l
0.84 1.28 l
0.84 1.30 l
0.84 1.31 l
0.84 1.34 l
0.84 1.34 l
0.84 1.37 l
0.84 1.37 l
0.84 1.39 l
0.84 1.39 l
0.84 1.41 l
0.84 1.41 l
0.84 1.42 l
0.84 1.43 l
0.84 1.43 l
0.84 1.43 l
0.84 1.44 l
0.84 1.43 l
0.84 1.44 l
0.84 1.44 l
0.83 1.43 l
0.84 1.43 l
0.84 1.43 l
0.84 1.43 l
0.84 1.42 l
0.84 1.41 l
0.84 1.41 l
0.84 1.40 l
126.59 277.93 lineto
0.84 1.38 l
0.84 1.38 l
0.84 1.36 l
0.84 1.36 l
0.84 1.34 l
0.84 1.34 l
0.84 1.32 l
0.84 1.31 l
0.84 1.30 l
0.84 1.28 l
0.84 1.27 l
0.84 1.26 l
0.84 1.24 l
0.84 1.23 l
0.84 1.21 l
0.84 1.20 l
0.84 1.18 l
0.84 1.17 l
0.84 1.15 l
0.83 1.14 l
0.84 1.12 l
0.84 1.10 l
0.84 1.09 l
0.84 1.07 l
0.84 1.06 l
0.84 1.03 l
0.84 1.02 l
0.84 1.01 l
0.84 0.99 l
0.84 0.97 l
0.84 0.95 l
0.84 0.94 l
0.84 0.92 l
0.84 0.90 l
0.84 0.89 l
0.84 0.86 l
0.84 0.86 l
0.84 0.83 l
0.84 0.82 l
0.84 0.80 l
0.84 0.79 l
0.84 0.76 l
0.84 0.76 l
0.84 0.73 l
0.84 0.72 l
0.84 0.70 l
0.84 0.69 l
0.83 0.67 l
0.84 0.65 l
0.84 0.64 l
0.84 0.62 l
0.84 0.61 l
0.84 0.59 l
0.84 0.58 l
0.84 0.56 l
0.84 0.54 l
0.84 0.53 l
0.84 0.52 l
0.84 0.50 l
0.84 0.48 l
0.84 0.48 l
0.84 0.45 l
0.84 0.45 l
0.84 0.43 l
0.84 0.41 l
0.84 0.40 l
0.84 0.39 l
0.84 0.38 l
0.84 0.36 l
0.84 0.35 l
0.84 0.33 l
0.84 0.32 l
0.84 0.31 l
0.84 0.30 l
0.84 0.29 l
0.83 0.27 l
0.84 0.26 l
0.84 0.25 l
0.84 0.24 l
0.84 0.23 l
0.84 0.21 l
0.84 0.20 l
0.84 0.20 l
0.84 0.18 l
0.84 0.17 l
0.84 0.16 l
0.84 0.15 l
0.84 0.14 l
0.84 0.13 l
0.84 0.12 l
0.84 0.11 l
0.84 0.10 l
0.84 0.09 l
0.84 0.08 l
0.84 0.07 l
0.84 0.06 l
0.84 0.05 l
0.84 0.05 l
0.84 0.04 l
210.56 344.45 lineto
0.84 0.02 l
0.84 0.01 l
0.83 0 l
0.84 0 l
0.84 -0.01 l
0.84 -0.03 l
0.84 -0.02 l
0.84 -0.04 l
0.84 -0.04 l
0.84 -0.06 l
0.84 -0.05 l
0.84 -0.07 l
0.84 -0.07 l
0.84 -0.08 l
0.84 -0.09 l
0.84 -0.09 l
0.84 -0.10 l
0.84 -0.10 l
0.84 -0.11 l
0.84 -0.12 l
0.84 -0.12 l
0.84 -0.13 l
0.84 -0.13 l
0.84 -0.14 l
0.84 -0.15 l
0.84 -0.15 l
0.84 -0.16 l
0.84 -0.16 l
0.84 -0.16 l
0.84 -0.18 l
0.83 -0.17 l
0.84 -0.18 l
0.84 -0.19 l
0.84 -0.19 l
0.84 -0.20 l
0.84 -0.20 l
0.84 -0.20 l
0.84 -0.21 l
0.84 -0.21 l
0.84 -0.22 l
0.84 -0.22 l
0.84 -0.22 l
0.84 -0.23 l
0.84 -0.23 l
0.84 -0.24 l
0.84 -0.24 l
0.84 -0.24 l
0.84 -0.25 l
0.84 -0.25 l
0.84 -0.25 l
0.84 -0.25 l
0.84 -0.26 l
0.84 -0.27 l
0.84 -0.26 l
0.84 -0.27 l
0.84 -0.27 l
0.84 -0.27 l
0.84 -0.28 l
0.83 -0.28 l
0.84 -0.28 l
0.84 -0.28 l
0.84 -0.29 l
0.84 -0.29 l
0.84 -0.29 l
0.84 -0.30 l
0.84 -0.29 l
0.84 -0.30 l
0.84 -0.30 l
0.84 -0.30 l
0.84 -0.30 l
0.84 -0.31 l
0.84 -0.31 l
0.84 -0.31 l
0.84 -0.31 l
0.84 -0.31 l
0.84 -0.32 l
0.84 -0.31 l
0.84 -0.32 l
0.84 -0.32 l
0.84 -0.32 l
0.84 -0.32 l
0.84 -0.33 l
0.84 -0.32 l
0.84 -0.33 l
0.84 -0.33 l
0.84 -0.32 l
0.83 -0.33 l
0.84 -0.33 l
0.84 -0.34 l
0.84 -0.33 l
0.84 -0.33 l
0.84 -0.34 l
0.84 -0.33 l
0.84 -0.34 l
0.84 -0.34 l
0.84 -0.34 l
0.84 -0.33 l
0.84 -0.34 l
0.84 -0.34 l
294.52 322.15 lineto
0.84 -0.34 l
0.84 -0.34 l
0.84 -0.34 l
0.84 -0.35 l
0.84 -0.34 l
0.84 -0.34 l
0.84 -0.35 l
0.84 -0.34 l
0.84 -0.35 l
0.84 -0.34 l
0.84 -0.35 l
0.84 -0.35 l
0.84 -0.34 l
0.83 -0.35 l
0.84 -0.35 l
0.84 -0.34 l
0.84 -0.35 l
0.84 -0.35 l
0.84 -0.35 l
0.84 -0.34 l
0.84 -0.35 l
0.84 -0.35 l
0.84 -0.35 l
0.84 -0.34 l
0.84 -0.35 l
0.84 -0.35 l
0.84 -0.35 l
0.84 -0.34 l
0.84 -0.35 l
0.84 -0.35 l
0.84 -0.34 l
0.84 -0.35 l
0.84 -0.35 l
0.84 -0.34 l
0.84 -0.35 l
0.84 -0.35 l
0.84 -0.34 l
0.84 -0.35 l
0.84 -0.34 l
0.84 -0.35 l
0.84 -0.34 l
0.83 -0.34 l
0.84 -0.35 l
0.84 -0.34 l
0.84 -0.34 l
0.84 -0.35 l
0.84 -0.34 l
0.84 -0.34 l
0.84 -0.34 l
0.84 -0.34 l
0.84 -0.34 l
0.84 -0.34 l
0.84 -0.34 l
0.84 -0.34 l
0.84 -0.34 l
0.84 -0.33 l
0.84 -0.34 l
0.84 -0.34 l
0.84 -0.33 l
0.84 -0.34 l
0.84 -0.33 l
0.84 -0.34 l
0.84 -0.33 l
0.84 -0.33 l
0.84 -0.33 l
0.84 -0.34 l
0.84 -0.33 l
0.84 -0.33 l
0.84 -0.33 l
0.83 -0.32 l
0.84 -0.33 l
0.84 -0.33 l
0.84 -0.33 l
0.84 -0.32 l
o
0 0.7490 0.7686 srgb
1.07 setlinewidth
[] 0 setdash
np
42.41 212.95 m
0.62 0 l
0.62 0 l
0.63 0 l
0.62 0 l
0.62 0 l
0.62 0 l
0.62 0 l
0.63 0 l
0.62 0 l
0.62 0 l
0.62 0 l
0.62 0 l
0.63 0 l
0.62 0 l
0.62 0 l
0.62 0 l
0.62 0 l
0.63 0 l
0.62 0 l
0.62 0 l
0.62 0 l
0.62 0 l
0.63 0 l
0.62 0 l
0.62 0 l
0.62 0 l
0.62 0 l
0.63 0 l
0.62 0 l
0.62 0 l
0.62 0 l
0.62 0.01 l
0.62 0 l
0.63 0.01 l
0.62 0 l
0.62 0.01 l
0.62 0.02 l
0.62 0.01 l
0.63 0.02 l
0.62 0.03 l
0.62 0.03 l
0.62 0.03 l
0.62 0.04 l
0.63 0.05 l
0.62 0.06 l
0.62 0.07 l
0.62 0.08 l
0.62 0.09 l
0.63 0.10 l
0.62 0.12 l
0.62 0.13 l
0.62 0.15 l
0.62 0.16 l
0.63 0.18 l
0.62 0.19 l
0.62 0.22 l
0.62 0.24 l
0.62 0.25 l
0.63 0.28 l
0.62 0.30 l
0.62 0.32 l
0.62 0.34 l
0.62 0.36 l
0.63 0.39 l
0.62 0.42 l
0.62 0.44 l
0.62 0.46 l
0.62 0.48 l
0.63 0.52 l
0.62 0.53 l
0.62 0.56 l
0.62 0.59 l
0.62 0.61 l
0.63 0.64 l
0.62 0.66 l
0.62 0.68 l
0.62 0.71 l
0.62 0.74 l
0.62 0.75 l
0.63 0.78 l
0.62 0.80 l
0.62 0.83 l
0.62 0.84 l
0.62 0.87 l
0.63 0.89 l
0.62 0.91 l
0.62 0.92 l
0.62 0.95 l
0.62 0.97 l
0.63 0.98 l
0.62 1.00 l
0.62 1.01 l
0.62 1.03 l
0.62 1.05 l
0.63 1.06 l
0.62 1.08 l
0.62 1.08 l
0.62 1.10 l
0.62 1.12 l
104.61 246.42 lineto
0.62 1.13 l
0.62 1.14 l
0.62 1.16 l
0.62 1.16 l
0.63 1.16 l
0.62 1.18 l
0.62 1.18 l
0.62 1.18 l
0.62 1.19 l
0.63 1.20 l
0.62 1.20 l
0.62 1.20 l
0.62 1.20 l
0.62 1.21 l
0.63 1.20 l
0.62 1.21 l
0.62 1.21 l
0.62 1.21 l
0.62 1.20 l
0.63 1.21 l
0.62 1.20 l
0.62 1.20 l
0.62 1.20 l
0.62 1.19 l
0.62 1.19 l
0.63 1.19 l
0.62 1.18 l
0.62 1.18 l
0.62 1.17 l
0.62 1.16 l
0.63 1.16 l
0.62 1.15 l
0.62 1.14 l
0.62 1.14 l
0.62 1.13 l
0.63 1.12 l
0.62 1.11 l
0.62 1.11 l
0.62 1.09 l
0.62 1.09 l
0.63 1.08 l
0.62 1.07 l
0.62 1.05 l
0.62 1.05 l
0.62 1.04 l
0.63 1.03 l
0.62 1.01 l
0.62 1.01 l
0.62 0.99 l
0.62 0.98 l
0.63 0.98 l
0.62 0.96 l
0.62 0.95 l
0.62 0.93 l
0.62 0.93 l
0.63 0.91 l
0.62 0.90 l
0.62 0.89 l
0.62 0.88 l
0.62 0.87 l
0.63 0.85 l
0.62 0.84 l
0.62 0.83 l
0.62 0.81 l
0.62 0.81 l
0.62 0.79 l
0.63 0.78 l
0.62 0.76 l
0.62 0.75 l
0.62 0.74 l
0.62 0.73 l
0.63 0.72 l
0.62 0.70 l
0.62 0.69 l
0.62 0.68 l
0.62 0.66 l
0.63 0.66 l
0.62 0.64 l
0.62 0.62 l
0.62 0.62 l
0.62 0.60 l
0.63 0.59 l
0.62 0.58 l
0.62 0.57 l
0.62 0.55 l
0.62 0.54 l
0.63 0.53 l
0.62 0.52 l
0.62 0.51 l
0.62 0.49 l
0.62 0.48 l
0.63 0.47 l
0.62 0.46 l
0.62 0.45 l
0.62 0.44 l
0.62 0.42 l
0.63 0.41 l
0.62 0.41 l
0.62 0.39 l
166.80 337.23 lineto
0.62 0.37 l
0.63 0.36 l
0.62 0.34 l
0.62 0.34 l
0.62 0.33 l
0.62 0.31 l
0.63 0.31 l
0.62 0.29 l
0.62 0.29 l
0.62 0.27 l
0.62 0.27 l
0.62 0.25 l
0.63 0.24 l
0.62 0.24 l
0.62 0.23 l
0.62 0.21 l
0.62 0.21 l
0.63 0.19 l
0.62 0.19 l
0.62 0.18 l
0.62 0.17 l
0.62 0.16 l
0.63 0.15 l
0.62 0.15 l
0.62 0.13 l
0.62 0.13 l
0.62 0.12 l
0.63 0.11 l
0.62 0.10 l
0.62 0.09 l
0.62 0.09 l
0.62 0.07 l
0.63 0.07 l
0.62 0.07 l
0.62 0.05 l
0.62 0.05 l
0.62 0.04 l
0.63 0.03 l
0.62 0.02 l
0.62 0.02 l
0.62 0.01 l
0.62 0 l
0.63 0 l
0.62 -0.01 l
0.62 -0.02 l
0.62 -0.02 l
0.62 -0.03 l
0.63 -0.03 l
0.62 -0.05 l
0.62 -0.04 l
0.62 -0.06 l
0.62 -0.06 l
0.63 -0.07 l
0.62 -0.07 l
0.62 -0.08 l
0.62 -0.08 l
0.62 -0.09 l
0.62 -0.09 l
0.63 -0.10 l
0.62 -0.11 l
0.62 -0.11 l
0.62 -0.12 l
0.62 -0.12 l
0.63 -0.12 l
0.62 -0.13 l
0.62 -0.14 l
0.62 -0.14 l
0.62 -0.14 l
0.63 -0.15 l
0.62 -0.16 l
0.62 -0.16 l
0.62 -0.16 l
0.62 -0.17 l
0.63 -0.17 l
0.62 -0.17 l
0.62 -0.18 l
0.62 -0.19 l
0.62 -0.18 l
0.63 -0.20 l
0.62 -0.19 l
0.62 -0.20 l
0.62 -0.20 l
0.62 -0.21 l
0.63 -0.21 l
0.62 -0.21 l
0.62 -0.22 l
0.62 -0.22 l
0.62 -0.22 l
0.63 -0.23 l
0.62 -0.23 l
0.62 -0.23 l
0.62 -0.23 l
0.62 -0.24 l
0.63 -0.24 l
0.62 -0.25 l
0.62 -0.25 l
0.62 -0.25 l
0.62 -0.25 l
0.63 -0.25 l
229.00 335.77 lineto
0.62 -0.26 l
0.62 -0.26 l
0.62 -0.27 l
0.62 -0.26 l
0.63 -0.27 l
0.62 -0.28 l
0.62 -0.27 l
0.62 -0.28 l
0.62 -0.27 l
0.63 -0.28 l
0.62 -0.29 l
0.62 -0.28 l
0.62 -0.29 l
0.62 -0.28 l
0.63 -0.29 l
0.62 -0.29 l
0.62 -0.30 l
0.62 -0.29 l
0.62 -0.30 l
0.63 -0.30 l
0.62 -0.30 l
0.62 -0.30 l
0.62 -0.30 l
0.62 -0.30 l
0.63 -0.31 l
0.62 -0.30 l
0.62 -0.31 l
0.62 -0.31 l
0.62 -0.31 l
0.63 -0.31 l
0.62 -0.32 l
0.62 -0.31 l
0.62 -0.31 l
0.62 -0.32 l
0.63 -0.32 l
0.62 -0.31 l
0.62 -0.32 l
0.62 -0.32 l
0.62 -0.32 l
0.63 -0.32 l
0.62 -0.33 l
0.62 -0.32 l
0.62 -0.32 l
0.62 -0.33 l
0.63 -0.32 l
0.62 -0.33 l
0.62 -0.33 l
0.62 -0.32 l
0.62 -0.33 l
0.62 -0.33 l
0.63 -0.33 l
0.62 -0.33 l
0.62 -0.33 l
0.62 -0.33 l
0.62 -0.33 l
0.63 -0.33 l
0.62 -0.33 l
0.62 -0.33 l
0.62 -0.33 l
0.62 -0.33 l
0.63 -0.34 l
0.62 -0.33 l
0.62 -0.33 l
0.62 -0.33 l
0.62 -0.34 l
0.63 -0.33 l
0.62 -0.33 l
0.62 -0.34 l
0.62 -0.33 l
0.62 -0.34 l
0.63 -0.33 l
0.62 -0.33 l
0.62 -0.34 l
0.62 -0.33 l
0.62 -0.33 l
0.63 -0.34 l
0.62 -0.33 l
0.62 -0.34 l
0.62 -0.33 l
0.62 -0.33 l
0.63 -0.34 l
0.62 -0.33 l
0.62 -0.33 l
0.62 -0.33 l
0.62 -0.34 l
0.63 -0.33 l
0.62 -0.33 l
0.62 -0.33 l
0.62 -0.33 l
0.62 -0.34 l
0.62 -0.33 l
0.63 -0.33 l
0.62 -0.33 l
0.62 -0.33 l
0.62 -0.33 l
0.62 -0.33 l
0.63 -0.33 l
0.62 -0.33 l
0.62 -0.32 l
291.19 304.09 lineto
0.62 -0.33 l
0.63 -0.33 l
0.62 -0.32 l
0.62 -0.33 l
0.62 -0.32 l
0.62 -0.33 l
0.63 -0.32 l
0.62 -0.33 l
0.62 -0.32 l
0.62 -0.33 l
0.62 -0.32 l
0.63 -0.32 l
0.62 -0.32 l
0.62 -0.32 l
0.62 -0.32 l
0.62 -0.32 l
0.63 -0.32 l
0.62 -0.32 l
0.62 -0.32 l
0.62 -0.32 l
0.62 -0.31 l
0.63 -0.32 l
0.62 -0.32 l
0.62 -0.31 l
0.62 -0.32 l
0.62 -0.31 l
0.63 -0.31 l
0.62 -0.32 l
0.62 -0.31 l
0.62 -0.31 l
0.62 -0.31 l
0.63 -0.31 l
0.62 -0.31 l
0.62 -0.31 l
0.62 -0.30 l
0.62 -0.31 l
0.62 -0.31 l
0.63 -0.30 l
0.62 -0.31 l
0.62 -0.30 l
0.62 -0.31 l
0.62 -0.30 l
0.63 -0.30 l
0.62 -0.30 l
0.62 -0.30 l
0.62 -0.30 l
0.62 -0.30 l
0.63 -0.30 l
0.62 -0.30 l
0.62 -0.29 l
0.62 -0.30 l
0.62 -0.29 l
0.63 -0.30 l
0.62 -0.29 l
0.62 -0.30 l
0.62 -0.29 l
0.62 -0.29 l
0.63 -0.29 l
0.62 -0.29 l
0.62 -0.29 l
0.62 -0.29 l
0.62 -0.28 l
0.63 -0.29 l
0.62 -0.28 l
0.62 -0.29 l
0.62 -0.28 l
0.62 -0.29 l
0.63 -0.28 l
0.62 -0.28 l
0.62 -0.28 l
0.62 -0.28 l
0.62 -0.28 l
0.63 -0.28 l
0.62 -0.27 l
0.62 -0.28 l
0.62 -0.28 l
0.62 -0.27 l
0.63 -0.27 l
0.62 -0.28 l
0.62 -0.27 l
0.62 -0.27 l
0.62 -0.27 l
0.62 -0.27 l
0.63 -0.27 l
0.62 -0.27 l
0.62 -0.27 l
0.62 -0.26 l
0.62 -0.27 l
0.63 -0.26 l
0.62 -0.27 l
0.62 -0.26 l
0.62 -0.26 l
0.62 -0.26 l
0.63 -0.26 l
0.62 -0.26 l
0.62 -0.26 l
0.62 -0.26 l
0.62 -0.25 l
0.63 -0.26 l
o
1.07 setlinewidth
[ 2.13 2.13] 0 setdash
np
42.41 212.95 m
0.62 0 l
0.62 0 l
0.63 0 l
0.62 0 l
0.62 0 l
0.62 0 l
0.62 0 l
0.63 0 l
0.62 0 l
0.62 0 l
0.62 0 l
0.62 0 l
0.63 0 l
0.62 0 l
0.62 0 l
0.62 0 l
0.62 0 l
0.63 0 l
0.62 0 l
0.62 0 l
0.62 0 l
0.62 0 l
0.63 0 l
0.62 0 l
0.62 0 l
0.62 0 l
0.62 0 l
0.63 0 l
0.62 0 l
0.62 0 l
0.62 0.01 l
0.62 0 l
0.62 0.01 l
0.63 0.01 l
0.62 0.01 l
0.62 0.02 l
0.62 0.02 l
0.62 0.02 l
0.63 0.03 l
0.62 0.04 l
0.62 0.05 l
0.62 0.05 l
0.62 0.07 l
0.63 0.08 l
0.62 0.09 l
0.62 0.11 l
0.62 0.12 l
0.62 0.14 l
0.63 0.15 l
0.62 0.18 l
0.62 0.20 l
0.62 0.22 l
0.62 0.24 l
0.63 0.27 l
0.62 0.29 l
0.62 0.32 l
0.62 0.35 l
0.62 0.37 l
0.63 0.40 l
0.62 0.44 l
0.62 0.46 l
0.62 0.49 l
0.62 0.52 l
0.63 0.56 l
0.62 0.58 l
0.62 0.62 l
0.62 0.65 l
0.62 0.68 l
0.63 0.71 l
0.62 0.75 l
0.62 0.77 l
0.62 0.81 l
0.62 0.83 l
0.63 0.87 l
0.62 0.89 l
0.62 0.92 l
0.62 0.95 l
0.62 0.98 l
0.62 1.01 l
0.63 1.03 l
0.62 1.05 l
0.62 1.08 l
0.62 1.11 l
0.62 1.12 l
0.63 1.15 l
0.62 1.17 l
0.62 1.18 l
0.62 1.21 l
0.62 1.22 l
0.63 1.24 l
0.62 1.26 l
0.62 1.27 l
0.62 1.29 l
0.62 1.29 l
0.63 1.31 l
0.62 1.32 l
0.62 1.33 l
0.62 1.34 l
0.62 1.35 l
104.61 256.98 lineto
0.62 1.36 l
0.62 1.37 l
0.62 1.37 l
0.62 1.37 l
0.63 1.37 l
0.62 1.38 l
0.62 1.38 l
0.62 1.37 l
0.62 1.38 l
0.63 1.37 l
0.62 1.38 l
0.62 1.37 l
0.62 1.36 l
0.62 1.36 l
0.63 1.36 l
0.62 1.35 l
0.62 1.34 l
0.62 1.34 l
0.62 1.33 l
0.63 1.32 l
0.62 1.31 l
0.62 1.31 l
0.62 1.29 l
0.62 1.28 l
0.62 1.27 l
0.63 1.27 l
0.62 1.25 l
0.62 1.23 l
0.62 1.23 l
0.62 1.21 l
0.63 1.20 l
0.62 1.19 l
0.62 1.17 l
0.62 1.16 l
0.62 1.15 l
0.63 1.13 l
0.62 1.11 l
0.62 1.11 l
0.62 1.08 l
0.62 1.07 l
0.63 1.06 l
0.62 1.04 l
0.62 1.02 l
0.62 1.01 l
0.62 0.99 l
0.63 0.98 l
0.62 0.96 l
0.62 0.94 l
0.62 0.93 l
0.62 0.91 l
0.63 0.89 l
0.62 0.88 l
0.62 0.86 l
0.62 0.85 l
0.62 0.82 l
0.63 0.81 l
0.62 0.80 l
0.62 0.78 l
0.62 0.76 l
0.62 0.74 l
0.63 0.73 l
0.62 0.71 l
0.62 0.70 l
0.62 0.67 l
0.62 0.67 l
0.62 0.64 l
0.63 0.63 l
0.62 0.62 l
0.62 0.59 l
0.62 0.58 l
0.62 0.57 l
0.63 0.55 l
0.62 0.53 l
0.62 0.52 l
0.62 0.51 l
0.62 0.48 l
0.63 0.48 l
0.62 0.45 l
0.62 0.45 l
0.62 0.42 l
0.62 0.42 l
0.63 0.40 l
0.62 0.38 l
0.62 0.37 l
0.62 0.35 l
0.62 0.35 l
0.63 0.32 l
0.62 0.32 l
0.62 0.30 l
0.62 0.28 l
0.62 0.28 l
0.63 0.26 l
0.62 0.25 l
0.62 0.23 l
0.62 0.22 l
0.62 0.21 l
0.63 0.20 l
0.62 0.18 l
0.62 0.17 l
166.80 343.41 lineto
0.62 0.15 l
0.63 0.14 l
0.62 0.12 l
0.62 0.12 l
0.62 0.10 l
0.62 0.09 l
0.63 0.08 l
0.62 0.07 l
0.62 0.06 l
0.62 0.05 l
0.62 0.04 l
0.62 0.03 l
0.63 0.02 l
0.62 0 l
0.62 0 l
0.62 -0.01 l
0.62 -0.02 l
0.63 -0.03 l
0.62 -0.03 l
0.62 -0.05 l
0.62 -0.06 l
0.62 -0.06 l
0.63 -0.08 l
0.62 -0.08 l
0.62 -0.09 l
0.62 -0.10 l
0.62 -0.10 l
0.63 -0.12 l
0.62 -0.12 l
0.62 -0.13 l
0.62 -0.13 l
0.62 -0.15 l
0.63 -0.15 l
0.62 -0.16 l
0.62 -0.16 l
0.62 -0.17 l
0.62 -0.18 l
0.63 -0.19 l
0.62 -0.19 l
0.62 -0.20 l
0.62 -0.20 l
0.62 -0.21 l
0.63 -0.22 l
0.62 -0.22 l
0.62 -0.22 l
0.62 -0.24 l
0.62 -0.24 l
0.63 -0.24 l
0.62 -0.25 l
0.62 -0.25 l
0.62 -0.26 l
0.62 -0.27 l
0.63 -0.27 l
0.62 -0.27 l
0.62 -0.28 l
0.62 -0.28 l
0.62 -0.29 l
0.62 -0.29 l
0.63 -0.29 l
0.62 -0.30 l
0.62 -0.31 l
0.62 -0.31 l
0.62 -0.31 l
0.63 -0.31 l
0.62 -0.32 l
0.62 -0.32 l
0.62 -0.33 l
0.62 -0.33 l
0.63 -0.33 l
0.62 -0.34 l
0.62 -0.34 l
0.62 -0.34 l
0.62 -0.34 l
0.63 -0.35 l
0.62 -0.35 l
0.62 -0.36 l
0.62 -0.35 l
0.62 -0.36 l
0.63 -0.36 l
0.62 -0.36 l
0.62 -0.37 l
0.62 -0.37 l
0.62 -0.37 l
0.63 -0.37 l
0.62 -0.38 l
0.62 -0.37 l
0.62 -0.38 l
0.62 -0.38 l
0.63 -0.38 l
0.62 -0.39 l
0.62 -0.38 l
0.62 -0.39 l
0.62 -0.39 l
0.63 -0.39 l
0.62 -0.39 l
0.62 -0.39 l
0.62 -0.40 l
0.62 -0.39 l
0.63 -0.40 l
229.00 322.23 lineto
0.62 -0.39 l
0.62 -0.40 l
0.62 -0.41 l
0.62 -0.40 l
0.63 -0.40 l
0.62 -0.40 l
0.62 -0.41 l
0.62 -0.40 l
0.62 -0.41 l
0.63 -0.41 l
0.62 -0.40 l
0.62 -0.41 l
0.62 -0.41 l
0.62 -0.41 l
0.63 -0.41 l
0.62 -0.41 l
0.62 -0.41 l
0.62 -0.41 l
0.62 -0.41 l
0.63 -0.41 l
0.62 -0.41 l
0.62 -0.41 l
0.62 -0.41 l
0.62 -0.41 l
0.63 -0.41 l
0.62 -0.42 l
0.62 -0.41 l
0.62 -0.41 l
0.62 -0.41 l
0.63 -0.41 l
0.62 -0.41 l
0.62 -0.41 l
0.62 -0.41 l
0.62 -0.42 l
0.63 -0.41 l
0.62 -0.41 l
0.62 -0.41 l
0.62 -0.40 l
0.62 -0.41 l
0.63 -0.41 l
0.62 -0.41 l
0.62 -0.41 l
0.62 -0.41 l
0.62 -0.40 l
0.63 -0.41 l
0.62 -0.40 l
0.62 -0.41 l
0.62 -0.40 l
0.62 -0.41 l
0.62 -0.40 l
0.63 -0.40 l
0.62 -0.41 l
0.62 -0.40 l
0.62 -0.40 l
0.62 -0.40 l
0.63 -0.40 l
0.62 -0.40 l
0.62 -0.40 l
0.62 -0.39 l
0.62 -0.40 l
0.63 -0.39 l
0.62 -0.40 l
0.62 -0.39 l
0.62 -0.39 l
0.62 -0.40 l
0.63 -0.39 l
0.62 -0.39 l
0.62 -0.39 l
0.62 -0.38 l
0.62 -0.39 l
0.63 -0.39 l
0.62 -0.38 l
0.62 -0.39 l
0.62 -0.38 l
0.62 -0.38 l
0.63 -0.38 l
0.62 -0.38 l
0.62 -0.38 l
0.62 -0.38 l
0.62 -0.38 l
0.63 -0.37 l
0.62 -0.38 l
0.62 -0.37 l
0.62 -0.38 l
0.62 -0.37 l
0.63 -0.37 l
0.62 -0.37 l
0.62 -0.37 l
0.62 -0.36 l
0.62 -0.37 l
0.62 -0.36 l
0.63 -0.37 l
0.62 -0.36 l
0.62 -0.36 l
0.62 -0.36 l
0.62 -0.36 l
0.63 -0.36 l
0.62 -0.35 l
0.62 -0.36 l
291.19 282.81 lineto
0.62 -0.35 l
0.63 -0.35 l
0.62 -0.35 l
0.62 -0.35 l
0.62 -0.35 l
0.62 -0.35 l
0.63 -0.34 l
0.62 -0.35 l
0.62 -0.34 l
0.62 -0.34 l
0.62 -0.34 l
0.63 -0.34 l
0.62 -0.34 l
0.62 -0.33 l
0.62 -0.34 l
0.62 -0.33 l
0.63 -0.33 l
0.62 -0.34 l
0.62 -0.33 l
0.62 -0.32 l
0.62 -0.33 l
0.63 -0.33 l
0.62 -0.32 l
0.62 -0.33 l
0.62 -0.32 l
0.62 -0.32 l
0.63 -0.32 l
0.62 -0.32 l
0.62 -0.31 l
0.62 -0.32 l
0.62 -0.31 l
0.63 -0.32 l
0.62 -0.31 l
0.62 -0.31 l
0.62 -0.31 l
0.62 -0.30 l
0.62 -0.31 l
0.63 -0.31 l
0.62 -0.30 l
0.62 -0.30 l
0.62 -0.30 l
0.62 -0.30 l
0.63 -0.30 l
0.62 -0.30 l
0.62 -0.30 l
0.62 -0.29 l
0.62 -0.29 l
0.63 -0.30 l
0.62 -0.29 l
0.62 -0.29 l
0.62 -0.29 l
0.62 -0.28 l
0.63 -0.29 l
0.62 -0.28 l
0.62 -0.29 l
0.62 -0.28 l
0.62 -0.28 l
0.63 -0.28 l
0.62 -0.28 l
0.62 -0.27 l
0.62 -0.28 l
0.62 -0.27 l
0.63 -0.28 l
0.62 -0.27 l
0.62 -0.27 l
0.62 -0.27 l
0.62 -0.27 l
0.63 -0.26 l
0.62 -0.27 l
0.62 -0.26 l
0.62 -0.27 l
0.62 -0.26 l
0.63 -0.26 l
0.62 -0.26 l
0.62 -0.26 l
0.62 -0.25 l
0.62 -0.26 l
0.63 -0.25 l
0.62 -0.26 l
0.62 -0.25 l
0.62 -0.25 l
0.62 -0.25 l
0.62 -0.25 l
0.63 -0.24 l
0.62 -0.25 l
0.62 -0.25 l
0.62 -0.24 l
0.62 -0.24 l
0.63 -0.24 l
0.62 -0.24 l
0.62 -0.24 l
0.62 -0.24 l
0.62 -0.24 l
0.63 -0.23 l
0.62 -0.24 l
0.62 -0.23 l
0.62 -0.23 l
0.62 -0.23 l
0.63 -0.23 l
o
0.7804 0.4863 1 srgb
1.07 setlinewidth
[] 0 setdash
np
42.42 212.95 m
0.63 0 l
0.63 0 l
0.63 0 l
0.63 0 l
0.63 0 l
0.63 0 l
0.63 0 l
0.63 0 l
0.63 0 l
0.63 0 l
0.63 0 l
0.62 0 l
0.63 0 l
0.63 0 l
0.63 0 l
0.63 0 l
0.63 0 l
0.63 0 l
0.63 0 l
0.63 0 l
0.63 0 l
0.63 0 l
0.63 0 l
0.63 0 l
0.63 0 l
0.63 0 l
0.63 0 l
0.63 0 l
0.63 0 l
0.63 0.01 l
0.63 0 l
0.63 0.01 l
0.63 0.01 l
0.63 0.01 l
0.63 0.01 l
0.63 0.02 l
0.63 0.03 l
0.63 0.03 l
0.63 0.03 l
0.63 0.05 l
0.63 0.06 l
0.63 0.07 l
0.63 0.08 l
0.63 0.10 l
0.63 0.11 l
0.63 0.13 l
0.63 0.15 l
0.63 0.17 l
0.62 0.19 l
0.63 0.21 l
0.63 0.24 l
0.63 0.27 l
0.63 0.29 l
0.63 0.32 l
0.63 0.35 l
0.63 0.39 l
0.63 0.41 l
0.63 0.45 l
0.63 0.49 l
0.63 0.51 l
0.63 0.55 l
0.63 0.59 l
0.63 0.63 l
0.63 0.66 l
0.63 0.69 l
0.63 0.74 l
0.63 0.77 l
0.63 0.80 l
0.63 0.84 l
0.63 0.88 l
0.63 0.91 l
0.63 0.95 l
0.63 0.98 l
0.63 1.01 l
0.63 1.05 l
0.63 1.07 l
0.63 1.11 l
0.63 1.14 l
0.63 1.17 l
0.63 1.19 l
0.63 1.22 l
0.63 1.25 l
0.63 1.27 l
0.63 1.30 l
0.63 1.31 l
0.62 1.34 l
0.63 1.36 l
0.63 1.37 l
0.63 1.40 l
0.63 1.40 l
0.63 1.43 l
0.63 1.44 l
0.63 1.44 l
0.63 1.46 l
0.63 1.47 l
0.63 1.48 l
0.63 1.49 l
0.63 1.49 l
0.63 1.50 l
105.39 263.80 lineto
0.63 1.50 l
0.63 1.51 l
0.63 1.51 l
0.63 1.50 l
0.63 1.51 l
0.63 1.50 l
0.63 1.50 l
0.63 1.49 l
0.63 1.49 l
0.63 1.48 l
0.63 1.48 l
0.63 1.47 l
0.63 1.46 l
0.63 1.45 l
0.63 1.44 l
0.63 1.43 l
0.63 1.41 l
0.63 1.41 l
0.63 1.39 l
0.63 1.38 l
0.63 1.37 l
0.63 1.35 l
0.62 1.34 l
0.63 1.32 l
0.63 1.30 l
0.63 1.29 l
0.63 1.27 l
0.63 1.26 l
0.63 1.24 l
0.63 1.22 l
0.63 1.20 l
0.63 1.18 l
0.63 1.17 l
0.63 1.15 l
0.63 1.12 l
0.63 1.11 l
0.63 1.09 l
0.63 1.07 l
0.63 1.05 l
0.63 1.03 l
0.63 1.01 l
0.63 0.98 l
0.63 0.97 l
0.63 0.95 l
0.63 0.93 l
0.63 0.91 l
0.63 0.89 l
0.63 0.86 l
0.63 0.85 l
0.63 0.83 l
0.63 0.80 l
0.63 0.79 l
0.63 0.76 l
0.63 0.75 l
0.63 0.72 l
0.63 0.71 l
0.63 0.69 l
0.63 0.66 l
0.63 0.65 l
0.62 0.62 l
0.63 0.61 l
0.63 0.59 l
0.63 0.57 l
0.63 0.55 l
0.63 0.53 l
0.63 0.51 l
0.63 0.49 l
0.63 0.47 l
0.63 0.46 l
0.63 0.44 l
0.63 0.42 l
0.63 0.40 l
0.63 0.39 l
0.63 0.36 l
0.63 0.35 l
0.63 0.34 l
0.63 0.31 l
0.63 0.30 l
0.63 0.29 l
0.63 0.26 l
0.63 0.25 l
0.63 0.24 l
0.63 0.22 l
0.63 0.20 l
0.63 0.19 l
0.63 0.18 l
0.63 0.16 l
0.63 0.14 l
0.63 0.13 l
0.63 0.12 l
0.63 0.10 l
0.63 0.09 l
0.63 0.07 l
0.63 0.07 l
0.63 0.04 l
0.63 0.04 l
0.62 0.02 l
0.63 0.01 l
0.63 0 l
168.36 344.47 lineto
0.63 -0.03 l
0.63 -0.03 l
0.63 -0.05 l
0.63 -0.06 l
0.63 -0.07 l
0.63 -0.08 l
0.63 -0.10 l
0.63 -0.10 l
0.63 -0.11 l
0.63 -0.13 l
0.63 -0.13 l
0.63 -0.14 l
0.63 -0.15 l
0.63 -0.17 l
0.63 -0.17 l
0.63 -0.18 l
0.63 -0.18 l
0.63 -0.20 l
0.63 -0.21 l
0.63 -0.21 l
0.63 -0.22 l
0.63 -0.23 l
0.63 -0.24 l
0.63 -0.24 l
0.63 -0.26 l
0.63 -0.26 l
0.63 -0.26 l
0.63 -0.28 l
0.63 -0.28 l
0.63 -0.28 l
0.63 -0.30 l
0.63 -0.30 l
0.63 -0.30 l
0.62 -0.31 l
0.63 -0.32 l
0.63 -0.32 l
0.63 -0.33 l
0.63 -0.34 l
0.63 -0.34 l
0.63 -0.34 l
0.63 -0.35 l
0.63 -0.36 l
0.63 -0.35 l
0.63 -0.37 l
0.63 -0.37 l
0.63 -0.37 l
0.63 -0.38 l
0.63 -0.38 l
0.63 -0.38 l
0.63 -0.39 l
0.63 -0.39 l
0.63 -0.40 l
0.63 -0.40 l
0.63 -0.40 l
0.63 -0.41 l
0.63 -0.41 l
0.63 -0.41 l
0.63 -0.42 l
0.63 -0.41 l
0.63 -0.43 l
0.63 -0.42 l
0.63 -0.43 l
0.63 -0.43 l
0.63 -0.43 l
0.63 -0.43 l
0.63 -0.44 l
0.63 -0.43 l
0.63 -0.44 l
0.63 -0.45 l
0.63 -0.44 l
0.62 -0.45 l
0.63 -0.44 l
0.63 -0.45 l
0.63 -0.45 l
0.63 -0.45 l
0.63 -0.46 l
0.63 -0.45 l
0.63 -0.46 l
0.63 -0.46 l
0.63 -0.45 l
0.63 -0.46 l
0.63 -0.46 l
0.63 -0.46 l
0.63 -0.47 l
0.63 -0.46 l
0.63 -0.46 l
0.63 -0.46 l
0.63 -0.47 l
0.63 -0.46 l
0.63 -0.47 l
0.63 -0.47 l
0.63 -0.46 l
0.63 -0.47 l
0.63 -0.46 l
0.63 -0.47 l
0.63 -0.47 l
0.63 -0.46 l
0.63 -0.47 l
0.63 -0.47 l
231.34 310.28 lineto
0.63 -0.46 l
0.63 -0.47 l
0.63 -0.47 l
0.63 -0.46 l
0.63 -0.47 l
0.63 -0.46 l
0.63 -0.47 l
0.62 -0.46 l
0.63 -0.47 l
0.63 -0.46 l
0.63 -0.46 l
0.63 -0.47 l
0.63 -0.46 l
0.63 -0.46 l
0.63 -0.46 l
0.63 -0.46 l
0.63 -0.46 l
0.63 -0.46 l
0.63 -0.46 l
0.63 -0.45 l
0.63 -0.46 l
0.63 -0.46 l
0.63 -0.45 l
0.63 -0.45 l
0.63 -0.46 l
0.63 -0.45 l
0.63 -0.45 l
0.63 -0.45 l
0.63 -0.44 l
0.63 -0.45 l
0.63 -0.45 l
0.63 -0.44 l
0.63 -0.45 l
0.63 -0.44 l
0.63 -0.44 l
0.63 -0.44 l
0.63 -0.44 l
0.63 -0.44 l
0.63 -0.43 l
0.63 -0.44 l
0.63 -0.43 l
0.63 -0.44 l
0.63 -0.43 l
0.63 -0.43 l
0.62 -0.42 l
0.63 -0.43 l
0.63 -0.43 l
0.63 -0.42 l
0.63 -0.42 l
0.63 -0.43 l
0.63 -0.42 l
0.63 -0.41 l
0.63 -0.42 l
0.63 -0.42 l
0.63 -0.41 l
0.63 -0.41 l
0.63 -0.41 l
0.63 -0.41 l
0.63 -0.41 l
0.63 -0.41 l
0.63 -0.40 l
0.63 -0.40 l
0.63 -0.41 l
0.63 -0.40 l
0.63 -0.39 l
0.63 -0.40 l
0.63 -0.40 l
0.63 -0.39 l
0.63 -0.39 l
0.63 -0.39 l
0.63 -0.39 l
0.63 -0.39 l
0.63 -0.38 l
0.63 -0.39 l
0.63 -0.38 l
0.63 -0.38 l
0.63 -0.38 l
0.63 -0.38 l
0.63 -0.37 l
0.63 -0.38 l
0.63 -0.37 l
0.62 -0.37 l
0.63 -0.37 l
0.63 -0.37 l
0.63 -0.36 l
0.63 -0.37 l
0.63 -0.36 l
0.63 -0.36 l
0.63 -0.36 l
0.63 -0.35 l
0.63 -0.36 l
0.63 -0.35 l
0.63 -0.36 l
0.63 -0.35 l
0.63 -0.35 l
0.63 -0.34 l
0.63 -0.35 l
0.63 -0.34 l
0.63 -0.34 l
294.31 268.78 lineto
0.63 -0.34 l
0.63 -0.34 l
0.63 -0.34 l
0.63 -0.33 l
0.63 -0.33 l
0.63 -0.33 l
0.63 -0.33 l
0.63 -0.33 l
0.63 -0.32 l
0.63 -0.33 l
0.63 -0.32 l
0.63 -0.32 l
0.63 -0.32 l
0.63 -0.32 l
0.63 -0.31 l
0.63 -0.32 l
0.63 -0.31 l
0.63 -0.31 l
0.62 -0.31 l
0.63 -0.31 l
0.63 -0.30 l
0.63 -0.31 l
0.63 -0.30 l
0.63 -0.30 l
0.63 -0.30 l
0.63 -0.30 l
0.63 -0.29 l
0.63 -0.30 l
0.63 -0.29 l
0.63 -0.29 l
0.63 -0.29 l
0.63 -0.29 l
0.63 -0.29 l
0.63 -0.28 l
0.63 -0.29 l
0.63 -0.28 l
0.63 -0.28 l
0.63 -0.28 l
0.63 -0.27 l
0.63 -0.28 l
0.63 -0.27 l
0.63 -0.28 l
0.63 -0.27 l
0.63 -0.27 l
0.63 -0.27 l
0.63 -0.26 l
0.63 -0.27 l
0.63 -0.26 l
0.63 -0.26 l
0.63 -0.26 l
0.63 -0.26 l
0.63 -0.26 l
0.63 -0.26 l
0.63 -0.25 l
0.63 -0.26 l
0.62 -0.25 l
0.63 -0.25 l
0.63 -0.25 l
0.63 -0.24 l
0.63 -0.25 l
0.63 -0.25 l
0.63 -0.24 l
0.63 -0.24 l
0.63 -0.24 l
0.63 -0.24 l
0.63 -0.24 l
0.63 -0.23 l
0.63 -0.24 l
0.63 -0.23 l
0.63 -0.23 l
0.63 -0.24 l
0.63 -0.23 l
0.63 -0.22 l
0.63 -0.23 l
0.63 -0.23 l
0.63 -0.22 l
0.63 -0.22 l
0.63 -0.22 l
0.63 -0.22 l
0.63 -0.22 l
0.63 -0.22 l
0.63 -0.22 l
0.63 -0.21 l
0.63 -0.21 l
0.63 -0.22 l
0.63 -0.21 l
0.63 -0.21 l
0.63 -0.21 l
0.63 -0.20 l
0.63 -0.21 l
0.63 -0.20 l
0.63 -0.21 l
0.63 -0.20 l
0.62 -0.20 l
0.63 -0.20 l
0.63 -0.20 l
0.63 -0.20 l
0.63 -0.19 l
0.63 -0.20 l
o
1.07 setlinewidth
[ 2.13 2.13] 0 setdash
np
42.42 212.95 m
0.63 0 l
0.63 0 l
0.63 0 l
0.63 0 l
0.63 0 l
0.63 0 l
0.63 0 l
0.63 0 l
0.63 0 l
0.63 0 l
0.63 0 l
0.62 0 l
0.63 0 l
0.63 0 l
0.63 0 l
0.63 0 l
0.63 0 l
0.63 0 l
0.63 0 l
0.63 0 l
0.63 0 l
0.63 0 l
0.63 0 l
0.63 0 l
0.63 0 l
0.63 0 l
0.63 0 l
0.63 0 l
0.63 0.01 l
0.63 0 l
0.63 0.01 l
0.63 0.01 l
0.63 0.02 l
0.63 0.02 l
0.63 0.02 l
0.63 0.03 l
0.63 0.05 l
0.63 0.05 l
0.63 0.06 l
0.63 0.08 l
0.63 0.10 l
0.63 0.11 l
0.63 0.13 l
0.63 0.16 l
0.63 0.18 l
0.63 0.20 l
0.63 0.24 l
0.63 0.26 l
0.62 0.30 l
0.63 0.33 l
0.63 0.37 l
0.63 0.41 l
0.63 0.44 l
0.63 0.49 l
0.63 0.53 l
0.63 0.57 l
0.63 0.62 l
0.63 0.66 l
0.63 0.70 l
0.63 0.75 l
0.63 0.80 l
0.63 0.85 l
0.63 0.89 l
0.63 0.93 l
0.63 0.98 l
0.63 1.03 l
0.63 1.07 l
0.63 1.11 l
0.63 1.16 l
0.63 1.20 l
0.63 1.23 l
0.63 1.28 l
0.63 1.32 l
0.63 1.35 l
0.63 1.39 l
0.63 1.42 l
0.63 1.45 l
0.63 1.48 l
0.63 1.51 l
0.63 1.54 l
0.63 1.56 l
0.63 1.59 l
0.63 1.61 l
0.63 1.63 l
0.63 1.64 l
0.62 1.66 l
0.63 1.68 l
0.63 1.69 l
0.63 1.70 l
0.63 1.71 l
0.63 1.72 l
0.63 1.72 l
0.63 1.72 l
0.63 1.73 l
0.63 1.73 l
0.63 1.73 l
0.63 1.73 l
0.63 1.72 l
0.63 1.72 l
105.39 278.56 lineto
0.63 1.70 l
0.63 1.70 l
0.63 1.68 l
0.63 1.68 l
0.63 1.66 l
0.63 1.64 l
0.63 1.64 l
0.63 1.61 l
0.63 1.60 l
0.63 1.59 l
0.63 1.56 l
0.63 1.55 l
0.63 1.52 l
0.63 1.50 l
0.63 1.49 l
0.63 1.46 l
0.63 1.43 l
0.63 1.42 l
0.63 1.39 l
0.63 1.36 l
0.63 1.34 l
0.63 1.32 l
0.62 1.28 l
0.63 1.27 l
0.63 1.23 l
0.63 1.21 l
0.63 1.19 l
0.63 1.15 l
0.63 1.13 l
0.63 1.10 l
0.63 1.08 l
0.63 1.04 l
0.63 1.02 l
0.63 0.99 l
0.63 0.97 l
0.63 0.93 l
0.63 0.91 l
0.63 0.88 l
0.63 0.85 l
0.63 0.82 l
0.63 0.80 l
0.63 0.77 l
0.63 0.74 l
0.63 0.72 l
0.63 0.68 l
0.63 0.66 l
0.63 0.64 l
0.63 0.61 l
0.63 0.58 l
0.63 0.55 l
0.63 0.53 l
0.63 0.51 l
0.63 0.48 l
0.63 0.45 l
0.63 0.43 l
0.63 0.41 l
0.63 0.38 l
0.63 0.36 l
0.63 0.33 l
0.62 0.31 l
0.63 0.29 l
0.63 0.27 l
0.63 0.24 l
0.63 0.22 l
0.63 0.20 l
0.63 0.18 l
0.63 0.15 l
0.63 0.14 l
0.63 0.12 l
0.63 0.09 l
0.63 0.08 l
0.63 0.06 l
0.63 0.03 l
0.63 0.02 l
0.63 0 l
0.63 -0.01 l
0.63 -0.04 l
0.63 -0.05 l
0.63 -0.07 l
0.63 -0.08 l
0.63 -0.10 l
0.63 -0.12 l
0.63 -0.13 l
0.63 -0.15 l
0.63 -0.17 l
0.63 -0.17 l
0.63 -0.20 l
0.63 -0.20 l
0.63 -0.22 l
0.63 -0.24 l
0.63 -0.24 l
0.63 -0.26 l
0.63 -0.27 l
0.63 -0.29 l
0.63 -0.29 l
0.63 -0.31 l
0.62 -0.32 l
0.63 -0.33 l
0.63 -0.34 l
168.36 339.53 lineto
0.63 -0.36 l
0.63 -0.37 l
0.63 -0.38 l
0.63 -0.39 l
0.63 -0.40 l
0.63 -0.41 l
0.63 -0.42 l
0.63 -0.42 l
0.63 -0.43 l
0.63 -0.45 l
0.63 -0.44 l
0.63 -0.46 l
0.63 -0.46 l
0.63 -0.47 l
0.63 -0.48 l
0.63 -0.48 l
0.63 -0.49 l
0.63 -0.49 l
0.63 -0.50 l
0.63 -0.51 l
0.63 -0.51 l
0.63 -0.52 l
0.63 -0.52 l
0.63 -0.52 l
0.63 -0.54 l
0.63 -0.53 l
0.63 -0.54 l
0.63 -0.54 l
0.63 -0.55 l
0.63 -0.55 l
0.63 -0.56 l
0.63 -0.55 l
0.63 -0.56 l
0.62 -0.57 l
0.63 -0.56 l
0.63 -0.57 l
0.63 -0.58 l
0.63 -0.57 l
0.63 -0.58 l
0.63 -0.57 l
0.63 -0.58 l
0.63 -0.59 l
0.63 -0.58 l
0.63 -0.59 l
0.63 -0.58 l
0.63 -0.59 l
0.63 -0.59 l
0.63 -0.59 l
0.63 -0.59 l
0.63 -0.59 l
0.63 -0.60 l
0.63 -0.59 l
0.63 -0.59 l
0.63 -0.60 l
0.63 -0.59 l
0.63 -0.60 l
0.63 -0.59 l
0.63 -0.60 l
0.63 -0.59 l
0.63 -0.60 l
0.63 -0.59 l
0.63 -0.59 l
0.63 -0.60 l
0.63 -0.59 l
0.63 -0.59 l
0.63 -0.59 l
0.63 -0.59 l
0.63 -0.59 l
0.63 -0.59 l
0.63 -0.59 l
0.62 -0.59 l
0.63 -0.58 l
0.63 -0.59 l
0.63 -0.58 l
0.63 -0.58 l
0.63 -0.58 l
0.63 -0.58 l
0.63 -0.58 l
0.63 -0.58 l
0.63 -0.57 l
0.63 -0.57 l
0.63 -0.57 l
0.63 -0.57 l
0.63 -0.57 l
0.63 -0.57 l
0.63 -0.56 l
0.63 -0.56 l
0.63 -0.56 l
0.63 -0.56 l
0.63 -0.56 l
0.63 -0.55 l
0.63 -0.55 l
0.63 -0.55 l
0.63 -0.55 l
0.63 -0.54 l
0.63 -0.55 l
0.63 -0.54 l
0.63 -0.54 l
0.63 -0.53 l
231.34 285.10 lineto
0.63 -0.53 l
0.63 -0.53 l
0.63 -0.52 l
0.63 -0.53 l
0.63 -0.52 l
0.63 -0.52 l
0.63 -0.52 l
0.62 -0.51 l
0.63 -0.51 l
0.63 -0.51 l
0.63 -0.51 l
0.63 -0.50 l
0.63 -0.50 l
0.63 -0.50 l
0.63 -0.50 l
0.63 -0.49 l
0.63 -0.49 l
0.63 -0.49 l
0.63 -0.49 l
0.63 -0.48 l
0.63 -0.48 l
0.63 -0.48 l
0.63 -0.47 l
0.63 -0.47 l
0.63 -0.47 l
0.63 -0.47 l
0.63 -0.46 l
0.63 -0.46 l
0.63 -0.46 l
0.63 -0.46 l
0.63 -0.45 l
0.63 -0.45 l
0.63 -0.45 l
0.63 -0.44 l
0.63 -0.45 l
0.63 -0.44 l
0.63 -0.43 l
0.63 -0.44 l
0.63 -0.43 l
0.63 -0.43 l
0.63 -0.42 l
0.63 -0.42 l
0.63 -0.42 l
0.63 -0.42 l
0.62 -0.42 l
0.63 -0.41 l
0.63 -0.41 l
0.63 -0.40 l
0.63 -0.41 l
0.63 -0.40 l
0.63 -0.40 l
0.63 -0.39 l
0.63 -0.40 l
0.63 -0.39 l
0.63 -0.39 l
0.63 -0.38 l
0.63 -0.38 l
0.63 -0.38 l
0.63 -0.38 l
0.63 -0.37 l
0.63 -0.38 l
0.63 -0.37 l
0.63 -0.36 l
0.63 -0.37 l
0.63 -0.36 l
0.63 -0.36 l
0.63 -0.35 l
0.63 -0.36 l
0.63 -0.35 l
0.63 -0.35 l
0.63 -0.34 l
0.63 -0.35 l
0.63 -0.34 l
0.63 -0.34 l
0.63 -0.33 l
0.63 -0.34 l
0.63 -0.33 l
0.63 -0.33 l
0.63 -0.33 l
0.63 -0.32 l
0.63 -0.32 l
0.62 -0.32 l
0.63 -0.32 l
0.63 -0.31 l
0.63 -0.31 l
0.63 -0.31 l
0.63 -0.31 l
0.63 -0.31 l
0.63 -0.30 l
0.63 -0.30 l
0.63 -0.30 l
0.63 -0.29 l
0.63 -0.30 l
0.63 -0.29 l
0.63 -0.29 l
0.63 -0.28 l
0.63 -0.29 l
0.63 -0.28 l
0.63 -0.28 l
294.31 244.92 lineto
0.63 -0.28 l
0.63 -0.27 l
0.63 -0.27 l
0.63 -0.27 l
0.63 -0.27 l
0.63 -0.26 l
0.63 -0.27 l
0.63 -0.26 l
0.63 -0.26 l
0.63 -0.25 l
0.63 -0.26 l
0.63 -0.25 l
0.63 -0.25 l
0.63 -0.25 l
0.63 -0.25 l
0.63 -0.24 l
0.63 -0.24 l
0.63 -0.24 l
0.62 -0.24 l
0.63 -0.24 l
0.63 -0.24 l
0.63 -0.23 l
0.63 -0.23 l
0.63 -0.23 l
0.63 -0.23 l
0.63 -0.22 l
0.63 -0.23 l
0.63 -0.22 l
0.63 -0.22 l
0.63 -0.22 l
0.63 -0.21 l
0.63 -0.22 l
0.63 -0.21 l
0.63 -0.21 l
0.63 -0.21 l
0.63 -0.21 l
0.63 -0.21 l
0.63 -0.20 l
0.63 -0.20 l
0.63 -0.20 l
0.63 -0.20 l
0.63 -0.20 l
0.63 -0.20 l
0.63 -0.19 l
0.63 -0.19 l
0.63 -0.19 l
0.63 -0.19 l
0.63 -0.19 l
0.63 -0.19 l
0.63 -0.18 l
0.63 -0.19 l
0.63 -0.18 l
0.63 -0.18 l
0.63 -0.18 l
0.63 -0.17 l
0.62 -0.18 l
0.63 -0.17 l
0.63 -0.17 l
0.63 -0.18 l
0.63 -0.17 l
0.63 -0.16 l
0.63 -0.17 l
0.63 -0.17 l
0.63 -0.16 l
0.63 -0.16 l
0.63 -0.16 l
0.63 -0.16 l
0.63 -0.16 l
0.63 -0.16 l
0.63 -0.15 l
0.63 -0.16 l
0.63 -0.15 l
0.63 -0.15 l
0.63 -0.15 l
0.63 -0.15 l
0.63 -0.15 l
0.63 -0.15 l
0.63 -0.14 l
0.63 -0.15 l
0.63 -0.14 l
0.63 -0.14 l
0.63 -0.14 l
0.63 -0.14 l
0.63 -0.14 l
0.63 -0.13 l
0.63 -0.14 l
0.63 -0.13 l
0.63 -0.14 l
0.63 -0.13 l
0.63 -0.13 l
0.63 -0.13 l
0.63 -0.13 l
0.63 -0.13 l
0.62 -0.12 l
0.63 -0.13 l
0.63 -0.12 l
0.63 -0.12 l
0.63 -0.13 l
0.63 -0.12 l
o
0.00 0.00 450.00 375.00 cl
41.79 37.74 356.65 182.43 cl
/bg { 0.9216 0.9216 0.9216 srgb } def
41.79 37.74 314.86 144.69 r p2
1 1 1 srgb
0.53 setlinewidth
[] 0 setdash
0 setlinecap
1 setlinejoin
10.00 setmiterlimit
np
41.79 60.76 m
314.86 0 l
o
np
41.79 93.65 m
314.86 0 l
o
np
41.79 126.53 m
314.86 0 l
o
np
41.79 159.41 m
314.86 0 l
o
np
97.76 37.74 m
0 144.69 l
o
np
209.72 37.74 m
0 144.69 l
o
np
321.67 37.74 m
0 144.69 l
o
1.07 setlinewidth
[] 0 setdash
np
41.79 44.32 m
314.86 0 l
o
np
41.79 77.20 m
314.86 0 l
o
np
41.79 110.09 m
314.86 0 l
o
np
41.79 142.97 m
314.86 0 l
o
np
41.79 175.86 m
314.86 0 l
o
np
41.79 37.74 m
0 144.69 l
o
np
153.74 37.74 m
0 144.69 l
o
np
265.69 37.74 m
0 144.69 l
o
0.9725 0.4627 0.4275 srgb
1.00 setmiterlimit
np
43.47 44.32 m
1.68 0 l
1.68 0 l
1.68 0 l
1.67 0 l
1.68 0 l
1.68 0 l
1.68 0 l
1.68 0 l
1.68 0 l
1.68 0 l
1.68 0 l
1.68 0.01 l
1.68 0.01 l
1.68 0.01 l
1.68 0.03 l
1.68 0.05 l
1.68 0.08 l
1.67 0.10 l
1.68 0.15 l
1.68 0.20 l
1.68 0.25 l
1.68 0.31 l
1.68 0.38 l
1.68 0.46 l
1.68 0.53 l
1.68 0.61 l
1.68 0.70 l
1.68 0.77 l
1.68 0.86 l
1.68 0.95 l
1.68 1.02 l
1.67 1.11 l
1.68 1.18 l
1.68 1.25 l
1.68 1.33 l
1.68 1.39 l
1.68 1.45 l
1.68 1.51 l
1.68 1.56 l
1.68 1.61 l
1.68 1.66 l
1.68 1.70 l
1.68 1.73 l
1.68 1.77 l
1.68 1.79 l
1.67 1.82 l
1.68 1.84 l
1.68 1.86 l
1.68 1.87 l
1.68 1.88 l
1.68 1.88 l
1.68 1.89 l
1.68 1.90 l
1.68 1.88 l
1.68 1.89 l
1.68 1.88 l
1.68 1.87 l
1.68 1.86 l
1.68 1.85 l
1.67 1.84 l
1.68 1.82 l
1.68 1.80 l
1.68 1.78 l
1.68 1.77 l
1.68 1.75 l
1.68 1.72 l
1.68 1.70 l
1.68 1.68 l
1.68 1.65 l
1.68 1.63 l
1.68 1.61 l
1.68 1.58 l
1.68 1.55 l
1.67 1.53 l
1.68 1.50 l
1.68 1.48 l
1.68 1.45 l
1.68 1.42 l
1.68 1.39 l
1.68 1.37 l
1.68 1.34 l
1.68 1.31 l
1.68 1.29 l
1.68 1.26 l
1.68 1.23 l
1.68 1.20 l
1.68 1.18 l
1.67 1.16 l
1.68 1.12 l
1.68 1.10 l
1.68 1.08 l
1.68 1.05 l
1.68 1.02 l
1.68 1.00 l
1.68 0.98 l
1.68 0.95 l
1.68 0.93 l
1.68 0.90 l
1.68 0.88 l
211.40 154.87 lineto
1.67 0.83 l
1.68 0.82 l
1.68 0.79 l
1.68 0.76 l
1.68 0.75 l
1.68 0.73 l
1.68 0.70 l
1.68 0.69 l
1.68 0.66 l
1.68 0.65 l
1.68 0.62 l
1.68 0.61 l
1.68 0.59 l
1.68 0.56 l
1.67 0.56 l
1.68 0.53 l
1.68 0.52 l
1.68 0.49 l
1.68 0.49 l
1.68 0.46 l
1.68 0.45 l
1.68 0.43 l
1.68 0.42 l
1.68 0.41 l
1.68 0.38 l
1.68 0.38 l
1.68 0.35 l
1.68 0.35 l
1.67 0.33 l
1.68 0.32 l
1.68 0.30 l
1.68 0.29 l
1.68 0.28 l
1.68 0.26 l
1.68 0.25 l
1.68 0.24 l
1.68 0.23 l
1.68 0.22 l
1.68 0.20 l
1.68 0.20 l
1.68 0.18 l
1.68 0.18 l
1.67 0.16 l
1.68 0.15 l
1.68 0.14 l
1.68 0.14 l
1.68 0.12 l
1.68 0.11 l
1.68 0.11 l
1.68 0.09 l
1.68 0.09 l
1.68 0.08 l
1.68 0.06 l
1.68 0.07 l
1.68 0.05 l
1.68 0.04 l
1.67 0.04 l
1.68 0.03 l
1.68 0.02 l
1.68 0.02 l
1.68 0.01 l
1.68 0 l
1.68 -0.01 l
1.68 -0.01 l
1.68 -0.02 l
1.68 -0.03 l
1.68 -0.03 l
1.68 -0.04 l
1.68 -0.04 l
1.68 -0.05 l
1.67 -0.05 l
1.68 -0.06 l
1.68 -0.07 l
1.68 -0.07 l
1.68 -0.08 l
1.68 -0.08 l
1.68 -0.09 l
1.68 -0.09 l
1.68 -0.09 l
1.68 -0.10 l
1.68 -0.11 l
1.68 -0.11 l
1.68 -0.11 l
1.68 -0.12 l
1.67 -0.12 l
1.68 -0.13 l
o
1.07 setlinewidth
[ 2.13 2.13] 0 setdash
np
43.47 44.32 m
1.68 0 l
1.68 0 l
1.68 0 l
1.67 0 l
1.68 0 l
1.68 0 l
1.68 0 l
1.68 0 l
1.68 0 l
1.68 0 l
1.68 0 l
1.68 0.01 l
1.68 0.01 l
1.68 0.02 l
1.68 0.03 l
1.68 0.05 l
1.68 0.09 l
1.67 0.11 l
1.68 0.17 l
1.68 0.21 l
1.68 0.28 l
1.68 0.35 l
1.68 0.42 l
1.68 0.50 l
1.68 0.58 l
1.68 0.68 l
1.68 0.76 l
1.68 0.86 l
1.68 0.94 l
1.68 1.04 l
1.68 1.13 l
1.67 1.21 l
1.68 1.30 l
1.68 1.37 l
1.68 1.46 l
1.68 1.52 l
1.68 1.59 l
1.68 1.66 l
1.68 1.71 l
1.68 1.77 l
1.68 1.81 l
1.68 1.85 l
1.68 1.90 l
1.68 1.92 l
1.68 1.96 l
1.67 1.98 l
1.68 2.00 l
1.68 2.02 l
1.68 2.02 l
1.68 2.04 l
1.68 2.04 l
1.68 2.05 l
1.68 2.04 l
1.68 2.04 l
1.68 2.03 l
1.68 2.02 l
1.68 2.01 l
1.68 1.99 l
1.68 1.98 l
1.67 1.96 l
1.68 1.94 l
1.68 1.92 l
1.68 1.90 l
1.68 1.87 l
1.68 1.85 l
1.68 1.82 l
1.68 1.79 l
1.68 1.76 l
1.68 1.74 l
1.68 1.71 l
1.68 1.67 l
1.68 1.65 l
1.68 1.61 l
1.67 1.59 l
1.68 1.55 l
1.68 1.52 l
1.68 1.49 l
1.68 1.45 l
1.68 1.43 l
1.68 1.39 l
1.68 1.36 l
1.68 1.32 l
1.68 1.30 l
1.68 1.26 l
1.68 1.24 l
1.68 1.20 l
1.68 1.17 l
1.67 1.14 l
1.68 1.11 l
1.68 1.08 l
1.68 1.05 l
1.68 1.02 l
1.68 0.99 l
1.68 0.96 l
1.68 0.94 l
1.68 0.90 l
1.68 0.88 l
1.68 0.85 l
1.68 0.83 l
211.40 160.85 lineto
1.67 0.77 l
1.68 0.75 l
1.68 0.72 l
1.68 0.70 l
1.68 0.67 l
1.68 0.65 l
1.68 0.62 l
1.68 0.60 l
1.68 0.58 l
1.68 0.56 l
1.68 0.53 l
1.68 0.52 l
1.68 0.49 l
1.68 0.47 l
1.67 0.45 l
1.68 0.43 l
1.68 0.42 l
1.68 0.39 l
1.68 0.37 l
1.68 0.36 l
1.68 0.34 l
1.68 0.32 l
1.68 0.30 l
1.68 0.29 l
1.68 0.27 l
1.68 0.25 l
1.68 0.24 l
1.68 0.22 l
1.67 0.21 l
1.68 0.19 l
1.68 0.18 l
1.68 0.16 l
1.68 0.15 l
1.68 0.14 l
1.68 0.12 l
1.68 0.11 l
1.68 0.10 l
1.68 0.09 l
1.68 0.07 l
1.68 0.06 l
1.68 0.05 l
1.68 0.04 l
1.67 0.03 l
1.68 0.02 l
1.68 0.01 l
1.68 -0.01 l
1.68 -0.01 l
1.68 -0.02 l
1.68 -0.04 l
1.68 -0.04 l
1.68 -0.05 l
1.68 -0.06 l
1.68 -0.07 l
1.68 -0.07 l
1.68 -0.09 l
1.68 -0.09 l
1.67 -0.10 l
1.68 -0.11 l
1.68 -0.11 l
1.68 -0.13 l
1.68 -0.13 l
1.68 -0.13 l
1.68 -0.14 l
1.68 -0.15 l
1.68 -0.16 l
1.68 -0.16 l
1.68 -0.17 l
1.68 -0.17 l
1.68 -0.18 l
1.68 -0.19 l
1.67 -0.19 l
1.68 -0.20 l
1.68 -0.20 l
1.68 -0.20 l
1.68 -0.21 l
1.68 -0.22 l
1.68 -0.22 l
1.68 -0.22 l
1.68 -0.23 l
1.68 -0.23 l
1.68 -0.24 l
1.68 -0.24 l
1.68 -0.25 l
1.68 -0.24 l
1.67 -0.26 l
1.68 -0.25 l
o
0.4863 0.6824 0 srgb
1.07 setlinewidth
[] 0 setdash
np
42.63 44.32 m
0.84 0 l
0.84 0 l
0.84 0 l
0.84 0 l
0.84 0 l
0.84 0 l
0.84 0 l
0.84 0 l
0.83 0 l
0.84 0 l
0.84 0 l
0.84 0 l
0.84 0 l
0.84 0 l
0.84 0 l
0.84 0 l
0.84 0 l
0.84 0 l
0.84 0 l
0.84 0 l
0.84 0 l
0.84 0 l
0.84 0 l
0.84 0.01 l
0.84 0 l
0.84 0.01 l
0.84 0.01 l
0.84 0.01 l
0.84 0.01 l
0.84 0.02 l
0.84 0.03 l
0.84 0.04 l
0.84 0.04 l
0.84 0.05 l
0.84 0.07 l
0.84 0.08 l
0.83 0.09 l
0.84 0.11 l
0.84 0.12 l
0.84 0.14 l
0.84 0.17 l
0.84 0.18 l
0.84 0.21 l
0.84 0.23 l
0.84 0.25 l
0.84 0.28 l
0.84 0.31 l
0.84 0.33 l
0.84 0.36 l
0.84 0.39 l
0.84 0.42 l
0.84 0.44 l
0.84 0.48 l
0.84 0.51 l
0.84 0.53 l
0.84 0.56 l
0.84 0.60 l
0.84 0.62 l
0.84 0.65 l
0.84 0.68 l
0.84 0.71 l
0.84 0.74 l
0.84 0.76 l
0.84 0.79 l
0.83 0.81 l
0.84 0.84 l
0.84 0.87 l
0.84 0.89 l
0.84 0.91 l
0.84 0.93 l
0.84 0.96 l
0.84 0.97 l
0.84 1.00 l
0.84 1.01 l
0.84 1.03 l
0.84 1.05 l
0.84 1.07 l
0.84 1.08 l
0.84 1.09 l
0.84 1.11 l
0.84 1.12 l
0.84 1.13 l
0.84 1.15 l
0.84 1.15 l
0.84 1.16 l
0.84 1.17 l
0.84 1.18 l
0.84 1.19 l
0.84 1.19 l
0.84 1.19 l
0.84 1.21 l
0.83 1.20 l
0.84 1.21 l
0.84 1.21 l
0.84 1.21 l
0.84 1.22 l
0.84 1.21 l
0.84 1.21 l
0.84 1.22 l
126.59 95.72 lineto
0.84 1.21 l
0.84 1.21 l
0.84 1.21 l
0.84 1.20 l
0.84 1.20 l
0.84 1.19 l
0.84 1.19 l
0.84 1.18 l
0.84 1.18 l
0.84 1.18 l
0.84 1.16 l
0.84 1.16 l
0.84 1.16 l
0.84 1.14 l
0.84 1.14 l
0.84 1.13 l
0.84 1.12 l
0.84 1.12 l
0.84 1.10 l
0.83 1.10 l
0.84 1.08 l
0.84 1.08 l
0.84 1.07 l
0.84 1.06 l
0.84 1.04 l
0.84 1.04 l
0.84 1.03 l
0.84 1.02 l
0.84 1.00 l
0.84 1.00 l
0.84 0.98 l
0.84 0.98 l
0.84 0.96 l
0.84 0.95 l
0.84 0.94 l
0.84 0.93 l
0.84 0.92 l
0.84 0.91 l
0.84 0.89 l
0.84 0.88 l
0.84 0.88 l
0.84 0.86 l
0.84 0.84 l
0.84 0.84 l
0.84 0.83 l
0.84 0.81 l
0.84 0.80 l
0.83 0.79 l
0.84 0.78 l
0.84 0.77 l
0.84 0.75 l
0.84 0.75 l
0.84 0.73 l
0.84 0.72 l
0.84 0.71 l
0.84 0.69 l
0.84 0.69 l
0.84 0.67 l
0.84 0.67 l
0.84 0.65 l
0.84 0.64 l
0.84 0.63 l
0.84 0.61 l
0.84 0.61 l
0.84 0.59 l
0.84 0.59 l
0.84 0.57 l
0.84 0.56 l
0.84 0.56 l
0.84 0.54 l
0.84 0.53 l
0.84 0.52 l
0.84 0.51 l
0.84 0.49 l
0.84 0.49 l
0.83 0.48 l
0.84 0.47 l
0.84 0.45 l
0.84 0.45 l
0.84 0.44 l
0.84 0.42 l
0.84 0.42 l
0.84 0.41 l
0.84 0.40 l
0.84 0.39 l
0.84 0.37 l
0.84 0.37 l
0.84 0.36 l
0.84 0.35 l
0.84 0.35 l
0.84 0.33 l
0.84 0.32 l
0.84 0.32 l
0.84 0.30 l
0.84 0.30 l
0.84 0.29 l
0.84 0.28 l
0.84 0.27 l
0.84 0.26 l
210.56 171.49 lineto
0.84 0.24 l
0.84 0.24 l
0.83 0.23 l
0.84 0.22 l
0.84 0.22 l
0.84 0.20 l
0.84 0.20 l
0.84 0.19 l
0.84 0.19 l
0.84 0.17 l
0.84 0.17 l
0.84 0.17 l
0.84 0.15 l
0.84 0.15 l
0.84 0.14 l
0.84 0.13 l
0.84 0.13 l
0.84 0.12 l
0.84 0.11 l
0.84 0.11 l
0.84 0.10 l
0.84 0.09 l
0.84 0.09 l
0.84 0.08 l
0.84 0.08 l
0.84 0.07 l
0.84 0.06 l
0.84 0.06 l
0.84 0.05 l
0.84 0.04 l
0.83 0.04 l
0.84 0.04 l
0.84 0.03 l
0.84 0.02 l
0.84 0.02 l
0.84 0.01 l
0.84 0 l
0.84 0.01 l
0.84 -0.01 l
0.84 -0.01 l
0.84 -0.01 l
0.84 -0.02 l
0.84 -0.02 l
0.84 -0.03 l
0.84 -0.03 l
0.84 -0.04 l
0.84 -0.04 l
0.84 -0.05 l
0.84 -0.05 l
0.84 -0.06 l
0.84 -0.06 l
0.84 -0.06 l
0.84 -0.07 l
0.84 -0.07 l
0.84 -0.08 l
0.84 -0.08 l
0.84 -0.09 l
0.84 -0.08 l
0.83 -0.10 l
0.84 -0.09 l
0.84 -0.10 l
0.84 -0.11 l
0.84 -0.11 l
0.84 -0.11 l
0.84 -0.11 l
0.84 -0.12 l
0.84 -0.12 l
0.84 -0.13 l
0.84 -0.12 l
0.84 -0.13 l
0.84 -0.14 l
0.84 -0.14 l
0.84 -0.14 l
0.84 -0.14 l
0.84 -0.15 l
0.84 -0.15 l
0.84 -0.15 l
0.84 -0.16 l
0.84 -0.16 l
0.84 -0.16 l
0.84 -0.16 l
0.84 -0.17 l
0.84 -0.17 l
0.84 -0.17 l
0.84 -0.17 l
0.84 -0.18 l
0.83 -0.18 l
0.84 -0.18 l
0.84 -0.18 l
0.84 -0.19 l
0.84 -0.19 l
0.84 -0.19 l
0.84 -0.19 l
0.84 -0.20 l
0.84 -0.19 l
0.84 -0.20 l
0.84 -0.21 l
0.84 -0.20 l
0.84 -0.20 l
294.52 168.33 lineto
0.84 -0.21 l
0.84 -0.21 l
0.84 -0.21 l
0.84 -0.22 l
0.84 -0.22 l
0.84 -0.21 l
0.84 -0.22 l
0.84 -0.22 l
0.84 -0.23 l
0.84 -0.22 l
0.84 -0.23 l
0.84 -0.23 l
0.84 -0.22 l
0.83 -0.24 l
0.84 -0.23 l
0.84 -0.23 l
0.84 -0.24 l
0.84 -0.23 l
0.84 -0.24 l
0.84 -0.24 l
0.84 -0.24 l
0.84 -0.24 l
0.84 -0.24 l
0.84 -0.24 l
0.84 -0.25 l
0.84 -0.24 l
0.84 -0.25 l
0.84 -0.25 l
0.84 -0.25 l
0.84 -0.25 l
0.84 -0.25 l
0.84 -0.25 l
0.84 -0.25 l
0.84 -0.26 l
0.84 -0.25 l
0.84 -0.26 l
0.84 -0.25 l
0.84 -0.26 l
0.84 -0.26 l
0.84 -0.26 l
0.84 -0.26 l
0.83 -0.26 l
0.84 -0.26 l
0.84 -0.26 l
0.84 -0.26 l
0.84 -0.26 l
0.84 -0.27 l
0.84 -0.26 l
0.84 -0.26 l
0.84 -0.27 l
0.84 -0.26 l
0.84 -0.27 l
0.84 -0.27 l
0.84 -0.26 l
0.84 -0.27 l
0.84 -0.27 l
0.84 -0.27 l
0.84 -0.27 l
0.84 -0.27 l
0.84 -0.27 l
0.84 -0.26 l
0.84 -0.28 l
0.84 -0.27 l
0.84 -0.27 l
0.84 -0.27 l
0.84 -0.27 l
0.84 -0.27 l
0.84 -0.27 l
0.84 -0.28 l
0.83 -0.27 l
0.84 -0.27 l
0.84 -0.27 l
0.84 -0.28 l
0.84 -0.27 l
o
1.07 setlinewidth
[ 2.13 2.13] 0 setdash
np
42.63 44.32 m
0.84 0 l
0.84 0 l
0.84 0 l
0.84 0 l
0.84 0 l
0.84 0 l
0.84 0 l
0.84 0 l
0.83 0 l
0.84 0 l
0.84 0 l
0.84 0 l
0.84 0 l
0.84 0 l
0.84 0 l
0.84 0 l
0.84 0 l
0.84 0 l
0.84 0 l
0.84 0 l
0.84 0 l
0.84 0 l
0.84 0.01 l
0.84 0 l
0.84 0.01 l
0.84 0 l
0.84 0.02 l
0.84 0.01 l
0.84 0.03 l
0.84 0.03 l
0.84 0.04 l
0.84 0.05 l
0.84 0.06 l
0.84 0.07 l
0.84 0.10 l
0.84 0.11 l
0.83 0.13 l
0.84 0.15 l
0.84 0.18 l
0.84 0.20 l
0.84 0.23 l
0.84 0.25 l
0.84 0.29 l
0.84 0.32 l
0.84 0.36 l
0.84 0.38 l
0.84 0.43 l
0.84 0.46 l
0.84 0.49 l
0.84 0.54 l
0.84 0.57 l
0.84 0.61 l
0.84 0.65 l
0.84 0.68 l
0.84 0.73 l
0.84 0.76 l
0.84 0.80 l
0.84 0.84 l
0.84 0.87 l
0.84 0.91 l
0.84 0.94 l
0.84 0.97 l
0.84 1.01 l
0.84 1.04 l
0.83 1.07 l
0.84 1.10 l
0.84 1.13 l
0.84 1.16 l
0.84 1.18 l
0.84 1.20 l
0.84 1.23 l
0.84 1.25 l
0.84 1.28 l
0.84 1.29 l
0.84 1.31 l
0.84 1.32 l
0.84 1.34 l
0.84 1.36 l
0.84 1.37 l
0.84 1.38 l
0.84 1.39 l
0.84 1.40 l
0.84 1.41 l
0.84 1.41 l
0.84 1.42 l
0.84 1.43 l
0.84 1.43 l
0.84 1.43 l
0.84 1.43 l
0.84 1.43 l
0.84 1.44 l
0.83 1.43 l
0.84 1.43 l
0.84 1.42 l
0.84 1.43 l
0.84 1.41 l
0.84 1.42 l
0.84 1.40 l
0.84 1.40 l
126.59 108.97 lineto
0.84 1.38 l
0.84 1.38 l
0.84 1.36 l
0.84 1.35 l
0.84 1.35 l
0.84 1.33 l
0.84 1.32 l
0.84 1.31 l
0.84 1.29 l
0.84 1.29 l
0.84 1.27 l
0.84 1.25 l
0.84 1.24 l
0.84 1.23 l
0.84 1.22 l
0.84 1.19 l
0.84 1.19 l
0.84 1.16 l
0.84 1.16 l
0.83 1.13 l
0.84 1.12 l
0.84 1.11 l
0.84 1.09 l
0.84 1.07 l
0.84 1.06 l
0.84 1.03 l
0.84 1.03 l
0.84 1.00 l
0.84 0.99 l
0.84 0.97 l
0.84 0.96 l
0.84 0.94 l
0.84 0.92 l
0.84 0.91 l
0.84 0.88 l
0.84 0.88 l
0.84 0.85 l
0.84 0.84 l
0.84 0.82 l
0.84 0.80 l
0.84 0.79 l
0.84 0.77 l
0.84 0.76 l
0.84 0.74 l
0.84 0.72 l
0.84 0.70 l
0.84 0.69 l
0.83 0.68 l
0.84 0.65 l
0.84 0.65 l
0.84 0.62 l
0.84 0.61 l
0.84 0.60 l
0.84 0.58 l
0.84 0.56 l
0.84 0.55 l
0.84 0.54 l
0.84 0.52 l
0.84 0.50 l
0.84 0.49 l
0.84 0.48 l
0.84 0.46 l
0.84 0.45 l
0.84 0.43 l
0.84 0.42 l
0.84 0.41 l
0.84 0.39 l
0.84 0.38 l
0.84 0.37 l
0.84 0.35 l
0.84 0.35 l
0.84 0.32 l
0.84 0.32 l
0.84 0.30 l
0.84 0.29 l
0.83 0.28 l
0.84 0.27 l
0.84 0.25 l
0.84 0.25 l
0.84 0.23 l
0.84 0.22 l
0.84 0.21 l
0.84 0.19 l
0.84 0.19 l
0.84 0.18 l
0.84 0.16 l
0.84 0.16 l
0.84 0.14 l
0.84 0.14 l
0.84 0.12 l
0.84 0.12 l
0.84 0.10 l
0.84 0.10 l
0.84 0.09 l
0.84 0.07 l
0.84 0.07 l
0.84 0.06 l
0.84 0.05 l
0.84 0.04 l
210.56 175.81 lineto
0.84 0.02 l
0.84 0.02 l
0.83 0.01 l
0.84 0 l
0.84 -0.01 l
0.84 -0.02 l
0.84 -0.02 l
0.84 -0.03 l
0.84 -0.04 l
0.84 -0.04 l
0.84 -0.06 l
0.84 -0.06 l
0.84 -0.06 l
0.84 -0.08 l
0.84 -0.07 l
0.84 -0.09 l
0.84 -0.09 l
0.84 -0.10 l
0.84 -0.11 l
0.84 -0.11 l
0.84 -0.12 l
0.84 -0.12 l
0.84 -0.13 l
0.84 -0.13 l
0.84 -0.14 l
0.84 -0.15 l
0.84 -0.15 l
0.84 -0.16 l
0.84 -0.16 l
0.84 -0.16 l
0.83 -0.17 l
0.84 -0.18 l
0.84 -0.18 l
0.84 -0.19 l
0.84 -0.19 l
0.84 -0.19 l
0.84 -0.20 l
0.84 -0.20 l
0.84 -0.21 l
0.84 -0.21 l
0.84 -0.22 l
0.84 -0.22 l
0.84 -0.22 l
0.84 -0.23 l
0.84 -0.23 l
0.84 -0.23 l
0.84 -0.24 l
0.84 -0.24 l
0.84 -0.24 l
0.84 -0.25 l
0.84 -0.25 l
0.84 -0.26 l
0.84 -0.25 l
0.84 -0.26 l
0.84 -0.27 l
0.84 -0.26 l
0.84 -0.27 l
0.84 -0.27 l
0.83 -0.28 l
0.84 -0.28 l
0.84 -0.28 l
0.84 -0.28 l
0.84 -0.28 l
0.84 -0.29 l
0.84 -0.29 l
0.84 -0.29 l
0.84 -0.29 l
0.84 -0.30 l
0.84 -0.30 l
0.84 -0.30 l
0.84 -0.30 l
0.84 -0.30 l
0.84 -0.31 l
0.84 -0.30 l
0.84 -0.31 l
0.84 -0.31 l
0.84 -0.32 l
0.84 -0.31 l
0.84 -0.31 l
0.84 -0.32 l
0.84 -0.32 l
0.84 -0.32 l
0.84 -0.32 l
0.84 -0.32 l
0.84 -0.33 l
0.84 -0.32 l
0.83 -0.33 l
0.84 -0.32 l
0.84 -0.33 l
0.84 -0.33 l
0.84 -0.33 l
0.84 -0.33 l
0.84 -0.33 l
0.84 -0.34 l
0.84 -0.33 l
0.84 -0.34 l
0.84 -0.33 l
0.84 -0.34 l
0.84 -0.33 l
294.52 153.99 lineto
0.84 -0.34 l
0.84 -0.34 l
0.84 -0.34 l
0.84 -0.34 l
0.84 -0.34 l
0.84 -0.34 l
0.84 -0.34 l
0.84 -0.34 l
0.84 -0.35 l
0.84 -0.34 l
0.84 -0.34 l
0.84 -0.35 l
0.84 -0.34 l
0.83 -0.34 l
0.84 -0.35 l
0.84 -0.34 l
0.84 -0.35 l
0.84 -0.34 l
0.84 -0.35 l
0.84 -0.34 l
0.84 -0.34 l
0.84 -0.35 l
0.84 -0.34 l
0.84 -0.35 l
0.84 -0.34 l
0.84 -0.35 l
0.84 -0.34 l
0.84 -0.35 l
0.84 -0.34 l
0.84 -0.35 l
0.84 -0.34 l
0.84 -0.35 l
0.84 -0.34 l
0.84 -0.35 l
0.84 -0.34 l
0.84 -0.34 l
0.84 -0.35 l
0.84 -0.34 l
0.84 -0.34 l
0.84 -0.34 l
0.84 -0.35 l
0.83 -0.34 l
0.84 -0.34 l
0.84 -0.34 l
0.84 -0.34 l
0.84 -0.34 l
0.84 -0.34 l
0.84 -0.34 l
0.84 -0.34 l
0.84 -0.34 l
0.84 -0.34 l
0.84 -0.34 l
0.84 -0.33 l
0.84 -0.34 l
0.84 -0.34 l
0.84 -0.33 l
0.84 -0.34 l
0.84 -0.33 l
0.84 -0.34 l
0.84 -0.33 l
0.84 -0.33 l
0.84 -0.33 l
0.84 -0.34 l
0.84 -0.33 l
0.84 -0.33 l
0.84 -0.33 l
0.84 -0.33 l
0.84 -0.33 l
0.84 -0.32 l
0.83 -0.33 l
0.84 -0.33 l
0.84 -0.32 l
0.84 -0.33 l
0.84 -0.32 l
o
0 0.7490 0.7686 srgb
1.07 setlinewidth
[] 0 setdash
np
42.41 44.32 m
0.62 0 l
0.62 0 l
0.63 0 l
0.62 0 l
0.62 0 l
0.62 0 l
0.62 0 l
0.63 0 l
0.62 0 l
0.62 0 l
0.62 0 l
0.62 0 l
0.63 0 l
0.62 0 l
0.62 0 l
0.62 0 l
0.62 0 l
0.63 0 l
0.62 0 l
0.62 0 l
0.62 0 l
0.62 0 l
0.63 0 l
0.62 0 l
0.62 0 l
0.62 0 l
0.62 0 l
0.63 0 l
0.62 0 l
0.62 0 l
0.62 0.01 l
0.62 0 l
0.62 0 l
0.63 0.01 l
0.62 0 l
0.62 0.01 l
0.62 0.01 l
0.62 0.02 l
0.63 0.02 l
0.62 0.02 l
0.62 0.03 l
0.62 0.03 l
0.62 0.04 l
0.63 0.05 l
0.62 0.05 l
0.62 0.07 l
0.62 0.07 l
0.62 0.08 l
0.63 0.10 l
0.62 0.11 l
0.62 0.12 l
0.62 0.13 l
0.62 0.15 l
0.63 0.17 l
0.62 0.18 l
0.62 0.21 l
0.62 0.21 l
0.62 0.24 l
0.63 0.26 l
0.62 0.28 l
0.62 0.29 l
0.62 0.32 l
0.62 0.35 l
0.63 0.36 l
0.62 0.38 l
0.62 0.41 l
0.62 0.43 l
0.62 0.46 l
0.63 0.47 l
0.62 0.51 l
0.62 0.52 l
0.62 0.55 l
0.62 0.57 l
0.63 0.59 l
0.62 0.62 l
0.62 0.64 l
0.62 0.67 l
0.62 0.68 l
0.62 0.71 l
0.63 0.73 l
0.62 0.75 l
0.62 0.78 l
0.62 0.79 l
0.62 0.81 l
0.63 0.84 l
0.62 0.85 l
0.62 0.87 l
0.62 0.89 l
0.62 0.91 l
0.63 0.93 l
0.62 0.94 l
0.62 0.96 l
0.62 0.97 l
0.62 0.99 l
0.63 1.00 l
0.62 1.02 l
0.62 1.03 l
0.62 1.04 l
0.62 1.05 l
104.61 75.75 lineto
0.62 1.07 l
0.62 1.09 l
0.62 1.09 l
0.62 1.10 l
0.63 1.12 l
0.62 1.11 l
0.62 1.13 l
0.62 1.13 l
0.62 1.14 l
0.63 1.14 l
0.62 1.15 l
0.62 1.15 l
0.62 1.15 l
0.62 1.16 l
0.63 1.15 l
0.62 1.16 l
0.62 1.17 l
0.62 1.16 l
0.62 1.16 l
0.63 1.16 l
0.62 1.16 l
0.62 1.16 l
0.62 1.16 l
0.62 1.16 l
0.62 1.15 l
0.63 1.15 l
0.62 1.15 l
0.62 1.14 l
0.62 1.14 l
0.62 1.13 l
0.63 1.13 l
0.62 1.13 l
0.62 1.12 l
0.62 1.11 l
0.62 1.11 l
0.63 1.10 l
0.62 1.09 l
0.62 1.09 l
0.62 1.07 l
0.62 1.08 l
0.63 1.06 l
0.62 1.05 l
0.62 1.05 l
0.62 1.04 l
0.62 1.03 l
0.63 1.02 l
0.62 1.01 l
0.62 1.00 l
0.62 0.99 l
0.62 0.98 l
0.63 0.97 l
0.62 0.97 l
0.62 0.95 l
0.62 0.94 l
0.62 0.93 l
0.63 0.92 l
0.62 0.91 l
0.62 0.90 l
0.62 0.89 l
0.62 0.87 l
0.63 0.87 l
0.62 0.85 l
0.62 0.85 l
0.62 0.83 l
0.62 0.82 l
0.62 0.81 l
0.63 0.80 l
0.62 0.79 l
0.62 0.77 l
0.62 0.77 l
0.62 0.75 l
0.63 0.74 l
0.62 0.73 l
0.62 0.72 l
0.62 0.70 l
0.62 0.70 l
0.63 0.68 l
0.62 0.67 l
0.62 0.66 l
0.62 0.65 l
0.62 0.64 l
0.63 0.62 l
0.62 0.62 l
0.62 0.60 l
0.62 0.59 l
0.62 0.58 l
0.63 0.57 l
0.62 0.56 l
0.62 0.54 l
0.62 0.54 l
0.62 0.52 l
0.63 0.52 l
0.62 0.50 l
0.62 0.49 l
0.62 0.48 l
0.62 0.47 l
0.63 0.46 l
0.62 0.44 l
0.62 0.44 l
166.80 166.22 lineto
0.62 0.41 l
0.63 0.41 l
0.62 0.39 l
0.62 0.39 l
0.62 0.37 l
0.62 0.37 l
0.63 0.35 l
0.62 0.35 l
0.62 0.33 l
0.62 0.33 l
0.62 0.31 l
0.62 0.31 l
0.63 0.29 l
0.62 0.29 l
0.62 0.28 l
0.62 0.26 l
0.62 0.26 l
0.63 0.25 l
0.62 0.24 l
0.62 0.23 l
0.62 0.23 l
0.62 0.21 l
0.63 0.20 l
0.62 0.20 l
0.62 0.19 l
0.62 0.18 l
0.62 0.17 l
0.63 0.16 l
0.62 0.16 l
0.62 0.14 l
0.62 0.14 l
0.62 0.13 l
0.63 0.13 l
0.62 0.11 l
0.62 0.11 l
0.62 0.10 l
0.62 0.09 l
0.63 0.09 l
0.62 0.07 l
0.62 0.08 l
0.62 0.06 l
0.62 0.06 l
0.63 0.05 l
0.62 0.04 l
0.62 0.03 l
0.62 0.03 l
0.62 0.03 l
0.63 0.01 l
0.62 0.01 l
0.62 0.01 l
0.62 -0.01 l
0.62 -0.01 l
0.63 -0.01 l
0.62 -0.02 l
0.62 -0.03 l
0.62 -0.03 l
0.62 -0.04 l
0.62 -0.04 l
0.63 -0.05 l
0.62 -0.06 l
0.62 -0.06 l
0.62 -0.06 l
0.62 -0.08 l
0.63 -0.07 l
0.62 -0.08 l
0.62 -0.09 l
0.62 -0.09 l
0.62 -0.10 l
0.63 -0.10 l
0.62 -0.11 l
0.62 -0.11 l
0.62 -0.11 l
0.62 -0.13 l
0.63 -0.12 l
0.62 -0.13 l
0.62 -0.13 l
0.62 -0.14 l
0.62 -0.14 l
0.63 -0.15 l
0.62 -0.15 l
0.62 -0.15 l
0.62 -0.16 l
0.62 -0.16 l
0.63 -0.17 l
0.62 -0.17 l
0.62 -0.17 l
0.62 -0.18 l
0.62 -0.18 l
0.63 -0.18 l
0.62 -0.19 l
0.62 -0.19 l
0.62 -0.20 l
0.62 -0.19 l
0.63 -0.20 l
0.62 -0.21 l
0.62 -0.20 l
0.62 -0.21 l
0.62 -0.22 l
0.63 -0.21 l
229.00 169.65 lineto
0.62 -0.22 l
0.62 -0.23 l
0.62 -0.22 l
0.62 -0.23 l
0.63 -0.24 l
0.62 -0.23 l
0.62 -0.24 l
0.62 -0.24 l
0.62 -0.24 l
0.63 -0.24 l
0.62 -0.25 l
0.62 -0.25 l
0.62 -0.25 l
0.62 -0.25 l
0.63 -0.26 l
0.62 -0.26 l
0.62 -0.26 l
0.62 -0.26 l
0.62 -0.26 l
0.63 -0.27 l
0.62 -0.27 l
0.62 -0.26 l
0.62 -0.28 l
0.62 -0.27 l
0.63 -0.27 l
0.62 -0.28 l
0.62 -0.28 l
0.62 -0.28 l
0.62 -0.28 l
0.63 -0.28 l
0.62 -0.28 l
0.62 -0.29 l
0.62 -0.28 l
0.62 -0.29 l
0.63 -0.29 l
0.62 -0.29 l
0.62 -0.29 l
0.62 -0.30 l
0.62 -0.29 l
0.63 -0.30 l
0.62 -0.29 l
0.62 -0.30 l
0.62 -0.30 l
0.62 -0.30 l
0.63 -0.30 l
0.62 -0.30 l
0.62 -0.30 l
0.62 -0.31 l
0.62 -0.30 l
0.62 -0.31 l
0.63 -0.30 l
0.62 -0.31 l
0.62 -0.30 l
0.62 -0.31 l
0.62 -0.31 l
0.63 -0.31 l
0.62 -0.31 l
0.62 -0.31 l
0.62 -0.31 l
0.62 -0.31 l
0.63 -0.32 l
0.62 -0.31 l
0.62 -0.31 l
0.62 -0.32 l
0.62 -0.31 l
0.63 -0.32 l
0.62 -0.31 l
0.62 -0.32 l
0.62 -0.31 l
0.62 -0.32 l
0.63 -0.32 l
0.62 -0.31 l
0.62 -0.32 l
0.62 -0.32 l
0.62 -0.31 l
0.63 -0.32 l
0.62 -0.32 l
0.62 -0.32 l
0.62 -0.32 l
0.62 -0.31 l
0.63 -0.32 l
0.62 -0.32 l
0.62 -0.32 l
0.62 -0.32 l
0.62 -0.32 l
0.63 -0.32 l
0.62 -0.31 l
0.62 -0.32 l
0.62 -0.32 l
0.62 -0.32 l
0.62 -0.32 l
0.63 -0.32 l
0.62 -0.32 l
0.62 -0.31 l
0.62 -0.32 l
0.62 -0.32 l
0.63 -0.32 l
0.62 -0.32 l
0.62 -0.31 l
291.19 140.32 lineto
0.62 -0.32 l
0.63 -0.31 l
0.62 -0.32 l
0.62 -0.32 l
0.62 -0.31 l
0.62 -0.32 l
0.63 -0.32 l
0.62 -0.31 l
0.62 -0.32 l
0.62 -0.31 l
0.62 -0.31 l
0.63 -0.32 l
0.62 -0.31 l
0.62 -0.32 l
0.62 -0.31 l
0.62 -0.31 l
0.63 -0.31 l
0.62 -0.32 l
0.62 -0.31 l
0.62 -0.31 l
0.62 -0.31 l
0.63 -0.31 l
0.62 -0.31 l
0.62 -0.31 l
0.62 -0.31 l
0.62 -0.30 l
0.63 -0.31 l
0.62 -0.31 l
0.62 -0.31 l
0.62 -0.30 l
0.62 -0.31 l
0.63 -0.30 l
0.62 -0.31 l
0.62 -0.30 l
0.62 -0.31 l
0.62 -0.30 l
0.62 -0.30 l
0.63 -0.30 l
0.62 -0.31 l
0.62 -0.30 l
0.62 -0.30 l
0.62 -0.30 l
0.63 -0.30 l
0.62 -0.29 l
0.62 -0.30 l
0.62 -0.30 l
0.62 -0.30 l
0.63 -0.29 l
0.62 -0.30 l
0.62 -0.29 l
0.62 -0.30 l
0.62 -0.29 l
0.63 -0.29 l
0.62 -0.30 l
0.62 -0.29 l
0.62 -0.29 l
0.62 -0.29 l
0.63 -0.29 l
0.62 -0.29 l
0.62 -0.28 l
0.62 -0.29 l
0.62 -0.29 l
0.63 -0.29 l
0.62 -0.28 l
0.62 -0.29 l
0.62 -0.28 l
0.62 -0.28 l
0.63 -0.29 l
0.62 -0.28 l
0.62 -0.28 l
0.62 -0.28 l
0.62 -0.28 l
0.63 -0.28 l
0.62 -0.28 l
0.62 -0.27 l
0.62 -0.28 l
0.62 -0.28 l
0.63 -0.27 l
0.62 -0.28 l
0.62 -0.27 l
0.62 -0.27 l
0.62 -0.28 l
0.62 -0.27 l
0.63 -0.27 l
0.62 -0.27 l
0.62 -0.27 l
0.62 -0.27 l
0.62 -0.27 l
0.63 -0.26 l
0.62 -0.27 l
0.62 -0.26 l
0.62 -0.27 l
0.62 -0.26 l
0.63 -0.27 l
0.62 -0.26 l
0.62 -0.26 l
0.62 -0.26 l
0.62 -0.26 l
0.63 -0.26 l
o
1.07 setlinewidth
[ 2.13 2.13] 0 setdash
np
42.41 44.32 m
0.62 0 l
0.62 0 l
0.63 0 l
0.62 0 l
0.62 0 l
0.62 0 l
0.62 0 l
0.63 0 l
0.62 0 l
0.62 0 l
0.62 0 l
0.62 0 l
0.63 0 l
0.62 0 l
0.62 0 l
0.62 0 l
0.62 0 l
0.63 0 l
0.62 0 l
0.62 0 l
0.62 0 l
0.62 0 l
0.63 0 l
0.62 0 l
0.62 0 l
0.62 0 l
0.62 0 l
0.63 0 l
0.62 0 l
0.62 0.01 l
0.62 0 l
0.62 0 l
0.62 0.01 l
0.63 0.01 l
0.62 0.01 l
0.62 0.02 l
0.62 0.02 l
0.62 0.02 l
0.63 0.03 l
0.62 0.04 l
0.62 0.05 l
0.62 0.05 l
0.62 0.07 l
0.63 0.07 l
0.62 0.10 l
0.62 0.10 l
0.62 0.12 l
0.62 0.14 l
0.63 0.15 l
0.62 0.18 l
0.62 0.19 l
0.62 0.22 l
0.62 0.24 l
0.63 0.26 l
0.62 0.29 l
0.62 0.32 l
0.62 0.34 l
0.62 0.37 l
0.63 0.40 l
0.62 0.43 l
0.62 0.45 l
0.62 0.49 l
0.62 0.52 l
0.63 0.55 l
0.62 0.58 l
0.62 0.61 l
0.62 0.64 l
0.62 0.68 l
0.63 0.70 l
0.62 0.74 l
0.62 0.77 l
0.62 0.79 l
0.62 0.83 l
0.63 0.86 l
0.62 0.88 l
0.62 0.92 l
0.62 0.94 l
0.62 0.97 l
0.62 1.00 l
0.63 1.02 l
0.62 1.05 l
0.62 1.07 l
0.62 1.09 l
0.62 1.12 l
0.63 1.14 l
0.62 1.15 l
0.62 1.18 l
0.62 1.20 l
0.62 1.21 l
0.63 1.24 l
0.62 1.24 l
0.62 1.27 l
0.62 1.27 l
0.62 1.29 l
0.63 1.30 l
0.62 1.31 l
0.62 1.32 l
0.62 1.33 l
0.62 1.34 l
104.61 87.99 lineto
0.62 1.35 l
0.62 1.36 l
0.62 1.36 l
0.62 1.36 l
0.63 1.37 l
0.62 1.37 l
0.62 1.37 l
0.62 1.37 l
0.62 1.37 l
0.63 1.37 l
0.62 1.37 l
0.62 1.36 l
0.62 1.36 l
0.62 1.35 l
0.63 1.36 l
0.62 1.34 l
0.62 1.34 l
0.62 1.33 l
0.62 1.33 l
0.63 1.31 l
0.62 1.31 l
0.62 1.30 l
0.62 1.29 l
0.62 1.28 l
0.62 1.27 l
0.63 1.26 l
0.62 1.25 l
0.62 1.23 l
0.62 1.23 l
0.62 1.21 l
0.63 1.20 l
0.62 1.19 l
0.62 1.17 l
0.62 1.16 l
0.62 1.14 l
0.63 1.13 l
0.62 1.12 l
0.62 1.10 l
0.62 1.09 l
0.62 1.07 l
0.63 1.06 l
0.62 1.04 l
0.62 1.02 l
0.62 1.01 l
0.62 1.00 l
0.63 0.98 l
0.62 0.96 l
0.62 0.94 l
0.62 0.93 l
0.62 0.92 l
0.63 0.90 l
0.62 0.88 l
0.62 0.86 l
0.62 0.85 l
0.62 0.83 l
0.63 0.82 l
0.62 0.80 l
0.62 0.78 l
0.62 0.76 l
0.62 0.75 l
0.63 0.74 l
0.62 0.71 l
0.62 0.70 l
0.62 0.69 l
0.62 0.67 l
0.62 0.65 l
0.63 0.63 l
0.62 0.62 l
0.62 0.61 l
0.62 0.59 l
0.62 0.57 l
0.63 0.56 l
0.62 0.54 l
0.62 0.52 l
0.62 0.51 l
0.62 0.50 l
0.63 0.48 l
0.62 0.47 l
0.62 0.45 l
0.62 0.43 l
0.62 0.42 l
0.63 0.41 l
0.62 0.39 l
0.62 0.38 l
0.62 0.36 l
0.62 0.35 l
0.63 0.34 l
0.62 0.32 l
0.62 0.31 l
0.62 0.30 l
0.62 0.28 l
0.63 0.27 l
0.62 0.25 l
0.62 0.25 l
0.62 0.23 l
0.62 0.21 l
0.63 0.21 l
0.62 0.19 l
0.62 0.18 l
166.80 174.64 lineto
0.62 0.16 l
0.63 0.15 l
0.62 0.13 l
0.62 0.13 l
0.62 0.11 l
0.62 0.10 l
0.63 0.09 l
0.62 0.08 l
0.62 0.07 l
0.62 0.06 l
0.62 0.04 l
0.62 0.04 l
0.63 0.03 l
0.62 0.02 l
0.62 0.01 l
0.62 0 l
0.62 -0.02 l
0.63 -0.01 l
0.62 -0.03 l
0.62 -0.04 l
0.62 -0.05 l
0.62 -0.05 l
0.63 -0.07 l
0.62 -0.07 l
0.62 -0.08 l
0.62 -0.09 l
0.62 -0.10 l
0.63 -0.10 l
0.62 -0.11 l
0.62 -0.12 l
0.62 -0.13 l
0.62 -0.13 l
0.63 -0.15 l
0.62 -0.14 l
0.62 -0.16 l
0.62 -0.16 l
0.62 -0.17 l
0.63 -0.18 l
0.62 -0.18 l
0.62 -0.19 l
0.62 -0.19 l
0.62 -0.21 l
0.63 -0.20 l
0.62 -0.22 l
0.62 -0.21 l
0.62 -0.23 l
0.62 -0.23 l
0.63 -0.23 l
0.62 -0.24 l
0.62 -0.25 l
0.62 -0.25 l
0.62 -0.26 l
0.63 -0.26 l
0.62 -0.26 l
0.62 -0.27 l
0.62 -0.28 l
0.62 -0.28 l
0.62 -0.28 l
0.63 -0.29 l
0.62 -0.29 l
0.62 -0.29 l
0.62 -0.30 l
0.62 -0.31 l
0.63 -0.31 l
0.62 -0.31 l
0.62 -0.31 l
0.62 -0.32 l
0.62 -0.32 l
0.63 -0.33 l
0.62 -0.32 l
0.62 -0.34 l
0.62 -0.33 l
0.62 -0.34 l
0.63 -0.34 l
0.62 -0.34 l
0.62 -0.35 l
0.62 -0.35 l
0.62 -0.35 l
0.63 -0.35 l
0.62 -0.36 l
0.62 -0.36 l
0.62 -0.36 l
0.62 -0.36 l
0.63 -0.37 l
0.62 -0.37 l
0.62 -0.37 l
0.62 -0.37 l
0.62 -0.37 l
0.63 -0.38 l
0.62 -0.38 l
0.62 -0.38 l
0.62 -0.38 l
0.62 -0.38 l
0.63 -0.38 l
0.62 -0.39 l
0.62 -0.39 l
0.62 -0.38 l
0.62 -0.39 l
0.63 -0.40 l
229.00 154.28 lineto
0.62 -0.39 l
0.62 -0.40 l
0.62 -0.39 l
0.62 -0.40 l
0.63 -0.40 l
0.62 -0.39 l
0.62 -0.40 l
0.62 -0.40 l
0.62 -0.40 l
0.63 -0.41 l
0.62 -0.40 l
0.62 -0.40 l
0.62 -0.41 l
0.62 -0.40 l
0.63 -0.40 l
0.62 -0.41 l
0.62 -0.40 l
0.62 -0.41 l
0.62 -0.41 l
0.63 -0.40 l
0.62 -0.41 l
0.62 -0.41 l
0.62 -0.40 l
0.62 -0.41 l
0.63 -0.41 l
0.62 -0.41 l
0.62 -0.40 l
0.62 -0.41 l
0.62 -0.41 l
0.63 -0.41 l
0.62 -0.41 l
0.62 -0.40 l
0.62 -0.41 l
0.62 -0.41 l
0.63 -0.40 l
0.62 -0.41 l
0.62 -0.41 l
0.62 -0.40 l
0.62 -0.41 l
0.63 -0.40 l
0.62 -0.41 l
0.62 -0.40 l
0.62 -0.41 l
0.62 -0.40 l
0.63 -0.41 l
0.62 -0.40 l
0.62 -0.40 l
0.62 -0.40 l
0.62 -0.41 l
0.62 -0.40 l
0.63 -0.40 l
0.62 -0.40 l
0.62 -0.40 l
0.62 -0.39 l
0.62 -0.40 l
0.63 -0.40 l
0.62 -0.40 l
0.62 -0.39 l
0.62 -0.40 l
0.62 -0.39 l
0.63 -0.39 l
0.62 -0.40 l
0.62 -0.39 l
0.62 -0.39 l
0.62 -0.39 l
0.63 -0.39 l
0.62 -0.39 l
0.62 -0.38 l
0.62 -0.39 l
0.62 -0.39 l
0.63 -0.38 l
0.62 -0.38 l
0.62 -0.39 l
0.62 -0.38 l
0.62 -0.38 l
0.63 -0.38 l
0.62 -0.38 l
0.62 -0.38 l
0.62 -0.37 l
0.62 -0.38 l
0.63 -0.37 l
0.62 -0.38 l
0.62 -0.37 l
0.62 -0.37 l
0.62 -0.37 l
0.63 -0.37 l
0.62 -0.37 l
0.62 -0.37 l
0.62 -0.36 l
0.62 -0.37 l
0.62 -0.36 l
0.63 -0.37 l
0.62 -0.36 l
0.62 -0.36 l
0.62 -0.36 l
0.62 -0.36 l
0.63 -0.35 l
0.62 -0.36 l
0.62 -0.35 l
291.19 115.12 lineto
0.62 -0.35 l
0.63 -0.35 l
0.62 -0.35 l
0.62 -0.35 l
0.62 -0.35 l
0.62 -0.34 l
0.63 -0.35 l
0.62 -0.34 l
0.62 -0.34 l
0.62 -0.34 l
0.62 -0.34 l
0.63 -0.34 l
0.62 -0.34 l
0.62 -0.34 l
0.62 -0.33 l
0.62 -0.34 l
0.63 -0.33 l
0.62 -0.33 l
0.62 -0.33 l
0.62 -0.33 l
0.62 -0.33 l
0.63 -0.32 l
0.62 -0.33 l
0.62 -0.32 l
0.62 -0.32 l
0.62 -0.33 l
0.63 -0.32 l
0.62 -0.31 l
0.62 -0.32 l
0.62 -0.32 l
0.62 -0.31 l
0.63 -0.32 l
0.62 -0.31 l
0.62 -0.31 l
0.62 -0.31 l
0.62 -0.31 l
0.62 -0.30 l
0.63 -0.31 l
0.62 -0.31 l
0.62 -0.30 l
0.62 -0.30 l
0.62 -0.30 l
0.63 -0.30 l
0.62 -0.30 l
0.62 -0.30 l
0.62 -0.29 l
0.62 -0.30 l
0.63 -0.29 l
0.62 -0.29 l
0.62 -0.29 l
0.62 -0.29 l
0.62 -0.29 l
0.63 -0.29 l
0.62 -0.28 l
0.62 -0.29 l
0.62 -0.28 l
0.62 -0.28 l
0.63 -0.28 l
0.62 -0.28 l
0.62 -0.28 l
0.62 -0.28 l
0.62 -0.27 l
0.63 -0.28 l
0.62 -0.27 l
0.62 -0.27 l
0.62 -0.27 l
0.62 -0.27 l
0.63 -0.27 l
0.62 -0.27 l
0.62 -0.26 l
0.62 -0.27 l
0.62 -0.26 l
0.63 -0.26 l
0.62 -0.26 l
0.62 -0.26 l
0.62 -0.26 l
0.62 -0.26 l
0.63 -0.25 l
0.62 -0.26 l
0.62 -0.25 l
0.62 -0.25 l
0.62 -0.25 l
0.62 -0.25 l
0.63 -0.25 l
0.62 -0.25 l
0.62 -0.25 l
0.62 -0.24 l
0.62 -0.25 l
0.63 -0.24 l
0.62 -0.24 l
0.62 -0.24 l
0.62 -0.24 l
0.62 -0.24 l
0.63 -0.24 l
0.62 -0.23 l
0.62 -0.24 l
0.62 -0.23 l
0.62 -0.23 l
0.63 -0.23 l
o
0.7804 0.4863 1 srgb
1.07 setlinewidth
[] 0 setdash
np
42.42 44.32 m
0.63 0 l
0.63 0 l
0.63 0 l
0.63 0 l
0.63 0 l
0.63 0 l
0.63 0 l
0.63 0 l
0.63 0 l
0.63 0 l
0.63 0 l
0.62 0 l
0.63 0 l
0.63 0 l
0.63 0 l
0.63 0 l
0.63 0 l
0.63 0 l
0.63 0 l
0.63 0 l
0.63 0 l
0.63 0 l
0.63 0 l
0.63 0 l
0.63 0 l
0.63 0 l
0.63 0 l
0.63 0 l
0.63 0 l
0.63 0.01 l
0.63 0 l
0.63 0.01 l
0.63 0 l
0.63 0.01 l
0.63 0.02 l
0.63 0.01 l
0.63 0.03 l
0.63 0.02 l
0.63 0.04 l
0.63 0.04 l
0.63 0.05 l
0.63 0.07 l
0.63 0.07 l
0.63 0.08 l
0.63 0.11 l
0.63 0.11 l
0.63 0.14 l
0.63 0.15 l
0.62 0.17 l
0.63 0.19 l
0.63 0.22 l
0.63 0.24 l
0.63 0.26 l
0.63 0.29 l
0.63 0.32 l
0.63 0.35 l
0.63 0.38 l
0.63 0.41 l
0.63 0.43 l
0.63 0.48 l
0.63 0.50 l
0.63 0.53 l
0.63 0.57 l
0.63 0.61 l
0.63 0.63 l
0.63 0.68 l
0.63 0.70 l
0.63 0.74 l
0.63 0.77 l
0.63 0.81 l
0.63 0.84 l
0.63 0.87 l
0.63 0.91 l
0.63 0.93 l
0.63 0.97 l
0.63 1.00 l
0.63 1.03 l
0.63 1.06 l
0.63 1.08 l
0.63 1.11 l
0.63 1.14 l
0.63 1.17 l
0.63 1.19 l
0.63 1.21 l
0.63 1.24 l
0.62 1.25 l
0.63 1.28 l
0.63 1.29 l
0.63 1.32 l
0.63 1.33 l
0.63 1.35 l
0.63 1.36 l
0.63 1.37 l
0.63 1.39 l
0.63 1.40 l
0.63 1.41 l
0.63 1.41 l
0.63 1.43 l
0.63 1.43 l
105.39 91.78 lineto
0.63 1.45 l
0.63 1.44 l
0.63 1.45 l
0.63 1.46 l
0.63 1.45 l
0.63 1.45 l
0.63 1.45 l
0.63 1.45 l
0.63 1.45 l
0.63 1.44 l
0.63 1.44 l
0.63 1.44 l
0.63 1.42 l
0.63 1.43 l
0.63 1.41 l
0.63 1.40 l
0.63 1.40 l
0.63 1.39 l
0.63 1.37 l
0.63 1.37 l
0.63 1.36 l
0.63 1.34 l
0.62 1.33 l
0.63 1.32 l
0.63 1.30 l
0.63 1.29 l
0.63 1.28 l
0.63 1.26 l
0.63 1.24 l
0.63 1.23 l
0.63 1.22 l
0.63 1.20 l
0.63 1.18 l
0.63 1.17 l
0.63 1.15 l
0.63 1.13 l
0.63 1.11 l
0.63 1.10 l
0.63 1.08 l
0.63 1.06 l
0.63 1.04 l
0.63 1.03 l
0.63 1.00 l
0.63 0.99 l
0.63 0.97 l
0.63 0.95 l
0.63 0.93 l
0.63 0.91 l
0.63 0.90 l
0.63 0.87 l
0.63 0.86 l
0.63 0.83 l
0.63 0.82 l
0.63 0.80 l
0.63 0.78 l
0.63 0.76 l
0.63 0.75 l
0.63 0.72 l
0.63 0.71 l
0.62 0.68 l
0.63 0.67 l
0.63 0.65 l
0.63 0.63 l
0.63 0.62 l
0.63 0.59 l
0.63 0.58 l
0.63 0.56 l
0.63 0.54 l
0.63 0.53 l
0.63 0.50 l
0.63 0.49 l
0.63 0.47 l
0.63 0.46 l
0.63 0.44 l
0.63 0.42 l
0.63 0.40 l
0.63 0.39 l
0.63 0.37 l
0.63 0.36 l
0.63 0.34 l
0.63 0.32 l
0.63 0.31 l
0.63 0.30 l
0.63 0.27 l
0.63 0.27 l
0.63 0.25 l
0.63 0.23 l
0.63 0.22 l
0.63 0.20 l
0.63 0.19 l
0.63 0.18 l
0.63 0.16 l
0.63 0.15 l
0.63 0.14 l
0.63 0.12 l
0.63 0.11 l
0.62 0.10 l
0.63 0.08 l
0.63 0.08 l
168.36 175.74 lineto
0.63 0.04 l
0.63 0.04 l
0.63 0.02 l
0.63 0.02 l
0.63 0 l
0.63 -0.01 l
0.63 -0.02 l
0.63 -0.04 l
0.63 -0.04 l
0.63 -0.05 l
0.63 -0.06 l
0.63 -0.08 l
0.63 -0.08 l
0.63 -0.09 l
0.63 -0.10 l
0.63 -0.12 l
0.63 -0.12 l
0.63 -0.13 l
0.63 -0.13 l
0.63 -0.15 l
0.63 -0.16 l
0.63 -0.16 l
0.63 -0.17 l
0.63 -0.18 l
0.63 -0.19 l
0.63 -0.20 l
0.63 -0.20 l
0.63 -0.21 l
0.63 -0.22 l
0.63 -0.23 l
0.63 -0.23 l
0.63 -0.24 l
0.63 -0.24 l
0.62 -0.26 l
0.63 -0.25 l
0.63 -0.27 l
0.63 -0.27 l
0.63 -0.28 l
0.63 -0.28 l
0.63 -0.29 l
0.63 -0.29 l
0.63 -0.30 l
0.63 -0.31 l
0.63 -0.31 l
0.63 -0.31 l
0.63 -0.32 l
0.63 -0.32 l
0.63 -0.33 l
0.63 -0.34 l
0.63 -0.34 l
0.63 -0.34 l
0.63 -0.34 l
0.63 -0.36 l
0.63 -0.35 l
0.63 -0.36 l
0.63 -0.36 l
0.63 -0.37 l
0.63 -0.37 l
0.63 -0.37 l
0.63 -0.38 l
0.63 -0.38 l
0.63 -0.38 l
0.63 -0.38 l
0.63 -0.39 l
0.63 -0.40 l
0.63 -0.39 l
0.63 -0.40 l
0.63 -0.40 l
0.63 -0.40 l
0.63 -0.40 l
0.62 -0.41 l
0.63 -0.41 l
0.63 -0.41 l
0.63 -0.41 l
0.63 -0.42 l
0.63 -0.42 l
0.63 -0.42 l
0.63 -0.42 l
0.63 -0.42 l
0.63 -0.42 l
0.63 -0.43 l
0.63 -0.43 l
0.63 -0.43 l
0.63 -0.43 l
0.63 -0.43 l
0.63 -0.43 l
0.63 -0.43 l
0.63 -0.44 l
0.63 -0.43 l
0.63 -0.44 l
0.63 -0.44 l
0.63 -0.44 l
0.63 -0.44 l
0.63 -0.44 l
0.63 -0.44 l
0.63 -0.44 l
0.63 -0.44 l
0.63 -0.44 l
0.63 -0.44 l
231.34 146.53 lineto
0.63 -0.44 l
0.63 -0.44 l
0.63 -0.45 l
0.63 -0.44 l
0.63 -0.45 l
0.63 -0.44 l
0.63 -0.45 l
0.62 -0.44 l
0.63 -0.45 l
0.63 -0.44 l
0.63 -0.44 l
0.63 -0.45 l
0.63 -0.44 l
0.63 -0.45 l
0.63 -0.44 l
0.63 -0.44 l
0.63 -0.45 l
0.63 -0.44 l
0.63 -0.44 l
0.63 -0.44 l
0.63 -0.44 l
0.63 -0.45 l
0.63 -0.44 l
0.63 -0.44 l
0.63 -0.44 l
0.63 -0.43 l
0.63 -0.44 l
0.63 -0.44 l
0.63 -0.44 l
0.63 -0.43 l
0.63 -0.44 l
0.63 -0.43 l
0.63 -0.43 l
0.63 -0.44 l
0.63 -0.43 l
0.63 -0.43 l
0.63 -0.43 l
0.63 -0.43 l
0.63 -0.43 l
0.63 -0.42 l
0.63 -0.43 l
0.63 -0.43 l
0.63 -0.42 l
0.63 -0.42 l
0.62 -0.43 l
0.63 -0.42 l
0.63 -0.42 l
0.63 -0.42 l
0.63 -0.41 l
0.63 -0.42 l
0.63 -0.41 l
0.63 -0.42 l
0.63 -0.41 l
0.63 -0.41 l
0.63 -0.41 l
0.63 -0.41 l
0.63 -0.41 l
0.63 -0.41 l
0.63 -0.40 l
0.63 -0.41 l
0.63 -0.40 l
0.63 -0.40 l
0.63 -0.40 l
0.63 -0.40 l
0.63 -0.40 l
0.63 -0.40 l
0.63 -0.39 l
0.63 -0.40 l
0.63 -0.39 l
0.63 -0.39 l
0.63 -0.39 l
0.63 -0.39 l
0.63 -0.38 l
0.63 -0.39 l
0.63 -0.38 l
0.63 -0.38 l
0.63 -0.39 l
0.63 -0.37 l
0.63 -0.38 l
0.63 -0.38 l
0.63 -0.37 l
0.62 -0.38 l
0.63 -0.37 l
0.63 -0.37 l
0.63 -0.37 l
0.63 -0.37 l
0.63 -0.37 l
0.63 -0.36 l
0.63 -0.36 l
0.63 -0.37 l
0.63 -0.36 l
0.63 -0.35 l
0.63 -0.36 l
0.63 -0.36 l
0.63 -0.35 l
0.63 -0.36 l
0.63 -0.35 l
0.63 -0.35 l
0.63 -0.34 l
294.31 105.62 lineto
0.63 -0.35 l
0.63 -0.34 l
0.63 -0.34 l
0.63 -0.34 l
0.63 -0.34 l
0.63 -0.34 l
0.63 -0.34 l
0.63 -0.33 l
0.63 -0.33 l
0.63 -0.34 l
0.63 -0.33 l
0.63 -0.33 l
0.63 -0.32 l
0.63 -0.33 l
0.63 -0.32 l
0.63 -0.32 l
0.63 -0.33 l
0.63 -0.31 l
0.62 -0.32 l
0.63 -0.32 l
0.63 -0.31 l
0.63 -0.32 l
0.63 -0.31 l
0.63 -0.31 l
0.63 -0.31 l
0.63 -0.31 l
0.63 -0.30 l
0.63 -0.31 l
0.63 -0.30 l
0.63 -0.30 l
0.63 -0.30 l
0.63 -0.30 l
0.63 -0.30 l
0.63 -0.29 l
0.63 -0.30 l
0.63 -0.29 l
0.63 -0.29 l
0.63 -0.29 l
0.63 -0.29 l
0.63 -0.29 l
0.63 -0.28 l
0.63 -0.29 l
0.63 -0.28 l
0.63 -0.28 l
0.63 -0.28 l
0.63 -0.28 l
0.63 -0.27 l
0.63 -0.28 l
0.63 -0.27 l
0.63 -0.28 l
0.63 -0.27 l
0.63 -0.27 l
0.63 -0.26 l
0.63 -0.27 l
0.63 -0.27 l
0.62 -0.26 l
0.63 -0.26 l
0.63 -0.26 l
0.63 -0.26 l
0.63 -0.26 l
0.63 -0.26 l
0.63 -0.26 l
0.63 -0.25 l
0.63 -0.25 l
0.63 -0.25 l
0.63 -0.26 l
0.63 -0.24 l
0.63 -0.25 l
0.63 -0.25 l
0.63 -0.24 l
0.63 -0.25 l
0.63 -0.24 l
0.63 -0.24 l
0.63 -0.24 l
0.63 -0.24 l
0.63 -0.24 l
0.63 -0.23 l
0.63 -0.24 l
0.63 -0.23 l
0.63 -0.23 l
0.63 -0.23 l
0.63 -0.23 l
0.63 -0.23 l
0.63 -0.23 l
0.63 -0.22 l
0.63 -0.23 l
0.63 -0.22 l
0.63 -0.22 l
0.63 -0.22 l
0.63 -0.22 l
0.63 -0.22 l
0.63 -0.22 l
0.63 -0.21 l
0.62 -0.22 l
0.63 -0.21 l
0.63 -0.21 l
0.63 -0.21 l
0.63 -0.21 l
0.63 -0.21 l
o
1.07 setlinewidth
[ 2.13 2.13] 0 setdash
np
42.42 44.32 m
0.63 0 l
0.63 0 l
0.63 0 l
0.63 0 l
0.63 0 l
0.63 0 l
0.63 0 l
0.63 0 l
0.63 0 l
0.63 0 l
0.63 0 l
0.62 0 l
0.63 0 l
0.63 0 l
0.63 0 l
0.63 0 l
0.63 0 l
0.63 0 l
0.63 0 l
0.63 0 l
0.63 0 l
0.63 0 l
0.63 0 l
0.63 0 l
0.63 0 l
0.63 0 l
0.63 0 l
0.63 0.01 l
0.63 0 l
0.63 0 l
0.63 0.01 l
0.63 0.01 l
0.63 0.02 l
0.63 0.02 l
0.63 0.02 l
0.63 0.03 l
0.63 0.04 l
0.63 0.06 l
0.63 0.06 l
0.63 0.08 l
0.63 0.09 l
0.63 0.11 l
0.63 0.13 l
0.63 0.16 l
0.63 0.17 l
0.63 0.20 l
0.63 0.24 l
0.63 0.26 l
0.62 0.29 l
0.63 0.33 l
0.63 0.36 l
0.63 0.40 l
0.63 0.44 l
0.63 0.48 l
0.63 0.52 l
0.63 0.56 l
0.63 0.61 l
0.63 0.65 l
0.63 0.70 l
0.63 0.74 l
0.63 0.79 l
0.63 0.83 l
0.63 0.88 l
0.63 0.92 l
0.63 0.97 l
0.63 1.01 l
0.63 1.06 l
0.63 1.10 l
0.63 1.14 l
0.63 1.18 l
0.63 1.23 l
0.63 1.26 l
0.63 1.30 l
0.63 1.34 l
0.63 1.37 l
0.63 1.41 l
0.63 1.43 l
0.63 1.47 l
0.63 1.50 l
0.63 1.52 l
0.63 1.55 l
0.63 1.57 l
0.63 1.59 l
0.63 1.62 l
0.63 1.63 l
0.62 1.65 l
0.63 1.66 l
0.63 1.67 l
0.63 1.69 l
0.63 1.70 l
0.63 1.70 l
0.63 1.71 l
0.63 1.72 l
0.63 1.72 l
0.63 1.71 l
0.63 1.72 l
0.63 1.72 l
0.63 1.72 l
0.63 1.71 l
105.39 109.29 lineto
0.63 1.70 l
0.63 1.68 l
0.63 1.68 l
0.63 1.67 l
0.63 1.66 l
0.63 1.64 l
0.63 1.63 l
0.63 1.61 l
0.63 1.60 l
0.63 1.58 l
0.63 1.56 l
0.63 1.54 l
0.63 1.52 l
0.63 1.51 l
0.63 1.48 l
0.63 1.46 l
0.63 1.44 l
0.63 1.41 l
0.63 1.39 l
0.63 1.37 l
0.63 1.34 l
0.63 1.32 l
0.62 1.30 l
0.63 1.26 l
0.63 1.25 l
0.63 1.21 l
0.63 1.19 l
0.63 1.16 l
0.63 1.14 l
0.63 1.11 l
0.63 1.08 l
0.63 1.05 l
0.63 1.03 l
0.63 1.00 l
0.63 0.97 l
0.63 0.95 l
0.63 0.92 l
0.63 0.89 l
0.63 0.86 l
0.63 0.84 l
0.63 0.80 l
0.63 0.79 l
0.63 0.75 l
0.63 0.73 l
0.63 0.70 l
0.63 0.67 l
0.63 0.65 l
0.63 0.62 l
0.63 0.60 l
0.63 0.57 l
0.63 0.54 l
0.63 0.52 l
0.63 0.50 l
0.63 0.47 l
0.63 0.44 l
0.63 0.42 l
0.63 0.40 l
0.63 0.37 l
0.63 0.35 l
0.62 0.33 l
0.63 0.30 l
0.63 0.29 l
0.63 0.26 l
0.63 0.23 l
0.63 0.22 l
0.63 0.19 l
0.63 0.18 l
0.63 0.15 l
0.63 0.13 l
0.63 0.12 l
0.63 0.09 l
0.63 0.08 l
0.63 0.05 l
0.63 0.04 l
0.63 0.02 l
0.63 0 l
0.63 -0.02 l
0.63 -0.04 l
0.63 -0.05 l
0.63 -0.06 l
0.63 -0.09 l
0.63 -0.10 l
0.63 -0.12 l
0.63 -0.13 l
0.63 -0.14 l
0.63 -0.17 l
0.63 -0.17 l
0.63 -0.19 l
0.63 -0.20 l
0.63 -0.22 l
0.63 -0.23 l
0.63 -0.24 l
0.63 -0.26 l
0.63 -0.27 l
0.63 -0.28 l
0.63 -0.29 l
0.62 -0.30 l
0.63 -0.32 l
0.63 -0.32 l
168.36 171.31 lineto
0.63 -0.34 l
0.63 -0.36 l
0.63 -0.36 l
0.63 -0.38 l
0.63 -0.38 l
0.63 -0.40 l
0.63 -0.40 l
0.63 -0.41 l
0.63 -0.42 l
0.63 -0.42 l
0.63 -0.44 l
0.63 -0.44 l
0.63 -0.45 l
0.63 -0.45 l
0.63 -0.47 l
0.63 -0.47 l
0.63 -0.47 l
0.63 -0.48 l
0.63 -0.49 l
0.63 -0.50 l
0.63 -0.49 l
0.63 -0.51 l
0.63 -0.51 l
0.63 -0.51 l
0.63 -0.52 l
0.63 -0.52 l
0.63 -0.53 l
0.63 -0.53 l
0.63 -0.54 l
0.63 -0.54 l
0.63 -0.54 l
0.63 -0.55 l
0.63 -0.55 l
0.62 -0.56 l
0.63 -0.55 l
0.63 -0.56 l
0.63 -0.56 l
0.63 -0.57 l
0.63 -0.57 l
0.63 -0.56 l
0.63 -0.58 l
0.63 -0.57 l
0.63 -0.57 l
0.63 -0.58 l
0.63 -0.58 l
0.63 -0.58 l
0.63 -0.58 l
0.63 -0.58 l
0.63 -0.59 l
0.63 -0.58 l
0.63 -0.59 l
0.63 -0.58 l
0.63 -0.59 l
0.63 -0.59 l
0.63 -0.58 l
0.63 -0.59 l
0.63 -0.59 l
0.63 -0.59 l
0.63 -0.59 l
0.63 -0.59 l
0.63 -0.58 l
0.63 -0.59 l
0.63 -0.59 l
0.63 -0.59 l
0.63 -0.58 l
0.63 -0.59 l
0.63 -0.59 l
0.63 -0.58 l
0.63 -0.59 l
0.63 -0.58 l
0.62 -0.58 l
0.63 -0.58 l
0.63 -0.58 l
0.63 -0.58 l
0.63 -0.58 l
0.63 -0.58 l
0.63 -0.57 l
0.63 -0.58 l
0.63 -0.57 l
0.63 -0.57 l
0.63 -0.57 l
0.63 -0.57 l
0.63 -0.57 l
0.63 -0.56 l
0.63 -0.56 l
0.63 -0.57 l
0.63 -0.56 l
0.63 -0.55 l
0.63 -0.56 l
0.63 -0.55 l
0.63 -0.56 l
0.63 -0.55 l
0.63 -0.54 l
0.63 -0.55 l
0.63 -0.54 l
0.63 -0.55 l
0.63 -0.53 l
0.63 -0.54 l
0.63 -0.54 l
231.34 117.66 lineto
0.63 -0.53 l
0.63 -0.53 l
0.63 -0.53 l
0.63 -0.52 l
0.63 -0.52 l
0.63 -0.52 l
0.63 -0.52 l
0.62 -0.51 l
0.63 -0.51 l
0.63 -0.51 l
0.63 -0.51 l
0.63 -0.50 l
0.63 -0.50 l
0.63 -0.50 l
0.63 -0.50 l
0.63 -0.49 l
0.63 -0.50 l
0.63 -0.48 l
0.63 -0.49 l
0.63 -0.48 l
0.63 -0.49 l
0.63 -0.47 l
0.63 -0.48 l
0.63 -0.47 l
0.63 -0.47 l
0.63 -0.47 l
0.63 -0.47 l
0.63 -0.46 l
0.63 -0.46 l
0.63 -0.46 l
0.63 -0.45 l
0.63 -0.45 l
0.63 -0.45 l
0.63 -0.45 l
0.63 -0.44 l
0.63 -0.45 l
0.63 -0.43 l
0.63 -0.44 l
0.63 -0.43 l
0.63 -0.43 l
0.63 -0.43 l
0.63 -0.43 l
0.63 -0.42 l
0.63 -0.42 l
0.62 -0.42 l
0.63 -0.41 l
0.63 -0.41 l
0.63 -0.41 l
0.63 -0.41 l
0.63 -0.40 l
0.63 -0.40 l
0.63 -0.40 l
0.63 -0.40 l
0.63 -0.39 l
0.63 -0.39 l
0.63 -0.39 l
0.63 -0.39 l
0.63 -0.38 l
0.63 -0.38 l
0.63 -0.38 l
0.63 -0.37 l
0.63 -0.37 l
0.63 -0.37 l
0.63 -0.37 l
0.63 -0.37 l
0.63 -0.36 l
0.63 -0.36 l
0.63 -0.36 l
0.63 -0.35 l
0.63 -0.35 l
0.63 -0.35 l
0.63 -0.35 l
0.63 -0.35 l
0.63 -0.34 l
0.63 -0.34 l
0.63 -0.33 l
0.63 -0.34 l
0.63 -0.33 l
0.63 -0.33 l
0.63 -0.33 l
0.63 -0.33 l
0.62 -0.32 l
0.63 -0.32 l
0.63 -0.32 l
0.63 -0.31 l
0.63 -0.32 l
0.63 -0.31 l
0.63 -0.31 l
0.63 -0.30 l
0.63 -0.31 l
0.63 -0.30 l
0.63 -0.30 l
0.63 -0.30 l
0.63 -0.29 l
0.63 -0.30 l
0.63 -0.29 l
0.63 -0.28 l
0.63 -0.29 l
0.63 -0.28 l
294.31 77.24 lineto
0.63 -0.28 l
0.63 -0.27 l
0.63 -0.28 l
0.63 -0.27 l
0.63 -0.27 l
0.63 -0.27 l
0.63 -0.27 l
0.63 -0.27 l
0.63 -0.26 l
0.63 -0.26 l
0.63 -0.26 l
0.63 -0.26 l
0.63 -0.25 l
0.63 -0.25 l
0.63 -0.25 l
0.63 -0.25 l
0.63 -0.25 l
0.63 -0.24 l
0.62 -0.25 l
0.63 -0.24 l
0.63 -0.24 l
0.63 -0.23 l
0.63 -0.24 l
0.63 -0.23 l
0.63 -0.23 l
0.63 -0.23 l
0.63 -0.23 l
0.63 -0.23 l
0.63 -0.22 l
0.63 -0.22 l
0.63 -0.22 l
0.63 -0.22 l
0.63 -0.22 l
0.63 -0.22 l
0.63 -0.21 l
0.63 -0.21 l
0.63 -0.21 l
0.63 -0.21 l
0.63 -0.21 l
0.63 -0.20 l
0.63 -0.20 l
0.63 -0.21 l
0.63 -0.20 l
0.63 -0.19 l
0.63 -0.20 l
0.63 -0.20 l
0.63 -0.19 l
0.63 -0.19 l
0.63 -0.19 l
0.63 -0.19 l
0.63 -0.19 l
0.63 -0.18 l
0.63 -0.19 l
0.63 -0.18 l
0.63 -0.18 l
0.62 -0.18 l
0.63 -0.18 l
0.63 -0.17 l
0.63 -0.18 l
0.63 -0.17 l
0.63 -0.17 l
0.63 -0.17 l
0.63 -0.17 l
0.63 -0.17 l
0.63 -0.17 l
0.63 -0.16 l
0.63 -0.17 l
0.63 -0.16 l
0.63 -0.16 l
0.63 -0.16 l
0.63 -0.16 l
0.63 -0.15 l
0.63 -0.16 l
0.63 -0.15 l
0.63 -0.16 l
0.63 -0.15 l
0.63 -0.15 l
0.63 -0.15 l
0.63 -0.14 l
0.63 -0.15 l
0.63 -0.15 l
0.63 -0.14 l
0.63 -0.14 l
0.63 -0.14 l
0.63 -0.14 l
0.63 -0.14 l
0.63 -0.14 l
0.63 -0.14 l
0.63 -0.13 l
0.63 -0.14 l
0.63 -0.13 l
0.63 -0.13 l
0.63 -0.13 l
0.62 -0.13 l
0.63 -0.13 l
0.63 -0.13 l
0.63 -0.13 l
0.63 -0.12 l
0.63 -0.13 l
o
0.00 0.00 450.00 375.00 cl
41.79 182.43 356.65 200.89 cl
41.79 182.43 356.65 200.89 cl
/bg { 0.8510 0.8510 0.8510 srgb } def
41.79 182.43 314.86 18.46 r p2
/Font1 findfont 9 s
0.1020 0.1020 0.1020 srgb
170.71 188.43 (P) 0 ta
-0.360 (ar) tb
-0.090 (allelepiped) tb gr
41.79 182.43 356.65 200.89 cl
41.79 182.43 356.65 200.89 cl
0.00 0.00 450.00 375.00 cl
41.79 351.06 356.65 369.52 cl
41.79 351.06 356.65 369.52 cl
/bg { 0.8510 0.8510 0.8510 srgb } def
41.79 351.06 314.86 18.46 r p2
/Font1 findfont 9 s
0.1020 0.1020 0.1020 srgb
199.22 357.06 (Cylinder) .5 0 t
41.79 351.06 356.65 369.52 cl
41.79 351.06 356.65 369.52 cl
0.00 0.00 450.00 375.00 cl
0.00 0.00 450.00 375.00 cl
0.00 0.00 450.00 375.00 cl
0.00 0.00 450.00 375.00 cl
0.00 0.00 450.00 375.00 cl
0.00 0.00 450.00 375.00 cl
0.00 0.00 450.00 375.00 cl
0.00 0.00 450.00 375.00 cl
0.00 0.00 450.00 375.00 cl
0.00 0.00 450.00 375.00 cl
0.2000 0.2000 0.2000 srgb
1.07 setlinewidth
[] 0 setdash
0 setlinecap
1 setlinejoin
10.00 setmiterlimit
np
41.79 35.00 m
0 2.74 l
o
np
153.74 35.00 m
0 2.74 l
o
np
265.69 35.00 m
0 2.74 l
o
0.00 0.00 450.00 375.00 cl
0.00 0.00 450.00 375.00 cl
/Font1 findfont 9 s
0.3020 0.3020 0.3020 srgb
41.79 26.35 (0.000) .5 0 t
153.74 26.35 (0.005) .5 0 t
265.69 26.35 (0.010) .5 0 t
0.00 0.00 450.00 375.00 cl
0.00 0.00 450.00 375.00 cl
0.00 0.00 450.00 375.00 cl
0.00 0.00 450.00 375.00 cl
0.00 0.00 450.00 375.00 cl
0.00 0.00 450.00 375.00 cl
0.00 0.00 450.00 375.00 cl
0.00 0.00 450.00 375.00 cl
0.00 0.00 450.00 375.00 cl
0.00 0.00 450.00 375.00 cl
/Font1 findfont 9 s
0.3020 0.3020 0.3020 srgb
36.86 209.72 (0.00) 1 0 t
36.86 242.60 (0.25) 1 0 t
36.86 275.49 (0.50) 1 0 t
36.86 308.37 (0.75) 1 0 t
36.86 341.25 (1.00) 1 0 t
0.00 0.00 450.00 375.00 cl
0.00 0.00 450.00 375.00 cl
0.2000 0.2000 0.2000 srgb
1.07 setlinewidth
[] 0 setdash
0 setlinecap
1 setlinejoin
10.00 setmiterlimit
np
39.05 212.95 m
2.74 0 l
o
np
39.05 245.83 m
2.74 0 l
o
np
39.05 278.72 m
2.74 0 l
o
np
39.05 311.60 m
2.74 0 l
o
np
39.05 344.48 m
2.74 0 l
o
0.00 0.00 450.00 375.00 cl
0.00 0.00 450.00 375.00 cl
0.00 0.00 450.00 375.00 cl
0.00 0.00 450.00 375.00 cl
0.00 0.00 450.00 375.00 cl
0.00 0.00 450.00 375.00 cl
0.00 0.00 450.00 375.00 cl
0.00 0.00 450.00 375.00 cl
/Font1 findfont 9 s
0.3020 0.3020 0.3020 srgb
36.86 41.09 (0.00) 1 0 t
36.86 73.97 (0.25) 1 0 t
36.86 106.86 (0.50) 1 0 t
36.86 139.74 (0.75) 1 0 t
36.86 172.63 (1.00) 1 0 t
0.00 0.00 450.00 375.00 cl
0.00 0.00 450.00 375.00 cl
0.2000 0.2000 0.2000 srgb
1.07 setlinewidth
[] 0 setdash
0 setlinecap
1 setlinejoin
10.00 setmiterlimit
np
39.05 44.32 m
2.74 0 l
o
np
39.05 77.20 m
2.74 0 l
o
np
39.05 110.09 m
2.74 0 l
o
np
39.05 142.97 m
2.74 0 l
o
np
39.05 175.86 m
2.74 0 l
o
0.00 0.00 450.00 375.00 cl
0.00 0.00 450.00 375.00 cl
0.00 0.00 450.00 375.00 cl
0.00 0.00 450.00 375.00 cl
0.00 0.00 450.00 375.00 cl
0.00 0.00 450.00 375.00 cl
0.00 0.00 450.00 375.00 cl
0.00 0.00 450.00 375.00 cl
0.00 0.00 450.00 375.00 cl
0.00 0.00 450.00 375.00 cl
/Font5 findfont 11 s
0 0 0 srgb
185.64 8.74 ( ) 0 0 t
188.39 8.74 ( ) 0 0 t
/Font3 findfont 11 s
191.14 8.74 (t) 0 0 t
0.75 setlinewidth
[] 0 setdash
1 setlinecap
1 setlinejoin
10.00 setmiterlimit
np
196.74 7.35 m
2.88 10.68 l
o
201.05 8.74 (L) 0 0 t
/Font1 findfont 8 s
208.35 14.21 (2) 0 0 t
0.00 0.00 450.00 375.00 cl
0.00 0.00 450.00 375.00 cl
/Font1 findfont 11 s
0 0 0 srgb
13.38 194.40 (V) .5 90 t
0.00 0.00 450.00 375.00 cl
0.00 0.00 450.00 375.00 cl
0.00 0.00 450.00 375.00 cl
0.00 0.00 450.00 375.00 cl
0.00 0.00 450.00 375.00 cl
0.00 0.00 450.00 375.00 cl
0.00 0.00 450.00 375.00 cl
0.00 0.00 450.00 375.00 cl
/bg { 1 1 1 srgb } def
367.99 219.23 76.53 59.22 r p2
0.00 0.00 450.00 375.00 cl
0.00 0.00 450.00 375.00 cl
/Font1 findfont 11 s
0 0 0 srgb
373.66 264.33 ( ) 0 0 t
0.00 0.00 450.00 375.00 cl
0.00 0.00 450.00 375.00 cl
/bg { 0.9490 0.9490 0.9490 srgb } def
1 1 1 srgb
1.07 setlinewidth
[] 0 setdash
1 setlinecap
1 setlinejoin
10.00 setmiterlimit
373.66 242.18 17.28 17.28 r p3
0.00 0.00 450.00 375.00 cl
0.00 0.00 450.00 375.00 cl
0 0 0 srgb
1.07 setlinewidth
[] 0 setdash
0 setlinecap
1 setlinejoin
10.00 setmiterlimit
np
375.39 250.82 m
13.82 0 l
o
0.00 0.00 450.00 375.00 cl
0.00 0.00 450.00 375.00 cl
/bg { 0.9490 0.9490 0.9490 srgb } def
1 1 1 srgb
1.07 setlinewidth
[] 0 setdash
1 setlinecap
1 setlinejoin
10.00 setmiterlimit
373.66 224.90 17.28 17.28 r p3
0.00 0.00 450.00 375.00 cl
0.00 0.00 450.00 375.00 cl
0 0 0 srgb
1.07 setlinewidth
[ 2.13 2.13] 0 setdash
0 setlinecap
1 setlinejoin
10.00 setmiterlimit
np
375.39 233.54 m
13.82 0 l
o
0.00 0.00 450.00 375.00 cl
0.00 0.00 450.00 375.00 cl
/Font1 findfont 9 s
0 0 0 srgb
393.10 247.59 (Isotropic) 0 0 t
0.00 0.00 450.00 375.00 cl
0.00 0.00 450.00 375.00 cl
/Font1 findfont 9 s
0 0 0 srgb
393.10 230.31 (Anisotropic) 0 0 t
0.00 0.00 450.00 375.00 cl
0.00 0.00 450.00 375.00 cl
0.00 0.00 450.00 375.00 cl
0.00 0.00 450.00 375.00 cl
/bg { 1 1 1 srgb } def
367.99 110.36 54.84 97.53 r p2
0.00 0.00 450.00 375.00 cl
0.00 0.00 450.00 375.00 cl
/Font5 findfont 11 s
0 0 0 srgb
373.66 192.47 ( ) 0 0 t
376.41 192.47 ( ) 0 0 t
/Font3 findfont 11 s
379.16 192.47 (L) 0 0 t
/Font5 findfont 11 s
385.28 192.47 ( ) 0 0 t
/Font5 findfont 14 s
388.03 192.47 (\() 0 0 t
/Font1 findfont 11 s
392.69 192.47 (m) 0 0 t
401.85 192.47 (m) 0 0 t
/Font5 findfont 14 s
411.02 192.47 (\)) 0 0 t
0.00 0.00 450.00 375.00 cl
0.00 0.00 450.00 375.00 cl
/bg { 0.9490 0.9490 0.9490 srgb } def
1 1 1 srgb
1.07 setlinewidth
[] 0 setdash
1 setlinecap
1 setlinejoin
10.00 setmiterlimit
373.66 167.87 17.28 17.28 r p3
0.00 0.00 450.00 375.00 cl
0.00 0.00 450.00 375.00 cl
0.9725 0.4627 0.4275 srgb
1.07 setlinewidth
[] 0 setdash
0 setlinecap
1 setlinejoin
10.00 setmiterlimit
np
375.39 176.51 m
13.82 0 l
o
0.00 0.00 450.00 375.00 cl
0.00 0.00 450.00 375.00 cl
/bg { 0.9490 0.9490 0.9490 srgb } def
1 1 1 srgb
1.07 setlinewidth
[] 0 setdash
1 setlinecap
1 setlinejoin
10.00 setmiterlimit
373.66 150.59 17.28 17.28 r p3
0.00 0.00 450.00 375.00 cl
0.00 0.00 450.00 375.00 cl
0.4863 0.6824 0 srgb
1.07 setlinewidth
[] 0 setdash
0 setlinecap
1 setlinejoin
10.00 setmiterlimit
np
375.39 159.23 m
13.82 0 l
o
0.00 0.00 450.00 375.00 cl
0.00 0.00 450.00 375.00 cl
/bg { 0.9490 0.9490 0.9490 srgb } def
1 1 1 srgb
1.07 setlinewidth
[] 0 setdash
1 setlinecap
1 setlinejoin
10.00 setmiterlimit
373.66 133.31 17.28 17.28 r p3
0.00 0.00 450.00 375.00 cl
0.00 0.00 450.00 375.00 cl
0 0.7490 0.7686 srgb
1.07 setlinewidth
[] 0 setdash
0 setlinecap
1 setlinejoin
10.00 setmiterlimit
np
375.39 141.95 m
13.82 0 l
o
0.00 0.00 450.00 375.00 cl
0.00 0.00 450.00 375.00 cl
/bg { 0.9490 0.9490 0.9490 srgb } def
1 1 1 srgb
1.07 setlinewidth
[] 0 setdash
1 setlinecap
1 setlinejoin
10.00 setmiterlimit
373.66 116.03 17.28 17.28 r p3
0.00 0.00 450.00 375.00 cl
0.00 0.00 450.00 375.00 cl
0.7804 0.4863 1 srgb
1.07 setlinewidth
[] 0 setdash
0 setlinecap
1 setlinejoin
10.00 setmiterlimit
np
375.39 124.67 m
13.82 0 l
o
0.00 0.00 450.00 375.00 cl
0.00 0.00 450.00 375.00 cl
/Font1 findfont 9 s
0 0 0 srgb
393.10 173.28 (2) 0 0 t
0.00 0.00 450.00 375.00 cl
0.00 0.00 450.00 375.00 cl
/Font1 findfont 9 s
0 0 0 srgb
393.10 156.00 (4) 0 0 t
0.00 0.00 450.00 375.00 cl
0.00 0.00 450.00 375.00 cl
/Font1 findfont 9 s
0 0 0 srgb
393.10 138.72 (6) 0 0 t
0.00 0.00 450.00 375.00 cl
0.00 0.00 450.00 375.00 cl
/Font1 findfont 9 s
0 0 0 srgb
393.10 121.44 (8) 0 0 t
0.00 0.00 450.00 375.00 cl
0.00 0.00 450.00 375.00 cl
0.00 0.00 450.00 375.00 cl
0.00 0.00 450.00 375.00 cl
0.00 0.00 450.00 375.00 cl
0.00 0.00 450.00 375.00 cl
0.00 0.00 450.00 375.00 cl
0.00 0.00 450.00 375.00 cl
0.00 0.00 450.00 375.00 cl
0.00 0.00 450.00 375.00 cl
ep
%%Trailer
%%Pages: 1
%%EOF
