%!PS-Adobe-3.0 EPSF-3.0
%%DocumentNeededResources: font Helvetica
%%+ font Helvetica-Bold
%%+ font Helvetica-Oblique
%%+ font Helvetica-BoldOblique
%%+ font Symbol
%%Title: R Graphics Output
%%Creator: R Software
%%Pages: (atend)
%%BoundingBox: 0 0 372 215
%%EndComments
%%BeginProlog
/bp  { gs sRGB gs } def
% begin .ps.prolog
/gs  { gsave } bind def
/gr  { grestore } bind def
/ep  { showpage gr gr } bind def
/m   { moveto } bind def
/l  { rlineto } bind def
/np  { newpath } bind def
/cp  { closepath } bind def
/f   { fill } bind def
/o   { stroke } bind def
/c   { newpath 0 360 arc } bind def
/r   { 4 2 roll moveto 1 copy 3 -1 roll exch 0 exch rlineto 0 rlineto -1 mul 0 exch rlineto closepath } bind def
/p1  { stroke } bind def
/p2  { gsave bg fill grestore newpath } bind def
/p3  { gsave bg fill grestore stroke } bind def
/p6  { gsave bg eofill grestore newpath } bind def
/p7  { gsave bg eofill grestore stroke } bind def
/t   { 5 -2 roll moveto gsave rotate
       1 index stringwidth pop
       mul neg 0 rmoveto show grestore } bind def
/ta  { 4 -2 roll moveto gsave rotate show } bind def
/tb  { 2 -1 roll 0 rmoveto show } bind def
/cl  { grestore gsave newpath 3 index 3 index moveto 1 index
       4 -1 roll lineto  exch 1 index lineto lineto
       closepath clip newpath } bind def
/rgb { setrgbcolor } bind def
/s   { scalefont setfont } bind def
% end   .ps.prolog
/sRGB { [ /CIEBasedABC
          << /DecodeLMN
               [ { dup 0.03928 le
                        {12.92321 div}
                        {0.055 add 1.055 div 2.4 exp }
                     ifelse
                 } bind dup dup
               ]
             /MatrixLMN [0.412457 0.212673 0.019334
                         0.357576 0.715152 0.119192
                         0.180437 0.072175 0.950301]
             /WhitePoint [0.9505 1.0 1.0890]
           >>
         ] setcolorspace } bind def
/srgb { setcolor } bind def
% begin encoding
/WinAnsiEncoding [
 /.notdef /.notdef /.notdef /.notdef /.notdef /.notdef /.notdef /.notdef
 /.notdef /.notdef /.notdef /.notdef /.notdef /.notdef /.notdef /.notdef
 /.notdef /.notdef /.notdef /.notdef /.notdef /.notdef /.notdef /.notdef
 /.notdef /.notdef /.notdef /.notdef /.notdef /.notdef /.notdef /.notdef
 /space /exclam /quotedbl /numbersign /dollar /percent /ampersand /quoteright
 /parenleft /parenright /asterisk /plus /comma /minus /period /slash
 /zero /one /two /three /four /five /six /seven
 /eight /nine /colon /semicolon /less /equal /greater /question
 /at /A /B /C /D /E /F /G
 /H /I /J /K /L /M /N /O
 /P /Q /R /S /T /U /V /W
 /X /Y /Z /bracketleft /backslash /bracketright /asciicircum /underscore
 /grave /a /b /c /d /e /f /g
 /h /i /j /k /l /m /n /o
 /p /q /r /s /t /u /v /w
 /x /y /z /braceleft /bar /braceright /asciitilde /.notdef
 /Euro /.notdef /quotesinglbase /florin /quotedblbase /ellipsis /dagger /daggerdbl
 /circumflex /perthousand /Scaron /guilsinglleft /OE /.notdef /Zcaron /.notdef
 /.notdef /quoteleft /quoteright /quotedblleft /quotedblright /bullet /endash /emdash
 /tilde /trademark /scaron /guilsinglright /oe /.notdef /zcaron /Ydieresis
 /space /exclamdown /cent /sterling /currency /yen /brokenbar /section
 /dieresis /copyright /ordfeminine /guillemotleft /logicalnot /hyphen /registered /macron
 /degree /plusminus /twosuperior /threesuperior /acute /mu /paragraph /periodcentered
 /cedilla /onesuperior /ordmasculine /guillemotright /onequarter /onehalf /threequarters /questiondown
 /Agrave /Aacute /Acircumflex /Atilde /Adieresis /Aring /AE /Ccedilla
 /Egrave /Eacute /Ecircumflex /Edieresis /Igrave /Iacute /Icircumflex /Idieresis
 /Eth /Ntilde /Ograve /Oacute /Ocircumflex /Otilde /Odieresis /multiply
 /Oslash /Ugrave /Uacute /Ucircumflex /Udieresis /Yacute /Thorn /germandbls
 /agrave /aacute /acircumflex /atilde /adieresis /aring /ae /ccedilla
 /egrave /eacute /ecircumflex /edieresis /igrave /iacute /icircumflex /idieresis
 /eth /ntilde /ograve /oacute /ocircumflex /otilde /odieresis /divide
 /oslash /ugrave /uacute /ucircumflex /udieresis /yacute /thorn /ydieresis
]
 def
% end encoding
%%IncludeResource: font Helvetica
/Helvetica findfont
dup length dict begin
  {1 index /FID ne {def} {pop pop} ifelse} forall
  /Encoding WinAnsiEncoding def
  currentdict
  end
/Font1 exch definefont pop
%%IncludeResource: font Helvetica-Bold
/Helvetica-Bold findfont
dup length dict begin
  {1 index /FID ne {def} {pop pop} ifelse} forall
  /Encoding WinAnsiEncoding def
  currentdict
  end
/Font2 exch definefont pop
%%IncludeResource: font Helvetica-Oblique
/Helvetica-Oblique findfont
dup length dict begin
  {1 index /FID ne {def} {pop pop} ifelse} forall
  /Encoding WinAnsiEncoding def
  currentdict
  end
/Font3 exch definefont pop
%%IncludeResource: font Helvetica-BoldOblique
/Helvetica-BoldOblique findfont
dup length dict begin
  {1 index /FID ne {def} {pop pop} ifelse} forall
  /Encoding WinAnsiEncoding def
  currentdict
  end
/Font4 exch definefont pop
%%IncludeResource: font Symbol
/Symbol findfont
dup length dict begin
  {1 index /FID ne {def} {pop pop} ifelse} forall
  currentdict
  end
/Font5 exch definefont pop
%%EndProlog
%%Page: 1 1
bp
0.00 0.00 372.00 215.25 cl
0.00 0.00 372.00 215.25 cl
0.00 0.00 372.00 215.25 cl
0.00 0.00 372.00 215.25 cl
0.00 0.00 372.00 215.25 cl
0.00 0.00 372.00 215.25 cl
0.00 0.00 372.00 215.25 cl
0.00 0.00 372.00 215.25 cl
0.00 0.00 372.00 215.25 cl
/bg { 1 1 1 srgb } def
1 1 1 srgb
1.07 setlinewidth
[] 0 setdash
1 setlinecap
1 setlinejoin
10.00 setmiterlimit
0.00 0.00 372.00 215.25 r p3
0.00 0.00 372.00 215.25 cl
0.00 0.00 372.00 215.25 cl
0.00 0.00 372.00 215.25 cl
42.40 31.35 293.07 209.77 cl
/bg { 0.9216 0.9216 0.9216 srgb } def
42.40 31.35 250.67 178.42 r p2
1 1 1 srgb
0.53 setlinewidth
[] 0 setdash
0 setlinecap
1 setlinejoin
10.00 setmiterlimit
np
42.40 59.48 m
250.67 0 l
o
np
42.40 99.32 m
250.67 0 l
o
np
42.40 139.17 m
250.67 0 l
o
np
42.40 179.02 m
250.67 0 l
o
np
42.40 31.35 m
0 178.42 l
o
np
98.10 31.35 m
0 178.42 l
o
np
153.81 31.35 m
0 178.42 l
o
np
209.51 31.35 m
0 178.42 l
o
np
265.22 31.35 m
0 178.42 l
o
1.07 setlinewidth
[] 0 setdash
np
42.40 39.55 m
250.67 0 l
o
np
42.40 79.40 m
250.67 0 l
o
np
42.40 119.25 m
250.67 0 l
o
np
42.40 159.10 m
250.67 0 l
o
np
42.40 198.94 m
250.67 0 l
o
np
70.25 31.35 m
0 178.42 l
o
np
125.96 31.35 m
0 178.42 l
o
np
181.66 31.35 m
0 178.42 l
o
np
237.36 31.35 m
0 178.42 l
o
np
293.07 31.35 m
0 178.42 l
o
1 0.3882 0.2784 srgb
1.00 setmiterlimit
np
42.40 39.55 m
2.53 0 l
2.53 0 l
2.53 0 l
2.54 0 l
2.53 0 l
2.53 0 l
2.53 0 l
2.53 0 l
2.54 0 l
2.53 0 l
2.53 0 l
2.53 -0.09 l
2.53 0.09 l
2.54 0.93 l
2.53 4.44 l
2.53 9.47 l
2.53 13.45 l
2.53 15.38 l
2.54 15.56 l
2.53 14.69 l
2.53 13.31 l
2.53 11.74 l
2.53 10.19 l
2.54 8.77 l
2.53 7.48 l
2.53 6.36 l
2.53 5.37 l
2.54 4.54 l
2.53 3.80 l
2.53 3.20 l
2.53 2.66 l
2.53 2.21 l
2.54 1.84 l
2.53 1.51 l
2.53 1.23 l
2.53 1.00 l
2.53 0.81 l
2.54 0.63 l
2.53 0.50 l
2.53 0.37 l
2.53 0.28 l
2.53 0.19 l
2.54 0.12 l
2.53 0.07 l
2.53 0.01 l
2.53 -0.03 l
2.53 -0.06 l
2.54 -0.09 l
2.53 -0.11 l
2.53 -0.13 l
2.53 -0.15 l
2.53 -0.16 l
2.54 -0.16 l
2.53 -0.18 l
2.53 -0.17 l
2.53 -0.19 l
2.53 -0.18 l
2.54 -0.19 l
2.53 -0.18 l
2.53 -0.19 l
2.53 -0.19 l
2.53 -0.18 l
2.54 -0.18 l
2.53 -0.18 l
2.53 -0.18 l
2.53 -0.17 l
2.53 -0.18 l
2.54 -0.17 l
2.53 -0.16 l
2.53 -0.17 l
2.53 -0.16 l
2.53 -0.15 l
2.54 -0.16 l
2.53 -0.15 l
2.53 -0.15 l
2.53 -0.15 l
2.53 -0.14 l
2.54 -0.14 l
2.53 -0.14 l
2.53 -0.14 l
2.53 -0.13 l
2.53 -0.13 l
2.54 -0.13 l
2.53 -0.13 l
2.53 -0.12 l
2.53 -0.12 l
2.53 -0.12 l
2.54 -0.12 l
2.53 -0.12 l
2.53 -0.11 l
2.53 -0.11 l
2.53 -0.11 l
2.54 -0.11 l
2.53 -0.11 l
2.53 -0.11 l
2.53 -0.10 l
2.53 -0.11 l
2.54 -0.10 l
2.53 -0.10 l
o
0.8039 0.7451 0.4392 srgb
np
42.40 39.55 m
2.53 0 l
2.53 0 l
2.53 0 l
2.54 0 l
2.53 0 l
2.53 0 l
2.53 0 l
2.53 0 l
2.54 0 l
2.53 0 l
2.53 0 l
2.53 -0.06 l
2.53 0.02 l
2.54 0.37 l
2.53 2.12 l
2.53 5.49 l
2.53 9.29 l
2.53 12.29 l
2.54 13.99 l
2.53 14.46 l
2.53 14.00 l
2.53 12.98 l
2.53 11.68 l
2.54 10.30 l
2.53 8.96 l
2.53 7.70 l
2.53 6.58 l
2.54 5.59 l
2.53 4.73 l
2.53 3.98 l
2.53 3.34 l
2.53 2.80 l
2.54 2.33 l
2.53 1.93 l
2.53 1.59 l
2.53 1.30 l
2.53 1.07 l
2.54 0.85 l
2.53 0.68 l
2.53 0.53 l
2.53 0.41 l
2.53 0.30 l
2.54 0.22 l
2.53 0.14 l
2.53 0.08 l
2.53 0.03 l
2.53 -0.02 l
2.54 -0.05 l
2.53 -0.08 l
2.53 -0.11 l
2.53 -0.13 l
2.53 -0.14 l
2.54 -0.15 l
2.53 -0.16 l
2.53 -0.17 l
2.53 -0.18 l
2.53 -0.18 l
2.54 -0.19 l
2.53 -0.18 l
2.53 -0.19 l
2.53 -0.18 l
2.53 -0.19 l
2.54 -0.18 l
2.53 -0.18 l
2.53 -0.18 l
2.53 -0.18 l
2.53 -0.17 l
2.54 -0.18 l
2.53 -0.17 l
2.53 -0.16 l
2.53 -0.17 l
2.53 -0.16 l
2.54 -0.16 l
2.53 -0.15 l
2.53 -0.15 l
2.53 -0.15 l
2.53 -0.15 l
2.54 -0.14 l
2.53 -0.15 l
2.53 -0.13 l
2.53 -0.14 l
2.53 -0.13 l
2.54 -0.14 l
2.53 -0.12 l
2.53 -0.13 l
2.53 -0.13 l
2.53 -0.12 l
2.54 -0.12 l
2.53 -0.12 l
2.53 -0.11 l
2.53 -0.12 l
2.53 -0.11 l
2.54 -0.11 l
2.53 -0.11 l
2.53 -0.11 l
2.53 -0.11 l
2.53 -0.10 l
2.54 -0.10 l
2.53 -0.11 l
o
0.5608 0.7373 0.5608 srgb
np
42.40 39.55 m
2.53 0 l
2.53 0 l
2.53 0 l
2.54 0 l
2.53 0 l
2.53 0 l
2.53 0 l
2.53 0 l
2.54 0 l
2.53 0 l
2.53 0 l
2.53 -0.02 l
2.53 0 l
2.54 0.11 l
2.53 0.77 l
2.53 2.32 l
2.53 4.56 l
2.53 6.98 l
2.54 9.13 l
2.53 10.72 l
2.53 11.68 l
2.53 12.04 l
2.53 11.90 l
2.54 11.39 l
2.53 10.63 l
2.53 9.72 l
2.53 8.76 l
2.54 7.78 l
2.53 6.84 l
2.53 5.95 l
2.53 5.15 l
2.53 4.42 l
2.54 3.77 l
2.53 3.20 l
2.53 2.70 l
2.53 2.27 l
2.53 1.89 l
2.54 1.57 l
2.53 1.29 l
2.53 1.05 l
2.53 0.85 l
2.53 0.69 l
2.54 0.53 l
2.53 0.41 l
2.53 0.31 l
2.53 0.22 l
2.53 0.15 l
2.54 0.08 l
2.53 0.03 l
2.53 -0.01 l
2.53 -0.04 l
2.53 -0.08 l
2.54 -0.10 l
2.53 -0.12 l
2.53 -0.13 l
2.53 -0.15 l
2.53 -0.16 l
2.54 -0.17 l
2.53 -0.17 l
2.53 -0.18 l
2.53 -0.18 l
2.53 -0.18 l
2.54 -0.18 l
2.53 -0.18 l
2.53 -0.18 l
2.53 -0.18 l
2.53 -0.18 l
2.54 -0.18 l
2.53 -0.17 l
2.53 -0.17 l
2.53 -0.17 l
2.53 -0.17 l
2.54 -0.16 l
2.53 -0.17 l
2.53 -0.15 l
2.53 -0.16 l
2.53 -0.15 l
2.54 -0.15 l
2.53 -0.15 l
2.53 -0.15 l
2.53 -0.14 l
2.53 -0.14 l
2.54 -0.13 l
2.53 -0.14 l
2.53 -0.13 l
2.53 -0.13 l
2.53 -0.13 l
2.54 -0.12 l
2.53 -0.13 l
2.53 -0.12 l
2.53 -0.12 l
2.53 -0.11 l
2.54 -0.12 l
2.53 -0.11 l
2.53 -0.11 l
2.53 -0.11 l
2.53 -0.11 l
2.54 -0.11 l
2.53 -0.10 l
o
0.5294 0.8078 0.9804 srgb
np
42.40 39.55 m
2.53 0 l
2.53 0 l
2.53 0 l
2.54 0 l
2.53 0 l
2.53 0 l
2.53 0 l
2.53 0 l
2.54 0 l
2.53 0 l
2.53 0 l
2.53 -0.01 l
2.53 0 l
2.54 0.05 l
2.53 0.39 l
2.53 1.25 l
2.53 2.62 l
2.53 4.26 l
2.54 5.96 l
2.53 7.47 l
2.53 8.69 l
2.53 9.54 l
2.53 10.03 l
2.54 10.20 l
2.53 10.09 l
2.53 9.77 l
2.53 9.27 l
2.54 8.67 l
2.53 8.01 l
2.53 7.30 l
2.53 6.60 l
2.53 5.91 l
2.54 5.24 l
2.53 4.63 l
2.53 4.06 l
2.53 3.53 l
2.53 3.06 l
2.54 2.63 l
2.53 2.25 l
2.53 1.92 l
2.53 1.62 l
2.53 1.35 l
2.54 1.13 l
2.53 0.93 l
2.53 0.76 l
2.53 0.62 l
2.53 0.48 l
2.54 0.38 l
2.53 0.28 l
2.53 0.21 l
2.53 0.14 l
2.53 0.08 l
2.54 0.03 l
2.53 -0.01 l
2.53 -0.04 l
2.53 -0.07 l
2.53 -0.10 l
2.54 -0.11 l
2.53 -0.13 l
2.53 -0.14 l
2.53 -0.15 l
2.53 -0.15 l
2.54 -0.17 l
2.53 -0.17 l
2.53 -0.17 l
2.53 -0.17 l
2.53 -0.17 l
2.54 -0.18 l
2.53 -0.17 l
2.53 -0.17 l
2.53 -0.17 l
2.53 -0.17 l
2.54 -0.17 l
2.53 -0.17 l
2.53 -0.16 l
2.53 -0.16 l
2.53 -0.16 l
2.54 -0.15 l
2.53 -0.16 l
2.53 -0.15 l
2.53 -0.15 l
2.53 -0.14 l
2.54 -0.14 l
2.53 -0.14 l
2.53 -0.14 l
2.53 -0.14 l
2.53 -0.13 l
2.54 -0.13 l
2.53 -0.13 l
2.53 -0.12 l
2.53 -0.13 l
2.53 -0.12 l
2.54 -0.12 l
2.53 -0.12 l
2.53 -0.11 l
2.53 -0.12 l
2.53 -0.11 l
2.54 -0.11 l
2.53 -0.11 l
o
/Font3 findfont 11 s
0 0 0 srgb
189.51 180.06 (R) 0 0 t
/Font1 findfont 8 s
198.64 178.05 (1) 0 0 t
/Font5 findfont 11 s
205.63 180.06 (=) 0 0 t
/Font1 findfont 11 s
214.22 180.06 (0.5) 0 0 t
/Font3 findfont 11 s
194.10 164.20 (R) 0 0 t
/Font1 findfont 8 s
203.23 162.18 (0) 0 0 t
/Font5 findfont 11 s
210.22 164.20 (=) 0 0 t
/Font1 findfont 11 s
218.81 164.20 (0) 0 0 t
/Font3 findfont 11 s
188.74 148.27 (r) 0 0 t
/Font1 findfont 8 s
193.30 146.25 (1) 0 0 t
/Font5 findfont 11 s
200.29 148.27 (=) 0 0 t
/Font1 findfont 11 s
208.87 148.27 (0.95) 0 0 t
/Font3 findfont 11 s
196.39 132.40 (r) 0 0 t
/Font1 findfont 8 s
200.94 130.39 (0) 0 0 t
/Font5 findfont 11 s
207.93 132.40 (=) 0 0 t
/Font1 findfont 11 s
216.52 132.40 (0) 0 0 t
/Font3 findfont 11 s
179.10 115.30 (L) 0 0 t
0.75 setlinewidth
[] 0 setdash
1 setlinecap
10.00 setmiterlimit
np
187.84 113.91 m
2.87 10.68 l
o
192.15 115.30 (R) 0 0 t
/Font5 findfont 11 s
203.82 115.30 (=) 0 0 t
/Font1 findfont 11 s
212.41 115.30 (0.411) 0 0 t
/Font3 findfont 11 s
188.68 99.46 (H) 0 0 t
/Font5 findfont 11 s
200.35 99.46 (=) 0 0 t
/Font1 findfont 11 s
208.94 99.46 (0.01) 0 0 t
0.00 0.00 372.00 215.25 cl
0.00 0.00 372.00 215.25 cl
0.00 0.00 372.00 215.25 cl
0.00 0.00 372.00 215.25 cl
0.00 0.00 372.00 215.25 cl
0.00 0.00 372.00 215.25 cl
/Font1 findfont 9 s
0.3020 0.3020 0.3020 srgb
37.47 36.32 (0.00) 1 0 t
37.47 76.17 (0.25) 1 0 t
37.47 116.02 (0.50) 1 0 t
37.47 155.86 (0.75) 1 0 t
37.47 195.71 (1.00) 1 0 t
0.00 0.00 372.00 215.25 cl
0.00 0.00 372.00 215.25 cl
0.2000 0.2000 0.2000 srgb
1.07 setlinewidth
[] 0 setdash
0 setlinecap
1 setlinejoin
10.00 setmiterlimit
np
39.66 39.55 m
2.74 0 l
o
np
39.66 79.40 m
2.74 0 l
o
np
39.66 119.25 m
2.74 0 l
o
np
39.66 159.10 m
2.74 0 l
o
np
39.66 198.94 m
2.74 0 l
o
0.00 0.00 372.00 215.25 cl
0.00 0.00 372.00 215.25 cl
0.00 0.00 372.00 215.25 cl
0.00 0.00 372.00 215.25 cl
0.00 0.00 372.00 215.25 cl
0.00 0.00 372.00 215.25 cl
0.00 0.00 372.00 215.25 cl
0.00 0.00 372.00 215.25 cl
0.2000 0.2000 0.2000 srgb
1.07 setlinewidth
[] 0 setdash
0 setlinecap
1 setlinejoin
10.00 setmiterlimit
np
70.25 28.61 m
0 2.74 l
o
np
125.96 28.61 m
0 2.74 l
o
np
181.66 28.61 m
0 2.74 l
o
np
237.36 28.61 m
0 2.74 l
o
np
293.07 28.61 m
0 2.74 l
o
0.00 0.00 372.00 215.25 cl
0.00 0.00 372.00 215.25 cl
/Font1 findfont 9 s
0.3020 0.3020 0.3020 srgb
70.25 19.95 (0.00) .5 0 t
125.96 19.95 (0.02) .5 0 t
181.66 19.95 (0.04) .5 0 t
237.36 19.95 (0.06) .5 0 t
293.07 19.95 (0.08) .5 0 t
0.00 0.00 372.00 215.25 cl
0.00 0.00 372.00 215.25 cl
0.00 0.00 372.00 215.25 cl
0.00 0.00 372.00 215.25 cl
/Font1 findfont 11 s
0 0 0 srgb
167.73 7.67 (time) .5 0 t
0.00 0.00 372.00 215.25 cl
0.00 0.00 372.00 215.25 cl
/Font1 findfont 11 s
0 0 0 srgb
15.57 120.56 (V) .5 90 t
0.00 0.00 372.00 215.25 cl
0.00 0.00 372.00 215.25 cl
0.00 0.00 372.00 215.25 cl
0.00 0.00 372.00 215.25 cl
/bg { 1 1 1 srgb } def
301.57 73.16 56.44 94.81 r p2
0.00 0.00 372.00 215.25 cl
0.00 0.00 372.00 215.25 cl
/Font5 findfont 11 s
0 0 0 srgb
305.82 155.43 ( ) 0 0 t
308.57 155.43 ( ) 0 0 t
/Font3 findfont 11 s
311.32 155.43 (t) 0 0 t
/Font3 findfont 8 s
315.49 153.42 (p) 0 0 t
0.00 0.00 372.00 215.25 cl
0.00 0.00 372.00 215.25 cl
/bg { 0.9490 0.9490 0.9490 srgb } def
1 1 1 srgb
1.07 setlinewidth
[] 0 setdash
1 setlinecap
1 setlinejoin
10.00 setmiterlimit
305.82 129.25 17.28 17.28 r p3
0.00 0.00 372.00 215.25 cl
0.00 0.00 372.00 215.25 cl
1 0.3882 0.2784 srgb
1.07 setlinewidth
[] 0 setdash
0 setlinecap
1 setlinejoin
10.00 setmiterlimit
np
307.55 137.89 m
13.83 0 l
o
0.00 0.00 372.00 215.25 cl
0.00 0.00 372.00 215.25 cl
1 0.3882 0.2784 srgb
1.07 setlinewidth
[] 0 setdash
0 setlinecap
1 setlinejoin
10.00 setmiterlimit
np
307.55 137.89 m
13.83 0 l
o
0.00 0.00 372.00 215.25 cl
0.00 0.00 372.00 215.25 cl
1 0.3882 0.2784 srgb
1.07 setlinewidth
[] 0 setdash
0 setlinecap
1 setlinejoin
10.00 setmiterlimit
np
307.55 137.89 m
13.83 0 l
o
0.00 0.00 372.00 215.25 cl
0.00 0.00 372.00 215.25 cl
1 0.3882 0.2784 srgb
1.07 setlinewidth
[] 0 setdash
0 setlinecap
1 setlinejoin
10.00 setmiterlimit
np
307.55 137.89 m
13.83 0 l
o
0.00 0.00 372.00 215.25 cl
0.00 0.00 372.00 215.25 cl
/bg { 0.9490 0.9490 0.9490 srgb } def
1 1 1 srgb
1.07 setlinewidth
[] 0 setdash
1 setlinecap
1 setlinejoin
10.00 setmiterlimit
305.82 111.97 17.28 17.28 r p3
0.00 0.00 372.00 215.25 cl
0.00 0.00 372.00 215.25 cl
0.8039 0.7451 0.4392 srgb
1.07 setlinewidth
[] 0 setdash
0 setlinecap
1 setlinejoin
10.00 setmiterlimit
np
307.55 120.61 m
13.83 0 l
o
0.00 0.00 372.00 215.25 cl
0.00 0.00 372.00 215.25 cl
0.8039 0.7451 0.4392 srgb
1.07 setlinewidth
[] 0 setdash
0 setlinecap
1 setlinejoin
10.00 setmiterlimit
np
307.55 120.61 m
13.83 0 l
o
0.00 0.00 372.00 215.25 cl
0.00 0.00 372.00 215.25 cl
0.8039 0.7451 0.4392 srgb
1.07 setlinewidth
[] 0 setdash
0 setlinecap
1 setlinejoin
10.00 setmiterlimit
np
307.55 120.61 m
13.83 0 l
o
0.00 0.00 372.00 215.25 cl
0.00 0.00 372.00 215.25 cl
0.8039 0.7451 0.4392 srgb
1.07 setlinewidth
[] 0 setdash
0 setlinecap
1 setlinejoin
10.00 setmiterlimit
np
307.55 120.61 m
13.83 0 l
o
0.00 0.00 372.00 215.25 cl
0.00 0.00 372.00 215.25 cl
/bg { 0.9490 0.9490 0.9490 srgb } def
1 1 1 srgb
1.07 setlinewidth
[] 0 setdash
1 setlinecap
1 setlinejoin
10.00 setmiterlimit
305.82 94.69 17.28 17.28 r p3
0.00 0.00 372.00 215.25 cl
0.00 0.00 372.00 215.25 cl
0.5608 0.7373 0.5608 srgb
1.07 setlinewidth
[] 0 setdash
0 setlinecap
1 setlinejoin
10.00 setmiterlimit
np
307.55 103.33 m
13.83 0 l
o
0.00 0.00 372.00 215.25 cl
0.00 0.00 372.00 215.25 cl
0.5608 0.7373 0.5608 srgb
1.07 setlinewidth
[] 0 setdash
0 setlinecap
1 setlinejoin
10.00 setmiterlimit
np
307.55 103.33 m
13.83 0 l
o
0.00 0.00 372.00 215.25 cl
0.00 0.00 372.00 215.25 cl
0.5608 0.7373 0.5608 srgb
1.07 setlinewidth
[] 0 setdash
0 setlinecap
1 setlinejoin
10.00 setmiterlimit
np
307.55 103.33 m
13.83 0 l
o
0.00 0.00 372.00 215.25 cl
0.00 0.00 372.00 215.25 cl
0.5608 0.7373 0.5608 srgb
1.07 setlinewidth
[] 0 setdash
0 setlinecap
1 setlinejoin
10.00 setmiterlimit
np
307.55 103.33 m
13.83 0 l
o
0.00 0.00 372.00 215.25 cl
0.00 0.00 372.00 215.25 cl
/bg { 0.9490 0.9490 0.9490 srgb } def
1 1 1 srgb
1.07 setlinewidth
[] 0 setdash
1 setlinecap
1 setlinejoin
10.00 setmiterlimit
305.82 77.41 17.28 17.28 r p3
0.00 0.00 372.00 215.25 cl
0.00 0.00 372.00 215.25 cl
0.5294 0.8078 0.9804 srgb
1.07 setlinewidth
[] 0 setdash
0 setlinecap
1 setlinejoin
10.00 setmiterlimit
np
307.55 86.05 m
13.83 0 l
o
0.00 0.00 372.00 215.25 cl
0.00 0.00 372.00 215.25 cl
0.5294 0.8078 0.9804 srgb
1.07 setlinewidth
[] 0 setdash
0 setlinecap
1 setlinejoin
10.00 setmiterlimit
np
307.55 86.05 m
13.83 0 l
o
0.00 0.00 372.00 215.25 cl
0.00 0.00 372.00 215.25 cl
0.5294 0.8078 0.9804 srgb
1.07 setlinewidth
[] 0 setdash
0 setlinecap
1 setlinejoin
10.00 setmiterlimit
np
307.55 86.05 m
13.83 0 l
o
0.00 0.00 372.00 215.25 cl
0.00 0.00 372.00 215.25 cl
0.5294 0.8078 0.9804 srgb
1.07 setlinewidth
[] 0 setdash
0 setlinecap
1 setlinejoin
10.00 setmiterlimit
np
307.55 86.05 m
13.83 0 l
o
0.00 0.00 372.00 215.25 cl
0.00 0.00 372.00 215.25 cl
/Font1 findfont 9 s
0 0 0 srgb
325.26 134.66 (0.0005) 0 0 t
0.00 0.00 372.00 215.25 cl
0.00 0.00 372.00 215.25 cl
/Font1 findfont 9 s
0 0 0 srgb
325.26 117.38 (0.001) 0 0 t
0.00 0.00 372.00 215.25 cl
0.00 0.00 372.00 215.25 cl
/Font1 findfont 9 s
0 0 0 srgb
325.26 100.10 (0.002) 0 0 t
0.00 0.00 372.00 215.25 cl
0.00 0.00 372.00 215.25 cl
/Font1 findfont 9 s
0 0 0 srgb
325.26 82.82 (0.003) 0 0 t
0.00 0.00 372.00 215.25 cl
0.00 0.00 372.00 215.25 cl
0.00 0.00 372.00 215.25 cl
0.00 0.00 372.00 215.25 cl
0.00 0.00 372.00 215.25 cl
0.00 0.00 372.00 215.25 cl
ep
%%Trailer
%%Pages: 1
%%EOF
