%!PS-Adobe-3.0 EPSF-3.0
%%DocumentNeededResources: font Helvetica
%%+ font Helvetica-Bold
%%+ font Helvetica-Oblique
%%+ font Helvetica-BoldOblique
%%+ font Symbol
%%Title: R Graphics Output
%%Creator: R Software
%%Pages: (atend)
%%BoundingBox: 0 0 300 225
%%EndComments
%%BeginProlog
/bp  { gs sRGB gs } def
% begin .ps.prolog
/gs  { gsave } bind def
/gr  { grestore } bind def
/ep  { showpage gr gr } bind def
/m   { moveto } bind def
/l  { rlineto } bind def
/np  { newpath } bind def
/cp  { closepath } bind def
/f   { fill } bind def
/o   { stroke } bind def
/c   { newpath 0 360 arc } bind def
/r   { 4 2 roll moveto 1 copy 3 -1 roll exch 0 exch rlineto 0 rlineto -1 mul 0 exch rlineto closepath } bind def
/p1  { stroke } bind def
/p2  { gsave bg fill grestore newpath } bind def
/p3  { gsave bg fill grestore stroke } bind def
/p6  { gsave bg eofill grestore newpath } bind def
/p7  { gsave bg eofill grestore stroke } bind def
/t   { 5 -2 roll moveto gsave rotate
       1 index stringwidth pop
       mul neg 0 rmoveto show grestore } bind def
/ta  { 4 -2 roll moveto gsave rotate show } bind def
/tb  { 2 -1 roll 0 rmoveto show } bind def
/cl  { grestore gsave newpath 3 index 3 index moveto 1 index
       4 -1 roll lineto  exch 1 index lineto lineto
       closepath clip newpath } bind def
/rgb { setrgbcolor } bind def
/s   { scalefont setfont } bind def
% end   .ps.prolog
/sRGB { [ /CIEBasedABC
          << /DecodeLMN
               [ { dup 0.03928 le
                        {12.92321 div}
                        {0.055 add 1.055 div 2.4 exp }
                     ifelse
                 } bind dup dup
               ]
             /MatrixLMN [0.412457 0.212673 0.019334
                         0.357576 0.715152 0.119192
                         0.180437 0.072175 0.950301]
             /WhitePoint [0.9505 1.0 1.0890]
           >>
         ] setcolorspace } bind def
/srgb { setcolor } bind def
% begin encoding
/WinAnsiEncoding [
 /.notdef /.notdef /.notdef /.notdef /.notdef /.notdef /.notdef /.notdef
 /.notdef /.notdef /.notdef /.notdef /.notdef /.notdef /.notdef /.notdef
 /.notdef /.notdef /.notdef /.notdef /.notdef /.notdef /.notdef /.notdef
 /.notdef /.notdef /.notdef /.notdef /.notdef /.notdef /.notdef /.notdef
 /space /exclam /quotedbl /numbersign /dollar /percent /ampersand /quoteright
 /parenleft /parenright /asterisk /plus /comma /minus /period /slash
 /zero /one /two /three /four /five /six /seven
 /eight /nine /colon /semicolon /less /equal /greater /question
 /at /A /B /C /D /E /F /G
 /H /I /J /K /L /M /N /O
 /P /Q /R /S /T /U /V /W
 /X /Y /Z /bracketleft /backslash /bracketright /asciicircum /underscore
 /grave /a /b /c /d /e /f /g
 /h /i /j /k /l /m /n /o
 /p /q /r /s /t /u /v /w
 /x /y /z /braceleft /bar /braceright /asciitilde /.notdef
 /Euro /.notdef /quotesinglbase /florin /quotedblbase /ellipsis /dagger /daggerdbl
 /circumflex /perthousand /Scaron /guilsinglleft /OE /.notdef /Zcaron /.notdef
 /.notdef /quoteleft /quoteright /quotedblleft /quotedblright /bullet /endash /emdash
 /tilde /trademark /scaron /guilsinglright /oe /.notdef /zcaron /Ydieresis
 /space /exclamdown /cent /sterling /currency /yen /brokenbar /section
 /dieresis /copyright /ordfeminine /guillemotleft /logicalnot /hyphen /registered /macron
 /degree /plusminus /twosuperior /threesuperior /acute /mu /paragraph /periodcentered
 /cedilla /onesuperior /ordmasculine /guillemotright /onequarter /onehalf /threequarters /questiondown
 /Agrave /Aacute /Acircumflex /Atilde /Adieresis /Aring /AE /Ccedilla
 /Egrave /Eacute /Ecircumflex /Edieresis /Igrave /Iacute /Icircumflex /Idieresis
 /Eth /Ntilde /Ograve /Oacute /Ocircumflex /Otilde /Odieresis /multiply
 /Oslash /Ugrave /Uacute /Ucircumflex /Udieresis /Yacute /Thorn /germandbls
 /agrave /aacute /acircumflex /atilde /adieresis /aring /ae /ccedilla
 /egrave /eacute /ecircumflex /edieresis /igrave /iacute /icircumflex /idieresis
 /eth /ntilde /ograve /oacute /ocircumflex /otilde /odieresis /divide
 /oslash /ugrave /uacute /ucircumflex /udieresis /yacute /thorn /ydieresis
]
 def
% end encoding
%%IncludeResource: font Helvetica
/Helvetica findfont
dup length dict begin
  {1 index /FID ne {def} {pop pop} ifelse} forall
  /Encoding WinAnsiEncoding def
  currentdict
  end
/Font1 exch definefont pop
%%IncludeResource: font Helvetica-Bold
/Helvetica-Bold findfont
dup length dict begin
  {1 index /FID ne {def} {pop pop} ifelse} forall
  /Encoding WinAnsiEncoding def
  currentdict
  end
/Font2 exch definefont pop
%%IncludeResource: font Helvetica-Oblique
/Helvetica-Oblique findfont
dup length dict begin
  {1 index /FID ne {def} {pop pop} ifelse} forall
  /Encoding WinAnsiEncoding def
  currentdict
  end
/Font3 exch definefont pop
%%IncludeResource: font Helvetica-BoldOblique
/Helvetica-BoldOblique findfont
dup length dict begin
  {1 index /FID ne {def} {pop pop} ifelse} forall
  /Encoding WinAnsiEncoding def
  currentdict
  end
/Font4 exch definefont pop
%%IncludeResource: font Symbol
/Symbol findfont
dup length dict begin
  {1 index /FID ne {def} {pop pop} ifelse} forall
  currentdict
  end
/Font5 exch definefont pop
%%EndProlog
%%Page: 1 1
bp
0.00 0.00 300.00 225.00 cl
0.00 0.00 300.00 225.00 cl
0.00 0.00 300.00 225.00 cl
0.00 0.00 300.00 225.00 cl
0.00 0.00 300.00 225.00 cl
0.00 0.00 300.00 225.00 cl
0.00 0.00 300.00 225.00 cl
0.00 0.00 300.00 225.00 cl
0.00 0.00 300.00 225.00 cl
/bg { 1 1 1 srgb } def
1 1 1 srgb
1.07 setlinewidth
[] 0 setdash
1 setlinecap
1 setlinejoin
10.00 setmiterlimit
-0.00 0.00 300.00 225.00 r p3
0.00 0.00 300.00 225.00 cl
0.00 0.00 300.00 225.00 cl
0.00 0.00 300.00 225.00 cl
44.90 31.35 216.57 219.52 cl
/bg { 0.9216 0.9216 0.9216 srgb } def
44.90 31.35 171.67 188.17 r p2
1 1 1 srgb
0.53 setlinewidth
[] 0 setdash
0 setlinecap
1 setlinejoin
10.00 setmiterlimit
np
44.90 36.67 m
171.67 0 l
o
np
44.90 117.65 m
171.67 0 l
o
np
44.90 198.62 m
171.67 0 l
o
np
52.70 31.35 m
0 188.17 l
o
np
69.13 31.35 m
0 188.17 l
o
np
85.56 31.35 m
0 188.17 l
o
np
101.99 31.35 m
0 188.17 l
o
np
118.41 31.35 m
0 188.17 l
o
np
134.84 31.35 m
0 188.17 l
o
np
151.27 31.35 m
0 188.17 l
o
np
167.70 31.35 m
0 188.17 l
o
np
184.12 31.35 m
0 188.17 l
o
np
200.55 31.35 m
0 188.17 l
o
1.07 setlinewidth
[] 0 setdash
np
44.90 77.16 m
171.67 0 l
o
np
44.90 158.13 m
171.67 0 l
o
np
60.92 31.35 m
0 188.17 l
o
np
77.34 31.35 m
0 188.17 l
o
np
93.77 31.35 m
0 188.17 l
o
np
110.20 31.35 m
0 188.17 l
o
np
126.63 31.35 m
0 188.17 l
o
np
143.06 31.35 m
0 188.17 l
o
np
159.48 31.35 m
0 188.17 l
o
np
175.91 31.35 m
0 188.17 l
o
np
192.34 31.35 m
0 188.17 l
o
np
208.77 31.35 m
0 188.17 l
o
/bg { 0 0.7490 0.7686 srgb } def
0 0.7490 0.7686 srgb
0.71 setlinewidth
[] 0 setdash
1 setlinecap
52.70 210.97 1.95 c p3
60.92 140.89 1.95 c p3
69.13 157.03 1.95 c p3
77.34 148.55 1.95 c p3
85.56 144.84 1.95 c p3
93.77 134.60 1.95 c p3
101.99 129.55 1.95 c p3
110.20 115.34 1.95 c p3
118.41 111.05 1.95 c p3
126.63 59.91 1.95 c p3
134.84 66.66 1.95 c p3
143.06 95.41 1.95 c p3
151.27 88.42 1.95 c p3
159.48 102.80 1.95 c p3
167.70 93.01 1.95 c p3
175.91 104.47 1.95 c p3
184.12 94.25 1.95 c p3
192.34 105.21 1.95 c p3
200.55 91.71 1.95 c p3
208.77 106.92 1.95 c p3
/bg { 0.9725 0.4627 0.4275 srgb } def
0.9725 0.4627 0.4275 srgb
52.70 198.55 1.95 c p3
60.92 153.02 1.95 c p3
69.13 144.10 1.95 c p3
77.34 127.78 1.95 c p3
85.56 105.01 1.95 c p3
93.77 39.90 1.95 c p3
101.99 99.72 1.95 c p3
110.20 93.86 1.95 c p3
118.41 104.79 1.95 c p3
126.63 93.08 1.95 c p3
134.84 107.08 1.95 c p3
143.06 89.31 1.95 c p3
151.27 110.50 1.95 c p3
159.48 76.73 1.95 c p3
167.70 122.17 1.95 c p3
175.91 107.65 1.95 c p3
184.12 126.59 1.95 c p3
192.34 85.50 1.95 c p3
200.55 100.39 1.95 c p3
208.77 80.69 1.95 c p3
0 0 0 srgb
1.07 setlinewidth
[] 0 setdash
np
44.90 8.37 m
2.83 0 l
o
np
44.90 15.50 m
2.83 0 l
o
np
44.90 20.56 m
2.83 0 l
o
np
44.90 24.48 m
5.67 0 l
o
np
44.90 27.69 m
2.83 0 l
o
np
44.90 30.40 m
2.83 0 l
o
np
44.90 32.75 m
2.83 0 l
o
np
44.90 34.82 m
2.83 0 l
o
np
44.90 36.67 m
8.50 0 l
o
np
44.90 48.86 m
2.83 0 l
o
np
44.90 55.99 m
2.83 0 l
o
np
44.90 61.05 m
2.83 0 l
o
np
44.90 64.97 m
5.67 0 l
o
np
44.90 68.18 m
2.83 0 l
o
np
44.90 70.89 m
2.83 0 l
o
np
44.90 73.23 m
2.83 0 l
o
np
44.90 75.31 m
2.83 0 l
o
np
44.90 77.16 m
8.50 0 l
o
np
44.90 89.35 m
2.83 0 l
o
np
44.90 96.48 m
2.83 0 l
o
np
44.90 101.53 m
2.83 0 l
o
np
44.90 105.46 m
5.67 0 l
o
np
44.90 108.66 m
2.83 0 l
o
np
44.90 111.37 m
2.83 0 l
o
np
44.90 113.72 m
2.83 0 l
o
np
44.90 115.79 m
2.83 0 l
o
np
44.90 117.65 m
8.50 0 l
o
np
44.90 129.83 m
2.83 0 l
o
np
44.90 136.96 m
2.83 0 l
o
np
44.90 142.02 m
2.83 0 l
o
np
44.90 145.95 m
5.67 0 l
o
np
44.90 149.15 m
2.83 0 l
o
np
44.90 151.86 m
2.83 0 l
o
np
44.90 154.21 m
2.83 0 l
o
np
44.90 156.28 m
2.83 0 l
o
np
44.90 158.13 m
8.50 0 l
o
np
44.90 170.32 m
2.83 0 l
o
np
44.90 177.45 m
2.83 0 l
o
np
44.90 182.51 m
2.83 0 l
o
np
44.90 186.43 m
5.67 0 l
o
np
44.90 189.64 m
2.83 0 l
o
np
44.90 192.35 m
2.83 0 l
o
np
44.90 194.70 m
2.83 0 l
o
np
44.90 196.77 m
2.83 0 l
o
np
44.90 198.62 m
8.50 0 l
o
np
44.90 210.81 m
2.83 0 l
o
np
44.90 217.94 m
2.83 0 l
o
np
44.90 223.00 m
2.83 0 l
o
0.00 0.00 300.00 225.00 cl
0.00 0.00 300.00 225.00 cl
0.00 0.00 300.00 225.00 cl
0.00 0.00 300.00 225.00 cl
0.00 0.00 300.00 225.00 cl
0.00 0.00 300.00 225.00 cl
/Font1 findfont 9 s
0.3020 0.3020 0.3020 srgb
39.97 73.93 (10) 1 0 t
39.97 154.90 (1000) 1 0 t
0.00 0.00 300.00 225.00 cl
0.00 0.00 300.00 225.00 cl
0.2000 0.2000 0.2000 srgb
1.07 setlinewidth
[] 0 setdash
0 setlinecap
1 setlinejoin
10.00 setmiterlimit
np
42.16 77.16 m
2.74 0 l
o
np
42.16 158.13 m
2.74 0 l
o
0.00 0.00 300.00 225.00 cl
0.00 0.00 300.00 225.00 cl
0.00 0.00 300.00 225.00 cl
0.00 0.00 300.00 225.00 cl
0.00 0.00 300.00 225.00 cl
0.00 0.00 300.00 225.00 cl
0.00 0.00 300.00 225.00 cl
0.00 0.00 300.00 225.00 cl
0.2000 0.2000 0.2000 srgb
1.07 setlinewidth
[] 0 setdash
0 setlinecap
1 setlinejoin
10.00 setmiterlimit
np
60.92 28.61 m
0 2.74 l
o
np
77.34 28.61 m
0 2.74 l
o
np
93.77 28.61 m
0 2.74 l
o
np
110.20 28.61 m
0 2.74 l
o
np
126.63 28.61 m
0 2.74 l
o
np
143.06 28.61 m
0 2.74 l
o
np
159.48 28.61 m
0 2.74 l
o
np
175.91 28.61 m
0 2.74 l
o
np
192.34 28.61 m
0 2.74 l
o
np
208.77 28.61 m
0 2.74 l
o
0.00 0.00 300.00 225.00 cl
0.00 0.00 300.00 225.00 cl
/Font1 findfont 9 s
0.3020 0.3020 0.3020 srgb
60.92 19.95 (2) .5 0 t
77.34 19.95 (4) .5 0 t
93.77 19.95 (6) .5 0 t
110.20 19.95 (8) .5 0 t
126.63 19.95 (10) .5 0 t
143.06 19.95 (12) .5 0 t
159.48 19.95 (14) .5 0 t
175.91 19.95 (16) .5 0 t
192.34 19.95 (18) .5 0 t
208.77 19.95 (20) .5 0 t
0.00 0.00 300.00 225.00 cl
0.00 0.00 300.00 225.00 cl
0.00 0.00 300.00 225.00 cl
0.00 0.00 300.00 225.00 cl
/Font1 findfont 11 s
0 0 0 srgb
130.73 7.67 (k) .5 0 t
0.00 0.00 300.00 225.00 cl
0.00 0.00 300.00 225.00 cl
/Font1 findfont 11 s
0 0 0 srgb
15.57 125.43 (Amplitude) .5 90 t
0.00 0.00 300.00 225.00 cl
0.00 0.00 300.00 225.00 cl
0.00 0.00 300.00 225.00 cl
0.00 0.00 300.00 225.00 cl
/bg { 1 1 1 srgb } def
225.07 96.87 60.94 57.13 r p2
0.00 0.00 300.00 225.00 cl
0.00 0.00 300.00 225.00 cl
/Font2 findfont 12 s
0.8235 0.4118 0.1176 srgb
229.32 140.57 (FFT) 0 0 t
0.00 0.00 300.00 225.00 cl
0.00 0.00 300.00 225.00 cl
/bg { 0.9490 0.9490 0.9490 srgb } def
1 1 1 srgb
1.07 setlinewidth
[] 0 setdash
1 setlinecap
1 setlinejoin
10.00 setmiterlimit
229.32 118.40 17.28 17.28 r p3
0.00 0.00 300.00 225.00 cl
0.00 0.00 300.00 225.00 cl
/bg { 0.9725 0.4627 0.4275 srgb } def
0.9725 0.4627 0.4275 srgb
0.71 setlinewidth
[] 0 setdash
1 setlinecap
1 setlinejoin
10.00 setmiterlimit
237.96 127.04 1.95 c p3
0.00 0.00 300.00 225.00 cl
0.00 0.00 300.00 225.00 cl
/bg { 0.9725 0.4627 0.4275 srgb } def
0.9725 0.4627 0.4275 srgb
0.71 setlinewidth
[] 0 setdash
1 setlinecap
1 setlinejoin
10.00 setmiterlimit
237.96 127.04 1.95 c p3
0.00 0.00 300.00 225.00 cl
0.00 0.00 300.00 225.00 cl
/bg { 0.9490 0.9490 0.9490 srgb } def
1 1 1 srgb
1.07 setlinewidth
[] 0 setdash
1 setlinecap
1 setlinejoin
10.00 setmiterlimit
229.32 101.12 17.28 17.28 r p3
0.00 0.00 300.00 225.00 cl
0.00 0.00 300.00 225.00 cl
/bg { 0 0.7490 0.7686 srgb } def
0 0.7490 0.7686 srgb
0.71 setlinewidth
[] 0 setdash
1 setlinecap
1 setlinejoin
10.00 setmiterlimit
237.96 109.76 1.95 c p3
0.00 0.00 300.00 225.00 cl
0.00 0.00 300.00 225.00 cl
/bg { 0 0.7490 0.7686 srgb } def
0 0.7490 0.7686 srgb
0.71 setlinewidth
[] 0 setdash
1 setlinecap
1 setlinejoin
10.00 setmiterlimit
237.96 109.76 1.95 c p3
0.00 0.00 300.00 225.00 cl
0.00 0.00 300.00 225.00 cl
/Font1 findfont 9 s
0 0 0 srgb
248.76 123.81 (Ep\(256\)) 0 0 t
0.00 0.00 300.00 225.00 cl
0.00 0.00 300.00 225.00 cl
/Font1 findfont 9 s
0 0 0 srgb
248.76 106.53 (Ep\(512\)) 0 0 t
0.00 0.00 300.00 225.00 cl
0.00 0.00 300.00 225.00 cl
0.00 0.00 300.00 225.00 cl
0.00 0.00 300.00 225.00 cl
0.00 0.00 300.00 225.00 cl
0.00 0.00 300.00 225.00 cl
ep
%%Trailer
%%Pages: 1
%%EOF
