%!PS-Adobe-3.0 EPSF-3.0
%%DocumentNeededResources: font Helvetica
%%+ font Helvetica-Bold
%%+ font Helvetica-Oblique
%%+ font Helvetica-BoldOblique
%%+ font Symbol
%%Title: R Graphics Output
%%Creator: R Software
%%Pages: (atend)
%%BoundingBox: 0 0 304 181
%%EndComments
%%BeginProlog
/bp  { gs sRGB gs } def
% begin .ps.prolog
/gs  { gsave } bind def
/gr  { grestore } bind def
/ep  { showpage gr gr } bind def
/m   { moveto } bind def
/l  { rlineto } bind def
/np  { newpath } bind def
/cp  { closepath } bind def
/f   { fill } bind def
/o   { stroke } bind def
/c   { newpath 0 360 arc } bind def
/r   { 4 2 roll moveto 1 copy 3 -1 roll exch 0 exch rlineto 0 rlineto -1 mul 0 exch rlineto closepath } bind def
/p1  { stroke } bind def
/p2  { gsave bg fill grestore newpath } bind def
/p3  { gsave bg fill grestore stroke } bind def
/p6  { gsave bg eofill grestore newpath } bind def
/p7  { gsave bg eofill grestore stroke } bind def
/t   { 5 -2 roll moveto gsave rotate
       1 index stringwidth pop
       mul neg 0 rmoveto show grestore } bind def
/ta  { 4 -2 roll moveto gsave rotate show } bind def
/tb  { 2 -1 roll 0 rmoveto show } bind def
/cl  { grestore gsave newpath 3 index 3 index moveto 1 index
       4 -1 roll lineto  exch 1 index lineto lineto
       closepath clip newpath } bind def
/rgb { setrgbcolor } bind def
/s   { scalefont setfont } bind def
% end   .ps.prolog
/sRGB { [ /CIEBasedABC
          << /DecodeLMN
               [ { dup 0.03928 le
                        {12.92321 div}
                        {0.055 add 1.055 div 2.4 exp }
                     ifelse
                 } bind dup dup
               ]
             /MatrixLMN [0.412457 0.212673 0.019334
                         0.357576 0.715152 0.119192
                         0.180437 0.072175 0.950301]
             /WhitePoint [0.9505 1.0 1.0890]
           >>
         ] setcolorspace } bind def
/srgb { setcolor } bind def
% begin encoding
/WinAnsiEncoding [
 /.notdef /.notdef /.notdef /.notdef /.notdef /.notdef /.notdef /.notdef
 /.notdef /.notdef /.notdef /.notdef /.notdef /.notdef /.notdef /.notdef
 /.notdef /.notdef /.notdef /.notdef /.notdef /.notdef /.notdef /.notdef
 /.notdef /.notdef /.notdef /.notdef /.notdef /.notdef /.notdef /.notdef
 /space /exclam /quotedbl /numbersign /dollar /percent /ampersand /quoteright
 /parenleft /parenright /asterisk /plus /comma /minus /period /slash
 /zero /one /two /three /four /five /six /seven
 /eight /nine /colon /semicolon /less /equal /greater /question
 /at /A /B /C /D /E /F /G
 /H /I /J /K /L /M /N /O
 /P /Q /R /S /T /U /V /W
 /X /Y /Z /bracketleft /backslash /bracketright /asciicircum /underscore
 /grave /a /b /c /d /e /f /g
 /h /i /j /k /l /m /n /o
 /p /q /r /s /t /u /v /w
 /x /y /z /braceleft /bar /braceright /asciitilde /.notdef
 /Euro /.notdef /quotesinglbase /florin /quotedblbase /ellipsis /dagger /daggerdbl
 /circumflex /perthousand /Scaron /guilsinglleft /OE /.notdef /Zcaron /.notdef
 /.notdef /quoteleft /quoteright /quotedblleft /quotedblright /bullet /endash /emdash
 /tilde /trademark /scaron /guilsinglright /oe /.notdef /zcaron /Ydieresis
 /space /exclamdown /cent /sterling /currency /yen /brokenbar /section
 /dieresis /copyright /ordfeminine /guillemotleft /logicalnot /hyphen /registered /macron
 /degree /plusminus /twosuperior /threesuperior /acute /mu /paragraph /periodcentered
 /cedilla /onesuperior /ordmasculine /guillemotright /onequarter /onehalf /threequarters /questiondown
 /Agrave /Aacute /Acircumflex /Atilde /Adieresis /Aring /AE /Ccedilla
 /Egrave /Eacute /Ecircumflex /Edieresis /Igrave /Iacute /Icircumflex /Idieresis
 /Eth /Ntilde /Ograve /Oacute /Ocircumflex /Otilde /Odieresis /multiply
 /Oslash /Ugrave /Uacute /Ucircumflex /Udieresis /Yacute /Thorn /germandbls
 /agrave /aacute /acircumflex /atilde /adieresis /aring /ae /ccedilla
 /egrave /eacute /ecircumflex /edieresis /igrave /iacute /icircumflex /idieresis
 /eth /ntilde /ograve /oacute /ocircumflex /otilde /odieresis /divide
 /oslash /ugrave /uacute /ucircumflex /udieresis /yacute /thorn /ydieresis
]
 def
% end encoding
%%IncludeResource: font Helvetica
/Helvetica findfont
dup length dict begin
  {1 index /FID ne {def} {pop pop} ifelse} forall
  /Encoding WinAnsiEncoding def
  currentdict
  end
/Font1 exch definefont pop
%%IncludeResource: font Helvetica-Bold
/Helvetica-Bold findfont
dup length dict begin
  {1 index /FID ne {def} {pop pop} ifelse} forall
  /Encoding WinAnsiEncoding def
  currentdict
  end
/Font2 exch definefont pop
%%IncludeResource: font Helvetica-Oblique
/Helvetica-Oblique findfont
dup length dict begin
  {1 index /FID ne {def} {pop pop} ifelse} forall
  /Encoding WinAnsiEncoding def
  currentdict
  end
/Font3 exch definefont pop
%%IncludeResource: font Helvetica-BoldOblique
/Helvetica-BoldOblique findfont
dup length dict begin
  {1 index /FID ne {def} {pop pop} ifelse} forall
  /Encoding WinAnsiEncoding def
  currentdict
  end
/Font4 exch definefont pop
%%IncludeResource: font Symbol
/Symbol findfont
dup length dict begin
  {1 index /FID ne {def} {pop pop} ifelse} forall
  currentdict
  end
/Font5 exch definefont pop
%%EndProlog
%%Page: 1 1
bp
0.00 0.00 303.75 181.50 cl
0.00 0.00 303.75 181.50 cl
0.00 0.00 303.75 181.50 cl
0.00 0.00 303.75 181.50 cl
0.00 0.00 303.75 181.50 cl
0.00 0.00 303.75 181.50 cl
0.00 0.00 303.75 181.50 cl
0.00 0.00 303.75 181.50 cl
0.00 0.00 303.75 181.50 cl
/bg { 1 1 1 srgb } def
1 1 1 srgb
1.07 setlinewidth
[] 0 setdash
1 setlinecap
1 setlinejoin
10.00 setmiterlimit
0.00 0.00 303.75 181.50 r p3
0.00 0.00 303.75 181.50 cl
0.00 0.00 303.75 181.50 cl
0.00 0.00 303.75 181.50 cl
42.40 31.35 202.32 176.02 cl
/bg { 0.9216 0.9216 0.9216 srgb } def
42.40 31.35 159.92 144.67 r p2
1 1 1 srgb
0.53 setlinewidth
[] 0 setdash
0 setlinecap
1 setlinejoin
10.00 setmiterlimit
np
42.40 53.75 m
159.92 0 l
o
np
42.40 85.41 m
159.92 0 l
o
np
42.40 117.07 m
159.92 0 l
o
np
42.40 148.73 m
159.92 0 l
o
np
62.39 31.35 m
0 144.67 l
o
np
102.37 31.35 m
0 144.67 l
o
np
142.35 31.35 m
0 144.67 l
o
np
182.33 31.35 m
0 144.67 l
o
1.07 setlinewidth
[] 0 setdash
np
42.40 37.92 m
159.92 0 l
o
np
42.40 69.58 m
159.92 0 l
o
np
42.40 101.24 m
159.92 0 l
o
np
42.40 132.90 m
159.92 0 l
o
np
42.40 164.56 m
159.92 0 l
o
np
42.40 31.35 m
0 144.67 l
o
np
82.38 31.35 m
0 144.67 l
o
np
122.36 31.35 m
0 144.67 l
o
np
162.34 31.35 m
0 144.67 l
o
np
202.32 31.35 m
0 144.67 l
o
1 0.3882 0.2784 srgb
1.00 setmiterlimit
np
42.40 169.44 m
0 0 l
0 0 l
0 0 l
0.40 0 l
0 0 l
0 0 l
0 0 l
0.41 -0.01 l
0 0 l
0 0 l
0 0 l
0.40 -0.01 l
0 0 l
0 0 l
0 0 l
0.40 -0.01 l
0 0 l
0 0 l
0 0 l
0.41 -0.03 l
0 0 l
0 0 l
0 0 l
0.40 -0.02 l
0 0 l
0 0 l
0 0 l
0.41 -0.03 l
0 0 l
0 0 l
0 0 l
0.40 -0.04 l
0 0 l
0 0 l
0 0 l
0.40 -0.04 l
0 0 l
0 0 l
0 0 l
0.41 -0.05 l
0 0 l
0 0 l
0 0 l
0.40 -0.05 l
0 0 l
0 0 l
0 0 l
0.40 -0.05 l
0 0 l
0 0 l
0 0 l
0.41 -0.06 l
0 0 l
0 0 l
0 0 l
0.40 -0.07 l
0 0 l
0 0 l
0 0 l
0.41 -0.07 l
0 0 l
0 0 l
0 0 l
0.40 -0.07 l
0 0 l
0 0 l
0 0 l
0.40 -0.08 l
0 0 l
0 0 l
0 0 l
0.41 -0.08 l
0 0 l
0 0 l
0 0 l
0.40 -0.08 l
0 0 l
0 0 l
0 0 l
0.41 -0.09 l
0 0 l
0 0 l
0 0 l
0.40 -0.10 l
0 0 l
0 0 l
0 0 l
0.40 -0.10 l
0 0 l
0 0 l
0 0 l
0.41 -0.10 l
0 0 l
0 0 l
0 0 l
0.40 -0.10 l
0 0 l
0 0 l
0 0 l
52.49 167.99 lineto
0 0 l
0 0 l
0 0 l
0.41 -0.11 l
0 0 l
0 0 l
0 0 l
0.40 -0.12 l
0 0 l
0 0 l
0 0 l
0.41 -0.12 l
0 0 l
0 0 l
0 0 l
0.40 -0.12 l
0 0 l
0 0 l
0 0 l
0.40 -0.12 l
0 0 l
0 0 l
0 0 l
0.41 -0.13 l
0 0 l
0 0 l
0 0 l
0.40 -0.13 l
0 0 l
0 0 l
0 0 l
0.41 -0.14 l
0 0 l
0 0 l
0 0 l
0.40 -0.13 l
0 0 l
0 0 l
0 0 l
0.40 -0.14 l
0 0 l
0 0 l
0 0 l
0.41 -0.14 l
0 0 l
0 0 l
0 0 l
0.40 -0.14 l
0 0 l
0 0 l
0 0 l
0.40 -0.14 l
0 0 l
0 0 l
0 0 l
0.41 -0.15 l
0 0 l
0 0 l
0 0 l
0.40 -0.15 l
0 0 l
0 0 l
0 0 l
0.41 -0.15 l
0 0 l
0 0 l
0 0 l
0.40 -0.15 l
0 0 l
0 0 l
0 0 l
0.40 -0.15 l
0 0 l
0 0 l
0 0 l
0.41 -0.15 l
0 0 l
0 0 l
0 0 l
0.40 -0.15 l
0 0 l
0 0 l
0 0 l
0.40 -0.16 l
0 0 l
0 0 l
0 0 l
0.41 -0.15 l
0 0 l
0 0 l
0 0 l
0.40 -0.16 l
0 0 l
0 0 l
0 0 l
0.41 -0.15 l
0 0 l
0 0 l
0 0 l
62.59 164.48 lineto
0 0 l
0 0 l
0 0 l
0.40 -0.15 l
0 0 l
0 0 l
0 0 l
0.41 -0.16 l
0 0 l
0 0 l
0 0 l
0.40 -0.15 l
0 0 l
0 0 l
0 0 l
0.41 -0.15 l
0 0 l
0 0 l
0 0 l
0.40 -0.16 l
0 0 l
0 0 l
0 0 l
0.40 -0.15 l
0 0 l
0 0 l
0 0 l
0.41 -0.15 l
0 0 l
0 0 l
0 0 l
0.40 -0.15 l
0 0 l
0 0 l
0 0 l
0.40 -0.15 l
0 0 l
0 0 l
0 0 l
0.41 -0.15 l
0 0 l
0 0 l
0 0 l
0.40 -0.14 l
0 0 l
0 0 l
0 0 l
0.41 -0.15 l
0 0 l
0 0 l
0 0 l
0.40 -0.14 l
0 0 l
0 0 l
0 0 l
0.40 -0.14 l
0 0 l
0 0 l
0 0 l
0.41 -0.14 l
0 0 l
0 0 l
0 0 l
0.40 -0.13 l
0 0 l
0 0 l
0 0 l
0.41 -0.14 l
0 0 l
0 0 l
0 0 l
0.40 -0.13 l
0 0 l
0 0 l
0 0 l
0.40 -0.12 l
0 0 l
0 0 l
0 0 l
0.41 -0.13 l
0 0 l
0 0 l
0 0 l
0.40 -0.12 l
0 0 l
0 0 l
0 0 l
0.40 -0.12 l
0 0 l
0 0 l
0 0 l
0.41 -0.11 l
0 0 l
0 0 l
0 0 l
0.40 -0.12 l
0 0 l
0 0 l
0 0 l
72.69 161.02 lineto
0 0 l
0 0 l
0 0 l
0.40 -0.10 l
0 0 l
0 0 l
0 0 l
0.40 -0.10 l
0 0 l
0 0 l
0 0 l
0.41 -0.10 l
0 0 l
0 0 l
0 0 l
0.40 -0.09 l
0 0 l
0 0 l
0 0 l
0.41 -0.09 l
0 0 l
0 0 l
0 0 l
0.40 -0.09 l
0 0 l
0 0 l
0 0 l
0.40 -0.08 l
0 0 l
0 0 l
0 0 l
0.41 -0.08 l
0 0 l
0 0 l
0 0 l
0.40 -0.07 l
0 0 l
0 0 l
0 0 l
0.40 -0.07 l
0 0 l
0 0 l
0 0 l
0.41 -0.07 l
0 0 l
0 0 l
0 0 l
0.40 -0.06 l
0 0 l
0 0 l
0 0 l
0.41 -0.05 l
0 0 l
0 0 l
0 0 l
0.40 -0.05 l
0 0 l
0 0 l
0 0 l
0.40 -0.05 l
0 0 l
0 0 l
0 0 l
0.41 -0.04 l
0 0 l
0 0 l
0 0 l
0.40 -0.04 l
0 0 l
0 0 l
0 0 l
0.41 -0.03 l
0 0 l
0 0 l
0 0 l
0.40 -0.02 l
0 0 l
0 0 l
0 0 l
0.40 -0.03 l
0 0 l
0 0 l
0 0 l
0.41 -0.01 l
0 0 l
0 0 l
0 0 l
0.40 -0.02 l
0 0 l
0 0 l
0 0 l
0.40 0 l
0 0 l
0 0 l
0 0 l
0.41 -0.01 l
0 0 l
0 0 l
0 0 l
o
/bg { 0.8039 0.7451 0.4392 srgb } def
0.8039 0.7451 0.4392 srgb
0.71 setlinewidth
[] 0 setdash
1 setlinecap
10.00 setmiterlimit
42.40 150.89 0.67 c p3
42.80 150.88 0.67 c p3
43.21 150.86 0.67 c p3
43.61 150.83 0.67 c p3
44.01 150.78 0.67 c p3
44.42 150.71 0.67 c p3
44.82 150.63 0.67 c p3
45.23 150.54 0.67 c p3
45.63 150.43 0.67 c p3
46.03 150.31 0.67 c p3
46.44 150.17 0.67 c p3
46.84 150.02 0.67 c p3
47.24 149.86 0.67 c p3
47.65 149.68 0.67 c p3
48.05 149.49 0.67 c p3
48.46 149.28 0.67 c p3
48.86 149.06 0.67 c p3
49.26 148.83 0.67 c p3
49.67 148.58 0.67 c p3
50.07 148.32 0.67 c p3
50.48 148.05 0.67 c p3
50.88 147.76 0.67 c p3
51.28 147.46 0.67 c p3
51.69 147.14 0.67 c p3
52.09 146.82 0.67 c p3
52.49 146.48 0.67 c p3
52.90 146.13 0.67 c p3
53.30 145.76 0.67 c p3
53.71 145.38 0.67 c p3
54.11 144.99 0.67 c p3
54.51 144.59 0.67 c p3
54.92 144.18 0.67 c p3
55.32 143.75 0.67 c p3
55.73 143.31 0.67 c p3
56.13 142.86 0.67 c p3
56.53 142.40 0.67 c p3
56.94 141.93 0.67 c p3
57.34 141.45 0.67 c p3
57.74 140.95 0.67 c p3
58.15 140.45 0.67 c p3
58.55 139.93 0.67 c p3
58.96 139.41 0.67 c p3
59.36 138.87 0.67 c p3
59.76 138.33 0.67 c p3
60.17 137.77 0.67 c p3
60.57 137.21 0.67 c p3
60.97 136.63 0.67 c p3
61.38 136.05 0.67 c p3
61.78 135.46 0.67 c p3
62.19 134.85 0.67 c p3
62.59 134.24 0.67 c p3
62.99 133.63 0.67 c p3
63.40 133.00 0.67 c p3
63.80 132.36 0.67 c p3
64.21 131.72 0.67 c p3
64.61 131.07 0.67 c p3
65.01 130.42 0.67 c p3
65.42 129.75 0.67 c p3
65.82 129.08 0.67 c p3
66.22 128.40 0.67 c p3
66.63 127.72 0.67 c p3
67.03 127.03 0.67 c p3
67.44 126.33 0.67 c p3
67.84 125.63 0.67 c p3
68.24 124.92 0.67 c p3
68.65 124.21 0.67 c p3
69.05 123.49 0.67 c p3
69.46 122.77 0.67 c p3
69.86 122.04 0.67 c p3
70.26 121.31 0.67 c p3
70.67 120.57 0.67 c p3
71.07 119.83 0.67 c p3
71.47 119.09 0.67 c p3
71.88 118.34 0.67 c p3
72.28 117.59 0.67 c p3
72.69 116.84 0.67 c p3
73.09 116.08 0.67 c p3
73.49 115.32 0.67 c p3
73.90 114.56 0.67 c p3
74.30 113.80 0.67 c p3
74.71 113.03 0.67 c p3
75.11 112.27 0.67 c p3
75.51 111.50 0.67 c p3
75.92 110.73 0.67 c p3
76.32 109.96 0.67 c p3
76.72 109.18 0.67 c p3
77.13 108.41 0.67 c p3
77.53 107.64 0.67 c p3
77.94 106.86 0.67 c p3
78.34 106.09 0.67 c p3
78.74 105.32 0.67 c p3
79.15 104.54 0.67 c p3
79.55 103.77 0.67 c p3
79.96 103.00 0.67 c p3
80.36 102.23 0.67 c p3
80.76 101.46 0.67 c p3
81.17 100.69 0.67 c p3
81.57 99.92 0.67 c p3
81.97 99.15 0.67 c p3
82.38 98.39 0.67 c p3
42.40 47.19 0.67 c p3
42.80 47.43 0.67 c p3
43.21 47.67 0.67 c p3
43.61 47.91 0.67 c p3
44.01 48.17 0.67 c p3
44.42 48.42 0.67 c p3
44.82 48.68 0.67 c p3
45.23 48.95 0.67 c p3
45.63 49.22 0.67 c p3
46.03 49.50 0.67 c p3
46.44 49.78 0.67 c p3
46.84 50.07 0.67 c p3
47.24 50.36 0.67 c p3
47.65 50.66 0.67 c p3
48.05 50.96 0.67 c p3
48.46 51.27 0.67 c p3
48.86 51.58 0.67 c p3
49.26 51.90 0.67 c p3
49.67 52.23 0.67 c p3
50.07 52.56 0.67 c p3
50.48 52.90 0.67 c p3
50.88 53.24 0.67 c p3
51.28 53.59 0.67 c p3
51.69 53.94 0.67 c p3
52.09 54.30 0.67 c p3
52.49 54.67 0.67 c p3
52.90 55.04 0.67 c p3
53.30 55.42 0.67 c p3
53.71 55.81 0.67 c p3
54.11 56.20 0.67 c p3
54.51 56.60 0.67 c p3
54.92 57.00 0.67 c p3
55.32 57.41 0.67 c p3
55.73 57.82 0.67 c p3
56.13 58.25 0.67 c p3
56.53 58.67 0.67 c p3
56.94 59.11 0.67 c p3
57.34 59.55 0.67 c p3
57.74 60.00 0.67 c p3
58.15 60.45 0.67 c p3
58.55 60.91 0.67 c p3
58.96 61.38 0.67 c p3
59.36 61.85 0.67 c p3
59.76 62.33 0.67 c p3
60.17 62.82 0.67 c p3
60.57 63.31 0.67 c p3
60.97 63.81 0.67 c p3
61.38 64.31 0.67 c p3
61.78 64.82 0.67 c p3
62.19 65.34 0.67 c p3
62.59 65.87 0.67 c p3
62.99 66.40 0.67 c p3
63.40 66.93 0.67 c p3
63.80 67.48 0.67 c p3
64.21 68.03 0.67 c p3
64.61 68.58 0.67 c p3
65.01 69.15 0.67 c p3
65.42 69.71 0.67 c p3
65.82 70.29 0.67 c p3
66.22 70.87 0.67 c p3
66.63 71.46 0.67 c p3
67.03 72.05 0.67 c p3
67.44 72.65 0.67 c p3
67.84 73.26 0.67 c p3
68.24 73.87 0.67 c p3
68.65 74.48 0.67 c p3
69.05 75.11 0.67 c p3
69.46 75.74 0.67 c p3
69.86 76.37 0.67 c p3
70.26 77.01 0.67 c p3
70.67 77.66 0.67 c p3
71.07 78.31 0.67 c p3
71.47 78.97 0.67 c p3
71.88 79.63 0.67 c p3
72.28 80.30 0.67 c p3
72.69 80.97 0.67 c p3
73.09 81.65 0.67 c p3
73.49 82.33 0.67 c p3
73.90 83.02 0.67 c p3
74.30 83.71 0.67 c p3
74.71 84.41 0.67 c p3
75.11 85.11 0.67 c p3
75.51 85.82 0.67 c p3
75.92 86.53 0.67 c p3
76.32 87.24 0.67 c p3
76.72 87.96 0.67 c p3
77.13 88.68 0.67 c p3
77.53 89.41 0.67 c p3
77.94 90.14 0.67 c p3
78.34 90.88 0.67 c p3
78.74 91.61 0.67 c p3
79.15 92.36 0.67 c p3
79.55 93.10 0.67 c p3
79.96 93.85 0.67 c p3
80.36 94.60 0.67 c p3
80.76 95.35 0.67 c p3
81.17 96.11 0.67 c p3
81.57 96.87 0.67 c p3
81.97 97.63 0.67 c p3
82.38 98.39 0.67 c p3
42.40 47.19 0.67 c p3
42.80 46.96 0.67 c p3
43.21 46.73 0.67 c p3
43.61 46.51 0.67 c p3
44.01 46.29 0.67 c p3
44.42 46.08 0.67 c p3
44.82 45.87 0.67 c p3
45.23 45.66 0.67 c p3
45.63 45.46 0.67 c p3
46.03 45.27 0.67 c p3
46.44 45.08 0.67 c p3
46.84 44.89 0.67 c p3
47.24 44.70 0.67 c p3
47.65 44.52 0.67 c p3
48.05 44.35 0.67 c p3
48.46 44.18 0.67 c p3
48.86 44.01 0.67 c p3
49.26 43.84 0.67 c p3
49.67 43.68 0.67 c p3
50.07 43.53 0.67 c p3
50.48 43.37 0.67 c p3
50.88 43.22 0.67 c p3
51.28 43.08 0.67 c p3
51.69 42.93 0.67 c p3
52.09 42.79 0.67 c p3
52.49 42.66 0.67 c p3
52.90 42.52 0.67 c p3
53.30 42.39 0.67 c p3
53.71 42.27 0.67 c p3
54.11 42.14 0.67 c p3
54.51 42.02 0.67 c p3
54.92 41.90 0.67 c p3
55.32 41.79 0.67 c p3
55.73 41.68 0.67 c p3
56.13 41.57 0.67 c p3
56.53 41.46 0.67 c p3
56.94 41.36 0.67 c p3
57.34 41.26 0.67 c p3
57.74 41.16 0.67 c p3
58.15 41.06 0.67 c p3
58.55 40.97 0.67 c p3
58.96 40.88 0.67 c p3
59.36 40.79 0.67 c p3
59.76 40.70 0.67 c p3
60.17 40.62 0.67 c p3
60.57 40.53 0.67 c p3
60.97 40.45 0.67 c p3
61.38 40.38 0.67 c p3
61.78 40.30 0.67 c p3
62.19 40.23 0.67 c p3
62.59 40.15 0.67 c p3
62.99 40.08 0.67 c p3
63.40 40.02 0.67 c p3
63.80 39.95 0.67 c p3
64.21 39.89 0.67 c p3
64.61 39.82 0.67 c p3
65.01 39.76 0.67 c p3
65.42 39.70 0.67 c p3
65.82 39.65 0.67 c p3
66.22 39.59 0.67 c p3
66.63 39.54 0.67 c p3
67.03 39.48 0.67 c p3
67.44 39.43 0.67 c p3
67.84 39.38 0.67 c p3
68.24 39.34 0.67 c p3
68.65 39.29 0.67 c p3
69.05 39.24 0.67 c p3
69.46 39.20 0.67 c p3
69.86 39.16 0.67 c p3
70.26 39.12 0.67 c p3
70.67 39.08 0.67 c p3
71.07 39.04 0.67 c p3
71.47 39.00 0.67 c p3
71.88 38.96 0.67 c p3
72.28 38.93 0.67 c p3
72.69 38.89 0.67 c p3
73.09 38.86 0.67 c p3
73.49 38.83 0.67 c p3
73.90 38.79 0.67 c p3
74.30 38.76 0.67 c p3
74.71 38.74 0.67 c p3
75.11 38.71 0.67 c p3
75.51 38.68 0.67 c p3
75.92 38.65 0.67 c p3
76.32 38.63 0.67 c p3
76.72 38.60 0.67 c p3
77.13 38.58 0.67 c p3
77.53 38.55 0.67 c p3
77.94 38.53 0.67 c p3
78.34 38.51 0.67 c p3
78.74 38.49 0.67 c p3
79.15 38.47 0.67 c p3
79.55 38.45 0.67 c p3
79.96 38.43 0.67 c p3
80.36 38.41 0.67 c p3
80.76 38.39 0.67 c p3
81.17 38.37 0.67 c p3
81.57 38.36 0.67 c p3
81.97 38.34 0.67 c p3
82.38 38.32 0.67 c p3
42.40 37.92 0.67 c p3
42.80 37.92 0.67 c p3
43.21 37.92 0.67 c p3
43.61 37.92 0.67 c p3
44.01 37.92 0.67 c p3
44.42 37.92 0.67 c p3
44.82 37.92 0.67 c p3
45.23 37.92 0.67 c p3
45.63 37.92 0.67 c p3
46.03 37.93 0.67 c p3
46.44 37.93 0.67 c p3
46.84 37.93 0.67 c p3
47.24 37.93 0.67 c p3
47.65 37.93 0.67 c p3
48.05 37.93 0.67 c p3
48.46 37.93 0.67 c p3
48.86 37.93 0.67 c p3
49.26 37.93 0.67 c p3
49.67 37.93 0.67 c p3
50.07 37.93 0.67 c p3
50.48 37.93 0.67 c p3
50.88 37.93 0.67 c p3
51.28 37.93 0.67 c p3
51.69 37.93 0.67 c p3
52.09 37.93 0.67 c p3
52.49 37.93 0.67 c p3
52.90 37.94 0.67 c p3
53.30 37.94 0.67 c p3
53.71 37.94 0.67 c p3
54.11 37.94 0.67 c p3
54.51 37.94 0.67 c p3
54.92 37.94 0.67 c p3
55.32 37.94 0.67 c p3
55.73 37.94 0.67 c p3
56.13 37.94 0.67 c p3
56.53 37.95 0.67 c p3
56.94 37.95 0.67 c p3
57.34 37.95 0.67 c p3
57.74 37.95 0.67 c p3
58.15 37.95 0.67 c p3
58.55 37.95 0.67 c p3
58.96 37.95 0.67 c p3
59.36 37.96 0.67 c p3
59.76 37.96 0.67 c p3
60.17 37.96 0.67 c p3
60.57 37.96 0.67 c p3
60.97 37.96 0.67 c p3
61.38 37.97 0.67 c p3
61.78 37.97 0.67 c p3
62.19 37.97 0.67 c p3
62.59 37.97 0.67 c p3
62.99 37.97 0.67 c p3
63.40 37.98 0.67 c p3
63.80 37.98 0.67 c p3
64.21 37.98 0.67 c p3
64.61 37.99 0.67 c p3
65.01 37.99 0.67 c p3
65.42 37.99 0.67 c p3
65.82 37.99 0.67 c p3
66.22 38.00 0.67 c p3
66.63 38.00 0.67 c p3
67.03 38.01 0.67 c p3
67.44 38.01 0.67 c p3
67.84 38.01 0.67 c p3
68.24 38.02 0.67 c p3
68.65 38.02 0.67 c p3
69.05 38.03 0.67 c p3
69.46 38.03 0.67 c p3
69.86 38.04 0.67 c p3
70.26 38.04 0.67 c p3
70.67 38.05 0.67 c p3
71.07 38.05 0.67 c p3
71.47 38.06 0.67 c p3
71.88 38.06 0.67 c p3
72.28 38.07 0.67 c p3
72.69 38.08 0.67 c p3
73.09 38.08 0.67 c p3
73.49 38.09 0.67 c p3
73.90 38.10 0.67 c p3
74.30 38.10 0.67 c p3
74.71 38.11 0.67 c p3
75.11 38.12 0.67 c p3
75.51 38.13 0.67 c p3
75.92 38.14 0.67 c p3
76.32 38.14 0.67 c p3
76.72 38.15 0.67 c p3
77.13 38.16 0.67 c p3
77.53 38.17 0.67 c p3
77.94 38.18 0.67 c p3
78.34 38.19 0.67 c p3
78.74 38.21 0.67 c p3
79.15 38.22 0.67 c p3
79.55 38.23 0.67 c p3
79.96 38.24 0.67 c p3
80.36 38.25 0.67 c p3
80.76 38.27 0.67 c p3
81.17 38.28 0.67 c p3
81.57 38.29 0.67 c p3
81.97 38.31 0.67 c p3
82.38 38.32 0.67 c p3
0.5608 0.7373 0.5608 srgb
1.07 setlinewidth
[] 0 setdash
0 setlinecap
1.00 setmiterlimit
np
42.40 150.89 m
0.40 -0.01 l
0.40 -0.02 l
0.40 -0.03 l
0.40 -0.05 l
0.40 -0.07 l
0.40 -0.07 l
0.40 -0.10 l
0.40 -0.10 l
0.41 -0.12 l
0.40 -0.14 l
0.40 -0.14 l
0.40 -0.17 l
0.40 -0.17 l
0.40 -0.19 l
0.40 -0.20 l
0.40 -0.22 l
0.40 -0.23 l
0.40 -0.24 l
0.40 -0.26 l
0.40 -0.27 l
0.41 -0.28 l
0.40 -0.30 l
0.40 -0.31 l
0.40 -0.32 l
0.40 -0.34 l
0.40 -0.34 l
0.40 -0.36 l
0.40 -0.38 l
0.40 -0.38 l
0.40 -0.40 l
0.40 -0.41 l
0.40 -0.42 l
0.40 -0.43 l
0.41 -0.44 l
0.40 -0.45 l
0.40 -0.47 l
0.40 -0.48 l
0.40 -0.48 l
0.40 -0.50 l
0.40 -0.51 l
0.40 -0.52 l
0.40 -0.53 l
0.40 -0.54 l
0.40 -0.54 l
0.40 -0.56 l
0.41 -0.57 l
0.40 -0.57 l
0.40 -0.59 l
0.40 -0.59 l
0.40 -0.61 l
0.40 -0.61 l
0.40 -0.62 l
0.40 -0.62 l
0.40 -0.64 l
0.40 -0.64 l
0.40 -0.65 l
0.40 -0.65 l
0.40 -0.67 l
0.41 -0.67 l
0.40 -0.67 l
0.40 -0.68 l
0.40 -0.69 l
0.40 -0.70 l
0.40 -0.70 l
0.40 -0.70 l
0.40 -0.71 l
0.40 -0.72 l
0.40 -0.72 l
0.40 -0.72 l
0.40 -0.73 l
0.41 -0.73 l
0.40 -0.74 l
0.40 -0.74 l
0.40 -0.74 l
0.40 -0.75 l
0.40 -0.74 l
0.40 -0.76 l
0.40 -0.75 l
0.40 -0.76 l
0.40 -0.76 l
0.40 -0.76 l
0.40 -0.76 l
0.40 -0.76 l
0.41 -0.77 l
0.40 -0.76 l
0.40 -0.77 l
0.40 -0.77 l
0.40 -0.76 l
0.40 -0.77 l
0.40 -0.77 l
0.40 -0.77 l
0.40 -0.77 l
0.40 -0.76 l
0.40 -0.77 l
0.40 -0.76 l
0.41 -0.77 l
0.40 -0.76 l
0.40 -0.76 l
0.40 -0.76 l
82.48 98.20 lineto
0.40 -0.76 l
0.40 -0.75 l
0.40 -0.75 l
0.40 -0.75 l
0.40 -0.75 l
0.40 -0.74 l
0.40 -0.75 l
0.41 -0.73 l
0.40 -0.74 l
0.40 -0.73 l
0.40 -0.73 l
0.40 -0.72 l
0.40 -0.72 l
0.40 -0.72 l
0.40 -0.72 l
0.40 -0.70 l
0.40 -0.71 l
0.40 -0.70 l
0.40 -0.70 l
0.40 -0.69 l
0.41 -0.68 l
0.40 -0.69 l
0.40 -0.67 l
0.40 -0.68 l
0.40 -0.66 l
0.40 -0.67 l
0.40 -0.65 l
0.40 -0.66 l
0.40 -0.64 l
0.40 -0.64 l
0.40 -0.64 l
0.40 -0.63 l
0.41 -0.62 l
0.40 -0.62 l
0.40 -0.61 l
0.40 -0.61 l
0.40 -0.60 l
0.40 -0.60 l
0.40 -0.59 l
0.40 -0.58 l
0.40 -0.58 l
0.40 -0.57 l
0.40 -0.56 l
0.40 -0.56 l
0.40 -0.55 l
0.41 -0.55 l
0.40 -0.54 l
0.40 -0.53 l
0.40 -0.53 l
0.40 -0.52 l
0.40 -0.52 l
0.40 -0.51 l
0.40 -0.50 l
0.40 -0.49 l
0.40 -0.49 l
0.40 -0.49 l
0.40 -0.47 l
0.41 -0.47 l
0.40 -0.47 l
0.40 -0.46 l
0.40 -0.45 l
0.40 -0.44 l
0.40 -0.44 l
0.40 -0.43 l
0.40 -0.43 l
0.40 -0.42 l
0.40 -0.42 l
0.40 -0.40 l
0.40 -0.41 l
0.40 -0.39 l
0.41 -0.39 l
0.40 -0.39 l
0.40 -0.37 l
0.40 -0.37 l
0.40 -0.37 l
0.40 -0.36 l
0.40 -0.35 l
0.40 -0.35 l
0.40 -0.34 l
0.40 -0.34 l
0.40 -0.33 l
0.40 -0.33 l
0.41 -0.32 l
0.40 -0.31 l
0.40 -0.31 l
0.40 -0.30 l
0.40 -0.30 l
0.40 -0.29 l
0.40 -0.29 l
0.40 -0.28 l
0.40 -0.28 l
0.40 -0.27 l
0.40 -0.27 l
0.40 -0.26 l
0.40 -0.26 l
0.41 -0.25 l
0.40 -0.24 l
0.40 -0.25 l
0.40 -0.23 l
122.56 47.08 lineto
0.40 -0.23 l
0.40 -0.23 l
0.40 -0.21 l
0.40 -0.22 l
0.40 -0.21 l
0.40 -0.20 l
0.40 -0.21 l
0.41 -0.19 l
0.40 -0.20 l
0.40 -0.18 l
0.40 -0.19 l
0.40 -0.18 l
0.40 -0.18 l
0.40 -0.17 l
0.40 -0.17 l
0.40 -0.16 l
0.40 -0.17 l
0.40 -0.15 l
0.40 -0.16 l
0.40 -0.15 l
0.41 -0.15 l
0.40 -0.14 l
0.40 -0.14 l
0.40 -0.14 l
0.40 -0.13 l
0.40 -0.14 l
0.40 -0.12 l
0.40 -0.13 l
0.40 -0.12 l
0.40 -0.12 l
0.40 -0.12 l
0.40 -0.11 l
0.41 -0.11 l
0.40 -0.11 l
0.40 -0.10 l
0.40 -0.11 l
0.40 -0.10 l
0.40 -0.09 l
0.40 -0.10 l
0.40 -0.09 l
0.40 -0.09 l
0.40 -0.09 l
0.40 -0.08 l
0.40 -0.09 l
0.41 -0.08 l
0.40 -0.08 l
0.40 -0.08 l
0.40 -0.07 l
0.40 -0.07 l
0.40 -0.07 l
0.40 -0.07 l
0.40 -0.07 l
0.40 -0.07 l
0.40 -0.06 l
0.40 -0.06 l
0.40 -0.06 l
0.40 -0.06 l
0.41 -0.06 l
0.40 -0.05 l
0.40 -0.06 l
0.40 -0.05 l
0.40 -0.05 l
0.40 -0.05 l
0.40 -0.04 l
0.40 -0.05 l
0.40 -0.05 l
0.40 -0.04 l
0.40 -0.04 l
0.40 -0.04 l
0.41 -0.04 l
0.40 -0.04 l
0.40 -0.04 l
0.40 -0.04 l
0.40 -0.03 l
0.40 -0.04 l
0.40 -0.03 l
0.40 -0.03 l
0.40 -0.03 l
0.40 -0.03 l
0.40 -0.03 l
0.40 -0.03 l
0.40 -0.03 l
0.41 -0.02 l
0.40 -0.03 l
0.40 -0.03 l
0.40 -0.02 l
0.40 -0.02 l
0.40 -0.03 l
0.40 -0.02 l
0.40 -0.02 l
0.40 -0.02 l
0.40 -0.02 l
0.40 -0.02 l
0.40 -0.02 l
0.41 -0.02 l
0.40 -0.01 l
0.40 -0.02 l
0.40 -0.02 l
0.40 -0.01 l
162.64 38.31 lineto
0.40 -0.01 l
0.40 -0.02 l
0.40 -0.01 l
0.40 -0.01 l
0.40 -0.02 l
0.40 -0.01 l
0.40 -0.01 l
0.41 -0.01 l
0.40 -0.01 l
0.40 -0.01 l
0.40 -0.01 l
0.40 -0.01 l
0.40 -0.01 l
0.40 -0.01 l
0.40 -0.01 l
0.40 -0.01 l
0.40 -0.01 l
0.40 -0.01 l
0.40 0 l
0.41 -0.01 l
0.40 -0.01 l
0.40 -0.01 l
0.40 0 l
0.40 -0.01 l
0.40 0 l
0.40 -0.01 l
0.40 -0.01 l
0.40 0 l
0.40 -0.01 l
0.40 0 l
0.40 -0.01 l
0.40 0 l
0.41 -0.01 l
0.40 0 l
0.40 0 l
0.40 -0.01 l
0.40 0 l
0.40 -0.01 l
0.40 0 l
0.40 0 l
0.40 -0.01 l
0.40 0 l
0.40 0 l
0.40 -0.01 l
0.41 0 l
0.40 0 l
0.40 0 l
0.40 -0.01 l
0.40 0 l
0.40 0 l
0.40 0 l
0.40 -0.01 l
0.40 0 l
0.40 0 l
0.40 0 l
0.40 0 l
0.41 -0.01 l
0.40 0 l
0.40 0 l
0.40 0 l
0.40 0 l
0.40 0 l
0.40 0 l
0.40 -0.01 l
0.40 0 l
0.40 0 l
0.40 0 l
0.40 0 l
0.40 0 l
0.41 0 l
0.40 0 l
0.40 0 l
0.40 0 l
0.40 -0.01 l
0.40 0 l
0.40 0 l
0.40 0 l
0.40 0 l
0.40 0 l
0.40 0 l
0.40 0 l
0.41 0 l
0.40 0 l
0.40 0 l
0.40 0 l
0.40 0 l
0.40 0 l
0.40 0 l
0.40 0 l
0.40 0 l
0.40 -0.01 l
0.40 0 l
0.40 0 l
0.40 0 l
0.41 0 l
0.40 0 l
0.40 0 l
0.40 0 l
0.40 0 l
o
/Font5 findfont 11 s
0 0 0 srgb
125.37 122.81 (w) 0 0 t
135.46 122.81 (=) 0 0 t
/Font1 findfont 11 s
144.04 122.81 (0.4) 0 0 t
1 0.6275 0.4784 srgb
0.21 setlinewidth
[ 0.85 0.85] 0 setdash
10.00 setmiterlimit
np
82.38 31.35 m
0 144.67 l
o
np
122.36 31.35 m
0 144.67 l
o
np
162.34 31.35 m
0 144.67 l
o
np
202.32 31.35 m
0 144.67 l
o
0.00 0.00 303.75 181.50 cl
0.00 0.00 303.75 181.50 cl
0.00 0.00 303.75 181.50 cl
0.00 0.00 303.75 181.50 cl
0.00 0.00 303.75 181.50 cl
0.00 0.00 303.75 181.50 cl
/Font1 findfont 9 s
0.3020 0.3020 0.3020 srgb
37.47 34.69 (0.00) 1 0 t
37.47 66.35 (0.25) 1 0 t
37.47 98.01 (0.50) 1 0 t
37.47 129.67 (0.75) 1 0 t
37.47 161.33 (1.00) 1 0 t
0.00 0.00 303.75 181.50 cl
0.00 0.00 303.75 181.50 cl
0.2000 0.2000 0.2000 srgb
1.07 setlinewidth
[] 0 setdash
0 setlinecap
1 setlinejoin
10.00 setmiterlimit
np
39.66 37.92 m
2.74 0 l
o
np
39.66 69.58 m
2.74 0 l
o
np
39.66 101.24 m
2.74 0 l
o
np
39.66 132.90 m
2.74 0 l
o
np
39.66 164.56 m
2.74 0 l
o
0.00 0.00 303.75 181.50 cl
0.00 0.00 303.75 181.50 cl
0.00 0.00 303.75 181.50 cl
0.00 0.00 303.75 181.50 cl
0.00 0.00 303.75 181.50 cl
0.00 0.00 303.75 181.50 cl
0.00 0.00 303.75 181.50 cl
0.00 0.00 303.75 181.50 cl
0.2000 0.2000 0.2000 srgb
1.07 setlinewidth
[] 0 setdash
0 setlinecap
1 setlinejoin
10.00 setmiterlimit
np
42.40 28.61 m
0 2.74 l
o
np
82.38 28.61 m
0 2.74 l
o
np
122.36 28.61 m
0 2.74 l
o
np
162.34 28.61 m
0 2.74 l
o
np
202.32 28.61 m
0 2.74 l
o
0.00 0.00 303.75 181.50 cl
0.00 0.00 303.75 181.50 cl
/Font1 findfont 9 s
0.3020 0.3020 0.3020 srgb
42.40 19.95 (0) .5 0 t
82.38 19.95 (1) .5 0 t
122.36 19.95 (2) .5 0 t
162.34 19.95 (3) .5 0 t
202.32 19.95 (4) .5 0 t
0.00 0.00 303.75 181.50 cl
0.00 0.00 303.75 181.50 cl
0.00 0.00 303.75 181.50 cl
0.00 0.00 303.75 181.50 cl
/Font1 findfont 11 s
0 0 0 srgb
122.36 7.67 (x) .5 0 t
0.00 0.00 303.75 181.50 cl
0.00 0.00 303.75 181.50 cl
/Font1 findfont 11 s
0 0 0 srgb
15.57 103.68 (T) .5 90 t
0.00 0.00 303.75 181.50 cl
0.00 0.00 303.75 181.50 cl
0.00 0.00 303.75 181.50 cl
0.00 0.00 303.75 181.50 cl
/bg { 1 1 1 srgb } def
210.82 66.85 78.94 73.66 r p2
0.00 0.00 303.75 181.50 cl
0.00 0.00 303.75 181.50 cl
0.00 0.00 303.75 181.50 cl
0.00 0.00 303.75 181.50 cl
/bg { 0.9490 0.9490 0.9490 srgb } def
1 1 1 srgb
1.07 setlinewidth
[] 0 setdash
1 setlinecap
1 setlinejoin
10.00 setmiterlimit
215.07 105.66 17.28 17.28 r p3
0.00 0.00 303.75 181.50 cl
0.00 0.00 303.75 181.50 cl
1 0.3882 0.2784 srgb
1.07 setlinewidth
[] 0 setdash
0 setlinecap
1 setlinejoin
10.00 setmiterlimit
np
216.80 114.30 m
13.83 0 l
o
0.00 0.00 303.75 181.50 cl
0.00 0.00 303.75 181.50 cl
0.00 0.00 303.75 181.50 cl
0.00 0.00 303.75 181.50 cl
1 0.3882 0.2784 srgb
1.07 setlinewidth
[] 0 setdash
0 setlinecap
1 setlinejoin
10.00 setmiterlimit
np
216.80 114.30 m
13.83 0 l
o
0.00 0.00 303.75 181.50 cl
0.00 0.00 303.75 181.50 cl
/bg { 0.9490 0.9490 0.9490 srgb } def
1 1 1 srgb
1.07 setlinewidth
[] 0 setdash
1 setlinecap
1 setlinejoin
10.00 setmiterlimit
215.07 88.38 17.28 17.28 r p3
0.00 0.00 303.75 181.50 cl
0.00 0.00 303.75 181.50 cl
0.5608 0.7373 0.5608 srgb
1.07 setlinewidth
[] 0 setdash
0 setlinecap
1 setlinejoin
10.00 setmiterlimit
np
216.80 97.02 m
13.83 0 l
o
0.00 0.00 303.75 181.50 cl
0.00 0.00 303.75 181.50 cl
0.00 0.00 303.75 181.50 cl
0.00 0.00 303.75 181.50 cl
0.5608 0.7373 0.5608 srgb
1.07 setlinewidth
[] 0 setdash
0 setlinecap
1 setlinejoin
10.00 setmiterlimit
np
216.80 97.02 m
13.83 0 l
o
0.00 0.00 303.75 181.50 cl
0.00 0.00 303.75 181.50 cl
/bg { 0.9490 0.9490 0.9490 srgb } def
1 1 1 srgb
1.07 setlinewidth
[] 0 setdash
1 setlinecap
1 setlinejoin
10.00 setmiterlimit
215.07 71.10 17.28 17.28 r p3
0.00 0.00 303.75 181.50 cl
0.00 0.00 303.75 181.50 cl
0.00 0.00 303.75 181.50 cl
0.00 0.00 303.75 181.50 cl
0.8039 0.7451 0.4392 srgb
0.71 setlinewidth
[] 0 setdash
1 setlinecap
1 setlinejoin
10.00 setmiterlimit
np
222.76 79.74 m
0.95 0.96 l
0.96 -0.96 l
-0.96 -0.95 l
-0.95 0.95 l
o
0.00 0.00 303.75 181.50 cl
0.00 0.00 303.75 181.50 cl
0.00 0.00 303.75 181.50 cl
0.00 0.00 303.75 181.50 cl
/Font1 findfont 9 s
0 0 0 srgb
234.51 111.07 (finite) 0 0 t
0.00 0.00 303.75 181.50 cl
0.00 0.00 303.75 181.50 cl
/Font1 findfont 9 s
0 0 0 srgb
234.51 93.79 (semi-infinite) 0 0 t
0.00 0.00 303.75 181.50 cl
0.00 0.00 303.75 181.50 cl
/Font1 findfont 9 s
0 0 0 srgb
234.51 76.51 (f) 0 ta
-0.270 (olded) tb gr
0.00 0.00 303.75 181.50 cl
0.00 0.00 303.75 181.50 cl
0.00 0.00 303.75 181.50 cl
0.00 0.00 303.75 181.50 cl
0.00 0.00 303.75 181.50 cl
0.00 0.00 303.75 181.50 cl
ep
%%Trailer
%%Pages: 1
%%EOF
