%!PS-Adobe-3.0 EPSF-3.0
%%DocumentNeededResources: font Helvetica
%%+ font Helvetica-Bold
%%+ font Helvetica-Oblique
%%+ font Helvetica-BoldOblique
%%+ font Symbol
%%Title: R Graphics Output
%%Creator: R Software
%%Pages: (atend)
%%BoundingBox: 0 0 404 238
%%EndComments
%%BeginProlog
/bp  { gs sRGB gs } def
% begin .ps.prolog
/gs  { gsave } bind def
/gr  { grestore } bind def
/ep  { showpage gr gr } bind def
/m   { moveto } bind def
/l  { rlineto } bind def
/np  { newpath } bind def
/cp  { closepath } bind def
/f   { fill } bind def
/o   { stroke } bind def
/c   { newpath 0 360 arc } bind def
/r   { 4 2 roll moveto 1 copy 3 -1 roll exch 0 exch rlineto 0 rlineto -1 mul 0 exch rlineto closepath } bind def
/p1  { stroke } bind def
/p2  { gsave bg fill grestore newpath } bind def
/p3  { gsave bg fill grestore stroke } bind def
/p6  { gsave bg eofill grestore newpath } bind def
/p7  { gsave bg eofill grestore stroke } bind def
/t   { 5 -2 roll moveto gsave rotate
       1 index stringwidth pop
       mul neg 0 rmoveto show grestore } bind def
/ta  { 4 -2 roll moveto gsave rotate show } bind def
/tb  { 2 -1 roll 0 rmoveto show } bind def
/cl  { grestore gsave newpath 3 index 3 index moveto 1 index
       4 -1 roll lineto  exch 1 index lineto lineto
       closepath clip newpath } bind def
/rgb { setrgbcolor } bind def
/s   { scalefont setfont } bind def
% end   .ps.prolog
/sRGB { [ /CIEBasedABC
          << /DecodeLMN
               [ { dup 0.03928 le
                        {12.92321 div}
                        {0.055 add 1.055 div 2.4 exp }
                     ifelse
                 } bind dup dup
               ]
             /MatrixLMN [0.412457 0.212673 0.019334
                         0.357576 0.715152 0.119192
                         0.180437 0.072175 0.950301]
             /WhitePoint [0.9505 1.0 1.0890]
           >>
         ] setcolorspace } bind def
/srgb { setcolor } bind def
% begin encoding
/WinAnsiEncoding [
 /.notdef /.notdef /.notdef /.notdef /.notdef /.notdef /.notdef /.notdef
 /.notdef /.notdef /.notdef /.notdef /.notdef /.notdef /.notdef /.notdef
 /.notdef /.notdef /.notdef /.notdef /.notdef /.notdef /.notdef /.notdef
 /.notdef /.notdef /.notdef /.notdef /.notdef /.notdef /.notdef /.notdef
 /space /exclam /quotedbl /numbersign /dollar /percent /ampersand /quoteright
 /parenleft /parenright /asterisk /plus /comma /minus /period /slash
 /zero /one /two /three /four /five /six /seven
 /eight /nine /colon /semicolon /less /equal /greater /question
 /at /A /B /C /D /E /F /G
 /H /I /J /K /L /M /N /O
 /P /Q /R /S /T /U /V /W
 /X /Y /Z /bracketleft /backslash /bracketright /asciicircum /underscore
 /grave /a /b /c /d /e /f /g
 /h /i /j /k /l /m /n /o
 /p /q /r /s /t /u /v /w
 /x /y /z /braceleft /bar /braceright /asciitilde /.notdef
 /Euro /.notdef /quotesinglbase /florin /quotedblbase /ellipsis /dagger /daggerdbl
 /circumflex /perthousand /Scaron /guilsinglleft /OE /.notdef /Zcaron /.notdef
 /.notdef /quoteleft /quoteright /quotedblleft /quotedblright /bullet /endash /emdash
 /tilde /trademark /scaron /guilsinglright /oe /.notdef /zcaron /Ydieresis
 /space /exclamdown /cent /sterling /currency /yen /brokenbar /section
 /dieresis /copyright /ordfeminine /guillemotleft /logicalnot /hyphen /registered /macron
 /degree /plusminus /twosuperior /threesuperior /acute /mu /paragraph /periodcentered
 /cedilla /onesuperior /ordmasculine /guillemotright /onequarter /onehalf /threequarters /questiondown
 /Agrave /Aacute /Acircumflex /Atilde /Adieresis /Aring /AE /Ccedilla
 /Egrave /Eacute /Ecircumflex /Edieresis /Igrave /Iacute /Icircumflex /Idieresis
 /Eth /Ntilde /Ograve /Oacute /Ocircumflex /Otilde /Odieresis /multiply
 /Oslash /Ugrave /Uacute /Ucircumflex /Udieresis /Yacute /Thorn /germandbls
 /agrave /aacute /acircumflex /atilde /adieresis /aring /ae /ccedilla
 /egrave /eacute /ecircumflex /edieresis /igrave /iacute /icircumflex /idieresis
 /eth /ntilde /ograve /oacute /ocircumflex /otilde /odieresis /divide
 /oslash /ugrave /uacute /ucircumflex /udieresis /yacute /thorn /ydieresis
]
 def
% end encoding
%%IncludeResource: font Helvetica
/Helvetica findfont
dup length dict begin
  {1 index /FID ne {def} {pop pop} ifelse} forall
  /Encoding WinAnsiEncoding def
  currentdict
  end
/Font1 exch definefont pop
%%IncludeResource: font Helvetica-Bold
/Helvetica-Bold findfont
dup length dict begin
  {1 index /FID ne {def} {pop pop} ifelse} forall
  /Encoding WinAnsiEncoding def
  currentdict
  end
/Font2 exch definefont pop
%%IncludeResource: font Helvetica-Oblique
/Helvetica-Oblique findfont
dup length dict begin
  {1 index /FID ne {def} {pop pop} ifelse} forall
  /Encoding WinAnsiEncoding def
  currentdict
  end
/Font3 exch definefont pop
%%IncludeResource: font Helvetica-BoldOblique
/Helvetica-BoldOblique findfont
dup length dict begin
  {1 index /FID ne {def} {pop pop} ifelse} forall
  /Encoding WinAnsiEncoding def
  currentdict
  end
/Font4 exch definefont pop
%%IncludeResource: font Symbol
/Symbol findfont
dup length dict begin
  {1 index /FID ne {def} {pop pop} ifelse} forall
  currentdict
  end
/Font5 exch definefont pop
%%EndProlog
%%Page: 1 1
bp
0.00 0.00 404.25 237.75 cl
0.00 0.00 404.25 237.75 cl
0.00 0.00 404.25 237.75 cl
0.00 0.00 404.25 237.75 cl
0.00 0.00 404.25 237.75 cl
0.00 0.00 404.25 237.75 cl
0.00 0.00 404.25 237.75 cl
0.00 0.00 404.25 237.75 cl
0.00 0.00 404.25 237.75 cl
/bg { 1 1 1 srgb } def
1 1 1 srgb
1.07 setlinewidth
[] 0 setdash
1 setlinecap
1 setlinejoin
10.00 setmiterlimit
0.00 0.00 404.25 237.75 r p3
0.00 0.00 404.25 237.75 cl
0.00 0.00 404.25 237.75 cl
0.00 0.00 404.25 237.75 cl
42.40 31.35 302.82 232.27 cl
/bg { 0.9216 0.9216 0.9216 srgb } def
42.40 31.35 260.42 200.92 r p2
1 1 1 srgb
0.53 setlinewidth
[] 0 setdash
0 setlinecap
1 setlinejoin
10.00 setmiterlimit
np
42.40 62.46 m
260.42 0 l
o
np
42.40 106.43 m
260.42 0 l
o
np
42.40 150.40 m
260.42 0 l
o
np
42.40 194.37 m
260.42 0 l
o
np
74.95 31.35 m
0 200.92 l
o
np
140.06 31.35 m
0 200.92 l
o
np
205.16 31.35 m
0 200.92 l
o
np
270.27 31.35 m
0 200.92 l
o
1.07 setlinewidth
[] 0 setdash
np
42.40 40.47 m
260.42 0 l
o
np
42.40 84.44 m
260.42 0 l
o
np
42.40 128.41 m
260.42 0 l
o
np
42.40 172.39 m
260.42 0 l
o
np
42.40 216.36 m
260.42 0 l
o
np
42.40 31.35 m
0 200.92 l
o
np
107.50 31.35 m
0 200.92 l
o
np
172.61 31.35 m
0 200.92 l
o
np
237.71 31.35 m
0 200.92 l
o
np
302.82 31.35 m
0 200.92 l
o
1 0.3882 0.2784 srgb
1.00 setmiterlimit
np
42.40 223.14 m
0.66 -0.01 l
0.65 -0.01 l
0.66 -0.01 l
0.66 -0.03 l
0.66 -0.03 l
0.65 -0.03 l
0.66 -0.05 l
0.66 -0.05 l
0.66 -0.05 l
0.65 -0.07 l
0.66 -0.07 l
0.66 -0.08 l
0.66 -0.08 l
0.66 -0.09 l
0.65 -0.09 l
0.66 -0.10 l
0.66 -0.11 l
0.66 -0.12 l
0.65 -0.12 l
0.66 -0.12 l
0.66 -0.13 l
0.66 -0.14 l
0.65 -0.14 l
0.66 -0.14 l
0.66 -0.15 l
0.66 -0.16 l
0.65 -0.16 l
0.66 -0.16 l
0.66 -0.17 l
0.66 -0.18 l
0.65 -0.17 l
0.66 -0.19 l
0.66 -0.18 l
0.66 -0.19 l
0.66 -0.19 l
0.65 -0.19 l
0.66 -0.20 l
0.66 -0.20 l
0.66 -0.20 l
0.65 -0.21 l
0.66 -0.21 l
0.66 -0.20 l
0.66 -0.21 l
0.65 -0.22 l
0.66 -0.21 l
0.66 -0.21 l
0.66 -0.22 l
0.65 -0.21 l
0.66 -0.22 l
0.66 -0.21 l
0.66 -0.22 l
0.65 -0.21 l
0.66 -0.22 l
0.66 -0.21 l
0.66 -0.21 l
0.66 -0.21 l
0.65 -0.21 l
0.66 -0.21 l
0.66 -0.21 l
0.66 -0.20 l
0.65 -0.21 l
0.66 -0.20 l
0.66 -0.19 l
0.66 -0.20 l
0.65 -0.19 l
0.66 -0.19 l
0.66 -0.18 l
0.66 -0.18 l
0.65 -0.18 l
0.66 -0.17 l
0.66 -0.17 l
0.66 -0.17 l
0.66 -0.16 l
0.65 -0.15 l
0.66 -0.16 l
0.66 -0.14 l
0.66 -0.14 l
0.65 -0.14 l
0.66 -0.13 l
0.66 -0.12 l
0.66 -0.12 l
0.65 -0.12 l
0.66 -0.10 l
0.66 -0.11 l
0.66 -0.09 l
0.65 -0.09 l
0.66 -0.09 l
0.66 -0.07 l
0.66 -0.07 l
0.65 -0.07 l
0.66 -0.05 l
0.66 -0.05 l
0.66 -0.05 l
0.66 -0.04 l
0.65 -0.03 l
0.66 -0.02 l
0.66 -0.02 l
0.66 -0.01 l
0.65 0 l
o
0.4745 0.8039 0.8039 srgb
np
42.40 197.37 m
0.65 -0.01 l
0.65 -0.03 l
0.66 -0.05 l
0.65 -0.07 l
0.65 -0.08 l
0.65 -0.11 l
0.66 -0.13 l
0.65 -0.15 l
0.65 -0.16 l
0.66 -0.19 l
0.65 -0.21 l
0.65 -0.22 l
0.65 -0.24 l
0.66 -0.27 l
0.65 -0.28 l
0.65 -0.30 l
0.65 -0.32 l
0.66 -0.34 l
0.65 -0.36 l
0.65 -0.37 l
0.65 -0.39 l
0.66 -0.42 l
0.65 -0.43 l
0.65 -0.44 l
0.66 -0.47 l
0.65 -0.48 l
0.65 -0.50 l
0.65 -0.52 l
0.66 -0.53 l
0.65 -0.55 l
0.65 -0.57 l
0.65 -0.58 l
0.66 -0.60 l
0.65 -0.62 l
0.65 -0.63 l
0.65 -0.64 l
0.66 -0.67 l
0.65 -0.67 l
0.65 -0.69 l
0.66 -0.71 l
0.65 -0.72 l
0.65 -0.73 l
0.65 -0.75 l
0.66 -0.76 l
0.65 -0.78 l
0.65 -0.79 l
0.65 -0.80 l
0.66 -0.81 l
0.65 -0.82 l
0.65 -0.84 l
0.66 -0.85 l
0.65 -0.86 l
0.65 -0.87 l
0.65 -0.88 l
0.66 -0.89 l
0.65 -0.90 l
0.65 -0.91 l
0.65 -0.92 l
0.66 -0.93 l
0.65 -0.94 l
0.65 -0.95 l
0.65 -0.96 l
0.66 -0.96 l
0.65 -0.97 l
0.65 -0.98 l
0.66 -0.99 l
0.65 -0.99 l
0.65 -1.00 l
0.65 -1.00 l
0.66 -1.02 l
0.65 -1.01 l
0.65 -1.02 l
0.65 -1.03 l
0.66 -1.03 l
0.65 -1.04 l
0.65 -1.04 l
0.65 -1.04 l
0.66 -1.05 l
0.65 -1.05 l
0.65 -1.06 l
0.66 -1.05 l
0.65 -1.06 l
0.65 -1.06 l
0.65 -1.06 l
0.66 -1.07 l
0.65 -1.06 l
0.65 -1.07 l
0.65 -1.06 l
0.66 -1.07 l
0.65 -1.07 l
0.65 -1.06 l
0.66 -1.07 l
0.65 -1.06 l
0.65 -1.07 l
0.65 -1.06 l
0.66 -1.06 l
0.65 -1.06 l
0.65 -1.06 l
0.65 -1.06 l
107.67 124.19 lineto
0.65 -1.05 l
0.65 -1.05 l
0.65 -1.04 l
0.66 -1.04 l
0.65 -1.04 l
0.65 -1.03 l
0.66 -1.03 l
0.65 -1.03 l
0.65 -1.02 l
0.65 -1.01 l
0.66 -1.02 l
0.65 -1.00 l
0.65 -1.00 l
0.65 -1.00 l
0.66 -0.99 l
0.65 -0.99 l
0.65 -0.97 l
0.65 -0.98 l
0.66 -0.96 l
0.65 -0.96 l
0.65 -0.96 l
0.66 -0.95 l
0.65 -0.94 l
0.65 -0.93 l
0.65 -0.93 l
0.66 -0.92 l
0.65 -0.91 l
0.65 -0.91 l
0.65 -0.89 l
0.66 -0.89 l
0.65 -0.89 l
0.65 -0.87 l
0.66 -0.87 l
0.65 -0.86 l
0.65 -0.85 l
0.65 -0.84 l
0.66 -0.84 l
0.65 -0.82 l
0.65 -0.82 l
0.65 -0.81 l
0.66 -0.80 l
0.65 -0.79 l
0.65 -0.79 l
0.65 -0.77 l
0.66 -0.77 l
0.65 -0.76 l
0.65 -0.75 l
0.66 -0.74 l
0.65 -0.73 l
0.65 -0.73 l
0.65 -0.71 l
0.66 -0.71 l
0.65 -0.70 l
0.65 -0.69 l
0.65 -0.68 l
0.66 -0.67 l
0.65 -0.66 l
0.65 -0.65 l
0.65 -0.65 l
0.66 -0.63 l
0.65 -0.63 l
0.65 -0.62 l
0.66 -0.61 l
0.65 -0.60 l
0.65 -0.59 l
0.65 -0.59 l
0.66 -0.57 l
0.65 -0.57 l
0.65 -0.56 l
0.65 -0.55 l
0.66 -0.54 l
0.65 -0.53 l
0.65 -0.53 l
0.66 -0.51 l
0.65 -0.51 l
0.65 -0.50 l
0.65 -0.49 l
0.66 -0.48 l
0.65 -0.48 l
0.65 -0.47 l
0.65 -0.46 l
0.66 -0.45 l
0.65 -0.44 l
0.65 -0.44 l
0.65 -0.43 l
0.66 -0.42 l
0.65 -0.41 l
0.65 -0.41 l
0.66 -0.40 l
0.65 -0.39 l
0.65 -0.38 l
0.65 -0.38 l
0.66 -0.37 l
0.65 -0.36 l
0.65 -0.36 l
0.65 -0.35 l
0.66 -0.34 l
0.65 -0.34 l
0.65 -0.33 l
172.93 53.19 lineto
0.66 -0.32 l
0.65 -0.31 l
0.65 -0.30 l
0.66 -0.30 l
0.65 -0.29 l
0.65 -0.28 l
0.65 -0.28 l
0.66 -0.28 l
0.65 -0.26 l
0.65 -0.27 l
0.65 -0.25 l
0.66 -0.25 l
0.65 -0.25 l
0.65 -0.24 l
0.65 -0.24 l
0.66 -0.23 l
0.65 -0.22 l
0.65 -0.22 l
0.66 -0.21 l
0.65 -0.21 l
0.65 -0.21 l
0.65 -0.20 l
0.66 -0.19 l
0.65 -0.20 l
0.65 -0.18 l
0.65 -0.19 l
0.66 -0.17 l
0.65 -0.18 l
0.65 -0.17 l
0.66 -0.16 l
0.65 -0.16 l
0.65 -0.16 l
0.65 -0.15 l
0.66 -0.15 l
0.65 -0.15 l
0.65 -0.14 l
0.65 -0.14 l
0.66 -0.14 l
0.65 -0.13 l
0.65 -0.13 l
0.65 -0.12 l
0.66 -0.12 l
0.65 -0.12 l
0.65 -0.12 l
0.66 -0.11 l
0.65 -0.11 l
0.65 -0.11 l
0.65 -0.10 l
0.66 -0.10 l
0.65 -0.10 l
0.65 -0.10 l
0.65 -0.09 l
0.66 -0.09 l
0.65 -0.09 l
0.65 -0.09 l
0.65 -0.08 l
0.66 -0.08 l
0.65 -0.08 l
0.65 -0.08 l
0.66 -0.07 l
0.65 -0.07 l
0.65 -0.07 l
0.65 -0.07 l
0.66 -0.07 l
0.65 -0.06 l
0.65 -0.07 l
0.65 -0.06 l
0.66 -0.05 l
0.65 -0.06 l
0.65 -0.06 l
0.66 -0.05 l
0.65 -0.05 l
0.65 -0.05 l
0.65 -0.05 l
0.66 -0.05 l
0.65 -0.05 l
0.65 -0.04 l
0.65 -0.05 l
0.66 -0.04 l
0.65 -0.04 l
0.65 -0.04 l
0.65 -0.04 l
0.66 -0.03 l
0.65 -0.04 l
0.65 -0.03 l
0.66 -0.04 l
0.65 -0.03 l
0.65 -0.03 l
0.65 -0.03 l
0.66 -0.03 l
0.65 -0.03 l
0.65 -0.03 l
0.65 -0.02 l
0.66 -0.03 l
0.65 -0.02 l
0.65 -0.03 l
0.65 -0.02 l
0.66 -0.02 l
0.65 -0.03 l
238.20 41.02 lineto
0.66 -0.02 l
0.65 -0.02 l
0.65 -0.02 l
0.65 -0.02 l
0.66 -0.01 l
0.65 -0.02 l
0.65 -0.02 l
0.65 -0.01 l
0.66 -0.02 l
0.65 -0.01 l
0.65 -0.02 l
0.66 -0.01 l
0.65 -0.01 l
0.65 -0.02 l
0.65 -0.01 l
0.66 -0.01 l
0.65 -0.01 l
0.65 -0.01 l
0.65 -0.02 l
0.66 -0.01 l
0.65 -0.01 l
0.65 -0.01 l
0.65 0 l
0.66 -0.01 l
0.65 -0.01 l
0.65 -0.01 l
0.66 -0.01 l
0.65 -0.01 l
0.65 0 l
0.65 -0.01 l
0.66 -0.01 l
0.65 0 l
0.65 -0.01 l
0.65 -0.01 l
0.66 0 l
0.65 -0.01 l
0.65 0 l
0.65 -0.01 l
0.66 0 l
0.65 -0.01 l
0.65 0 l
0.66 -0.01 l
0.65 0 l
0.65 -0.01 l
0.65 0 l
0.66 0 l
0.65 -0.01 l
0.65 0 l
0.65 0 l
0.66 -0.01 l
0.65 0 l
0.65 0 l
0.66 -0.01 l
0.65 0 l
0.65 0 l
0.65 0 l
0.66 -0.01 l
0.65 0 l
0.65 0 l
0.65 0 l
0.66 0 l
0.65 -0.01 l
0.65 0 l
0.65 0 l
0.66 0 l
0.65 0 l
0.65 0 l
0.66 -0.01 l
0.65 0 l
0.65 0 l
0.65 0 l
0.66 0 l
0.65 0 l
0.65 0 l
0.65 -0.01 l
0.66 0 l
0.65 0 l
0.65 0 l
0.65 0 l
0.66 0 l
0.65 0 l
0.65 0 l
0.66 0 l
0.65 0 l
0.65 0 l
0.65 0 l
0.66 -0.01 l
0.65 0 l
0.65 0 l
0.65 0 l
0.66 0 l
0.65 0 l
0.65 0 l
0.66 0 l
0.65 0 l
0.65 0 l
0.65 0 l
0.66 0 l
0.65 0 l
o
0 0.9608 1 srgb
1.07 setlinewidth
[ 7.47 3.20] 0 setdash
np
42.40 197.37 m
0.66 -0.01 l
0.65 -0.03 l
0.66 -0.05 l
0.66 -0.07 l
0.66 -0.09 l
0.65 -0.11 l
0.66 -0.13 l
0.66 -0.15 l
0.66 -0.17 l
0.65 -0.19 l
0.66 -0.20 l
0.66 -0.23 l
0.66 -0.25 l
0.66 -0.27 l
0.65 -0.28 l
0.66 -0.31 l
0.66 -0.32 l
0.66 -0.35 l
0.65 -0.36 l
0.66 -0.38 l
0.66 -0.40 l
0.66 -0.42 l
0.65 -0.43 l
0.66 -0.46 l
0.66 -0.47 l
0.66 -0.49 l
0.65 -0.50 l
0.66 -0.53 l
0.66 -0.54 l
0.66 -0.56 l
0.65 -0.57 l
0.66 -0.60 l
0.66 -0.60 l
0.66 -0.63 l
0.66 -0.64 l
0.65 -0.65 l
0.66 -0.67 l
0.66 -0.69 l
0.66 -0.70 l
0.65 -0.72 l
0.66 -0.73 l
0.66 -0.74 l
0.66 -0.76 l
0.65 -0.77 l
0.66 -0.79 l
0.66 -0.79 l
0.66 -0.81 l
0.65 -0.83 l
0.66 -0.83 l
0.66 -0.85 l
0.66 -0.86 l
0.65 -0.87 l
0.66 -0.88 l
0.66 -0.89 l
0.66 -0.90 l
0.66 -0.92 l
0.65 -0.92 l
0.66 -0.93 l
0.66 -0.94 l
0.66 -0.95 l
0.65 -0.96 l
0.66 -0.97 l
0.66 -0.97 l
0.66 -0.98 l
0.65 -0.99 l
0.66 -1.00 l
0.66 -1.01 l
0.66 -1.01 l
0.65 -1.01 l
0.66 -1.02 l
0.66 -1.03 l
0.66 -1.03 l
0.66 -1.04 l
0.65 -1.04 l
0.66 -1.05 l
0.66 -1.05 l
0.66 -1.05 l
0.65 -1.06 l
0.66 -1.06 l
0.66 -1.07 l
0.66 -1.06 l
0.65 -1.07 l
0.66 -1.07 l
0.66 -1.07 l
0.66 -1.07 l
0.65 -1.08 l
0.66 -1.07 l
0.66 -1.07 l
0.66 -1.08 l
0.65 -1.07 l
0.66 -1.08 l
0.66 -1.07 l
0.66 -1.07 l
0.66 -1.08 l
0.65 -1.07 l
0.66 -1.06 l
0.66 -1.07 l
0.66 -1.06 l
0.65 -1.07 l
o
0.4941 0.7529 0.9333 srgb
np
42.40 53.35 m
0.66 0.33 l
0.65 0.33 l
0.66 0.35 l
0.66 0.35 l
0.66 0.35 l
0.65 0.36 l
0.66 0.37 l
0.66 0.38 l
0.66 0.38 l
0.65 0.40 l
0.66 0.39 l
0.66 0.41 l
0.66 0.41 l
0.66 0.43 l
0.65 0.42 l
0.66 0.44 l
0.66 0.45 l
0.66 0.45 l
0.65 0.46 l
0.66 0.47 l
0.66 0.47 l
0.66 0.49 l
0.65 0.49 l
0.66 0.50 l
0.66 0.51 l
0.66 0.52 l
0.65 0.52 l
0.66 0.54 l
0.66 0.54 l
0.66 0.55 l
0.65 0.56 l
0.66 0.57 l
0.66 0.58 l
0.66 0.58 l
0.66 0.60 l
0.65 0.60 l
0.66 0.62 l
0.66 0.62 l
0.66 0.63 l
0.65 0.64 l
0.66 0.64 l
0.66 0.66 l
0.66 0.67 l
0.65 0.67 l
0.66 0.69 l
0.66 0.69 l
0.66 0.70 l
0.65 0.71 l
0.66 0.72 l
0.66 0.73 l
0.66 0.73 l
0.65 0.75 l
0.66 0.76 l
0.66 0.76 l
0.66 0.77 l
0.66 0.78 l
0.65 0.79 l
0.66 0.80 l
0.66 0.81 l
0.66 0.81 l
0.65 0.83 l
0.66 0.83 l
0.66 0.84 l
0.66 0.85 l
0.65 0.86 l
0.66 0.86 l
0.66 0.88 l
0.66 0.88 l
0.65 0.89 l
0.66 0.89 l
0.66 0.91 l
0.66 0.91 l
0.66 0.92 l
0.65 0.93 l
0.66 0.93 l
0.66 0.94 l
0.66 0.95 l
0.65 0.96 l
0.66 0.96 l
0.66 0.97 l
0.66 0.97 l
0.65 0.98 l
0.66 0.99 l
0.66 0.99 l
0.66 1.00 l
0.65 1.01 l
0.66 1.01 l
0.66 1.01 l
0.66 1.02 l
0.65 1.03 l
0.66 1.03 l
0.66 1.03 l
0.66 1.04 l
0.66 1.04 l
0.65 1.05 l
0.66 1.05 l
0.66 1.05 l
0.66 1.06 l
0.65 1.05 l
o
0 0.7490 1 srgb
np
42.40 53.35 m
0.66 -0.32 l
0.65 -0.32 l
0.66 -0.31 l
0.66 -0.30 l
0.66 -0.29 l
0.65 -0.29 l
0.66 -0.29 l
0.66 -0.28 l
0.66 -0.27 l
0.65 -0.27 l
0.66 -0.26 l
0.66 -0.25 l
0.66 -0.25 l
0.66 -0.25 l
0.65 -0.24 l
0.66 -0.23 l
0.66 -0.23 l
0.66 -0.22 l
0.65 -0.22 l
0.66 -0.21 l
0.66 -0.21 l
0.66 -0.20 l
0.65 -0.20 l
0.66 -0.20 l
0.66 -0.19 l
0.66 -0.18 l
0.65 -0.18 l
0.66 -0.18 l
0.66 -0.17 l
0.66 -0.17 l
0.65 -0.16 l
0.66 -0.16 l
0.66 -0.16 l
0.66 -0.15 l
0.66 -0.15 l
0.65 -0.14 l
0.66 -0.14 l
0.66 -0.14 l
0.66 -0.13 l
0.65 -0.13 l
0.66 -0.13 l
0.66 -0.12 l
0.66 -0.12 l
0.65 -0.12 l
0.66 -0.11 l
0.66 -0.12 l
0.66 -0.10 l
0.65 -0.11 l
0.66 -0.10 l
0.66 -0.10 l
0.66 -0.10 l
0.65 -0.09 l
0.66 -0.09 l
0.66 -0.09 l
0.66 -0.09 l
0.66 -0.08 l
0.65 -0.09 l
0.66 -0.08 l
0.66 -0.07 l
0.66 -0.08 l
0.65 -0.07 l
0.66 -0.07 l
0.66 -0.07 l
0.66 -0.07 l
0.65 -0.06 l
0.66 -0.07 l
0.66 -0.06 l
0.66 -0.06 l
0.65 -0.05 l
0.66 -0.06 l
0.66 -0.05 l
0.66 -0.06 l
0.66 -0.05 l
0.65 -0.05 l
0.66 -0.04 l
0.66 -0.05 l
0.66 -0.05 l
0.65 -0.04 l
0.66 -0.04 l
0.66 -0.04 l
0.66 -0.04 l
0.65 -0.04 l
0.66 -0.04 l
0.66 -0.03 l
0.66 -0.04 l
0.65 -0.03 l
0.66 -0.03 l
0.66 -0.04 l
0.66 -0.03 l
0.65 -0.03 l
0.66 -0.02 l
0.66 -0.03 l
0.66 -0.03 l
0.66 -0.03 l
0.65 -0.02 l
0.66 -0.02 l
0.66 -0.03 l
0.66 -0.02 l
0.65 -0.02 l
o
0.3608 0.6745 0.9333 srgb
np
42.40 40.48 m
0.66 0 l
0.65 0 l
0.66 0 l
0.66 0 l
0.66 0 l
0.65 0 l
0.66 0 l
0.66 0 l
0.66 0 l
0.65 0 l
0.66 0 l
0.66 0.01 l
0.66 0 l
0.66 0 l
0.65 0 l
0.66 0 l
0.66 0 l
0.66 0 l
0.65 0 l
0.66 0 l
0.66 0 l
0.66 0 l
0.65 0 l
0.66 0.01 l
0.66 0 l
0.66 0 l
0.65 0 l
0.66 0 l
0.66 0 l
0.66 0 l
0.65 0 l
0.66 0.01 l
0.66 0 l
0.66 0 l
0.66 0 l
0.65 0 l
0.66 0 l
0.66 0.01 l
0.66 0 l
0.65 0 l
0.66 0 l
0.66 0.01 l
0.66 0 l
0.65 0 l
0.66 0 l
0.66 0.01 l
0.66 0 l
0.65 0 l
0.66 0 l
0.66 0.01 l
0.66 0 l
0.65 0 l
0.66 0.01 l
0.66 0 l
0.66 0.01 l
0.66 0 l
0.65 0.01 l
0.66 0 l
0.66 0 l
0.66 0.01 l
0.65 0 l
0.66 0.01 l
0.66 0.01 l
0.66 0 l
0.65 0.01 l
0.66 0 l
0.66 0.01 l
0.66 0.01 l
0.65 0 l
0.66 0.01 l
0.66 0.01 l
0.66 0.01 l
0.66 0 l
0.65 0.01 l
0.66 0.01 l
0.66 0.01 l
0.66 0.01 l
0.65 0.01 l
0.66 0.01 l
0.66 0.01 l
0.66 0.01 l
0.65 0.01 l
0.66 0.02 l
0.66 0.01 l
0.66 0.01 l
0.65 0.01 l
0.66 0.02 l
0.66 0.01 l
0.66 0.02 l
0.65 0.01 l
0.66 0.02 l
0.66 0.01 l
0.66 0.02 l
0.66 0.02 l
0.65 0.02 l
0.66 0.02 l
0.66 0.02 l
0.66 0.02 l
0.65 0.02 l
o
/Font5 findfont 14 s
0 0 0 srgb
183.55 158.80 (w) 0 0 t
196.39 158.80 (=) 0 0 t
/Font1 findfont 14 s
207.32 158.80 (0.4) 0 0 t
1 0.6275 0.4784 srgb
0.21 setlinewidth
[ 0.85 0.85] 0 setdash
10.00 setmiterlimit
np
107.50 31.35 m
0 200.92 l
o
np
172.61 31.35 m
0 200.92 l
o
np
237.71 31.35 m
0 200.92 l
o
np
302.82 31.35 m
0 200.92 l
o
0.00 0.00 404.25 237.75 cl
0.00 0.00 404.25 237.75 cl
0.00 0.00 404.25 237.75 cl
0.00 0.00 404.25 237.75 cl
0.00 0.00 404.25 237.75 cl
0.00 0.00 404.25 237.75 cl
/Font1 findfont 9 s
0.3020 0.3020 0.3020 srgb
37.47 37.24 (0.00) 1 0 t
37.47 81.21 (0.25) 1 0 t
37.47 125.18 (0.50) 1 0 t
37.47 169.15 (0.75) 1 0 t
37.47 213.13 (1.00) 1 0 t
0.00 0.00 404.25 237.75 cl
0.00 0.00 404.25 237.75 cl
0.2000 0.2000 0.2000 srgb
1.07 setlinewidth
[] 0 setdash
0 setlinecap
1 setlinejoin
10.00 setmiterlimit
np
39.66 40.47 m
2.74 0 l
o
np
39.66 84.44 m
2.74 0 l
o
np
39.66 128.41 m
2.74 0 l
o
np
39.66 172.39 m
2.74 0 l
o
np
39.66 216.36 m
2.74 0 l
o
0.00 0.00 404.25 237.75 cl
0.00 0.00 404.25 237.75 cl
0.00 0.00 404.25 237.75 cl
0.00 0.00 404.25 237.75 cl
0.00 0.00 404.25 237.75 cl
0.00 0.00 404.25 237.75 cl
0.00 0.00 404.25 237.75 cl
0.00 0.00 404.25 237.75 cl
0.2000 0.2000 0.2000 srgb
1.07 setlinewidth
[] 0 setdash
0 setlinecap
1 setlinejoin
10.00 setmiterlimit
np
42.40 28.61 m
0 2.74 l
o
np
107.50 28.61 m
0 2.74 l
o
np
172.61 28.61 m
0 2.74 l
o
np
237.71 28.61 m
0 2.74 l
o
np
302.82 28.61 m
0 2.74 l
o
0.00 0.00 404.25 237.75 cl
0.00 0.00 404.25 237.75 cl
/Font1 findfont 9 s
0.3020 0.3020 0.3020 srgb
42.40 19.95 (0) .5 0 t
107.50 19.95 (1) .5 0 t
172.61 19.95 (2) .5 0 t
237.71 19.95 (3) .5 0 t
302.82 19.95 (4) .5 0 t
0.00 0.00 404.25 237.75 cl
0.00 0.00 404.25 237.75 cl
0.00 0.00 404.25 237.75 cl
0.00 0.00 404.25 237.75 cl
/Font1 findfont 11 s
0 0 0 srgb
172.61 7.67 (x) .5 0 t
0.00 0.00 404.25 237.75 cl
0.00 0.00 404.25 237.75 cl
/Font1 findfont 11 s
0 0 0 srgb
15.57 131.81 (T) .5 90 t
0.00 0.00 404.25 237.75 cl
0.00 0.00 404.25 237.75 cl
0.00 0.00 404.25 237.75 cl
0.00 0.00 404.25 237.75 cl
/bg { 1 1 1 srgb } def
311.32 69.06 78.94 125.50 r p2
0.00 0.00 404.25 237.75 cl
0.00 0.00 404.25 237.75 cl
0.00 0.00 404.25 237.75 cl
0.00 0.00 404.25 237.75 cl
/bg { 0.9490 0.9490 0.9490 srgb } def
1 1 1 srgb
1.07 setlinewidth
[] 0 setdash
1 setlinecap
1 setlinejoin
10.00 setmiterlimit
315.57 159.71 17.28 17.28 r p3
0.00 0.00 404.25 237.75 cl
0.00 0.00 404.25 237.75 cl
1 0.3882 0.2784 srgb
1.07 setlinewidth
[] 0 setdash
0 setlinecap
1 setlinejoin
10.00 setmiterlimit
np
317.30 168.35 m
13.83 0 l
o
0.00 0.00 404.25 237.75 cl
0.00 0.00 404.25 237.75 cl
1 0.3882 0.2784 srgb
1.07 setlinewidth
[] 0 setdash
0 setlinecap
1 setlinejoin
10.00 setmiterlimit
np
317.30 168.35 m
13.83 0 l
o
0.00 0.00 404.25 237.75 cl
0.00 0.00 404.25 237.75 cl
1 0.3882 0.2784 srgb
1.07 setlinewidth
[] 0 setdash
0 setlinecap
1 setlinejoin
10.00 setmiterlimit
np
317.30 168.35 m
13.83 0 l
o
0.00 0.00 404.25 237.75 cl
0.00 0.00 404.25 237.75 cl
1 0.3882 0.2784 srgb
1.07 setlinewidth
[] 0 setdash
0 setlinecap
1 setlinejoin
10.00 setmiterlimit
np
317.30 168.35 m
13.83 0 l
o
0.00 0.00 404.25 237.75 cl
0.00 0.00 404.25 237.75 cl
1 0.3882 0.2784 srgb
1.07 setlinewidth
[] 0 setdash
0 setlinecap
1 setlinejoin
10.00 setmiterlimit
np
317.30 168.35 m
13.83 0 l
o
0.00 0.00 404.25 237.75 cl
0.00 0.00 404.25 237.75 cl
1 0.3882 0.2784 srgb
1.07 setlinewidth
[] 0 setdash
0 setlinecap
1 setlinejoin
10.00 setmiterlimit
np
317.30 168.35 m
13.83 0 l
o
0.00 0.00 404.25 237.75 cl
0.00 0.00 404.25 237.75 cl
/bg { 0.9490 0.9490 0.9490 srgb } def
1 1 1 srgb
1.07 setlinewidth
[] 0 setdash
1 setlinecap
1 setlinejoin
10.00 setmiterlimit
315.57 142.43 17.28 17.28 r p3
0.00 0.00 404.25 237.75 cl
0.00 0.00 404.25 237.75 cl
0.4745 0.8039 0.8039 srgb
1.07 setlinewidth
[] 0 setdash
0 setlinecap
1 setlinejoin
10.00 setmiterlimit
np
317.30 151.07 m
13.83 0 l
o
0.00 0.00 404.25 237.75 cl
0.00 0.00 404.25 237.75 cl
0.4745 0.8039 0.8039 srgb
1.07 setlinewidth
[] 0 setdash
0 setlinecap
1 setlinejoin
10.00 setmiterlimit
np
317.30 151.07 m
13.83 0 l
o
0.00 0.00 404.25 237.75 cl
0.00 0.00 404.25 237.75 cl
0.4745 0.8039 0.8039 srgb
1.07 setlinewidth
[] 0 setdash
0 setlinecap
1 setlinejoin
10.00 setmiterlimit
np
317.30 151.07 m
13.83 0 l
o
0.00 0.00 404.25 237.75 cl
0.00 0.00 404.25 237.75 cl
0.4745 0.8039 0.8039 srgb
1.07 setlinewidth
[] 0 setdash
0 setlinecap
1 setlinejoin
10.00 setmiterlimit
np
317.30 151.07 m
13.83 0 l
o
0.00 0.00 404.25 237.75 cl
0.00 0.00 404.25 237.75 cl
0.4745 0.8039 0.8039 srgb
1.07 setlinewidth
[] 0 setdash
0 setlinecap
1 setlinejoin
10.00 setmiterlimit
np
317.30 151.07 m
13.83 0 l
o
0.00 0.00 404.25 237.75 cl
0.00 0.00 404.25 237.75 cl
0.4745 0.8039 0.8039 srgb
1.07 setlinewidth
[] 0 setdash
0 setlinecap
1 setlinejoin
10.00 setmiterlimit
np
317.30 151.07 m
13.83 0 l
o
0.00 0.00 404.25 237.75 cl
0.00 0.00 404.25 237.75 cl
/bg { 0.9490 0.9490 0.9490 srgb } def
1 1 1 srgb
1.07 setlinewidth
[] 0 setdash
1 setlinecap
1 setlinejoin
10.00 setmiterlimit
315.57 125.15 17.28 17.28 r p3
0.00 0.00 404.25 237.75 cl
0.00 0.00 404.25 237.75 cl
0 0.9608 1 srgb
1.07 setlinewidth
[ 7.47 3.20] 0 setdash
0 setlinecap
1 setlinejoin
10.00 setmiterlimit
np
317.30 133.79 m
13.83 0 l
o
0.00 0.00 404.25 237.75 cl
0.00 0.00 404.25 237.75 cl
0 0.9608 1 srgb
1.07 setlinewidth
[ 7.47 3.20] 0 setdash
0 setlinecap
1 setlinejoin
10.00 setmiterlimit
np
317.30 133.79 m
13.83 0 l
o
0.00 0.00 404.25 237.75 cl
0.00 0.00 404.25 237.75 cl
0 0.9608 1 srgb
1.07 setlinewidth
[ 7.47 3.20] 0 setdash
0 setlinecap
1 setlinejoin
10.00 setmiterlimit
np
317.30 133.79 m
13.83 0 l
o
0.00 0.00 404.25 237.75 cl
0.00 0.00 404.25 237.75 cl
0 0.9608 1 srgb
1.07 setlinewidth
[ 7.47 3.20] 0 setdash
0 setlinecap
1 setlinejoin
10.00 setmiterlimit
np
317.30 133.79 m
13.83 0 l
o
0.00 0.00 404.25 237.75 cl
0.00 0.00 404.25 237.75 cl
0 0.9608 1 srgb
1.07 setlinewidth
[ 7.47 3.20] 0 setdash
0 setlinecap
1 setlinejoin
10.00 setmiterlimit
np
317.30 133.79 m
13.83 0 l
o
0.00 0.00 404.25 237.75 cl
0.00 0.00 404.25 237.75 cl
0 0.9608 1 srgb
1.07 setlinewidth
[ 7.47 3.20] 0 setdash
0 setlinecap
1 setlinejoin
10.00 setmiterlimit
np
317.30 133.79 m
13.83 0 l
o
0.00 0.00 404.25 237.75 cl
0.00 0.00 404.25 237.75 cl
/bg { 0.9490 0.9490 0.9490 srgb } def
1 1 1 srgb
1.07 setlinewidth
[] 0 setdash
1 setlinecap
1 setlinejoin
10.00 setmiterlimit
315.57 107.87 17.28 17.28 r p3
0.00 0.00 404.25 237.75 cl
0.00 0.00 404.25 237.75 cl
0.4941 0.7529 0.9333 srgb
1.07 setlinewidth
[ 7.47 3.20] 0 setdash
0 setlinecap
1 setlinejoin
10.00 setmiterlimit
np
317.30 116.51 m
13.83 0 l
o
0.00 0.00 404.25 237.75 cl
0.00 0.00 404.25 237.75 cl
0.4941 0.7529 0.9333 srgb
1.07 setlinewidth
[ 7.47 3.20] 0 setdash
0 setlinecap
1 setlinejoin
10.00 setmiterlimit
np
317.30 116.51 m
13.83 0 l
o
0.00 0.00 404.25 237.75 cl
0.00 0.00 404.25 237.75 cl
0.4941 0.7529 0.9333 srgb
1.07 setlinewidth
[ 7.47 3.20] 0 setdash
0 setlinecap
1 setlinejoin
10.00 setmiterlimit
np
317.30 116.51 m
13.83 0 l
o
0.00 0.00 404.25 237.75 cl
0.00 0.00 404.25 237.75 cl
0.4941 0.7529 0.9333 srgb
1.07 setlinewidth
[ 7.47 3.20] 0 setdash
0 setlinecap
1 setlinejoin
10.00 setmiterlimit
np
317.30 116.51 m
13.83 0 l
o
0.00 0.00 404.25 237.75 cl
0.00 0.00 404.25 237.75 cl
0.4941 0.7529 0.9333 srgb
1.07 setlinewidth
[ 7.47 3.20] 0 setdash
0 setlinecap
1 setlinejoin
10.00 setmiterlimit
np
317.30 116.51 m
13.83 0 l
o
0.00 0.00 404.25 237.75 cl
0.00 0.00 404.25 237.75 cl
0.4941 0.7529 0.9333 srgb
1.07 setlinewidth
[ 7.47 3.20] 0 setdash
0 setlinecap
1 setlinejoin
10.00 setmiterlimit
np
317.30 116.51 m
13.83 0 l
o
0.00 0.00 404.25 237.75 cl
0.00 0.00 404.25 237.75 cl
/bg { 0.9490 0.9490 0.9490 srgb } def
1 1 1 srgb
1.07 setlinewidth
[] 0 setdash
1 setlinecap
1 setlinejoin
10.00 setmiterlimit
315.57 90.59 17.28 17.28 r p3
0.00 0.00 404.25 237.75 cl
0.00 0.00 404.25 237.75 cl
0 0.7490 1 srgb
1.07 setlinewidth
[ 7.47 3.20] 0 setdash
0 setlinecap
1 setlinejoin
10.00 setmiterlimit
np
317.30 99.23 m
13.83 0 l
o
0.00 0.00 404.25 237.75 cl
0.00 0.00 404.25 237.75 cl
0 0.7490 1 srgb
1.07 setlinewidth
[ 7.47 3.20] 0 setdash
0 setlinecap
1 setlinejoin
10.00 setmiterlimit
np
317.30 99.23 m
13.83 0 l
o
0.00 0.00 404.25 237.75 cl
0.00 0.00 404.25 237.75 cl
0 0.7490 1 srgb
1.07 setlinewidth
[ 7.47 3.20] 0 setdash
0 setlinecap
1 setlinejoin
10.00 setmiterlimit
np
317.30 99.23 m
13.83 0 l
o
0.00 0.00 404.25 237.75 cl
0.00 0.00 404.25 237.75 cl
0 0.7490 1 srgb
1.07 setlinewidth
[ 7.47 3.20] 0 setdash
0 setlinecap
1 setlinejoin
10.00 setmiterlimit
np
317.30 99.23 m
13.83 0 l
o
0.00 0.00 404.25 237.75 cl
0.00 0.00 404.25 237.75 cl
0 0.7490 1 srgb
1.07 setlinewidth
[ 7.47 3.20] 0 setdash
0 setlinecap
1 setlinejoin
10.00 setmiterlimit
np
317.30 99.23 m
13.83 0 l
o
0.00 0.00 404.25 237.75 cl
0.00 0.00 404.25 237.75 cl
0 0.7490 1 srgb
1.07 setlinewidth
[ 7.47 3.20] 0 setdash
0 setlinecap
1 setlinejoin
10.00 setmiterlimit
np
317.30 99.23 m
13.83 0 l
o
0.00 0.00 404.25 237.75 cl
0.00 0.00 404.25 237.75 cl
/bg { 0.9490 0.9490 0.9490 srgb } def
1 1 1 srgb
1.07 setlinewidth
[] 0 setdash
1 setlinecap
1 setlinejoin
10.00 setmiterlimit
315.57 73.31 17.28 17.28 r p3
0.00 0.00 404.25 237.75 cl
0.00 0.00 404.25 237.75 cl
0.3608 0.6745 0.9333 srgb
1.07 setlinewidth
[ 7.47 3.20] 0 setdash
0 setlinecap
1 setlinejoin
10.00 setmiterlimit
np
317.30 81.95 m
13.83 0 l
o
0.00 0.00 404.25 237.75 cl
0.00 0.00 404.25 237.75 cl
0.3608 0.6745 0.9333 srgb
1.07 setlinewidth
[ 7.47 3.20] 0 setdash
0 setlinecap
1 setlinejoin
10.00 setmiterlimit
np
317.30 81.95 m
13.83 0 l
o
0.00 0.00 404.25 237.75 cl
0.00 0.00 404.25 237.75 cl
0.3608 0.6745 0.9333 srgb
1.07 setlinewidth
[ 7.47 3.20] 0 setdash
0 setlinecap
1 setlinejoin
10.00 setmiterlimit
np
317.30 81.95 m
13.83 0 l
o
0.00 0.00 404.25 237.75 cl
0.00 0.00 404.25 237.75 cl
0.3608 0.6745 0.9333 srgb
1.07 setlinewidth
[ 7.47 3.20] 0 setdash
0 setlinecap
1 setlinejoin
10.00 setmiterlimit
np
317.30 81.95 m
13.83 0 l
o
0.00 0.00 404.25 237.75 cl
0.00 0.00 404.25 237.75 cl
0.3608 0.6745 0.9333 srgb
1.07 setlinewidth
[ 7.47 3.20] 0 setdash
0 setlinecap
1 setlinejoin
10.00 setmiterlimit
np
317.30 81.95 m
13.83 0 l
o
0.00 0.00 404.25 237.75 cl
0.00 0.00 404.25 237.75 cl
0.3608 0.6745 0.9333 srgb
1.07 setlinewidth
[ 7.47 3.20] 0 setdash
0 setlinecap
1 setlinejoin
10.00 setmiterlimit
np
317.30 81.95 m
13.83 0 l
o
0.00 0.00 404.25 237.75 cl
0.00 0.00 404.25 237.75 cl
/Font1 findfont 9 s
0 0 0 srgb
335.01 165.12 (finite) 0 0 t
0.00 0.00 404.25 237.75 cl
0.00 0.00 404.25 237.75 cl
/Font1 findfont 9 s
0 0 0 srgb
335.01 147.84 (semi-infinite) 0 0 t
0.00 0.00 404.25 237.75 cl
0.00 0.00 404.25 237.75 cl
/Font1 findfont 9 s
0 0 0 srgb
335.01 130.56 (R1) 0 0 t
0.00 0.00 404.25 237.75 cl
0.00 0.00 404.25 237.75 cl
/Font1 findfont 9 s
0 0 0 srgb
335.01 113.28 (L1) 0 0 t
0.00 0.00 404.25 237.75 cl
0.00 0.00 404.25 237.75 cl
/Font1 findfont 9 s
0 0 0 srgb
335.01 96.00 (R2) 0 0 t
0.00 0.00 404.25 237.75 cl
0.00 0.00 404.25 237.75 cl
/Font1 findfont 9 s
0 0 0 srgb
335.01 78.72 (L2) 0 0 t
0.00 0.00 404.25 237.75 cl
0.00 0.00 404.25 237.75 cl
0.00 0.00 404.25 237.75 cl
0.00 0.00 404.25 237.75 cl
0.00 0.00 404.25 237.75 cl
0.00 0.00 404.25 237.75 cl
ep
%%Trailer
%%Pages: 1
%%EOF
