%!PS-Adobe-3.0 EPSF-3.0
%%DocumentNeededResources: font Helvetica
%%+ font Helvetica-Bold
%%+ font Helvetica-Oblique
%%+ font Helvetica-BoldOblique
%%+ font Symbol
%%Title: R Graphics Output
%%Creator: R Software
%%Pages: (atend)
%%BoundingBox: 0 0 450 300
%%EndComments
%%BeginProlog
/bp  { gs sRGB gs } def
% begin .ps.prolog
/gs  { gsave } bind def
/gr  { grestore } bind def
/ep  { showpage gr gr } bind def
/m   { moveto } bind def
/l  { rlineto } bind def
/np  { newpath } bind def
/cp  { closepath } bind def
/f   { fill } bind def
/o   { stroke } bind def
/c   { newpath 0 360 arc } bind def
/r   { 4 2 roll moveto 1 copy 3 -1 roll exch 0 exch rlineto 0 rlineto -1 mul 0 exch rlineto closepath } bind def
/p1  { stroke } bind def
/p2  { gsave bg fill grestore newpath } bind def
/p3  { gsave bg fill grestore stroke } bind def
/p6  { gsave bg eofill grestore newpath } bind def
/p7  { gsave bg eofill grestore stroke } bind def
/t   { 5 -2 roll moveto gsave rotate
       1 index stringwidth pop
       mul neg 0 rmoveto show grestore } bind def
/ta  { 4 -2 roll moveto gsave rotate show } bind def
/tb  { 2 -1 roll 0 rmoveto show } bind def
/cl  { grestore gsave newpath 3 index 3 index moveto 1 index
       4 -1 roll lineto  exch 1 index lineto lineto
       closepath clip newpath } bind def
/rgb { setrgbcolor } bind def
/s   { scalefont setfont } bind def
% end   .ps.prolog
/sRGB { [ /CIEBasedABC
          << /DecodeLMN
               [ { dup 0.03928 le
                        {12.92321 div}
                        {0.055 add 1.055 div 2.4 exp }
                     ifelse
                 } bind dup dup
               ]
             /MatrixLMN [0.412457 0.212673 0.019334
                         0.357576 0.715152 0.119192
                         0.180437 0.072175 0.950301]
             /WhitePoint [0.9505 1.0 1.0890]
           >>
         ] setcolorspace } bind def
/srgb { setcolor } bind def
% begin encoding
/WinAnsiEncoding [
 /.notdef /.notdef /.notdef /.notdef /.notdef /.notdef /.notdef /.notdef
 /.notdef /.notdef /.notdef /.notdef /.notdef /.notdef /.notdef /.notdef
 /.notdef /.notdef /.notdef /.notdef /.notdef /.notdef /.notdef /.notdef
 /.notdef /.notdef /.notdef /.notdef /.notdef /.notdef /.notdef /.notdef
 /space /exclam /quotedbl /numbersign /dollar /percent /ampersand /quoteright
 /parenleft /parenright /asterisk /plus /comma /minus /period /slash
 /zero /one /two /three /four /five /six /seven
 /eight /nine /colon /semicolon /less /equal /greater /question
 /at /A /B /C /D /E /F /G
 /H /I /J /K /L /M /N /O
 /P /Q /R /S /T /U /V /W
 /X /Y /Z /bracketleft /backslash /bracketright /asciicircum /underscore
 /grave /a /b /c /d /e /f /g
 /h /i /j /k /l /m /n /o
 /p /q /r /s /t /u /v /w
 /x /y /z /braceleft /bar /braceright /asciitilde /.notdef
 /Euro /.notdef /quotesinglbase /florin /quotedblbase /ellipsis /dagger /daggerdbl
 /circumflex /perthousand /Scaron /guilsinglleft /OE /.notdef /Zcaron /.notdef
 /.notdef /quoteleft /quoteright /quotedblleft /quotedblright /bullet /endash /emdash
 /tilde /trademark /scaron /guilsinglright /oe /.notdef /zcaron /Ydieresis
 /space /exclamdown /cent /sterling /currency /yen /brokenbar /section
 /dieresis /copyright /ordfeminine /guillemotleft /logicalnot /hyphen /registered /macron
 /degree /plusminus /twosuperior /threesuperior /acute /mu /paragraph /periodcentered
 /cedilla /onesuperior /ordmasculine /guillemotright /onequarter /onehalf /threequarters /questiondown
 /Agrave /Aacute /Acircumflex /Atilde /Adieresis /Aring /AE /Ccedilla
 /Egrave /Eacute /Ecircumflex /Edieresis /Igrave /Iacute /Icircumflex /Idieresis
 /Eth /Ntilde /Ograve /Oacute /Ocircumflex /Otilde /Odieresis /multiply
 /Oslash /Ugrave /Uacute /Ucircumflex /Udieresis /Yacute /Thorn /germandbls
 /agrave /aacute /acircumflex /atilde /adieresis /aring /ae /ccedilla
 /egrave /eacute /ecircumflex /edieresis /igrave /iacute /icircumflex /idieresis
 /eth /ntilde /ograve /oacute /ocircumflex /otilde /odieresis /divide
 /oslash /ugrave /uacute /ucircumflex /udieresis /yacute /thorn /ydieresis
]
 def
% end encoding
%%IncludeResource: font Helvetica
/Helvetica findfont
dup length dict begin
  {1 index /FID ne {def} {pop pop} ifelse} forall
  /Encoding WinAnsiEncoding def
  currentdict
  end
/Font1 exch definefont pop
%%IncludeResource: font Helvetica-Bold
/Helvetica-Bold findfont
dup length dict begin
  {1 index /FID ne {def} {pop pop} ifelse} forall
  /Encoding WinAnsiEncoding def
  currentdict
  end
/Font2 exch definefont pop
%%IncludeResource: font Helvetica-Oblique
/Helvetica-Oblique findfont
dup length dict begin
  {1 index /FID ne {def} {pop pop} ifelse} forall
  /Encoding WinAnsiEncoding def
  currentdict
  end
/Font3 exch definefont pop
%%IncludeResource: font Helvetica-BoldOblique
/Helvetica-BoldOblique findfont
dup length dict begin
  {1 index /FID ne {def} {pop pop} ifelse} forall
  /Encoding WinAnsiEncoding def
  currentdict
  end
/Font4 exch definefont pop
%%IncludeResource: font Symbol
/Symbol findfont
dup length dict begin
  {1 index /FID ne {def} {pop pop} ifelse} forall
  currentdict
  end
/Font5 exch definefont pop
%%EndProlog
%%Page: 1 1
bp
/bg { 1 1 1 srgb } def
0.00 0.00 450.00 300.00 r p2
59.04 73.44 419.76 240.96 cl
59.04 73.44 419.76 240.96 cl
0.6784 0.8471 0.9020 srgb
0.75 setlinewidth
[] 0 setdash
1 setlinecap
1 setlinejoin
10.00 setmiterlimit
72.40 86.30 1.35 c p1
73.05 80.34 1.35 c p1
73.71 79.64 1.35 c p1
74.36 80.18 1.35 c p1
75.01 80.86 1.35 c p1
75.67 79.90 1.35 c p1
76.32 82.47 1.35 c p1
76.98 84.35 1.35 c p1
77.63 82.43 1.35 c p1
78.28 84.90 1.35 c p1
78.94 84.71 1.35 c p1
79.59 86.99 1.35 c p1
80.24 94.89 1.35 c p1
80.90 96.29 1.35 c p1
81.55 96.57 1.35 c p1
82.20 104.54 1.35 c p1
82.86 104.92 1.35 c p1
83.51 113.31 1.35 c p1
84.17 122.27 1.35 c p1
84.82 121.30 1.35 c p1
85.47 128.94 1.35 c p1
86.13 132.56 1.35 c p1
86.78 136.99 1.35 c p1
87.43 146.75 1.35 c p1
88.09 146.81 1.35 c p1
88.74 154.16 1.35 c p1
89.39 154.49 1.35 c p1
90.05 167.55 1.35 c p1
90.70 170.13 1.35 c p1
91.35 173.06 1.35 c p1
92.01 177.08 1.35 c p1
92.66 182.11 1.35 c p1
93.32 181.97 1.35 c p1
93.97 187.33 1.35 c p1
94.62 186.16 1.35 c p1
95.28 192.04 1.35 c p1
95.93 194.74 1.35 c p1
96.58 200.96 1.35 c p1
97.24 200.85 1.35 c p1
97.89 199.00 1.35 c p1
98.54 203.21 1.35 c p1
99.20 207.26 1.35 c p1
99.85 207.73 1.35 c p1
100.51 208.17 1.35 c p1
101.16 209.76 1.35 c p1
101.81 213.67 1.35 c p1
102.47 215.56 1.35 c p1
103.12 215.13 1.35 c p1
103.77 222.18 1.35 c p1
104.43 217.18 1.35 c p1
105.08 220.38 1.35 c p1
105.73 224.32 1.35 c p1
106.39 219.02 1.35 c p1
107.04 229.53 1.35 c p1
107.70 219.59 1.35 c p1
108.35 225.54 1.35 c p1
109.00 222.49 1.35 c p1
109.66 230.77 1.35 c p1
110.31 224.84 1.35 c p1
110.96 229.90 1.35 c p1
111.62 223.39 1.35 c p1
112.27 234.76 1.35 c p1
112.92 228.87 1.35 c p1
113.58 228.63 1.35 c p1
114.23 228.55 1.35 c p1
114.89 227.75 1.35 c p1
115.54 231.37 1.35 c p1
116.19 227.47 1.35 c p1
116.85 227.38 1.35 c p1
117.50 228.00 1.35 c p1
118.15 231.83 1.35 c p1
118.81 230.54 1.35 c p1
119.46 227.56 1.35 c p1
120.11 226.59 1.35 c p1
120.77 229.44 1.35 c p1
121.42 230.78 1.35 c p1
122.08 233.49 1.35 c p1
122.73 230.01 1.35 c p1
123.38 232.38 1.35 c p1
124.04 224.50 1.35 c p1
124.69 228.43 1.35 c p1
125.34 224.96 1.35 c p1
126.00 231.80 1.35 c p1
126.65 230.63 1.35 c p1
127.30 227.64 1.35 c p1
127.96 225.60 1.35 c p1
128.61 222.88 1.35 c p1
129.26 228.31 1.35 c p1
129.92 231.24 1.35 c p1
130.57 225.26 1.35 c p1
131.23 226.67 1.35 c p1
131.88 225.47 1.35 c p1
132.53 228.70 1.35 c p1
133.19 224.20 1.35 c p1
133.84 222.15 1.35 c p1
134.49 222.99 1.35 c p1
135.15 225.12 1.35 c p1
135.80 226.57 1.35 c p1
136.45 224.00 1.35 c p1
137.11 223.19 1.35 c p1
137.76 220.18 1.35 c p1
138.42 220.78 1.35 c p1
139.07 227.55 1.35 c p1
139.72 220.09 1.35 c p1
140.38 221.82 1.35 c p1
141.03 218.74 1.35 c p1
141.68 216.35 1.35 c p1
142.34 221.30 1.35 c p1
142.99 215.57 1.35 c p1
143.64 217.06 1.35 c p1
144.30 215.16 1.35 c p1
144.95 214.11 1.35 c p1
145.61 210.96 1.35 c p1
146.26 215.87 1.35 c p1
146.91 212.17 1.35 c p1
147.57 213.43 1.35 c p1
148.22 210.23 1.35 c p1
148.87 207.45 1.35 c p1
149.53 207.69 1.35 c p1
150.18 213.35 1.35 c p1
150.83 209.16 1.35 c p1
151.49 209.95 1.35 c p1
152.14 209.24 1.35 c p1
152.80 207.13 1.35 c p1
153.45 211.32 1.35 c p1
154.10 207.01 1.35 c p1
154.76 205.18 1.35 c p1
155.41 207.99 1.35 c p1
156.06 204.45 1.35 c p1
156.72 198.92 1.35 c p1
157.37 200.21 1.35 c p1
158.02 200.54 1.35 c p1
158.68 197.75 1.35 c p1
159.33 196.71 1.35 c p1
159.99 198.44 1.35 c p1
160.64 199.97 1.35 c p1
161.29 198.82 1.35 c p1
161.95 201.28 1.35 c p1
162.60 201.90 1.35 c p1
163.25 199.74 1.35 c p1
163.91 199.09 1.35 c p1
164.56 195.79 1.35 c p1
165.21 194.90 1.35 c p1
165.87 192.68 1.35 c p1
166.52 191.47 1.35 c p1
167.17 196.70 1.35 c p1
167.83 192.72 1.35 c p1
168.48 190.83 1.35 c p1
169.14 189.37 1.35 c p1
169.79 193.05 1.35 c p1
170.44 189.15 1.35 c p1
171.10 193.17 1.35 c p1
171.75 181.66 1.35 c p1
172.40 187.14 1.35 c p1
173.06 187.78 1.35 c p1
173.71 188.18 1.35 c p1
174.36 183.40 1.35 c p1
175.02 189.81 1.35 c p1
175.67 188.71 1.35 c p1
176.33 183.19 1.35 c p1
176.98 175.99 1.35 c p1
177.63 178.02 1.35 c p1
178.29 184.28 1.35 c p1
178.94 181.78 1.35 c p1
179.59 177.55 1.35 c p1
180.25 176.33 1.35 c p1
180.90 179.55 1.35 c p1
181.55 176.25 1.35 c p1
182.21 179.28 1.35 c p1
182.86 174.87 1.35 c p1
183.52 173.61 1.35 c p1
184.17 173.64 1.35 c p1
184.82 180.73 1.35 c p1
185.48 166.51 1.35 c p1
186.13 177.19 1.35 c p1
186.78 166.76 1.35 c p1
187.44 169.92 1.35 c p1
188.09 173.06 1.35 c p1
188.74 167.91 1.35 c p1
189.40 170.44 1.35 c p1
190.05 171.75 1.35 c p1
190.71 170.98 1.35 c p1
191.36 167.63 1.35 c p1
192.01 163.53 1.35 c p1
192.67 166.34 1.35 c p1
193.32 165.17 1.35 c p1
193.97 163.91 1.35 c p1
194.63 164.14 1.35 c p1
195.28 166.60 1.35 c p1
195.93 159.67 1.35 c p1
196.59 161.98 1.35 c p1
197.24 160.66 1.35 c p1
197.90 161.90 1.35 c p1
198.55 163.20 1.35 c p1
199.20 158.60 1.35 c p1
199.86 156.07 1.35 c p1
200.51 155.99 1.35 c p1
201.16 154.94 1.35 c p1
201.82 150.59 1.35 c p1
202.47 153.69 1.35 c p1
203.12 154.86 1.35 c p1
203.78 154.83 1.35 c p1
204.43 147.65 1.35 c p1
205.08 151.26 1.35 c p1
205.74 151.13 1.35 c p1
206.39 153.20 1.35 c p1
207.05 142.90 1.35 c p1
207.70 146.99 1.35 c p1
208.35 149.32 1.35 c p1
209.01 150.16 1.35 c p1
209.66 148.37 1.35 c p1
210.31 149.33 1.35 c p1
210.97 150.03 1.35 c p1
211.62 145.35 1.35 c p1
212.27 145.92 1.35 c p1
212.93 147.55 1.35 c p1
213.58 146.91 1.35 c p1
214.24 142.99 1.35 c p1
214.89 140.27 1.35 c p1
215.54 140.68 1.35 c p1
216.20 136.28 1.35 c p1
216.85 140.16 1.35 c p1
217.50 136.74 1.35 c p1
218.16 139.94 1.35 c p1
218.81 142.50 1.35 c p1
219.46 140.90 1.35 c p1
220.12 134.25 1.35 c p1
220.77 139.15 1.35 c p1
221.43 132.80 1.35 c p1
222.08 139.85 1.35 c p1
222.73 136.53 1.35 c p1
223.39 133.55 1.35 c p1
224.04 135.78 1.35 c p1
224.69 128.58 1.35 c p1
225.35 137.88 1.35 c p1
226.00 128.26 1.35 c p1
226.65 127.60 1.35 c p1
227.31 128.79 1.35 c p1
227.96 127.45 1.35 c p1
228.62 127.09 1.35 c p1
229.27 126.90 1.35 c p1
229.92 125.50 1.35 c p1
230.58 125.74 1.35 c p1
231.23 116.60 1.35 c p1
231.88 120.45 1.35 c p1
232.54 121.78 1.35 c p1
233.19 121.87 1.35 c p1
233.84 123.85 1.35 c p1
234.50 119.62 1.35 c p1
235.15 121.01 1.35 c p1
235.81 122.51 1.35 c p1
236.46 121.38 1.35 c p1
237.11 121.78 1.35 c p1
237.77 118.50 1.35 c p1
238.42 116.67 1.35 c p1
239.07 111.32 1.35 c p1
239.73 111.32 1.35 c p1
240.38 116.67 1.35 c p1
241.03 118.50 1.35 c p1
241.69 121.78 1.35 c p1
242.34 121.38 1.35 c p1
242.99 122.51 1.35 c p1
243.65 121.01 1.35 c p1
244.30 119.62 1.35 c p1
244.96 123.85 1.35 c p1
245.61 121.87 1.35 c p1
246.26 121.78 1.35 c p1
246.92 120.45 1.35 c p1
247.57 116.60 1.35 c p1
248.22 125.74 1.35 c p1
248.88 125.50 1.35 c p1
249.53 126.90 1.35 c p1
250.18 127.09 1.35 c p1
250.84 127.45 1.35 c p1
251.49 128.79 1.35 c p1
252.15 127.60 1.35 c p1
252.80 128.26 1.35 c p1
253.45 137.88 1.35 c p1
254.11 128.58 1.35 c p1
254.76 135.78 1.35 c p1
255.41 133.55 1.35 c p1
256.07 136.53 1.35 c p1
256.72 139.85 1.35 c p1
257.37 132.80 1.35 c p1
258.03 139.15 1.35 c p1
258.68 134.25 1.35 c p1
259.34 140.90 1.35 c p1
259.99 142.50 1.35 c p1
260.64 139.94 1.35 c p1
261.30 136.74 1.35 c p1
261.95 140.16 1.35 c p1
262.60 136.28 1.35 c p1
263.26 140.68 1.35 c p1
263.91 140.27 1.35 c p1
264.56 142.99 1.35 c p1
265.22 146.91 1.35 c p1
265.87 147.55 1.35 c p1
266.53 145.92 1.35 c p1
267.18 145.35 1.35 c p1
267.83 150.03 1.35 c p1
268.49 149.33 1.35 c p1
269.14 148.37 1.35 c p1
269.79 150.16 1.35 c p1
270.45 149.32 1.35 c p1
271.10 146.99 1.35 c p1
271.75 142.90 1.35 c p1
272.41 153.20 1.35 c p1
273.06 151.13 1.35 c p1
273.72 151.26 1.35 c p1
274.37 147.65 1.35 c p1
275.02 154.83 1.35 c p1
275.68 154.86 1.35 c p1
276.33 153.69 1.35 c p1
276.98 150.59 1.35 c p1
277.64 154.94 1.35 c p1
278.29 155.99 1.35 c p1
278.94 156.07 1.35 c p1
279.60 158.60 1.35 c p1
280.25 163.20 1.35 c p1
280.90 161.90 1.35 c p1
281.56 160.66 1.35 c p1
282.21 161.98 1.35 c p1
282.87 159.67 1.35 c p1
283.52 166.60 1.35 c p1
284.17 164.14 1.35 c p1
284.83 163.91 1.35 c p1
285.48 165.17 1.35 c p1
286.13 166.34 1.35 c p1
286.79 163.53 1.35 c p1
287.44 167.63 1.35 c p1
288.09 170.98 1.35 c p1
288.75 171.75 1.35 c p1
289.40 170.44 1.35 c p1
290.06 167.91 1.35 c p1
290.71 173.06 1.35 c p1
291.36 169.92 1.35 c p1
292.02 166.76 1.35 c p1
292.67 177.19 1.35 c p1
293.32 166.51 1.35 c p1
293.98 180.73 1.35 c p1
294.63 173.64 1.35 c p1
295.28 173.61 1.35 c p1
295.94 174.87 1.35 c p1
296.59 179.28 1.35 c p1
297.25 176.25 1.35 c p1
297.90 179.55 1.35 c p1
298.55 176.33 1.35 c p1
299.21 177.55 1.35 c p1
299.86 181.78 1.35 c p1
300.51 184.28 1.35 c p1
301.17 178.02 1.35 c p1
301.82 175.99 1.35 c p1
302.47 183.19 1.35 c p1
303.13 188.71 1.35 c p1
303.78 189.81 1.35 c p1
304.44 183.40 1.35 c p1
305.09 188.18 1.35 c p1
305.74 187.78 1.35 c p1
306.40 187.14 1.35 c p1
307.05 181.66 1.35 c p1
307.70 193.17 1.35 c p1
308.36 189.15 1.35 c p1
309.01 193.05 1.35 c p1
309.66 189.37 1.35 c p1
310.32 190.83 1.35 c p1
310.97 192.72 1.35 c p1
311.63 196.70 1.35 c p1
312.28 191.47 1.35 c p1
312.93 192.68 1.35 c p1
313.59 194.90 1.35 c p1
314.24 195.79 1.35 c p1
314.89 199.09 1.35 c p1
315.55 199.74 1.35 c p1
316.20 201.90 1.35 c p1
316.85 201.28 1.35 c p1
317.51 198.82 1.35 c p1
318.16 199.97 1.35 c p1
318.81 198.44 1.35 c p1
319.47 196.71 1.35 c p1
320.12 197.75 1.35 c p1
320.78 200.54 1.35 c p1
321.43 200.21 1.35 c p1
322.08 198.92 1.35 c p1
322.74 204.45 1.35 c p1
323.39 207.99 1.35 c p1
324.04 205.18 1.35 c p1
324.70 207.01 1.35 c p1
325.35 211.32 1.35 c p1
326.00 207.13 1.35 c p1
326.66 209.24 1.35 c p1
327.31 209.95 1.35 c p1
327.97 209.16 1.35 c p1
328.62 213.35 1.35 c p1
329.27 207.69 1.35 c p1
329.93 207.45 1.35 c p1
330.58 210.23 1.35 c p1
331.23 213.43 1.35 c p1
331.89 212.17 1.35 c p1
332.54 215.87 1.35 c p1
333.19 210.96 1.35 c p1
333.85 214.11 1.35 c p1
334.50 215.16 1.35 c p1
335.16 217.06 1.35 c p1
335.81 215.57 1.35 c p1
336.46 221.30 1.35 c p1
337.12 216.35 1.35 c p1
337.77 218.74 1.35 c p1
338.42 221.82 1.35 c p1
339.08 220.09 1.35 c p1
339.73 227.55 1.35 c p1
340.38 220.78 1.35 c p1
341.04 220.18 1.35 c p1
341.69 223.19 1.35 c p1
342.35 224.00 1.35 c p1
343.00 226.57 1.35 c p1
343.65 225.12 1.35 c p1
344.31 222.99 1.35 c p1
344.96 222.15 1.35 c p1
345.61 224.20 1.35 c p1
346.27 228.70 1.35 c p1
346.92 225.47 1.35 c p1
347.57 226.67 1.35 c p1
348.23 225.26 1.35 c p1
348.88 231.24 1.35 c p1
349.54 228.31 1.35 c p1
350.19 222.88 1.35 c p1
350.84 225.60 1.35 c p1
351.50 227.64 1.35 c p1
352.15 230.63 1.35 c p1
352.80 231.80 1.35 c p1
353.46 224.96 1.35 c p1
354.11 228.43 1.35 c p1
354.76 224.50 1.35 c p1
355.42 232.38 1.35 c p1
356.07 230.01 1.35 c p1
356.72 233.49 1.35 c p1
357.38 230.78 1.35 c p1
358.03 229.44 1.35 c p1
358.69 226.59 1.35 c p1
359.34 227.56 1.35 c p1
359.99 230.54 1.35 c p1
360.65 231.83 1.35 c p1
361.30 228.00 1.35 c p1
361.95 227.38 1.35 c p1
362.61 227.47 1.35 c p1
363.26 231.37 1.35 c p1
363.91 227.75 1.35 c p1
364.57 228.55 1.35 c p1
365.22 228.63 1.35 c p1
365.88 228.87 1.35 c p1
366.53 234.76 1.35 c p1
367.18 223.39 1.35 c p1
367.84 229.90 1.35 c p1
368.49 224.84 1.35 c p1
369.14 230.77 1.35 c p1
369.80 222.49 1.35 c p1
370.45 225.54 1.35 c p1
371.10 219.59 1.35 c p1
371.76 229.53 1.35 c p1
372.41 219.02 1.35 c p1
373.07 224.32 1.35 c p1
373.72 220.38 1.35 c p1
374.37 217.18 1.35 c p1
375.03 222.18 1.35 c p1
375.68 215.13 1.35 c p1
376.33 215.56 1.35 c p1
376.99 213.67 1.35 c p1
377.64 209.76 1.35 c p1
378.29 208.17 1.35 c p1
378.95 207.73 1.35 c p1
379.60 207.26 1.35 c p1
380.26 203.21 1.35 c p1
380.91 199.00 1.35 c p1
381.56 200.85 1.35 c p1
382.22 200.96 1.35 c p1
382.87 194.74 1.35 c p1
383.52 192.04 1.35 c p1
384.18 186.16 1.35 c p1
384.83 187.33 1.35 c p1
385.48 181.97 1.35 c p1
386.14 182.11 1.35 c p1
386.79 177.08 1.35 c p1
387.45 173.06 1.35 c p1
388.10 170.13 1.35 c p1
388.75 167.55 1.35 c p1
389.41 154.49 1.35 c p1
390.06 154.16 1.35 c p1
390.71 146.81 1.35 c p1
391.37 146.75 1.35 c p1
392.02 136.99 1.35 c p1
392.67 132.56 1.35 c p1
393.33 128.94 1.35 c p1
393.98 121.30 1.35 c p1
394.63 122.27 1.35 c p1
395.29 113.31 1.35 c p1
395.94 104.92 1.35 c p1
396.60 104.54 1.35 c p1
397.25 96.57 1.35 c p1
397.90 96.29 1.35 c p1
398.56 94.89 1.35 c p1
399.21 86.99 1.35 c p1
399.86 84.71 1.35 c p1
400.52 84.90 1.35 c p1
401.17 82.43 1.35 c p1
401.82 84.35 1.35 c p1
402.48 82.47 1.35 c p1
403.13 79.90 1.35 c p1
403.79 80.86 1.35 c p1
404.44 80.18 1.35 c p1
405.09 79.64 1.35 c p1
405.75 80.34 1.35 c p1
406.40 86.30 1.35 c p1
0.00 0.00 450.00 300.00 cl
0 0 0 srgb
0.75 setlinewidth
[] 0 setdash
1 setlinecap
1 setlinejoin
10.00 setmiterlimit
np
71.75 73.44 m
326.81 0 l
o
np
71.75 73.44 m
0 -7.20 l
o
np
137.11 73.44 m
0 -7.20 l
o
np
202.47 73.44 m
0 -7.20 l
o
np
267.83 73.44 m
0 -7.20 l
o
np
333.19 73.44 m
0 -7.20 l
o
np
398.56 73.44 m
0 -7.20 l
o
/Font1 findfont 12 s
71.75 47.52 (0) .5 0 t
137.11 47.52 (100) .5 0 t
202.47 47.52 (200) .5 0 t
267.83 47.52 (300) .5 0 t
333.19 47.52 (400) .5 0 t
398.56 47.52 (500) .5 0 t
np
59.04 85.82 m
0 140.09 l
o
np
59.04 85.82 m
-7.20 0 l
o
np
59.04 113.84 m
-7.20 0 l
o
np
59.04 141.86 m
-7.20 0 l
o
np
59.04 169.88 m
-7.20 0 l
o
np
59.04 197.89 m
-7.20 0 l
o
np
59.04 225.91 m
-7.20 0 l
o
41.76 85.82 (-2.0) .5 90 t
41.76 141.86 (-1.6) .5 90 t
41.76 197.89 (-1.2) .5 90 t
np
59.04 73.44 m
360.72 0 l
0 167.52 l
-360.72 0 l
0 -167.52 l
o
0.00 0.00 450.00 300.00 cl
/Font1 findfont 12 s
0 0 0 srgb
238.07 18.72 (i) 0 0 t
10.76 152.31 (E) 0 90 t
/Font1 findfont 8 s
12.96 160.31 (i) 0 90 t
59.04 73.44 419.76 240.96 cl
0 1 0 srgb
0.75 setlinewidth
[ 2.25 3.75] 0 setdash
1 setlinecap
1 setlinejoin
10.00 setmiterlimit
np
71.75 73.44 m
0 167.52 l
o
np
155.41 73.44 m
0 167.52 l
o
np
239.07 73.44 m
0 167.52 l
o
np
406.40 73.44 m
0 167.52 l
o
1 0.8431 0 srgb
0.75 setlinewidth
[] 0 setdash
np
70.49 86.30 m
3.82 0 l
o
np
72.40 84.39 m
0 3.82 l
o
np
71.14 80.34 m
3.82 0 l
o
np
73.05 78.44 m
0 3.81 l
o
np
71.80 79.64 m
3.82 0 l
o
np
73.71 77.74 m
0 3.81 l
o
np
72.45 80.18 m
3.82 0 l
o
np
74.36 78.27 m
0 3.82 l
o
np
73.11 80.86 m
3.81 0 l
o
np
75.01 78.96 m
0 3.81 l
o
np
73.76 79.90 m
3.82 0 l
o
np
75.67 77.99 m
0 3.82 l
o
np
74.41 82.47 m
3.82 0 l
o
np
76.32 80.56 m
0 3.82 l
o
np
75.07 84.35 m
3.81 0 l
o
np
76.98 82.44 m
0 3.82 l
o
np
75.72 82.43 m
3.82 0 l
o
np
77.63 80.52 m
0 3.82 l
o
np
76.37 84.90 m
3.82 0 l
o
np
78.28 82.99 m
0 3.82 l
o
np
77.03 84.71 m
3.82 0 l
o
np
78.94 82.80 m
0 3.81 l
o
np
77.68 86.99 m
3.82 0 l
o
np
79.59 85.08 m
0 3.82 l
o
np
78.33 94.89 m
3.82 0 l
o
np
80.24 92.98 m
0 3.82 l
o
np
78.99 96.29 m
3.82 0 l
o
np
80.90 94.39 m
0 3.81 l
o
np
79.64 96.57 m
3.82 0 l
o
np
81.55 94.67 m
0 3.81 l
o
np
80.30 104.54 m
3.81 0 l
o
np
82.20 102.63 m
0 3.82 l
o
np
80.95 104.92 m
3.82 0 l
o
np
82.86 103.02 m
0 3.81 l
o
np
81.60 113.31 m
3.82 0 l
o
np
83.51 111.40 m
0 3.82 l
o
np
82.26 122.27 m
3.81 0 l
o
np
84.17 120.36 m
0 3.82 l
o
np
82.91 121.30 m
3.82 0 l
o
np
84.82 119.39 m
0 3.82 l
o
np
83.56 128.94 m
3.82 0 l
o
np
85.47 127.03 m
0 3.82 l
o
np
84.22 132.56 m
3.82 0 l
o
np
86.13 130.65 m
0 3.82 l
o
np
84.87 136.99 m
3.82 0 l
o
np
86.78 135.08 m
0 3.82 l
o
np
85.52 146.75 m
3.82 0 l
o
np
87.43 144.84 m
0 3.82 l
o
np
86.18 146.81 m
3.82 0 l
o
np
88.09 144.90 m
0 3.81 l
o
np
86.83 154.16 m
3.82 0 l
o
np
88.74 152.25 m
0 3.82 l
o
np
87.48 154.49 m
3.82 0 l
o
np
89.39 152.58 m
0 3.82 l
o
np
88.14 167.55 m
3.82 0 l
o
np
90.05 165.64 m
0 3.82 l
o
np
88.79 170.13 m
3.82 0 l
o
np
90.70 168.22 m
0 3.81 l
o
np
89.45 173.06 m
3.81 0 l
o
np
91.35 171.15 m
0 3.82 l
o
np
90.10 177.08 m
3.82 0 l
o
np
92.01 175.17 m
0 3.82 l
o
np
90.75 182.11 m
3.82 0 l
o
np
92.66 180.20 m
0 3.82 l
o
np
91.41 181.97 m
3.82 0 l
o
np
93.32 180.06 m
0 3.82 l
o
np
92.06 187.33 m
3.82 0 l
o
np
93.97 185.42 m
0 3.82 l
o
np
92.71 186.16 m
3.82 0 l
o
np
94.62 184.25 m
0 3.82 l
o
np
93.37 192.04 m
3.82 0 l
o
np
95.28 190.13 m
0 3.82 l
o
np
94.02 194.74 m
3.82 0 l
o
np
95.93 192.83 m
0 3.82 l
o
np
94.67 200.96 m
3.82 0 l
o
np
96.58 199.05 m
0 3.82 l
o
np
95.33 200.85 m
3.82 0 l
o
np
97.24 198.94 m
0 3.81 l
o
np
95.98 199.00 m
3.82 0 l
o
np
97.89 197.09 m
0 3.82 l
o
np
96.64 203.21 m
3.81 0 l
o
np
98.54 201.30 m
0 3.82 l
o
np
97.29 207.26 m
3.82 0 l
o
np
99.20 205.35 m
0 3.82 l
o
np
97.94 207.73 m
3.82 0 l
o
np
99.85 205.82 m
0 3.82 l
o
np
98.60 208.17 m
3.81 0 l
o
np
100.51 206.26 m
0 3.82 l
o
np
99.25 209.76 m
3.82 0 l
o
np
101.16 207.85 m
0 3.82 l
o
np
99.90 213.67 m
3.82 0 l
o
np
101.81 211.76 m
0 3.82 l
o
np
100.56 215.56 m
3.82 0 l
o
np
102.47 213.65 m
0 3.82 l
o
np
101.21 215.13 m
3.82 0 l
o
np
103.12 213.22 m
0 3.82 l
o
np
101.86 222.18 m
3.82 0 l
o
np
103.77 220.27 m
0 3.82 l
o
np
102.52 217.18 m
3.82 0 l
o
np
104.43 215.27 m
0 3.82 l
o
np
103.17 220.38 m
3.82 0 l
o
np
105.08 218.47 m
0 3.82 l
o
np
103.83 224.32 m
3.81 0 l
o
np
105.73 222.41 m
0 3.82 l
o
np
104.48 219.02 m
3.82 0 l
o
np
106.39 217.11 m
0 3.82 l
o
np
105.13 229.53 m
3.82 0 l
o
np
107.04 227.62 m
0 3.82 l
o
np
105.79 219.59 m
3.81 0 l
o
np
107.70 217.68 m
0 3.82 l
o
np
106.44 225.54 m
3.82 0 l
o
np
108.35 223.63 m
0 3.82 l
o
np
107.09 222.49 m
3.82 0 l
o
np
109.00 220.58 m
0 3.82 l
o
np
107.75 230.77 m
3.82 0 l
o
np
109.66 228.86 m
0 3.82 l
o
np
108.40 224.84 m
3.82 0 l
o
np
110.31 222.93 m
0 3.82 l
o
np
109.05 229.90 m
3.82 0 l
o
np
110.96 227.99 m
0 3.82 l
o
np
109.71 223.39 m
3.82 0 l
o
np
111.62 221.48 m
0 3.82 l
o
np
110.36 234.76 m
3.82 0 l
o
np
112.27 232.85 m
0 3.81 l
o
np
111.02 228.87 m
3.81 0 l
o
np
112.92 226.96 m
0 3.82 l
o
np
111.67 228.63 m
3.82 0 l
o
np
113.58 226.72 m
0 3.82 l
o
np
112.32 228.55 m
3.82 0 l
o
np
114.23 226.64 m
0 3.82 l
o
np
112.98 227.75 m
3.81 0 l
o
np
114.89 225.84 m
0 3.82 l
o
np
113.63 231.37 m
3.82 0 l
o
np
115.54 229.46 m
0 3.82 l
o
np
114.28 227.47 m
3.82 0 l
o
np
116.19 225.56 m
0 3.82 l
o
np
114.94 227.38 m
3.82 0 l
o
np
116.85 225.47 m
0 3.82 l
o
np
115.59 228.00 m
3.82 0 l
o
np
117.50 226.09 m
0 3.82 l
o
np
116.24 231.83 m
3.82 0 l
o
np
118.15 229.92 m
0 3.82 l
o
np
116.90 230.54 m
3.82 0 l
o
np
118.81 228.63 m
0 3.82 l
o
np
117.55 227.56 m
3.82 0 l
o
np
119.46 225.65 m
0 3.82 l
o
np
118.21 226.59 m
3.81 0 l
o
np
120.11 224.68 m
0 3.81 l
o
np
118.86 229.44 m
3.82 0 l
o
np
120.77 227.54 m
0 3.81 l
o
np
119.51 230.78 m
3.82 0 l
o
np
121.42 228.88 m
0 3.81 l
o
np
120.17 233.49 m
3.81 0 l
o
np
122.08 231.58 m
0 3.82 l
o
np
120.82 230.01 m
3.82 0 l
o
np
122.73 228.10 m
0 3.82 l
o
np
121.47 232.38 m
3.82 0 l
o
np
123.38 230.47 m
0 3.82 l
o
np
122.13 224.50 m
3.82 0 l
o
np
124.04 222.59 m
0 3.82 l
o
np
122.78 228.43 m
3.82 0 l
o
np
124.69 226.52 m
0 3.82 l
o
np
123.43 224.96 m
3.82 0 l
o
np
125.34 223.06 m
0 3.81 l
o
np
124.09 231.80 m
3.82 0 l
o
np
126.00 229.89 m
0 3.82 l
o
np
124.74 230.63 m
3.82 0 l
o
np
126.65 228.72 m
0 3.82 l
o
np
125.39 227.64 m
3.82 0 l
o
np
127.30 225.73 m
0 3.82 l
o
np
126.05 225.60 m
3.82 0 l
o
np
127.96 223.69 m
0 3.82 l
o
np
126.70 222.88 m
3.82 0 l
o
np
128.61 220.97 m
0 3.82 l
o
np
127.36 228.31 m
3.81 0 l
o
np
129.26 226.41 m
0 3.81 l
o
np
128.01 231.24 m
3.82 0 l
o
np
129.92 229.33 m
0 3.82 l
o
np
128.66 225.26 m
3.82 0 l
o
np
130.57 223.35 m
0 3.82 l
o
np
129.32 226.67 m
3.82 0 l
o
np
131.23 224.76 m
0 3.82 l
o
np
129.97 225.47 m
3.82 0 l
o
np
131.88 223.56 m
0 3.82 l
o
np
130.62 228.70 m
3.82 0 l
o
np
132.53 226.79 m
0 3.82 l
o
np
131.28 224.20 m
3.82 0 l
o
np
133.19 222.29 m
0 3.81 l
o
np
131.93 222.15 m
3.82 0 l
o
np
133.84 220.24 m
0 3.82 l
o
np
132.58 222.99 m
3.82 0 l
o
np
134.49 221.08 m
0 3.81 l
o
np
133.24 225.12 m
3.82 0 l
o
np
135.15 223.21 m
0 3.82 l
o
np
133.89 226.57 m
3.82 0 l
o
np
135.80 224.66 m
0 3.82 l
o
np
134.55 224.00 m
3.81 0 l
o
np
136.45 222.09 m
0 3.82 l
o
np
135.20 223.19 m
3.82 0 l
o
np
137.11 221.28 m
0 3.82 l
o
np
135.85 220.18 m
3.82 0 l
o
np
137.76 218.27 m
0 3.82 l
o
np
136.51 220.78 m
3.81 0 l
o
np
138.42 218.87 m
0 3.82 l
o
np
137.16 227.55 m
3.82 0 l
o
np
139.07 225.64 m
0 3.82 l
o
np
137.81 220.09 m
3.82 0 l
o
np
139.72 218.18 m
0 3.82 l
o
np
138.47 221.82 m
3.82 0 l
o
np
140.38 219.91 m
0 3.82 l
o
np
139.12 218.74 m
3.82 0 l
o
np
141.03 216.83 m
0 3.82 l
o
np
139.77 216.35 m
3.82 0 l
o
np
141.68 214.44 m
0 3.82 l
o
np
140.43 221.30 m
3.82 0 l
o
np
142.34 219.39 m
0 3.82 l
o
np
141.08 215.57 m
3.82 0 l
o
np
142.99 213.66 m
0 3.82 l
o
np
141.74 217.06 m
3.81 0 l
o
np
143.64 215.15 m
0 3.82 l
o
np
142.39 215.16 m
3.82 0 l
o
np
144.30 213.25 m
0 3.82 l
o
np
143.04 214.11 m
3.82 0 l
o
np
144.95 212.20 m
0 3.82 l
o
np
143.70 210.96 m
3.81 0 l
o
np
145.61 209.06 m
0 3.81 l
o
np
144.35 215.87 m
3.82 0 l
o
np
146.26 213.96 m
0 3.82 l
o
np
145.00 212.17 m
3.82 0 l
o
np
146.91 210.27 m
0 3.81 l
o
np
145.66 213.43 m
3.82 0 l
o
np
147.57 211.52 m
0 3.82 l
o
np
146.31 210.23 m
3.82 0 l
o
np
148.22 208.32 m
0 3.82 l
o
np
146.96 207.45 m
3.82 0 l
o
np
148.87 205.55 m
0 3.81 l
o
np
147.62 207.69 m
3.82 0 l
o
np
149.53 205.78 m
0 3.82 l
o
np
148.27 213.35 m
3.82 0 l
o
np
150.18 211.44 m
0 3.82 l
o
np
148.93 209.16 m
3.81 0 l
o
np
150.83 207.25 m
0 3.82 l
o
np
149.58 209.95 m
3.82 0 l
o
np
151.49 208.04 m
0 3.82 l
o
np
150.23 209.24 m
3.82 0 l
o
np
152.14 207.33 m
0 3.82 l
o
np
150.89 207.13 m
3.81 0 l
o
np
152.80 205.22 m
0 3.82 l
o
np
151.54 211.32 m
3.82 0 l
o
np
153.45 209.41 m
0 3.82 l
o
np
152.19 207.01 m
3.82 0 l
o
np
154.10 205.10 m
0 3.82 l
o
np
152.85 205.18 m
3.82 0 l
o
np
154.76 203.27 m
0 3.82 l
o
np
153.50 207.99 m
3.82 0 l
o
np
155.41 206.08 m
0 3.82 l
o
np
154.15 207.99 m
3.82 0 l
o
np
156.06 206.08 m
0 3.82 l
o
np
154.81 205.18 m
3.82 0 l
o
np
156.72 203.27 m
0 3.82 l
o
np
155.46 207.01 m
3.82 0 l
o
np
157.37 205.10 m
0 3.82 l
o
np
156.12 211.32 m
3.81 0 l
o
np
158.02 209.41 m
0 3.82 l
o
np
156.77 207.13 m
3.82 0 l
o
np
158.68 205.22 m
0 3.82 l
o
np
157.42 209.24 m
3.82 0 l
o
np
159.33 207.33 m
0 3.82 l
o
np
158.08 209.95 m
3.81 0 l
o
np
159.99 208.04 m
0 3.82 l
o
np
158.73 209.16 m
3.82 0 l
o
np
160.64 207.25 m
0 3.82 l
o
np
159.38 213.35 m
3.82 0 l
o
np
161.29 211.44 m
0 3.82 l
o
np
160.04 207.69 m
3.82 0 l
o
np
161.95 205.78 m
0 3.82 l
o
np
160.69 207.45 m
3.82 0 l
o
np
162.60 205.55 m
0 3.81 l
o
np
161.34 210.23 m
3.82 0 l
o
np
163.25 208.32 m
0 3.82 l
o
np
162.00 213.43 m
3.82 0 l
o
np
163.91 211.52 m
0 3.82 l
o
np
162.65 212.17 m
3.82 0 l
o
np
164.56 210.27 m
0 3.81 l
o
np
163.30 215.87 m
3.82 0 l
o
np
165.21 213.96 m
0 3.82 l
o
np
163.96 210.96 m
3.82 0 l
o
np
165.87 209.06 m
0 3.81 l
o
np
164.61 214.11 m
3.82 0 l
o
np
166.52 212.20 m
0 3.82 l
o
np
165.27 215.16 m
3.81 0 l
o
np
167.17 213.25 m
0 3.82 l
o
np
165.92 217.06 m
3.82 0 l
o
np
167.83 215.15 m
0 3.82 l
o
np
166.57 215.57 m
3.82 0 l
o
np
168.48 213.66 m
0 3.82 l
o
np
167.23 221.30 m
3.82 0 l
o
np
169.14 219.39 m
0 3.82 l
o
np
167.88 216.35 m
3.82 0 l
o
np
169.79 214.44 m
0 3.82 l
o
np
168.53 218.74 m
3.82 0 l
o
np
170.44 216.83 m
0 3.82 l
o
np
169.19 221.82 m
3.82 0 l
o
np
171.10 219.91 m
0 3.82 l
o
np
169.84 220.09 m
3.82 0 l
o
np
171.75 218.18 m
0 3.82 l
o
np
170.49 227.55 m
3.82 0 l
o
np
172.40 225.64 m
0 3.82 l
o
np
171.15 220.78 m
3.82 0 l
o
np
173.06 218.87 m
0 3.82 l
o
np
171.80 220.18 m
3.82 0 l
o
np
173.71 218.27 m
0 3.82 l
o
np
172.46 223.19 m
3.81 0 l
o
np
174.36 221.28 m
0 3.82 l
o
np
173.11 224.00 m
3.82 0 l
o
np
175.02 222.09 m
0 3.82 l
o
np
173.76 226.57 m
3.82 0 l
o
np
175.67 224.66 m
0 3.82 l
o
np
174.42 225.12 m
3.81 0 l
o
np
176.33 223.21 m
0 3.82 l
o
np
175.07 222.99 m
3.82 0 l
o
np
176.98 221.08 m
0 3.81 l
o
np
175.72 222.15 m
3.82 0 l
o
np
177.63 220.24 m
0 3.82 l
o
np
176.38 224.20 m
3.82 0 l
o
np
178.29 222.29 m
0 3.81 l
o
np
177.03 228.70 m
3.82 0 l
o
np
178.94 226.79 m
0 3.82 l
o
np
177.68 225.47 m
3.82 0 l
o
np
179.59 223.56 m
0 3.82 l
o
np
178.34 226.67 m
3.82 0 l
o
np
180.25 224.76 m
0 3.82 l
o
np
178.99 225.26 m
3.82 0 l
o
np
180.90 223.35 m
0 3.82 l
o
np
179.65 231.24 m
3.81 0 l
o
np
181.55 229.33 m
0 3.82 l
o
np
180.30 228.31 m
3.82 0 l
o
np
182.21 226.41 m
0 3.81 l
o
np
180.95 222.88 m
3.82 0 l
o
np
182.86 220.97 m
0 3.82 l
o
np
181.61 225.60 m
3.81 0 l
o
np
183.52 223.69 m
0 3.82 l
o
np
182.26 227.64 m
3.82 0 l
o
np
184.17 225.73 m
0 3.82 l
o
np
182.91 230.63 m
3.82 0 l
o
np
184.82 228.72 m
0 3.82 l
o
np
183.57 231.80 m
3.82 0 l
o
np
185.48 229.89 m
0 3.82 l
o
np
184.22 224.96 m
3.82 0 l
o
np
186.13 223.06 m
0 3.81 l
o
np
184.87 228.43 m
3.82 0 l
o
np
186.78 226.52 m
0 3.82 l
o
np
185.53 224.50 m
3.82 0 l
o
np
187.44 222.59 m
0 3.82 l
o
np
186.18 232.38 m
3.82 0 l
o
np
188.09 230.47 m
0 3.82 l
o
np
186.84 230.01 m
3.81 0 l
o
np
188.74 228.10 m
0 3.82 l
o
np
187.49 233.49 m
3.82 0 l
o
np
189.40 231.58 m
0 3.82 l
o
np
188.14 230.78 m
3.82 0 l
o
np
190.05 228.88 m
0 3.81 l
o
np
188.80 229.44 m
3.81 0 l
o
np
190.71 227.54 m
0 3.81 l
o
np
189.45 226.59 m
3.82 0 l
o
np
191.36 224.68 m
0 3.81 l
o
np
190.10 227.56 m
3.82 0 l
o
np
192.01 225.65 m
0 3.82 l
o
np
190.76 230.54 m
3.82 0 l
o
np
192.67 228.63 m
0 3.82 l
o
np
191.41 231.83 m
3.82 0 l
o
np
193.32 229.92 m
0 3.82 l
o
np
192.06 228.00 m
3.82 0 l
o
np
193.97 226.09 m
0 3.82 l
o
np
192.72 227.38 m
3.82 0 l
o
np
194.63 225.47 m
0 3.82 l
o
np
193.37 227.47 m
3.82 0 l
o
np
195.28 225.56 m
0 3.82 l
o
np
194.03 231.37 m
3.81 0 l
o
np
195.93 229.46 m
0 3.82 l
o
np
194.68 227.75 m
3.82 0 l
o
np
196.59 225.84 m
0 3.82 l
o
np
195.33 228.55 m
3.82 0 l
o
np
197.24 226.64 m
0 3.82 l
o
np
195.99 228.63 m
3.81 0 l
o
np
197.90 226.72 m
0 3.82 l
o
np
196.64 228.87 m
3.82 0 l
o
np
198.55 226.96 m
0 3.82 l
o
np
197.29 234.76 m
3.82 0 l
o
np
199.20 232.85 m
0 3.81 l
o
np
197.95 223.39 m
3.82 0 l
o
np
199.86 221.48 m
0 3.82 l
o
np
198.60 229.90 m
3.82 0 l
o
np
200.51 227.99 m
0 3.82 l
o
np
199.25 224.84 m
3.82 0 l
o
np
201.16 222.93 m
0 3.82 l
o
np
199.91 230.77 m
3.82 0 l
o
np
201.82 228.86 m
0 3.82 l
o
np
200.56 222.49 m
3.82 0 l
o
np
202.47 220.58 m
0 3.82 l
o
np
201.21 225.54 m
3.82 0 l
o
np
203.12 223.63 m
0 3.82 l
o
np
201.87 219.59 m
3.82 0 l
o
np
203.78 217.68 m
0 3.82 l
o
np
202.52 229.53 m
3.82 0 l
o
np
204.43 227.62 m
0 3.82 l
o
np
203.18 219.02 m
3.81 0 l
o
np
205.08 217.11 m
0 3.82 l
o
np
203.83 224.32 m
3.82 0 l
o
np
205.74 222.41 m
0 3.82 l
o
np
204.48 220.38 m
3.82 0 l
o
np
206.39 218.47 m
0 3.82 l
o
np
205.14 217.18 m
3.81 0 l
o
np
207.05 215.27 m
0 3.82 l
o
np
205.79 222.18 m
3.82 0 l
o
np
207.70 220.27 m
0 3.82 l
o
np
206.44 215.13 m
3.82 0 l
o
np
208.35 213.22 m
0 3.82 l
o
np
207.10 215.56 m
3.82 0 l
o
np
209.01 213.65 m
0 3.82 l
o
np
207.75 213.67 m
3.82 0 l
o
np
209.66 211.76 m
0 3.82 l
o
np
208.40 209.76 m
3.82 0 l
o
np
210.31 207.85 m
0 3.82 l
o
np
209.06 208.17 m
3.82 0 l
o
np
210.97 206.26 m
0 3.82 l
o
np
209.71 207.73 m
3.82 0 l
o
np
211.62 205.82 m
0 3.82 l
o
np
210.37 207.26 m
3.81 0 l
o
np
212.27 205.35 m
0 3.82 l
o
np
211.02 203.21 m
3.82 0 l
o
np
212.93 201.30 m
0 3.82 l
o
np
211.67 199.00 m
3.82 0 l
o
np
213.58 197.09 m
0 3.82 l
o
np
212.33 200.85 m
3.81 0 l
o
np
214.24 198.94 m
0 3.81 l
o
np
212.98 200.96 m
3.82 0 l
o
np
214.89 199.05 m
0 3.82 l
o
np
213.63 194.74 m
3.82 0 l
o
np
215.54 192.83 m
0 3.82 l
o
np
214.29 192.04 m
3.82 0 l
o
np
216.20 190.13 m
0 3.82 l
o
np
214.94 186.16 m
3.82 0 l
o
np
216.85 184.25 m
0 3.82 l
o
np
215.59 187.33 m
3.82 0 l
o
np
217.50 185.42 m
0 3.82 l
o
np
216.25 181.97 m
3.82 0 l
o
np
218.16 180.06 m
0 3.82 l
o
np
216.90 182.11 m
3.82 0 l
o
np
218.81 180.20 m
0 3.82 l
o
np
217.56 177.08 m
3.81 0 l
o
np
219.46 175.17 m
0 3.82 l
o
np
218.21 173.06 m
3.82 0 l
o
np
220.12 171.15 m
0 3.82 l
o
np
218.86 170.13 m
3.82 0 l
o
np
220.77 168.22 m
0 3.81 l
o
np
219.52 167.55 m
3.81 0 l
o
np
221.43 165.64 m
0 3.82 l
o
np
220.17 154.49 m
3.82 0 l
o
np
222.08 152.58 m
0 3.82 l
o
np
220.82 154.16 m
3.82 0 l
o
np
222.73 152.25 m
0 3.82 l
o
np
221.48 146.81 m
3.82 0 l
o
np
223.39 144.90 m
0 3.81 l
o
np
222.13 146.75 m
3.82 0 l
o
np
224.04 144.84 m
0 3.82 l
o
np
222.78 136.99 m
3.82 0 l
o
np
224.69 135.08 m
0 3.82 l
o
np
223.44 132.56 m
3.82 0 l
o
np
225.35 130.65 m
0 3.82 l
o
np
224.09 128.94 m
3.82 0 l
o
np
226.00 127.03 m
0 3.82 l
o
np
224.75 121.30 m
3.81 0 l
o
np
226.65 119.39 m
0 3.82 l
o
np
225.40 122.27 m
3.82 0 l
o
np
227.31 120.36 m
0 3.82 l
o
np
226.05 113.31 m
3.82 0 l
o
np
227.96 111.40 m
0 3.82 l
o
np
226.71 104.92 m
3.81 0 l
o
np
228.62 103.02 m
0 3.81 l
o
np
227.36 104.54 m
3.82 0 l
o
np
229.27 102.63 m
0 3.82 l
o
np
228.01 96.57 m
3.82 0 l
o
np
229.92 94.67 m
0 3.81 l
o
np
228.67 96.29 m
3.82 0 l
o
np
230.58 94.39 m
0 3.81 l
o
np
229.32 94.89 m
3.82 0 l
o
np
231.23 92.98 m
0 3.82 l
o
np
229.97 86.99 m
3.82 0 l
o
np
231.88 85.08 m
0 3.82 l
o
np
230.63 84.71 m
3.82 0 l
o
np
232.54 82.80 m
0 3.81 l
o
np
231.28 84.90 m
3.82 0 l
o
np
233.19 82.99 m
0 3.82 l
o
np
231.94 82.43 m
3.81 0 l
o
np
233.84 80.52 m
0 3.82 l
o
np
232.59 84.35 m
3.82 0 l
o
np
234.50 82.44 m
0 3.82 l
o
np
233.24 82.47 m
3.82 0 l
o
np
235.15 80.56 m
0 3.82 l
o
np
233.90 79.90 m
3.81 0 l
o
np
235.81 77.99 m
0 3.82 l
o
np
234.55 80.86 m
3.82 0 l
o
np
236.46 78.96 m
0 3.81 l
o
np
235.20 80.18 m
3.82 0 l
o
np
237.11 78.27 m
0 3.82 l
o
np
235.86 79.64 m
3.82 0 l
o
np
237.77 77.74 m
0 3.81 l
o
np
236.51 80.34 m
3.82 0 l
o
np
238.42 78.44 m
0 3.81 l
o
np
237.16 86.30 m
3.82 0 l
o
np
239.07 84.39 m
0 3.82 l
o
0.6784 0.8471 0.9020 srgb
72.40 86.30 1.35 c p1
73.05 80.34 1.35 c p1
73.71 79.64 1.35 c p1
74.36 80.18 1.35 c p1
75.01 80.86 1.35 c p1
75.67 79.90 1.35 c p1
76.32 82.47 1.35 c p1
76.98 84.35 1.35 c p1
77.63 82.43 1.35 c p1
78.28 84.90 1.35 c p1
78.94 84.71 1.35 c p1
79.59 86.99 1.35 c p1
80.24 94.89 1.35 c p1
80.90 96.29 1.35 c p1
81.55 96.57 1.35 c p1
82.20 104.54 1.35 c p1
82.86 104.92 1.35 c p1
83.51 113.31 1.35 c p1
84.17 122.27 1.35 c p1
84.82 121.30 1.35 c p1
85.47 128.94 1.35 c p1
86.13 132.56 1.35 c p1
86.78 136.99 1.35 c p1
87.43 146.75 1.35 c p1
88.09 146.81 1.35 c p1
88.74 154.16 1.35 c p1
89.39 154.49 1.35 c p1
90.05 167.55 1.35 c p1
90.70 170.13 1.35 c p1
91.35 173.06 1.35 c p1
92.01 177.08 1.35 c p1
92.66 182.11 1.35 c p1
93.32 181.97 1.35 c p1
93.97 187.33 1.35 c p1
94.62 186.16 1.35 c p1
95.28 192.04 1.35 c p1
95.93 194.74 1.35 c p1
96.58 200.96 1.35 c p1
97.24 200.85 1.35 c p1
97.89 199.00 1.35 c p1
98.54 203.21 1.35 c p1
99.20 207.26 1.35 c p1
99.85 207.73 1.35 c p1
100.51 208.17 1.35 c p1
101.16 209.76 1.35 c p1
101.81 213.67 1.35 c p1
102.47 215.56 1.35 c p1
103.12 215.13 1.35 c p1
103.77 222.18 1.35 c p1
104.43 217.18 1.35 c p1
105.08 220.38 1.35 c p1
105.73 224.32 1.35 c p1
106.39 219.02 1.35 c p1
107.04 229.53 1.35 c p1
107.70 219.59 1.35 c p1
108.35 225.54 1.35 c p1
109.00 222.49 1.35 c p1
109.66 230.77 1.35 c p1
110.31 224.84 1.35 c p1
110.96 229.90 1.35 c p1
111.62 223.39 1.35 c p1
112.27 234.76 1.35 c p1
112.92 228.87 1.35 c p1
113.58 228.63 1.35 c p1
114.23 228.55 1.35 c p1
114.89 227.75 1.35 c p1
115.54 231.37 1.35 c p1
116.19 227.47 1.35 c p1
116.85 227.38 1.35 c p1
117.50 228.00 1.35 c p1
118.15 231.83 1.35 c p1
118.81 230.54 1.35 c p1
119.46 227.56 1.35 c p1
120.11 226.59 1.35 c p1
120.77 229.44 1.35 c p1
121.42 230.78 1.35 c p1
122.08 233.49 1.35 c p1
122.73 230.01 1.35 c p1
123.38 232.38 1.35 c p1
124.04 224.50 1.35 c p1
124.69 228.43 1.35 c p1
125.34 224.96 1.35 c p1
126.00 231.80 1.35 c p1
126.65 230.63 1.35 c p1
127.30 227.64 1.35 c p1
127.96 225.60 1.35 c p1
128.61 222.88 1.35 c p1
129.26 228.31 1.35 c p1
129.92 231.24 1.35 c p1
130.57 225.26 1.35 c p1
131.23 226.67 1.35 c p1
131.88 225.47 1.35 c p1
132.53 228.70 1.35 c p1
133.19 224.20 1.35 c p1
133.84 222.15 1.35 c p1
134.49 222.99 1.35 c p1
135.15 225.12 1.35 c p1
135.80 226.57 1.35 c p1
136.45 224.00 1.35 c p1
137.11 223.19 1.35 c p1
137.76 220.18 1.35 c p1
138.42 220.78 1.35 c p1
139.07 227.55 1.35 c p1
139.72 220.09 1.35 c p1
140.38 221.82 1.35 c p1
141.03 218.74 1.35 c p1
141.68 216.35 1.35 c p1
142.34 221.30 1.35 c p1
142.99 215.57 1.35 c p1
143.64 217.06 1.35 c p1
144.30 215.16 1.35 c p1
144.95 214.11 1.35 c p1
145.61 210.96 1.35 c p1
146.26 215.87 1.35 c p1
146.91 212.17 1.35 c p1
147.57 213.43 1.35 c p1
148.22 210.23 1.35 c p1
148.87 207.45 1.35 c p1
149.53 207.69 1.35 c p1
150.18 213.35 1.35 c p1
150.83 209.16 1.35 c p1
151.49 209.95 1.35 c p1
152.14 209.24 1.35 c p1
152.80 207.13 1.35 c p1
153.45 211.32 1.35 c p1
154.10 207.01 1.35 c p1
154.76 205.18 1.35 c p1
155.41 207.99 1.35 c p1
156.06 204.45 1.35 c p1
156.72 198.92 1.35 c p1
157.37 200.21 1.35 c p1
158.02 200.54 1.35 c p1
158.68 197.75 1.35 c p1
159.33 196.71 1.35 c p1
159.99 198.44 1.35 c p1
160.64 199.97 1.35 c p1
161.29 198.82 1.35 c p1
161.95 201.28 1.35 c p1
162.60 201.90 1.35 c p1
163.25 199.74 1.35 c p1
163.91 199.09 1.35 c p1
164.56 195.79 1.35 c p1
165.21 194.90 1.35 c p1
165.87 192.68 1.35 c p1
166.52 191.47 1.35 c p1
167.17 196.70 1.35 c p1
167.83 192.72 1.35 c p1
168.48 190.83 1.35 c p1
169.14 189.37 1.35 c p1
169.79 193.05 1.35 c p1
170.44 189.15 1.35 c p1
171.10 193.17 1.35 c p1
171.75 181.66 1.35 c p1
172.40 187.14 1.35 c p1
173.06 187.78 1.35 c p1
173.71 188.18 1.35 c p1
174.36 183.40 1.35 c p1
175.02 189.81 1.35 c p1
175.67 188.71 1.35 c p1
176.33 183.19 1.35 c p1
176.98 175.99 1.35 c p1
177.63 178.02 1.35 c p1
178.29 184.28 1.35 c p1
178.94 181.78 1.35 c p1
179.59 177.55 1.35 c p1
180.25 176.33 1.35 c p1
180.90 179.55 1.35 c p1
181.55 176.25 1.35 c p1
182.21 179.28 1.35 c p1
182.86 174.87 1.35 c p1
183.52 173.61 1.35 c p1
184.17 173.64 1.35 c p1
184.82 180.73 1.35 c p1
185.48 166.51 1.35 c p1
186.13 177.19 1.35 c p1
186.78 166.76 1.35 c p1
187.44 169.92 1.35 c p1
188.09 173.06 1.35 c p1
188.74 167.91 1.35 c p1
189.40 170.44 1.35 c p1
190.05 171.75 1.35 c p1
190.71 170.98 1.35 c p1
191.36 167.63 1.35 c p1
192.01 163.53 1.35 c p1
192.67 166.34 1.35 c p1
193.32 165.17 1.35 c p1
193.97 163.91 1.35 c p1
194.63 164.14 1.35 c p1
195.28 166.60 1.35 c p1
195.93 159.67 1.35 c p1
196.59 161.98 1.35 c p1
197.24 160.66 1.35 c p1
197.90 161.90 1.35 c p1
198.55 163.20 1.35 c p1
199.20 158.60 1.35 c p1
199.86 156.07 1.35 c p1
200.51 155.99 1.35 c p1
201.16 154.94 1.35 c p1
201.82 150.59 1.35 c p1
202.47 153.69 1.35 c p1
203.12 154.86 1.35 c p1
203.78 154.83 1.35 c p1
204.43 147.65 1.35 c p1
205.08 151.26 1.35 c p1
205.74 151.13 1.35 c p1
206.39 153.20 1.35 c p1
207.05 142.90 1.35 c p1
207.70 146.99 1.35 c p1
208.35 149.32 1.35 c p1
209.01 150.16 1.35 c p1
209.66 148.37 1.35 c p1
210.31 149.33 1.35 c p1
210.97 150.03 1.35 c p1
211.62 145.35 1.35 c p1
212.27 145.92 1.35 c p1
212.93 147.55 1.35 c p1
213.58 146.91 1.35 c p1
214.24 142.99 1.35 c p1
214.89 140.27 1.35 c p1
215.54 140.68 1.35 c p1
216.20 136.28 1.35 c p1
216.85 140.16 1.35 c p1
217.50 136.74 1.35 c p1
218.16 139.94 1.35 c p1
218.81 142.50 1.35 c p1
219.46 140.90 1.35 c p1
220.12 134.25 1.35 c p1
220.77 139.15 1.35 c p1
221.43 132.80 1.35 c p1
222.08 139.85 1.35 c p1
222.73 136.53 1.35 c p1
223.39 133.55 1.35 c p1
224.04 135.78 1.35 c p1
224.69 128.58 1.35 c p1
225.35 137.88 1.35 c p1
226.00 128.26 1.35 c p1
226.65 127.60 1.35 c p1
227.31 128.79 1.35 c p1
227.96 127.45 1.35 c p1
228.62 127.09 1.35 c p1
229.27 126.90 1.35 c p1
229.92 125.50 1.35 c p1
230.58 125.74 1.35 c p1
231.23 116.60 1.35 c p1
231.88 120.45 1.35 c p1
232.54 121.78 1.35 c p1
233.19 121.87 1.35 c p1
233.84 123.85 1.35 c p1
234.50 119.62 1.35 c p1
235.15 121.01 1.35 c p1
235.81 122.51 1.35 c p1
236.46 121.38 1.35 c p1
237.11 121.78 1.35 c p1
237.77 118.50 1.35 c p1
238.42 116.67 1.35 c p1
239.07 111.32 1.35 c p1
239.73 111.32 1.35 c p1
240.38 116.67 1.35 c p1
241.03 118.50 1.35 c p1
241.69 121.78 1.35 c p1
242.34 121.38 1.35 c p1
242.99 122.51 1.35 c p1
243.65 121.01 1.35 c p1
244.30 119.62 1.35 c p1
244.96 123.85 1.35 c p1
245.61 121.87 1.35 c p1
246.26 121.78 1.35 c p1
246.92 120.45 1.35 c p1
247.57 116.60 1.35 c p1
248.22 125.74 1.35 c p1
248.88 125.50 1.35 c p1
249.53 126.90 1.35 c p1
250.18 127.09 1.35 c p1
250.84 127.45 1.35 c p1
251.49 128.79 1.35 c p1
252.15 127.60 1.35 c p1
252.80 128.26 1.35 c p1
253.45 137.88 1.35 c p1
254.11 128.58 1.35 c p1
254.76 135.78 1.35 c p1
255.41 133.55 1.35 c p1
256.07 136.53 1.35 c p1
256.72 139.85 1.35 c p1
257.37 132.80 1.35 c p1
258.03 139.15 1.35 c p1
258.68 134.25 1.35 c p1
259.34 140.90 1.35 c p1
259.99 142.50 1.35 c p1
260.64 139.94 1.35 c p1
261.30 136.74 1.35 c p1
261.95 140.16 1.35 c p1
262.60 136.28 1.35 c p1
263.26 140.68 1.35 c p1
263.91 140.27 1.35 c p1
264.56 142.99 1.35 c p1
265.22 146.91 1.35 c p1
265.87 147.55 1.35 c p1
266.53 145.92 1.35 c p1
267.18 145.35 1.35 c p1
267.83 150.03 1.35 c p1
268.49 149.33 1.35 c p1
269.14 148.37 1.35 c p1
269.79 150.16 1.35 c p1
270.45 149.32 1.35 c p1
271.10 146.99 1.35 c p1
271.75 142.90 1.35 c p1
272.41 153.20 1.35 c p1
273.06 151.13 1.35 c p1
273.72 151.26 1.35 c p1
274.37 147.65 1.35 c p1
275.02 154.83 1.35 c p1
275.68 154.86 1.35 c p1
276.33 153.69 1.35 c p1
276.98 150.59 1.35 c p1
277.64 154.94 1.35 c p1
278.29 155.99 1.35 c p1
278.94 156.07 1.35 c p1
279.60 158.60 1.35 c p1
280.25 163.20 1.35 c p1
280.90 161.90 1.35 c p1
281.56 160.66 1.35 c p1
282.21 161.98 1.35 c p1
282.87 159.67 1.35 c p1
283.52 166.60 1.35 c p1
284.17 164.14 1.35 c p1
284.83 163.91 1.35 c p1
285.48 165.17 1.35 c p1
286.13 166.34 1.35 c p1
286.79 163.53 1.35 c p1
287.44 167.63 1.35 c p1
288.09 170.98 1.35 c p1
288.75 171.75 1.35 c p1
289.40 170.44 1.35 c p1
290.06 167.91 1.35 c p1
290.71 173.06 1.35 c p1
291.36 169.92 1.35 c p1
292.02 166.76 1.35 c p1
292.67 177.19 1.35 c p1
293.32 166.51 1.35 c p1
293.98 180.73 1.35 c p1
294.63 173.64 1.35 c p1
295.28 173.61 1.35 c p1
295.94 174.87 1.35 c p1
296.59 179.28 1.35 c p1
297.25 176.25 1.35 c p1
297.90 179.55 1.35 c p1
298.55 176.33 1.35 c p1
299.21 177.55 1.35 c p1
299.86 181.78 1.35 c p1
300.51 184.28 1.35 c p1
301.17 178.02 1.35 c p1
301.82 175.99 1.35 c p1
302.47 183.19 1.35 c p1
303.13 188.71 1.35 c p1
303.78 189.81 1.35 c p1
304.44 183.40 1.35 c p1
305.09 188.18 1.35 c p1
305.74 187.78 1.35 c p1
306.40 187.14 1.35 c p1
307.05 181.66 1.35 c p1
307.70 193.17 1.35 c p1
308.36 189.15 1.35 c p1
309.01 193.05 1.35 c p1
309.66 189.37 1.35 c p1
310.32 190.83 1.35 c p1
310.97 192.72 1.35 c p1
311.63 196.70 1.35 c p1
312.28 191.47 1.35 c p1
312.93 192.68 1.35 c p1
313.59 194.90 1.35 c p1
314.24 195.79 1.35 c p1
314.89 199.09 1.35 c p1
315.55 199.74 1.35 c p1
316.20 201.90 1.35 c p1
316.85 201.28 1.35 c p1
317.51 198.82 1.35 c p1
318.16 199.97 1.35 c p1
318.81 198.44 1.35 c p1
319.47 196.71 1.35 c p1
320.12 197.75 1.35 c p1
320.78 200.54 1.35 c p1
321.43 200.21 1.35 c p1
322.08 198.92 1.35 c p1
322.74 204.45 1.35 c p1
323.39 207.99 1.35 c p1
324.04 205.18 1.35 c p1
324.70 207.01 1.35 c p1
325.35 211.32 1.35 c p1
326.00 207.13 1.35 c p1
326.66 209.24 1.35 c p1
327.31 209.95 1.35 c p1
327.97 209.16 1.35 c p1
328.62 213.35 1.35 c p1
329.27 207.69 1.35 c p1
329.93 207.45 1.35 c p1
330.58 210.23 1.35 c p1
331.23 213.43 1.35 c p1
331.89 212.17 1.35 c p1
332.54 215.87 1.35 c p1
333.19 210.96 1.35 c p1
333.85 214.11 1.35 c p1
334.50 215.16 1.35 c p1
335.16 217.06 1.35 c p1
335.81 215.57 1.35 c p1
336.46 221.30 1.35 c p1
337.12 216.35 1.35 c p1
337.77 218.74 1.35 c p1
338.42 221.82 1.35 c p1
339.08 220.09 1.35 c p1
339.73 227.55 1.35 c p1
340.38 220.78 1.35 c p1
341.04 220.18 1.35 c p1
341.69 223.19 1.35 c p1
342.35 224.00 1.35 c p1
343.00 226.57 1.35 c p1
343.65 225.12 1.35 c p1
344.31 222.99 1.35 c p1
344.96 222.15 1.35 c p1
345.61 224.20 1.35 c p1
346.27 228.70 1.35 c p1
346.92 225.47 1.35 c p1
347.57 226.67 1.35 c p1
348.23 225.26 1.35 c p1
348.88 231.24 1.35 c p1
349.54 228.31 1.35 c p1
350.19 222.88 1.35 c p1
350.84 225.60 1.35 c p1
351.50 227.64 1.35 c p1
352.15 230.63 1.35 c p1
352.80 231.80 1.35 c p1
353.46 224.96 1.35 c p1
354.11 228.43 1.35 c p1
354.76 224.50 1.35 c p1
355.42 232.38 1.35 c p1
356.07 230.01 1.35 c p1
356.72 233.49 1.35 c p1
357.38 230.78 1.35 c p1
358.03 229.44 1.35 c p1
358.69 226.59 1.35 c p1
359.34 227.56 1.35 c p1
359.99 230.54 1.35 c p1
360.65 231.83 1.35 c p1
361.30 228.00 1.35 c p1
361.95 227.38 1.35 c p1
362.61 227.47 1.35 c p1
363.26 231.37 1.35 c p1
363.91 227.75 1.35 c p1
364.57 228.55 1.35 c p1
365.22 228.63 1.35 c p1
365.88 228.87 1.35 c p1
366.53 234.76 1.35 c p1
367.18 223.39 1.35 c p1
367.84 229.90 1.35 c p1
368.49 224.84 1.35 c p1
369.14 230.77 1.35 c p1
369.80 222.49 1.35 c p1
370.45 225.54 1.35 c p1
371.10 219.59 1.35 c p1
371.76 229.53 1.35 c p1
372.41 219.02 1.35 c p1
373.07 224.32 1.35 c p1
373.72 220.38 1.35 c p1
374.37 217.18 1.35 c p1
375.03 222.18 1.35 c p1
375.68 215.13 1.35 c p1
376.33 215.56 1.35 c p1
376.99 213.67 1.35 c p1
377.64 209.76 1.35 c p1
378.29 208.17 1.35 c p1
378.95 207.73 1.35 c p1
379.60 207.26 1.35 c p1
380.26 203.21 1.35 c p1
380.91 199.00 1.35 c p1
381.56 200.85 1.35 c p1
382.22 200.96 1.35 c p1
382.87 194.74 1.35 c p1
383.52 192.04 1.35 c p1
384.18 186.16 1.35 c p1
384.83 187.33 1.35 c p1
385.48 181.97 1.35 c p1
386.14 182.11 1.35 c p1
386.79 177.08 1.35 c p1
387.45 173.06 1.35 c p1
388.10 170.13 1.35 c p1
388.75 167.55 1.35 c p1
389.41 154.49 1.35 c p1
390.06 154.16 1.35 c p1
390.71 146.81 1.35 c p1
391.37 146.75 1.35 c p1
392.02 136.99 1.35 c p1
392.67 132.56 1.35 c p1
393.33 128.94 1.35 c p1
393.98 121.30 1.35 c p1
394.63 122.27 1.35 c p1
395.29 113.31 1.35 c p1
395.94 104.92 1.35 c p1
396.60 104.54 1.35 c p1
397.25 96.57 1.35 c p1
397.90 96.29 1.35 c p1
398.56 94.89 1.35 c p1
399.21 86.99 1.35 c p1
399.86 84.71 1.35 c p1
400.52 84.90 1.35 c p1
401.17 82.43 1.35 c p1
401.82 84.35 1.35 c p1
402.48 82.47 1.35 c p1
403.13 79.90 1.35 c p1
403.79 80.86 1.35 c p1
404.44 80.18 1.35 c p1
405.09 79.64 1.35 c p1
405.75 80.34 1.35 c p1
406.40 86.30 1.35 c p1
/bg { 1 1 1 srgb } def
0 0 0 srgb
300.51 127.85 68.23 -49.59 r p3
0.6784 0.8471 0.9020 srgb
316.10 103.05 1.35 c p1
1 0.8431 0 srgb
np
316.10 92.75 m
1.82 -3.14 l
-3.64 0 l
1.82 3.14 l
o
/Font1 findfont 13 s
0 0 0 srgb
303.92 115.45 (P) 0 ta
-0.650 (er) tb
0.195 (iodiz) tb
-0.195 (ed) tb gr
327.86 99.66 (Es) 0 0 t
/Font1 findfont 9 s
343.03 97.28 (256) 0 0 t
/Font1 findfont 13 s
327.86 87.26 (Es) 0 0 t
/Font1 findfont 9 s
343.03 84.88 (128) 0 0 t
ep
%%Trailer
%%Pages: 1
%%EOF
