%!PS-Adobe-3.0 EPSF-3.0
%%DocumentNeededResources: font Helvetica
%%+ font Helvetica-Bold
%%+ font Helvetica-Oblique
%%+ font Helvetica-BoldOblique
%%+ font Symbol
%%Title: R Graphics Output
%%Creator: R Software
%%Pages: (atend)
%%BoundingBox: 0 0 428 360
%%EndComments
%%BeginProlog
/bp  { gs sRGB gs } def
% begin .ps.prolog
/gs  { gsave } bind def
/gr  { grestore } bind def
/ep  { showpage gr gr } bind def
/m   { moveto } bind def
/l  { rlineto } bind def
/np  { newpath } bind def
/cp  { closepath } bind def
/f   { fill } bind def
/o   { stroke } bind def
/c   { newpath 0 360 arc } bind def
/r   { 4 2 roll moveto 1 copy 3 -1 roll exch 0 exch rlineto 0 rlineto -1 mul 0 exch rlineto closepath } bind def
/p1  { stroke } bind def
/p2  { gsave bg fill grestore newpath } bind def
/p3  { gsave bg fill grestore stroke } bind def
/p6  { gsave bg eofill grestore newpath } bind def
/p7  { gsave bg eofill grestore stroke } bind def
/t   { 5 -2 roll moveto gsave rotate
       1 index stringwidth pop
       mul neg 0 rmoveto show grestore } bind def
/ta  { 4 -2 roll moveto gsave rotate show } bind def
/tb  { 2 -1 roll 0 rmoveto show } bind def
/cl  { grestore gsave newpath 3 index 3 index moveto 1 index
       4 -1 roll lineto  exch 1 index lineto lineto
       closepath clip newpath } bind def
/rgb { setrgbcolor } bind def
/s   { scalefont setfont } bind def
% end   .ps.prolog
/sRGB { [ /CIEBasedABC
          << /DecodeLMN
               [ { dup 0.03928 le
                        {12.92321 div}
                        {0.055 add 1.055 div 2.4 exp }
                     ifelse
                 } bind dup dup
               ]
             /MatrixLMN [0.412457 0.212673 0.019334
                         0.357576 0.715152 0.119192
                         0.180437 0.072175 0.950301]
             /WhitePoint [0.9505 1.0 1.0890]
           >>
         ] setcolorspace } bind def
/srgb { setcolor } bind def
% begin encoding
/WinAnsiEncoding [
 /.notdef /.notdef /.notdef /.notdef /.notdef /.notdef /.notdef /.notdef
 /.notdef /.notdef /.notdef /.notdef /.notdef /.notdef /.notdef /.notdef
 /.notdef /.notdef /.notdef /.notdef /.notdef /.notdef /.notdef /.notdef
 /.notdef /.notdef /.notdef /.notdef /.notdef /.notdef /.notdef /.notdef
 /space /exclam /quotedbl /numbersign /dollar /percent /ampersand /quoteright
 /parenleft /parenright /asterisk /plus /comma /minus /period /slash
 /zero /one /two /three /four /five /six /seven
 /eight /nine /colon /semicolon /less /equal /greater /question
 /at /A /B /C /D /E /F /G
 /H /I /J /K /L /M /N /O
 /P /Q /R /S /T /U /V /W
 /X /Y /Z /bracketleft /backslash /bracketright /asciicircum /underscore
 /grave /a /b /c /d /e /f /g
 /h /i /j /k /l /m /n /o
 /p /q /r /s /t /u /v /w
 /x /y /z /braceleft /bar /braceright /asciitilde /.notdef
 /Euro /.notdef /quotesinglbase /florin /quotedblbase /ellipsis /dagger /daggerdbl
 /circumflex /perthousand /Scaron /guilsinglleft /OE /.notdef /Zcaron /.notdef
 /.notdef /quoteleft /quoteright /quotedblleft /quotedblright /bullet /endash /emdash
 /tilde /trademark /scaron /guilsinglright /oe /.notdef /zcaron /Ydieresis
 /space /exclamdown /cent /sterling /currency /yen /brokenbar /section
 /dieresis /copyright /ordfeminine /guillemotleft /logicalnot /hyphen /registered /macron
 /degree /plusminus /twosuperior /threesuperior /acute /mu /paragraph /periodcentered
 /cedilla /onesuperior /ordmasculine /guillemotright /onequarter /onehalf /threequarters /questiondown
 /Agrave /Aacute /Acircumflex /Atilde /Adieresis /Aring /AE /Ccedilla
 /Egrave /Eacute /Ecircumflex /Edieresis /Igrave /Iacute /Icircumflex /Idieresis
 /Eth /Ntilde /Ograve /Oacute /Ocircumflex /Otilde /Odieresis /multiply
 /Oslash /Ugrave /Uacute /Ucircumflex /Udieresis /Yacute /Thorn /germandbls
 /agrave /aacute /acircumflex /atilde /adieresis /aring /ae /ccedilla
 /egrave /eacute /ecircumflex /edieresis /igrave /iacute /icircumflex /idieresis
 /eth /ntilde /ograve /oacute /ocircumflex /otilde /odieresis /divide
 /oslash /ugrave /uacute /ucircumflex /udieresis /yacute /thorn /ydieresis
]
 def
% end encoding
%%IncludeResource: font Helvetica
/Helvetica findfont
dup length dict begin
  {1 index /FID ne {def} {pop pop} ifelse} forall
  /Encoding WinAnsiEncoding def
  currentdict
  end
/Font1 exch definefont pop
%%IncludeResource: font Helvetica-Bold
/Helvetica-Bold findfont
dup length dict begin
  {1 index /FID ne {def} {pop pop} ifelse} forall
  /Encoding WinAnsiEncoding def
  currentdict
  end
/Font2 exch definefont pop
%%IncludeResource: font Helvetica-Oblique
/Helvetica-Oblique findfont
dup length dict begin
  {1 index /FID ne {def} {pop pop} ifelse} forall
  /Encoding WinAnsiEncoding def
  currentdict
  end
/Font3 exch definefont pop
%%IncludeResource: font Helvetica-BoldOblique
/Helvetica-BoldOblique findfont
dup length dict begin
  {1 index /FID ne {def} {pop pop} ifelse} forall
  /Encoding WinAnsiEncoding def
  currentdict
  end
/Font4 exch definefont pop
%%IncludeResource: font Symbol
/Symbol findfont
dup length dict begin
  {1 index /FID ne {def} {pop pop} ifelse} forall
  currentdict
  end
/Font5 exch definefont pop
%%EndProlog
%%Page: 1 1
bp
/bg { 1 1 1 srgb } def
0.00 0.00 428.25 360.00 r p2
59.04 73.44 398.01 300.96 cl
59.04 73.44 398.01 300.96 cl
0.6784 0.8471 0.9020 srgb
0.75 setlinewidth
[] 0 setdash
1 setlinecap
1 setlinejoin
10.00 setmiterlimit
71.59 99.42 1.35 c p1
72.21 99.42 1.35 c p1
72.82 99.42 1.35 c p1
73.44 99.42 1.35 c p1
74.05 99.45 1.35 c p1
74.67 99.58 1.35 c p1
75.28 99.95 1.35 c p1
75.89 100.71 1.35 c p1
76.51 101.97 1.35 c p1
77.12 103.81 1.35 c p1
77.74 106.21 1.35 c p1
78.35 109.17 1.35 c p1
78.96 112.61 1.35 c p1
79.58 116.47 1.35 c p1
80.19 120.66 1.35 c p1
80.81 125.11 1.35 c p1
81.42 129.75 1.35 c p1
82.04 134.52 1.35 c p1
82.65 139.36 1.35 c p1
83.26 144.22 1.35 c p1
83.88 149.07 1.35 c p1
84.49 153.87 1.35 c p1
85.11 158.61 1.35 c p1
85.72 163.25 1.35 c p1
86.34 167.78 1.35 c p1
86.95 172.20 1.35 c p1
87.56 176.48 1.35 c p1
88.18 180.63 1.35 c p1
88.79 184.65 1.35 c p1
89.41 188.52 1.35 c p1
90.02 192.26 1.35 c p1
90.63 195.85 1.35 c p1
91.25 199.30 1.35 c p1
91.86 202.62 1.35 c p1
92.48 205.81 1.35 c p1
93.09 208.86 1.35 c p1
93.71 211.79 1.35 c p1
94.32 214.60 1.35 c p1
94.93 217.28 1.35 c p1
95.55 219.86 1.35 c p1
96.16 222.32 1.35 c p1
96.78 224.67 1.35 c p1
97.39 226.92 1.35 c p1
98.01 229.08 1.35 c p1
98.62 231.14 1.35 c p1
99.23 233.11 1.35 c p1
99.85 234.99 1.35 c p1
100.46 236.78 1.35 c p1
101.08 238.50 1.35 c p1
101.69 240.14 1.35 c p1
102.30 241.71 1.35 c p1
102.92 243.21 1.35 c p1
103.53 244.64 1.35 c p1
104.15 246.01 1.35 c p1
104.76 247.31 1.35 c p1
105.38 248.56 1.35 c p1
105.99 249.75 1.35 c p1
106.60 250.89 1.35 c p1
107.22 251.98 1.35 c p1
107.83 253.01 1.35 c p1
108.45 254.01 1.35 c p1
109.06 254.95 1.35 c p1
109.68 255.86 1.35 c p1
110.29 256.72 1.35 c p1
110.90 257.54 1.35 c p1
111.52 258.33 1.35 c p1
112.13 259.08 1.35 c p1
112.75 259.80 1.35 c p1
113.36 260.48 1.35 c p1
113.97 261.14 1.35 c p1
114.59 261.76 1.35 c p1
115.20 262.36 1.35 c p1
115.82 262.93 1.35 c p1
116.43 263.47 1.35 c p1
117.05 263.99 1.35 c p1
117.66 264.49 1.35 c p1
118.27 264.96 1.35 c p1
118.89 265.41 1.35 c p1
119.50 265.85 1.35 c p1
120.12 266.26 1.35 c p1
120.73 266.65 1.35 c p1
121.35 267.03 1.35 c p1
121.96 267.39 1.35 c p1
122.57 267.73 1.35 c p1
123.19 268.06 1.35 c p1
123.80 268.37 1.35 c p1
124.42 268.67 1.35 c p1
125.03 268.95 1.35 c p1
125.64 269.22 1.35 c p1
126.26 269.48 1.35 c p1
126.87 269.73 1.35 c p1
127.49 269.97 1.35 c p1
128.10 270.20 1.35 c p1
128.72 270.41 1.35 c p1
129.33 270.62 1.35 c p1
129.94 270.81 1.35 c p1
130.56 271.00 1.35 c p1
131.17 271.18 1.35 c p1
131.79 271.35 1.35 c p1
132.40 271.52 1.35 c p1
133.02 271.67 1.35 c p1
133.63 271.82 1.35 c p1
134.24 271.97 1.35 c p1
134.86 272.10 1.35 c p1
135.47 272.23 1.35 c p1
136.09 272.36 1.35 c p1
136.70 272.47 1.35 c p1
137.31 272.59 1.35 c p1
137.93 272.70 1.35 c p1
138.54 272.80 1.35 c p1
139.16 272.90 1.35 c p1
139.77 272.99 1.35 c p1
140.39 273.08 1.35 c p1
141.00 273.17 1.35 c p1
141.61 273.25 1.35 c p1
142.23 273.33 1.35 c p1
142.84 273.40 1.35 c p1
143.46 273.47 1.35 c p1
144.07 273.54 1.35 c p1
144.69 273.61 1.35 c p1
145.30 273.67 1.35 c p1
145.91 273.73 1.35 c p1
146.53 273.78 1.35 c p1
147.14 273.84 1.35 c p1
147.76 273.89 1.35 c p1
148.37 273.94 1.35 c p1
148.98 273.99 1.35 c p1
149.60 274.03 1.35 c p1
150.21 274.07 1.35 c p1
150.83 274.11 1.35 c p1
151.44 274.15 1.35 c p1
152.06 274.19 1.35 c p1
152.67 274.23 1.35 c p1
153.28 274.26 1.35 c p1
153.90 274.29 1.35 c p1
154.51 274.32 1.35 c p1
155.13 274.35 1.35 c p1
155.74 274.38 1.35 c p1
156.36 274.41 1.35 c p1
156.97 274.43 1.35 c p1
157.58 274.46 1.35 c p1
158.20 274.48 1.35 c p1
158.81 274.51 1.35 c p1
159.43 274.53 1.35 c p1
160.04 274.55 1.35 c p1
160.65 274.57 1.35 c p1
161.27 274.59 1.35 c p1
161.88 274.60 1.35 c p1
162.50 274.62 1.35 c p1
163.11 274.64 1.35 c p1
163.73 274.65 1.35 c p1
164.34 274.67 1.35 c p1
164.95 274.68 1.35 c p1
165.57 274.69 1.35 c p1
166.18 274.71 1.35 c p1
166.80 274.72 1.35 c p1
167.41 274.73 1.35 c p1
168.03 274.74 1.35 c p1
168.64 274.75 1.35 c p1
169.25 274.76 1.35 c p1
169.87 274.77 1.35 c p1
170.48 274.78 1.35 c p1
171.10 274.79 1.35 c p1
171.71 274.80 1.35 c p1
172.32 274.81 1.35 c p1
172.94 274.82 1.35 c p1
173.55 274.82 1.35 c p1
174.17 274.83 1.35 c p1
174.78 274.84 1.35 c p1
175.40 274.84 1.35 c p1
176.01 274.85 1.35 c p1
176.62 274.86 1.35 c p1
177.24 274.86 1.35 c p1
177.85 274.87 1.35 c p1
178.47 274.87 1.35 c p1
179.08 274.88 1.35 c p1
179.70 274.88 1.35 c p1
180.31 274.89 1.35 c p1
180.92 274.89 1.35 c p1
181.54 274.89 1.35 c p1
182.15 274.90 1.35 c p1
182.77 274.90 1.35 c p1
183.38 274.91 1.35 c p1
183.99 274.91 1.35 c p1
184.61 274.91 1.35 c p1
185.22 274.92 1.35 c p1
185.84 274.92 1.35 c p1
186.45 274.92 1.35 c p1
187.07 274.92 1.35 c p1
187.68 274.93 1.35 c p1
188.29 274.93 1.35 c p1
188.91 274.93 1.35 c p1
189.52 274.93 1.35 c p1
190.14 274.94 1.35 c p1
190.75 274.94 1.35 c p1
191.37 274.94 1.35 c p1
191.98 274.94 1.35 c p1
192.59 274.94 1.35 c p1
193.21 274.94 1.35 c p1
193.82 274.95 1.35 c p1
194.44 274.95 1.35 c p1
195.05 274.95 1.35 c p1
195.66 274.95 1.35 c p1
196.28 274.95 1.35 c p1
196.89 274.95 1.35 c p1
197.51 274.95 1.35 c p1
198.12 274.96 1.35 c p1
198.74 274.96 1.35 c p1
199.35 274.96 1.35 c p1
199.96 274.96 1.35 c p1
200.58 274.96 1.35 c p1
201.19 274.96 1.35 c p1
201.81 274.96 1.35 c p1
202.42 274.96 1.35 c p1
203.04 274.96 1.35 c p1
203.65 274.96 1.35 c p1
204.26 274.96 1.35 c p1
204.88 274.97 1.35 c p1
205.49 274.97 1.35 c p1
206.11 274.97 1.35 c p1
206.72 274.97 1.35 c p1
207.33 274.97 1.35 c p1
207.95 274.97 1.35 c p1
208.56 274.97 1.35 c p1
209.18 274.97 1.35 c p1
209.79 274.97 1.35 c p1
210.41 274.97 1.35 c p1
211.02 274.97 1.35 c p1
211.63 274.97 1.35 c p1
212.25 274.97 1.35 c p1
212.86 274.97 1.35 c p1
213.48 274.97 1.35 c p1
214.09 274.97 1.35 c p1
214.71 274.97 1.35 c p1
215.32 274.97 1.35 c p1
215.93 274.97 1.35 c p1
216.55 274.97 1.35 c p1
217.16 274.97 1.35 c p1
217.78 274.97 1.35 c p1
218.39 274.97 1.35 c p1
219.00 274.98 1.35 c p1
219.62 274.98 1.35 c p1
220.23 274.98 1.35 c p1
220.85 274.98 1.35 c p1
221.46 274.98 1.35 c p1
222.08 274.98 1.35 c p1
222.69 274.98 1.35 c p1
223.30 274.98 1.35 c p1
223.92 274.98 1.35 c p1
224.53 274.98 1.35 c p1
225.15 274.98 1.35 c p1
225.76 274.98 1.35 c p1
226.38 274.98 1.35 c p1
226.99 274.98 1.35 c p1
227.60 274.98 1.35 c p1
228.22 274.98 1.35 c p1
228.83 274.98 1.35 c p1
229.45 274.98 1.35 c p1
230.06 274.98 1.35 c p1
230.67 274.98 1.35 c p1
231.29 274.98 1.35 c p1
231.90 274.98 1.35 c p1
232.52 274.98 1.35 c p1
233.13 274.98 1.35 c p1
233.75 274.98 1.35 c p1
234.36 274.98 1.35 c p1
234.97 274.98 1.35 c p1
235.59 274.98 1.35 c p1
236.20 274.98 1.35 c p1
236.82 274.98 1.35 c p1
237.43 274.98 1.35 c p1
238.05 274.98 1.35 c p1
238.66 274.97 1.35 c p1
239.27 274.97 1.35 c p1
239.89 274.97 1.35 c p1
240.50 274.97 1.35 c p1
241.12 274.97 1.35 c p1
241.73 274.97 1.35 c p1
242.34 274.97 1.35 c p1
242.96 274.97 1.35 c p1
243.57 274.97 1.35 c p1
244.19 274.97 1.35 c p1
244.80 274.97 1.35 c p1
245.42 274.97 1.35 c p1
246.03 274.97 1.35 c p1
246.64 274.97 1.35 c p1
247.26 274.97 1.35 c p1
247.87 274.97 1.35 c p1
248.49 274.97 1.35 c p1
249.10 274.97 1.35 c p1
249.72 274.97 1.35 c p1
250.33 274.97 1.35 c p1
250.94 274.97 1.35 c p1
251.56 274.97 1.35 c p1
252.17 274.97 1.35 c p1
252.79 274.96 1.35 c p1
253.40 274.96 1.35 c p1
254.01 274.96 1.35 c p1
254.63 274.96 1.35 c p1
255.24 274.96 1.35 c p1
255.86 274.96 1.35 c p1
256.47 274.96 1.35 c p1
257.09 274.96 1.35 c p1
257.70 274.96 1.35 c p1
258.31 274.96 1.35 c p1
258.93 274.96 1.35 c p1
259.54 274.95 1.35 c p1
260.16 274.95 1.35 c p1
260.77 274.95 1.35 c p1
261.39 274.95 1.35 c p1
262.00 274.95 1.35 c p1
262.61 274.95 1.35 c p1
263.23 274.95 1.35 c p1
263.84 274.94 1.35 c p1
264.46 274.94 1.35 c p1
265.07 274.94 1.35 c p1
265.68 274.94 1.35 c p1
266.30 274.94 1.35 c p1
266.91 274.94 1.35 c p1
267.53 274.93 1.35 c p1
268.14 274.93 1.35 c p1
268.76 274.93 1.35 c p1
269.37 274.93 1.35 c p1
269.98 274.92 1.35 c p1
270.60 274.92 1.35 c p1
271.21 274.92 1.35 c p1
271.83 274.92 1.35 c p1
272.44 274.91 1.35 c p1
273.06 274.91 1.35 c p1
273.67 274.91 1.35 c p1
274.28 274.90 1.35 c p1
274.90 274.90 1.35 c p1
275.51 274.89 1.35 c p1
276.13 274.89 1.35 c p1
276.74 274.89 1.35 c p1
277.35 274.88 1.35 c p1
277.97 274.88 1.35 c p1
278.58 274.87 1.35 c p1
279.20 274.87 1.35 c p1
279.81 274.86 1.35 c p1
280.43 274.86 1.35 c p1
281.04 274.85 1.35 c p1
281.65 274.84 1.35 c p1
282.27 274.84 1.35 c p1
282.88 274.83 1.35 c p1
283.50 274.82 1.35 c p1
284.11 274.82 1.35 c p1
284.73 274.81 1.35 c p1
285.34 274.80 1.35 c p1
285.95 274.79 1.35 c p1
286.57 274.78 1.35 c p1
287.18 274.77 1.35 c p1
287.80 274.76 1.35 c p1
288.41 274.75 1.35 c p1
289.02 274.74 1.35 c p1
289.64 274.73 1.35 c p1
290.25 274.72 1.35 c p1
290.87 274.71 1.35 c p1
291.48 274.69 1.35 c p1
292.10 274.68 1.35 c p1
292.71 274.67 1.35 c p1
293.32 274.65 1.35 c p1
293.94 274.64 1.35 c p1
294.55 274.62 1.35 c p1
295.17 274.60 1.35 c p1
295.78 274.59 1.35 c p1
296.40 274.57 1.35 c p1
297.01 274.55 1.35 c p1
297.62 274.53 1.35 c p1
298.24 274.51 1.35 c p1
298.85 274.48 1.35 c p1
299.47 274.46 1.35 c p1
300.08 274.43 1.35 c p1
300.69 274.41 1.35 c p1
301.31 274.38 1.35 c p1
301.92 274.35 1.35 c p1
302.54 274.32 1.35 c p1
303.15 274.29 1.35 c p1
303.77 274.26 1.35 c p1
304.38 274.23 1.35 c p1
304.99 274.19 1.35 c p1
305.61 274.15 1.35 c p1
306.22 274.11 1.35 c p1
306.84 274.07 1.35 c p1
307.45 274.03 1.35 c p1
308.07 273.99 1.35 c p1
308.68 273.94 1.35 c p1
309.29 273.89 1.35 c p1
309.91 273.84 1.35 c p1
310.52 273.78 1.35 c p1
311.14 273.73 1.35 c p1
311.75 273.67 1.35 c p1
312.36 273.61 1.35 c p1
312.98 273.54 1.35 c p1
313.59 273.47 1.35 c p1
314.21 273.40 1.35 c p1
314.82 273.33 1.35 c p1
315.44 273.25 1.35 c p1
316.05 273.17 1.35 c p1
316.66 273.08 1.35 c p1
317.28 272.99 1.35 c p1
317.89 272.90 1.35 c p1
318.51 272.80 1.35 c p1
319.12 272.70 1.35 c p1
319.74 272.59 1.35 c p1
320.35 272.47 1.35 c p1
320.96 272.36 1.35 c p1
321.58 272.23 1.35 c p1
322.19 272.10 1.35 c p1
322.81 271.97 1.35 c p1
323.42 271.82 1.35 c p1
324.03 271.67 1.35 c p1
324.65 271.52 1.35 c p1
325.26 271.35 1.35 c p1
325.88 271.18 1.35 c p1
326.49 271.00 1.35 c p1
327.11 270.81 1.35 c p1
327.72 270.62 1.35 c p1
328.33 270.41 1.35 c p1
328.95 270.20 1.35 c p1
329.56 269.97 1.35 c p1
330.18 269.73 1.35 c p1
330.79 269.48 1.35 c p1
331.41 269.22 1.35 c p1
332.02 268.95 1.35 c p1
332.63 268.67 1.35 c p1
333.25 268.37 1.35 c p1
333.86 268.06 1.35 c p1
334.48 267.73 1.35 c p1
335.09 267.39 1.35 c p1
335.70 267.03 1.35 c p1
336.32 266.65 1.35 c p1
336.93 266.26 1.35 c p1
337.55 265.85 1.35 c p1
338.16 265.41 1.35 c p1
338.78 264.96 1.35 c p1
339.39 264.49 1.35 c p1
340.00 263.99 1.35 c p1
340.62 263.47 1.35 c p1
341.23 262.93 1.35 c p1
341.85 262.36 1.35 c p1
342.46 261.76 1.35 c p1
343.08 261.14 1.35 c p1
343.69 260.48 1.35 c p1
344.30 259.80 1.35 c p1
344.92 259.08 1.35 c p1
345.53 258.33 1.35 c p1
346.15 257.54 1.35 c p1
346.76 256.72 1.35 c p1
347.37 255.86 1.35 c p1
347.99 254.95 1.35 c p1
348.60 254.01 1.35 c p1
349.22 253.01 1.35 c p1
349.83 251.98 1.35 c p1
350.45 250.89 1.35 c p1
351.06 249.75 1.35 c p1
351.67 248.56 1.35 c p1
352.29 247.31 1.35 c p1
352.90 246.01 1.35 c p1
353.52 244.64 1.35 c p1
354.13 243.21 1.35 c p1
354.75 241.71 1.35 c p1
355.36 240.14 1.35 c p1
355.97 238.50 1.35 c p1
356.59 236.78 1.35 c p1
357.20 234.99 1.35 c p1
357.82 233.11 1.35 c p1
358.43 231.14 1.35 c p1
359.04 229.08 1.35 c p1
359.66 226.92 1.35 c p1
360.27 224.67 1.35 c p1
360.89 222.32 1.35 c p1
361.50 219.86 1.35 c p1
362.12 217.28 1.35 c p1
362.73 214.60 1.35 c p1
363.34 211.79 1.35 c p1
363.96 208.86 1.35 c p1
364.57 205.81 1.35 c p1
365.19 202.62 1.35 c p1
365.80 199.30 1.35 c p1
366.42 195.85 1.35 c p1
367.03 192.26 1.35 c p1
367.64 188.52 1.35 c p1
368.26 184.65 1.35 c p1
368.87 180.63 1.35 c p1
369.49 176.48 1.35 c p1
370.10 172.20 1.35 c p1
370.71 167.78 1.35 c p1
371.33 163.25 1.35 c p1
371.94 158.61 1.35 c p1
372.56 153.87 1.35 c p1
373.17 149.07 1.35 c p1
373.79 144.22 1.35 c p1
374.40 139.36 1.35 c p1
375.01 134.52 1.35 c p1
375.63 129.75 1.35 c p1
376.24 125.11 1.35 c p1
376.86 120.66 1.35 c p1
377.47 116.47 1.35 c p1
378.09 112.61 1.35 c p1
378.70 109.17 1.35 c p1
379.31 106.21 1.35 c p1
379.93 103.81 1.35 c p1
380.54 101.97 1.35 c p1
381.16 100.71 1.35 c p1
381.77 99.95 1.35 c p1
382.38 99.58 1.35 c p1
383.00 99.45 1.35 c p1
383.61 99.42 1.35 c p1
384.23 99.42 1.35 c p1
384.84 99.42 1.35 c p1
385.46 99.42 1.35 c p1
0.00 0.00 428.25 360.00 cl
0 0 0 srgb
0.75 setlinewidth
[] 0 setdash
1 setlinecap
1 setlinejoin
10.00 setmiterlimit
np
70.98 73.44 m
307.11 0 l
o
np
70.98 73.44 m
0 -7.20 l
o
np
132.40 73.44 m
0 -7.20 l
o
np
193.82 73.44 m
0 -7.20 l
o
np
255.24 73.44 m
0 -7.20 l
o
np
316.66 73.44 m
0 -7.20 l
o
np
378.09 73.44 m
0 -7.20 l
o
/Font1 findfont 12 s
70.98 47.52 (0) .5 0 t
132.40 47.52 (100) .5 0 t
193.82 47.52 (200) .5 0 t
255.24 47.52 (300) .5 0 t
316.66 47.52 (400) .5 0 t
378.09 47.52 (500) .5 0 t
np
59.04 99.42 m
0 175.56 l
o
np
59.04 99.42 m
-7.20 0 l
o
np
59.04 134.53 m
-7.20 0 l
o
np
59.04 169.64 m
-7.20 0 l
o
np
59.04 204.76 m
-7.20 0 l
o
np
59.04 239.87 m
-7.20 0 l
o
np
59.04 274.98 m
-7.20 0 l
o
41.76 99.42 (0.0) .5 90 t
41.76 134.53 (0.2) .5 90 t
41.76 169.64 (0.4) .5 90 t
41.76 204.76 (0.6) .5 90 t
41.76 239.87 (0.8) .5 90 t
41.76 274.98 (1.0) .5 90 t
np
59.04 73.44 m
338.97 0 l
0 227.52 l
-338.97 0 l
0 -227.52 l
o
0.00 0.00 428.25 360.00 cl
/Font1 findfont 12 s
0 0 0 srgb
227.19 18.72 (i) 0 0 t
10.76 173.64 (E) 0 90 t
/Font1 findfont 8 s
12.96 181.65 (i) 0 90 t
/Font1 findfont 12 s
10.76 183.42 (/) 0 90 t
10.76 186.76 (T) 0 90 t
/Font1 findfont 8 s
12.96 194.09 (m) 0 90 t
59.04 73.44 398.01 300.96 cl
0 1 0 srgb
0.75 setlinewidth
[ 2.25 3.75] 0 setdash
1 setlinecap
1 setlinejoin
10.00 setmiterlimit
np
59.04 99.42 m
338.97 0 l
o
np
59.04 274.98 m
338.97 0 l
o
np
70.98 73.44 m
0 227.52 l
o
np
149.60 73.44 m
0 227.52 l
o
np
228.22 73.44 m
0 227.52 l
o
np
385.46 73.44 m
0 227.52 l
o
1 0.8431 0 srgb
0.75 setlinewidth
[] 0 setdash
np
69.69 99.42 m
3.81 0 l
o
np
71.59 97.51 m
0 3.82 l
o
np
70.30 99.42 m
3.82 0 l
o
np
72.21 97.51 m
0 3.82 l
o
np
70.91 99.42 m
3.82 0 l
o
np
72.82 97.51 m
0 3.82 l
o
np
71.53 99.42 m
3.82 0 l
o
np
73.44 97.52 m
0 3.81 l
o
np
72.14 99.45 m
3.82 0 l
o
np
74.05 97.54 m
0 3.82 l
o
np
72.76 99.58 m
3.81 0 l
o
np
74.67 97.67 m
0 3.82 l
o
np
73.37 99.95 m
3.82 0 l
o
np
75.28 98.04 m
0 3.82 l
o
np
73.98 100.71 m
3.82 0 l
o
np
75.89 98.80 m
0 3.82 l
o
np
74.60 101.97 m
3.82 0 l
o
np
76.51 100.07 m
0 3.81 l
o
np
75.21 103.81 m
3.82 0 l
o
np
77.12 101.90 m
0 3.81 l
o
np
75.83 106.21 m
3.82 0 l
o
np
77.74 104.31 m
0 3.81 l
o
np
76.44 109.17 m
3.82 0 l
o
np
78.35 107.26 m
0 3.82 l
o
np
77.06 112.61 m
3.81 0 l
o
np
78.96 110.70 m
0 3.82 l
o
np
77.67 116.47 m
3.82 0 l
o
np
79.58 114.56 m
0 3.82 l
o
np
78.28 120.66 m
3.82 0 l
o
np
80.19 118.75 m
0 3.82 l
o
np
78.90 125.11 m
3.82 0 l
o
np
80.81 123.20 m
0 3.82 l
o
np
79.51 129.75 m
3.82 0 l
o
np
81.42 127.84 m
0 3.82 l
o
np
80.13 134.52 m
3.82 0 l
o
np
82.04 132.61 m
0 3.82 l
o
np
80.74 139.36 m
3.82 0 l
o
np
82.65 137.45 m
0 3.82 l
o
np
81.36 144.22 m
3.81 0 l
o
np
83.26 142.31 m
0 3.82 l
o
np
81.97 149.07 m
3.82 0 l
o
np
83.88 147.16 m
0 3.82 l
o
np
82.58 153.87 m
3.82 0 l
o
np
84.49 151.97 m
0 3.81 l
o
np
83.20 158.61 m
3.82 0 l
o
np
85.11 156.70 m
0 3.82 l
o
np
83.81 163.25 m
3.82 0 l
o
np
85.72 161.34 m
0 3.82 l
o
np
84.43 167.78 m
3.81 0 l
o
np
86.34 165.87 m
0 3.82 l
o
np
85.04 172.20 m
3.82 0 l
o
np
86.95 170.29 m
0 3.82 l
o
np
85.65 176.48 m
3.82 0 l
o
np
87.56 174.57 m
0 3.82 l
o
np
86.27 180.63 m
3.82 0 l
o
np
88.18 178.73 m
0 3.81 l
o
np
86.88 184.65 m
3.82 0 l
o
np
88.79 182.74 m
0 3.82 l
o
np
87.50 188.52 m
3.82 0 l
o
np
89.41 186.61 m
0 3.82 l
o
np
88.11 192.26 m
3.82 0 l
o
np
90.02 190.35 m
0 3.81 l
o
np
88.73 195.85 m
3.81 0 l
o
np
90.63 193.94 m
0 3.82 l
o
np
89.34 199.30 m
3.82 0 l
o
np
91.25 197.39 m
0 3.82 l
o
np
89.95 202.62 m
3.82 0 l
o
np
91.86 200.71 m
0 3.82 l
o
np
90.57 205.81 m
3.82 0 l
o
np
92.48 203.90 m
0 3.82 l
o
np
91.18 208.86 m
3.82 0 l
o
np
93.09 206.95 m
0 3.82 l
o
np
91.80 211.79 m
3.82 0 l
o
np
93.71 209.88 m
0 3.82 l
o
np
92.41 214.60 m
3.82 0 l
o
np
94.32 212.69 m
0 3.82 l
o
np
93.03 217.28 m
3.81 0 l
o
np
94.93 215.37 m
0 3.82 l
o
np
93.64 219.86 m
3.82 0 l
o
np
95.55 217.95 m
0 3.81 l
o
np
94.25 222.32 m
3.82 0 l
o
np
96.16 220.41 m
0 3.82 l
o
np
94.87 224.67 m
3.82 0 l
o
np
96.78 222.76 m
0 3.82 l
o
np
95.48 226.92 m
3.82 0 l
o
np
97.39 225.01 m
0 3.82 l
o
np
96.10 229.08 m
3.81 0 l
o
np
98.01 227.17 m
0 3.82 l
o
np
96.71 231.14 m
3.82 0 l
o
np
98.62 229.23 m
0 3.82 l
o
np
97.32 233.11 m
3.82 0 l
o
np
99.23 231.20 m
0 3.81 l
o
np
97.94 234.99 m
3.82 0 l
o
np
99.85 233.08 m
0 3.82 l
o
np
98.55 236.78 m
3.82 0 l
o
np
100.46 234.88 m
0 3.81 l
o
np
99.17 238.50 m
3.82 0 l
o
np
101.08 236.59 m
0 3.82 l
o
np
99.78 240.14 m
3.82 0 l
o
np
101.69 238.24 m
0 3.81 l
o
np
100.40 241.71 m
3.81 0 l
o
np
102.30 239.80 m
0 3.82 l
o
np
101.01 243.21 m
3.82 0 l
o
np
102.92 241.30 m
0 3.82 l
o
np
101.62 244.64 m
3.82 0 l
o
np
103.53 242.73 m
0 3.82 l
o
np
102.24 246.01 m
3.82 0 l
o
np
104.15 244.10 m
0 3.82 l
o
np
102.85 247.31 m
3.82 0 l
o
np
104.76 245.41 m
0 3.81 l
o
np
103.47 248.56 m
3.82 0 l
o
np
105.38 246.65 m
0 3.82 l
o
np
104.08 249.75 m
3.82 0 l
o
np
105.99 247.84 m
0 3.82 l
o
np
104.70 250.89 m
3.81 0 l
o
np
106.60 248.98 m
0 3.82 l
o
np
105.31 251.98 m
3.82 0 l
o
np
107.22 250.07 m
0 3.82 l
o
np
105.92 253.01 m
3.82 0 l
o
np
107.83 251.11 m
0 3.81 l
o
np
106.54 254.01 m
3.82 0 l
o
np
108.45 252.10 m
0 3.81 l
o
np
107.15 254.95 m
3.82 0 l
o
np
109.06 253.04 m
0 3.82 l
o
np
107.77 255.86 m
3.81 0 l
o
np
109.68 253.95 m
0 3.81 l
o
np
108.38 256.72 m
3.82 0 l
o
np
110.29 254.81 m
0 3.82 l
o
np
108.99 257.54 m
3.82 0 l
o
np
110.90 255.63 m
0 3.82 l
o
np
109.61 258.33 m
3.82 0 l
o
np
111.52 256.42 m
0 3.82 l
o
np
110.22 259.08 m
3.82 0 l
o
np
112.13 257.17 m
0 3.82 l
o
np
110.84 259.80 m
3.82 0 l
o
np
112.75 257.89 m
0 3.82 l
o
np
111.45 260.48 m
3.82 0 l
o
np
113.36 258.57 m
0 3.82 l
o
np
112.07 261.14 m
3.81 0 l
o
np
113.97 259.23 m
0 3.82 l
o
np
112.68 261.76 m
3.82 0 l
o
np
114.59 259.85 m
0 3.82 l
o
np
113.29 262.36 m
3.82 0 l
o
np
115.20 260.45 m
0 3.82 l
o
np
113.91 262.93 m
3.82 0 l
o
np
115.82 261.02 m
0 3.82 l
o
np
114.52 263.47 m
3.82 0 l
o
np
116.43 261.56 m
0 3.82 l
o
np
115.14 263.99 m
3.82 0 l
o
np
117.05 262.08 m
0 3.82 l
o
np
115.75 264.49 m
3.82 0 l
o
np
117.66 262.58 m
0 3.82 l
o
np
116.37 264.96 m
3.81 0 l
o
np
118.27 263.05 m
0 3.82 l
o
np
116.98 265.41 m
3.82 0 l
o
np
118.89 263.50 m
0 3.82 l
o
np
117.59 265.85 m
3.82 0 l
o
np
119.50 263.94 m
0 3.81 l
o
np
118.21 266.26 m
3.82 0 l
o
np
120.12 264.35 m
0 3.82 l
o
np
118.82 266.65 m
3.82 0 l
o
np
120.73 264.74 m
0 3.82 l
o
np
119.44 267.03 m
3.81 0 l
o
np
121.35 265.12 m
0 3.82 l
o
np
120.05 267.39 m
3.82 0 l
o
np
121.96 265.48 m
0 3.82 l
o
np
120.66 267.73 m
3.82 0 l
o
np
122.57 265.82 m
0 3.82 l
o
np
121.28 268.06 m
3.82 0 l
o
np
123.19 266.15 m
0 3.82 l
o
np
121.89 268.37 m
3.82 0 l
o
np
123.80 266.46 m
0 3.82 l
o
np
122.51 268.67 m
3.82 0 l
o
np
124.42 266.76 m
0 3.82 l
o
np
123.12 268.95 m
3.82 0 l
o
np
125.03 267.04 m
0 3.82 l
o
np
123.74 269.22 m
3.81 0 l
o
np
125.64 267.32 m
0 3.81 l
o
np
124.35 269.48 m
3.82 0 l
o
np
126.26 267.58 m
0 3.81 l
o
np
124.96 269.73 m
3.82 0 l
o
np
126.87 267.82 m
0 3.82 l
o
np
125.58 269.97 m
3.82 0 l
o
np
127.49 268.06 m
0 3.82 l
o
np
126.19 270.20 m
3.82 0 l
o
np
128.10 268.29 m
0 3.81 l
o
np
126.81 270.41 m
3.82 0 l
o
np
128.72 268.50 m
0 3.82 l
o
np
127.42 270.62 m
3.82 0 l
o
np
129.33 268.71 m
0 3.82 l
o
np
128.04 270.81 m
3.81 0 l
o
np
129.94 268.91 m
0 3.81 l
o
np
128.65 271.00 m
3.82 0 l
o
np
130.56 269.09 m
0 3.82 l
o
np
129.26 271.18 m
3.82 0 l
o
np
131.17 269.27 m
0 3.82 l
o
np
129.88 271.35 m
3.82 0 l
o
np
131.79 269.44 m
0 3.82 l
o
np
130.49 271.52 m
3.82 0 l
o
np
132.40 269.61 m
0 3.82 l
o
np
131.11 271.67 m
3.81 0 l
o
np
133.02 269.76 m
0 3.82 l
o
np
131.72 271.82 m
3.82 0 l
o
np
133.63 269.91 m
0 3.82 l
o
np
132.33 271.97 m
3.82 0 l
o
np
134.24 270.06 m
0 3.81 l
o
np
132.95 272.10 m
3.82 0 l
o
np
134.86 270.19 m
0 3.82 l
o
np
133.56 272.23 m
3.82 0 l
o
np
135.47 270.32 m
0 3.82 l
o
np
134.18 272.36 m
3.82 0 l
o
np
136.09 270.45 m
0 3.81 l
o
np
134.79 272.47 m
3.82 0 l
o
np
136.70 270.56 m
0 3.82 l
o
np
135.41 272.59 m
3.81 0 l
o
np
137.31 270.68 m
0 3.82 l
o
np
136.02 272.70 m
3.82 0 l
o
np
137.93 270.79 m
0 3.81 l
o
np
136.63 272.80 m
3.82 0 l
o
np
138.54 270.89 m
0 3.82 l
o
np
137.25 272.90 m
3.82 0 l
o
np
139.16 270.99 m
0 3.82 l
o
np
137.86 272.99 m
3.82 0 l
o
np
139.77 271.08 m
0 3.82 l
o
np
138.48 273.08 m
3.82 0 l
o
np
140.39 271.17 m
0 3.82 l
o
np
139.09 273.17 m
3.82 0 l
o
np
141.00 271.26 m
0 3.82 l
o
np
139.71 273.25 m
3.81 0 l
o
np
141.61 271.34 m
0 3.82 l
o
np
140.32 273.33 m
3.82 0 l
o
np
142.23 271.42 m
0 3.82 l
o
np
140.93 273.40 m
3.82 0 l
o
np
142.84 271.49 m
0 3.82 l
o
np
141.55 273.47 m
3.82 0 l
o
np
143.46 271.56 m
0 3.82 l
o
np
142.16 273.54 m
3.82 0 l
o
np
144.07 271.63 m
0 3.82 l
o
np
142.78 273.61 m
3.81 0 l
o
np
144.69 271.70 m
0 3.81 l
o
np
143.39 273.67 m
3.82 0 l
o
np
145.30 271.76 m
0 3.82 l
o
np
144.00 273.73 m
3.82 0 l
o
np
145.91 271.82 m
0 3.82 l
o
np
144.62 273.78 m
3.82 0 l
o
np
146.53 271.87 m
0 3.82 l
o
np
145.23 273.84 m
3.82 0 l
o
np
147.14 271.93 m
0 3.82 l
o
np
145.85 273.89 m
3.82 0 l
o
np
147.76 271.98 m
0 3.82 l
o
np
146.46 273.94 m
3.82 0 l
o
np
148.37 272.03 m
0 3.82 l
o
np
147.08 273.99 m
3.81 0 l
o
np
148.98 272.08 m
0 3.81 l
o
np
147.69 274.03 m
3.82 0 l
o
np
149.60 272.12 m
0 3.82 l
o
np
148.30 274.03 m
3.82 0 l
o
np
150.21 272.12 m
0 3.82 l
o
np
148.92 273.99 m
3.82 0 l
o
np
150.83 272.08 m
0 3.81 l
o
np
149.53 273.94 m
3.82 0 l
o
np
151.44 272.03 m
0 3.82 l
o
np
150.15 273.89 m
3.82 0 l
o
np
152.06 271.98 m
0 3.82 l
o
np
150.76 273.84 m
3.82 0 l
o
np
152.67 271.93 m
0 3.82 l
o
np
151.38 273.78 m
3.81 0 l
o
np
153.28 271.87 m
0 3.82 l
o
np
151.99 273.73 m
3.82 0 l
o
np
153.90 271.82 m
0 3.82 l
o
np
152.60 273.67 m
3.82 0 l
o
np
154.51 271.76 m
0 3.82 l
o
np
153.22 273.61 m
3.82 0 l
o
np
155.13 271.70 m
0 3.81 l
o
np
153.83 273.54 m
3.82 0 l
o
np
155.74 271.63 m
0 3.82 l
o
np
154.45 273.47 m
3.81 0 l
o
np
156.36 271.56 m
0 3.82 l
o
np
155.06 273.40 m
3.82 0 l
o
np
156.97 271.49 m
0 3.82 l
o
np
155.67 273.33 m
3.82 0 l
o
np
157.58 271.42 m
0 3.82 l
o
np
156.29 273.25 m
3.82 0 l
o
np
158.20 271.34 m
0 3.82 l
o
np
156.90 273.17 m
3.82 0 l
o
np
158.81 271.26 m
0 3.82 l
o
np
157.52 273.08 m
3.82 0 l
o
np
159.43 271.17 m
0 3.82 l
o
np
158.13 272.99 m
3.82 0 l
o
np
160.04 271.08 m
0 3.82 l
o
np
158.75 272.90 m
3.81 0 l
o
np
160.65 270.99 m
0 3.82 l
o
np
159.36 272.80 m
3.82 0 l
o
np
161.27 270.89 m
0 3.82 l
o
np
159.97 272.70 m
3.82 0 l
o
np
161.88 270.79 m
0 3.81 l
o
np
160.59 272.59 m
3.82 0 l
o
np
162.50 270.68 m
0 3.82 l
o
np
161.20 272.47 m
3.82 0 l
o
np
163.11 270.56 m
0 3.82 l
o
np
161.82 272.36 m
3.82 0 l
o
np
163.73 270.45 m
0 3.81 l
o
np
162.43 272.23 m
3.82 0 l
o
np
164.34 270.32 m
0 3.82 l
o
np
163.05 272.10 m
3.81 0 l
o
np
164.95 270.19 m
0 3.82 l
o
np
163.66 271.97 m
3.82 0 l
o
np
165.57 270.06 m
0 3.81 l
o
np
164.27 271.82 m
3.82 0 l
o
np
166.18 269.91 m
0 3.82 l
o
np
164.89 271.67 m
3.82 0 l
o
np
166.80 269.76 m
0 3.82 l
o
np
165.50 271.52 m
3.82 0 l
o
np
167.41 269.61 m
0 3.82 l
o
np
166.12 271.35 m
3.81 0 l
o
np
168.03 269.44 m
0 3.82 l
o
np
166.73 271.18 m
3.82 0 l
o
np
168.64 269.27 m
0 3.82 l
o
np
167.34 271.00 m
3.82 0 l
o
np
169.25 269.09 m
0 3.82 l
o
np
167.96 270.81 m
3.82 0 l
o
np
169.87 268.91 m
0 3.81 l
o
np
168.57 270.62 m
3.82 0 l
o
np
170.48 268.71 m
0 3.82 l
o
np
169.19 270.41 m
3.82 0 l
o
np
171.10 268.50 m
0 3.82 l
o
np
169.80 270.20 m
3.82 0 l
o
np
171.71 268.29 m
0 3.81 l
o
np
170.42 269.97 m
3.81 0 l
o
np
172.32 268.06 m
0 3.82 l
o
np
171.03 269.73 m
3.82 0 l
o
np
172.94 267.82 m
0 3.82 l
o
np
171.64 269.48 m
3.82 0 l
o
np
173.55 267.58 m
0 3.81 l
o
np
172.26 269.22 m
3.82 0 l
o
np
174.17 267.32 m
0 3.81 l
o
np
172.87 268.95 m
3.82 0 l
o
np
174.78 267.04 m
0 3.82 l
o
np
173.49 268.67 m
3.82 0 l
o
np
175.40 266.76 m
0 3.82 l
o
np
174.10 268.37 m
3.82 0 l
o
np
176.01 266.46 m
0 3.82 l
o
np
174.72 268.06 m
3.81 0 l
o
np
176.62 266.15 m
0 3.82 l
o
np
175.33 267.73 m
3.82 0 l
o
np
177.24 265.82 m
0 3.82 l
o
np
175.94 267.39 m
3.82 0 l
o
np
177.85 265.48 m
0 3.82 l
o
np
176.56 267.03 m
3.82 0 l
o
np
178.47 265.12 m
0 3.82 l
o
np
177.17 266.65 m
3.82 0 l
o
np
179.08 264.74 m
0 3.82 l
o
np
177.79 266.26 m
3.81 0 l
o
np
179.70 264.35 m
0 3.82 l
o
np
178.40 265.85 m
3.82 0 l
o
np
180.31 263.94 m
0 3.81 l
o
np
179.01 265.41 m
3.82 0 l
o
np
180.92 263.50 m
0 3.82 l
o
np
179.63 264.96 m
3.82 0 l
o
np
181.54 263.05 m
0 3.82 l
o
np
180.24 264.49 m
3.82 0 l
o
np
182.15 262.58 m
0 3.82 l
o
np
180.86 263.99 m
3.82 0 l
o
np
182.77 262.08 m
0 3.82 l
o
np
181.47 263.47 m
3.82 0 l
o
np
183.38 261.56 m
0 3.82 l
o
np
182.09 262.93 m
3.81 0 l
o
np
183.99 261.02 m
0 3.82 l
o
np
182.70 262.36 m
3.82 0 l
o
np
184.61 260.45 m
0 3.82 l
o
np
183.31 261.76 m
3.82 0 l
o
np
185.22 259.85 m
0 3.82 l
o
np
183.93 261.14 m
3.82 0 l
o
np
185.84 259.23 m
0 3.82 l
o
np
184.54 260.48 m
3.82 0 l
o
np
186.45 258.57 m
0 3.82 l
o
np
185.16 259.80 m
3.82 0 l
o
np
187.07 257.89 m
0 3.82 l
o
np
185.77 259.08 m
3.82 0 l
o
np
187.68 257.17 m
0 3.82 l
o
np
186.39 258.33 m
3.81 0 l
o
np
188.29 256.42 m
0 3.82 l
o
np
187.00 257.54 m
3.82 0 l
o
np
188.91 255.63 m
0 3.82 l
o
np
187.61 256.72 m
3.82 0 l
o
np
189.52 254.81 m
0 3.82 l
o
np
188.23 255.86 m
3.82 0 l
o
np
190.14 253.95 m
0 3.81 l
o
np
188.84 254.95 m
3.82 0 l
o
np
190.75 253.04 m
0 3.82 l
o
np
189.46 254.01 m
3.81 0 l
o
np
191.37 252.10 m
0 3.81 l
o
np
190.07 253.01 m
3.82 0 l
o
np
191.98 251.11 m
0 3.81 l
o
np
190.68 251.98 m
3.82 0 l
o
np
192.59 250.07 m
0 3.82 l
o
np
191.30 250.89 m
3.82 0 l
o
np
193.21 248.98 m
0 3.82 l
o
np
191.91 249.75 m
3.82 0 l
o
np
193.82 247.84 m
0 3.82 l
o
np
192.53 248.56 m
3.82 0 l
o
np
194.44 246.65 m
0 3.82 l
o
np
193.14 247.31 m
3.82 0 l
o
np
195.05 245.41 m
0 3.81 l
o
np
193.76 246.01 m
3.81 0 l
o
np
195.66 244.10 m
0 3.82 l
o
np
194.37 244.64 m
3.82 0 l
o
np
196.28 242.73 m
0 3.82 l
o
np
194.98 243.21 m
3.82 0 l
o
np
196.89 241.30 m
0 3.82 l
o
np
195.60 241.71 m
3.82 0 l
o
np
197.51 239.80 m
0 3.82 l
o
np
196.21 240.14 m
3.82 0 l
o
np
198.12 238.24 m
0 3.81 l
o
np
196.83 238.50 m
3.82 0 l
o
np
198.74 236.59 m
0 3.82 l
o
np
197.44 236.78 m
3.82 0 l
o
np
199.35 234.88 m
0 3.81 l
o
np
198.06 234.99 m
3.81 0 l
o
np
199.96 233.08 m
0 3.82 l
o
np
198.67 233.11 m
3.82 0 l
o
np
200.58 231.20 m
0 3.81 l
o
np
199.28 231.14 m
3.82 0 l
o
np
201.19 229.23 m
0 3.82 l
o
np
199.90 229.08 m
3.82 0 l
o
np
201.81 227.17 m
0 3.82 l
o
np
200.51 226.92 m
3.82 0 l
o
np
202.42 225.01 m
0 3.82 l
o
np
201.13 224.67 m
3.81 0 l
o
np
203.04 222.76 m
0 3.82 l
o
np
201.74 222.32 m
3.82 0 l
o
np
203.65 220.41 m
0 3.82 l
o
np
202.35 219.86 m
3.82 0 l
o
np
204.26 217.95 m
0 3.81 l
o
np
202.97 217.28 m
3.82 0 l
o
np
204.88 215.37 m
0 3.82 l
o
np
203.58 214.60 m
3.82 0 l
o
np
205.49 212.69 m
0 3.82 l
o
np
204.20 211.79 m
3.82 0 l
o
np
206.11 209.88 m
0 3.82 l
o
np
204.81 208.86 m
3.82 0 l
o
np
206.72 206.95 m
0 3.82 l
o
np
205.43 205.81 m
3.81 0 l
o
np
207.33 203.90 m
0 3.82 l
o
np
206.04 202.62 m
3.82 0 l
o
np
207.95 200.71 m
0 3.82 l
o
np
206.65 199.30 m
3.82 0 l
o
np
208.56 197.39 m
0 3.82 l
o
np
207.27 195.85 m
3.82 0 l
o
np
209.18 193.94 m
0 3.82 l
o
np
207.88 192.26 m
3.82 0 l
o
np
209.79 190.35 m
0 3.81 l
o
np
208.50 188.52 m
3.82 0 l
o
np
210.41 186.61 m
0 3.82 l
o
np
209.11 184.65 m
3.82 0 l
o
np
211.02 182.74 m
0 3.82 l
o
np
209.73 180.63 m
3.81 0 l
o
np
211.63 178.73 m
0 3.81 l
o
np
210.34 176.48 m
3.82 0 l
o
np
212.25 174.57 m
0 3.82 l
o
np
210.95 172.20 m
3.82 0 l
o
np
212.86 170.29 m
0 3.82 l
o
np
211.57 167.78 m
3.82 0 l
o
np
213.48 165.87 m
0 3.82 l
o
np
212.18 163.25 m
3.82 0 l
o
np
214.09 161.34 m
0 3.82 l
o
np
212.80 158.61 m
3.81 0 l
o
np
214.71 156.70 m
0 3.82 l
o
np
213.41 153.87 m
3.82 0 l
o
np
215.32 151.97 m
0 3.81 l
o
np
214.02 149.07 m
3.82 0 l
o
np
215.93 147.16 m
0 3.82 l
o
np
214.64 144.22 m
3.82 0 l
o
np
216.55 142.31 m
0 3.82 l
o
np
215.25 139.36 m
3.82 0 l
o
np
217.16 137.45 m
0 3.82 l
o
np
215.87 134.52 m
3.82 0 l
o
np
217.78 132.61 m
0 3.82 l
o
np
216.48 129.75 m
3.82 0 l
o
np
218.39 127.84 m
0 3.82 l
o
np
217.10 125.11 m
3.81 0 l
o
np
219.00 123.20 m
0 3.82 l
o
np
217.71 120.66 m
3.82 0 l
o
np
219.62 118.75 m
0 3.82 l
o
np
218.32 116.47 m
3.82 0 l
o
np
220.23 114.56 m
0 3.82 l
o
np
218.94 112.61 m
3.82 0 l
o
np
220.85 110.70 m
0 3.82 l
o
np
219.55 109.17 m
3.82 0 l
o
np
221.46 107.26 m
0 3.82 l
o
np
220.17 106.21 m
3.82 0 l
o
np
222.08 104.31 m
0 3.81 l
o
np
220.78 103.81 m
3.82 0 l
o
np
222.69 101.90 m
0 3.81 l
o
np
221.40 101.97 m
3.81 0 l
o
np
223.30 100.07 m
0 3.81 l
o
np
222.01 100.71 m
3.82 0 l
o
np
223.92 98.80 m
0 3.82 l
o
np
222.62 99.95 m
3.82 0 l
o
np
224.53 98.04 m
0 3.82 l
o
np
223.24 99.58 m
3.82 0 l
o
np
225.15 97.67 m
0 3.82 l
o
np
223.85 99.45 m
3.82 0 l
o
np
225.76 97.54 m
0 3.82 l
o
np
224.47 99.42 m
3.81 0 l
o
np
226.38 97.52 m
0 3.81 l
o
np
225.08 99.42 m
3.82 0 l
o
np
226.99 97.51 m
0 3.82 l
o
np
225.69 99.42 m
3.82 0 l
o
np
227.60 97.51 m
0 3.82 l
o
np
226.31 99.42 m
3.82 0 l
o
np
228.22 97.51 m
0 3.82 l
o
0.6784 0.8471 0.9020 srgb
71.59 99.42 1.35 c p1
72.21 99.42 1.35 c p1
72.82 99.42 1.35 c p1
73.44 99.42 1.35 c p1
74.05 99.45 1.35 c p1
74.67 99.58 1.35 c p1
75.28 99.95 1.35 c p1
75.89 100.71 1.35 c p1
76.51 101.97 1.35 c p1
77.12 103.81 1.35 c p1
77.74 106.21 1.35 c p1
78.35 109.17 1.35 c p1
78.96 112.61 1.35 c p1
79.58 116.47 1.35 c p1
80.19 120.66 1.35 c p1
80.81 125.11 1.35 c p1
81.42 129.75 1.35 c p1
82.04 134.52 1.35 c p1
82.65 139.36 1.35 c p1
83.26 144.22 1.35 c p1
83.88 149.07 1.35 c p1
84.49 153.87 1.35 c p1
85.11 158.61 1.35 c p1
85.72 163.25 1.35 c p1
86.34 167.78 1.35 c p1
86.95 172.20 1.35 c p1
87.56 176.48 1.35 c p1
88.18 180.63 1.35 c p1
88.79 184.65 1.35 c p1
89.41 188.52 1.35 c p1
90.02 192.26 1.35 c p1
90.63 195.85 1.35 c p1
91.25 199.30 1.35 c p1
91.86 202.62 1.35 c p1
92.48 205.81 1.35 c p1
93.09 208.86 1.35 c p1
93.71 211.79 1.35 c p1
94.32 214.60 1.35 c p1
94.93 217.28 1.35 c p1
95.55 219.86 1.35 c p1
96.16 222.32 1.35 c p1
96.78 224.67 1.35 c p1
97.39 226.92 1.35 c p1
98.01 229.08 1.35 c p1
98.62 231.14 1.35 c p1
99.23 233.11 1.35 c p1
99.85 234.99 1.35 c p1
100.46 236.78 1.35 c p1
101.08 238.50 1.35 c p1
101.69 240.14 1.35 c p1
102.30 241.71 1.35 c p1
102.92 243.21 1.35 c p1
103.53 244.64 1.35 c p1
104.15 246.01 1.35 c p1
104.76 247.31 1.35 c p1
105.38 248.56 1.35 c p1
105.99 249.75 1.35 c p1
106.60 250.89 1.35 c p1
107.22 251.98 1.35 c p1
107.83 253.01 1.35 c p1
108.45 254.01 1.35 c p1
109.06 254.95 1.35 c p1
109.68 255.86 1.35 c p1
110.29 256.72 1.35 c p1
110.90 257.54 1.35 c p1
111.52 258.33 1.35 c p1
112.13 259.08 1.35 c p1
112.75 259.80 1.35 c p1
113.36 260.48 1.35 c p1
113.97 261.14 1.35 c p1
114.59 261.76 1.35 c p1
115.20 262.36 1.35 c p1
115.82 262.93 1.35 c p1
116.43 263.47 1.35 c p1
117.05 263.99 1.35 c p1
117.66 264.49 1.35 c p1
118.27 264.96 1.35 c p1
118.89 265.41 1.35 c p1
119.50 265.85 1.35 c p1
120.12 266.26 1.35 c p1
120.73 266.65 1.35 c p1
121.35 267.03 1.35 c p1
121.96 267.39 1.35 c p1
122.57 267.73 1.35 c p1
123.19 268.06 1.35 c p1
123.80 268.37 1.35 c p1
124.42 268.67 1.35 c p1
125.03 268.95 1.35 c p1
125.64 269.22 1.35 c p1
126.26 269.48 1.35 c p1
126.87 269.73 1.35 c p1
127.49 269.97 1.35 c p1
128.10 270.20 1.35 c p1
128.72 270.41 1.35 c p1
129.33 270.62 1.35 c p1
129.94 270.81 1.35 c p1
130.56 271.00 1.35 c p1
131.17 271.18 1.35 c p1
131.79 271.35 1.35 c p1
132.40 271.52 1.35 c p1
133.02 271.67 1.35 c p1
133.63 271.82 1.35 c p1
134.24 271.97 1.35 c p1
134.86 272.10 1.35 c p1
135.47 272.23 1.35 c p1
136.09 272.36 1.35 c p1
136.70 272.47 1.35 c p1
137.31 272.59 1.35 c p1
137.93 272.70 1.35 c p1
138.54 272.80 1.35 c p1
139.16 272.90 1.35 c p1
139.77 272.99 1.35 c p1
140.39 273.08 1.35 c p1
141.00 273.17 1.35 c p1
141.61 273.25 1.35 c p1
142.23 273.33 1.35 c p1
142.84 273.40 1.35 c p1
143.46 273.47 1.35 c p1
144.07 273.54 1.35 c p1
144.69 273.61 1.35 c p1
145.30 273.67 1.35 c p1
145.91 273.73 1.35 c p1
146.53 273.78 1.35 c p1
147.14 273.84 1.35 c p1
147.76 273.89 1.35 c p1
148.37 273.94 1.35 c p1
148.98 273.99 1.35 c p1
149.60 274.03 1.35 c p1
150.21 274.07 1.35 c p1
150.83 274.11 1.35 c p1
151.44 274.15 1.35 c p1
152.06 274.19 1.35 c p1
152.67 274.23 1.35 c p1
153.28 274.26 1.35 c p1
153.90 274.29 1.35 c p1
154.51 274.32 1.35 c p1
155.13 274.35 1.35 c p1
155.74 274.38 1.35 c p1
156.36 274.41 1.35 c p1
156.97 274.43 1.35 c p1
157.58 274.46 1.35 c p1
158.20 274.48 1.35 c p1
158.81 274.51 1.35 c p1
159.43 274.53 1.35 c p1
160.04 274.55 1.35 c p1
160.65 274.57 1.35 c p1
161.27 274.59 1.35 c p1
161.88 274.60 1.35 c p1
162.50 274.62 1.35 c p1
163.11 274.64 1.35 c p1
163.73 274.65 1.35 c p1
164.34 274.67 1.35 c p1
164.95 274.68 1.35 c p1
165.57 274.69 1.35 c p1
166.18 274.71 1.35 c p1
166.80 274.72 1.35 c p1
167.41 274.73 1.35 c p1
168.03 274.74 1.35 c p1
168.64 274.75 1.35 c p1
169.25 274.76 1.35 c p1
169.87 274.77 1.35 c p1
170.48 274.78 1.35 c p1
171.10 274.79 1.35 c p1
171.71 274.80 1.35 c p1
172.32 274.81 1.35 c p1
172.94 274.82 1.35 c p1
173.55 274.82 1.35 c p1
174.17 274.83 1.35 c p1
174.78 274.84 1.35 c p1
175.40 274.84 1.35 c p1
176.01 274.85 1.35 c p1
176.62 274.86 1.35 c p1
177.24 274.86 1.35 c p1
177.85 274.87 1.35 c p1
178.47 274.87 1.35 c p1
179.08 274.88 1.35 c p1
179.70 274.88 1.35 c p1
180.31 274.89 1.35 c p1
180.92 274.89 1.35 c p1
181.54 274.89 1.35 c p1
182.15 274.90 1.35 c p1
182.77 274.90 1.35 c p1
183.38 274.91 1.35 c p1
183.99 274.91 1.35 c p1
184.61 274.91 1.35 c p1
185.22 274.92 1.35 c p1
185.84 274.92 1.35 c p1
186.45 274.92 1.35 c p1
187.07 274.92 1.35 c p1
187.68 274.93 1.35 c p1
188.29 274.93 1.35 c p1
188.91 274.93 1.35 c p1
189.52 274.93 1.35 c p1
190.14 274.94 1.35 c p1
190.75 274.94 1.35 c p1
191.37 274.94 1.35 c p1
191.98 274.94 1.35 c p1
192.59 274.94 1.35 c p1
193.21 274.94 1.35 c p1
193.82 274.95 1.35 c p1
194.44 274.95 1.35 c p1
195.05 274.95 1.35 c p1
195.66 274.95 1.35 c p1
196.28 274.95 1.35 c p1
196.89 274.95 1.35 c p1
197.51 274.95 1.35 c p1
198.12 274.96 1.35 c p1
198.74 274.96 1.35 c p1
199.35 274.96 1.35 c p1
199.96 274.96 1.35 c p1
200.58 274.96 1.35 c p1
201.19 274.96 1.35 c p1
201.81 274.96 1.35 c p1
202.42 274.96 1.35 c p1
203.04 274.96 1.35 c p1
203.65 274.96 1.35 c p1
204.26 274.96 1.35 c p1
204.88 274.97 1.35 c p1
205.49 274.97 1.35 c p1
206.11 274.97 1.35 c p1
206.72 274.97 1.35 c p1
207.33 274.97 1.35 c p1
207.95 274.97 1.35 c p1
208.56 274.97 1.35 c p1
209.18 274.97 1.35 c p1
209.79 274.97 1.35 c p1
210.41 274.97 1.35 c p1
211.02 274.97 1.35 c p1
211.63 274.97 1.35 c p1
212.25 274.97 1.35 c p1
212.86 274.97 1.35 c p1
213.48 274.97 1.35 c p1
214.09 274.97 1.35 c p1
214.71 274.97 1.35 c p1
215.32 274.97 1.35 c p1
215.93 274.97 1.35 c p1
216.55 274.97 1.35 c p1
217.16 274.97 1.35 c p1
217.78 274.97 1.35 c p1
218.39 274.97 1.35 c p1
219.00 274.98 1.35 c p1
219.62 274.98 1.35 c p1
220.23 274.98 1.35 c p1
220.85 274.98 1.35 c p1
221.46 274.98 1.35 c p1
222.08 274.98 1.35 c p1
222.69 274.98 1.35 c p1
223.30 274.98 1.35 c p1
223.92 274.98 1.35 c p1
224.53 274.98 1.35 c p1
225.15 274.98 1.35 c p1
225.76 274.98 1.35 c p1
226.38 274.98 1.35 c p1
226.99 274.98 1.35 c p1
227.60 274.98 1.35 c p1
228.22 274.98 1.35 c p1
228.83 274.98 1.35 c p1
229.45 274.98 1.35 c p1
230.06 274.98 1.35 c p1
230.67 274.98 1.35 c p1
231.29 274.98 1.35 c p1
231.90 274.98 1.35 c p1
232.52 274.98 1.35 c p1
233.13 274.98 1.35 c p1
233.75 274.98 1.35 c p1
234.36 274.98 1.35 c p1
234.97 274.98 1.35 c p1
235.59 274.98 1.35 c p1
236.20 274.98 1.35 c p1
236.82 274.98 1.35 c p1
237.43 274.98 1.35 c p1
238.05 274.98 1.35 c p1
238.66 274.97 1.35 c p1
239.27 274.97 1.35 c p1
239.89 274.97 1.35 c p1
240.50 274.97 1.35 c p1
241.12 274.97 1.35 c p1
241.73 274.97 1.35 c p1
242.34 274.97 1.35 c p1
242.96 274.97 1.35 c p1
243.57 274.97 1.35 c p1
244.19 274.97 1.35 c p1
244.80 274.97 1.35 c p1
245.42 274.97 1.35 c p1
246.03 274.97 1.35 c p1
246.64 274.97 1.35 c p1
247.26 274.97 1.35 c p1
247.87 274.97 1.35 c p1
248.49 274.97 1.35 c p1
249.10 274.97 1.35 c p1
249.72 274.97 1.35 c p1
250.33 274.97 1.35 c p1
250.94 274.97 1.35 c p1
251.56 274.97 1.35 c p1
252.17 274.97 1.35 c p1
252.79 274.96 1.35 c p1
253.40 274.96 1.35 c p1
254.01 274.96 1.35 c p1
254.63 274.96 1.35 c p1
255.24 274.96 1.35 c p1
255.86 274.96 1.35 c p1
256.47 274.96 1.35 c p1
257.09 274.96 1.35 c p1
257.70 274.96 1.35 c p1
258.31 274.96 1.35 c p1
258.93 274.96 1.35 c p1
259.54 274.95 1.35 c p1
260.16 274.95 1.35 c p1
260.77 274.95 1.35 c p1
261.39 274.95 1.35 c p1
262.00 274.95 1.35 c p1
262.61 274.95 1.35 c p1
263.23 274.95 1.35 c p1
263.84 274.94 1.35 c p1
264.46 274.94 1.35 c p1
265.07 274.94 1.35 c p1
265.68 274.94 1.35 c p1
266.30 274.94 1.35 c p1
266.91 274.94 1.35 c p1
267.53 274.93 1.35 c p1
268.14 274.93 1.35 c p1
268.76 274.93 1.35 c p1
269.37 274.93 1.35 c p1
269.98 274.92 1.35 c p1
270.60 274.92 1.35 c p1
271.21 274.92 1.35 c p1
271.83 274.92 1.35 c p1
272.44 274.91 1.35 c p1
273.06 274.91 1.35 c p1
273.67 274.91 1.35 c p1
274.28 274.90 1.35 c p1
274.90 274.90 1.35 c p1
275.51 274.89 1.35 c p1
276.13 274.89 1.35 c p1
276.74 274.89 1.35 c p1
277.35 274.88 1.35 c p1
277.97 274.88 1.35 c p1
278.58 274.87 1.35 c p1
279.20 274.87 1.35 c p1
279.81 274.86 1.35 c p1
280.43 274.86 1.35 c p1
281.04 274.85 1.35 c p1
281.65 274.84 1.35 c p1
282.27 274.84 1.35 c p1
282.88 274.83 1.35 c p1
283.50 274.82 1.35 c p1
284.11 274.82 1.35 c p1
284.73 274.81 1.35 c p1
285.34 274.80 1.35 c p1
285.95 274.79 1.35 c p1
286.57 274.78 1.35 c p1
287.18 274.77 1.35 c p1
287.80 274.76 1.35 c p1
288.41 274.75 1.35 c p1
289.02 274.74 1.35 c p1
289.64 274.73 1.35 c p1
290.25 274.72 1.35 c p1
290.87 274.71 1.35 c p1
291.48 274.69 1.35 c p1
292.10 274.68 1.35 c p1
292.71 274.67 1.35 c p1
293.32 274.65 1.35 c p1
293.94 274.64 1.35 c p1
294.55 274.62 1.35 c p1
295.17 274.60 1.35 c p1
295.78 274.59 1.35 c p1
296.40 274.57 1.35 c p1
297.01 274.55 1.35 c p1
297.62 274.53 1.35 c p1
298.24 274.51 1.35 c p1
298.85 274.48 1.35 c p1
299.47 274.46 1.35 c p1
300.08 274.43 1.35 c p1
300.69 274.41 1.35 c p1
301.31 274.38 1.35 c p1
301.92 274.35 1.35 c p1
302.54 274.32 1.35 c p1
303.15 274.29 1.35 c p1
303.77 274.26 1.35 c p1
304.38 274.23 1.35 c p1
304.99 274.19 1.35 c p1
305.61 274.15 1.35 c p1
306.22 274.11 1.35 c p1
306.84 274.07 1.35 c p1
307.45 274.03 1.35 c p1
308.07 273.99 1.35 c p1
308.68 273.94 1.35 c p1
309.29 273.89 1.35 c p1
309.91 273.84 1.35 c p1
310.52 273.78 1.35 c p1
311.14 273.73 1.35 c p1
311.75 273.67 1.35 c p1
312.36 273.61 1.35 c p1
312.98 273.54 1.35 c p1
313.59 273.47 1.35 c p1
314.21 273.40 1.35 c p1
314.82 273.33 1.35 c p1
315.44 273.25 1.35 c p1
316.05 273.17 1.35 c p1
316.66 273.08 1.35 c p1
317.28 272.99 1.35 c p1
317.89 272.90 1.35 c p1
318.51 272.80 1.35 c p1
319.12 272.70 1.35 c p1
319.74 272.59 1.35 c p1
320.35 272.47 1.35 c p1
320.96 272.36 1.35 c p1
321.58 272.23 1.35 c p1
322.19 272.10 1.35 c p1
322.81 271.97 1.35 c p1
323.42 271.82 1.35 c p1
324.03 271.67 1.35 c p1
324.65 271.52 1.35 c p1
325.26 271.35 1.35 c p1
325.88 271.18 1.35 c p1
326.49 271.00 1.35 c p1
327.11 270.81 1.35 c p1
327.72 270.62 1.35 c p1
328.33 270.41 1.35 c p1
328.95 270.20 1.35 c p1
329.56 269.97 1.35 c p1
330.18 269.73 1.35 c p1
330.79 269.48 1.35 c p1
331.41 269.22 1.35 c p1
332.02 268.95 1.35 c p1
332.63 268.67 1.35 c p1
333.25 268.37 1.35 c p1
333.86 268.06 1.35 c p1
334.48 267.73 1.35 c p1
335.09 267.39 1.35 c p1
335.70 267.03 1.35 c p1
336.32 266.65 1.35 c p1
336.93 266.26 1.35 c p1
337.55 265.85 1.35 c p1
338.16 265.41 1.35 c p1
338.78 264.96 1.35 c p1
339.39 264.49 1.35 c p1
340.00 263.99 1.35 c p1
340.62 263.47 1.35 c p1
341.23 262.93 1.35 c p1
341.85 262.36 1.35 c p1
342.46 261.76 1.35 c p1
343.08 261.14 1.35 c p1
343.69 260.48 1.35 c p1
344.30 259.80 1.35 c p1
344.92 259.08 1.35 c p1
345.53 258.33 1.35 c p1
346.15 257.54 1.35 c p1
346.76 256.72 1.35 c p1
347.37 255.86 1.35 c p1
347.99 254.95 1.35 c p1
348.60 254.01 1.35 c p1
349.22 253.01 1.35 c p1
349.83 251.98 1.35 c p1
350.45 250.89 1.35 c p1
351.06 249.75 1.35 c p1
351.67 248.56 1.35 c p1
352.29 247.31 1.35 c p1
352.90 246.01 1.35 c p1
353.52 244.64 1.35 c p1
354.13 243.21 1.35 c p1
354.75 241.71 1.35 c p1
355.36 240.14 1.35 c p1
355.97 238.50 1.35 c p1
356.59 236.78 1.35 c p1
357.20 234.99 1.35 c p1
357.82 233.11 1.35 c p1
358.43 231.14 1.35 c p1
359.04 229.08 1.35 c p1
359.66 226.92 1.35 c p1
360.27 224.67 1.35 c p1
360.89 222.32 1.35 c p1
361.50 219.86 1.35 c p1
362.12 217.28 1.35 c p1
362.73 214.60 1.35 c p1
363.34 211.79 1.35 c p1
363.96 208.86 1.35 c p1
364.57 205.81 1.35 c p1
365.19 202.62 1.35 c p1
365.80 199.30 1.35 c p1
366.42 195.85 1.35 c p1
367.03 192.26 1.35 c p1
367.64 188.52 1.35 c p1
368.26 184.65 1.35 c p1
368.87 180.63 1.35 c p1
369.49 176.48 1.35 c p1
370.10 172.20 1.35 c p1
370.71 167.78 1.35 c p1
371.33 163.25 1.35 c p1
371.94 158.61 1.35 c p1
372.56 153.87 1.35 c p1
373.17 149.07 1.35 c p1
373.79 144.22 1.35 c p1
374.40 139.36 1.35 c p1
375.01 134.52 1.35 c p1
375.63 129.75 1.35 c p1
376.24 125.11 1.35 c p1
376.86 120.66 1.35 c p1
377.47 116.47 1.35 c p1
378.09 112.61 1.35 c p1
378.70 109.17 1.35 c p1
379.31 106.21 1.35 c p1
379.93 103.81 1.35 c p1
380.54 101.97 1.35 c p1
381.16 100.71 1.35 c p1
381.77 99.95 1.35 c p1
382.38 99.58 1.35 c p1
383.00 99.45 1.35 c p1
383.61 99.42 1.35 c p1
384.23 99.42 1.35 c p1
384.84 99.42 1.35 c p1
385.46 99.42 1.35 c p1
/bg { 1 1 1 srgb } def
0 0 0 srgb
255.24 260.93 64.12 -67.36 r p3
0.6784 0.8471 0.9020 srgb
273.03 227.26 1.35 c p1
1 0.8431 0 srgb
np
273.03 212.52 m
1.82 -3.15 l
-3.64 0 l
1.82 3.15 l
o
/Font1 findfont 13 s
0 0 0 srgb
256.60 244.09 (P) 0 ta
-0.650 (er) tb
0.195 (iodiz) tb
-0.195 (ed) tb gr
284.08 223.86 (E) 0 0 t
/Font1 findfont 9 s
292.75 221.48 (256) 0 0 t
/Font1 findfont 13 s
284.08 207.02 (E) 0 0 t
/Font1 findfont 9 s
292.75 204.64 (128) 0 0 t
ep
%%Trailer
%%Pages: 1
%%EOF
