%!PS-Adobe-3.0 EPSF-3.0
%%DocumentNeededResources: font Helvetica
%%+ font Helvetica-Bold
%%+ font Helvetica-Oblique
%%+ font Helvetica-BoldOblique
%%+ font Symbol
%%Title: R Graphics Output
%%Creator: R Software
%%Pages: (atend)
%%BoundingBox: 0 0 375 300
%%EndComments
%%BeginProlog
/bp  { gs sRGB gs } def
% begin .ps.prolog
/gs  { gsave } bind def
/gr  { grestore } bind def
/ep  { showpage gr gr } bind def
/m   { moveto } bind def
/l  { rlineto } bind def
/np  { newpath } bind def
/cp  { closepath } bind def
/f   { fill } bind def
/o   { stroke } bind def
/c   { newpath 0 360 arc } bind def
/r   { 4 2 roll moveto 1 copy 3 -1 roll exch 0 exch rlineto 0 rlineto -1 mul 0 exch rlineto closepath } bind def
/p1  { stroke } bind def
/p2  { gsave bg fill grestore newpath } bind def
/p3  { gsave bg fill grestore stroke } bind def
/p6  { gsave bg eofill grestore newpath } bind def
/p7  { gsave bg eofill grestore stroke } bind def
/t   { 5 -2 roll moveto gsave rotate
       1 index stringwidth pop
       mul neg 0 rmoveto show grestore } bind def
/ta  { 4 -2 roll moveto gsave rotate show } bind def
/tb  { 2 -1 roll 0 rmoveto show } bind def
/cl  { grestore gsave newpath 3 index 3 index moveto 1 index
       4 -1 roll lineto  exch 1 index lineto lineto
       closepath clip newpath } bind def
/rgb { setrgbcolor } bind def
/s   { scalefont setfont } bind def
% end   .ps.prolog
/sRGB { [ /CIEBasedABC
          << /DecodeLMN
               [ { dup 0.03928 le
                        {12.92321 div}
                        {0.055 add 1.055 div 2.4 exp }
                     ifelse
                 } bind dup dup
               ]
             /MatrixLMN [0.412457 0.212673 0.019334
                         0.357576 0.715152 0.119192
                         0.180437 0.072175 0.950301]
             /WhitePoint [0.9505 1.0 1.0890]
           >>
         ] setcolorspace } bind def
/srgb { setcolor } bind def
% begin encoding
/WinAnsiEncoding [
 /.notdef /.notdef /.notdef /.notdef /.notdef /.notdef /.notdef /.notdef
 /.notdef /.notdef /.notdef /.notdef /.notdef /.notdef /.notdef /.notdef
 /.notdef /.notdef /.notdef /.notdef /.notdef /.notdef /.notdef /.notdef
 /.notdef /.notdef /.notdef /.notdef /.notdef /.notdef /.notdef /.notdef
 /space /exclam /quotedbl /numbersign /dollar /percent /ampersand /quoteright
 /parenleft /parenright /asterisk /plus /comma /minus /period /slash
 /zero /one /two /three /four /five /six /seven
 /eight /nine /colon /semicolon /less /equal /greater /question
 /at /A /B /C /D /E /F /G
 /H /I /J /K /L /M /N /O
 /P /Q /R /S /T /U /V /W
 /X /Y /Z /bracketleft /backslash /bracketright /asciicircum /underscore
 /grave /a /b /c /d /e /f /g
 /h /i /j /k /l /m /n /o
 /p /q /r /s /t /u /v /w
 /x /y /z /braceleft /bar /braceright /asciitilde /.notdef
 /Euro /.notdef /quotesinglbase /florin /quotedblbase /ellipsis /dagger /daggerdbl
 /circumflex /perthousand /Scaron /guilsinglleft /OE /.notdef /Zcaron /.notdef
 /.notdef /quoteleft /quoteright /quotedblleft /quotedblright /bullet /endash /emdash
 /tilde /trademark /scaron /guilsinglright /oe /.notdef /zcaron /Ydieresis
 /space /exclamdown /cent /sterling /currency /yen /brokenbar /section
 /dieresis /copyright /ordfeminine /guillemotleft /logicalnot /hyphen /registered /macron
 /degree /plusminus /twosuperior /threesuperior /acute /mu /paragraph /periodcentered
 /cedilla /onesuperior /ordmasculine /guillemotright /onequarter /onehalf /threequarters /questiondown
 /Agrave /Aacute /Acircumflex /Atilde /Adieresis /Aring /AE /Ccedilla
 /Egrave /Eacute /Ecircumflex /Edieresis /Igrave /Iacute /Icircumflex /Idieresis
 /Eth /Ntilde /Ograve /Oacute /Ocircumflex /Otilde /Odieresis /multiply
 /Oslash /Ugrave /Uacute /Ucircumflex /Udieresis /Yacute /Thorn /germandbls
 /agrave /aacute /acircumflex /atilde /adieresis /aring /ae /ccedilla
 /egrave /eacute /ecircumflex /edieresis /igrave /iacute /icircumflex /idieresis
 /eth /ntilde /ograve /oacute /ocircumflex /otilde /odieresis /divide
 /oslash /ugrave /uacute /ucircumflex /udieresis /yacute /thorn /ydieresis
]
 def
% end encoding
%%IncludeResource: font Helvetica
/Helvetica findfont
dup length dict begin
  {1 index /FID ne {def} {pop pop} ifelse} forall
  /Encoding WinAnsiEncoding def
  currentdict
  end
/Font1 exch definefont pop
%%IncludeResource: font Helvetica-Bold
/Helvetica-Bold findfont
dup length dict begin
  {1 index /FID ne {def} {pop pop} ifelse} forall
  /Encoding WinAnsiEncoding def
  currentdict
  end
/Font2 exch definefont pop
%%IncludeResource: font Helvetica-Oblique
/Helvetica-Oblique findfont
dup length dict begin
  {1 index /FID ne {def} {pop pop} ifelse} forall
  /Encoding WinAnsiEncoding def
  currentdict
  end
/Font3 exch definefont pop
%%IncludeResource: font Helvetica-BoldOblique
/Helvetica-BoldOblique findfont
dup length dict begin
  {1 index /FID ne {def} {pop pop} ifelse} forall
  /Encoding WinAnsiEncoding def
  currentdict
  end
/Font4 exch definefont pop
%%IncludeResource: font Symbol
/Symbol findfont
dup length dict begin
  {1 index /FID ne {def} {pop pop} ifelse} forall
  currentdict
  end
/Font5 exch definefont pop
%%EndProlog
%%Page: 1 1
bp
0.00 0.00 375.00 300.00 cl
0.00 0.00 375.00 300.00 cl
0.00 0.00 375.00 300.00 cl
0.00 0.00 375.00 300.00 cl
0.00 0.00 375.00 300.00 cl
0.00 0.00 375.00 300.00 cl
0.00 0.00 375.00 300.00 cl
0.00 0.00 375.00 300.00 cl
0.00 0.00 375.00 300.00 cl
/bg { 1 1 1 srgb } def
1 1 1 srgb
1.07 setlinewidth
[] 0 setdash
1 setlinecap
1 setlinejoin
10.00 setmiterlimit
0.00 0.00 375.00 300.00 r p3
0.00 0.00 375.00 300.00 cl
0.00 0.00 375.00 300.00 cl
0.00 0.00 375.00 300.00 cl
50.16 31.35 296.82 294.52 cl
/bg { 0.9216 0.9216 0.9216 srgb } def
50.16 31.35 246.66 263.17 r p2
1 1 1 srgb
0.53 setlinewidth
[] 0 setdash
0 setlinecap
1 setlinejoin
10.00 setmiterlimit
np
50.16 43.31 m
246.66 0 l
o
np
50.16 139.01 m
246.66 0 l
o
np
50.16 234.71 m
246.66 0 l
o
np
61.37 31.35 m
0 263.17 l
o
np
84.97 31.35 m
0 263.17 l
o
np
108.58 31.35 m
0 263.17 l
o
np
132.18 31.35 m
0 263.17 l
o
np
155.78 31.35 m
0 263.17 l
o
np
179.39 31.35 m
0 263.17 l
o
np
202.99 31.35 m
0 263.17 l
o
np
226.60 31.35 m
0 263.17 l
o
np
250.20 31.35 m
0 263.17 l
o
np
273.80 31.35 m
0 263.17 l
o
1.07 setlinewidth
[] 0 setdash
np
50.16 91.16 m
246.66 0 l
o
np
50.16 186.86 m
246.66 0 l
o
np
50.16 282.56 m
246.66 0 l
o
np
73.17 31.35 m
0 263.17 l
o
np
96.77 31.35 m
0 263.17 l
o
np
120.38 31.35 m
0 263.17 l
o
np
143.98 31.35 m
0 263.17 l
o
np
167.59 31.35 m
0 263.17 l
o
np
191.19 31.35 m
0 263.17 l
o
np
214.79 31.35 m
0 263.17 l
o
np
238.40 31.35 m
0 263.17 l
o
np
262.00 31.35 m
0 263.17 l
o
np
285.61 31.35 m
0 263.17 l
o
/bg { 0 0.7490 0.7686 srgb } def
0 0.7490 0.7686 srgb
0.71 setlinewidth
[] 0 setdash
1 setlinecap
61.37 273.52 1.95 c p3
73.17 268.93 1.95 c p3
84.97 262.48 1.95 c p3
96.77 254.99 1.95 c p3
108.58 246.94 1.95 c p3
120.38 238.48 1.95 c p3
132.18 229.56 1.95 c p3
143.98 219.97 1.95 c p3
155.78 209.30 1.95 c p3
167.59 196.62 1.95 c p3
179.39 179.29 1.95 c p3
191.19 138.40 1.95 c p3
202.99 160.83 1.95 c p3
214.79 173.25 1.95 c p3
226.60 177.90 1.95 c p3
238.40 179.73 1.95 c p3
250.20 180.07 1.95 c p3
262.00 179.52 1.95 c p3
273.80 178.34 1.95 c p3
285.61 176.72 1.95 c p3
/bg { 0.9725 0.4627 0.4275 srgb } def
0.9725 0.4627 0.4275 srgb
61.37 269.00 1.95 c p3
73.17 254.91 1.95 c p3
84.97 238.59 1.95 c p3
96.77 219.80 1.95 c p3
108.58 196.99 1.95 c p3
120.38 133.50 1.95 c p3
132.18 172.63 1.95 c p3
143.98 180.07 1.95 c p3
155.78 179.23 1.95 c p3
167.59 176.98 1.95 c p3
179.39 172.22 1.95 c p3
191.19 167.58 1.95 c p3
202.99 161.01 1.95 c p3
214.79 155.06 1.95 c p3
226.60 146.77 1.95 c p3
238.40 139.58 1.95 c p3
250.20 128.52 1.95 c p3
262.00 119.27 1.95 c p3
273.80 99.75 1.95 c p3
285.61 80.93 1.95 c p3
0 0 0 srgb
1.07 setlinewidth
[] 0 setdash
np
50.16 9.86 m
2.83 0 l
o
np
50.16 18.29 m
2.83 0 l
o
np
50.16 24.27 m
2.83 0 l
o
np
50.16 28.90 m
5.67 0 l
o
np
50.16 32.69 m
2.83 0 l
o
np
50.16 35.90 m
2.83 0 l
o
np
50.16 38.67 m
2.83 0 l
o
np
50.16 41.12 m
2.83 0 l
o
np
50.16 43.31 m
8.50 0 l
o
np
50.16 57.71 m
2.83 0 l
o
np
50.16 66.14 m
2.83 0 l
o
np
50.16 72.12 m
2.83 0 l
o
np
50.16 76.75 m
5.67 0 l
o
np
50.16 80.54 m
2.83 0 l
o
np
50.16 83.75 m
2.83 0 l
o
np
50.16 86.52 m
2.83 0 l
o
np
50.16 88.97 m
2.83 0 l
o
np
50.16 91.16 m
8.50 0 l
o
np
50.16 105.56 m
2.83 0 l
o
np
50.16 113.99 m
2.83 0 l
o
np
50.16 119.97 m
2.83 0 l
o
np
50.16 124.60 m
5.67 0 l
o
np
50.16 128.39 m
2.83 0 l
o
np
50.16 131.60 m
2.83 0 l
o
np
50.16 134.37 m
2.83 0 l
o
np
50.16 136.82 m
2.83 0 l
o
np
50.16 139.01 m
8.50 0 l
o
np
50.16 153.41 m
2.83 0 l
o
np
50.16 161.84 m
2.83 0 l
o
np
50.16 167.82 m
2.83 0 l
o
np
50.16 172.45 m
5.67 0 l
o
np
50.16 176.24 m
2.83 0 l
o
np
50.16 179.45 m
2.83 0 l
o
np
50.16 182.22 m
2.83 0 l
o
np
50.16 184.67 m
2.83 0 l
o
np
50.16 186.86 m
8.50 0 l
o
np
50.16 201.26 m
2.83 0 l
o
np
50.16 209.69 m
2.83 0 l
o
np
50.16 215.67 m
2.83 0 l
o
np
50.16 220.30 m
5.67 0 l
o
np
50.16 224.09 m
2.83 0 l
o
np
50.16 227.30 m
2.83 0 l
o
np
50.16 230.07 m
2.83 0 l
o
np
50.16 232.52 m
2.83 0 l
o
np
50.16 234.71 m
8.50 0 l
o
np
50.16 249.11 m
2.83 0 l
o
np
50.16 257.54 m
2.83 0 l
o
np
50.16 263.52 m
2.83 0 l
o
np
50.16 268.15 m
5.67 0 l
o
np
50.16 271.94 m
2.83 0 l
o
np
50.16 275.15 m
2.83 0 l
o
np
50.16 277.92 m
2.83 0 l
o
np
50.16 280.37 m
2.83 0 l
o
np
50.16 282.56 m
8.50 0 l
o
np
50.16 296.96 m
2.83 0 l
o
0.00 0.00 375.00 300.00 cl
0.00 0.00 375.00 300.00 cl
0.00 0.00 375.00 300.00 cl
0.00 0.00 375.00 300.00 cl
0.00 0.00 375.00 300.00 cl
0.00 0.00 375.00 300.00 cl
/Font1 findfont 9 s
0.3020 0.3020 0.3020 srgb
45.22 87.93 (1e-02) 1 0 t
45.22 183.63 (1e+00) 1 0 t
45.22 279.33 (1e+02) 1 0 t
0.00 0.00 375.00 300.00 cl
0.00 0.00 375.00 300.00 cl
0.2000 0.2000 0.2000 srgb
1.07 setlinewidth
[] 0 setdash
0 setlinecap
1 setlinejoin
10.00 setmiterlimit
np
47.42 91.16 m
2.74 0 l
o
np
47.42 186.86 m
2.74 0 l
o
np
47.42 282.56 m
2.74 0 l
o
0.00 0.00 375.00 300.00 cl
0.00 0.00 375.00 300.00 cl
0.00 0.00 375.00 300.00 cl
0.00 0.00 375.00 300.00 cl
0.00 0.00 375.00 300.00 cl
0.00 0.00 375.00 300.00 cl
0.00 0.00 375.00 300.00 cl
0.00 0.00 375.00 300.00 cl
0.2000 0.2000 0.2000 srgb
1.07 setlinewidth
[] 0 setdash
0 setlinecap
1 setlinejoin
10.00 setmiterlimit
np
73.17 28.61 m
0 2.74 l
o
np
96.77 28.61 m
0 2.74 l
o
np
120.38 28.61 m
0 2.74 l
o
np
143.98 28.61 m
0 2.74 l
o
np
167.59 28.61 m
0 2.74 l
o
np
191.19 28.61 m
0 2.74 l
o
np
214.79 28.61 m
0 2.74 l
o
np
238.40 28.61 m
0 2.74 l
o
np
262.00 28.61 m
0 2.74 l
o
np
285.61 28.61 m
0 2.74 l
o
0.00 0.00 375.00 300.00 cl
0.00 0.00 375.00 300.00 cl
/Font1 findfont 9 s
0.3020 0.3020 0.3020 srgb
73.17 19.95 (2) .5 0 t
96.77 19.95 (4) .5 0 t
120.38 19.95 (6) .5 0 t
143.98 19.95 (8) .5 0 t
167.59 19.95 (10) .5 0 t
191.19 19.95 (12) .5 0 t
214.79 19.95 (14) .5 0 t
238.40 19.95 (16) .5 0 t
262.00 19.95 (18) .5 0 t
285.61 19.95 (20) .5 0 t
0.00 0.00 375.00 300.00 cl
0.00 0.00 375.00 300.00 cl
0.00 0.00 375.00 300.00 cl
0.00 0.00 375.00 300.00 cl
/Font1 findfont 11 s
0 0 0 srgb
173.49 7.67 (k) .5 0 t
0.00 0.00 375.00 300.00 cl
0.00 0.00 375.00 300.00 cl
/Font1 findfont 11 s
0 0 0 srgb
15.57 162.93 (Re{FFT\(E\)}) .5 90 t
0.00 0.00 375.00 300.00 cl
0.00 0.00 375.00 300.00 cl
0.00 0.00 375.00 300.00 cl
0.00 0.00 375.00 300.00 cl
/bg { 1 1 1 srgb } def
305.32 134.37 55.69 57.13 r p2
0.00 0.00 375.00 300.00 cl
0.00 0.00 375.00 300.00 cl
/Font2 findfont 12 s
0.8235 0.4118 0.1176 srgb
309.57 178.07 (FFT) 0 0 t
0.00 0.00 375.00 300.00 cl
0.00 0.00 375.00 300.00 cl
/bg { 0.9490 0.9490 0.9490 srgb } def
1 1 1 srgb
1.07 setlinewidth
[] 0 setdash
1 setlinecap
1 setlinejoin
10.00 setmiterlimit
309.57 155.90 17.28 17.28 r p3
0.00 0.00 375.00 300.00 cl
0.00 0.00 375.00 300.00 cl
/bg { 0.9725 0.4627 0.4275 srgb } def
0.9725 0.4627 0.4275 srgb
0.71 setlinewidth
[] 0 setdash
1 setlinecap
1 setlinejoin
10.00 setmiterlimit
318.21 164.54 1.95 c p3
0.00 0.00 375.00 300.00 cl
0.00 0.00 375.00 300.00 cl
/bg { 0.9725 0.4627 0.4275 srgb } def
0.9725 0.4627 0.4275 srgb
0.71 setlinewidth
[] 0 setdash
1 setlinecap
1 setlinejoin
10.00 setmiterlimit
318.21 164.54 1.95 c p3
0.00 0.00 375.00 300.00 cl
0.00 0.00 375.00 300.00 cl
/bg { 0.9490 0.9490 0.9490 srgb } def
1 1 1 srgb
1.07 setlinewidth
[] 0 setdash
1 setlinecap
1 setlinejoin
10.00 setmiterlimit
309.57 138.62 17.28 17.28 r p3
0.00 0.00 375.00 300.00 cl
0.00 0.00 375.00 300.00 cl
/bg { 0 0.7490 0.7686 srgb } def
0 0.7490 0.7686 srgb
0.71 setlinewidth
[] 0 setdash
1 setlinecap
1 setlinejoin
10.00 setmiterlimit
318.21 147.26 1.95 c p3
0.00 0.00 375.00 300.00 cl
0.00 0.00 375.00 300.00 cl
/bg { 0 0.7490 0.7686 srgb } def
0 0.7490 0.7686 srgb
0.71 setlinewidth
[] 0 setdash
1 setlinecap
1 setlinejoin
10.00 setmiterlimit
318.21 147.26 1.95 c p3
0.00 0.00 375.00 300.00 cl
0.00 0.00 375.00 300.00 cl
/Font1 findfont 9 s
0 0 0 srgb
329.01 161.31 (E\(128\)) 0 0 t
0.00 0.00 375.00 300.00 cl
0.00 0.00 375.00 300.00 cl
/Font1 findfont 9 s
0 0 0 srgb
329.01 144.03 (E\(256\)) 0 0 t
0.00 0.00 375.00 300.00 cl
0.00 0.00 375.00 300.00 cl
0.00 0.00 375.00 300.00 cl
0.00 0.00 375.00 300.00 cl
0.00 0.00 375.00 300.00 cl
0.00 0.00 375.00 300.00 cl
ep
%%Trailer
%%Pages: 1
%%EOF
