%!PS-Adobe-3.0 EPSF-3.0
%%DocumentNeededResources: font Helvetica
%%+ font Helvetica-Bold
%%+ font Helvetica-Oblique
%%+ font Helvetica-BoldOblique
%%+ font Symbol
%%Title: R Graphics Output
%%Creator: R Software
%%Pages: (atend)
%%BoundingBox: 0 0 450 300
%%EndComments
%%BeginProlog
/bp  { gs sRGB gs } def
% begin .ps.prolog
/gs  { gsave } bind def
/gr  { grestore } bind def
/ep  { showpage gr gr } bind def
/m   { moveto } bind def
/l  { rlineto } bind def
/np  { newpath } bind def
/cp  { closepath } bind def
/f   { fill } bind def
/o   { stroke } bind def
/c   { newpath 0 360 arc } bind def
/r   { 4 2 roll moveto 1 copy 3 -1 roll exch 0 exch rlineto 0 rlineto -1 mul 0 exch rlineto closepath } bind def
/p1  { stroke } bind def
/p2  { gsave bg fill grestore newpath } bind def
/p3  { gsave bg fill grestore stroke } bind def
/p6  { gsave bg eofill grestore newpath } bind def
/p7  { gsave bg eofill grestore stroke } bind def
/t   { 5 -2 roll moveto gsave rotate
       1 index stringwidth pop
       mul neg 0 rmoveto show grestore } bind def
/ta  { 4 -2 roll moveto gsave rotate show } bind def
/tb  { 2 -1 roll 0 rmoveto show } bind def
/cl  { grestore gsave newpath 3 index 3 index moveto 1 index
       4 -1 roll lineto  exch 1 index lineto lineto
       closepath clip newpath } bind def
/rgb { setrgbcolor } bind def
/s   { scalefont setfont } bind def
% end   .ps.prolog
/sRGB { [ /CIEBasedABC
          << /DecodeLMN
               [ { dup 0.03928 le
                        {12.92321 div}
                        {0.055 add 1.055 div 2.4 exp }
                     ifelse
                 } bind dup dup
               ]
             /MatrixLMN [0.412457 0.212673 0.019334
                         0.357576 0.715152 0.119192
                         0.180437 0.072175 0.950301]
             /WhitePoint [0.9505 1.0 1.0890]
           >>
         ] setcolorspace } bind def
/srgb { setcolor } bind def
% begin encoding
/WinAnsiEncoding [
 /.notdef /.notdef /.notdef /.notdef /.notdef /.notdef /.notdef /.notdef
 /.notdef /.notdef /.notdef /.notdef /.notdef /.notdef /.notdef /.notdef
 /.notdef /.notdef /.notdef /.notdef /.notdef /.notdef /.notdef /.notdef
 /.notdef /.notdef /.notdef /.notdef /.notdef /.notdef /.notdef /.notdef
 /space /exclam /quotedbl /numbersign /dollar /percent /ampersand /quoteright
 /parenleft /parenright /asterisk /plus /comma /minus /period /slash
 /zero /one /two /three /four /five /six /seven
 /eight /nine /colon /semicolon /less /equal /greater /question
 /at /A /B /C /D /E /F /G
 /H /I /J /K /L /M /N /O
 /P /Q /R /S /T /U /V /W
 /X /Y /Z /bracketleft /backslash /bracketright /asciicircum /underscore
 /grave /a /b /c /d /e /f /g
 /h /i /j /k /l /m /n /o
 /p /q /r /s /t /u /v /w
 /x /y /z /braceleft /bar /braceright /asciitilde /.notdef
 /Euro /.notdef /quotesinglbase /florin /quotedblbase /ellipsis /dagger /daggerdbl
 /circumflex /perthousand /Scaron /guilsinglleft /OE /.notdef /Zcaron /.notdef
 /.notdef /quoteleft /quoteright /quotedblleft /quotedblright /bullet /endash /emdash
 /tilde /trademark /scaron /guilsinglright /oe /.notdef /zcaron /Ydieresis
 /space /exclamdown /cent /sterling /currency /yen /brokenbar /section
 /dieresis /copyright /ordfeminine /guillemotleft /logicalnot /hyphen /registered /macron
 /degree /plusminus /twosuperior /threesuperior /acute /mu /paragraph /periodcentered
 /cedilla /onesuperior /ordmasculine /guillemotright /onequarter /onehalf /threequarters /questiondown
 /Agrave /Aacute /Acircumflex /Atilde /Adieresis /Aring /AE /Ccedilla
 /Egrave /Eacute /Ecircumflex /Edieresis /Igrave /Iacute /Icircumflex /Idieresis
 /Eth /Ntilde /Ograve /Oacute /Ocircumflex /Otilde /Odieresis /multiply
 /Oslash /Ugrave /Uacute /Ucircumflex /Udieresis /Yacute /Thorn /germandbls
 /agrave /aacute /acircumflex /atilde /adieresis /aring /ae /ccedilla
 /egrave /eacute /ecircumflex /edieresis /igrave /iacute /icircumflex /idieresis
 /eth /ntilde /ograve /oacute /ocircumflex /otilde /odieresis /divide
 /oslash /ugrave /uacute /ucircumflex /udieresis /yacute /thorn /ydieresis
]
 def
% end encoding
%%IncludeResource: font Helvetica
/Helvetica findfont
dup length dict begin
  {1 index /FID ne {def} {pop pop} ifelse} forall
  /Encoding WinAnsiEncoding def
  currentdict
  end
/Font1 exch definefont pop
%%IncludeResource: font Helvetica-Bold
/Helvetica-Bold findfont
dup length dict begin
  {1 index /FID ne {def} {pop pop} ifelse} forall
  /Encoding WinAnsiEncoding def
  currentdict
  end
/Font2 exch definefont pop
%%IncludeResource: font Helvetica-Oblique
/Helvetica-Oblique findfont
dup length dict begin
  {1 index /FID ne {def} {pop pop} ifelse} forall
  /Encoding WinAnsiEncoding def
  currentdict
  end
/Font3 exch definefont pop
%%IncludeResource: font Helvetica-BoldOblique
/Helvetica-BoldOblique findfont
dup length dict begin
  {1 index /FID ne {def} {pop pop} ifelse} forall
  /Encoding WinAnsiEncoding def
  currentdict
  end
/Font4 exch definefont pop
%%IncludeResource: font Symbol
/Symbol findfont
dup length dict begin
  {1 index /FID ne {def} {pop pop} ifelse} forall
  currentdict
  end
/Font5 exch definefont pop
%%EndProlog
%%Page: 1 1
bp
/bg { 1 1 1 srgb } def
0.00 0.00 450.00 300.00 r p2
59.04 73.44 419.76 240.96 cl
59.04 73.44 419.76 240.96 cl
0.6784 0.8471 0.9020 srgb
0.75 setlinewidth
[] 0 setdash
1 setlinecap
1 setlinejoin
10.00 setmiterlimit
72.40 86.30 1.62 c p1
73.71 80.34 1.62 c p1
75.02 79.64 1.62 c p1
76.33 80.18 1.62 c p1
77.64 80.86 1.62 c p1
78.95 79.90 1.62 c p1
80.26 82.47 1.62 c p1
81.57 84.35 1.62 c p1
82.88 82.43 1.62 c p1
84.19 84.90 1.62 c p1
85.50 84.71 1.62 c p1
86.81 86.99 1.62 c p1
88.12 94.89 1.62 c p1
89.43 96.29 1.62 c p1
90.74 96.57 1.62 c p1
92.05 104.54 1.62 c p1
93.36 104.92 1.62 c p1
94.67 113.31 1.62 c p1
95.98 122.27 1.62 c p1
97.29 121.30 1.62 c p1
98.60 128.94 1.62 c p1
99.91 132.56 1.62 c p1
101.22 136.99 1.62 c p1
102.53 146.75 1.62 c p1
103.84 146.81 1.62 c p1
105.15 154.16 1.62 c p1
106.45 154.49 1.62 c p1
107.76 167.55 1.62 c p1
109.07 170.13 1.62 c p1
110.38 173.06 1.62 c p1
111.69 177.08 1.62 c p1
113.00 182.11 1.62 c p1
114.31 181.97 1.62 c p1
115.62 187.33 1.62 c p1
116.93 186.16 1.62 c p1
118.24 192.04 1.62 c p1
119.55 194.74 1.62 c p1
120.86 200.96 1.62 c p1
122.17 200.85 1.62 c p1
123.48 199.00 1.62 c p1
124.79 203.21 1.62 c p1
126.10 207.26 1.62 c p1
127.41 207.73 1.62 c p1
128.72 208.17 1.62 c p1
130.03 209.76 1.62 c p1
131.34 213.67 1.62 c p1
132.65 215.56 1.62 c p1
133.96 215.13 1.62 c p1
135.27 222.18 1.62 c p1
136.58 217.18 1.62 c p1
137.89 220.38 1.62 c p1
139.20 224.32 1.62 c p1
140.51 219.02 1.62 c p1
141.82 229.53 1.62 c p1
143.13 219.59 1.62 c p1
144.44 225.54 1.62 c p1
145.75 222.49 1.62 c p1
147.06 230.77 1.62 c p1
148.37 224.84 1.62 c p1
149.68 229.90 1.62 c p1
150.99 223.39 1.62 c p1
152.30 234.76 1.62 c p1
153.61 228.87 1.62 c p1
154.92 228.63 1.62 c p1
156.23 228.55 1.62 c p1
157.54 227.75 1.62 c p1
158.85 231.37 1.62 c p1
160.16 227.47 1.62 c p1
161.47 227.38 1.62 c p1
162.78 228.00 1.62 c p1
164.09 231.83 1.62 c p1
165.40 230.54 1.62 c p1
166.71 227.56 1.62 c p1
168.02 226.59 1.62 c p1
169.33 229.44 1.62 c p1
170.64 230.78 1.62 c p1
171.95 233.49 1.62 c p1
173.25 230.01 1.62 c p1
174.56 232.38 1.62 c p1
175.87 224.50 1.62 c p1
177.18 228.43 1.62 c p1
178.49 224.96 1.62 c p1
179.80 231.80 1.62 c p1
181.11 230.63 1.62 c p1
182.42 227.64 1.62 c p1
183.73 225.60 1.62 c p1
185.04 222.88 1.62 c p1
186.35 228.31 1.62 c p1
187.66 231.24 1.62 c p1
188.97 225.26 1.62 c p1
190.28 226.67 1.62 c p1
191.59 225.47 1.62 c p1
192.90 228.70 1.62 c p1
194.21 224.20 1.62 c p1
195.52 222.15 1.62 c p1
196.83 222.99 1.62 c p1
198.14 225.12 1.62 c p1
199.45 226.57 1.62 c p1
200.76 224.00 1.62 c p1
202.07 223.19 1.62 c p1
203.38 220.18 1.62 c p1
204.69 220.78 1.62 c p1
206.00 227.55 1.62 c p1
207.31 220.09 1.62 c p1
208.62 221.82 1.62 c p1
209.93 218.74 1.62 c p1
211.24 216.35 1.62 c p1
212.55 221.30 1.62 c p1
213.86 215.57 1.62 c p1
215.17 217.06 1.62 c p1
216.48 215.16 1.62 c p1
217.79 214.11 1.62 c p1
219.10 210.96 1.62 c p1
220.41 215.87 1.62 c p1
221.72 212.17 1.62 c p1
223.03 213.43 1.62 c p1
224.34 210.23 1.62 c p1
225.65 207.45 1.62 c p1
226.96 207.69 1.62 c p1
228.27 213.35 1.62 c p1
229.58 209.16 1.62 c p1
230.89 209.95 1.62 c p1
232.20 209.24 1.62 c p1
233.51 207.13 1.62 c p1
234.82 211.32 1.62 c p1
236.13 207.01 1.62 c p1
237.44 205.18 1.62 c p1
238.75 207.99 1.62 c p1
240.05 204.45 1.62 c p1
241.36 198.92 1.62 c p1
242.67 200.21 1.62 c p1
243.98 200.54 1.62 c p1
245.29 197.75 1.62 c p1
246.60 196.71 1.62 c p1
247.91 198.44 1.62 c p1
249.22 199.97 1.62 c p1
250.53 198.82 1.62 c p1
251.84 201.28 1.62 c p1
253.15 201.90 1.62 c p1
254.46 199.74 1.62 c p1
255.77 199.09 1.62 c p1
257.08 195.79 1.62 c p1
258.39 194.90 1.62 c p1
259.70 192.68 1.62 c p1
261.01 191.47 1.62 c p1
262.32 196.70 1.62 c p1
263.63 192.72 1.62 c p1
264.94 190.83 1.62 c p1
266.25 189.37 1.62 c p1
267.56 193.05 1.62 c p1
268.87 189.15 1.62 c p1
270.18 193.17 1.62 c p1
271.49 181.66 1.62 c p1
272.80 187.14 1.62 c p1
274.11 187.78 1.62 c p1
275.42 188.18 1.62 c p1
276.73 183.40 1.62 c p1
278.04 189.81 1.62 c p1
279.35 188.71 1.62 c p1
280.66 183.19 1.62 c p1
281.97 175.99 1.62 c p1
283.28 178.02 1.62 c p1
284.59 184.28 1.62 c p1
285.90 181.78 1.62 c p1
287.21 177.55 1.62 c p1
288.52 176.33 1.62 c p1
289.83 179.55 1.62 c p1
291.14 176.25 1.62 c p1
292.45 179.28 1.62 c p1
293.76 174.87 1.62 c p1
295.07 173.61 1.62 c p1
296.38 173.64 1.62 c p1
297.69 180.73 1.62 c p1
299.00 166.51 1.62 c p1
300.31 177.19 1.62 c p1
301.62 166.76 1.62 c p1
302.93 169.92 1.62 c p1
304.24 173.06 1.62 c p1
305.55 167.91 1.62 c p1
306.85 170.44 1.62 c p1
308.16 171.75 1.62 c p1
309.47 170.98 1.62 c p1
310.78 167.63 1.62 c p1
312.09 163.53 1.62 c p1
313.40 166.34 1.62 c p1
314.71 165.17 1.62 c p1
316.02 163.91 1.62 c p1
317.33 164.14 1.62 c p1
318.64 166.60 1.62 c p1
319.95 159.67 1.62 c p1
321.26 161.98 1.62 c p1
322.57 160.66 1.62 c p1
323.88 161.90 1.62 c p1
325.19 163.20 1.62 c p1
326.50 158.60 1.62 c p1
327.81 156.07 1.62 c p1
329.12 155.99 1.62 c p1
330.43 154.94 1.62 c p1
331.74 150.59 1.62 c p1
333.05 153.69 1.62 c p1
334.36 154.86 1.62 c p1
335.67 154.83 1.62 c p1
336.98 147.65 1.62 c p1
338.29 151.26 1.62 c p1
339.60 151.13 1.62 c p1
340.91 153.20 1.62 c p1
342.22 142.90 1.62 c p1
343.53 146.99 1.62 c p1
344.84 149.32 1.62 c p1
346.15 150.16 1.62 c p1
347.46 148.37 1.62 c p1
348.77 149.33 1.62 c p1
350.08 150.03 1.62 c p1
351.39 145.35 1.62 c p1
352.70 145.92 1.62 c p1
354.01 147.55 1.62 c p1
355.32 146.91 1.62 c p1
356.63 142.99 1.62 c p1
357.94 140.27 1.62 c p1
359.25 140.68 1.62 c p1
360.56 136.28 1.62 c p1
361.87 140.16 1.62 c p1
363.18 136.74 1.62 c p1
364.49 139.94 1.62 c p1
365.80 142.50 1.62 c p1
367.11 140.90 1.62 c p1
368.42 134.25 1.62 c p1
369.73 139.15 1.62 c p1
371.04 132.80 1.62 c p1
372.35 139.85 1.62 c p1
373.65 136.53 1.62 c p1
374.96 133.55 1.62 c p1
376.27 135.78 1.62 c p1
377.58 128.58 1.62 c p1
378.89 137.88 1.62 c p1
380.20 128.26 1.62 c p1
381.51 127.60 1.62 c p1
382.82 128.79 1.62 c p1
384.13 127.45 1.62 c p1
385.44 127.09 1.62 c p1
386.75 126.90 1.62 c p1
388.06 125.50 1.62 c p1
389.37 125.74 1.62 c p1
390.68 116.60 1.62 c p1
391.99 120.45 1.62 c p1
393.30 121.78 1.62 c p1
394.61 121.87 1.62 c p1
395.92 123.85 1.62 c p1
397.23 119.62 1.62 c p1
398.54 121.01 1.62 c p1
399.85 122.51 1.62 c p1
401.16 121.38 1.62 c p1
402.47 121.78 1.62 c p1
403.78 118.50 1.62 c p1
405.09 116.67 1.62 c p1
406.40 111.32 1.62 c p1
0.00 0.00 450.00 300.00 cl
0 0 0 srgb
0.75 setlinewidth
[] 0 setdash
1 setlinecap
1 setlinejoin
10.00 setmiterlimit
np
71.09 73.44 m
327.45 0 l
o
np
71.09 73.44 m
0 -7.20 l
o
np
136.58 73.44 m
0 -7.20 l
o
np
202.07 73.44 m
0 -7.20 l
o
np
267.56 73.44 m
0 -7.20 l
o
np
333.05 73.44 m
0 -7.20 l
o
np
398.54 73.44 m
0 -7.20 l
o
/Font1 findfont 12 s
71.09 47.52 (0) .5 0 t
136.58 47.52 (50) .5 0 t
202.07 47.52 (100) .5 0 t
267.56 47.52 (150) .5 0 t
333.05 47.52 (200) .5 0 t
398.54 47.52 (250) .5 0 t
np
59.04 85.82 m
0 140.09 l
o
np
59.04 85.82 m
-7.20 0 l
o
np
59.04 113.84 m
-7.20 0 l
o
np
59.04 141.86 m
-7.20 0 l
o
np
59.04 169.88 m
-7.20 0 l
o
np
59.04 197.89 m
-7.20 0 l
o
np
59.04 225.91 m
-7.20 0 l
o
41.76 85.82 (-2.0) .5 90 t
41.76 141.86 (-1.6) .5 90 t
41.76 197.89 (-1.2) .5 90 t
np
59.04 73.44 m
360.72 0 l
0 167.52 l
-360.72 0 l
0 -167.52 l
o
0.00 0.00 450.00 300.00 cl
/Font1 findfont 12 s
0 0 0 srgb
238.07 18.72 (i) 0 0 t
10.76 152.31 (E) 0 90 t
/Font1 findfont 8 s
12.96 160.31 (i) 0 90 t
59.04 73.44 419.76 240.96 cl
0 1 0 srgb
0.75 setlinewidth
[ 2.25 3.75] 0 setdash
1 setlinecap
1 setlinejoin
10.00 setmiterlimit
np
71.09 73.44 m
0 167.52 l
o
np
406.40 73.44 m
0 167.52 l
o
/bg { 1 1 1 srgb } def
0 0 0 srgb
0.75 setlinewidth
[] 0 setdash
333.05 225.91 57.30 -27.05 r p3
0.6784 0.8471 0.9020 srgb
345.88 212.39 1.62 c p1
/Font1 findfont 14 s
0 0 0 srgb
358.70 208.74 (E) 0 0 t
/Font1 findfont 10 s
368.04 206.17 (256) 0 0 t
0.6784 0.8471 0.9020 srgb
72.40 86.30 1.62 c p1
73.71 80.34 1.62 c p1
75.02 79.64 1.62 c p1
76.33 80.18 1.62 c p1
77.64 80.86 1.62 c p1
78.95 79.90 1.62 c p1
80.26 82.47 1.62 c p1
81.57 84.35 1.62 c p1
82.88 82.43 1.62 c p1
84.19 84.90 1.62 c p1
85.50 84.71 1.62 c p1
86.81 86.99 1.62 c p1
88.12 94.89 1.62 c p1
89.43 96.29 1.62 c p1
90.74 96.57 1.62 c p1
92.05 104.54 1.62 c p1
93.36 104.92 1.62 c p1
94.67 113.31 1.62 c p1
95.98 122.27 1.62 c p1
97.29 121.30 1.62 c p1
98.60 128.94 1.62 c p1
99.91 132.56 1.62 c p1
101.22 136.99 1.62 c p1
102.53 146.75 1.62 c p1
103.84 146.81 1.62 c p1
105.15 154.16 1.62 c p1
106.45 154.49 1.62 c p1
107.76 167.55 1.62 c p1
109.07 170.13 1.62 c p1
110.38 173.06 1.62 c p1
111.69 177.08 1.62 c p1
113.00 182.11 1.62 c p1
114.31 181.97 1.62 c p1
115.62 187.33 1.62 c p1
116.93 186.16 1.62 c p1
118.24 192.04 1.62 c p1
119.55 194.74 1.62 c p1
120.86 200.96 1.62 c p1
122.17 200.85 1.62 c p1
123.48 199.00 1.62 c p1
124.79 203.21 1.62 c p1
126.10 207.26 1.62 c p1
127.41 207.73 1.62 c p1
128.72 208.17 1.62 c p1
130.03 209.76 1.62 c p1
131.34 213.67 1.62 c p1
132.65 215.56 1.62 c p1
133.96 215.13 1.62 c p1
135.27 222.18 1.62 c p1
136.58 217.18 1.62 c p1
137.89 220.38 1.62 c p1
139.20 224.32 1.62 c p1
140.51 219.02 1.62 c p1
141.82 229.53 1.62 c p1
143.13 219.59 1.62 c p1
144.44 225.54 1.62 c p1
145.75 222.49 1.62 c p1
147.06 230.77 1.62 c p1
148.37 224.84 1.62 c p1
149.68 229.90 1.62 c p1
150.99 223.39 1.62 c p1
152.30 234.76 1.62 c p1
153.61 228.87 1.62 c p1
154.92 228.63 1.62 c p1
156.23 228.55 1.62 c p1
157.54 227.75 1.62 c p1
158.85 231.37 1.62 c p1
160.16 227.47 1.62 c p1
161.47 227.38 1.62 c p1
162.78 228.00 1.62 c p1
164.09 231.83 1.62 c p1
165.40 230.54 1.62 c p1
166.71 227.56 1.62 c p1
168.02 226.59 1.62 c p1
169.33 229.44 1.62 c p1
170.64 230.78 1.62 c p1
171.95 233.49 1.62 c p1
173.25 230.01 1.62 c p1
174.56 232.38 1.62 c p1
175.87 224.50 1.62 c p1
177.18 228.43 1.62 c p1
178.49 224.96 1.62 c p1
179.80 231.80 1.62 c p1
181.11 230.63 1.62 c p1
182.42 227.64 1.62 c p1
183.73 225.60 1.62 c p1
185.04 222.88 1.62 c p1
186.35 228.31 1.62 c p1
187.66 231.24 1.62 c p1
188.97 225.26 1.62 c p1
190.28 226.67 1.62 c p1
191.59 225.47 1.62 c p1
192.90 228.70 1.62 c p1
194.21 224.20 1.62 c p1
195.52 222.15 1.62 c p1
196.83 222.99 1.62 c p1
198.14 225.12 1.62 c p1
199.45 226.57 1.62 c p1
200.76 224.00 1.62 c p1
202.07 223.19 1.62 c p1
203.38 220.18 1.62 c p1
204.69 220.78 1.62 c p1
206.00 227.55 1.62 c p1
207.31 220.09 1.62 c p1
208.62 221.82 1.62 c p1
209.93 218.74 1.62 c p1
211.24 216.35 1.62 c p1
212.55 221.30 1.62 c p1
213.86 215.57 1.62 c p1
215.17 217.06 1.62 c p1
216.48 215.16 1.62 c p1
217.79 214.11 1.62 c p1
219.10 210.96 1.62 c p1
220.41 215.87 1.62 c p1
221.72 212.17 1.62 c p1
223.03 213.43 1.62 c p1
224.34 210.23 1.62 c p1
225.65 207.45 1.62 c p1
226.96 207.69 1.62 c p1
228.27 213.35 1.62 c p1
229.58 209.16 1.62 c p1
230.89 209.95 1.62 c p1
232.20 209.24 1.62 c p1
233.51 207.13 1.62 c p1
234.82 211.32 1.62 c p1
236.13 207.01 1.62 c p1
237.44 205.18 1.62 c p1
238.75 207.99 1.62 c p1
240.05 204.45 1.62 c p1
241.36 198.92 1.62 c p1
242.67 200.21 1.62 c p1
243.98 200.54 1.62 c p1
245.29 197.75 1.62 c p1
246.60 196.71 1.62 c p1
247.91 198.44 1.62 c p1
249.22 199.97 1.62 c p1
250.53 198.82 1.62 c p1
251.84 201.28 1.62 c p1
253.15 201.90 1.62 c p1
254.46 199.74 1.62 c p1
255.77 199.09 1.62 c p1
257.08 195.79 1.62 c p1
258.39 194.90 1.62 c p1
259.70 192.68 1.62 c p1
261.01 191.47 1.62 c p1
262.32 196.70 1.62 c p1
263.63 192.72 1.62 c p1
264.94 190.83 1.62 c p1
266.25 189.37 1.62 c p1
267.56 193.05 1.62 c p1
268.87 189.15 1.62 c p1
270.18 193.17 1.62 c p1
271.49 181.66 1.62 c p1
272.80 187.14 1.62 c p1
274.11 187.78 1.62 c p1
275.42 188.18 1.62 c p1
276.73 183.40 1.62 c p1
278.04 189.81 1.62 c p1
279.35 188.71 1.62 c p1
280.66 183.19 1.62 c p1
281.97 175.99 1.62 c p1
283.28 178.02 1.62 c p1
284.59 184.28 1.62 c p1
285.90 181.78 1.62 c p1
287.21 177.55 1.62 c p1
288.52 176.33 1.62 c p1
289.83 179.55 1.62 c p1
291.14 176.25 1.62 c p1
292.45 179.28 1.62 c p1
293.76 174.87 1.62 c p1
295.07 173.61 1.62 c p1
296.38 173.64 1.62 c p1
297.69 180.73 1.62 c p1
299.00 166.51 1.62 c p1
300.31 177.19 1.62 c p1
301.62 166.76 1.62 c p1
302.93 169.92 1.62 c p1
304.24 173.06 1.62 c p1
305.55 167.91 1.62 c p1
306.85 170.44 1.62 c p1
308.16 171.75 1.62 c p1
309.47 170.98 1.62 c p1
310.78 167.63 1.62 c p1
312.09 163.53 1.62 c p1
313.40 166.34 1.62 c p1
314.71 165.17 1.62 c p1
316.02 163.91 1.62 c p1
317.33 164.14 1.62 c p1
318.64 166.60 1.62 c p1
319.95 159.67 1.62 c p1
321.26 161.98 1.62 c p1
322.57 160.66 1.62 c p1
323.88 161.90 1.62 c p1
325.19 163.20 1.62 c p1
326.50 158.60 1.62 c p1
327.81 156.07 1.62 c p1
329.12 155.99 1.62 c p1
330.43 154.94 1.62 c p1
331.74 150.59 1.62 c p1
333.05 153.69 1.62 c p1
334.36 154.86 1.62 c p1
335.67 154.83 1.62 c p1
336.98 147.65 1.62 c p1
338.29 151.26 1.62 c p1
339.60 151.13 1.62 c p1
340.91 153.20 1.62 c p1
342.22 142.90 1.62 c p1
343.53 146.99 1.62 c p1
344.84 149.32 1.62 c p1
346.15 150.16 1.62 c p1
347.46 148.37 1.62 c p1
348.77 149.33 1.62 c p1
350.08 150.03 1.62 c p1
351.39 145.35 1.62 c p1
352.70 145.92 1.62 c p1
354.01 147.55 1.62 c p1
355.32 146.91 1.62 c p1
356.63 142.99 1.62 c p1
357.94 140.27 1.62 c p1
359.25 140.68 1.62 c p1
360.56 136.28 1.62 c p1
361.87 140.16 1.62 c p1
363.18 136.74 1.62 c p1
364.49 139.94 1.62 c p1
365.80 142.50 1.62 c p1
367.11 140.90 1.62 c p1
368.42 134.25 1.62 c p1
369.73 139.15 1.62 c p1
371.04 132.80 1.62 c p1
372.35 139.85 1.62 c p1
373.65 136.53 1.62 c p1
374.96 133.55 1.62 c p1
376.27 135.78 1.62 c p1
377.58 128.58 1.62 c p1
378.89 137.88 1.62 c p1
380.20 128.26 1.62 c p1
381.51 127.60 1.62 c p1
382.82 128.79 1.62 c p1
384.13 127.45 1.62 c p1
385.44 127.09 1.62 c p1
386.75 126.90 1.62 c p1
388.06 125.50 1.62 c p1
389.37 125.74 1.62 c p1
390.68 116.60 1.62 c p1
391.99 120.45 1.62 c p1
393.30 121.78 1.62 c p1
394.61 121.87 1.62 c p1
395.92 123.85 1.62 c p1
397.23 119.62 1.62 c p1
398.54 121.01 1.62 c p1
399.85 122.51 1.62 c p1
401.16 121.38 1.62 c p1
402.47 121.78 1.62 c p1
403.78 118.50 1.62 c p1
405.09 116.67 1.62 c p1
406.40 111.32 1.62 c p1
ep
%%Trailer
%%Pages: 1
%%EOF
