%!PS-Adobe-3.0 EPSF-3.0
%%DocumentNeededResources: font Helvetica
%%+ font Helvetica-Bold
%%+ font Helvetica-Oblique
%%+ font Helvetica-BoldOblique
%%+ font Symbol
%%Title: R Graphics Output
%%Creator: R Software
%%Pages: (atend)
%%BoundingBox: 0 0 375 375
%%EndComments
%%BeginProlog
/bp  { gs sRGB gs } def
% begin .ps.prolog
/gs  { gsave } bind def
/gr  { grestore } bind def
/ep  { showpage gr gr } bind def
/m   { moveto } bind def
/l  { rlineto } bind def
/np  { newpath } bind def
/cp  { closepath } bind def
/f   { fill } bind def
/o   { stroke } bind def
/c   { newpath 0 360 arc } bind def
/r   { 4 2 roll moveto 1 copy 3 -1 roll exch 0 exch rlineto 0 rlineto -1 mul 0 exch rlineto closepath } bind def
/p1  { stroke } bind def
/p2  { gsave bg fill grestore newpath } bind def
/p3  { gsave bg fill grestore stroke } bind def
/p6  { gsave bg eofill grestore newpath } bind def
/p7  { gsave bg eofill grestore stroke } bind def
/t   { 5 -2 roll moveto gsave rotate
       1 index stringwidth pop
       mul neg 0 rmoveto show grestore } bind def
/ta  { 4 -2 roll moveto gsave rotate show } bind def
/tb  { 2 -1 roll 0 rmoveto show } bind def
/cl  { grestore gsave newpath 3 index 3 index moveto 1 index
       4 -1 roll lineto  exch 1 index lineto lineto
       closepath clip newpath } bind def
/rgb { setrgbcolor } bind def
/s   { scalefont setfont } bind def
% end   .ps.prolog
/sRGB { [ /CIEBasedABC
          << /DecodeLMN
               [ { dup 0.03928 le
                        {12.92321 div}
                        {0.055 add 1.055 div 2.4 exp }
                     ifelse
                 } bind dup dup
               ]
             /MatrixLMN [0.412457 0.212673 0.019334
                         0.357576 0.715152 0.119192
                         0.180437 0.072175 0.950301]
             /WhitePoint [0.9505 1.0 1.0890]
           >>
         ] setcolorspace } bind def
/srgb { setcolor } bind def
% begin encoding
/WinAnsiEncoding [
 /.notdef /.notdef /.notdef /.notdef /.notdef /.notdef /.notdef /.notdef
 /.notdef /.notdef /.notdef /.notdef /.notdef /.notdef /.notdef /.notdef
 /.notdef /.notdef /.notdef /.notdef /.notdef /.notdef /.notdef /.notdef
 /.notdef /.notdef /.notdef /.notdef /.notdef /.notdef /.notdef /.notdef
 /space /exclam /quotedbl /numbersign /dollar /percent /ampersand /quoteright
 /parenleft /parenright /asterisk /plus /comma /minus /period /slash
 /zero /one /two /three /four /five /six /seven
 /eight /nine /colon /semicolon /less /equal /greater /question
 /at /A /B /C /D /E /F /G
 /H /I /J /K /L /M /N /O
 /P /Q /R /S /T /U /V /W
 /X /Y /Z /bracketleft /backslash /bracketright /asciicircum /underscore
 /grave /a /b /c /d /e /f /g
 /h /i /j /k /l /m /n /o
 /p /q /r /s /t /u /v /w
 /x /y /z /braceleft /bar /braceright /asciitilde /.notdef
 /Euro /.notdef /quotesinglbase /florin /quotedblbase /ellipsis /dagger /daggerdbl
 /circumflex /perthousand /Scaron /guilsinglleft /OE /.notdef /Zcaron /.notdef
 /.notdef /quoteleft /quoteright /quotedblleft /quotedblright /bullet /endash /emdash
 /tilde /trademark /scaron /guilsinglright /oe /.notdef /zcaron /Ydieresis
 /space /exclamdown /cent /sterling /currency /yen /brokenbar /section
 /dieresis /copyright /ordfeminine /guillemotleft /logicalnot /hyphen /registered /macron
 /degree /plusminus /twosuperior /threesuperior /acute /mu /paragraph /periodcentered
 /cedilla /onesuperior /ordmasculine /guillemotright /onequarter /onehalf /threequarters /questiondown
 /Agrave /Aacute /Acircumflex /Atilde /Adieresis /Aring /AE /Ccedilla
 /Egrave /Eacute /Ecircumflex /Edieresis /Igrave /Iacute /Icircumflex /Idieresis
 /Eth /Ntilde /Ograve /Oacute /Ocircumflex /Otilde /Odieresis /multiply
 /Oslash /Ugrave /Uacute /Ucircumflex /Udieresis /Yacute /Thorn /germandbls
 /agrave /aacute /acircumflex /atilde /adieresis /aring /ae /ccedilla
 /egrave /eacute /ecircumflex /edieresis /igrave /iacute /icircumflex /idieresis
 /eth /ntilde /ograve /oacute /ocircumflex /otilde /odieresis /divide
 /oslash /ugrave /uacute /ucircumflex /udieresis /yacute /thorn /ydieresis
]
 def
% end encoding
%%IncludeResource: font Helvetica
/Helvetica findfont
dup length dict begin
  {1 index /FID ne {def} {pop pop} ifelse} forall
  /Encoding WinAnsiEncoding def
  currentdict
  end
/Font1 exch definefont pop
%%IncludeResource: font Helvetica-Bold
/Helvetica-Bold findfont
dup length dict begin
  {1 index /FID ne {def} {pop pop} ifelse} forall
  /Encoding WinAnsiEncoding def
  currentdict
  end
/Font2 exch definefont pop
%%IncludeResource: font Helvetica-Oblique
/Helvetica-Oblique findfont
dup length dict begin
  {1 index /FID ne {def} {pop pop} ifelse} forall
  /Encoding WinAnsiEncoding def
  currentdict
  end
/Font3 exch definefont pop
%%IncludeResource: font Helvetica-BoldOblique
/Helvetica-BoldOblique findfont
dup length dict begin
  {1 index /FID ne {def} {pop pop} ifelse} forall
  /Encoding WinAnsiEncoding def
  currentdict
  end
/Font4 exch definefont pop
%%IncludeResource: font Symbol
/Symbol findfont
dup length dict begin
  {1 index /FID ne {def} {pop pop} ifelse} forall
  currentdict
  end
/Font5 exch definefont pop
%%EndProlog
%%Page: 1 1
bp
/bg { 1 1 1 srgb } def
0.00 0.00 375.00 375.00 r p2
59.04 73.44 344.76 315.96 cl
59.04 73.44 344.76 315.96 cl
0 0 0 srgb
0.75 setlinewidth
[] 0 setdash
1 setlinecap
1 setlinejoin
10.00 setmiterlimit
73.59 82.42 1.35 c p1
77.56 84.69 1.35 c p1
81.53 103.17 1.35 c p1
85.50 137.73 1.35 c p1
89.46 174.75 1.35 c p1
93.43 206.04 1.35 c p1
97.40 229.28 1.35 c p1
101.37 245.11 1.35 c p1
105.34 254.88 1.35 c p1
109.31 260.27 1.35 c p1
113.27 262.29 1.35 c p1
117.24 261.95 1.35 c p1
121.21 260.05 1.35 c p1
125.18 257.13 1.35 c p1
129.15 253.53 1.35 c p1
133.12 249.60 1.35 c p1
137.08 245.45 1.35 c p1
141.05 241.41 1.35 c p1
145.02 237.37 1.35 c p1
148.99 233.55 1.35 c p1
152.96 229.96 1.35 c p1
156.93 226.47 1.35 c p1
160.89 223.33 1.35 c p1
164.86 220.52 1.35 c p1
168.83 217.83 1.35 c p1
172.80 215.47 1.35 c p1
176.77 213.23 1.35 c p1
180.74 211.32 1.35 c p1
184.70 209.52 1.35 c p1
188.67 207.95 1.35 c p1
192.64 206.49 1.35 c p1
196.61 205.14 1.35 c p1
200.58 204.02 1.35 c p1
204.55 203.01 1.35 c p1
208.51 202.11 1.35 c p1
212.48 201.21 1.35 c p1
216.45 200.54 1.35 c p1
220.42 199.86 1.35 c p1
224.39 199.30 1.35 c p1
228.36 198.74 1.35 c p1
232.32 198.29 1.35 c p1
236.29 197.96 1.35 c p1
240.26 197.51 1.35 c p1
244.23 197.17 1.35 c p1
248.20 196.95 1.35 c p1
252.17 196.72 1.35 c p1
256.13 196.50 1.35 c p1
260.10 196.27 1.35 c p1
264.07 196.05 1.35 c p1
268.04 195.93 1.35 c p1
272.01 195.82 1.35 c p1
275.98 195.71 1.35 c p1
279.94 195.60 1.35 c p1
283.91 195.49 1.35 c p1
287.88 195.37 1.35 c p1
291.85 195.26 1.35 c p1
295.82 195.26 1.35 c p1
299.79 195.15 1.35 c p1
303.75 195.15 1.35 c p1
307.72 195.04 1.35 c p1
311.69 195.04 1.35 c p1
315.66 195.04 1.35 c p1
319.63 194.92 1.35 c p1
323.60 194.92 1.35 c p1
327.56 194.92 1.35 c p1
331.53 194.92 1.35 c p1
335.50 194.81 1.35 c p1
339.47 194.81 1.35 c p1
343.44 194.81 1.35 c p1
347.41 194.81 1.35 c p1
351.37 194.81 1.35 c p1
355.34 194.81 1.35 c p1
359.31 194.81 1.35 c p1
363.28 194.81 1.35 c p1
367.25 194.81 1.35 c p1
371.22 194.70 1.35 c p1
375.18 194.70 1.35 c p1
0.00 0.00 375.00 375.00 cl
0 0 0 srgb
0.75 setlinewidth
[] 0 setdash
1 setlinecap
1 setlinejoin
10.00 setmiterlimit
np
69.62 73.44 m
264.56 0 l
o
np
69.62 73.44 m
0 -7.20 l
o
np
122.53 73.44 m
0 -7.20 l
o
np
175.44 73.44 m
0 -7.20 l
o
np
228.36 73.44 m
0 -7.20 l
o
np
281.27 73.44 m
0 -7.20 l
o
np
334.18 73.44 m
0 -7.20 l
o
/Font1 findfont 12 s
69.62 47.52 (0.0) .5 0 t
122.53 47.52 (0.2) .5 0 t
175.44 47.52 (0.4) .5 0 t
228.36 47.52 (0.6) .5 0 t
281.27 47.52 (0.8) .5 0 t
334.18 47.52 (1.0) .5 0 t
np
59.04 82.42 m
0 224.56 l
o
np
59.04 82.42 m
-7.20 0 l
o
np
59.04 138.56 m
-7.20 0 l
o
np
59.04 194.70 m
-7.20 0 l
o
np
59.04 250.84 m
-7.20 0 l
o
np
59.04 306.98 m
-7.20 0 l
o
41.76 82.42 (0.0) .5 90 t
41.76 138.56 (0.5) .5 90 t
41.76 194.70 (1.0) .5 90 t
41.76 250.84 (1.5) .5 90 t
41.76 306.98 (2.0) .5 90 t
np
59.04 73.44 m
285.72 0 l
0 242.52 l
-285.72 0 l
0 -242.52 l
o
0.00 0.00 375.00 375.00 cl
/Font5 findfont 12 s
0 0 0 srgb
197.78 18.92 (w) 0 0 t
/Font1 findfont 12 s
12.96 194.70 (V) .5 90 t
59.04 73.44 344.76 315.96 cl
1 0 0 srgb
0.75 setlinewidth
[] 0 setdash
1 setlinecap
1 setlinejoin
10.00 setmiterlimit
np
73.59 83.68 m
1.09 -1.89 l
-2.18 0 l
1.09 1.89 l
o
np
77.56 86.26 m
1.09 -1.89 l
-2.18 0 l
1.09 1.89 l
o
np
81.53 106.35 m
1.09 -1.89 l
-2.18 0 l
1.09 1.89 l
o
np
85.50 142.81 m
1.09 -1.89 l
-2.19 0 l
1.10 1.89 l
o
np
89.46 181.12 m
1.09 -1.89 l
-2.18 0 l
1.09 1.89 l
o
np
93.43 212.91 m
1.09 -1.89 l
-2.18 0 l
1.09 1.89 l
o
np
97.40 236.27 m
1.09 -1.89 l
-2.18 0 l
1.09 1.89 l
o
np
101.37 251.99 m
1.09 -1.89 l
-2.18 0 l
1.09 1.89 l
o
np
105.34 261.53 m
1.09 -1.89 l
-2.18 0 l
1.09 1.89 l
o
np
109.31 266.47 m
1.09 -1.89 l
-2.19 0 l
1.10 1.89 l
o
np
113.27 268.04 m
1.09 -1.89 l
-2.18 0 l
1.09 1.89 l
o
np
117.24 267.37 m
1.09 -1.89 l
-2.18 0 l
1.09 1.89 l
o
np
121.21 265.12 m
1.09 -1.89 l
-2.18 0 l
1.09 1.89 l
o
np
125.18 261.75 m
1.09 -1.89 l
-2.18 0 l
1.09 1.89 l
o
np
129.15 257.82 m
1.09 -1.88 l
-2.18 0 l
1.09 1.88 l
o
np
133.12 253.67 m
1.09 -1.89 l
-2.19 0 l
1.10 1.89 l
o
np
137.08 249.18 m
1.09 -1.89 l
-2.18 0 l
1.09 1.89 l
o
np
141.05 244.91 m
1.09 -1.89 l
-2.18 0 l
1.09 1.89 l
o
np
145.02 240.65 m
1.09 -1.89 l
-2.18 0 l
1.09 1.89 l
o
np
148.99 236.60 m
1.09 -1.89 l
-2.18 0 l
1.09 1.89 l
o
np
152.96 232.79 m
1.09 -1.89 l
-2.18 0 l
1.09 1.89 l
o
np
156.93 229.19 m
1.09 -1.89 l
-2.19 0 l
1.10 1.89 l
o
np
160.89 225.94 m
1.09 -1.89 l
-2.18 0 l
1.09 1.89 l
o
np
164.86 222.91 m
1.09 -1.89 l
-2.18 0 l
1.09 1.89 l
o
np
168.83 220.10 m
1.09 -1.89 l
-2.18 0 l
1.09 1.89 l
o
np
172.80 217.63 m
1.09 -1.89 l
-2.18 0 l
1.09 1.89 l
o
np
176.77 215.27 m
1.09 -1.89 l
-2.18 0 l
1.09 1.89 l
o
np
180.74 213.25 m
1.09 -1.89 l
-2.19 0 l
1.10 1.89 l
o
np
184.70 211.34 m
1.09 -1.89 l
-2.18 0 l
1.09 1.89 l
o
np
188.67 209.77 m
1.09 -1.89 l
-2.18 0 l
1.09 1.89 l
o
np
192.64 208.20 m
1.09 -1.89 l
-2.18 0 l
1.09 1.89 l
o
np
196.61 206.85 m
1.09 -1.89 l
-2.18 0 l
1.09 1.89 l
o
np
200.58 205.73 m
1.09 -1.89 l
-2.18 0 l
1.09 1.89 l
o
np
204.55 204.60 m
1.09 -1.88 l
-2.19 0 l
1.10 1.88 l
o
np
208.51 203.59 m
1.09 -1.89 l
-2.18 0 l
1.09 1.89 l
o
np
212.48 202.81 m
1.09 -1.89 l
-2.18 0 l
1.09 1.89 l
o
np
216.45 202.02 m
1.09 -1.89 l
-2.18 0 l
1.09 1.89 l
o
np
220.42 201.35 m
1.09 -1.89 l
-2.18 0 l
1.09 1.89 l
o
np
224.39 200.79 m
1.09 -1.89 l
-2.18 0 l
1.09 1.89 l
o
np
228.36 200.23 m
1.09 -1.89 l
-2.19 0 l
1.10 1.89 l
o
np
232.32 199.66 m
1.09 -1.88 l
-2.18 0 l
1.09 1.88 l
o
np
236.29 199.33 m
1.09 -1.89 l
-2.18 0 l
1.09 1.89 l
o
np
240.26 198.88 m
1.09 -1.89 l
-2.18 0 l
1.09 1.89 l
o
np
244.23 198.54 m
1.09 -1.89 l
-2.18 0 l
1.09 1.89 l
o
np
248.20 198.32 m
1.09 -1.89 l
-2.18 0 l
1.09 1.89 l
o
np
252.17 197.98 m
1.09 -1.89 l
-2.19 0 l
1.10 1.89 l
o
np
256.13 197.76 m
1.09 -1.89 l
-2.18 0 l
1.09 1.89 l
o
np
260.10 197.53 m
1.09 -1.89 l
-2.18 0 l
1.09 1.89 l
o
np
264.07 197.42 m
1.09 -1.89 l
-2.18 0 l
1.09 1.89 l
o
np
268.04 197.19 m
1.09 -1.88 l
-2.18 0 l
1.09 1.88 l
o
np
272.01 197.08 m
1.09 -1.89 l
-2.18 0 l
1.09 1.89 l
o
np
275.98 196.97 m
1.09 -1.89 l
-2.19 0 l
1.10 1.89 l
o
np
279.94 196.86 m
1.09 -1.89 l
-2.18 0 l
1.09 1.89 l
o
np
283.91 196.75 m
1.09 -1.89 l
-2.18 0 l
1.09 1.89 l
o
np
287.88 196.63 m
1.09 -1.89 l
-2.18 0 l
1.09 1.89 l
o
np
291.85 196.52 m
1.09 -1.89 l
-2.18 0 l
1.09 1.89 l
o
np
295.82 196.52 m
1.09 -1.89 l
-2.18 0 l
1.09 1.89 l
o
np
299.79 196.41 m
1.09 -1.89 l
-2.19 0 l
1.10 1.89 l
o
np
303.75 196.41 m
1.09 -1.89 l
-2.18 0 l
1.09 1.89 l
o
np
307.72 196.30 m
1.09 -1.89 l
-2.18 0 l
1.09 1.89 l
o
np
311.69 196.30 m
1.09 -1.89 l
-2.18 0 l
1.09 1.89 l
o
np
315.66 196.30 m
1.09 -1.89 l
-2.18 0 l
1.09 1.89 l
o
np
319.63 196.18 m
1.09 -1.89 l
-2.18 0 l
1.09 1.89 l
o
np
323.60 196.18 m
1.09 -1.89 l
-2.19 0 l
1.10 1.89 l
o
np
327.56 196.18 m
1.09 -1.89 l
-2.18 0 l
1.09 1.89 l
o
np
331.53 196.18 m
1.09 -1.89 l
-2.18 0 l
1.09 1.89 l
o
np
335.50 196.07 m
1.09 -1.89 l
-2.18 0 l
1.09 1.89 l
o
np
339.47 196.07 m
1.09 -1.89 l
-2.18 0 l
1.09 1.89 l
o
np
343.44 196.07 m
1.09 -1.89 l
-2.18 0 l
1.09 1.89 l
o
np
347.41 196.07 m
1.09 -1.89 l
-2.19 0 l
1.10 1.89 l
o
np
351.37 196.07 m
1.09 -1.89 l
-2.18 0 l
1.09 1.89 l
o
np
355.34 196.07 m
1.09 -1.89 l
-2.18 0 l
1.09 1.89 l
o
np
359.31 196.07 m
1.09 -1.89 l
-2.18 0 l
1.09 1.89 l
o
np
363.28 196.07 m
1.09 -1.89 l
-2.18 0 l
1.09 1.89 l
o
np
367.25 196.07 m
1.09 -1.89 l
-2.18 0 l
1.09 1.89 l
o
np
371.22 195.96 m
1.09 -1.89 l
-2.19 0 l
1.10 1.89 l
o
np
375.00 194.07 m
-0.91 0 l
0.91 1.57 l
o
0 0.8039 0 srgb
np
72.45 82.42 m
2.29 0 l
o
np
73.59 81.28 m
0 2.29 l
o
np
76.41 84.06 m
2.29 0 l
o
np
77.56 82.91 m
0 2.29 l
o
np
80.38 98.77 m
2.29 0 l
o
np
81.53 97.62 m
0 2.30 l
o
np
84.35 128.24 m
2.29 0 l
o
np
85.50 127.10 m
0 2.29 l
o
np
88.32 161.48 m
2.29 0 l
o
np
89.46 160.33 m
0 2.29 l
o
np
92.29 190.70 m
2.29 0 l
o
np
93.43 189.56 m
0 2.29 l
o
np
96.26 213.34 m
2.29 0 l
o
np
97.40 212.19 m
0 2.29 l
o
np
100.22 229.28 m
2.29 0 l
o
np
101.37 228.14 m
0 2.29 l
o
np
104.19 239.84 m
2.29 0 l
o
np
105.34 238.69 m
0 2.29 l
o
np
108.16 246.12 m
2.29 0 l
o
np
109.31 244.98 m
0 2.29 l
o
np
112.13 249.27 m
2.29 0 l
o
np
113.27 248.12 m
0 2.29 l
o
np
116.10 249.94 m
2.29 0 l
o
np
117.24 248.79 m
0 2.30 l
o
np
120.06 249.15 m
2.30 0 l
o
np
121.21 248.01 m
0 2.29 l
o
np
124.03 247.25 m
2.29 0 l
o
np
125.18 246.10 m
0 2.29 l
o
np
128.00 244.55 m
2.29 0 l
o
np
129.15 243.41 m
0 2.29 l
o
np
131.97 241.41 m
2.29 0 l
o
np
133.12 240.26 m
0 2.29 l
o
np
135.94 238.15 m
2.29 0 l
o
np
137.08 237.01 m
0 2.29 l
o
np
139.91 234.78 m
2.29 0 l
o
np
141.05 233.64 m
0 2.29 l
o
np
143.87 231.41 m
2.30 0 l
o
np
145.02 230.27 m
0 2.29 l
o
np
147.84 228.27 m
2.29 0 l
o
np
148.99 227.13 m
0 2.29 l
o
np
151.81 225.13 m
2.29 0 l
o
np
152.96 223.98 m
0 2.29 l
o
np
155.78 222.32 m
2.29 0 l
o
np
156.93 221.17 m
0 2.30 l
o
np
159.75 219.63 m
2.29 0 l
o
np
160.89 218.48 m
0 2.29 l
o
np
163.72 217.16 m
2.29 0 l
o
np
164.86 216.01 m
0 2.29 l
o
np
167.68 214.80 m
2.30 0 l
o
np
168.83 213.65 m
0 2.29 l
o
np
171.65 212.78 m
2.29 0 l
o
np
172.80 211.63 m
0 2.29 l
o
np
175.62 210.87 m
2.29 0 l
o
np
176.77 209.72 m
0 2.29 l
o
np
179.59 209.18 m
2.29 0 l
o
np
180.74 208.04 m
0 2.29 l
o
np
183.56 207.61 m
2.29 0 l
o
np
184.70 206.47 m
0 2.29 l
o
np
187.53 206.26 m
2.29 0 l
o
np
188.67 205.12 m
0 2.29 l
o
np
191.49 205.03 m
2.30 0 l
o
np
192.64 203.88 m
0 2.29 l
o
np
195.46 203.91 m
2.29 0 l
o
np
196.61 202.76 m
0 2.29 l
o
np
199.43 202.90 m
2.29 0 l
o
np
200.58 201.75 m
0 2.29 l
o
np
203.40 202.00 m
2.29 0 l
o
np
204.55 200.85 m
0 2.29 l
o
np
207.37 201.21 m
2.29 0 l
o
np
208.51 200.07 m
0 2.29 l
o
np
211.34 200.43 m
2.29 0 l
o
np
212.48 199.28 m
0 2.29 l
o
np
215.30 199.86 m
2.30 0 l
o
np
216.45 198.72 m
0 2.29 l
o
np
219.27 199.30 m
2.29 0 l
o
np
220.42 198.16 m
0 2.29 l
o
np
223.24 198.74 m
2.29 0 l
o
np
224.39 197.60 m
0 2.29 l
o
np
227.21 198.29 m
2.29 0 l
o
np
228.36 197.15 m
0 2.29 l
o
np
231.18 197.84 m
2.29 0 l
o
np
232.32 196.70 m
0 2.29 l
o
np
235.15 197.51 m
2.29 0 l
o
np
236.29 196.36 m
0 2.29 l
o
np
239.11 197.17 m
2.30 0 l
o
np
240.26 196.02 m
0 2.30 l
o
np
243.08 196.95 m
2.29 0 l
o
np
244.23 195.80 m
0 2.29 l
o
np
247.05 196.72 m
2.29 0 l
o
np
248.20 195.58 m
0 2.29 l
o
np
251.02 196.50 m
2.29 0 l
o
np
252.17 195.35 m
0 2.29 l
o
np
254.99 196.27 m
2.29 0 l
o
np
256.13 195.13 m
0 2.29 l
o
np
258.96 196.05 m
2.29 0 l
o
np
260.10 194.90 m
0 2.29 l
o
np
262.92 195.93 m
2.30 0 l
o
np
264.07 194.79 m
0 2.29 l
o
np
266.89 195.82 m
2.29 0 l
o
np
268.04 194.68 m
0 2.29 l
o
np
270.86 195.71 m
2.29 0 l
o
np
272.01 194.56 m
0 2.30 l
o
np
274.83 195.60 m
2.29 0 l
o
np
275.98 194.45 m
0 2.29 l
o
np
278.80 195.49 m
2.29 0 l
o
np
279.94 194.34 m
0 2.29 l
o
np
282.77 195.37 m
2.29 0 l
o
np
283.91 194.23 m
0 2.29 l
o
np
286.73 195.26 m
2.30 0 l
o
np
287.88 194.12 m
0 2.29 l
o
np
290.70 195.26 m
2.29 0 l
o
np
291.85 194.12 m
0 2.29 l
o
np
294.67 195.15 m
2.29 0 l
o
np
295.82 194.00 m
0 2.29 l
o
np
298.64 195.15 m
2.29 0 l
o
np
299.79 194.00 m
0 2.29 l
o
np
302.61 195.04 m
2.29 0 l
o
np
303.75 193.89 m
0 2.29 l
o
np
306.58 195.04 m
2.29 0 l
o
np
307.72 193.89 m
0 2.29 l
o
np
310.54 195.04 m
2.30 0 l
o
np
311.69 193.89 m
0 2.29 l
o
np
314.51 194.92 m
2.29 0 l
o
np
315.66 193.78 m
0 2.29 l
o
np
318.48 194.92 m
2.29 0 l
o
np
319.63 193.78 m
0 2.29 l
o
np
322.45 194.92 m
2.29 0 l
o
np
323.60 193.78 m
0 2.29 l
o
np
326.42 194.92 m
2.29 0 l
o
np
327.56 193.78 m
0 2.29 l
o
np
330.39 194.81 m
2.29 0 l
o
np
331.53 193.67 m
0 2.29 l
o
np
334.35 194.81 m
2.30 0 l
o
np
335.50 193.67 m
0 2.29 l
o
np
338.32 194.81 m
2.29 0 l
o
np
339.47 193.67 m
0 2.29 l
o
np
342.29 194.81 m
2.29 0 l
o
np
343.44 193.67 m
0 2.29 l
o
np
346.26 194.81 m
2.29 0 l
o
np
347.41 193.67 m
0 2.29 l
o
np
350.23 194.81 m
2.29 0 l
o
np
351.37 193.67 m
0 2.29 l
o
np
354.20 194.81 m
2.29 0 l
o
np
355.34 193.67 m
0 2.29 l
o
np
358.16 194.81 m
2.30 0 l
o
np
359.31 193.67 m
0 2.29 l
o
np
362.13 194.81 m
2.29 0 l
o
np
363.28 193.67 m
0 2.29 l
o
np
366.10 194.70 m
2.29 0 l
o
np
367.25 193.55 m
0 2.30 l
o
np
370.07 194.70 m
2.29 0 l
o
np
371.22 193.55 m
0 2.30 l
o
np
374.04 194.70 m
0.96 0 l
o
/bg { 1 1 1 srgb } def
0 0 0 srgb
286.56 301.36 32.77 -78.67 r p3
1 0 0 srgb
np
295.33 273.68 m
3.28 -5.67 l
-6.55 0 l
3.27 5.67 l
o
0 0 0 srgb
295.33 254.16 2.43 c p1
0 0.8039 0 srgb
np
291.90 238.43 m
6.87 0 l
o
np
295.33 234.99 m
0 6.88 l
o
/Font5 findfont 11 s
0 0 0 srgb
298.46 288.11 (g) 0 0 t
/Font1 findfont 8 s
302.98 293.57 (2) 0 0 t
/Font1 findfont 11 s
304.11 265.95 (40) 0 0 t
304.11 250.21 (10) 0 0 t
304.11 234.48 (5) 0 0 t
0.8275 0.8275 0.8275 srgb
0.75 setlinewidth
[ 0.00 3.00] 0 setdash
np
69.62 73.44 m
0 242.52 l
o
np
122.53 73.44 m
0 242.52 l
o
np
175.44 73.44 m
0 242.52 l
o
np
228.36 73.44 m
0 242.52 l
o
np
281.27 73.44 m
0 242.52 l
o
np
334.18 73.44 m
0 242.52 l
o
np
59.04 82.42 m
285.72 0 l
o
np
59.04 138.56 m
285.72 0 l
o
np
59.04 194.70 m
285.72 0 l
o
np
59.04 250.84 m
285.72 0 l
o
np
59.04 306.98 m
285.72 0 l
o
ep
%%Trailer
%%Pages: 1
%%EOF
