%!PS-Adobe-3.0 EPSF-3.0
%%DocumentNeededResources: font Helvetica
%%+ font Helvetica-Bold
%%+ font Helvetica-Oblique
%%+ font Helvetica-BoldOblique
%%+ font Symbol
%%Title: R Graphics Output
%%Creator: R Software
%%Pages: (atend)
%%BoundingBox: 0 0 392 347
%%EndComments
%%BeginProlog
/bp  { gs sRGB gs } def
% begin .ps.prolog
/gs  { gsave } bind def
/gr  { grestore } bind def
/ep  { showpage gr gr } bind def
/m   { moveto } bind def
/l  { rlineto } bind def
/np  { newpath } bind def
/cp  { closepath } bind def
/f   { fill } bind def
/o   { stroke } bind def
/c   { newpath 0 360 arc } bind def
/r   { 4 2 roll moveto 1 copy 3 -1 roll exch 0 exch rlineto 0 rlineto -1 mul 0 exch rlineto closepath } bind def
/p1  { stroke } bind def
/p2  { gsave bg fill grestore newpath } bind def
/p3  { gsave bg fill grestore stroke } bind def
/p6  { gsave bg eofill grestore newpath } bind def
/p7  { gsave bg eofill grestore stroke } bind def
/t   { 5 -2 roll moveto gsave rotate
       1 index stringwidth pop
       mul neg 0 rmoveto show grestore } bind def
/ta  { 4 -2 roll moveto gsave rotate show } bind def
/tb  { 2 -1 roll 0 rmoveto show } bind def
/cl  { grestore gsave newpath 3 index 3 index moveto 1 index
       4 -1 roll lineto  exch 1 index lineto lineto
       closepath clip newpath } bind def
/rgb { setrgbcolor } bind def
/s   { scalefont setfont } bind def
% end   .ps.prolog
/sRGB { [ /CIEBasedABC
          << /DecodeLMN
               [ { dup 0.03928 le
                        {12.92321 div}
                        {0.055 add 1.055 div 2.4 exp }
                     ifelse
                 } bind dup dup
               ]
             /MatrixLMN [0.412457 0.212673 0.019334
                         0.357576 0.715152 0.119192
                         0.180437 0.072175 0.950301]
             /WhitePoint [0.9505 1.0 1.0890]
           >>
         ] setcolorspace } bind def
/srgb { setcolor } bind def
% begin encoding
/WinAnsiEncoding [
 /.notdef /.notdef /.notdef /.notdef /.notdef /.notdef /.notdef /.notdef
 /.notdef /.notdef /.notdef /.notdef /.notdef /.notdef /.notdef /.notdef
 /.notdef /.notdef /.notdef /.notdef /.notdef /.notdef /.notdef /.notdef
 /.notdef /.notdef /.notdef /.notdef /.notdef /.notdef /.notdef /.notdef
 /space /exclam /quotedbl /numbersign /dollar /percent /ampersand /quoteright
 /parenleft /parenright /asterisk /plus /comma /minus /period /slash
 /zero /one /two /three /four /five /six /seven
 /eight /nine /colon /semicolon /less /equal /greater /question
 /at /A /B /C /D /E /F /G
 /H /I /J /K /L /M /N /O
 /P /Q /R /S /T /U /V /W
 /X /Y /Z /bracketleft /backslash /bracketright /asciicircum /underscore
 /grave /a /b /c /d /e /f /g
 /h /i /j /k /l /m /n /o
 /p /q /r /s /t /u /v /w
 /x /y /z /braceleft /bar /braceright /asciitilde /.notdef
 /Euro /.notdef /quotesinglbase /florin /quotedblbase /ellipsis /dagger /daggerdbl
 /circumflex /perthousand /Scaron /guilsinglleft /OE /.notdef /Zcaron /.notdef
 /.notdef /quoteleft /quoteright /quotedblleft /quotedblright /bullet /endash /emdash
 /tilde /trademark /scaron /guilsinglright /oe /.notdef /zcaron /Ydieresis
 /space /exclamdown /cent /sterling /currency /yen /brokenbar /section
 /dieresis /copyright /ordfeminine /guillemotleft /logicalnot /hyphen /registered /macron
 /degree /plusminus /twosuperior /threesuperior /acute /mu /paragraph /periodcentered
 /cedilla /onesuperior /ordmasculine /guillemotright /onequarter /onehalf /threequarters /questiondown
 /Agrave /Aacute /Acircumflex /Atilde /Adieresis /Aring /AE /Ccedilla
 /Egrave /Eacute /Ecircumflex /Edieresis /Igrave /Iacute /Icircumflex /Idieresis
 /Eth /Ntilde /Ograve /Oacute /Ocircumflex /Otilde /Odieresis /multiply
 /Oslash /Ugrave /Uacute /Ucircumflex /Udieresis /Yacute /Thorn /germandbls
 /agrave /aacute /acircumflex /atilde /adieresis /aring /ae /ccedilla
 /egrave /eacute /ecircumflex /edieresis /igrave /iacute /icircumflex /idieresis
 /eth /ntilde /ograve /oacute /ocircumflex /otilde /odieresis /divide
 /oslash /ugrave /uacute /ucircumflex /udieresis /yacute /thorn /ydieresis
]
 def
% end encoding
%%IncludeResource: font Helvetica
/Helvetica findfont
dup length dict begin
  {1 index /FID ne {def} {pop pop} ifelse} forall
  /Encoding WinAnsiEncoding def
  currentdict
  end
/Font1 exch definefont pop
%%IncludeResource: font Helvetica-Bold
/Helvetica-Bold findfont
dup length dict begin
  {1 index /FID ne {def} {pop pop} ifelse} forall
  /Encoding WinAnsiEncoding def
  currentdict
  end
/Font2 exch definefont pop
%%IncludeResource: font Helvetica-Oblique
/Helvetica-Oblique findfont
dup length dict begin
  {1 index /FID ne {def} {pop pop} ifelse} forall
  /Encoding WinAnsiEncoding def
  currentdict
  end
/Font3 exch definefont pop
%%IncludeResource: font Helvetica-BoldOblique
/Helvetica-BoldOblique findfont
dup length dict begin
  {1 index /FID ne {def} {pop pop} ifelse} forall
  /Encoding WinAnsiEncoding def
  currentdict
  end
/Font4 exch definefont pop
%%IncludeResource: font Symbol
/Symbol findfont
dup length dict begin
  {1 index /FID ne {def} {pop pop} ifelse} forall
  currentdict
  end
/Font5 exch definefont pop
%%EndProlog
%%Page: 1 1
bp
0.00 0.00 391.50 346.50 cl
0.00 0.00 391.50 346.50 cl
0.00 0.00 391.50 346.50 cl
0.00 0.00 391.50 346.50 cl
0.00 0.00 391.50 346.50 cl
0.00 0.00 391.50 346.50 cl
0.00 0.00 391.50 346.50 cl
0.00 0.00 391.50 346.50 cl
0.00 0.00 391.50 346.50 cl
/bg { 1 1 1 srgb } def
1 1 1 srgb
1.07 setlinewidth
[] 0 setdash
1 setlinecap
1 setlinejoin
10.00 setmiterlimit
0.00 0.00 391.50 346.50 r p3
0.00 0.00 391.50 346.50 cl
0.00 0.00 391.50 346.50 cl
0.00 0.00 391.50 346.50 cl
42.40 31.35 330.57 341.02 cl
/bg { 0.9216 0.9216 0.9216 srgb } def
42.40 31.35 288.17 309.67 r p2
1 1 1 srgb
0.53 setlinewidth
[] 0 setdash
0 setlinecap
1 setlinejoin
10.00 setmiterlimit
np
42.40 80.61 m
288.17 0 l
o
np
42.40 151.00 m
288.17 0 l
o
np
42.40 221.38 m
288.17 0 l
o
np
42.40 291.76 m
288.17 0 l
o
np
88.24 31.35 m
0 309.67 l
o
np
153.74 31.35 m
0 309.67 l
o
np
219.23 31.35 m
0 309.67 l
o
np
284.72 31.35 m
0 309.67 l
o
1.07 setlinewidth
[] 0 setdash
np
42.40 45.42 m
288.17 0 l
o
np
42.40 115.80 m
288.17 0 l
o
np
42.40 186.19 m
288.17 0 l
o
np
42.40 256.57 m
288.17 0 l
o
np
42.40 326.95 m
288.17 0 l
o
np
55.50 31.35 m
0 309.67 l
o
np
120.99 31.35 m
0 309.67 l
o
np
186.48 31.35 m
0 309.67 l
o
np
251.98 31.35 m
0 309.67 l
o
np
317.47 31.35 m
0 309.67 l
o
1 0 0 srgb
1.00 setmiterlimit
np
55.50 45.44 m
0.52 0 l
0.53 0 l
0.52 0 l
0.53 0 l
0.52 0 l
0.53 0 l
0.52 0 l
0.53 0.01 l
0.52 0 l
0.53 0 l
0.52 0 l
0.53 0.01 l
0.52 0 l
0.53 0 l
0.52 0 l
0.53 0.01 l
0.52 0 l
0.53 0 l
0.52 0.01 l
0.53 0 l
0.52 0.01 l
0.53 0 l
0.52 0.01 l
0.53 0 l
0.52 0.01 l
0.53 0 l
0.52 0.01 l
0.53 0.01 l
0.52 0.01 l
0.53 0 l
0.52 0.01 l
0.53 0.01 l
0.52 0.01 l
0.53 0.01 l
0.52 0.02 l
0.53 0.01 l
0.52 0.01 l
0.53 0.02 l
0.52 0.01 l
0.53 0.02 l
0.52 0.01 l
0.53 0.02 l
0.52 0.02 l
0.53 0.02 l
0.52 0.02 l
0.53 0.03 l
0.52 0.02 l
0.53 0.03 l
0.52 0.02 l
0.53 0.03 l
0.52 0.03 l
0.53 0.04 l
0.52 0.03 l
0.53 0.04 l
0.52 0.04 l
0.53 0.04 l
0.52 0.04 l
0.53 0.05 l
0.52 0.05 l
0.53 0.05 l
0.52 0.06 l
0.53 0.06 l
0.52 0.06 l
0.53 0.06 l
0.52 0.07 l
0.53 0.07 l
0.52 0.08 l
0.53 0.08 l
0.52 0.08 l
0.53 0.09 l
0.52 0.10 l
0.53 0.10 l
0.52 0.10 l
0.53 0.11 l
0.52 0.12 l
0.53 0.12 l
0.52 0.13 l
0.53 0.13 l
0.52 0.14 l
0.53 0.15 l
0.52 0.15 l
0.53 0.17 l
0.52 0.17 l
0.53 0.18 l
0.52 0.19 l
0.53 0.19 l
0.52 0.21 l
0.53 0.22 l
0.52 0.22 l
0.53 0.24 l
0.52 0.25 l
0.53 0.26 l
0.52 0.27 l
0.53 0.28 l
0.52 0.30 l
0.53 0.31 l
0.52 0.32 l
0.53 0.33 l
0.52 0.35 l
108.00 53.19 lineto
0.52 0.38 l
0.53 0.40 l
0.52 0.41 l
0.53 0.43 l
0.52 0.45 l
0.53 0.46 l
0.52 0.49 l
0.53 0.50 l
0.52 0.52 l
0.53 0.55 l
0.52 0.56 l
0.53 0.59 l
0.52 0.61 l
0.53 0.63 l
0.52 0.65 l
0.53 0.68 l
0.52 0.70 l
0.53 0.73 l
0.52 0.75 l
0.53 0.78 l
0.52 0.80 l
0.53 0.83 l
0.52 0.87 l
0.53 0.89 l
0.52 0.91 l
0.53 0.95 l
0.52 0.98 l
0.53 1.01 l
0.52 1.04 l
0.53 1.08 l
0.52 1.10 l
0.53 1.14 l
0.52 1.18 l
0.53 1.21 l
0.52 1.24 l
0.53 1.28 l
0.52 1.31 l
0.53 1.35 l
0.52 1.39 l
0.53 1.42 l
0.52 1.47 l
0.53 1.50 l
0.52 1.53 l
0.53 1.58 l
0.52 1.62 l
0.53 1.65 l
0.52 1.70 l
0.53 1.73 l
0.52 1.78 l
0.53 1.81 l
0.52 1.86 l
0.53 1.89 l
0.52 1.94 l
0.53 1.97 l
0.52 2.02 l
0.53 2.05 l
0.52 2.10 l
0.53 2.14 l
0.52 2.17 l
0.53 2.22 l
0.52 2.25 l
0.53 2.30 l
0.52 2.33 l
0.53 2.37 l
0.52 2.41 l
0.53 2.45 l
0.52 2.48 l
0.53 2.52 l
0.52 2.55 l
0.53 2.59 l
0.52 2.62 l
0.53 2.66 l
0.52 2.68 l
0.53 2.72 l
0.52 2.75 l
0.53 2.78 l
0.52 2.80 l
0.53 2.83 l
0.52 2.86 l
0.53 2.88 l
0.52 2.91 l
0.53 2.92 l
0.52 2.95 l
0.53 2.96 l
0.52 2.99 l
0.53 2.99 l
0.52 3.02 l
0.53 3.02 l
0.52 3.03 l
0.53 3.05 l
0.52 3.05 l
0.53 3.06 l
0.52 3.05 l
0.53 3.06 l
0.52 3.06 l
0.53 3.06 l
0.52 3.06 l
0.53 3.04 l
0.52 3.04 l
160.50 235.35 lineto
0.52 3.01 l
0.53 3.00 l
0.52 2.98 l
0.53 2.96 l
0.52 2.94 l
0.53 2.92 l
0.52 2.89 l
0.53 2.86 l
0.52 2.83 l
0.53 2.80 l
0.52 2.76 l
0.53 2.72 l
0.52 2.69 l
0.53 2.64 l
0.52 2.60 l
0.53 2.56 l
0.52 2.50 l
0.53 2.46 l
0.52 2.40 l
0.53 2.35 l
0.52 2.29 l
0.53 2.23 l
0.52 2.18 l
0.53 2.11 l
0.52 2.04 l
0.53 1.98 l
0.52 1.91 l
0.53 1.84 l
0.52 1.77 l
0.53 1.70 l
0.52 1.62 l
0.53 1.55 l
0.52 1.46 l
0.53 1.39 l
0.52 1.31 l
0.53 1.23 l
0.52 1.14 l
0.53 1.06 l
0.52 0.98 l
0.53 0.89 l
0.52 0.80 l
0.53 0.72 l
0.52 0.63 l
0.53 0.54 l
0.52 0.45 l
0.53 0.36 l
0.52 0.27 l
0.53 0.18 l
0.52 0.09 l
0.53 0 l
0.52 -0.09 l
0.53 -0.18 l
0.52 -0.27 l
0.53 -0.36 l
0.52 -0.45 l
0.53 -0.54 l
0.52 -0.63 l
0.53 -0.72 l
0.52 -0.80 l
0.53 -0.89 l
0.52 -0.98 l
0.53 -1.06 l
0.52 -1.14 l
0.53 -1.23 l
0.52 -1.31 l
0.53 -1.39 l
0.52 -1.46 l
0.53 -1.55 l
0.52 -1.62 l
0.53 -1.70 l
0.52 -1.77 l
0.53 -1.84 l
0.52 -1.91 l
0.53 -1.98 l
0.52 -2.04 l
0.53 -2.11 l
0.52 -2.18 l
0.53 -2.23 l
0.52 -2.29 l
0.53 -2.35 l
0.52 -2.40 l
0.53 -2.46 l
0.52 -2.50 l
0.53 -2.56 l
0.52 -2.60 l
0.53 -2.64 l
0.52 -2.69 l
0.53 -2.72 l
0.52 -2.76 l
0.53 -2.80 l
0.52 -2.83 l
0.53 -2.86 l
0.52 -2.89 l
0.53 -2.92 l
0.52 -2.94 l
0.53 -2.96 l
0.52 -2.98 l
0.53 -3.00 l
0.52 -3.01 l
213.00 232.32 lineto
0.52 -3.04 l
0.53 -3.04 l
0.52 -3.06 l
0.53 -3.06 l
0.52 -3.06 l
0.53 -3.06 l
0.52 -3.05 l
0.53 -3.06 l
0.52 -3.05 l
0.53 -3.05 l
0.52 -3.03 l
0.53 -3.02 l
0.52 -3.02 l
0.53 -2.99 l
0.52 -2.99 l
0.53 -2.96 l
0.52 -2.95 l
0.53 -2.92 l
0.52 -2.91 l
0.53 -2.88 l
0.52 -2.86 l
0.53 -2.83 l
0.52 -2.80 l
0.53 -2.78 l
0.52 -2.75 l
0.53 -2.72 l
0.52 -2.68 l
0.53 -2.66 l
0.52 -2.62 l
0.53 -2.59 l
0.52 -2.55 l
0.53 -2.52 l
0.52 -2.48 l
0.53 -2.45 l
0.52 -2.41 l
0.53 -2.37 l
0.52 -2.33 l
0.53 -2.30 l
0.52 -2.25 l
0.53 -2.22 l
0.52 -2.17 l
0.53 -2.14 l
0.52 -2.10 l
0.53 -2.05 l
0.52 -2.02 l
0.53 -1.97 l
0.52 -1.94 l
0.53 -1.89 l
0.52 -1.86 l
0.53 -1.81 l
0.52 -1.78 l
0.53 -1.73 l
0.52 -1.70 l
0.53 -1.65 l
0.52 -1.62 l
0.53 -1.58 l
0.52 -1.53 l
0.53 -1.50 l
0.52 -1.47 l
0.53 -1.42 l
0.52 -1.39 l
0.53 -1.35 l
0.52 -1.31 l
0.53 -1.28 l
0.52 -1.24 l
0.53 -1.21 l
0.52 -1.18 l
0.53 -1.14 l
0.52 -1.10 l
0.53 -1.08 l
0.52 -1.04 l
0.53 -1.01 l
0.52 -0.98 l
0.53 -0.95 l
0.52 -0.91 l
0.53 -0.89 l
0.52 -0.87 l
0.53 -0.83 l
0.52 -0.80 l
0.53 -0.78 l
0.52 -0.75 l
0.53 -0.73 l
0.52 -0.70 l
0.53 -0.68 l
0.52 -0.65 l
0.53 -0.63 l
0.52 -0.61 l
0.53 -0.59 l
0.52 -0.56 l
0.53 -0.55 l
0.52 -0.52 l
0.53 -0.50 l
0.52 -0.49 l
0.53 -0.46 l
0.52 -0.45 l
0.53 -0.43 l
0.52 -0.41 l
0.53 -0.40 l
0.52 -0.38 l
265.50 52.82 lineto
0.52 -0.35 l
0.53 -0.33 l
0.52 -0.32 l
0.53 -0.31 l
0.52 -0.30 l
0.53 -0.28 l
0.52 -0.27 l
0.53 -0.26 l
0.52 -0.25 l
0.53 -0.24 l
0.52 -0.22 l
0.53 -0.22 l
0.52 -0.21 l
0.53 -0.19 l
0.52 -0.19 l
0.53 -0.18 l
0.52 -0.17 l
0.53 -0.17 l
0.52 -0.15 l
0.53 -0.15 l
0.52 -0.14 l
0.53 -0.13 l
0.52 -0.13 l
0.53 -0.12 l
0.52 -0.12 l
0.53 -0.11 l
0.52 -0.10 l
0.53 -0.10 l
0.52 -0.10 l
0.53 -0.09 l
0.52 -0.08 l
0.53 -0.08 l
0.52 -0.08 l
0.53 -0.07 l
0.52 -0.07 l
0.53 -0.06 l
0.52 -0.06 l
0.53 -0.06 l
0.52 -0.06 l
0.53 -0.05 l
0.52 -0.05 l
0.53 -0.05 l
0.52 -0.04 l
0.53 -0.04 l
0.52 -0.04 l
0.53 -0.04 l
0.52 -0.03 l
0.53 -0.04 l
0.52 -0.03 l
0.53 -0.03 l
0.52 -0.02 l
0.53 -0.03 l
0.52 -0.02 l
0.53 -0.03 l
0.52 -0.02 l
0.53 -0.02 l
0.52 -0.02 l
0.53 -0.02 l
0.52 -0.01 l
0.53 -0.02 l
0.52 -0.01 l
0.53 -0.02 l
0.52 -0.01 l
0.53 -0.01 l
0.52 -0.02 l
0.53 -0.01 l
0.52 -0.01 l
0.53 -0.01 l
0.52 -0.01 l
0.53 0 l
0.52 -0.01 l
0.53 -0.01 l
0.52 -0.01 l
0.53 0 l
0.52 -0.01 l
0.53 0 l
0.52 -0.01 l
0.53 0 l
0.52 -0.01 l
0.53 0 l
0.52 -0.01 l
0.53 0 l
0.52 0 l
0.53 -0.01 l
0.52 0 l
0.53 0 l
0.52 0 l
0.53 -0.01 l
0.52 0 l
0.53 0 l
0.52 0 l
0.53 -0.01 l
0.52 0 l
0.53 0 l
0.52 0 l
0.53 0 l
0.52 0 l
0.53 0 l
0.52 0 l
o
0 1 0 srgb
np
55.50 45.42 m
0.52 0 l
0.53 0 l
0.52 0 l
0.53 0 l
0.52 0 l
0.53 0 l
0.52 0 l
0.53 0 l
0.52 0 l
0.53 0 l
0.52 0 l
0.53 0 l
0.52 0 l
0.53 0 l
0.52 0 l
0.53 0 l
0.52 0 l
0.53 0 l
0.52 0 l
0.53 0 l
0.52 0 l
0.53 0 l
0.52 0 l
0.53 0 l
0.52 0 l
0.53 0 l
0.52 0 l
0.53 0 l
0.52 0 l
0.53 0 l
0.52 0 l
0.53 0 l
0.52 0 l
0.53 0 l
0.52 0 l
0.53 0 l
0.52 0 l
0.53 0 l
0.52 0 l
0.53 0 l
0.52 0 l
0.53 0 l
0.52 0 l
0.53 0 l
0.52 0 l
0.53 0 l
0.52 0 l
0.53 0 l
0.52 0 l
0.53 0 l
0.52 0 l
0.53 0 l
0.52 0 l
0.53 0 l
0.52 0 l
0.53 0 l
0.52 0 l
0.53 0 l
0.52 0 l
0.53 0 l
0.52 0 l
0.53 0 l
0.52 0 l
0.53 0 l
0.52 0 l
0.53 0 l
0.52 0 l
0.53 0 l
0.52 0 l
0.53 0 l
0.52 0 l
0.53 0 l
0.52 0 l
0.53 0 l
0.52 0 l
0.53 0 l
0.52 0 l
0.53 0 l
0.52 0 l
0.53 0 l
0.52 0 l
0.53 0 l
0.52 0 l
0.53 0 l
0.52 0 l
0.53 0 l
0.52 0 l
0.53 0 l
0.52 0 l
0.53 0 l
0.52 0 l
0.53 0 l
0.52 0 l
0.53 0 l
0.52 0 l
0.53 0 l
0.52 0 l
0.53 0 l
0.52 0 l
108.00 45.42 lineto
0.52 0 l
0.53 0 l
0.52 0 l
0.53 0 l
0.52 0 l
0.53 0 l
0.52 0 l
0.53 0 l
0.52 0 l
0.53 0 l
0.52 0 l
0.53 0 l
0.52 0 l
0.53 0 l
0.52 0 l
0.53 0.01 l
0.52 0 l
0.53 0 l
0.52 0 l
0.53 0 l
0.52 0 l
0.53 0 l
0.52 0 l
0.53 0 l
0.52 0.01 l
0.53 0 l
0.52 0 l
0.53 0 l
0.52 0.01 l
0.53 0 l
0.52 0.01 l
0.53 0 l
0.52 0.01 l
0.53 0.01 l
0.52 0 l
0.53 0.01 l
0.52 0.02 l
0.53 0.01 l
0.52 0.01 l
0.53 0.02 l
0.52 0.02 l
0.53 0.02 l
0.52 0.02 l
0.53 0.03 l
0.52 0.03 l
0.53 0.04 l
0.52 0.04 l
0.53 0.05 l
0.52 0.05 l
0.53 0.06 l
0.52 0.06 l
0.53 0.08 l
0.52 0.08 l
0.53 0.09 l
0.52 0.11 l
0.53 0.12 l
0.52 0.13 l
0.53 0.14 l
0.52 0.16 l
0.53 0.18 l
0.52 0.20 l
0.53 0.22 l
0.52 0.24 l
0.53 0.27 l
0.52 0.30 l
0.53 0.32 l
0.52 0.36 l
0.53 0.40 l
0.52 0.43 l
0.53 0.47 l
0.52 0.52 l
0.53 0.57 l
0.52 0.61 l
0.53 0.68 l
0.52 0.73 l
0.53 0.79 l
0.52 0.86 l
0.53 0.93 l
0.52 1.01 l
0.53 1.09 l
0.52 1.17 l
0.53 1.26 l
0.52 1.35 l
0.53 1.46 l
0.52 1.56 l
0.53 1.66 l
0.52 1.78 l
0.53 1.90 l
0.52 2.02 l
0.53 2.15 l
0.52 2.28 l
0.53 2.41 l
0.52 2.56 l
0.53 2.70 l
0.52 2.85 l
0.53 3.00 l
0.52 3.15 l
0.53 3.31 l
0.52 3.47 l
160.50 103.73 lineto
0.52 3.79 l
0.53 3.95 l
0.52 4.12 l
0.53 4.27 l
0.52 4.43 l
0.53 4.59 l
0.52 4.74 l
0.53 4.89 l
0.52 5.04 l
0.53 5.18 l
0.52 5.30 l
0.53 5.44 l
0.52 5.55 l
0.53 5.67 l
0.52 5.76 l
0.53 5.85 l
0.52 5.93 l
0.53 6.00 l
0.52 6.05 l
0.53 6.08 l
0.52 6.11 l
0.53 6.13 l
0.52 6.11 l
0.53 6.09 l
0.52 6.05 l
0.53 6.00 l
0.52 5.92 l
0.53 5.83 l
0.52 5.73 l
0.53 5.59 l
0.52 5.45 l
0.53 5.29 l
0.52 5.11 l
0.53 4.91 l
0.52 4.69 l
0.53 4.47 l
0.52 4.22 l
0.53 3.95 l
0.52 3.69 l
0.53 3.39 l
0.52 3.09 l
0.53 2.78 l
0.52 2.45 l
0.53 2.12 l
0.52 1.78 l
0.53 1.43 l
0.52 1.08 l
0.53 0.72 l
0.52 0.36 l
0.53 0 l
0.52 -0.36 l
0.53 -0.72 l
0.52 -1.08 l
0.53 -1.43 l
0.52 -1.78 l
0.53 -2.12 l
0.52 -2.45 l
0.53 -2.78 l
0.52 -3.09 l
0.53 -3.39 l
0.52 -3.69 l
0.53 -3.95 l
0.52 -4.22 l
0.53 -4.47 l
0.52 -4.69 l
0.53 -4.91 l
0.52 -5.11 l
0.53 -5.29 l
0.52 -5.45 l
0.53 -5.59 l
0.52 -5.73 l
0.53 -5.83 l
0.52 -5.92 l
0.53 -6.00 l
0.52 -6.05 l
0.53 -6.09 l
0.52 -6.11 l
0.53 -6.13 l
0.52 -6.11 l
0.53 -6.08 l
0.52 -6.05 l
0.53 -6.00 l
0.52 -5.93 l
0.53 -5.85 l
0.52 -5.76 l
0.53 -5.67 l
0.52 -5.55 l
0.53 -5.44 l
0.52 -5.30 l
0.53 -5.18 l
0.52 -5.04 l
0.53 -4.89 l
0.52 -4.74 l
0.53 -4.59 l
0.52 -4.43 l
0.53 -4.27 l
0.52 -4.12 l
0.53 -3.95 l
0.52 -3.79 l
213.00 100.10 lineto
0.52 -3.47 l
0.53 -3.31 l
0.52 -3.15 l
0.53 -3.00 l
0.52 -2.85 l
0.53 -2.70 l
0.52 -2.56 l
0.53 -2.41 l
0.52 -2.28 l
0.53 -2.15 l
0.52 -2.02 l
0.53 -1.90 l
0.52 -1.78 l
0.53 -1.66 l
0.52 -1.56 l
0.53 -1.46 l
0.52 -1.35 l
0.53 -1.26 l
0.52 -1.17 l
0.53 -1.09 l
0.52 -1.01 l
0.53 -0.93 l
0.52 -0.86 l
0.53 -0.79 l
0.52 -0.73 l
0.53 -0.68 l
0.52 -0.61 l
0.53 -0.57 l
0.52 -0.52 l
0.53 -0.47 l
0.52 -0.43 l
0.53 -0.40 l
0.52 -0.36 l
0.53 -0.32 l
0.52 -0.30 l
0.53 -0.27 l
0.52 -0.24 l
0.53 -0.22 l
0.52 -0.20 l
0.53 -0.18 l
0.52 -0.16 l
0.53 -0.14 l
0.52 -0.13 l
0.53 -0.12 l
0.52 -0.11 l
0.53 -0.09 l
0.52 -0.08 l
0.53 -0.08 l
0.52 -0.06 l
0.53 -0.06 l
0.52 -0.05 l
0.53 -0.05 l
0.52 -0.04 l
0.53 -0.04 l
0.52 -0.03 l
0.53 -0.03 l
0.52 -0.02 l
0.53 -0.02 l
0.52 -0.02 l
0.53 -0.02 l
0.52 -0.01 l
0.53 -0.01 l
0.52 -0.02 l
0.53 -0.01 l
0.52 0 l
0.53 -0.01 l
0.52 -0.01 l
0.53 0 l
0.52 -0.01 l
0.53 0 l
0.52 -0.01 l
0.53 0 l
0.52 0 l
0.53 0 l
0.52 -0.01 l
0.53 0 l
0.52 0 l
0.53 0 l
0.52 0 l
0.53 0 l
0.52 0 l
0.53 0 l
0.52 0 l
0.53 -0.01 l
0.52 0 l
0.53 0 l
0.52 0 l
0.53 0 l
0.52 0 l
0.53 0 l
0.52 0 l
0.53 0 l
0.52 0 l
0.53 0 l
0.52 0 l
0.53 0 l
0.52 0 l
0.53 0 l
0.52 0 l
265.50 45.42 lineto
0.52 0 l
0.53 0 l
0.52 0 l
0.53 0 l
0.52 0 l
0.53 0 l
0.52 0 l
0.53 0 l
0.52 0 l
0.53 0 l
0.52 0 l
0.53 0 l
0.52 0 l
0.53 0 l
0.52 0 l
0.53 0 l
0.52 0 l
0.53 0 l
0.52 0 l
0.53 0 l
0.52 0 l
0.53 0 l
0.52 0 l
0.53 0 l
0.52 0 l
0.53 0 l
0.52 0 l
0.53 0 l
0.52 0 l
0.53 0 l
0.52 0 l
0.53 0 l
0.52 0 l
0.53 0 l
0.52 0 l
0.53 0 l
0.52 0 l
0.53 0 l
0.52 0 l
0.53 0 l
0.52 0 l
0.53 0 l
0.52 0 l
0.53 0 l
0.52 0 l
0.53 0 l
0.52 0 l
0.53 0 l
0.52 0 l
0.53 0 l
0.52 0 l
0.53 0 l
0.52 0 l
0.53 0 l
0.52 0 l
0.53 0 l
0.52 0 l
0.53 0 l
0.52 0 l
0.53 0 l
0.52 0 l
0.53 0 l
0.52 0 l
0.53 0 l
0.52 0 l
0.53 0 l
0.52 0 l
0.53 0 l
0.52 0 l
0.53 0 l
0.52 0 l
0.53 0 l
0.52 0 l
0.53 0 l
0.52 0 l
0.53 0 l
0.52 0 l
0.53 0 l
0.52 0 l
0.53 0 l
0.52 0 l
0.53 0 l
0.52 0 l
0.53 0 l
0.52 0 l
0.53 0 l
0.52 0 l
0.53 0 l
0.52 0 l
0.53 0 l
0.52 0 l
0.53 0 l
0.52 0 l
0.53 0 l
0.52 0 l
0.53 0 l
0.52 0 l
0.53 0 l
0.52 0 l
o
0 0 1 srgb
np
55.50 47.32 m
0.52 0.08 l
0.53 0.08 l
0.52 0.08 l
0.53 0.09 l
0.52 0.09 l
0.53 0.09 l
0.52 0.09 l
0.53 0.10 l
0.52 0.11 l
0.53 0.10 l
0.52 0.11 l
0.53 0.12 l
0.52 0.11 l
0.53 0.13 l
0.52 0.12 l
0.53 0.13 l
0.52 0.14 l
0.53 0.13 l
0.52 0.15 l
0.53 0.15 l
0.52 0.15 l
0.53 0.16 l
0.52 0.16 l
0.53 0.17 l
0.52 0.18 l
0.53 0.18 l
0.52 0.18 l
0.53 0.19 l
0.52 0.20 l
0.53 0.21 l
0.52 0.21 l
0.53 0.21 l
0.52 0.23 l
0.53 0.23 l
0.52 0.23 l
0.53 0.25 l
0.52 0.25 l
0.53 0.26 l
0.52 0.27 l
0.53 0.27 l
0.52 0.28 l
0.53 0.30 l
0.52 0.30 l
0.53 0.30 l
0.52 0.32 l
0.53 0.33 l
0.52 0.33 l
0.53 0.35 l
0.52 0.35 l
0.53 0.36 l
0.52 0.38 l
0.53 0.38 l
0.52 0.40 l
0.53 0.40 l
0.52 0.42 l
0.53 0.43 l
0.52 0.43 l
0.53 0.45 l
0.52 0.46 l
0.53 0.48 l
0.52 0.48 l
0.53 0.50 l
0.52 0.51 l
0.53 0.52 l
0.52 0.54 l
0.53 0.55 l
0.52 0.56 l
0.53 0.57 l
0.52 0.59 l
0.53 0.61 l
0.52 0.61 l
0.53 0.63 l
0.52 0.65 l
0.53 0.66 l
0.52 0.68 l
0.53 0.69 l
0.52 0.71 l
0.53 0.72 l
0.52 0.74 l
0.53 0.75 l
0.52 0.77 l
0.53 0.79 l
0.52 0.81 l
0.53 0.82 l
0.52 0.83 l
0.53 0.86 l
0.52 0.87 l
0.53 0.89 l
0.52 0.91 l
0.53 0.93 l
0.52 0.94 l
0.53 0.96 l
0.52 0.98 l
0.53 1.00 l
0.52 1.02 l
0.53 1.04 l
0.52 1.05 l
0.53 1.08 l
0.52 1.09 l
108.00 92.18 lineto
0.52 1.14 l
0.53 1.15 l
0.52 1.17 l
0.53 1.19 l
0.52 1.21 l
0.53 1.23 l
0.52 1.26 l
0.53 1.27 l
0.52 1.29 l
0.53 1.31 l
0.52 1.33 l
0.53 1.35 l
0.52 1.38 l
0.53 1.39 l
0.52 1.41 l
0.53 1.43 l
0.52 1.46 l
0.53 1.47 l
0.52 1.49 l
0.53 1.51 l
0.52 1.54 l
0.53 1.55 l
0.52 1.57 l
0.53 1.59 l
0.52 1.62 l
0.53 1.63 l
0.52 1.65 l
0.53 1.67 l
0.52 1.68 l
0.53 1.71 l
0.52 1.73 l
0.53 1.74 l
0.52 1.76 l
0.53 1.78 l
0.52 1.80 l
0.53 1.82 l
0.52 1.83 l
0.53 1.85 l
0.52 1.86 l
0.53 1.89 l
0.52 1.90 l
0.53 1.91 l
0.52 1.93 l
0.53 1.94 l
0.52 1.96 l
0.53 1.97 l
0.52 1.99 l
0.53 2.00 l
0.52 2.01 l
0.53 2.03 l
0.52 2.04 l
0.53 2.05 l
0.52 2.06 l
0.53 2.07 l
0.52 2.08 l
0.53 2.09 l
0.52 2.10 l
0.53 2.11 l
0.52 2.11 l
0.53 2.13 l
0.52 2.13 l
0.53 2.13 l
0.52 2.15 l
0.53 2.14 l
0.52 2.16 l
0.53 2.15 l
0.52 2.16 l
0.53 2.16 l
0.52 2.16 l
0.53 2.17 l
0.52 2.16 l
0.53 2.16 l
0.52 2.17 l
0.53 2.16 l
0.52 2.16 l
0.53 2.15 l
0.52 2.16 l
0.53 2.14 l
0.52 2.14 l
0.53 2.14 l
0.52 2.13 l
0.53 2.12 l
0.52 2.11 l
0.53 2.11 l
0.52 2.09 l
0.53 2.08 l
0.52 2.07 l
0.53 2.06 l
0.52 2.05 l
0.53 2.03 l
0.52 2.02 l
0.53 2.00 l
0.52 1.99 l
0.53 1.97 l
0.52 1.95 l
0.53 1.93 l
0.52 1.91 l
0.53 1.89 l
0.52 1.88 l
160.50 276.66 lineto
0.52 1.82 l
0.53 1.81 l
0.52 1.78 l
0.53 1.75 l
0.52 1.73 l
0.53 1.70 l
0.52 1.68 l
0.53 1.65 l
0.52 1.62 l
0.53 1.59 l
0.52 1.56 l
0.53 1.53 l
0.52 1.50 l
0.53 1.47 l
0.52 1.43 l
0.53 1.40 l
0.52 1.37 l
0.53 1.33 l
0.52 1.30 l
0.53 1.26 l
0.52 1.23 l
0.53 1.19 l
0.52 1.15 l
0.53 1.11 l
0.52 1.08 l
0.53 1.04 l
0.52 0.99 l
0.53 0.96 l
0.52 0.92 l
0.53 0.87 l
0.52 0.84 l
0.53 0.79 l
0.52 0.75 l
0.53 0.71 l
0.52 0.67 l
0.53 0.62 l
0.52 0.58 l
0.53 0.54 l
0.52 0.49 l
0.53 0.45 l
0.52 0.40 l
0.53 0.36 l
0.52 0.32 l
0.53 0.27 l
0.52 0.22 l
0.53 0.18 l
0.52 0.14 l
0.53 0.09 l
0.52 0.04 l
0.53 0 l
0.52 -0.04 l
0.53 -0.09 l
0.52 -0.14 l
0.53 -0.18 l
0.52 -0.22 l
0.53 -0.27 l
0.52 -0.32 l
0.53 -0.36 l
0.52 -0.40 l
0.53 -0.45 l
0.52 -0.49 l
0.53 -0.54 l
0.52 -0.58 l
0.53 -0.62 l
0.52 -0.67 l
0.53 -0.71 l
0.52 -0.75 l
0.53 -0.79 l
0.52 -0.84 l
0.53 -0.87 l
0.52 -0.92 l
0.53 -0.96 l
0.52 -0.99 l
0.53 -1.04 l
0.52 -1.08 l
0.53 -1.11 l
0.52 -1.15 l
0.53 -1.19 l
0.52 -1.23 l
0.53 -1.26 l
0.52 -1.30 l
0.53 -1.33 l
0.52 -1.37 l
0.53 -1.40 l
0.52 -1.43 l
0.53 -1.47 l
0.52 -1.50 l
0.53 -1.53 l
0.52 -1.56 l
0.53 -1.59 l
0.52 -1.62 l
0.53 -1.65 l
0.52 -1.68 l
0.53 -1.70 l
0.52 -1.73 l
0.53 -1.75 l
0.52 -1.78 l
0.53 -1.81 l
0.52 -1.82 l
213.00 274.81 lineto
0.52 -1.88 l
0.53 -1.89 l
0.52 -1.91 l
0.53 -1.93 l
0.52 -1.95 l
0.53 -1.97 l
0.52 -1.99 l
0.53 -2.00 l
0.52 -2.02 l
0.53 -2.03 l
0.52 -2.05 l
0.53 -2.06 l
0.52 -2.07 l
0.53 -2.08 l
0.52 -2.09 l
0.53 -2.11 l
0.52 -2.11 l
0.53 -2.12 l
0.52 -2.13 l
0.53 -2.14 l
0.52 -2.14 l
0.53 -2.14 l
0.52 -2.16 l
0.53 -2.15 l
0.52 -2.16 l
0.53 -2.16 l
0.52 -2.17 l
0.53 -2.16 l
0.52 -2.16 l
0.53 -2.17 l
0.52 -2.16 l
0.53 -2.16 l
0.52 -2.16 l
0.53 -2.15 l
0.52 -2.16 l
0.53 -2.14 l
0.52 -2.15 l
0.53 -2.13 l
0.52 -2.13 l
0.53 -2.13 l
0.52 -2.11 l
0.53 -2.11 l
0.52 -2.10 l
0.53 -2.09 l
0.52 -2.08 l
0.53 -2.07 l
0.52 -2.06 l
0.53 -2.05 l
0.52 -2.04 l
0.53 -2.03 l
0.52 -2.01 l
0.53 -2.00 l
0.52 -1.99 l
0.53 -1.97 l
0.52 -1.96 l
0.53 -1.94 l
0.52 -1.93 l
0.53 -1.91 l
0.52 -1.90 l
0.53 -1.89 l
0.52 -1.86 l
0.53 -1.85 l
0.52 -1.83 l
0.53 -1.82 l
0.52 -1.80 l
0.53 -1.78 l
0.52 -1.76 l
0.53 -1.74 l
0.52 -1.73 l
0.53 -1.71 l
0.52 -1.68 l
0.53 -1.67 l
0.52 -1.65 l
0.53 -1.63 l
0.52 -1.62 l
0.53 -1.59 l
0.52 -1.57 l
0.53 -1.55 l
0.52 -1.54 l
0.53 -1.51 l
0.52 -1.49 l
0.53 -1.47 l
0.52 -1.46 l
0.53 -1.43 l
0.52 -1.41 l
0.53 -1.39 l
0.52 -1.38 l
0.53 -1.35 l
0.52 -1.33 l
0.53 -1.31 l
0.52 -1.29 l
0.53 -1.27 l
0.52 -1.26 l
0.53 -1.23 l
0.52 -1.21 l
0.53 -1.19 l
0.52 -1.17 l
0.53 -1.15 l
0.52 -1.14 l
265.50 91.07 lineto
0.52 -1.09 l
0.53 -1.08 l
0.52 -1.05 l
0.53 -1.04 l
0.52 -1.02 l
0.53 -1.00 l
0.52 -0.98 l
0.53 -0.96 l
0.52 -0.94 l
0.53 -0.93 l
0.52 -0.91 l
0.53 -0.89 l
0.52 -0.87 l
0.53 -0.86 l
0.52 -0.83 l
0.53 -0.82 l
0.52 -0.81 l
0.53 -0.79 l
0.52 -0.77 l
0.53 -0.75 l
0.52 -0.74 l
0.53 -0.72 l
0.52 -0.71 l
0.53 -0.69 l
0.52 -0.68 l
0.53 -0.66 l
0.52 -0.65 l
0.53 -0.63 l
0.52 -0.61 l
0.53 -0.61 l
0.52 -0.59 l
0.53 -0.57 l
0.52 -0.56 l
0.53 -0.55 l
0.52 -0.54 l
0.53 -0.52 l
0.52 -0.51 l
0.53 -0.50 l
0.52 -0.48 l
0.53 -0.48 l
0.52 -0.46 l
0.53 -0.45 l
0.52 -0.43 l
0.53 -0.43 l
0.52 -0.42 l
0.53 -0.40 l
0.52 -0.40 l
0.53 -0.38 l
0.52 -0.38 l
0.53 -0.36 l
0.52 -0.35 l
0.53 -0.35 l
0.52 -0.33 l
0.53 -0.33 l
0.52 -0.32 l
0.53 -0.30 l
0.52 -0.30 l
0.53 -0.30 l
0.52 -0.28 l
0.53 -0.27 l
0.52 -0.27 l
0.53 -0.26 l
0.52 -0.25 l
0.53 -0.25 l
0.52 -0.23 l
0.53 -0.23 l
0.52 -0.23 l
0.53 -0.21 l
0.52 -0.21 l
0.53 -0.21 l
0.52 -0.20 l
0.53 -0.19 l
0.52 -0.18 l
0.53 -0.18 l
0.52 -0.18 l
0.53 -0.17 l
0.52 -0.16 l
0.53 -0.16 l
0.52 -0.15 l
0.53 -0.15 l
0.52 -0.15 l
0.53 -0.13 l
0.52 -0.14 l
0.53 -0.13 l
0.52 -0.12 l
0.53 -0.13 l
0.52 -0.11 l
0.53 -0.12 l
0.52 -0.11 l
0.53 -0.10 l
0.52 -0.11 l
0.53 -0.10 l
0.52 -0.09 l
0.53 -0.09 l
0.52 -0.09 l
0.53 -0.09 l
0.52 -0.08 l
0.53 -0.08 l
0.52 -0.08 l
o
0.00 0.00 391.50 346.50 cl
0.00 0.00 391.50 346.50 cl
0.00 0.00 391.50 346.50 cl
0.00 0.00 391.50 346.50 cl
0.00 0.00 391.50 346.50 cl
0.00 0.00 391.50 346.50 cl
/Font1 findfont 9 s
0.3020 0.3020 0.3020 srgb
37.47 42.19 (0.00) 1 0 t
37.47 112.57 (0.25) 1 0 t
37.47 182.96 (0.50) 1 0 t
37.47 253.34 (0.75) 1 0 t
37.47 323.72 (1.00) 1 0 t
0.00 0.00 391.50 346.50 cl
0.00 0.00 391.50 346.50 cl
0.2000 0.2000 0.2000 srgb
1.07 setlinewidth
[] 0 setdash
0 setlinecap
1 setlinejoin
10.00 setmiterlimit
np
39.66 45.42 m
2.74 0 l
o
np
39.66 115.80 m
2.74 0 l
o
np
39.66 186.19 m
2.74 0 l
o
np
39.66 256.57 m
2.74 0 l
o
np
39.66 326.95 m
2.74 0 l
o
0.00 0.00 391.50 346.50 cl
0.00 0.00 391.50 346.50 cl
0.00 0.00 391.50 346.50 cl
0.00 0.00 391.50 346.50 cl
0.00 0.00 391.50 346.50 cl
0.00 0.00 391.50 346.50 cl
0.00 0.00 391.50 346.50 cl
0.00 0.00 391.50 346.50 cl
0.2000 0.2000 0.2000 srgb
1.07 setlinewidth
[] 0 setdash
0 setlinecap
1 setlinejoin
10.00 setmiterlimit
np
55.50 28.61 m
0 2.74 l
o
np
120.99 28.61 m
0 2.74 l
o
np
186.48 28.61 m
0 2.74 l
o
np
251.98 28.61 m
0 2.74 l
o
np
317.47 28.61 m
0 2.74 l
o
0.00 0.00 391.50 346.50 cl
0.00 0.00 391.50 346.50 cl
/Font1 findfont 9 s
0.3020 0.3020 0.3020 srgb
55.50 19.95 (-1.0) .5 0 t
120.99 19.95 (-0.5) .5 0 t
186.48 19.95 (0.0) .5 0 t
251.98 19.95 (0.5) .5 0 t
317.47 19.95 (1.0) .5 0 t
0.00 0.00 391.50 346.50 cl
0.00 0.00 391.50 346.50 cl
0.00 0.00 391.50 346.50 cl
0.00 0.00 391.50 346.50 cl
/Font1 findfont 11 s
0 0 0 srgb
186.48 7.67 (r/R) .5 0 t
0.00 0.00 391.50 346.50 cl
0.00 0.00 391.50 346.50 cl
/Font1 findfont 11 s
0 0 0 srgb
15.57 186.18 (f\(r\)) .5 90 t
0.00 0.00 391.50 346.50 cl
0.00 0.00 391.50 346.50 cl
0.00 0.00 391.50 346.50 cl
0.00 0.00 391.50 346.50 cl
/bg { 1 1 1 srgb } def
339.07 147.65 38.44 77.08 r p2
0.00 0.00 391.50 346.50 cl
0.00 0.00 391.50 346.50 cl
/Font5 findfont 11 s
0 0 0 srgb
343.32 208.82 (a) 0 0 t
/Font1 findfont 8 s
350.27 214.28 (2) 0 0 t
0.00 0.00 391.50 346.50 cl
0.00 0.00 391.50 346.50 cl
/bg { 0.9490 0.9490 0.9490 srgb } def
1 1 1 srgb
1.07 setlinewidth
[] 0 setdash
1 setlinecap
1 setlinejoin
10.00 setmiterlimit
343.32 186.46 17.28 17.28 r p3
0.00 0.00 391.50 346.50 cl
0.00 0.00 391.50 346.50 cl
0 1 0 srgb
1.07 setlinewidth
[] 0 setdash
0 setlinecap
1 setlinejoin
10.00 setmiterlimit
np
345.05 195.10 m
13.83 0 l
o
0.00 0.00 391.50 346.50 cl
0.00 0.00 391.50 346.50 cl
0 1 0 srgb
1.07 setlinewidth
[] 0 setdash
0 setlinecap
1 setlinejoin
10.00 setmiterlimit
np
345.05 195.10 m
13.83 0 l
o
0.00 0.00 391.50 346.50 cl
0.00 0.00 391.50 346.50 cl
0 1 0 srgb
1.07 setlinewidth
[] 0 setdash
0 setlinecap
1 setlinejoin
10.00 setmiterlimit
np
345.05 195.10 m
13.83 0 l
o
0.00 0.00 391.50 346.50 cl
0.00 0.00 391.50 346.50 cl
/bg { 0.9490 0.9490 0.9490 srgb } def
1 1 1 srgb
1.07 setlinewidth
[] 0 setdash
1 setlinecap
1 setlinejoin
10.00 setmiterlimit
343.32 169.18 17.28 17.28 r p3
0.00 0.00 391.50 346.50 cl
0.00 0.00 391.50 346.50 cl
1 0 0 srgb
1.07 setlinewidth
[] 0 setdash
0 setlinecap
1 setlinejoin
10.00 setmiterlimit
np
345.05 177.82 m
13.83 0 l
o
0.00 0.00 391.50 346.50 cl
0.00 0.00 391.50 346.50 cl
1 0 0 srgb
1.07 setlinewidth
[] 0 setdash
0 setlinecap
1 setlinejoin
10.00 setmiterlimit
np
345.05 177.82 m
13.83 0 l
o
0.00 0.00 391.50 346.50 cl
0.00 0.00 391.50 346.50 cl
1 0 0 srgb
1.07 setlinewidth
[] 0 setdash
0 setlinecap
1 setlinejoin
10.00 setmiterlimit
np
345.05 177.82 m
13.83 0 l
o
0.00 0.00 391.50 346.50 cl
0.00 0.00 391.50 346.50 cl
/bg { 0.9490 0.9490 0.9490 srgb } def
1 1 1 srgb
1.07 setlinewidth
[] 0 setdash
1 setlinecap
1 setlinejoin
10.00 setmiterlimit
343.32 151.90 17.28 17.28 r p3
0.00 0.00 391.50 346.50 cl
0.00 0.00 391.50 346.50 cl
0 0 1 srgb
1.07 setlinewidth
[] 0 setdash
0 setlinecap
1 setlinejoin
10.00 setmiterlimit
np
345.05 160.54 m
13.83 0 l
o
0.00 0.00 391.50 346.50 cl
0.00 0.00 391.50 346.50 cl
0 0 1 srgb
1.07 setlinewidth
[] 0 setdash
0 setlinecap
1 setlinejoin
10.00 setmiterlimit
np
345.05 160.54 m
13.83 0 l
o
0.00 0.00 391.50 346.50 cl
0.00 0.00 391.50 346.50 cl
0 0 1 srgb
1.07 setlinewidth
[] 0 setdash
0 setlinecap
1 setlinejoin
10.00 setmiterlimit
np
345.05 160.54 m
13.83 0 l
o
0.00 0.00 391.50 346.50 cl
0.00 0.00 391.50 346.50 cl
/Font1 findfont 9 s
0 0 0 srgb
362.76 191.87 (40) 0 0 t
0.00 0.00 391.50 346.50 cl
0.00 0.00 391.50 346.50 cl
/Font1 findfont 9 s
0 0 0 srgb
362.76 174.59 (10) 0 0 t
0.00 0.00 391.50 346.50 cl
0.00 0.00 391.50 346.50 cl
/Font1 findfont 9 s
0 0 0 srgb
362.76 157.31 (5) 0 0 t
0.00 0.00 391.50 346.50 cl
0.00 0.00 391.50 346.50 cl
0.00 0.00 391.50 346.50 cl
0.00 0.00 391.50 346.50 cl
0.00 0.00 391.50 346.50 cl
0.00 0.00 391.50 346.50 cl
ep
%%Trailer
%%Pages: 1
%%EOF
