%!PS-Adobe-3.0 EPSF-3.0
%%DocumentNeededResources: font Helvetica
%%+ font Helvetica-Bold
%%+ font Helvetica-Oblique
%%+ font Helvetica-BoldOblique
%%+ font Symbol
%%Title: R Graphics Output
%%Creator: R Software
%%Pages: (atend)
%%BoundingBox: 0 0 413 413
%%EndComments
%%BeginProlog
/bp  { gs sRGB gs } def
% begin .ps.prolog
/gs  { gsave } bind def
/gr  { grestore } bind def
/ep  { showpage gr gr } bind def
/m   { moveto } bind def
/l  { rlineto } bind def
/np  { newpath } bind def
/cp  { closepath } bind def
/f   { fill } bind def
/o   { stroke } bind def
/c   { newpath 0 360 arc } bind def
/r   { 4 2 roll moveto 1 copy 3 -1 roll exch 0 exch rlineto 0 rlineto -1 mul 0 exch rlineto closepath } bind def
/p1  { stroke } bind def
/p2  { gsave bg fill grestore newpath } bind def
/p3  { gsave bg fill grestore stroke } bind def
/p6  { gsave bg eofill grestore newpath } bind def
/p7  { gsave bg eofill grestore stroke } bind def
/t   { 5 -2 roll moveto gsave rotate
       1 index stringwidth pop
       mul neg 0 rmoveto show grestore } bind def
/ta  { 4 -2 roll moveto gsave rotate show } bind def
/tb  { 2 -1 roll 0 rmoveto show } bind def
/cl  { grestore gsave newpath 3 index 3 index moveto 1 index
       4 -1 roll lineto  exch 1 index lineto lineto
       closepath clip newpath } bind def
/rgb { setrgbcolor } bind def
/s   { scalefont setfont } bind def
% end   .ps.prolog
/sRGB { [ /CIEBasedABC
          << /DecodeLMN
               [ { dup 0.03928 le
                        {12.92321 div}
                        {0.055 add 1.055 div 2.4 exp }
                     ifelse
                 } bind dup dup
               ]
             /MatrixLMN [0.412457 0.212673 0.019334
                         0.357576 0.715152 0.119192
                         0.180437 0.072175 0.950301]
             /WhitePoint [0.9505 1.0 1.0890]
           >>
         ] setcolorspace } bind def
/srgb { setcolor } bind def
% begin encoding
/WinAnsiEncoding [
 /.notdef /.notdef /.notdef /.notdef /.notdef /.notdef /.notdef /.notdef
 /.notdef /.notdef /.notdef /.notdef /.notdef /.notdef /.notdef /.notdef
 /.notdef /.notdef /.notdef /.notdef /.notdef /.notdef /.notdef /.notdef
 /.notdef /.notdef /.notdef /.notdef /.notdef /.notdef /.notdef /.notdef
 /space /exclam /quotedbl /numbersign /dollar /percent /ampersand /quoteright
 /parenleft /parenright /asterisk /plus /comma /minus /period /slash
 /zero /one /two /three /four /five /six /seven
 /eight /nine /colon /semicolon /less /equal /greater /question
 /at /A /B /C /D /E /F /G
 /H /I /J /K /L /M /N /O
 /P /Q /R /S /T /U /V /W
 /X /Y /Z /bracketleft /backslash /bracketright /asciicircum /underscore
 /grave /a /b /c /d /e /f /g
 /h /i /j /k /l /m /n /o
 /p /q /r /s /t /u /v /w
 /x /y /z /braceleft /bar /braceright /asciitilde /.notdef
 /Euro /.notdef /quotesinglbase /florin /quotedblbase /ellipsis /dagger /daggerdbl
 /circumflex /perthousand /Scaron /guilsinglleft /OE /.notdef /Zcaron /.notdef
 /.notdef /quoteleft /quoteright /quotedblleft /quotedblright /bullet /endash /emdash
 /tilde /trademark /scaron /guilsinglright /oe /.notdef /zcaron /Ydieresis
 /space /exclamdown /cent /sterling /currency /yen /brokenbar /section
 /dieresis /copyright /ordfeminine /guillemotleft /logicalnot /hyphen /registered /macron
 /degree /plusminus /twosuperior /threesuperior /acute /mu /paragraph /periodcentered
 /cedilla /onesuperior /ordmasculine /guillemotright /onequarter /onehalf /threequarters /questiondown
 /Agrave /Aacute /Acircumflex /Atilde /Adieresis /Aring /AE /Ccedilla
 /Egrave /Eacute /Ecircumflex /Edieresis /Igrave /Iacute /Icircumflex /Idieresis
 /Eth /Ntilde /Ograve /Oacute /Ocircumflex /Otilde /Odieresis /multiply
 /Oslash /Ugrave /Uacute /Ucircumflex /Udieresis /Yacute /Thorn /germandbls
 /agrave /aacute /acircumflex /atilde /adieresis /aring /ae /ccedilla
 /egrave /eacute /ecircumflex /edieresis /igrave /iacute /icircumflex /idieresis
 /eth /ntilde /ograve /oacute /ocircumflex /otilde /odieresis /divide
 /oslash /ugrave /uacute /ucircumflex /udieresis /yacute /thorn /ydieresis
]
 def
% end encoding
%%IncludeResource: font Helvetica
/Helvetica findfont
dup length dict begin
  {1 index /FID ne {def} {pop pop} ifelse} forall
  /Encoding WinAnsiEncoding def
  currentdict
  end
/Font1 exch definefont pop
%%IncludeResource: font Helvetica-Bold
/Helvetica-Bold findfont
dup length dict begin
  {1 index /FID ne {def} {pop pop} ifelse} forall
  /Encoding WinAnsiEncoding def
  currentdict
  end
/Font2 exch definefont pop
%%IncludeResource: font Helvetica-Oblique
/Helvetica-Oblique findfont
dup length dict begin
  {1 index /FID ne {def} {pop pop} ifelse} forall
  /Encoding WinAnsiEncoding def
  currentdict
  end
/Font3 exch definefont pop
%%IncludeResource: font Helvetica-BoldOblique
/Helvetica-BoldOblique findfont
dup length dict begin
  {1 index /FID ne {def} {pop pop} ifelse} forall
  /Encoding WinAnsiEncoding def
  currentdict
  end
/Font4 exch definefont pop
%%IncludeResource: font Symbol
/Symbol findfont
dup length dict begin
  {1 index /FID ne {def} {pop pop} ifelse} forall
  currentdict
  end
/Font5 exch definefont pop
%%EndProlog
%%Page: 1 1
bp
/bg { 1 1 1 srgb } def
0.00 0.00 412.50 412.50 r p2
59.04 73.44 382.26 353.46 cl
59.04 73.44 382.26 353.46 cl
0 0 0 srgb
0.75 setlinewidth
[] 0 setdash
1 setlinecap
1 setlinejoin
10.00 setmiterlimit
74.00 83.81 1.35 c p1
77.00 85.56 1.35 c p1
79.99 99.78 1.35 c p1
82.98 126.38 1.35 c p1
85.98 154.88 1.35 c p1
88.97 178.97 1.35 c p1
91.96 196.86 1.35 c p1
94.95 209.04 1.35 c p1
97.95 216.56 1.35 c p1
100.94 220.71 1.35 c p1
103.93 222.27 1.35 c p1
106.92 222.01 1.35 c p1
109.92 220.54 1.35 c p1
112.91 218.29 1.35 c p1
115.90 215.52 1.35 c p1
118.90 212.50 1.35 c p1
121.89 209.30 1.35 c p1
124.88 206.19 1.35 c p1
127.87 203.08 1.35 c p1
130.87 200.14 1.35 c p1
133.86 197.37 1.35 c p1
136.85 194.70 1.35 c p1
139.85 192.28 1.35 c p1
142.84 190.12 1.35 c p1
145.83 188.04 1.35 c p1
148.82 186.23 1.35 c p1
151.82 184.50 1.35 c p1
154.81 183.03 1.35 c p1
157.80 181.65 1.35 c p1
160.79 180.44 1.35 c p1
163.79 179.31 1.35 c p1
166.78 178.27 1.35 c p1
169.77 177.41 1.35 c p1
172.77 176.63 1.35 c p1
175.76 175.94 1.35 c p1
178.75 175.25 1.35 c p1
181.74 174.73 1.35 c p1
184.74 174.21 1.35 c p1
187.73 173.78 1.35 c p1
190.72 173.35 1.35 c p1
193.72 173.00 1.35 c p1
196.71 172.74 1.35 c p1
199.70 172.40 1.35 c p1
202.69 172.14 1.35 c p1
205.69 171.97 1.35 c p1
208.68 171.79 1.35 c p1
211.67 171.62 1.35 c p1
214.66 171.45 1.35 c p1
217.66 171.27 1.35 c p1
220.65 171.19 1.35 c p1
223.64 171.10 1.35 c p1
226.64 171.01 1.35 c p1
229.63 170.93 1.35 c p1
232.62 170.84 1.35 c p1
235.61 170.76 1.35 c p1
238.61 170.67 1.35 c p1
241.60 170.67 1.35 c p1
244.59 170.58 1.35 c p1
247.59 170.58 1.35 c p1
250.58 170.50 1.35 c p1
253.57 170.50 1.35 c p1
256.56 170.50 1.35 c p1
259.56 170.41 1.35 c p1
262.55 170.41 1.35 c p1
265.54 170.41 1.35 c p1
268.53 170.41 1.35 c p1
271.53 170.32 1.35 c p1
274.52 170.32 1.35 c p1
277.51 170.32 1.35 c p1
280.51 170.32 1.35 c p1
283.50 170.32 1.35 c p1
286.49 170.32 1.35 c p1
289.48 170.32 1.35 c p1
292.48 170.32 1.35 c p1
295.47 170.32 1.35 c p1
298.46 170.24 1.35 c p1
301.46 170.24 1.35 c p1
304.45 170.24 1.35 c p1
307.44 170.24 1.35 c p1
310.43 170.24 1.35 c p1
313.43 170.24 1.35 c p1
316.42 170.24 1.35 c p1
319.41 170.24 1.35 c p1
322.40 170.24 1.35 c p1
325.40 170.24 1.35 c p1
328.39 170.24 1.35 c p1
331.38 170.24 1.35 c p1
334.38 170.24 1.35 c p1
337.37 170.24 1.35 c p1
340.36 170.24 1.35 c p1
343.35 170.24 1.35 c p1
346.35 170.24 1.35 c p1
349.34 170.24 1.35 c p1
352.33 170.24 1.35 c p1
355.33 170.24 1.35 c p1
358.32 170.24 1.35 c p1
361.31 170.24 1.35 c p1
364.30 170.24 1.35 c p1
367.30 170.24 1.35 c p1
370.29 170.24 1.35 c p1
0.00 0.00 412.50 412.50 cl
0 0 0 srgb
0.75 setlinewidth
[] 0 setdash
1 setlinecap
1 setlinejoin
10.00 setmiterlimit
np
71.01 73.44 m
299.28 0 l
o
np
71.01 73.44 m
0 -7.20 l
o
np
170.77 73.44 m
0 -7.20 l
o
np
270.53 73.44 m
0 -7.20 l
o
np
370.29 73.44 m
0 -7.20 l
o
/Font1 findfont 12 s
71.01 47.52 (0.0) .5 0 t
170.77 47.52 (0.5) .5 0 t
270.53 47.52 (1.0) .5 0 t
370.29 47.52 (1.5) .5 0 t
np
59.04 83.81 m
0 259.28 l
o
np
59.04 83.81 m
-7.20 0 l
o
np
59.04 127.02 m
-7.20 0 l
o
np
59.04 170.24 m
-7.20 0 l
o
np
59.04 213.45 m
-7.20 0 l
o
np
59.04 256.66 m
-7.20 0 l
o
np
59.04 299.88 m
-7.20 0 l
o
np
59.04 343.09 m
-7.20 0 l
o
41.76 83.81 (0.0) .5 90 t
41.76 127.02 (0.5) .5 90 t
41.76 170.24 (1.0) .5 90 t
41.76 213.45 (1.5) .5 90 t
41.76 256.66 (2.0) .5 90 t
41.76 299.88 (2.5) .5 90 t
41.76 343.09 (3.0) .5 90 t
np
59.04 73.44 m
323.22 0 l
0 280.02 l
-323.22 0 l
0 -280.02 l
o
0.00 0.00 412.50 412.50 cl
/Font5 findfont 12 s
0 0 0 srgb
216.53 18.92 (w) 0 0 t
/Font1 findfont 12 s
12.96 213.45 (V) .5 90 t
59.04 73.44 382.26 353.46 cl
0 0 1 srgb
0.75 setlinewidth
[] 0 setdash
1 setlinecap
1 setlinejoin
10.00 setmiterlimit
np
73.19 83.00 m
1.62 1.62 l
o
np
73.19 84.62 m
1.62 -1.62 l
o
np
76.19 86.05 m
1.62 1.62 l
o
np
76.19 87.67 m
1.62 -1.62 l
o
np
79.18 111.82 m
1.62 1.62 l
o
np
79.18 113.44 m
1.62 -1.62 l
o
np
82.17 161.26 m
1.62 1.62 l
o
np
82.17 162.88 m
1.62 -1.62 l
o
np
85.17 215.23 m
1.62 1.62 l
o
np
85.17 216.85 m
1.62 -1.62 l
o
np
88.16 261.38 m
1.62 1.62 l
o
np
88.16 263.00 m
1.62 -1.62 l
o
np
91.15 296.21 m
1.62 1.62 l
o
np
91.15 297.83 m
1.62 -1.62 l
o
np
94.14 320.24 m
1.62 1.62 l
o
np
94.14 321.86 m
1.62 -1.62 l
o
np
97.14 335.54 m
1.62 1.62 l
o
np
97.14 337.16 m
1.62 -1.62 l
o
np
100.13 344.01 m
1.62 1.62 l
o
np
100.13 345.63 m
1.62 -1.62 l
o
np
103.12 347.64 m
1.62 1.62 l
o
np
103.12 349.26 m
1.62 -1.62 l
o
np
106.11 347.55 m
1.62 1.62 l
o
np
106.11 349.17 m
1.62 -1.62 l
o
np
109.11 345.04 m
1.62 1.62 l
o
np
109.11 346.66 m
1.62 -1.62 l
o
np
112.10 340.72 m
1.62 1.62 l
o
np
112.10 342.34 m
1.62 -1.62 l
o
np
115.09 335.28 m
1.62 1.62 l
o
np
115.09 336.90 m
1.62 -1.62 l
o
np
118.09 329.06 m
1.62 1.62 l
o
np
118.09 330.68 m
1.62 -1.62 l
o
np
121.08 322.40 m
1.62 1.62 l
o
np
121.08 324.02 m
1.62 -1.62 l
o
np
124.07 315.57 m
1.62 1.62 l
o
np
124.07 317.19 m
1.62 -1.62 l
o
np
127.06 308.57 m
1.62 1.62 l
o
np
127.06 310.19 m
1.62 -1.62 l
o
np
130.06 301.66 m
1.62 1.62 l
o
np
130.06 303.28 m
1.62 -1.62 l
o
np
133.05 294.83 m
1.62 1.62 l
o
np
133.05 296.45 m
1.62 -1.62 l
o
np
136.04 288.26 m
1.62 1.62 l
o
np
136.04 289.88 m
1.62 -1.62 l
o
np
139.04 281.87 m
1.62 1.62 l
o
np
139.04 283.49 m
1.62 -1.62 l
o
np
142.03 275.64 m
1.62 1.62 l
o
np
142.03 277.26 m
1.62 -1.62 l
o
np
145.02 269.77 m
1.62 1.62 l
o
np
145.02 271.39 m
1.62 -1.62 l
o
np
148.01 264.15 m
1.62 1.62 l
o
np
148.01 265.77 m
1.62 -1.62 l
o
np
151.01 258.71 m
1.62 1.62 l
o
np
151.01 260.33 m
1.62 -1.62 l
o
np
154.00 253.61 m
1.62 1.62 l
o
np
154.00 255.23 m
1.62 -1.62 l
o
np
156.99 248.77 m
1.62 1.62 l
o
np
156.99 250.39 m
1.62 -1.62 l
o
np
159.98 244.10 m
1.62 1.62 l
o
np
159.98 245.72 m
1.62 -1.62 l
o
np
162.98 239.78 m
1.62 1.62 l
o
np
162.98 241.40 m
1.62 -1.62 l
o
np
165.97 235.63 m
1.62 1.62 l
o
np
165.97 237.25 m
1.62 -1.62 l
o
np
168.96 231.74 m
1.62 1.62 l
o
np
168.96 233.36 m
1.62 -1.62 l
o
np
171.96 228.02 m
1.62 1.62 l
o
np
171.96 229.64 m
1.62 -1.62 l
o
np
174.95 224.57 m
1.62 1.62 l
o
np
174.95 226.19 m
1.62 -1.62 l
o
np
177.94 221.28 m
1.62 1.62 l
o
np
177.94 222.90 m
1.62 -1.62 l
o
np
180.93 218.17 m
1.62 1.62 l
o
np
180.93 219.79 m
1.62 -1.62 l
o
np
183.93 215.23 m
1.62 1.62 l
o
np
183.93 216.85 m
1.62 -1.62 l
o
np
186.92 212.47 m
1.62 1.62 l
o
np
186.92 214.09 m
1.62 -1.62 l
o
np
189.91 209.87 m
1.62 1.62 l
o
np
189.91 211.49 m
1.62 -1.62 l
o
np
192.91 207.45 m
1.62 1.62 l
o
np
192.91 209.07 m
1.62 -1.62 l
o
np
195.90 205.21 m
1.62 1.62 l
o
np
195.90 206.83 m
1.62 -1.62 l
o
np
198.89 203.05 m
1.62 1.62 l
o
np
198.89 204.67 m
1.62 -1.62 l
o
np
201.88 200.97 m
1.62 1.62 l
o
np
201.88 202.59 m
1.62 -1.62 l
o
np
204.88 199.07 m
1.62 1.62 l
o
np
204.88 200.69 m
1.62 -1.62 l
o
np
207.87 197.26 m
1.62 1.62 l
o
np
207.87 198.88 m
1.62 -1.62 l
o
np
210.86 195.61 m
1.62 1.62 l
o
np
210.86 197.23 m
1.62 -1.62 l
o
np
213.85 193.97 m
1.62 1.62 l
o
np
213.85 195.59 m
1.62 -1.62 l
o
np
216.85 192.50 m
1.62 1.62 l
o
np
216.85 194.12 m
1.62 -1.62 l
o
np
219.84 191.12 m
1.62 1.62 l
o
np
219.84 192.74 m
1.62 -1.62 l
o
np
222.83 189.82 m
1.62 1.62 l
o
np
222.83 191.44 m
1.62 -1.62 l
o
np
225.83 188.53 m
1.62 1.62 l
o
np
225.83 190.15 m
1.62 -1.62 l
o
np
228.82 187.40 m
1.62 1.62 l
o
np
228.82 189.02 m
1.62 -1.62 l
o
np
231.81 186.28 m
1.62 1.62 l
o
np
231.81 187.90 m
1.62 -1.62 l
o
np
234.80 185.24 m
1.62 1.62 l
o
np
234.80 186.86 m
1.62 -1.62 l
o
np
237.80 184.29 m
1.62 1.62 l
o
np
237.80 185.91 m
1.62 -1.62 l
o
np
240.79 183.43 m
1.62 1.62 l
o
np
240.79 185.05 m
1.62 -1.62 l
o
np
243.78 182.56 m
1.62 1.62 l
o
np
243.78 184.18 m
1.62 -1.62 l
o
np
246.78 181.70 m
1.62 1.62 l
o
np
246.78 183.32 m
1.62 -1.62 l
o
np
249.77 181.01 m
1.62 1.62 l
o
np
249.77 182.63 m
1.62 -1.62 l
o
np
252.76 180.32 m
1.62 1.62 l
o
np
252.76 181.94 m
1.62 -1.62 l
o
np
255.75 179.63 m
1.62 1.62 l
o
np
255.75 181.25 m
1.62 -1.62 l
o
np
258.75 179.02 m
1.62 1.62 l
o
np
258.75 180.64 m
1.62 -1.62 l
o
np
261.74 178.42 m
1.62 1.62 l
o
np
261.74 180.04 m
1.62 -1.62 l
o
np
264.73 177.90 m
1.62 1.62 l
o
np
264.73 179.52 m
1.62 -1.62 l
o
np
267.72 177.38 m
1.62 1.62 l
o
np
267.72 179.00 m
1.62 -1.62 l
o
np
270.72 176.86 m
1.62 1.62 l
o
np
270.72 178.48 m
1.62 -1.62 l
o
np
273.71 176.43 m
1.62 1.62 l
o
np
273.71 178.05 m
1.62 -1.62 l
o
np
276.70 176.00 m
1.62 1.62 l
o
np
276.70 177.62 m
1.62 -1.62 l
o
np
279.70 175.56 m
1.62 1.62 l
o
np
279.70 177.18 m
1.62 -1.62 l
o
np
282.69 175.22 m
1.62 1.62 l
o
np
282.69 176.84 m
1.62 -1.62 l
o
np
285.68 174.87 m
1.62 1.62 l
o
np
285.68 176.49 m
1.62 -1.62 l
o
np
288.67 174.53 m
1.62 1.62 l
o
np
288.67 176.15 m
1.62 -1.62 l
o
np
291.67 174.18 m
1.62 1.62 l
o
np
291.67 175.80 m
1.62 -1.62 l
o
np
294.66 173.92 m
1.62 1.62 l
o
np
294.66 175.54 m
1.62 -1.62 l
o
np
297.65 173.66 m
1.62 1.62 l
o
np
297.65 175.28 m
1.62 -1.62 l
o
np
300.65 173.40 m
1.62 1.62 l
o
np
300.65 175.02 m
1.62 -1.62 l
o
np
303.64 173.14 m
1.62 1.62 l
o
np
303.64 174.76 m
1.62 -1.62 l
o
np
306.63 172.88 m
1.62 1.62 l
o
np
306.63 174.50 m
1.62 -1.62 l
o
np
309.62 172.71 m
1.62 1.62 l
o
np
309.62 174.33 m
1.62 -1.62 l
o
np
312.62 172.54 m
1.62 1.62 l
o
np
312.62 174.16 m
1.62 -1.62 l
o
np
315.61 172.28 m
1.62 1.62 l
o
np
315.61 173.90 m
1.62 -1.62 l
o
np
318.60 172.11 m
1.62 1.62 l
o
np
318.60 173.73 m
1.62 -1.62 l
o
np
321.59 171.93 m
1.62 1.62 l
o
np
321.59 173.55 m
1.62 -1.62 l
o
np
324.59 171.85 m
1.62 1.62 l
o
np
324.59 173.47 m
1.62 -1.62 l
o
np
327.58 171.67 m
1.62 1.62 l
o
np
327.58 173.29 m
1.62 -1.62 l
o
np
330.57 171.50 m
1.62 1.62 l
o
np
330.57 173.12 m
1.62 -1.62 l
o
np
333.57 171.41 m
1.62 1.62 l
o
np
333.57 173.03 m
1.62 -1.62 l
o
np
336.56 171.24 m
1.62 1.62 l
o
np
336.56 172.86 m
1.62 -1.62 l
o
np
339.55 171.16 m
1.62 1.62 l
o
np
339.55 172.78 m
1.62 -1.62 l
o
np
342.54 171.07 m
1.62 1.62 l
o
np
342.54 172.69 m
1.62 -1.62 l
o
np
345.54 170.98 m
1.62 1.62 l
o
np
345.54 172.60 m
1.62 -1.62 l
o
np
348.53 170.90 m
1.62 1.62 l
o
np
348.53 172.52 m
1.62 -1.62 l
o
np
351.52 170.81 m
1.62 1.62 l
o
np
351.52 172.43 m
1.62 -1.62 l
o
np
354.52 170.72 m
1.62 1.62 l
o
np
354.52 172.34 m
1.62 -1.62 l
o
np
357.51 170.64 m
1.62 1.62 l
o
np
357.51 172.26 m
1.62 -1.62 l
o
np
360.50 170.55 m
1.62 1.62 l
o
np
360.50 172.17 m
1.62 -1.62 l
o
np
363.49 170.46 m
1.62 1.62 l
o
np
363.49 172.08 m
1.62 -1.62 l
o
np
366.49 170.38 m
1.62 1.62 l
o
np
366.49 172.00 m
1.62 -1.62 l
o
np
369.48 170.38 m
1.62 1.62 l
o
np
369.48 172.00 m
1.62 -1.62 l
o
0 1 1 srgb
np
72.86 83.81 m
1.14 1.15 l
1.15 -1.15 l
-1.15 -1.14 l
-1.14 1.14 l
o
np
75.85 85.07 m
1.15 1.15 l
1.14 -1.15 l
-1.14 -1.14 l
-1.15 1.14 l
o
np
78.84 95.22 m
1.15 1.14 l
1.14 -1.14 l
-1.14 -1.15 l
-1.15 1.15 l
o
np
81.84 114.01 m
1.14 1.14 l
1.15 -1.14 l
-1.15 -1.15 l
-1.14 1.15 l
o
np
84.83 134.02 m
1.15 1.15 l
1.14 -1.15 l
-1.14 -1.14 l
-1.15 1.14 l
o
np
87.82 150.83 m
1.15 1.14 l
1.14 -1.14 l
-1.14 -1.15 l
-1.15 1.15 l
o
np
90.82 163.28 m
1.14 1.15 l
1.15 -1.15 l
-1.15 -1.15 l
-1.14 1.15 l
o
np
93.81 171.79 m
1.14 1.15 l
1.15 -1.15 l
-1.15 -1.14 l
-1.14 1.14 l
o
np
96.80 177.06 m
1.15 1.15 l
1.14 -1.15 l
-1.14 -1.14 l
-1.15 1.14 l
o
np
99.79 180.00 m
1.15 1.15 l
1.14 -1.15 l
-1.14 -1.14 l
-1.15 1.14 l
o
np
102.79 181.39 m
1.14 1.14 l
1.15 -1.14 l
-1.15 -1.15 l
-1.14 1.15 l
o
np
105.78 181.65 m
1.14 1.14 l
1.15 -1.14 l
-1.15 -1.15 l
-1.14 1.15 l
o
np
108.77 181.13 m
1.15 1.14 l
1.14 -1.14 l
-1.14 -1.15 l
-1.15 1.15 l
o
np
111.76 180.35 m
1.15 1.14 l
1.15 -1.14 l
-1.15 -1.15 l
-1.15 1.15 l
o
np
114.76 179.31 m
1.14 1.15 l
1.15 -1.15 l
-1.15 -1.14 l
-1.14 1.14 l
o
np
117.75 178.19 m
1.15 1.14 l
1.14 -1.14 l
-1.14 -1.15 l
-1.15 1.15 l
o
np
120.74 177.06 m
1.15 1.15 l
1.14 -1.15 l
-1.14 -1.14 l
-1.15 1.14 l
o
np
123.74 176.03 m
1.14 1.14 l
1.15 -1.14 l
-1.15 -1.15 l
-1.14 1.15 l
o
np
126.73 175.08 m
1.14 1.14 l
1.15 -1.14 l
-1.15 -1.15 l
-1.14 1.15 l
o
np
129.72 174.30 m
1.15 1.14 l
1.14 -1.14 l
-1.14 -1.15 l
-1.15 1.15 l
o
np
132.71 173.61 m
1.15 1.14 l
1.15 -1.14 l
-1.15 -1.15 l
-1.15 1.15 l
o
np
135.71 172.92 m
1.14 1.14 l
1.15 -1.14 l
-1.15 -1.15 l
-1.14 1.15 l
o
np
138.70 172.40 m
1.15 1.14 l
1.14 -1.14 l
-1.14 -1.15 l
-1.15 1.15 l
o
np
141.69 171.97 m
1.15 1.14 l
1.14 -1.14 l
-1.14 -1.15 l
-1.15 1.15 l
o
np
144.69 171.62 m
1.14 1.15 l
1.15 -1.15 l
-1.15 -1.15 l
-1.14 1.15 l
o
np
147.68 171.27 m
1.14 1.15 l
1.15 -1.15 l
-1.15 -1.14 l
-1.14 1.14 l
o
np
150.67 171.10 m
1.15 1.15 l
1.14 -1.15 l
-1.14 -1.14 l
-1.15 1.14 l
o
np
153.66 170.84 m
1.15 1.15 l
1.14 -1.15 l
-1.14 -1.14 l
-1.15 1.14 l
o
np
156.66 170.67 m
1.14 1.14 l
1.15 -1.14 l
-1.15 -1.15 l
-1.14 1.15 l
o
np
159.65 170.58 m
1.14 1.15 l
1.15 -1.15 l
-1.15 -1.14 l
-1.14 1.14 l
o
np
162.64 170.50 m
1.15 1.14 l
1.14 -1.14 l
-1.14 -1.15 l
-1.15 1.15 l
o
np
165.63 170.41 m
1.15 1.15 l
1.15 -1.15 l
-1.15 -1.15 l
-1.15 1.15 l
o
np
168.63 170.32 m
1.14 1.15 l
1.15 -1.15 l
-1.15 -1.14 l
-1.14 1.14 l
o
np
171.62 170.32 m
1.15 1.15 l
1.14 -1.15 l
-1.14 -1.14 l
-1.15 1.14 l
o
np
174.61 170.24 m
1.15 1.14 l
1.14 -1.14 l
-1.14 -1.15 l
-1.15 1.15 l
o
np
177.61 170.23 m
1.14 1.14 l
1.15 -1.14 l
-1.15 -1.15 l
-1.14 1.15 l
o
np
180.60 170.21 m
1.14 1.15 l
1.15 -1.15 l
-1.15 -1.14 l
-1.14 1.14 l
o
np
183.59 170.19 m
1.15 1.15 l
1.14 -1.15 l
-1.14 -1.14 l
-1.15 1.14 l
o
np
186.58 170.19 m
1.15 1.14 l
1.15 -1.14 l
-1.15 -1.15 l
-1.15 1.15 l
o
np
189.58 170.18 m
1.14 1.14 l
1.15 -1.14 l
-1.15 -1.15 l
-1.14 1.15 l
o
np
192.57 170.18 m
1.15 1.14 l
1.14 -1.14 l
-1.14 -1.15 l
-1.15 1.15 l
o
np
195.56 170.18 m
1.15 1.14 l
1.14 -1.14 l
-1.14 -1.15 l
-1.15 1.15 l
o
np
198.56 170.18 m
1.14 1.14 l
1.15 -1.14 l
-1.15 -1.15 l
-1.14 1.15 l
o
np
201.55 170.18 m
1.14 1.14 l
1.15 -1.14 l
-1.15 -1.15 l
-1.14 1.15 l
o
np
204.54 170.19 m
1.15 1.14 l
1.14 -1.14 l
-1.14 -1.15 l
-1.15 1.15 l
o
np
207.53 170.19 m
1.15 1.14 l
1.14 -1.14 l
-1.14 -1.15 l
-1.15 1.15 l
o
np
210.53 170.19 m
1.14 1.15 l
1.15 -1.15 l
-1.15 -1.14 l
-1.14 1.14 l
o
np
213.52 170.19 m
1.14 1.15 l
1.15 -1.15 l
-1.15 -1.14 l
-1.14 1.14 l
o
np
216.51 170.19 m
1.15 1.15 l
1.14 -1.15 l
-1.14 -1.14 l
-1.15 1.14 l
o
np
219.50 170.20 m
1.15 1.15 l
1.15 -1.15 l
-1.15 -1.14 l
-1.15 1.14 l
o
np
222.50 170.20 m
1.14 1.15 l
1.15 -1.15 l
-1.15 -1.14 l
-1.14 1.14 l
o
np
225.49 170.20 m
1.15 1.15 l
1.14 -1.15 l
-1.14 -1.14 l
-1.15 1.14 l
o
np
228.48 170.21 m
1.15 1.15 l
1.14 -1.15 l
-1.14 -1.14 l
-1.15 1.14 l
o
np
231.48 170.21 m
1.14 1.15 l
1.15 -1.15 l
-1.15 -1.14 l
-1.14 1.14 l
o
np
234.47 170.21 m
1.14 1.15 l
1.15 -1.15 l
-1.15 -1.14 l
-1.14 1.14 l
o
np
237.46 170.22 m
1.15 1.15 l
1.14 -1.15 l
-1.14 -1.15 l
-1.15 1.15 l
o
np
240.45 170.22 m
1.15 1.15 l
1.15 -1.15 l
-1.15 -1.15 l
-1.15 1.15 l
o
np
243.45 170.22 m
1.14 1.15 l
1.15 -1.15 l
-1.15 -1.15 l
-1.14 1.15 l
o
np
246.44 170.22 m
1.15 1.15 l
1.14 -1.15 l
-1.14 -1.15 l
-1.15 1.15 l
o
np
249.43 170.23 m
1.15 1.14 l
1.14 -1.14 l
-1.14 -1.15 l
-1.15 1.15 l
o
np
252.43 170.23 m
1.14 1.14 l
1.15 -1.14 l
-1.15 -1.15 l
-1.14 1.15 l
o
np
255.42 170.23 m
1.14 1.14 l
1.15 -1.14 l
-1.15 -1.15 l
-1.14 1.15 l
o
np
258.41 170.23 m
1.15 1.14 l
1.14 -1.14 l
-1.14 -1.15 l
-1.15 1.15 l
o
np
261.40 170.23 m
1.15 1.14 l
1.14 -1.14 l
-1.14 -1.15 l
-1.15 1.15 l
o
np
264.40 170.23 m
1.14 1.14 l
1.15 -1.14 l
-1.15 -1.15 l
-1.14 1.15 l
o
np
267.39 170.23 m
1.14 1.14 l
1.15 -1.14 l
-1.15 -1.15 l
-1.14 1.15 l
o
np
270.38 170.23 m
1.15 1.14 l
1.14 -1.14 l
-1.14 -1.15 l
-1.15 1.15 l
o
np
273.37 170.23 m
1.15 1.14 l
1.15 -1.14 l
-1.15 -1.15 l
-1.15 1.15 l
o
np
276.37 170.24 m
1.14 1.14 l
1.15 -1.14 l
-1.15 -1.15 l
-1.14 1.15 l
o
np
279.36 170.24 m
1.15 1.14 l
1.14 -1.14 l
-1.14 -1.15 l
-1.15 1.15 l
o
np
282.35 170.24 m
1.15 1.14 l
1.14 -1.14 l
-1.14 -1.15 l
-1.15 1.15 l
o
np
285.35 170.24 m
1.14 1.14 l
1.15 -1.14 l
-1.15 -1.15 l
-1.14 1.15 l
o
np
288.34 170.24 m
1.14 1.14 l
1.15 -1.14 l
-1.15 -1.15 l
-1.14 1.15 l
o
np
291.33 170.24 m
1.15 1.14 l
1.14 -1.14 l
-1.14 -1.15 l
-1.15 1.15 l
o
np
294.32 170.24 m
1.15 1.14 l
1.15 -1.14 l
-1.15 -1.15 l
-1.15 1.15 l
o
np
297.32 170.24 m
1.14 1.14 l
1.15 -1.14 l
-1.15 -1.15 l
-1.14 1.15 l
o
np
300.31 170.24 m
1.15 1.14 l
1.14 -1.14 l
-1.14 -1.15 l
-1.15 1.15 l
o
np
303.30 170.24 m
1.15 1.14 l
1.14 -1.14 l
-1.14 -1.15 l
-1.15 1.15 l
o
np
306.30 170.24 m
1.14 1.14 l
1.15 -1.14 l
-1.15 -1.15 l
-1.14 1.15 l
o
np
309.29 170.24 m
1.14 1.14 l
1.15 -1.14 l
-1.15 -1.15 l
-1.14 1.15 l
o
np
312.28 170.24 m
1.15 1.14 l
1.14 -1.14 l
-1.14 -1.15 l
-1.15 1.15 l
o
np
315.27 170.24 m
1.15 1.14 l
1.14 -1.14 l
-1.14 -1.15 l
-1.15 1.15 l
o
np
318.27 170.24 m
1.14 1.14 l
1.15 -1.14 l
-1.15 -1.15 l
-1.14 1.15 l
o
np
321.26 170.24 m
1.14 1.14 l
1.15 -1.14 l
-1.15 -1.15 l
-1.14 1.15 l
o
np
324.25 170.24 m
1.15 1.14 l
1.14 -1.14 l
-1.14 -1.15 l
-1.15 1.15 l
o
np
327.24 170.24 m
1.15 1.14 l
1.15 -1.14 l
-1.15 -1.15 l
-1.15 1.15 l
o
np
330.24 170.24 m
1.14 1.14 l
1.15 -1.14 l
-1.15 -1.15 l
-1.14 1.15 l
o
np
333.23 170.24 m
1.15 1.14 l
1.14 -1.14 l
-1.14 -1.15 l
-1.15 1.15 l
o
np
336.22 170.24 m
1.15 1.14 l
1.14 -1.14 l
-1.14 -1.15 l
-1.15 1.15 l
o
np
339.22 170.24 m
1.14 1.14 l
1.15 -1.14 l
-1.15 -1.15 l
-1.14 1.15 l
o
np
342.21 170.24 m
1.14 1.14 l
1.15 -1.14 l
-1.15 -1.15 l
-1.14 1.15 l
o
np
345.20 170.24 m
1.15 1.14 l
1.14 -1.14 l
-1.14 -1.15 l
-1.15 1.15 l
o
np
348.19 170.24 m
1.15 1.14 l
1.15 -1.14 l
-1.15 -1.15 l
-1.15 1.15 l
o
np
351.19 170.24 m
1.14 1.14 l
1.15 -1.14 l
-1.15 -1.15 l
-1.14 1.15 l
o
np
354.18 170.24 m
1.15 1.14 l
1.14 -1.14 l
-1.14 -1.15 l
-1.15 1.15 l
o
np
357.17 170.24 m
1.15 1.14 l
1.14 -1.14 l
-1.14 -1.15 l
-1.15 1.15 l
o
np
360.17 170.24 m
1.14 1.14 l
1.15 -1.14 l
-1.15 -1.15 l
-1.14 1.15 l
o
np
363.16 170.24 m
1.14 1.14 l
1.15 -1.14 l
-1.15 -1.15 l
-1.14 1.15 l
o
np
366.15 170.24 m
1.15 1.14 l
1.14 -1.14 l
-1.14 -1.15 l
-1.15 1.15 l
o
np
369.14 170.24 m
1.15 1.14 l
1.14 -1.14 l
-1.14 -1.15 l
-1.15 1.15 l
o
1 0 1 srgb
np
74.00 82.55 m
1.09 1.89 l
-2.18 0 l
1.09 -1.89 l
o
np
77.00 82.77 m
1.09 1.89 l
-2.18 0 l
1.09 -1.89 l
o
np
79.99 84.70 m
1.09 1.89 l
-2.18 0 l
1.09 -1.89 l
o
np
82.98 89.15 m
1.09 1.89 l
-2.18 0 l
1.09 -1.89 l
o
np
85.98 95.54 m
1.09 1.89 l
-2.19 0 l
1.10 -1.89 l
o
np
88.97 102.91 m
1.09 1.89 l
-2.18 0 l
1.09 -1.89 l
o
np
91.96 110.45 m
1.09 1.89 l
-2.18 0 l
1.09 -1.89 l
o
np
94.95 117.63 m
1.09 1.89 l
-2.18 0 l
1.09 -1.89 l
o
np
97.95 124.22 m
1.09 1.89 l
-2.18 0 l
1.09 -1.89 l
o
np
100.94 130.11 m
1.09 1.89 l
-2.18 0 l
1.09 -1.89 l
o
np
103.93 135.31 m
1.09 1.89 l
-2.18 0 l
1.09 -1.89 l
o
np
106.92 139.87 m
1.10 1.89 l
-2.19 0 l
1.09 -1.89 l
o
np
109.92 143.83 m
1.09 1.89 l
-2.18 0 l
1.09 -1.89 l
o
np
112.91 147.27 m
1.09 1.89 l
-2.18 0 l
1.09 -1.89 l
o
np
115.90 150.24 m
1.09 1.89 l
-2.18 0 l
1.09 -1.89 l
o
np
118.90 152.81 m
1.09 1.89 l
-2.19 0 l
1.10 -1.89 l
o
np
121.89 155.03 m
1.09 1.89 l
-2.18 0 l
1.09 -1.89 l
o
np
124.88 156.95 m
1.09 1.89 l
-2.18 0 l
1.09 -1.89 l
o
np
127.87 158.61 m
1.09 1.89 l
-2.18 0 l
1.09 -1.89 l
o
np
130.87 160.03 m
1.09 1.89 l
-2.18 0 l
1.09 -1.89 l
o
np
133.86 161.26 m
1.09 1.89 l
-2.18 0 l
1.09 -1.89 l
o
np
136.85 162.32 m
1.09 1.89 l
-2.18 0 l
1.09 -1.89 l
o
np
139.85 163.24 m
1.09 1.89 l
-2.19 0 l
1.10 -1.89 l
o
np
142.84 164.03 m
1.09 1.88 l
-2.18 0 l
1.09 -1.88 l
o
np
145.83 164.71 m
1.09 1.89 l
-2.18 0 l
1.09 -1.89 l
o
np
148.82 165.30 m
1.09 1.89 l
-2.18 0 l
1.09 -1.89 l
o
np
151.82 165.81 m
1.09 1.89 l
-2.18 0 l
1.09 -1.89 l
o
np
154.81 166.24 m
1.09 1.89 l
-2.18 0 l
1.09 -1.89 l
o
np
157.80 166.62 m
1.09 1.89 l
-2.18 0 l
1.09 -1.89 l
o
np
160.79 166.94 m
1.10 1.89 l
-2.19 0 l
1.09 -1.89 l
o
np
163.79 167.22 m
1.09 1.89 l
-2.18 0 l
1.09 -1.89 l
o
np
166.78 167.47 m
1.09 1.88 l
-2.18 0 l
1.09 -1.88 l
o
np
169.77 167.67 m
1.09 1.89 l
-2.18 0 l
1.09 -1.89 l
o
np
172.77 167.85 m
1.09 1.89 l
-2.19 0 l
1.10 -1.89 l
o
np
175.76 168.01 m
1.09 1.89 l
-2.18 0 l
1.09 -1.89 l
o
np
178.75 168.14 m
1.09 1.89 l
-2.18 0 l
1.09 -1.89 l
o
np
181.74 168.25 m
1.09 1.89 l
-2.18 0 l
1.09 -1.89 l
o
np
184.74 168.36 m
1.09 1.88 l
-2.18 0 l
1.09 -1.88 l
o
np
187.73 168.44 m
1.09 1.89 l
-2.18 0 l
1.09 -1.89 l
o
np
190.72 168.51 m
1.09 1.89 l
-2.18 0 l
1.09 -1.89 l
o
np
193.72 168.58 m
1.09 1.89 l
-2.19 0 l
1.10 -1.89 l
o
np
196.71 168.63 m
1.09 1.89 l
-2.18 0 l
1.09 -1.89 l
o
np
199.70 168.68 m
1.09 1.89 l
-2.18 0 l
1.09 -1.89 l
o
np
202.69 168.72 m
1.09 1.89 l
-2.18 0 l
1.09 -1.89 l
o
np
205.69 168.75 m
1.09 1.89 l
-2.18 0 l
1.09 -1.89 l
o
np
208.68 168.79 m
1.09 1.89 l
-2.18 0 l
1.09 -1.89 l
o
np
211.67 168.81 m
1.09 1.89 l
-2.18 0 l
1.09 -1.89 l
o
np
214.66 168.84 m
1.10 1.89 l
-2.19 0 l
1.09 -1.89 l
o
np
217.66 168.86 m
1.09 1.89 l
-2.18 0 l
1.09 -1.89 l
o
np
220.65 168.87 m
1.09 1.89 l
-2.18 0 l
1.09 -1.89 l
o
np
223.64 168.88 m
1.09 1.89 l
-2.18 0 l
1.09 -1.89 l
o
np
226.64 168.90 m
1.09 1.89 l
-2.19 0 l
1.10 -1.89 l
o
np
229.63 168.91 m
1.09 1.89 l
-2.18 0 l
1.09 -1.89 l
o
np
232.62 168.92 m
1.09 1.89 l
-2.18 0 l
1.09 -1.89 l
o
np
235.61 168.93 m
1.09 1.89 l
-2.18 0 l
1.09 -1.89 l
o
np
238.61 168.93 m
1.09 1.89 l
-2.18 0 l
1.09 -1.89 l
o
np
241.60 168.94 m
1.09 1.89 l
-2.18 0 l
1.09 -1.89 l
o
np
244.59 168.94 m
1.09 1.89 l
-2.18 0 l
1.09 -1.89 l
o
np
247.59 168.95 m
1.09 1.89 l
-2.19 0 l
1.10 -1.89 l
o
np
250.58 168.95 m
1.09 1.89 l
-2.18 0 l
1.09 -1.89 l
o
np
253.57 168.96 m
1.09 1.89 l
-2.18 0 l
1.09 -1.89 l
o
np
256.56 168.96 m
1.09 1.89 l
-2.18 0 l
1.09 -1.89 l
o
np
259.56 168.96 m
1.09 1.89 l
-2.18 0 l
1.09 -1.89 l
o
np
262.55 168.96 m
1.09 1.89 l
-2.18 0 l
1.09 -1.89 l
o
np
265.54 168.97 m
1.09 1.89 l
-2.18 0 l
1.09 -1.89 l
o
np
268.53 168.97 m
1.10 1.89 l
-2.19 0 l
1.09 -1.89 l
o
np
271.53 168.97 m
1.09 1.89 l
-2.18 0 l
1.09 -1.89 l
o
np
274.52 168.97 m
1.09 1.89 l
-2.18 0 l
1.09 -1.89 l
o
np
277.51 168.97 m
1.09 1.89 l
-2.18 0 l
1.09 -1.89 l
o
np
280.51 168.97 m
1.09 1.89 l
-2.19 0 l
1.10 -1.89 l
o
np
283.50 168.97 m
1.09 1.89 l
-2.18 0 l
1.09 -1.89 l
o
np
286.49 168.98 m
1.09 1.89 l
-2.18 0 l
1.09 -1.89 l
o
np
289.48 168.98 m
1.09 1.89 l
-2.18 0 l
1.09 -1.89 l
o
np
292.48 168.98 m
1.09 1.89 l
-2.18 0 l
1.09 -1.89 l
o
np
295.47 168.98 m
1.09 1.89 l
-2.18 0 l
1.09 -1.89 l
o
np
298.46 168.98 m
1.09 1.89 l
-2.18 0 l
1.09 -1.89 l
o
np
301.46 168.98 m
1.09 1.89 l
-2.19 0 l
1.10 -1.89 l
o
np
304.45 168.98 m
1.09 1.89 l
-2.18 0 l
1.09 -1.89 l
o
np
307.44 168.98 m
1.09 1.89 l
-2.18 0 l
1.09 -1.89 l
o
np
310.43 168.98 m
1.09 1.89 l
-2.18 0 l
1.09 -1.89 l
o
np
313.43 168.98 m
1.09 1.89 l
-2.18 0 l
1.09 -1.89 l
o
np
316.42 168.98 m
1.09 1.89 l
-2.18 0 l
1.09 -1.89 l
o
np
319.41 168.98 m
1.09 1.89 l
-2.18 0 l
1.09 -1.89 l
o
np
322.40 168.98 m
1.10 1.89 l
-2.19 0 l
1.09 -1.89 l
o
np
325.40 168.98 m
1.09 1.89 l
-2.18 0 l
1.09 -1.89 l
o
np
328.39 168.98 m
1.09 1.89 l
-2.18 0 l
1.09 -1.89 l
o
np
331.38 168.98 m
1.09 1.89 l
-2.18 0 l
1.09 -1.89 l
o
np
334.38 168.98 m
1.09 1.89 l
-2.19 0 l
1.10 -1.89 l
o
np
337.37 168.98 m
1.09 1.89 l
-2.18 0 l
1.09 -1.89 l
o
np
340.36 168.98 m
1.09 1.89 l
-2.18 0 l
1.09 -1.89 l
o
np
343.35 168.98 m
1.09 1.89 l
-2.18 0 l
1.09 -1.89 l
o
np
346.35 168.98 m
1.09 1.89 l
-2.18 0 l
1.09 -1.89 l
o
np
349.34 168.98 m
1.09 1.89 l
-2.18 0 l
1.09 -1.89 l
o
np
352.33 168.98 m
1.09 1.89 l
-2.18 0 l
1.09 -1.89 l
o
np
355.33 168.98 m
1.09 1.89 l
-2.19 0 l
1.10 -1.89 l
o
np
358.32 168.98 m
1.09 1.89 l
-2.18 0 l
1.09 -1.89 l
o
np
361.31 168.98 m
1.09 1.89 l
-2.18 0 l
1.09 -1.89 l
o
np
364.30 168.98 m
1.09 1.89 l
-2.18 0 l
1.09 -1.89 l
o
np
367.30 168.98 m
1.09 1.89 l
-2.18 0 l
1.09 -1.89 l
o
np
370.29 168.98 m
1.09 1.89 l
-2.18 0 l
1.09 -1.89 l
o
/bg { 1 1 1 srgb } def
0 0 0 srgb
320.41 310.25 50.81 -101.74 r p3
0 0 1 srgb
np
326.60 273.90 m
4.86 4.86 l
o
np
326.60 278.76 m
4.86 -4.86 l
o
0 0 0 srgb
329.03 259.38 2.43 c p1
0 1 1 srgb
np
325.59 242.42 m
3.44 3.44 l
3.44 -3.44 l
-3.44 -3.44 l
-3.44 3.44 l
o
1 0 1 srgb
np
329.03 221.69 m
3.27 5.66 l
-6.54 0 l
3.27 -5.66 l
o
/Font1 findfont 11 s
0 0 0 srgb
345.82 293.29 (y) .5 0 t
337.65 272.38 (0.5357) 0 0 t
337.65 255.43 (0.75) 0 0 t
337.65 238.47 (0.9) 0 0 t
337.65 221.51 (2.25) 0 0 t
0.8275 0.8275 0.8275 srgb
0.75 setlinewidth
[ 0.00 3.00] 0 setdash
np
71.01 73.44 m
0 280.02 l
o
np
170.77 73.44 m
0 280.02 l
o
np
270.53 73.44 m
0 280.02 l
o
np
370.29 73.44 m
0 280.02 l
o
np
59.04 83.81 m
323.22 0 l
o
np
59.04 127.02 m
323.22 0 l
o
np
59.04 170.24 m
323.22 0 l
o
np
59.04 213.45 m
323.22 0 l
o
np
59.04 256.66 m
323.22 0 l
o
np
59.04 299.88 m
323.22 0 l
o
np
59.04 343.09 m
323.22 0 l
o
ep
%%Trailer
%%Pages: 1
%%EOF
