%!PS-Adobe-3.0 EPSF-3.0
%%DocumentNeededResources: font Helvetica
%%+ font Helvetica-Bold
%%+ font Helvetica-Oblique
%%+ font Helvetica-BoldOblique
%%+ font Symbol
%%Title: R Graphics Output
%%Creator: R Software
%%Pages: (atend)
%%BoundingBox: 0 0 392 347
%%EndComments
%%BeginProlog
/bp  { gs sRGB gs } def
% begin .ps.prolog
/gs  { gsave } bind def
/gr  { grestore } bind def
/ep  { showpage gr gr } bind def
/m   { moveto } bind def
/l  { rlineto } bind def
/np  { newpath } bind def
/cp  { closepath } bind def
/f   { fill } bind def
/o   { stroke } bind def
/c   { newpath 0 360 arc } bind def
/r   { 4 2 roll moveto 1 copy 3 -1 roll exch 0 exch rlineto 0 rlineto -1 mul 0 exch rlineto closepath } bind def
/p1  { stroke } bind def
/p2  { gsave bg fill grestore newpath } bind def
/p3  { gsave bg fill grestore stroke } bind def
/p6  { gsave bg eofill grestore newpath } bind def
/p7  { gsave bg eofill grestore stroke } bind def
/t   { 5 -2 roll moveto gsave rotate
       1 index stringwidth pop
       mul neg 0 rmoveto show grestore } bind def
/ta  { 4 -2 roll moveto gsave rotate show } bind def
/tb  { 2 -1 roll 0 rmoveto show } bind def
/cl  { grestore gsave newpath 3 index 3 index moveto 1 index
       4 -1 roll lineto  exch 1 index lineto lineto
       closepath clip newpath } bind def
/rgb { setrgbcolor } bind def
/s   { scalefont setfont } bind def
% end   .ps.prolog
/sRGB { [ /CIEBasedABC
          << /DecodeLMN
               [ { dup 0.03928 le
                        {12.92321 div}
                        {0.055 add 1.055 div 2.4 exp }
                     ifelse
                 } bind dup dup
               ]
             /MatrixLMN [0.412457 0.212673 0.019334
                         0.357576 0.715152 0.119192
                         0.180437 0.072175 0.950301]
             /WhitePoint [0.9505 1.0 1.0890]
           >>
         ] setcolorspace } bind def
/srgb { setcolor } bind def
% begin encoding
/WinAnsiEncoding [
 /.notdef /.notdef /.notdef /.notdef /.notdef /.notdef /.notdef /.notdef
 /.notdef /.notdef /.notdef /.notdef /.notdef /.notdef /.notdef /.notdef
 /.notdef /.notdef /.notdef /.notdef /.notdef /.notdef /.notdef /.notdef
 /.notdef /.notdef /.notdef /.notdef /.notdef /.notdef /.notdef /.notdef
 /space /exclam /quotedbl /numbersign /dollar /percent /ampersand /quoteright
 /parenleft /parenright /asterisk /plus /comma /minus /period /slash
 /zero /one /two /three /four /five /six /seven
 /eight /nine /colon /semicolon /less /equal /greater /question
 /at /A /B /C /D /E /F /G
 /H /I /J /K /L /M /N /O
 /P /Q /R /S /T /U /V /W
 /X /Y /Z /bracketleft /backslash /bracketright /asciicircum /underscore
 /grave /a /b /c /d /e /f /g
 /h /i /j /k /l /m /n /o
 /p /q /r /s /t /u /v /w
 /x /y /z /braceleft /bar /braceright /asciitilde /.notdef
 /Euro /.notdef /quotesinglbase /florin /quotedblbase /ellipsis /dagger /daggerdbl
 /circumflex /perthousand /Scaron /guilsinglleft /OE /.notdef /Zcaron /.notdef
 /.notdef /quoteleft /quoteright /quotedblleft /quotedblright /bullet /endash /emdash
 /tilde /trademark /scaron /guilsinglright /oe /.notdef /zcaron /Ydieresis
 /space /exclamdown /cent /sterling /currency /yen /brokenbar /section
 /dieresis /copyright /ordfeminine /guillemotleft /logicalnot /hyphen /registered /macron
 /degree /plusminus /twosuperior /threesuperior /acute /mu /paragraph /periodcentered
 /cedilla /onesuperior /ordmasculine /guillemotright /onequarter /onehalf /threequarters /questiondown
 /Agrave /Aacute /Acircumflex /Atilde /Adieresis /Aring /AE /Ccedilla
 /Egrave /Eacute /Ecircumflex /Edieresis /Igrave /Iacute /Icircumflex /Idieresis
 /Eth /Ntilde /Ograve /Oacute /Ocircumflex /Otilde /Odieresis /multiply
 /Oslash /Ugrave /Uacute /Ucircumflex /Udieresis /Yacute /Thorn /germandbls
 /agrave /aacute /acircumflex /atilde /adieresis /aring /ae /ccedilla
 /egrave /eacute /ecircumflex /edieresis /igrave /iacute /icircumflex /idieresis
 /eth /ntilde /ograve /oacute /ocircumflex /otilde /odieresis /divide
 /oslash /ugrave /uacute /ucircumflex /udieresis /yacute /thorn /ydieresis
]
 def
% end encoding
%%IncludeResource: font Helvetica
/Helvetica findfont
dup length dict begin
  {1 index /FID ne {def} {pop pop} ifelse} forall
  /Encoding WinAnsiEncoding def
  currentdict
  end
/Font1 exch definefont pop
%%IncludeResource: font Helvetica-Bold
/Helvetica-Bold findfont
dup length dict begin
  {1 index /FID ne {def} {pop pop} ifelse} forall
  /Encoding WinAnsiEncoding def
  currentdict
  end
/Font2 exch definefont pop
%%IncludeResource: font Helvetica-Oblique
/Helvetica-Oblique findfont
dup length dict begin
  {1 index /FID ne {def} {pop pop} ifelse} forall
  /Encoding WinAnsiEncoding def
  currentdict
  end
/Font3 exch definefont pop
%%IncludeResource: font Helvetica-BoldOblique
/Helvetica-BoldOblique findfont
dup length dict begin
  {1 index /FID ne {def} {pop pop} ifelse} forall
  /Encoding WinAnsiEncoding def
  currentdict
  end
/Font4 exch definefont pop
%%IncludeResource: font Symbol
/Symbol findfont
dup length dict begin
  {1 index /FID ne {def} {pop pop} ifelse} forall
  currentdict
  end
/Font5 exch definefont pop
%%EndProlog
%%Page: 1 1
bp
0.00 0.00 391.50 346.50 cl
0.00 0.00 391.50 346.50 cl
0.00 0.00 391.50 346.50 cl
0.00 0.00 391.50 346.50 cl
0.00 0.00 391.50 346.50 cl
0.00 0.00 391.50 346.50 cl
0.00 0.00 391.50 346.50 cl
0.00 0.00 391.50 346.50 cl
0.00 0.00 391.50 346.50 cl
/bg { 1 1 1 srgb } def
1 1 1 srgb
1.07 setlinewidth
[] 0 setdash
1 setlinecap
1 setlinejoin
10.00 setmiterlimit
0.00 0.00 391.50 346.50 r p3
0.00 0.00 391.50 346.50 cl
0.00 0.00 391.50 346.50 cl
0.00 0.00 391.50 346.50 cl
29.89 29.14 312.57 341.02 cl
/bg { 0.9216 0.9216 0.9216 srgb } def
29.89 29.14 282.68 311.89 r p2
1 1 1 srgb
0.53 setlinewidth
[] 0 setdash
0 setlinecap
1 setlinejoin
10.00 setmiterlimit
np
29.89 89.61 m
282.68 0 l
o
np
29.89 182.21 m
282.68 0 l
o
np
29.89 274.80 m
282.68 0 l
o
np
83.40 29.14 m
0 311.88 l
o
np
169.93 29.14 m
0 311.88 l
o
np
256.46 29.14 m
0 311.88 l
o
1.07 setlinewidth
[] 0 setdash
np
29.89 43.31 m
282.68 0 l
o
np
29.89 135.91 m
282.68 0 l
o
np
29.89 228.51 m
282.68 0 l
o
np
29.89 321.10 m
282.68 0 l
o
np
40.14 29.14 m
0 311.88 l
o
np
126.67 29.14 m
0 311.88 l
o
np
213.19 29.14 m
0 311.88 l
o
np
299.72 29.14 m
0 311.88 l
o
0.5608 0.7373 0.5608 srgb
1.00 setmiterlimit
np
42.74 43.31 m
2.59 3.26 l
2.60 27.62 l
2.59 52.97 l
2.60 57.83 l
2.60 49.44 l
2.59 37.32 l
2.60 25.74 l
2.59 16.39 l
2.60 9.07 l
2.60 3.89 l
2.59 -0.09 l
2.60 -2.68 l
2.59 -4.63 l
2.60 -5.84 l
2.59 -6.66 l
2.60 -7.13 l
2.60 -7.32 l
2.59 -7.50 l
2.60 -7.41 l
2.59 -7.31 l
2.60 -7.04 l
2.59 -6.85 l
2.60 -6.67 l
2.60 -6.30 l
2.59 -6.01 l
2.60 -5.84 l
2.59 -5.46 l
2.60 -5.19 l
2.60 -5.00 l
2.59 -4.63 l
2.60 -4.44 l
2.59 -4.17 l
2.60 -3.98 l
2.59 -3.70 l
2.60 -3.52 l
2.60 -3.34 l
2.59 -3.14 l
2.60 -2.97 l
2.59 -2.78 l
2.60 -2.59 l
2.59 -2.41 l
2.60 -2.31 l
2.60 -2.22 l
2.59 -2.04 l
2.60 -1.94 l
2.59 -1.76 l
2.60 -1.76 l
2.59 -1.58 l
2.60 -1.48 l
2.60 -1.39 l
2.59 -1.39 l
2.60 -1.20 l
2.59 -1.20 l
2.60 -1.12 l
2.60 -1.01 l
2.59 -0.93 l
2.60 -0.93 l
2.59 -0.92 l
2.60 -0.74 l
2.59 -0.74 l
2.60 -0.74 l
2.60 -0.65 l
2.59 -0.65 l
2.60 -0.56 l
2.59 -0.55 l
2.60 -0.56 l
2.59 -0.46 l
2.60 -0.46 l
2.60 -0.47 l
2.59 -0.37 l
2.60 -0.37 l
2.59 -0.37 l
2.60 -0.37 l
2.60 -0.28 l
2.59 -0.27 l
2.60 -0.28 l
2.59 -0.28 l
2.60 -0.28 l
2.59 -0.18 l
2.60 -0.19 l
2.60 -0.28 l
2.59 -0.18 l
2.60 -0.19 l
2.59 -0.09 l
2.60 -0.18 l
2.59 -0.19 l
2.60 -0.09 l
2.60 -0.19 l
2.59 -0.09 l
2.60 -0.09 l
2.59 -0.09 l
2.60 -0.10 l
2.59 -0.09 l
2.60 -0.09 l
2.60 -0.09 l
2.59 -0.10 l
2.60 -0.09 l
2.59 -0.09 l
2.60 0 l
o
1 0.3882 0.2784 srgb
np
42.74 43.31 m
2.59 2.13 l
2.60 16.57 l
2.59 30.06 l
2.60 31.60 l
2.60 26.22 l
2.59 19.26 l
2.60 12.96 l
2.59 7.88 l
2.60 4.07 l
2.60 1.30 l
2.59 -0.56 l
2.60 -1.85 l
2.59 -2.78 l
2.60 -3.24 l
2.59 -3.43 l
2.60 -3.70 l
2.60 -3.52 l
2.59 -3.52 l
2.60 -3.33 l
2.59 -3.15 l
2.60 -2.96 l
2.59 -2.69 l
2.60 -2.50 l
2.60 -2.31 l
2.59 -2.04 l
2.60 -1.94 l
2.59 -1.67 l
2.60 -1.58 l
2.60 -1.29 l
2.59 -1.30 l
2.60 -1.11 l
2.59 -0.93 l
2.60 -0.92 l
2.59 -0.83 l
2.60 -0.65 l
2.60 -0.65 l
2.59 -0.56 l
2.60 -0.46 l
2.59 -0.46 l
2.60 -0.47 l
2.59 -0.27 l
2.60 -0.37 l
2.60 -0.28 l
2.59 -0.19 l
2.60 -0.27 l
2.59 -0.19 l
2.60 -0.18 l
2.59 -0.10 l
2.60 -0.18 l
2.60 -0.10 l
2.59 -0.09 l
2.60 -0.09 l
2.59 -0.09 l
2.60 -0.10 l
2.60 -0.09 l
2.59 0 l
2.60 -0.09 l
2.59 0 l
2.60 -0.09 l
2.59 0 l
2.60 0 l
2.60 -0.10 l
2.59 0 l
2.60 0 l
2.59 0 l
2.60 -0.09 l
2.59 0 l
2.60 0 l
2.60 0 l
2.59 0 l
2.60 0 l
2.59 0 l
2.60 0 l
2.60 0 l
2.59 -0.09 l
2.60 0 l
2.59 0 l
2.60 0 l
2.59 0 l
2.60 0 l
2.60 0 l
2.59 0 l
2.60 0 l
2.59 0 l
2.60 0 l
2.59 0 l
2.60 0 l
2.60 0 l
2.59 0 l
2.60 0 l
2.59 0 l
2.60 0 l
2.59 0 l
2.60 0 l
2.60 0 l
2.59 0 l
2.60 0 l
2.59 0 l
2.60 0 l
o
0.5294 0.8078 0.9804 srgb
np
42.74 43.31 m
2.59 1.35 l
2.60 10.87 l
2.59 20.14 l
2.60 21.44 l
2.60 18.00 l
2.59 13.34 l
2.60 9.13 l
2.59 5.64 l
2.60 3.15 l
2.60 1.48 l
2.59 0.28 l
2.60 -0.55 l
2.59 -0.84 l
2.60 -1.11 l
2.59 -1.20 l
2.60 -1.21 l
2.60 -1.11 l
2.59 -1.02 l
2.60 -0.83 l
2.59 -0.74 l
2.60 -0.74 l
2.59 -0.56 l
2.60 -0.46 l
2.60 -0.37 l
2.59 -0.37 l
2.60 -0.19 l
2.59 -0.27 l
2.60 -0.19 l
2.60 -0.09 l
2.59 -0.09 l
2.60 -0.10 l
2.59 -0.09 l
2.60 0 l
2.59 -0.09 l
2.60 -0.01 l
2.60 -0.02 l
2.59 -0.02 l
2.60 -0.01 l
2.59 -0.01 l
2.60 0 l
2.59 0 l
2.60 0 l
2.60 0 l
2.59 0.01 l
2.60 0 l
2.59 0.01 l
2.60 0 l
2.59 0 l
2.60 0.01 l
2.60 0 l
2.59 0 l
2.60 0.01 l
2.59 0 l
2.60 0 l
2.60 0.01 l
2.59 0 l
2.60 0 l
2.59 0 l
2.60 0.01 l
2.59 0 l
2.60 0 l
2.60 0 l
2.59 0 l
2.60 0 l
2.59 0 l
2.60 0 l
2.59 0 l
2.60 0.01 l
2.60 0 l
2.59 0 l
2.60 0 l
2.59 0 l
2.60 0 l
2.60 0 l
2.59 0 l
2.60 0 l
2.59 0 l
2.60 0 l
2.59 0 l
2.60 0 l
2.60 0 l
2.59 0 l
2.60 0 l
2.59 0 l
2.60 0 l
2.59 0 l
2.60 0 l
2.60 0 l
2.59 0 l
2.60 0 l
2.59 0 l
2.60 0 l
2.59 0 l
2.60 0 l
2.60 0 l
2.59 0 l
2.60 0 l
2.59 0 l
2.60 0 l
o
0.9333 0.7882 0 srgb
np
42.74 43.31 m
2.59 0.24 l
2.60 2.07 l
2.59 4.76 l
2.60 6.85 l
2.60 7.90 l
2.59 8.07 l
2.60 7.70 l
2.59 7.05 l
2.60 6.32 l
2.60 5.57 l
2.59 4.88 l
2.60 4.24 l
2.59 3.69 l
2.60 3.18 l
2.59 2.75 l
2.60 2.38 l
2.60 2.06 l
2.59 1.78 l
2.60 1.53 l
2.59 1.31 l
2.60 1.14 l
2.59 0.98 l
2.60 0.84 l
2.60 0.73 l
2.59 0.63 l
2.60 0.55 l
2.59 0.46 l
2.60 0.41 l
2.60 0.34 l
2.59 0.31 l
2.60 0.26 l
2.59 0.22 l
2.60 0.20 l
2.59 0.16 l
2.60 0.14 l
2.60 0.12 l
2.59 0.11 l
2.60 0.09 l
2.59 0.08 l
2.60 0.07 l
2.59 0.06 l
2.60 0.05 l
2.60 0.04 l
2.59 0.04 l
2.60 0.04 l
2.59 0.02 l
2.60 0.03 l
2.59 0.02 l
2.60 0.02 l
2.60 0.01 l
2.59 0.02 l
2.60 0 l
2.59 0.01 l
2.60 0.01 l
2.60 0.01 l
2.59 0.01 l
2.60 0 l
2.59 0.01 l
2.60 0 l
2.59 0.01 l
2.60 0 l
2.60 0 l
2.59 0 l
2.60 0.01 l
2.59 0 l
2.60 0 l
2.59 0 l
2.60 0 l
2.60 0 l
2.59 0 l
2.60 0.01 l
2.59 0 l
2.60 0 l
2.60 0 l
2.59 0 l
2.60 0 l
2.59 0 l
2.60 0 l
2.59 0 l
2.60 0 l
2.60 0 l
2.59 0 l
2.60 0 l
2.59 0 l
2.60 0 l
2.59 0 l
2.60 0 l
2.60 0 l
2.59 0 l
2.60 0 l
2.59 0 l
2.60 0 l
2.59 0 l
2.60 0 l
2.60 0 l
2.59 0 l
2.60 0 l
2.59 0 l
2.60 0 l
o
0.00 0.00 391.50 346.50 cl
0.00 0.00 391.50 346.50 cl
0.00 0.00 391.50 346.50 cl
0.00 0.00 391.50 346.50 cl
0.00 0.00 391.50 346.50 cl
0.00 0.00 391.50 346.50 cl
/Font1 findfont 9 s
0.3020 0.3020 0.3020 srgb
24.96 40.08 (0) 1 0 t
24.96 132.68 (1) 1 0 t
24.96 225.27 (2) 1 0 t
24.96 317.87 (3) 1 0 t
0.00 0.00 391.50 346.50 cl
0.00 0.00 391.50 346.50 cl
0.2000 0.2000 0.2000 srgb
1.07 setlinewidth
[] 0 setdash
0 setlinecap
1 setlinejoin
10.00 setmiterlimit
np
27.15 43.31 m
2.74 0 l
o
np
27.15 135.91 m
2.74 0 l
o
np
27.15 228.51 m
2.74 0 l
o
np
27.15 321.10 m
2.74 0 l
o
0.00 0.00 391.50 346.50 cl
0.00 0.00 391.50 346.50 cl
0.00 0.00 391.50 346.50 cl
0.00 0.00 391.50 346.50 cl
0.00 0.00 391.50 346.50 cl
0.00 0.00 391.50 346.50 cl
0.00 0.00 391.50 346.50 cl
0.00 0.00 391.50 346.50 cl
0.2000 0.2000 0.2000 srgb
1.07 setlinewidth
[] 0 setdash
0 setlinecap
1 setlinejoin
10.00 setmiterlimit
np
40.14 26.40 m
0 2.74 l
o
np
126.67 26.40 m
0 2.74 l
o
np
213.19 26.40 m
0 2.74 l
o
np
299.72 26.40 m
0 2.74 l
o
0.00 0.00 391.50 346.50 cl
0.00 0.00 391.50 346.50 cl
/Font1 findfont 9 s
0.3020 0.3020 0.3020 srgb
40.14 17.74 (0.0) .5 0 t
126.67 17.74 (0.5) .5 0 t
213.19 17.74 (1.0) .5 0 t
299.72 17.74 (1.5) .5 0 t
0.00 0.00 391.50 346.50 cl
0.00 0.00 391.50 346.50 cl
0.00 0.00 391.50 346.50 cl
0.00 0.00 391.50 346.50 cl
/Font5 findfont 11 s
0 0 0 srgb
167.46 7.86 (w) 0 0 t
0.00 0.00 391.50 346.50 cl
0.00 0.00 391.50 346.50 cl
/Font1 findfont 11 s
0 0 0 srgb
15.57 185.08 (V) .5 90 t
0.00 0.00 391.50 346.50 cl
0.00 0.00 391.50 346.50 cl
0.00 0.00 391.50 346.50 cl
0.00 0.00 391.50 346.50 cl
/bg { 1 1 1 srgb } def
321.07 139.61 56.44 90.94 r p2
0.00 0.00 391.50 346.50 cl
0.00 0.00 391.50 346.50 cl
/Font1 findfont 11 s
0 0 0 srgb
325.32 220.10 (y) 0 0 t
0.00 0.00 391.50 346.50 cl
0.00 0.00 391.50 346.50 cl
/bg { 0.9490 0.9490 0.9490 srgb } def
1 1 1 srgb
1.07 setlinewidth
[] 0 setdash
1 setlinecap
1 setlinejoin
10.00 setmiterlimit
325.32 195.70 17.28 17.28 r p3
0.00 0.00 391.50 346.50 cl
0.00 0.00 391.50 346.50 cl
0.5608 0.7373 0.5608 srgb
1.07 setlinewidth
[] 0 setdash
0 setlinecap
1 setlinejoin
10.00 setmiterlimit
np
327.05 204.34 m
13.83 0 l
o
0.00 0.00 391.50 346.50 cl
0.00 0.00 391.50 346.50 cl
0.5608 0.7373 0.5608 srgb
1.07 setlinewidth
[] 0 setdash
0 setlinecap
1 setlinejoin
10.00 setmiterlimit
np
327.05 204.34 m
13.83 0 l
o
0.00 0.00 391.50 346.50 cl
0.00 0.00 391.50 346.50 cl
0.5608 0.7373 0.5608 srgb
1.07 setlinewidth
[] 0 setdash
0 setlinecap
1 setlinejoin
10.00 setmiterlimit
np
327.05 204.34 m
13.83 0 l
o
0.00 0.00 391.50 346.50 cl
0.00 0.00 391.50 346.50 cl
0.5608 0.7373 0.5608 srgb
1.07 setlinewidth
[] 0 setdash
0 setlinecap
1 setlinejoin
10.00 setmiterlimit
np
327.05 204.34 m
13.83 0 l
o
0.00 0.00 391.50 346.50 cl
0.00 0.00 391.50 346.50 cl
/bg { 0.9490 0.9490 0.9490 srgb } def
1 1 1 srgb
1.07 setlinewidth
[] 0 setdash
1 setlinecap
1 setlinejoin
10.00 setmiterlimit
325.32 178.42 17.28 17.28 r p3
0.00 0.00 391.50 346.50 cl
0.00 0.00 391.50 346.50 cl
1 0.3882 0.2784 srgb
1.07 setlinewidth
[] 0 setdash
0 setlinecap
1 setlinejoin
10.00 setmiterlimit
np
327.05 187.06 m
13.83 0 l
o
0.00 0.00 391.50 346.50 cl
0.00 0.00 391.50 346.50 cl
1 0.3882 0.2784 srgb
1.07 setlinewidth
[] 0 setdash
0 setlinecap
1 setlinejoin
10.00 setmiterlimit
np
327.05 187.06 m
13.83 0 l
o
0.00 0.00 391.50 346.50 cl
0.00 0.00 391.50 346.50 cl
1 0.3882 0.2784 srgb
1.07 setlinewidth
[] 0 setdash
0 setlinecap
1 setlinejoin
10.00 setmiterlimit
np
327.05 187.06 m
13.83 0 l
o
0.00 0.00 391.50 346.50 cl
0.00 0.00 391.50 346.50 cl
1 0.3882 0.2784 srgb
1.07 setlinewidth
[] 0 setdash
0 setlinecap
1 setlinejoin
10.00 setmiterlimit
np
327.05 187.06 m
13.83 0 l
o
0.00 0.00 391.50 346.50 cl
0.00 0.00 391.50 346.50 cl
/bg { 0.9490 0.9490 0.9490 srgb } def
1 1 1 srgb
1.07 setlinewidth
[] 0 setdash
1 setlinecap
1 setlinejoin
10.00 setmiterlimit
325.32 161.14 17.28 17.28 r p3
0.00 0.00 391.50 346.50 cl
0.00 0.00 391.50 346.50 cl
0.5294 0.8078 0.9804 srgb
1.07 setlinewidth
[] 0 setdash
0 setlinecap
1 setlinejoin
10.00 setmiterlimit
np
327.05 169.78 m
13.83 0 l
o
0.00 0.00 391.50 346.50 cl
0.00 0.00 391.50 346.50 cl
0.5294 0.8078 0.9804 srgb
1.07 setlinewidth
[] 0 setdash
0 setlinecap
1 setlinejoin
10.00 setmiterlimit
np
327.05 169.78 m
13.83 0 l
o
0.00 0.00 391.50 346.50 cl
0.00 0.00 391.50 346.50 cl
0.5294 0.8078 0.9804 srgb
1.07 setlinewidth
[] 0 setdash
0 setlinecap
1 setlinejoin
10.00 setmiterlimit
np
327.05 169.78 m
13.83 0 l
o
0.00 0.00 391.50 346.50 cl
0.00 0.00 391.50 346.50 cl
0.5294 0.8078 0.9804 srgb
1.07 setlinewidth
[] 0 setdash
0 setlinecap
1 setlinejoin
10.00 setmiterlimit
np
327.05 169.78 m
13.83 0 l
o
0.00 0.00 391.50 346.50 cl
0.00 0.00 391.50 346.50 cl
/bg { 0.9490 0.9490 0.9490 srgb } def
1 1 1 srgb
1.07 setlinewidth
[] 0 setdash
1 setlinecap
1 setlinejoin
10.00 setmiterlimit
325.32 143.86 17.28 17.28 r p3
0.00 0.00 391.50 346.50 cl
0.00 0.00 391.50 346.50 cl
0.9333 0.7882 0 srgb
1.07 setlinewidth
[] 0 setdash
0 setlinecap
1 setlinejoin
10.00 setmiterlimit
np
327.05 152.50 m
13.83 0 l
o
0.00 0.00 391.50 346.50 cl
0.00 0.00 391.50 346.50 cl
0.9333 0.7882 0 srgb
1.07 setlinewidth
[] 0 setdash
0 setlinecap
1 setlinejoin
10.00 setmiterlimit
np
327.05 152.50 m
13.83 0 l
o
0.00 0.00 391.50 346.50 cl
0.00 0.00 391.50 346.50 cl
0.9333 0.7882 0 srgb
1.07 setlinewidth
[] 0 setdash
0 setlinecap
1 setlinejoin
10.00 setmiterlimit
np
327.05 152.50 m
13.83 0 l
o
0.00 0.00 391.50 346.50 cl
0.00 0.00 391.50 346.50 cl
0.9333 0.7882 0 srgb
1.07 setlinewidth
[] 0 setdash
0 setlinecap
1 setlinejoin
10.00 setmiterlimit
np
327.05 152.50 m
13.83 0 l
o
0.00 0.00 391.50 346.50 cl
0.00 0.00 391.50 346.50 cl
/Font1 findfont 9 s
0 0 0 srgb
344.76 201.11 (0.5357) 0 0 t
0.00 0.00 391.50 346.50 cl
0.00 0.00 391.50 346.50 cl
/Font1 findfont 9 s
0 0 0 srgb
344.76 183.83 (0.75) 0 0 t
0.00 0.00 391.50 346.50 cl
0.00 0.00 391.50 346.50 cl
/Font1 findfont 9 s
0 0 0 srgb
344.76 166.55 (0.9) 0 0 t
0.00 0.00 391.50 346.50 cl
0.00 0.00 391.50 346.50 cl
/Font1 findfont 9 s
0 0 0 srgb
344.76 149.27 (2.25) 0 0 t
0.00 0.00 391.50 346.50 cl
0.00 0.00 391.50 346.50 cl
0.00 0.00 391.50 346.50 cl
0.00 0.00 391.50 346.50 cl
0.00 0.00 391.50 346.50 cl
0.00 0.00 391.50 346.50 cl
ep
%%Trailer
%%Pages: 1
%%EOF
