%!PS-Adobe-3.0 EPSF-3.0
%%DocumentNeededResources: font Helvetica
%%+ font Helvetica-Bold
%%+ font Helvetica-Oblique
%%+ font Helvetica-BoldOblique
%%+ font Symbol
%%Title: R Graphics Output
%%Creator: R Software
%%Pages: (atend)
%%BoundingBox: 0 0 392 347
%%EndComments
%%BeginProlog
/bp  { gs sRGB gs } def
% begin .ps.prolog
/gs  { gsave } bind def
/gr  { grestore } bind def
/ep  { showpage gr gr } bind def
/m   { moveto } bind def
/l  { rlineto } bind def
/np  { newpath } bind def
/cp  { closepath } bind def
/f   { fill } bind def
/o   { stroke } bind def
/c   { newpath 0 360 arc } bind def
/r   { 4 2 roll moveto 1 copy 3 -1 roll exch 0 exch rlineto 0 rlineto -1 mul 0 exch rlineto closepath } bind def
/p1  { stroke } bind def
/p2  { gsave bg fill grestore newpath } bind def
/p3  { gsave bg fill grestore stroke } bind def
/p6  { gsave bg eofill grestore newpath } bind def
/p7  { gsave bg eofill grestore stroke } bind def
/t   { 5 -2 roll moveto gsave rotate
       1 index stringwidth pop
       mul neg 0 rmoveto show grestore } bind def
/ta  { 4 -2 roll moveto gsave rotate show } bind def
/tb  { 2 -1 roll 0 rmoveto show } bind def
/cl  { grestore gsave newpath 3 index 3 index moveto 1 index
       4 -1 roll lineto  exch 1 index lineto lineto
       closepath clip newpath } bind def
/rgb { setrgbcolor } bind def
/s   { scalefont setfont } bind def
% end   .ps.prolog
/sRGB { [ /CIEBasedABC
          << /DecodeLMN
               [ { dup 0.03928 le
                        {12.92321 div}
                        {0.055 add 1.055 div 2.4 exp }
                     ifelse
                 } bind dup dup
               ]
             /MatrixLMN [0.412457 0.212673 0.019334
                         0.357576 0.715152 0.119192
                         0.180437 0.072175 0.950301]
             /WhitePoint [0.9505 1.0 1.0890]
           >>
         ] setcolorspace } bind def
/srgb { setcolor } bind def
% begin encoding
/WinAnsiEncoding [
 /.notdef /.notdef /.notdef /.notdef /.notdef /.notdef /.notdef /.notdef
 /.notdef /.notdef /.notdef /.notdef /.notdef /.notdef /.notdef /.notdef
 /.notdef /.notdef /.notdef /.notdef /.notdef /.notdef /.notdef /.notdef
 /.notdef /.notdef /.notdef /.notdef /.notdef /.notdef /.notdef /.notdef
 /space /exclam /quotedbl /numbersign /dollar /percent /ampersand /quoteright
 /parenleft /parenright /asterisk /plus /comma /minus /period /slash
 /zero /one /two /three /four /five /six /seven
 /eight /nine /colon /semicolon /less /equal /greater /question
 /at /A /B /C /D /E /F /G
 /H /I /J /K /L /M /N /O
 /P /Q /R /S /T /U /V /W
 /X /Y /Z /bracketleft /backslash /bracketright /asciicircum /underscore
 /grave /a /b /c /d /e /f /g
 /h /i /j /k /l /m /n /o
 /p /q /r /s /t /u /v /w
 /x /y /z /braceleft /bar /braceright /asciitilde /.notdef
 /Euro /.notdef /quotesinglbase /florin /quotedblbase /ellipsis /dagger /daggerdbl
 /circumflex /perthousand /Scaron /guilsinglleft /OE /.notdef /Zcaron /.notdef
 /.notdef /quoteleft /quoteright /quotedblleft /quotedblright /bullet /endash /emdash
 /tilde /trademark /scaron /guilsinglright /oe /.notdef /zcaron /Ydieresis
 /space /exclamdown /cent /sterling /currency /yen /brokenbar /section
 /dieresis /copyright /ordfeminine /guillemotleft /logicalnot /hyphen /registered /macron
 /degree /plusminus /twosuperior /threesuperior /acute /mu /paragraph /periodcentered
 /cedilla /onesuperior /ordmasculine /guillemotright /onequarter /onehalf /threequarters /questiondown
 /Agrave /Aacute /Acircumflex /Atilde /Adieresis /Aring /AE /Ccedilla
 /Egrave /Eacute /Ecircumflex /Edieresis /Igrave /Iacute /Icircumflex /Idieresis
 /Eth /Ntilde /Ograve /Oacute /Ocircumflex /Otilde /Odieresis /multiply
 /Oslash /Ugrave /Uacute /Ucircumflex /Udieresis /Yacute /Thorn /germandbls
 /agrave /aacute /acircumflex /atilde /adieresis /aring /ae /ccedilla
 /egrave /eacute /ecircumflex /edieresis /igrave /iacute /icircumflex /idieresis
 /eth /ntilde /ograve /oacute /ocircumflex /otilde /odieresis /divide
 /oslash /ugrave /uacute /ucircumflex /udieresis /yacute /thorn /ydieresis
]
 def
% end encoding
%%IncludeResource: font Helvetica
/Helvetica findfont
dup length dict begin
  {1 index /FID ne {def} {pop pop} ifelse} forall
  /Encoding WinAnsiEncoding def
  currentdict
  end
/Font1 exch definefont pop
%%IncludeResource: font Helvetica-Bold
/Helvetica-Bold findfont
dup length dict begin
  {1 index /FID ne {def} {pop pop} ifelse} forall
  /Encoding WinAnsiEncoding def
  currentdict
  end
/Font2 exch definefont pop
%%IncludeResource: font Helvetica-Oblique
/Helvetica-Oblique findfont
dup length dict begin
  {1 index /FID ne {def} {pop pop} ifelse} forall
  /Encoding WinAnsiEncoding def
  currentdict
  end
/Font3 exch definefont pop
%%IncludeResource: font Helvetica-BoldOblique
/Helvetica-BoldOblique findfont
dup length dict begin
  {1 index /FID ne {def} {pop pop} ifelse} forall
  /Encoding WinAnsiEncoding def
  currentdict
  end
/Font4 exch definefont pop
%%IncludeResource: font Symbol
/Symbol findfont
dup length dict begin
  {1 index /FID ne {def} {pop pop} ifelse} forall
  currentdict
  end
/Font5 exch definefont pop
%%EndProlog
%%Page: 1 1
bp
0.00 0.00 391.50 346.50 cl
0.00 0.00 391.50 346.50 cl
0.00 0.00 391.50 346.50 cl
0.00 0.00 391.50 346.50 cl
0.00 0.00 391.50 346.50 cl
0.00 0.00 391.50 346.50 cl
0.00 0.00 391.50 346.50 cl
0.00 0.00 391.50 346.50 cl
0.00 0.00 391.50 346.50 cl
/bg { 1 1 1 srgb } def
1 1 1 srgb
1.07 setlinewidth
[] 0 setdash
1 setlinecap
1 setlinejoin
10.00 setmiterlimit
0.00 0.00 391.50 346.50 r p3
0.00 0.00 391.50 346.50 cl
0.00 0.00 391.50 346.50 cl
0.00 0.00 391.50 346.50 cl
37.39 29.14 330.57 341.02 cl
/bg { 0.9216 0.9216 0.9216 srgb } def
37.39 29.14 293.17 311.89 r p2
1 1 1 srgb
0.53 setlinewidth
[] 0 setdash
0 setlinecap
1 setlinejoin
10.00 setmiterlimit
np
37.39 86.48 m
293.18 0 l
o
np
37.39 172.82 m
293.18 0 l
o
np
37.39 259.16 m
293.18 0 l
o
np
92.90 29.14 m
0 311.88 l
o
np
182.64 29.14 m
0 311.88 l
o
np
272.37 29.14 m
0 311.88 l
o
1.07 setlinewidth
[] 0 setdash
np
37.39 43.31 m
293.18 0 l
o
np
37.39 129.65 m
293.18 0 l
o
np
37.39 215.99 m
293.18 0 l
o
np
37.39 302.32 m
293.18 0 l
o
np
48.03 29.14 m
0 311.88 l
o
np
137.77 29.14 m
0 311.88 l
o
np
227.50 29.14 m
0 311.88 l
o
np
317.24 29.14 m
0 311.88 l
o
1 0.3882 0.2784 srgb
1.00 setmiterlimit
np
50.72 43.31 m
2.69 3.49 l
2.69 28.42 l
2.70 53.15 l
2.69 56.93 l
2.69 48.13 l
2.69 35.74 l
2.70 24.35 l
2.69 15.02 l
2.69 8.29 l
2.69 3.11 l
2.69 -0.52 l
2.70 -2.94 l
2.69 -4.49 l
2.69 -5.52 l
2.69 -6.05 l
2.69 -6.38 l
2.70 -6.22 l
2.69 -6.22 l
2.69 -5.87 l
2.69 -5.52 l
2.70 -5.36 l
2.69 -4.83 l
2.69 -4.32 l
2.69 -4.14 l
2.69 -3.63 l
2.70 -3.45 l
2.69 -2.94 l
2.69 -2.76 l
2.69 -2.42 l
2.69 -2.24 l
2.70 -2.07 l
2.69 -1.73 l
2.69 -1.56 l
2.69 -1.38 l
2.70 -1.38 l
2.69 -1.03 l
2.69 -1.04 l
2.69 -0.86 l
2.69 -0.87 l
2.70 -0.69 l
2.69 -0.52 l
2.69 -0.69 l
2.69 -0.51 l
2.69 -0.35 l
2.70 -0.35 l
2.69 -0.34 l
2.69 -0.35 l
2.69 -0.34 l
2.70 -0.17 l
2.69 -0.18 l
2.69 -0.17 l
2.69 -0.17 l
2.69 -0.18 l
2.70 -0.17 l
2.69 -0.17 l
2.69 0 l
2.69 -0.17 l
2.69 0 l
2.70 -0.18 l
2.69 0 l
2.69 0 l
2.69 -0.17 l
2.70 0 l
2.69 0 l
2.69 0 l
2.69 -0.17 l
2.69 0 l
2.70 0 l
2.69 0 l
2.69 0 l
2.69 0 l
2.69 0 l
2.70 0 l
2.69 0 l
2.69 -0.17 l
2.69 0 l
2.70 0 l
2.69 0 l
2.69 0 l
2.69 0 l
2.69 0 l
2.70 0 l
2.69 0 l
2.69 0 l
2.69 0 l
2.69 0 l
2.70 0 l
2.69 0 l
2.69 0 l
2.69 0 l
2.70 0 l
2.69 0 l
2.69 0 l
2.69 0 l
2.69 0 l
2.70 0 l
2.69 0 l
2.69 0 l
2.69 0 l
o
0.5608 0.7373 0.5608 srgb
np
50.72 43.31 m
2.69 3.97 l
2.69 30.89 l
2.70 56.07 l
2.69 58.92 l
2.69 48.90 l
2.69 35.92 l
2.70 24.17 l
2.69 14.68 l
2.69 7.60 l
2.69 2.41 l
2.69 -1.03 l
2.70 -3.46 l
2.69 -5.18 l
2.69 -6.04 l
2.69 -6.39 l
2.69 -6.91 l
2.70 -6.56 l
2.69 -6.56 l
2.69 -6.22 l
2.69 -5.87 l
2.70 -5.52 l
2.69 -5.01 l
2.69 -4.66 l
2.69 -4.32 l
2.69 -3.80 l
2.70 -3.62 l
2.69 -3.11 l
2.69 -2.94 l
2.69 -2.41 l
2.69 -2.42 l
2.70 -2.07 l
2.69 -1.73 l
2.69 -1.73 l
2.69 -1.55 l
2.70 -1.21 l
2.69 -1.21 l
2.69 -1.04 l
2.69 -0.86 l
2.69 -0.86 l
2.70 -0.87 l
2.69 -0.51 l
2.69 -0.69 l
2.69 -0.52 l
2.69 -0.35 l
2.70 -0.52 l
2.69 -0.34 l
2.69 -0.35 l
2.69 -0.17 l
2.70 -0.34 l
2.69 -0.18 l
2.69 -0.17 l
2.69 -0.17 l
2.69 -0.18 l
2.70 -0.17 l
2.69 -0.17 l
2.69 0 l
2.69 -0.17 l
2.69 0 l
2.70 -0.18 l
2.69 0 l
2.69 0 l
2.69 -0.17 l
2.70 0 l
2.69 0 l
2.69 0 l
2.69 -0.17 l
2.69 0 l
2.70 0 l
2.69 0 l
2.69 0 l
2.69 0 l
2.69 0 l
2.70 0 l
2.69 0 l
2.69 -0.17 l
2.69 0 l
2.70 0 l
2.69 0 l
2.69 0 l
2.69 0 l
2.69 0 l
2.70 0 l
2.69 0 l
2.69 0 l
2.69 0 l
2.69 0 l
2.70 0 l
2.69 0 l
2.69 0 l
2.69 0 l
2.70 0 l
2.69 0 l
2.69 0 l
2.69 0 l
2.69 0 l
2.70 0 l
2.69 0 l
2.69 0 l
2.69 0 l
o
0.5294 0.8078 0.9804 srgb
np
50.72 43.31 m
2.69 2.52 l
2.69 22.62 l
2.70 45.33 l
2.69 51.11 l
2.69 44.95 l
2.69 34.81 l
2.70 24.52 l
2.69 16.23 l
2.69 9.67 l
2.69 4.84 l
2.69 1.03 l
2.70 -1.21 l
2.69 -2.93 l
2.69 -4.15 l
2.69 -4.83 l
2.69 -5.01 l
2.70 -5.18 l
2.69 -5.18 l
2.69 -4.83 l
2.69 -4.84 l
2.70 -4.32 l
2.69 -4.14 l
2.69 -3.80 l
2.69 -3.62 l
2.69 -3.11 l
2.70 -2.94 l
2.69 -2.59 l
2.69 -2.42 l
2.69 -2.07 l
2.69 -1.90 l
2.70 -1.72 l
2.69 -1.56 l
2.69 -1.38 l
2.69 -1.21 l
2.70 -1.21 l
2.69 -0.86 l
2.69 -0.86 l
2.69 -0.87 l
2.69 -0.69 l
2.70 -0.69 l
2.69 -0.52 l
2.69 -0.51 l
2.69 -0.35 l
2.69 -0.35 l
2.70 -0.34 l
2.69 -0.35 l
2.69 -0.34 l
2.69 -0.17 l
2.70 -0.18 l
2.69 -0.17 l
2.69 -0.17 l
2.69 -0.18 l
2.69 -0.17 l
2.70 -0.17 l
2.69 0 l
2.69 -0.17 l
2.69 0 l
2.69 -0.18 l
2.70 0 l
2.69 0 l
2.69 -0.17 l
2.69 0 l
2.70 0 l
2.69 0 l
2.69 -0.17 l
2.69 0 l
2.69 0 l
2.70 0 l
2.69 0 l
2.69 0 l
2.69 0 l
2.69 0 l
2.70 0 l
2.69 -0.17 l
2.69 0 l
2.69 0 l
2.70 0 l
2.69 0 l
2.69 0 l
2.69 0 l
2.69 0 l
2.70 0 l
2.69 0 l
2.69 0 l
2.69 0 l
2.69 0 l
2.70 0 l
2.69 0 l
2.69 0 l
2.69 0 l
2.70 0 l
2.69 0 l
2.69 0 l
2.69 0 l
2.69 0 l
2.70 0 l
2.69 0 l
2.69 0 l
2.69 0 l
o
0.00 0.00 391.50 346.50 cl
0.00 0.00 391.50 346.50 cl
0.00 0.00 391.50 346.50 cl
0.00 0.00 391.50 346.50 cl
0.00 0.00 391.50 346.50 cl
0.00 0.00 391.50 346.50 cl
/Font1 findfont 9 s
0.3020 0.3020 0.3020 srgb
32.46 40.08 (0.0) 1 0 t
32.46 126.42 (0.5) 1 0 t
32.46 212.76 (1.0) 1 0 t
32.46 299.09 (1.5) 1 0 t
0.00 0.00 391.50 346.50 cl
0.00 0.00 391.50 346.50 cl
0.2000 0.2000 0.2000 srgb
1.07 setlinewidth
[] 0 setdash
0 setlinecap
1 setlinejoin
10.00 setmiterlimit
np
34.65 43.31 m
2.74 0 l
o
np
34.65 129.65 m
2.74 0 l
o
np
34.65 215.99 m
2.74 0 l
o
np
34.65 302.32 m
2.74 0 l
o
0.00 0.00 391.50 346.50 cl
0.00 0.00 391.50 346.50 cl
0.00 0.00 391.50 346.50 cl
0.00 0.00 391.50 346.50 cl
0.00 0.00 391.50 346.50 cl
0.00 0.00 391.50 346.50 cl
0.00 0.00 391.50 346.50 cl
0.00 0.00 391.50 346.50 cl
0.2000 0.2000 0.2000 srgb
1.07 setlinewidth
[] 0 setdash
0 setlinecap
1 setlinejoin
10.00 setmiterlimit
np
48.03 26.40 m
0 2.74 l
o
np
137.77 26.40 m
0 2.74 l
o
np
227.50 26.40 m
0 2.74 l
o
np
317.24 26.40 m
0 2.74 l
o
0.00 0.00 391.50 346.50 cl
0.00 0.00 391.50 346.50 cl
/Font1 findfont 9 s
0.3020 0.3020 0.3020 srgb
48.03 17.74 (0.0) .5 0 t
137.77 17.74 (0.5) .5 0 t
227.50 17.74 (1.0) .5 0 t
317.24 17.74 (1.5) .5 0 t
0.00 0.00 391.50 346.50 cl
0.00 0.00 391.50 346.50 cl
0.00 0.00 391.50 346.50 cl
0.00 0.00 391.50 346.50 cl
/Font5 findfont 11 s
0 0 0 srgb
180.21 7.86 (w) 0 0 t
0.00 0.00 391.50 346.50 cl
0.00 0.00 391.50 346.50 cl
/Font1 findfont 11 s
0 0 0 srgb
15.57 185.08 (V) .5 90 t
0.00 0.00 391.50 346.50 cl
0.00 0.00 391.50 346.50 cl
0.00 0.00 391.50 346.50 cl
0.00 0.00 391.50 346.50 cl
/bg { 1 1 1 srgb } def
339.07 146.54 38.44 77.08 r p2
0.00 0.00 391.50 346.50 cl
0.00 0.00 391.50 346.50 cl
/Font5 findfont 11 s
0 0 0 srgb
343.32 208.85 (g) 0 0 t
/Font1 findfont 8 s
347.85 214.32 (2) 0 0 t
0.00 0.00 391.50 346.50 cl
0.00 0.00 391.50 346.50 cl
/bg { 0.9490 0.9490 0.9490 srgb } def
1 1 1 srgb
1.07 setlinewidth
[] 0 setdash
1 setlinecap
1 setlinejoin
10.00 setmiterlimit
343.32 185.35 17.28 17.28 r p3
0.00 0.00 391.50 346.50 cl
0.00 0.00 391.50 346.50 cl
0.5608 0.7373 0.5608 srgb
1.07 setlinewidth
[] 0 setdash
0 setlinecap
1 setlinejoin
10.00 setmiterlimit
np
345.05 193.99 m
13.83 0 l
o
0.00 0.00 391.50 346.50 cl
0.00 0.00 391.50 346.50 cl
0.5608 0.7373 0.5608 srgb
1.07 setlinewidth
[] 0 setdash
0 setlinecap
1 setlinejoin
10.00 setmiterlimit
np
345.05 193.99 m
13.83 0 l
o
0.00 0.00 391.50 346.50 cl
0.00 0.00 391.50 346.50 cl
0.5608 0.7373 0.5608 srgb
1.07 setlinewidth
[] 0 setdash
0 setlinecap
1 setlinejoin
10.00 setmiterlimit
np
345.05 193.99 m
13.83 0 l
o
0.00 0.00 391.50 346.50 cl
0.00 0.00 391.50 346.50 cl
/bg { 0.9490 0.9490 0.9490 srgb } def
1 1 1 srgb
1.07 setlinewidth
[] 0 setdash
1 setlinecap
1 setlinejoin
10.00 setmiterlimit
343.32 168.07 17.28 17.28 r p3
0.00 0.00 391.50 346.50 cl
0.00 0.00 391.50 346.50 cl
1 0.3882 0.2784 srgb
1.07 setlinewidth
[] 0 setdash
0 setlinecap
1 setlinejoin
10.00 setmiterlimit
np
345.05 176.71 m
13.83 0 l
o
0.00 0.00 391.50 346.50 cl
0.00 0.00 391.50 346.50 cl
1 0.3882 0.2784 srgb
1.07 setlinewidth
[] 0 setdash
0 setlinecap
1 setlinejoin
10.00 setmiterlimit
np
345.05 176.71 m
13.83 0 l
o
0.00 0.00 391.50 346.50 cl
0.00 0.00 391.50 346.50 cl
1 0.3882 0.2784 srgb
1.07 setlinewidth
[] 0 setdash
0 setlinecap
1 setlinejoin
10.00 setmiterlimit
np
345.05 176.71 m
13.83 0 l
o
0.00 0.00 391.50 346.50 cl
0.00 0.00 391.50 346.50 cl
/bg { 0.9490 0.9490 0.9490 srgb } def
1 1 1 srgb
1.07 setlinewidth
[] 0 setdash
1 setlinecap
1 setlinejoin
10.00 setmiterlimit
343.32 150.79 17.28 17.28 r p3
0.00 0.00 391.50 346.50 cl
0.00 0.00 391.50 346.50 cl
0.5294 0.8078 0.9804 srgb
1.07 setlinewidth
[] 0 setdash
0 setlinecap
1 setlinejoin
10.00 setmiterlimit
np
345.05 159.43 m
13.83 0 l
o
0.00 0.00 391.50 346.50 cl
0.00 0.00 391.50 346.50 cl
0.5294 0.8078 0.9804 srgb
1.07 setlinewidth
[] 0 setdash
0 setlinecap
1 setlinejoin
10.00 setmiterlimit
np
345.05 159.43 m
13.83 0 l
o
0.00 0.00 391.50 346.50 cl
0.00 0.00 391.50 346.50 cl
0.5294 0.8078 0.9804 srgb
1.07 setlinewidth
[] 0 setdash
0 setlinecap
1 setlinejoin
10.00 setmiterlimit
np
345.05 159.43 m
13.83 0 l
o
0.00 0.00 391.50 346.50 cl
0.00 0.00 391.50 346.50 cl
/Font1 findfont 9 s
0 0 0 srgb
362.76 190.76 (40) 0 0 t
0.00 0.00 391.50 346.50 cl
0.00 0.00 391.50 346.50 cl
/Font1 findfont 9 s
0 0 0 srgb
362.76 173.48 (10) 0 0 t
0.00 0.00 391.50 346.50 cl
0.00 0.00 391.50 346.50 cl
/Font1 findfont 9 s
0 0 0 srgb
362.76 156.20 (5) 0 0 t
0.00 0.00 391.50 346.50 cl
0.00 0.00 391.50 346.50 cl
0.00 0.00 391.50 346.50 cl
0.00 0.00 391.50 346.50 cl
0.00 0.00 391.50 346.50 cl
0.00 0.00 391.50 346.50 cl
ep
%%Trailer
%%Pages: 1
%%EOF
