%!PS-Adobe-3.0 EPSF-3.0
%%DocumentNeededResources: font Helvetica
%%+ font Helvetica-Bold
%%+ font Helvetica-Oblique
%%+ font Helvetica-BoldOblique
%%+ font Symbol
%%Title: R Graphics Output
%%Creator: R Software
%%Pages: (atend)
%%BoundingBox: 0 0 354 298
%%EndComments
%%BeginProlog
/bp  { gs sRGB gs } def
% begin .ps.prolog
/gs  { gsave } bind def
/gr  { grestore } bind def
/ep  { showpage gr gr } bind def
/m   { moveto } bind def
/l  { rlineto } bind def
/np  { newpath } bind def
/cp  { closepath } bind def
/f   { fill } bind def
/o   { stroke } bind def
/c   { newpath 0 360 arc } bind def
/r   { 4 2 roll moveto 1 copy 3 -1 roll exch 0 exch rlineto 0 rlineto -1 mul 0 exch rlineto closepath } bind def
/p1  { stroke } bind def
/p2  { gsave bg fill grestore newpath } bind def
/p3  { gsave bg fill grestore stroke } bind def
/p6  { gsave bg eofill grestore newpath } bind def
/p7  { gsave bg eofill grestore stroke } bind def
/t   { 5 -2 roll moveto gsave rotate
       1 index stringwidth pop
       mul neg 0 rmoveto show grestore } bind def
/ta  { 4 -2 roll moveto gsave rotate show } bind def
/tb  { 2 -1 roll 0 rmoveto show } bind def
/cl  { grestore gsave newpath 3 index 3 index moveto 1 index
       4 -1 roll lineto  exch 1 index lineto lineto
       closepath clip newpath } bind def
/rgb { setrgbcolor } bind def
/s   { scalefont setfont } bind def
% end   .ps.prolog
/sRGB { [ /CIEBasedABC
          << /DecodeLMN
               [ { dup 0.03928 le
                        {12.92321 div}
                        {0.055 add 1.055 div 2.4 exp }
                     ifelse
                 } bind dup dup
               ]
             /MatrixLMN [0.412457 0.212673 0.019334
                         0.357576 0.715152 0.119192
                         0.180437 0.072175 0.950301]
             /WhitePoint [0.9505 1.0 1.0890]
           >>
         ] setcolorspace } bind def
/srgb { setcolor } bind def
% begin encoding
/WinAnsiEncoding [
 /.notdef /.notdef /.notdef /.notdef /.notdef /.notdef /.notdef /.notdef
 /.notdef /.notdef /.notdef /.notdef /.notdef /.notdef /.notdef /.notdef
 /.notdef /.notdef /.notdef /.notdef /.notdef /.notdef /.notdef /.notdef
 /.notdef /.notdef /.notdef /.notdef /.notdef /.notdef /.notdef /.notdef
 /space /exclam /quotedbl /numbersign /dollar /percent /ampersand /quoteright
 /parenleft /parenright /asterisk /plus /comma /minus /period /slash
 /zero /one /two /three /four /five /six /seven
 /eight /nine /colon /semicolon /less /equal /greater /question
 /at /A /B /C /D /E /F /G
 /H /I /J /K /L /M /N /O
 /P /Q /R /S /T /U /V /W
 /X /Y /Z /bracketleft /backslash /bracketright /asciicircum /underscore
 /grave /a /b /c /d /e /f /g
 /h /i /j /k /l /m /n /o
 /p /q /r /s /t /u /v /w
 /x /y /z /braceleft /bar /braceright /asciitilde /.notdef
 /Euro /.notdef /quotesinglbase /florin /quotedblbase /ellipsis /dagger /daggerdbl
 /circumflex /perthousand /Scaron /guilsinglleft /OE /.notdef /Zcaron /.notdef
 /.notdef /quoteleft /quoteright /quotedblleft /quotedblright /bullet /endash /emdash
 /tilde /trademark /scaron /guilsinglright /oe /.notdef /zcaron /Ydieresis
 /space /exclamdown /cent /sterling /currency /yen /brokenbar /section
 /dieresis /copyright /ordfeminine /guillemotleft /logicalnot /hyphen /registered /macron
 /degree /plusminus /twosuperior /threesuperior /acute /mu /paragraph /periodcentered
 /cedilla /onesuperior /ordmasculine /guillemotright /onequarter /onehalf /threequarters /questiondown
 /Agrave /Aacute /Acircumflex /Atilde /Adieresis /Aring /AE /Ccedilla
 /Egrave /Eacute /Ecircumflex /Edieresis /Igrave /Iacute /Icircumflex /Idieresis
 /Eth /Ntilde /Ograve /Oacute /Ocircumflex /Otilde /Odieresis /multiply
 /Oslash /Ugrave /Uacute /Ucircumflex /Udieresis /Yacute /Thorn /germandbls
 /agrave /aacute /acircumflex /atilde /adieresis /aring /ae /ccedilla
 /egrave /eacute /ecircumflex /edieresis /igrave /iacute /icircumflex /idieresis
 /eth /ntilde /ograve /oacute /ocircumflex /otilde /odieresis /divide
 /oslash /ugrave /uacute /ucircumflex /udieresis /yacute /thorn /ydieresis
]
 def
% end encoding
%%IncludeResource: font Helvetica
/Helvetica findfont
dup length dict begin
  {1 index /FID ne {def} {pop pop} ifelse} forall
  /Encoding WinAnsiEncoding def
  currentdict
  end
/Font1 exch definefont pop
%%IncludeResource: font Helvetica-Bold
/Helvetica-Bold findfont
dup length dict begin
  {1 index /FID ne {def} {pop pop} ifelse} forall
  /Encoding WinAnsiEncoding def
  currentdict
  end
/Font2 exch definefont pop
%%IncludeResource: font Helvetica-Oblique
/Helvetica-Oblique findfont
dup length dict begin
  {1 index /FID ne {def} {pop pop} ifelse} forall
  /Encoding WinAnsiEncoding def
  currentdict
  end
/Font3 exch definefont pop
%%IncludeResource: font Helvetica-BoldOblique
/Helvetica-BoldOblique findfont
dup length dict begin
  {1 index /FID ne {def} {pop pop} ifelse} forall
  /Encoding WinAnsiEncoding def
  currentdict
  end
/Font4 exch definefont pop
%%IncludeResource: font Symbol
/Symbol findfont
dup length dict begin
  {1 index /FID ne {def} {pop pop} ifelse} forall
  currentdict
  end
/Font5 exch definefont pop
%%EndProlog
%%Page: 1 1
bp
/bg { 1 1 1 srgb } def
0.00 0.00 354.00 297.75 r p2
59.04 73.44 323.76 238.71 cl
59.04 73.44 323.76 238.71 cl
0.6039 0.7529 0.8039 srgb
0.75 setlinewidth
[] 0 setdash
1 setlinecap
1 setlinejoin
10.00 setmiterlimit
68.84 79.56 2.16 c p1
79.06 88.22 2.16 c p1
89.27 104.21 2.16 c p1
99.48 124.61 2.16 c p1
109.70 152.65 2.16 c p1
119.91 166.42 2.16 c p1
130.12 183.18 2.16 c p1
140.34 196.76 2.16 c p1
150.55 212.27 2.16 c p1
160.76 213.00 2.16 c p1
170.97 209.12 2.16 c p1
181.19 222.29 2.16 c p1
191.40 222.21 2.16 c p1
201.61 217.49 2.16 c p1
211.83 217.44 2.16 c p1
222.04 232.59 2.16 c p1
232.25 217.51 2.16 c p1
242.46 226.04 2.16 c p1
252.68 221.28 2.16 c p1
262.89 223.09 2.16 c p1
273.10 229.81 2.16 c p1
283.32 223.01 2.16 c p1
293.53 232.58 2.16 c p1
303.74 223.41 2.16 c p1
313.96 225.37 2.16 c p1
0.00 0.00 354.00 297.75 cl
0 0 0 srgb
0.75 setlinewidth
[] 0 setdash
1 setlinecap
1 setlinejoin
10.00 setmiterlimit
np
66.37 73.44 m
247.59 0 l
o
np
66.37 73.44 m
0 -7.20 l
o
np
115.89 73.44 m
0 -7.20 l
o
np
165.40 73.44 m
0 -7.20 l
o
np
214.92 73.44 m
0 -7.20 l
o
np
264.44 73.44 m
0 -7.20 l
o
np
313.96 73.44 m
0 -7.20 l
o
/Font1 findfont 12 s
66.37 47.52 (0.0) .5 0 t
115.89 47.52 (0.2) .5 0 t
165.40 47.52 (0.4) .5 0 t
214.92 47.52 (0.6) .5 0 t
264.44 47.52 (0.8) .5 0 t
313.96 47.52 (1.0) .5 0 t
np
59.04 87.93 m
0 125.70 l
o
np
59.04 87.93 m
-7.20 0 l
o
np
59.04 113.07 m
-7.20 0 l
o
np
59.04 138.21 m
-7.20 0 l
o
np
59.04 163.35 m
-7.20 0 l
o
np
59.04 188.49 m
-7.20 0 l
o
np
59.04 213.63 m
-7.20 0 l
o
41.76 87.93 (-6.0) .5 90 t
41.76 138.21 (-5.6) .5 90 t
41.76 188.49 (-5.2) .5 90 t
np
59.04 73.44 m
264.72 0 l
0 165.27 l
-264.72 0 l
0 -165.27 l
o
0.00 0.00 354.00 297.75 cl
/Font1 findfont 12 s
0 0 0 srgb
191.40 18.72 (t) .5 0 t
12.96 156.08 (T) .5 90 t
59.04 73.44 323.76 238.71 cl
1 0.3882 0.2784 srgb
0.75 setlinewidth
[] 0 setdash
1 setlinecap
1 setlinejoin
10.00 setmiterlimit
np
68.84 87.86 m
2.48 0 l
2.48 0.03 l
2.47 0.26 l
2.48 0.98 l
2.47 2.10 l
2.48 3.32 l
2.48 4.40 l
2.47 5.24 l
2.48 5.80 l
2.47 6.12 l
2.48 6.24 l
2.47 6.22 l
2.48 6.08 l
2.48 5.88 l
2.47 5.62 l
2.48 5.35 l
2.47 5.04 l
2.48 4.75 l
2.48 4.45 l
2.47 4.16 l
2.48 3.88 l
2.47 3.61 l
2.48 3.36 l
2.48 3.13 l
2.47 2.90 l
2.48 2.69 l
2.47 2.50 l
2.48 2.32 l
2.47 2.15 l
2.48 1.99 l
2.48 1.85 l
2.47 1.71 l
2.48 1.58 l
2.47 1.47 l
2.48 1.36 l
2.48 1.26 l
2.47 1.17 l
2.48 1.08 l
2.47 1.00 l
2.48 0.92 l
2.48 0.86 l
2.47 0.79 l
2.48 0.74 l
2.47 0.68 l
2.48 0.63 l
2.47 0.59 l
2.48 0.54 l
2.48 0.50 l
2.47 0.46 l
2.48 0.43 l
2.47 0.40 l
2.48 0.37 l
2.48 0.34 l
2.47 0.31 l
2.48 0.30 l
2.47 0.27 l
2.48 0.25 l
2.48 0.23 l
2.47 0.22 l
2.48 0.19 l
2.47 0.19 l
2.48 0.17 l
2.47 0.16 l
2.48 0.14 l
2.48 0.14 l
2.47 0.13 l
2.48 0.11 l
2.47 0.11 l
2.48 0.10 l
2.48 0.09 l
2.47 0.09 l
2.48 0.08 l
2.47 0.07 l
2.48 0.07 l
2.47 0.06 l
2.48 0.06 l
2.48 0.05 l
2.47 0.05 l
2.48 0.05 l
2.47 0.04 l
2.48 0.04 l
2.48 0.04 l
2.47 0.03 l
2.48 0.03 l
2.47 0.03 l
2.48 0.03 l
2.48 0.02 l
2.47 0.03 l
2.48 0.02 l
2.47 0.02 l
2.48 0.02 l
2.47 0.01 l
2.48 0.02 l
2.48 0.01 l
2.47 0.02 l
2.48 0.01 l
2.47 0.01 l
2.48 0.01 l
2.48 0.01 l
o
0.8275 0.8275 0.8275 srgb
0.75 setlinewidth
[ 0.00 3.00] 0 setdash
np
66.37 73.44 m
0 165.27 l
o
np
115.89 73.44 m
0 165.27 l
o
np
165.40 73.44 m
0 165.27 l
o
np
214.92 73.44 m
0 165.27 l
o
np
264.44 73.44 m
0 165.27 l
o
np
313.96 73.44 m
0 165.27 l
o
np
59.04 87.93 m
264.72 0 l
o
np
59.04 113.07 m
264.72 0 l
o
np
59.04 138.21 m
264.72 0 l
o
np
59.04 163.35 m
264.72 0 l
o
np
59.04 188.49 m
264.72 0 l
o
np
59.04 213.63 m
264.72 0 l
o
ep
%%Trailer
%%Pages: 1
%%EOF
