%!PS-Adobe-3.0 EPSF-3.0
%%DocumentNeededResources: font Helvetica
%%+ font Helvetica-Bold
%%+ font Helvetica-Oblique
%%+ font Helvetica-BoldOblique
%%+ font Symbol
%%Title: R Graphics Output
%%Creator: R Software
%%Pages: (atend)
%%BoundingBox: 0 0 350 227
%%EndComments
%%BeginProlog
/bp  { gs sRGB gs } def
% begin .ps.prolog
/gs  { gsave } bind def
/gr  { grestore } bind def
/ep  { showpage gr gr } bind def
/m   { moveto } bind def
/l  { rlineto } bind def
/np  { newpath } bind def
/cp  { closepath } bind def
/f   { fill } bind def
/o   { stroke } bind def
/c   { newpath 0 360 arc } bind def
/r   { 4 2 roll moveto 1 copy 3 -1 roll exch 0 exch rlineto 0 rlineto -1 mul 0 exch rlineto closepath } bind def
/p1  { stroke } bind def
/p2  { gsave bg fill grestore newpath } bind def
/p3  { gsave bg fill grestore stroke } bind def
/p6  { gsave bg eofill grestore newpath } bind def
/p7  { gsave bg eofill grestore stroke } bind def
/t   { 5 -2 roll moveto gsave rotate
       1 index stringwidth pop
       mul neg 0 rmoveto show grestore } bind def
/ta  { 4 -2 roll moveto gsave rotate show } bind def
/tb  { 2 -1 roll 0 rmoveto show } bind def
/cl  { grestore gsave newpath 3 index 3 index moveto 1 index
       4 -1 roll lineto  exch 1 index lineto lineto
       closepath clip newpath } bind def
/rgb { setrgbcolor } bind def
/s   { scalefont setfont } bind def
% end   .ps.prolog
/sRGB { [ /CIEBasedABC
          << /DecodeLMN
               [ { dup 0.03928 le
                        {12.92321 div}
                        {0.055 add 1.055 div 2.4 exp }
                     ifelse
                 } bind dup dup
               ]
             /MatrixLMN [0.412457 0.212673 0.019334
                         0.357576 0.715152 0.119192
                         0.180437 0.072175 0.950301]
             /WhitePoint [0.9505 1.0 1.0890]
           >>
         ] setcolorspace } bind def
/srgb { setcolor } bind def
% begin encoding
/WinAnsiEncoding [
 /.notdef /.notdef /.notdef /.notdef /.notdef /.notdef /.notdef /.notdef
 /.notdef /.notdef /.notdef /.notdef /.notdef /.notdef /.notdef /.notdef
 /.notdef /.notdef /.notdef /.notdef /.notdef /.notdef /.notdef /.notdef
 /.notdef /.notdef /.notdef /.notdef /.notdef /.notdef /.notdef /.notdef
 /space /exclam /quotedbl /numbersign /dollar /percent /ampersand /quoteright
 /parenleft /parenright /asterisk /plus /comma /minus /period /slash
 /zero /one /two /three /four /five /six /seven
 /eight /nine /colon /semicolon /less /equal /greater /question
 /at /A /B /C /D /E /F /G
 /H /I /J /K /L /M /N /O
 /P /Q /R /S /T /U /V /W
 /X /Y /Z /bracketleft /backslash /bracketright /asciicircum /underscore
 /grave /a /b /c /d /e /f /g
 /h /i /j /k /l /m /n /o
 /p /q /r /s /t /u /v /w
 /x /y /z /braceleft /bar /braceright /asciitilde /.notdef
 /Euro /.notdef /quotesinglbase /florin /quotedblbase /ellipsis /dagger /daggerdbl
 /circumflex /perthousand /Scaron /guilsinglleft /OE /.notdef /Zcaron /.notdef
 /.notdef /quoteleft /quoteright /quotedblleft /quotedblright /bullet /endash /emdash
 /tilde /trademark /scaron /guilsinglright /oe /.notdef /zcaron /Ydieresis
 /space /exclamdown /cent /sterling /currency /yen /brokenbar /section
 /dieresis /copyright /ordfeminine /guillemotleft /logicalnot /hyphen /registered /macron
 /degree /plusminus /twosuperior /threesuperior /acute /mu /paragraph /periodcentered
 /cedilla /onesuperior /ordmasculine /guillemotright /onequarter /onehalf /threequarters /questiondown
 /Agrave /Aacute /Acircumflex /Atilde /Adieresis /Aring /AE /Ccedilla
 /Egrave /Eacute /Ecircumflex /Edieresis /Igrave /Iacute /Icircumflex /Idieresis
 /Eth /Ntilde /Ograve /Oacute /Ocircumflex /Otilde /Odieresis /multiply
 /Oslash /Ugrave /Uacute /Ucircumflex /Udieresis /Yacute /Thorn /germandbls
 /agrave /aacute /acircumflex /atilde /adieresis /aring /ae /ccedilla
 /egrave /eacute /ecircumflex /edieresis /igrave /iacute /icircumflex /idieresis
 /eth /ntilde /ograve /oacute /ocircumflex /otilde /odieresis /divide
 /oslash /ugrave /uacute /ucircumflex /udieresis /yacute /thorn /ydieresis
]
 def
% end encoding
%%IncludeResource: font Helvetica
/Helvetica findfont
dup length dict begin
  {1 index /FID ne {def} {pop pop} ifelse} forall
  /Encoding WinAnsiEncoding def
  currentdict
  end
/Font1 exch definefont pop
%%IncludeResource: font Helvetica-Bold
/Helvetica-Bold findfont
dup length dict begin
  {1 index /FID ne {def} {pop pop} ifelse} forall
  /Encoding WinAnsiEncoding def
  currentdict
  end
/Font2 exch definefont pop
%%IncludeResource: font Helvetica-Oblique
/Helvetica-Oblique findfont
dup length dict begin
  {1 index /FID ne {def} {pop pop} ifelse} forall
  /Encoding WinAnsiEncoding def
  currentdict
  end
/Font3 exch definefont pop
%%IncludeResource: font Helvetica-BoldOblique
/Helvetica-BoldOblique findfont
dup length dict begin
  {1 index /FID ne {def} {pop pop} ifelse} forall
  /Encoding WinAnsiEncoding def
  currentdict
  end
/Font4 exch definefont pop
%%IncludeResource: font Symbol
/Symbol findfont
dup length dict begin
  {1 index /FID ne {def} {pop pop} ifelse} forall
  currentdict
  end
/Font5 exch definefont pop
%%EndProlog
%%Page: 1 1
bp
0.00 0.00 349.50 227.25 cl
0.00 0.00 349.50 227.25 cl
0.00 0.00 349.50 227.25 cl
0.00 0.00 349.50 227.25 cl
0.00 0.00 349.50 227.25 cl
0.00 0.00 349.50 227.25 cl
0.00 0.00 349.50 227.25 cl
0.00 0.00 349.50 227.25 cl
0.00 0.00 349.50 227.25 cl
/bg { 1 1 1 srgb } def
1 1 1 srgb
1.07 setlinewidth
[] 0 setdash
1 setlinecap
1 setlinejoin
10.00 setmiterlimit
0.00 0.00 349.50 227.25 r p3
0.00 0.00 349.50 227.25 cl
0.00 0.00 349.50 227.25 cl
0.00 0.00 349.50 227.25 cl
35.14 31.35 344.02 221.77 cl
/bg { 0.9216 0.9216 0.9216 srgb } def
35.14 31.35 308.88 190.42 r p2
1 1 1 srgb
0.53 setlinewidth
[] 0 setdash
0 setlinecap
1 setlinejoin
10.00 setmiterlimit
np
35.14 74.72 m
308.88 0 l
o
np
35.14 139.77 m
308.88 0 l
o
np
35.14 204.82 m
308.88 0 l
o
np
81.80 31.35 m
0 190.42 l
o
np
152.71 31.35 m
0 190.42 l
o
np
223.62 31.35 m
0 190.42 l
o
np
294.53 31.35 m
0 190.42 l
o
1.07 setlinewidth
[] 0 setdash
np
35.14 42.19 m
308.88 0 l
o
np
35.14 107.24 m
308.88 0 l
o
np
35.14 172.30 m
308.88 0 l
o
np
46.35 31.35 m
0 190.42 l
o
np
117.26 31.35 m
0 190.42 l
o
np
188.16 31.35 m
0 190.42 l
o
np
259.07 31.35 m
0 190.42 l
o
np
329.98 31.35 m
0 190.42 l
o
0.5294 0.8078 0.9216 srgb
0.71 setlinewidth
[] 0 setdash
1 setlinecap
49.18 40.00 1.95 c p1
52.02 41.29 1.95 c p1
54.86 48.29 1.95 c p1
57.69 42.72 1.95 c p1
60.53 43.90 1.95 c p1
63.37 52.23 1.95 c p1
66.20 50.84 1.95 c p1
69.04 48.87 1.95 c p1
71.87 56.91 1.95 c p1
74.71 64.36 1.95 c p1
77.55 77.83 1.95 c p1
80.38 81.63 1.95 c p1
83.22 89.00 1.95 c p1
86.06 94.99 1.95 c p1
88.89 99.31 1.95 c p1
91.73 115.13 1.95 c p1
94.57 116.47 1.95 c p1
97.40 112.90 1.95 c p1
100.24 129.04 1.95 c p1
103.07 129.84 1.95 c p1
105.91 132.57 1.95 c p1
108.75 140.63 1.95 c p1
111.58 141.91 1.95 c p1
114.42 147.20 1.95 c p1
117.26 151.47 1.95 c p1
120.09 150.92 1.95 c p1
122.93 164.12 1.95 c p1
125.77 164.57 1.95 c p1
128.60 162.43 1.95 c p1
131.44 174.46 1.95 c p1
134.27 173.74 1.95 c p1
137.11 173.25 1.95 c p1
139.95 180.06 1.95 c p1
142.78 182.01 1.95 c p1
145.62 183.66 1.95 c p1
148.46 184.88 1.95 c p1
151.29 185.97 1.95 c p1
154.13 185.06 1.95 c p1
156.96 185.50 1.95 c p1
159.80 186.50 1.95 c p1
162.64 186.48 1.95 c p1
165.47 189.49 1.95 c p1
168.31 186.40 1.95 c p1
171.15 200.77 1.95 c p1
173.98 197.91 1.95 c p1
176.82 189.64 1.95 c p1
179.66 193.22 1.95 c p1
182.49 193.69 1.95 c p1
185.33 199.22 1.95 c p1
188.16 196.47 1.95 c p1
191.00 198.35 1.95 c p1
193.84 197.79 1.95 c p1
196.67 198.22 1.95 c p1
199.51 204.19 1.95 c p1
202.35 198.40 1.95 c p1
205.18 205.59 1.95 c p1
208.02 194.00 1.95 c p1
210.86 202.66 1.95 c p1
213.69 201.18 1.95 c p1
216.53 201.84 1.95 c p1
219.36 202.75 1.95 c p1
222.20 199.56 1.95 c p1
225.04 200.46 1.95 c p1
227.87 198.00 1.95 c p1
230.71 198.00 1.95 c p1
233.55 203.55 1.95 c p1
236.38 204.29 1.95 c p1
239.22 202.91 1.95 c p1
242.05 206.46 1.95 c p1
244.89 211.00 1.95 c p1
247.73 201.21 1.95 c p1
250.56 194.24 1.95 c p1
253.40 207.29 1.95 c p1
256.24 200.70 1.95 c p1
259.07 200.88 1.95 c p1
261.91 207.66 1.95 c p1
264.75 202.62 1.95 c p1
267.58 199.05 1.95 c p1
270.42 204.59 1.95 c p1
273.25 203.41 1.95 c p1
276.09 204.04 1.95 c p1
278.93 205.58 1.95 c p1
281.76 202.68 1.95 c p1
284.60 206.69 1.95 c p1
287.44 203.36 1.95 c p1
290.27 205.56 1.95 c p1
293.11 208.59 1.95 c p1
295.94 206.04 1.95 c p1
298.78 203.11 1.95 c p1
301.62 208.89 1.95 c p1
304.45 208.32 1.95 c p1
307.29 206.61 1.95 c p1
310.13 205.42 1.95 c p1
312.96 202.06 1.95 c p1
315.80 209.85 1.95 c p1
318.64 202.22 1.95 c p1
321.47 213.11 1.95 c p1
324.31 210.58 1.95 c p1
327.14 203.69 1.95 c p1
329.98 200.62 1.95 c p1
0.00 0.00 349.50 227.25 cl
0.00 0.00 349.50 227.25 cl
0.00 0.00 349.50 227.25 cl
0.00 0.00 349.50 227.25 cl
0.00 0.00 349.50 227.25 cl
0.00 0.00 349.50 227.25 cl
/Font1 findfont 9 s
0.3020 0.3020 0.3020 srgb
30.21 38.96 (-2) 1 0 t
30.21 104.01 (-1) 1 0 t
30.21 169.07 (0) 1 0 t
0.00 0.00 349.50 227.25 cl
0.00 0.00 349.50 227.25 cl
0.2000 0.2000 0.2000 srgb
1.07 setlinewidth
[] 0 setdash
0 setlinecap
1 setlinejoin
10.00 setmiterlimit
np
32.40 42.19 m
2.74 0 l
o
np
32.40 107.24 m
2.74 0 l
o
np
32.40 172.30 m
2.74 0 l
o
0.00 0.00 349.50 227.25 cl
0.00 0.00 349.50 227.25 cl
0.00 0.00 349.50 227.25 cl
0.00 0.00 349.50 227.25 cl
0.00 0.00 349.50 227.25 cl
0.00 0.00 349.50 227.25 cl
0.00 0.00 349.50 227.25 cl
0.00 0.00 349.50 227.25 cl
0.2000 0.2000 0.2000 srgb
1.07 setlinewidth
[] 0 setdash
0 setlinecap
1 setlinejoin
10.00 setmiterlimit
np
46.35 28.61 m
0 2.74 l
o
np
117.26 28.61 m
0 2.74 l
o
np
188.16 28.61 m
0 2.74 l
o
np
259.07 28.61 m
0 2.74 l
o
np
329.98 28.61 m
0 2.74 l
o
0.00 0.00 349.50 227.25 cl
0.00 0.00 349.50 227.25 cl
/Font1 findfont 9 s
0.3020 0.3020 0.3020 srgb
46.35 19.95 (0.00) .5 0 t
117.26 19.95 (0.25) .5 0 t
188.16 19.95 (0.50) .5 0 t
259.07 19.95 (0.75) .5 0 t
329.98 19.95 (1.00) .5 0 t
0.00 0.00 349.50 227.25 cl
0.00 0.00 349.50 227.25 cl
0.00 0.00 349.50 227.25 cl
0.00 0.00 349.50 227.25 cl
/Font1 findfont 11 s
0 0 0 srgb
189.58 7.67 (time) .5 0 t
0.00 0.00 349.50 227.25 cl
0.00 0.00 349.50 227.25 cl
/Font1 findfont 11 s
0 0 0 srgb
15.57 95.08 (T) 90 ta
-1.320 (emper) tb
-0.110 (ature) tb gr
0.00 0.00 349.50 227.25 cl
0.00 0.00 349.50 227.25 cl
0.00 0.00 349.50 227.25 cl
0.00 0.00 349.50 227.25 cl
ep
%%Trailer
%%Pages: 1
%%EOF
