%!PS-Adobe-3.0 EPSF-3.0
%%DocumentNeededResources: font Helvetica
%%+ font Helvetica-Bold
%%+ font Helvetica-Oblique
%%+ font Helvetica-BoldOblique
%%+ font Symbol
%%Title: R Graphics Output
%%Creator: R Software
%%Pages: (atend)
%%BoundingBox: 0 0 350 227
%%EndComments
%%BeginProlog
/bp  { gs sRGB gs } def
% begin .ps.prolog
/gs  { gsave } bind def
/gr  { grestore } bind def
/ep  { showpage gr gr } bind def
/m   { moveto } bind def
/l  { rlineto } bind def
/np  { newpath } bind def
/cp  { closepath } bind def
/f   { fill } bind def
/o   { stroke } bind def
/c   { newpath 0 360 arc } bind def
/r   { 4 2 roll moveto 1 copy 3 -1 roll exch 0 exch rlineto 0 rlineto -1 mul 0 exch rlineto closepath } bind def
/p1  { stroke } bind def
/p2  { gsave bg fill grestore newpath } bind def
/p3  { gsave bg fill grestore stroke } bind def
/p6  { gsave bg eofill grestore newpath } bind def
/p7  { gsave bg eofill grestore stroke } bind def
/t   { 5 -2 roll moveto gsave rotate
       1 index stringwidth pop
       mul neg 0 rmoveto show grestore } bind def
/ta  { 4 -2 roll moveto gsave rotate show } bind def
/tb  { 2 -1 roll 0 rmoveto show } bind def
/cl  { grestore gsave newpath 3 index 3 index moveto 1 index
       4 -1 roll lineto  exch 1 index lineto lineto
       closepath clip newpath } bind def
/rgb { setrgbcolor } bind def
/s   { scalefont setfont } bind def
% end   .ps.prolog
/sRGB { [ /CIEBasedABC
          << /DecodeLMN
               [ { dup 0.03928 le
                        {12.92321 div}
                        {0.055 add 1.055 div 2.4 exp }
                     ifelse
                 } bind dup dup
               ]
             /MatrixLMN [0.412457 0.212673 0.019334
                         0.357576 0.715152 0.119192
                         0.180437 0.072175 0.950301]
             /WhitePoint [0.9505 1.0 1.0890]
           >>
         ] setcolorspace } bind def
/srgb { setcolor } bind def
% begin encoding
/WinAnsiEncoding [
 /.notdef /.notdef /.notdef /.notdef /.notdef /.notdef /.notdef /.notdef
 /.notdef /.notdef /.notdef /.notdef /.notdef /.notdef /.notdef /.notdef
 /.notdef /.notdef /.notdef /.notdef /.notdef /.notdef /.notdef /.notdef
 /.notdef /.notdef /.notdef /.notdef /.notdef /.notdef /.notdef /.notdef
 /space /exclam /quotedbl /numbersign /dollar /percent /ampersand /quoteright
 /parenleft /parenright /asterisk /plus /comma /minus /period /slash
 /zero /one /two /three /four /five /six /seven
 /eight /nine /colon /semicolon /less /equal /greater /question
 /at /A /B /C /D /E /F /G
 /H /I /J /K /L /M /N /O
 /P /Q /R /S /T /U /V /W
 /X /Y /Z /bracketleft /backslash /bracketright /asciicircum /underscore
 /grave /a /b /c /d /e /f /g
 /h /i /j /k /l /m /n /o
 /p /q /r /s /t /u /v /w
 /x /y /z /braceleft /bar /braceright /asciitilde /.notdef
 /Euro /.notdef /quotesinglbase /florin /quotedblbase /ellipsis /dagger /daggerdbl
 /circumflex /perthousand /Scaron /guilsinglleft /OE /.notdef /Zcaron /.notdef
 /.notdef /quoteleft /quoteright /quotedblleft /quotedblright /bullet /endash /emdash
 /tilde /trademark /scaron /guilsinglright /oe /.notdef /zcaron /Ydieresis
 /space /exclamdown /cent /sterling /currency /yen /brokenbar /section
 /dieresis /copyright /ordfeminine /guillemotleft /logicalnot /hyphen /registered /macron
 /degree /plusminus /twosuperior /threesuperior /acute /mu /paragraph /periodcentered
 /cedilla /onesuperior /ordmasculine /guillemotright /onequarter /onehalf /threequarters /questiondown
 /Agrave /Aacute /Acircumflex /Atilde /Adieresis /Aring /AE /Ccedilla
 /Egrave /Eacute /Ecircumflex /Edieresis /Igrave /Iacute /Icircumflex /Idieresis
 /Eth /Ntilde /Ograve /Oacute /Ocircumflex /Otilde /Odieresis /multiply
 /Oslash /Ugrave /Uacute /Ucircumflex /Udieresis /Yacute /Thorn /germandbls
 /agrave /aacute /acircumflex /atilde /adieresis /aring /ae /ccedilla
 /egrave /eacute /ecircumflex /edieresis /igrave /iacute /icircumflex /idieresis
 /eth /ntilde /ograve /oacute /ocircumflex /otilde /odieresis /divide
 /oslash /ugrave /uacute /ucircumflex /udieresis /yacute /thorn /ydieresis
]
 def
% end encoding
%%IncludeResource: font Helvetica
/Helvetica findfont
dup length dict begin
  {1 index /FID ne {def} {pop pop} ifelse} forall
  /Encoding WinAnsiEncoding def
  currentdict
  end
/Font1 exch definefont pop
%%IncludeResource: font Helvetica-Bold
/Helvetica-Bold findfont
dup length dict begin
  {1 index /FID ne {def} {pop pop} ifelse} forall
  /Encoding WinAnsiEncoding def
  currentdict
  end
/Font2 exch definefont pop
%%IncludeResource: font Helvetica-Oblique
/Helvetica-Oblique findfont
dup length dict begin
  {1 index /FID ne {def} {pop pop} ifelse} forall
  /Encoding WinAnsiEncoding def
  currentdict
  end
/Font3 exch definefont pop
%%IncludeResource: font Helvetica-BoldOblique
/Helvetica-BoldOblique findfont
dup length dict begin
  {1 index /FID ne {def} {pop pop} ifelse} forall
  /Encoding WinAnsiEncoding def
  currentdict
  end
/Font4 exch definefont pop
%%IncludeResource: font Symbol
/Symbol findfont
dup length dict begin
  {1 index /FID ne {def} {pop pop} ifelse} forall
  currentdict
  end
/Font5 exch definefont pop
%%EndProlog
%%Page: 1 1
bp
0.00 0.00 349.50 227.25 cl
0.00 0.00 349.50 227.25 cl
0.00 0.00 349.50 227.25 cl
0.00 0.00 349.50 227.25 cl
0.00 0.00 349.50 227.25 cl
0.00 0.00 349.50 227.25 cl
0.00 0.00 349.50 227.25 cl
0.00 0.00 349.50 227.25 cl
0.00 0.00 349.50 227.25 cl
/bg { 1 1 1 srgb } def
1 1 1 srgb
1.07 setlinewidth
[] 0 setdash
1 setlinecap
1 setlinejoin
10.00 setmiterlimit
0.00 0.00 349.50 227.25 r p3
0.00 0.00 349.50 227.25 cl
0.00 0.00 349.50 227.25 cl
0.00 0.00 349.50 227.25 cl
35.14 31.35 344.02 178.98 cl
/bg { 0.9216 0.9216 0.9216 srgb } def
35.14 31.35 308.88 147.63 r p2
1 1 1 srgb
0.53 setlinewidth
[] 0 setdash
0 setlinecap
1 setlinejoin
10.00 setmiterlimit
np
35.14 64.97 m
308.88 0 l
o
np
35.14 115.40 m
308.88 0 l
o
np
35.14 165.84 m
308.88 0 l
o
np
84.28 31.35 m
0 147.63 l
o
np
154.48 31.35 m
0 147.63 l
o
np
224.68 31.35 m
0 147.63 l
o
np
294.88 31.35 m
0 147.63 l
o
1.07 setlinewidth
[] 0 setdash
np
35.14 39.75 m
308.88 0 l
o
np
35.14 90.19 m
308.88 0 l
o
np
35.14 140.62 m
308.88 0 l
o
np
49.18 31.35 m
0 147.63 l
o
np
119.38 31.35 m
0 147.63 l
o
np
189.58 31.35 m
0 147.63 l
o
np
259.78 31.35 m
0 147.63 l
o
np
329.98 31.35 m
0 147.63 l
o
0.5294 0.8078 0.9216 srgb
0.71 setlinewidth
[] 0 setdash
1 setlinecap
51.99 38.06 1.95 c p1
54.80 39.06 1.95 c p1
57.61 44.48 1.95 c p1
60.42 40.16 1.95 c p1
63.22 41.08 1.95 c p1
66.03 47.54 1.95 c p1
68.84 46.46 1.95 c p1
71.65 44.93 1.95 c p1
74.46 51.16 1.95 c p1
77.26 56.94 1.95 c p1
80.07 67.38 1.95 c p1
82.88 70.33 1.95 c p1
85.69 76.05 1.95 c p1
88.50 80.69 1.95 c p1
91.30 84.04 1.95 c p1
94.11 96.30 1.95 c p1
96.92 97.34 1.95 c p1
99.73 94.58 1.95 c p1
102.54 107.08 1.95 c p1
105.34 107.71 1.95 c p1
108.15 109.83 1.95 c p1
110.96 116.07 1.95 c p1
113.77 117.06 1.95 c p1
116.58 121.17 1.95 c p1
119.38 124.47 1.95 c p1
122.19 124.05 1.95 c p1
125.00 134.29 1.95 c p1
127.81 134.63 1.95 c p1
130.62 132.97 1.95 c p1
133.42 142.30 1.95 c p1
136.23 141.74 1.95 c p1
139.04 141.36 1.95 c p1
141.85 146.64 1.95 c p1
144.66 148.15 1.95 c p1
147.46 149.43 1.95 c p1
150.27 150.38 1.95 c p1
153.08 151.22 1.95 c p1
155.89 150.52 1.95 c p1
158.69 150.86 1.95 c p1
161.50 151.64 1.95 c p1
164.31 151.62 1.95 c p1
167.12 153.95 1.95 c p1
169.93 151.56 1.95 c p1
172.73 162.70 1.95 c p1
175.54 160.48 1.95 c p1
178.35 154.07 1.95 c p1
181.16 156.85 1.95 c p1
183.97 157.21 1.95 c p1
186.77 161.50 1.95 c p1
189.58 159.36 1.95 c p1
192.39 160.82 1.95 c p1
195.20 160.38 1.95 c p1
198.01 160.72 1.95 c p1
200.81 165.35 1.95 c p1
203.62 160.86 1.95 c p1
206.43 166.44 1.95 c p1
209.24 157.45 1.95 c p1
212.05 164.17 1.95 c p1
214.85 163.02 1.95 c p1
217.66 163.52 1.95 c p1
220.47 164.23 1.95 c p1
223.28 161.76 1.95 c p1
226.09 162.45 1.95 c p1
228.89 160.55 1.95 c p1
231.70 160.55 1.95 c p1
234.51 164.85 1.95 c p1
237.32 165.43 1.95 c p1
240.13 164.36 1.95 c p1
242.93 167.11 1.95 c p1
245.74 170.63 1.95 c p1
248.55 163.04 1.95 c p1
251.36 157.63 1.95 c p1
254.17 167.75 1.95 c p1
256.97 162.64 1.95 c p1
259.78 162.78 1.95 c p1
262.59 168.04 1.95 c p1
265.40 164.14 1.95 c p1
268.21 161.36 1.95 c p1
271.01 165.66 1.95 c p1
273.82 164.74 1.95 c p1
276.63 165.23 1.95 c p1
279.44 166.42 1.95 c p1
282.25 164.18 1.95 c p1
285.05 167.29 1.95 c p1
287.86 164.71 1.95 c p1
290.67 166.41 1.95 c p1
293.48 168.76 1.95 c p1
296.29 166.78 1.95 c p1
299.09 164.51 1.95 c p1
301.90 169.00 1.95 c p1
304.71 168.55 1.95 c p1
307.52 167.22 1.95 c p1
310.33 166.31 1.95 c p1
313.13 163.70 1.95 c p1
315.94 169.74 1.95 c p1
318.75 163.82 1.95 c p1
321.56 172.27 1.95 c p1
324.37 170.30 1.95 c p1
327.17 164.96 1.95 c p1
329.98 162.58 1.95 c p1
1 0.4157 0.4157 srgb
1.07 setlinewidth
[] 0 setdash
0 setlinecap
1.00 setmiterlimit
np
51.99 40.70 m
2.81 0 l
2.81 0.01 l
2.81 0.16 l
2.80 0.68 l
2.81 1.55 l
2.81 2.58 l
2.81 3.54 l
2.81 4.32 l
2.80 4.90 l
2.81 5.27 l
2.81 5.45 l
2.81 5.50 l
2.81 5.44 l
2.80 5.32 l
2.81 5.13 l
2.81 4.91 l
2.81 4.68 l
2.81 4.42 l
2.80 4.18 l
2.81 3.92 l
2.81 3.69 l
2.81 3.45 l
2.81 3.23 l
2.80 3.01 l
2.81 2.81 l
2.81 2.62 l
2.81 2.45 l
2.81 2.27 l
2.80 2.12 l
2.81 1.97 l
2.81 1.84 l
2.81 1.70 l
2.81 1.59 l
2.80 1.48 l
2.81 1.37 l
2.81 1.28 l
2.81 1.19 l
2.80 1.10 l
2.81 1.03 l
2.81 0.95 l
2.81 0.89 l
2.81 0.83 l
2.80 0.76 l
2.81 0.72 l
2.81 0.66 l
2.81 0.62 l
2.81 0.57 l
2.80 0.53 l
2.81 0.50 l
2.81 0.46 l
2.81 0.43 l
2.81 0.40 l
2.80 0.37 l
2.81 0.34 l
2.81 0.32 l
2.81 0.30 l
2.81 0.27 l
2.80 0.26 l
2.81 0.24 l
2.81 0.22 l
2.81 0.21 l
2.81 0.19 l
2.80 0.18 l
2.81 0.16 l
2.81 0.16 l
2.81 0.14 l
2.81 0.13 l
2.80 0.13 l
2.81 0.11 l
2.81 0.11 l
2.81 0.10 l
2.81 0.09 l
2.80 0.09 l
2.81 0.08 l
2.81 0.07 l
2.81 0.07 l
2.81 0.06 l
2.80 0.06 l
2.81 0.06 l
2.81 0.05 l
2.81 0.05 l
2.81 0.04 l
2.80 0.04 l
2.81 0.04 l
2.81 0.04 l
2.81 0.03 l
2.81 0.03 l
2.80 0.03 l
2.81 0.03 l
2.81 0.02 l
2.81 0.03 l
2.81 0.02 l
2.80 0.02 l
2.81 0.02 l
2.81 0.01 l
2.81 0.02 l
2.81 0.01 l
2.80 0.02 l
2.81 0.01 l
o
/Font1 findfont 11 s
0 0 0 srgb
259.78 111.46 (Calculated Means:) .5 0 t
231.09 97.41 (T) 0 0 t
/Font1 findfont 8 s
237.81 95.39 (0) 0 0 t
/Font5 findfont 11 s
244.80 97.41 (=) 0 0 t
253.39 97.41 (-) 0 0 t
/Font1 findfont 11 s
260.95 97.41 (1.981) 0 0 t
229.54 82.26 (T) 0 0 t
/Font1 findfont 8 s
236.26 80.25 (m) 0 0 t
242.92 80.25 (a) 0 0 t
247.37 80.25 (x) 0 0 t
/Font5 findfont 11 s
253.92 82.26 (=) 0 0 t
/Font1 findfont 11 s
262.50 82.26 (2.493) 0 0 t
237.40 66.25 (a) 0 0 t
/Font5 findfont 11 s
246.06 66.25 (=) 0 0 t
/Font1 findfont 11 s
254.64 66.25 (0.739) 0 0 t
0.00 0.00 349.50 227.25 cl
0.00 0.00 349.50 227.25 cl
0.00 0.00 349.50 227.25 cl
0.00 0.00 349.50 227.25 cl
0.00 0.00 349.50 227.25 cl
0.00 0.00 349.50 227.25 cl
/Font1 findfont 9 s
0.3020 0.3020 0.3020 srgb
30.21 36.52 (-2) 1 0 t
30.21 86.96 (-1) 1 0 t
30.21 137.39 (0) 1 0 t
0.00 0.00 349.50 227.25 cl
0.00 0.00 349.50 227.25 cl
0.2000 0.2000 0.2000 srgb
1.07 setlinewidth
[] 0 setdash
0 setlinecap
1 setlinejoin
10.00 setmiterlimit
np
32.40 39.75 m
2.74 0 l
o
np
32.40 90.19 m
2.74 0 l
o
np
32.40 140.62 m
2.74 0 l
o
0.00 0.00 349.50 227.25 cl
0.00 0.00 349.50 227.25 cl
0.00 0.00 349.50 227.25 cl
0.00 0.00 349.50 227.25 cl
0.00 0.00 349.50 227.25 cl
0.00 0.00 349.50 227.25 cl
0.00 0.00 349.50 227.25 cl
0.00 0.00 349.50 227.25 cl
0.2000 0.2000 0.2000 srgb
1.07 setlinewidth
[] 0 setdash
0 setlinecap
1 setlinejoin
10.00 setmiterlimit
np
49.18 28.61 m
0 2.74 l
o
np
119.38 28.61 m
0 2.74 l
o
np
189.58 28.61 m
0 2.74 l
o
np
259.78 28.61 m
0 2.74 l
o
np
329.98 28.61 m
0 2.74 l
o
0.00 0.00 349.50 227.25 cl
0.00 0.00 349.50 227.25 cl
/Font1 findfont 9 s
0.3020 0.3020 0.3020 srgb
49.18 19.95 (0.00) .5 0 t
119.38 19.95 (0.25) .5 0 t
189.58 19.95 (0.50) .5 0 t
259.78 19.95 (0.75) .5 0 t
329.98 19.95 (1.00) .5 0 t
0.00 0.00 349.50 227.25 cl
0.00 0.00 349.50 227.25 cl
0.00 0.00 349.50 227.25 cl
0.00 0.00 349.50 227.25 cl
/Font1 findfont 11 s
0 0 0 srgb
189.58 7.67 (time) .5 0 t
0.00 0.00 349.50 227.25 cl
0.00 0.00 349.50 227.25 cl
/Font1 findfont 11 s
0 0 0 srgb
15.57 73.68 (T) 90 ta
-1.320 (emper) tb
-0.110 (ature) tb gr
0.00 0.00 349.50 227.25 cl
0.00 0.00 349.50 227.25 cl
0.00 0.00 349.50 227.25 cl
0.00 0.00 349.50 227.25 cl
/bg { 1 1 1 srgb } def
0.4118 0.4118 0.4118 srgb
1.07 setlinewidth
[] 0 setdash
1 setlinecap
1 setlinejoin
10.00 setmiterlimit
127.40 187.48 124.36 25.78 r p3
0.00 0.00 349.50 227.25 cl
0.00 0.00 349.50 227.25 cl
0.00 0.00 349.50 227.25 cl
0.00 0.00 349.50 227.25 cl
/bg { 0.9490 0.9490 0.9490 srgb } def
1 1 1 srgb
1.07 setlinewidth
[] 0 setdash
1 setlinecap
1 setlinejoin
10.00 setmiterlimit
135.97 191.73 17.28 17.28 r p3
0.00 0.00 349.50 227.25 cl
0.00 0.00 349.50 227.25 cl
0.5294 0.8078 0.9216 srgb
0.71 setlinewidth
[] 0 setdash
1 setlinecap
1 setlinejoin
10.00 setmiterlimit
144.61 200.37 1.95 c p1
0.00 0.00 349.50 227.25 cl
0.00 0.00 349.50 227.25 cl
0.00 0.00 349.50 227.25 cl
0.00 0.00 349.50 227.25 cl
/bg { 0.9490 0.9490 0.9490 srgb } def
1 1 1 srgb
1.07 setlinewidth
[] 0 setdash
1 setlinecap
1 setlinejoin
10.00 setmiterlimit
203.32 191.73 17.28 17.28 r p3
0.00 0.00 349.50 227.25 cl
0.00 0.00 349.50 227.25 cl
0.00 0.00 349.50 227.25 cl
0.00 0.00 349.50 227.25 cl
1 0.4157 0.4157 srgb
1.07 setlinewidth
[] 0 setdash
0 setlinecap
1 setlinejoin
10.00 setmiterlimit
np
205.05 200.37 m
13.82 0 l
o
0.00 0.00 349.50 227.25 cl
0.00 0.00 349.50 227.25 cl
/Font1 findfont 9 s
0 0 0 srgb
155.41 197.14 (e) 0 ta
-0.270 (xper) tb
0.135 (iment) tb gr
0.00 0.00 349.50 227.25 cl
0.00 0.00 349.50 227.25 cl
/Font1 findfont 9 s
0 0 0 srgb
222.76 197.14 (theor) 0 ta
0.270 (y) tb gr
0.00 0.00 349.50 227.25 cl
0.00 0.00 349.50 227.25 cl
0.00 0.00 349.50 227.25 cl
0.00 0.00 349.50 227.25 cl
0.00 0.00 349.50 227.25 cl
0.00 0.00 349.50 227.25 cl
ep
%%Trailer
%%Pages: 1
%%EOF
