%!PS-Adobe-3.0 EPSF-3.0
%%DocumentNeededResources: font Helvetica
%%+ font Helvetica-Bold
%%+ font Helvetica-Oblique
%%+ font Helvetica-BoldOblique
%%+ font Symbol
%%Title: R Graphics Output
%%Creator: R Software
%%Pages: (atend)
%%BoundingBox: 0 0 364 318
%%EndComments
%%BeginProlog
/bp  { gs sRGB gs } def
% begin .ps.prolog
/gs  { gsave } bind def
/gr  { grestore } bind def
/ep  { showpage gr gr } bind def
/m   { moveto } bind def
/l  { rlineto } bind def
/np  { newpath } bind def
/cp  { closepath } bind def
/f   { fill } bind def
/o   { stroke } bind def
/c   { newpath 0 360 arc } bind def
/r   { 4 2 roll moveto 1 copy 3 -1 roll exch 0 exch rlineto 0 rlineto -1 mul 0 exch rlineto closepath } bind def
/p1  { stroke } bind def
/p2  { gsave bg fill grestore newpath } bind def
/p3  { gsave bg fill grestore stroke } bind def
/p6  { gsave bg eofill grestore newpath } bind def
/p7  { gsave bg eofill grestore stroke } bind def
/t   { 5 -2 roll moveto gsave rotate
       1 index stringwidth pop
       mul neg 0 rmoveto show grestore } bind def
/ta  { 4 -2 roll moveto gsave rotate show } bind def
/tb  { 2 -1 roll 0 rmoveto show } bind def
/cl  { grestore gsave newpath 3 index 3 index moveto 1 index
       4 -1 roll lineto  exch 1 index lineto lineto
       closepath clip newpath } bind def
/rgb { setrgbcolor } bind def
/s   { scalefont setfont } bind def
% end   .ps.prolog
/sRGB { [ /CIEBasedABC
          << /DecodeLMN
               [ { dup 0.03928 le
                        {12.92321 div}
                        {0.055 add 1.055 div 2.4 exp }
                     ifelse
                 } bind dup dup
               ]
             /MatrixLMN [0.412457 0.212673 0.019334
                         0.357576 0.715152 0.119192
                         0.180437 0.072175 0.950301]
             /WhitePoint [0.9505 1.0 1.0890]
           >>
         ] setcolorspace } bind def
/srgb { setcolor } bind def
% begin encoding
/WinAnsiEncoding [
 /.notdef /.notdef /.notdef /.notdef /.notdef /.notdef /.notdef /.notdef
 /.notdef /.notdef /.notdef /.notdef /.notdef /.notdef /.notdef /.notdef
 /.notdef /.notdef /.notdef /.notdef /.notdef /.notdef /.notdef /.notdef
 /.notdef /.notdef /.notdef /.notdef /.notdef /.notdef /.notdef /.notdef
 /space /exclam /quotedbl /numbersign /dollar /percent /ampersand /quoteright
 /parenleft /parenright /asterisk /plus /comma /minus /period /slash
 /zero /one /two /three /four /five /six /seven
 /eight /nine /colon /semicolon /less /equal /greater /question
 /at /A /B /C /D /E /F /G
 /H /I /J /K /L /M /N /O
 /P /Q /R /S /T /U /V /W
 /X /Y /Z /bracketleft /backslash /bracketright /asciicircum /underscore
 /grave /a /b /c /d /e /f /g
 /h /i /j /k /l /m /n /o
 /p /q /r /s /t /u /v /w
 /x /y /z /braceleft /bar /braceright /asciitilde /.notdef
 /Euro /.notdef /quotesinglbase /florin /quotedblbase /ellipsis /dagger /daggerdbl
 /circumflex /perthousand /Scaron /guilsinglleft /OE /.notdef /Zcaron /.notdef
 /.notdef /quoteleft /quoteright /quotedblleft /quotedblright /bullet /endash /emdash
 /tilde /trademark /scaron /guilsinglright /oe /.notdef /zcaron /Ydieresis
 /space /exclamdown /cent /sterling /currency /yen /brokenbar /section
 /dieresis /copyright /ordfeminine /guillemotleft /logicalnot /hyphen /registered /macron
 /degree /plusminus /twosuperior /threesuperior /acute /mu /paragraph /periodcentered
 /cedilla /onesuperior /ordmasculine /guillemotright /onequarter /onehalf /threequarters /questiondown
 /Agrave /Aacute /Acircumflex /Atilde /Adieresis /Aring /AE /Ccedilla
 /Egrave /Eacute /Ecircumflex /Edieresis /Igrave /Iacute /Icircumflex /Idieresis
 /Eth /Ntilde /Ograve /Oacute /Ocircumflex /Otilde /Odieresis /multiply
 /Oslash /Ugrave /Uacute /Ucircumflex /Udieresis /Yacute /Thorn /germandbls
 /agrave /aacute /acircumflex /atilde /adieresis /aring /ae /ccedilla
 /egrave /eacute /ecircumflex /edieresis /igrave /iacute /icircumflex /idieresis
 /eth /ntilde /ograve /oacute /ocircumflex /otilde /odieresis /divide
 /oslash /ugrave /uacute /ucircumflex /udieresis /yacute /thorn /ydieresis
]
 def
% end encoding
%%IncludeResource: font Helvetica
/Helvetica findfont
dup length dict begin
  {1 index /FID ne {def} {pop pop} ifelse} forall
  /Encoding WinAnsiEncoding def
  currentdict
  end
/Font1 exch definefont pop
%%IncludeResource: font Helvetica-Bold
/Helvetica-Bold findfont
dup length dict begin
  {1 index /FID ne {def} {pop pop} ifelse} forall
  /Encoding WinAnsiEncoding def
  currentdict
  end
/Font2 exch definefont pop
%%IncludeResource: font Helvetica-Oblique
/Helvetica-Oblique findfont
dup length dict begin
  {1 index /FID ne {def} {pop pop} ifelse} forall
  /Encoding WinAnsiEncoding def
  currentdict
  end
/Font3 exch definefont pop
%%IncludeResource: font Helvetica-BoldOblique
/Helvetica-BoldOblique findfont
dup length dict begin
  {1 index /FID ne {def} {pop pop} ifelse} forall
  /Encoding WinAnsiEncoding def
  currentdict
  end
/Font4 exch definefont pop
%%IncludeResource: font Symbol
/Symbol findfont
dup length dict begin
  {1 index /FID ne {def} {pop pop} ifelse} forall
  currentdict
  end
/Font5 exch definefont pop
%%EndProlog
%%Page: 1 1
bp
0.00 0.00 363.75 318.00 cl
0.00 0.00 363.75 318.00 cl
0.00 0.00 363.75 318.00 cl
0.00 0.00 363.75 318.00 cl
0.00 0.00 363.75 318.00 cl
0.00 0.00 363.75 318.00 cl
0.00 0.00 363.75 318.00 cl
0.00 0.00 363.75 318.00 cl
0.00 0.00 363.75 318.00 cl
/bg { 0.9922 0.9647 0.8902 srgb } def
0.00 0.00 363.75 318.00 r p2
0.00 0.00 363.75 318.00 cl
47.94 33.13 357.77 312.02 cl
/bg { 0.9922 0.9647 0.8902 srgb } def
0.5765 0.6314 0.6314 srgb
1.07 setlinewidth
[] 0 setdash
1 setlinecap
1 setlinejoin
10.00 setmiterlimit
47.94 33.13 309.83 278.89 r p3
0.9333 0.9098 0.8353 srgb
0.53 setlinewidth
[] 0 setdash
0 setlinecap
np
47.94 92.18 m
309.83 0 l
o
np
47.94 166.00 m
309.83 0 l
o
np
47.94 239.82 m
309.83 0 l
o
np
97.23 33.13 m
0 278.89 l
o
np
167.65 33.13 m
0 278.89 l
o
np
238.06 33.13 m
0 278.89 l
o
np
308.48 33.13 m
0 278.89 l
o
1.07 setlinewidth
[] 0 setdash
np
47.94 55.28 m
309.83 0 l
o
np
47.94 129.09 m
309.83 0 l
o
np
47.94 202.91 m
309.83 0 l
o
np
47.94 276.73 m
309.83 0 l
o
np
62.02 33.13 m
0 278.89 l
o
np
132.44 33.13 m
0 278.89 l
o
np
202.86 33.13 m
0 278.89 l
o
np
273.27 33.13 m
0 278.89 l
o
np
343.69 33.13 m
0 278.89 l
o
0.2745 0.5098 0.7059 srgb
0.71 setlinewidth
[] 0 setdash
1 setlinecap
62.38 56.14 1.95 c p1
63.79 56.32 1.95 c p1
65.20 55.11 1.95 c p1
66.62 54.61 1.95 c p1
68.03 56.17 1.95 c p1
69.44 52.59 1.95 c p1
70.86 56.21 1.95 c p1
72.27 54.87 1.95 c p1
73.69 54.86 1.95 c p1
75.10 53.94 1.95 c p1
76.51 55.17 1.95 c p1
77.93 58.11 1.95 c p1
79.34 56.12 1.95 c p1
80.75 56.58 1.95 c p1
82.17 55.05 1.95 c p1
83.58 57.84 1.95 c p1
84.99 55.96 1.95 c p1
86.41 57.59 1.95 c p1
87.82 60.73 1.95 c p1
89.24 60.71 1.95 c p1
90.65 62.81 1.95 c p1
92.06 65.41 1.95 c p1
93.48 64.12 1.95 c p1
94.89 64.79 1.95 c p1
96.30 66.93 1.95 c p1
97.72 74.35 1.95 c p1
99.13 73.55 1.95 c p1
100.54 77.91 1.95 c p1
101.96 80.80 1.95 c p1
103.37 82.70 1.95 c p1
104.79 87.32 1.95 c p1
106.20 92.66 1.95 c p1
107.61 95.85 1.95 c p1
109.03 98.74 1.95 c p1
110.44 100.29 1.95 c p1
111.85 104.30 1.95 c p1
113.27 106.82 1.95 c p1
114.68 108.62 1.95 c p1
116.09 117.49 1.95 c p1
117.51 118.77 1.95 c p1
118.92 124.26 1.95 c p1
120.34 122.96 1.95 c p1
121.75 128.80 1.95 c p1
123.16 135.63 1.95 c p1
124.58 139.39 1.95 c p1
125.99 144.14 1.95 c p1
127.40 143.74 1.95 c p1
128.82 150.48 1.95 c p1
130.23 154.29 1.95 c p1
131.64 155.24 1.95 c p1
133.06 160.08 1.95 c p1
134.47 167.42 1.95 c p1
135.89 168.23 1.95 c p1
137.30 172.24 1.95 c p1
138.71 174.24 1.95 c p1
140.13 179.09 1.95 c p1
141.54 183.10 1.95 c p1
142.95 186.63 1.95 c p1
144.37 191.85 1.95 c p1
145.78 188.43 1.95 c p1
147.19 195.26 1.95 c p1
148.61 196.14 1.95 c p1
150.02 201.95 1.95 c p1
151.44 206.42 1.95 c p1
152.85 206.09 1.95 c p1
154.26 207.06 1.95 c p1
155.68 213.81 1.95 c p1
157.09 217.53 1.95 c p1
158.50 218.54 1.95 c p1
159.92 218.40 1.95 c p1
161.33 222.86 1.95 c p1
162.74 224.02 1.95 c p1
164.16 225.96 1.95 c p1
165.57 233.21 1.95 c p1
166.99 234.04 1.95 c p1
168.40 235.49 1.95 c p1
169.81 237.38 1.95 c p1
171.23 236.96 1.95 c p1
172.64 240.80 1.95 c p1
174.05 243.48 1.95 c p1
175.47 244.73 1.95 c p1
176.88 247.07 1.95 c p1
178.29 246.77 1.95 c p1
179.71 252.50 1.95 c p1
181.12 251.85 1.95 c p1
182.53 254.68 1.95 c p1
183.95 254.37 1.95 c p1
185.36 254.32 1.95 c p1
186.78 256.91 1.95 c p1
188.19 258.62 1.95 c p1
189.60 257.22 1.95 c p1
191.02 258.56 1.95 c p1
192.43 263.74 1.95 c p1
193.84 261.46 1.95 c p1
195.26 261.62 1.95 c p1
196.67 265.06 1.95 c p1
198.08 264.24 1.95 c p1
199.50 269.06 1.95 c p1
200.91 265.83 1.95 c p1
202.33 266.49 1.95 c p1
203.74 268.60 1.95 c p1
205.15 267.28 1.95 c p1
206.57 270.28 1.95 c p1
207.98 268.33 1.95 c p1
209.39 271.09 1.95 c p1
210.81 270.64 1.95 c p1
212.22 271.48 1.95 c p1
213.63 274.72 1.95 c p1
215.05 272.20 1.95 c p1
216.46 273.74 1.95 c p1
217.88 271.82 1.95 c p1
219.29 272.02 1.95 c p1
220.70 276.14 1.95 c p1
222.12 276.49 1.95 c p1
223.53 274.67 1.95 c p1
224.94 274.25 1.95 c p1
226.36 275.10 1.95 c p1
227.77 276.25 1.95 c p1
229.18 278.67 1.95 c p1
230.60 275.44 1.95 c p1
232.01 277.89 1.95 c p1
233.43 277.60 1.95 c p1
234.84 276.14 1.95 c p1
236.25 277.91 1.95 c p1
237.67 275.00 1.95 c p1
239.08 273.85 1.95 c p1
240.49 272.76 1.95 c p1
241.91 277.09 1.95 c p1
243.32 272.12 1.95 c p1
244.73 273.34 1.95 c p1
246.15 277.36 1.95 c p1
247.56 276.06 1.95 c p1
248.98 275.32 1.95 c p1
250.39 272.57 1.95 c p1
251.80 278.00 1.95 c p1
253.22 272.27 1.95 c p1
254.63 272.04 1.95 c p1
256.04 274.23 1.95 c p1
257.46 273.12 1.95 c p1
258.87 271.98 1.95 c p1
260.28 270.57 1.95 c p1
261.70 269.99 1.95 c p1
263.11 270.65 1.95 c p1
264.53 268.92 1.95 c p1
265.94 270.76 1.95 c p1
267.35 271.12 1.95 c p1
268.77 267.61 1.95 c p1
270.18 270.71 1.95 c p1
271.59 270.33 1.95 c p1
273.01 268.74 1.95 c p1
274.42 265.67 1.95 c p1
275.83 268.39 1.95 c p1
277.25 267.37 1.95 c p1
278.66 265.38 1.95 c p1
280.08 265.90 1.95 c p1
281.49 265.16 1.95 c p1
282.90 267.51 1.95 c p1
284.32 263.94 1.95 c p1
285.73 264.00 1.95 c p1
287.14 262.38 1.95 c p1
288.56 262.05 1.95 c p1
289.97 262.64 1.95 c p1
291.38 261.25 1.95 c p1
292.80 260.30 1.95 c p1
294.21 258.95 1.95 c p1
295.63 259.39 1.95 c p1
297.04 260.13 1.95 c p1
298.45 256.75 1.95 c p1
299.87 260.56 1.95 c p1
301.28 257.29 1.95 c p1
302.69 256.98 1.95 c p1
304.11 258.04 1.95 c p1
305.52 255.45 1.95 c p1
306.93 255.97 1.95 c p1
308.35 251.58 1.95 c p1
309.76 254.15 1.95 c p1
311.18 256.44 1.95 c p1
312.59 252.70 1.95 c p1
314.00 251.75 1.95 c p1
315.42 248.07 1.95 c p1
316.83 248.73 1.95 c p1
318.24 249.32 1.95 c p1
319.66 248.11 1.95 c p1
321.07 249.69 1.95 c p1
322.48 248.53 1.95 c p1
323.90 246.75 1.95 c p1
325.31 248.08 1.95 c p1
326.73 245.79 1.95 c p1
328.14 244.29 1.95 c p1
329.55 243.09 1.95 c p1
330.97 243.93 1.95 c p1
332.38 241.68 1.95 c p1
333.79 242.88 1.95 c p1
335.21 241.45 1.95 c p1
336.62 242.23 1.95 c p1
338.03 240.76 1.95 c p1
339.45 240.12 1.95 c p1
340.86 237.49 1.95 c p1
342.28 236.77 1.95 c p1
343.69 236.74 1.95 c p1
1 0.3882 0.2784 srgb
1.49 setlinewidth
[] 0 setdash
0 setlinecap
1.00 setmiterlimit
np
62.38 55.64 m
0.56 0 l
0.56 0 l
0.57 0 l
0.56 0 l
0.57 0 l
0.56 0 l
0.56 0 l
0.57 0 l
0.56 0 l
0.56 0 l
0.57 0 l
0.56 0 l
0.57 0 l
0.56 0 l
0.56 0 l
0.57 0 l
0.56 0 l
0.56 0 l
0.57 0 l
0.56 0 l
0.57 0.01 l
0.56 0.01 l
0.56 0.01 l
0.57 0.01 l
0.56 0.02 l
0.56 0.03 l
0.57 0.04 l
0.56 0.04 l
0.57 0.06 l
0.56 0.07 l
0.56 0.08 l
0.57 0.10 l
0.56 0.11 l
0.56 0.13 l
0.57 0.16 l
0.56 0.17 l
0.57 0.20 l
0.56 0.22 l
0.56 0.25 l
0.57 0.27 l
0.56 0.31 l
0.56 0.33 l
0.57 0.36 l
0.56 0.39 l
0.57 0.42 l
0.56 0.45 l
0.56 0.49 l
0.57 0.52 l
0.56 0.55 l
0.56 0.58 l
0.57 0.62 l
0.56 0.65 l
0.57 0.68 l
0.56 0.71 l
0.56 0.75 l
0.57 0.78 l
0.56 0.81 l
0.56 0.84 l
0.57 0.88 l
0.56 0.90 l
0.57 0.94 l
0.56 0.96 l
0.56 1.00 l
0.57 1.02 l
0.56 1.05 l
0.56 1.07 l
0.57 1.10 l
0.56 1.13 l
0.57 1.15 l
0.56 1.18 l
0.56 1.20 l
0.57 1.22 l
0.56 1.24 l
0.56 1.27 l
0.57 1.28 l
0.56 1.30 l
0.57 1.32 l
0.56 1.34 l
0.56 1.36 l
0.57 1.37 l
0.56 1.39 l
0.56 1.40 l
0.57 1.41 l
0.56 1.43 l
0.57 1.44 l
0.56 1.45 l
0.56 1.47 l
0.57 1.47 l
0.56 1.48 l
0.56 1.50 l
0.57 1.49 l
0.56 1.51 l
0.57 1.52 l
0.56 1.52 l
0.56 1.52 l
0.57 1.53 l
0.56 1.54 l
0.56 1.54 l
0.57 1.54 l
118.75 122.84 lineto
0.57 1.55 l
0.56 1.55 l
0.56 1.55 l
0.57 1.55 l
0.56 1.55 l
0.56 1.55 l
0.57 1.55 l
0.56 1.55 l
0.57 1.54 l
0.56 1.55 l
0.56 1.54 l
0.57 1.54 l
0.56 1.53 l
0.56 1.54 l
0.57 1.53 l
0.56 1.52 l
0.57 1.52 l
0.56 1.52 l
0.56 1.51 l
0.57 1.50 l
0.56 1.50 l
0.56 1.49 l
0.57 1.49 l
0.56 1.48 l
0.57 1.47 l
0.56 1.47 l
0.56 1.45 l
0.57 1.46 l
0.56 1.44 l
0.56 1.44 l
0.57 1.42 l
0.56 1.42 l
0.57 1.41 l
0.56 1.40 l
0.56 1.40 l
0.57 1.38 l
0.56 1.38 l
0.56 1.36 l
0.57 1.36 l
0.56 1.35 l
0.57 1.33 l
0.56 1.33 l
0.56 1.32 l
0.57 1.31 l
0.56 1.30 l
0.56 1.28 l
0.57 1.28 l
0.56 1.27 l
0.57 1.26 l
0.56 1.24 l
0.56 1.24 l
0.57 1.23 l
0.56 1.21 l
0.56 1.21 l
0.57 1.19 l
0.56 1.18 l
0.57 1.18 l
0.56 1.16 l
0.56 1.15 l
0.57 1.14 l
0.56 1.13 l
0.56 1.11 l
0.57 1.11 l
0.56 1.10 l
0.57 1.08 l
0.56 1.08 l
0.56 1.06 l
0.57 1.05 l
0.56 1.05 l
0.56 1.03 l
0.57 1.02 l
0.56 1.01 l
0.57 0.99 l
0.56 0.99 l
0.56 0.98 l
0.57 0.96 l
0.56 0.96 l
0.56 0.94 l
0.57 0.94 l
0.56 0.92 l
0.57 0.91 l
0.56 0.90 l
0.56 0.89 l
0.57 0.88 l
0.56 0.87 l
0.56 0.86 l
0.57 0.85 l
0.56 0.84 l
0.57 0.82 l
0.56 0.82 l
0.56 0.81 l
0.57 0.79 l
0.56 0.79 l
0.56 0.78 l
0.57 0.76 l
0.56 0.76 l
0.57 0.74 l
0.56 0.74 l
0.56 0.73 l
175.13 243.72 lineto
0.56 0.71 l
0.56 0.69 l
0.57 0.69 l
0.56 0.68 l
0.57 0.67 l
0.56 0.65 l
0.56 0.65 l
0.57 0.64 l
0.56 0.63 l
0.56 0.62 l
0.57 0.61 l
0.56 0.61 l
0.57 0.59 l
0.56 0.58 l
0.56 0.58 l
0.57 0.56 l
0.56 0.56 l
0.56 0.55 l
0.57 0.54 l
0.56 0.53 l
0.57 0.52 l
0.56 0.51 l
0.56 0.51 l
0.57 0.50 l
0.56 0.48 l
0.56 0.48 l
0.57 0.48 l
0.56 0.46 l
0.57 0.45 l
0.56 0.45 l
0.56 0.44 l
0.57 0.43 l
0.56 0.43 l
0.56 0.41 l
0.57 0.41 l
0.56 0.40 l
0.57 0.39 l
0.56 0.39 l
0.56 0.37 l
0.57 0.37 l
0.56 0.37 l
0.56 0.35 l
0.57 0.35 l
0.56 0.34 l
0.57 0.33 l
0.56 0.33 l
0.56 0.32 l
0.57 0.31 l
0.56 0.31 l
0.56 0.30 l
0.57 0.29 l
0.56 0.28 l
0.57 0.28 l
0.56 0.27 l
0.56 0.27 l
0.57 0.26 l
0.56 0.25 l
0.56 0.25 l
0.57 0.24 l
0.56 0.23 l
0.57 0.23 l
0.56 0.22 l
0.56 0.21 l
0.57 0.21 l
0.56 0.21 l
0.56 0.19 l
0.57 0.19 l
0.56 0.19 l
0.57 0.18 l
0.56 0.17 l
0.56 0.17 l
0.57 0.17 l
0.56 0.15 l
0.56 0.15 l
0.57 0.15 l
0.56 0.14 l
0.57 0.14 l
0.56 0.13 l
0.56 0.12 l
0.57 0.12 l
0.56 0.12 l
0.56 0.11 l
0.57 0.10 l
0.56 0.10 l
0.57 0.10 l
0.56 0.09 l
0.56 0.08 l
0.57 0.08 l
0.56 0.08 l
0.56 0.07 l
0.57 0.06 l
0.56 0.06 l
0.57 0.06 l
0.56 0.05 l
0.56 0.05 l
0.57 0.05 l
0.56 0.03 l
0.56 0.04 l
0.57 0.03 l
231.50 275.70 lineto
0.57 0.02 l
0.56 0.02 l
0.56 0.01 l
0.57 0.01 l
0.56 0.01 l
0.56 0 l
0.57 0 l
0.56 -0.01 l
0.57 -0.01 l
0.56 -0.01 l
0.56 -0.02 l
0.57 -0.02 l
0.56 -0.03 l
0.56 -0.02 l
0.57 -0.04 l
0.56 -0.03 l
0.57 -0.04 l
0.56 -0.04 l
0.56 -0.05 l
0.57 -0.05 l
0.56 -0.05 l
0.56 -0.06 l
0.57 -0.06 l
0.56 -0.06 l
0.57 -0.07 l
0.56 -0.07 l
0.56 -0.07 l
0.57 -0.07 l
0.56 -0.08 l
0.56 -0.08 l
0.57 -0.09 l
0.56 -0.09 l
0.57 -0.09 l
0.56 -0.09 l
0.56 -0.10 l
0.57 -0.10 l
0.56 -0.10 l
0.56 -0.10 l
0.57 -0.11 l
0.56 -0.11 l
0.57 -0.12 l
0.56 -0.11 l
0.56 -0.12 l
0.57 -0.12 l
0.56 -0.12 l
0.56 -0.13 l
0.57 -0.13 l
0.56 -0.13 l
0.57 -0.13 l
0.56 -0.14 l
0.56 -0.14 l
0.57 -0.14 l
0.56 -0.14 l
0.56 -0.15 l
0.57 -0.15 l
0.56 -0.15 l
0.57 -0.15 l
0.56 -0.15 l
0.56 -0.16 l
0.57 -0.16 l
0.56 -0.16 l
0.56 -0.16 l
0.57 -0.17 l
0.56 -0.16 l
0.57 -0.17 l
0.56 -0.18 l
0.56 -0.17 l
0.57 -0.17 l
0.56 -0.18 l
0.56 -0.18 l
0.57 -0.18 l
0.56 -0.18 l
0.57 -0.19 l
0.56 -0.18 l
0.56 -0.19 l
0.57 -0.19 l
0.56 -0.19 l
0.56 -0.20 l
0.57 -0.19 l
0.56 -0.20 l
0.57 -0.20 l
0.56 -0.19 l
0.56 -0.21 l
0.57 -0.20 l
0.56 -0.20 l
0.56 -0.21 l
0.57 -0.21 l
0.56 -0.21 l
0.57 -0.21 l
0.56 -0.21 l
0.56 -0.21 l
0.57 -0.22 l
0.56 -0.21 l
0.56 -0.22 l
0.57 -0.22 l
0.56 -0.22 l
0.57 -0.22 l
0.56 -0.23 l
0.56 -0.22 l
287.88 263.17 lineto
0.56 -0.22 l
0.56 -0.23 l
0.57 -0.23 l
0.56 -0.23 l
0.57 -0.23 l
0.56 -0.23 l
0.56 -0.24 l
0.57 -0.23 l
0.56 -0.24 l
0.56 -0.24 l
0.57 -0.24 l
0.56 -0.23 l
0.57 -0.24 l
0.56 -0.25 l
0.56 -0.24 l
0.57 -0.24 l
0.56 -0.25 l
0.56 -0.24 l
0.57 -0.25 l
0.56 -0.25 l
0.57 -0.24 l
0.56 -0.25 l
0.56 -0.25 l
0.57 -0.25 l
0.56 -0.26 l
0.56 -0.25 l
0.57 -0.25 l
0.56 -0.26 l
0.57 -0.25 l
0.56 -0.26 l
0.56 -0.25 l
0.57 -0.26 l
0.56 -0.26 l
0.57 -0.26 l
0.56 -0.26 l
0.56 -0.26 l
0.57 -0.26 l
0.56 -0.26 l
0.56 -0.26 l
0.57 -0.27 l
0.56 -0.26 l
0.57 -0.26 l
0.56 -0.27 l
0.56 -0.26 l
0.57 -0.27 l
0.56 -0.27 l
0.56 -0.27 l
0.57 -0.26 l
0.56 -0.27 l
0.57 -0.27 l
0.56 -0.27 l
0.56 -0.27 l
0.57 -0.27 l
0.56 -0.27 l
0.56 -0.27 l
0.57 -0.28 l
0.56 -0.27 l
0.57 -0.27 l
0.56 -0.28 l
0.56 -0.27 l
0.57 -0.27 l
0.56 -0.28 l
0.56 -0.27 l
0.57 -0.28 l
0.56 -0.28 l
0.57 -0.27 l
0.56 -0.28 l
0.56 -0.28 l
0.57 -0.27 l
0.56 -0.28 l
0.56 -0.28 l
0.57 -0.28 l
0.56 -0.28 l
0.57 -0.28 l
0.56 -0.28 l
0.56 -0.28 l
0.57 -0.28 l
0.56 -0.28 l
0.56 -0.28 l
0.57 -0.28 l
0.56 -0.28 l
0.57 -0.28 l
0.56 -0.28 l
0.56 -0.28 l
0.57 -0.29 l
0.56 -0.28 l
0.56 -0.28 l
0.57 -0.28 l
0.56 -0.29 l
0.57 -0.28 l
0.56 -0.28 l
0.56 -0.29 l
0.57 -0.28 l
0.56 -0.28 l
0.56 -0.29 l
0.57 -0.28 l
0.56 -0.29 l
0.57 -0.28 l
0.56 -0.28 l
o
/Font1 findfont 11 s
0 0 0 srgb
205.36 206.34 (Mean v) 0 ta
-0.275 (alues:) tb gr
/Font3 findfont 11 s
208.78 185.28 (T) 0 0 t
/Font1 findfont 8 s
216.68 183.27 (0) 0 0 t
/Font5 findfont 11 s
223.68 185.28 (=) 0 0 t
232.26 185.28 (-) 0 0 t
/Font1 findfont 11 s
239.83 185.28 (1.498) 0 0 t
/Font3 findfont 11 s
211.45 170.44 (T) 0 0 t
/Font1 findfont 8 s
219.36 168.43 (m) 0 0 t
/Font5 findfont 11 s
228.57 170.44 (=) 0 0 t
/Font1 findfont 11 s
237.15 170.44 (3.471) 0 0 t
/Font3 findfont 11 s
215.24 154.86 (a) 0 0 t
/Font5 findfont 11 s
224.79 154.86 (=) 0 0 t
/Font1 findfont 11 s
233.37 154.86 (1.256) 0 0 t
/Font3 findfont 11 s
213.71 140.10 (m) 0 0 t
/Font5 findfont 11 s
226.31 140.10 (=) 0 0 t
/Font1 findfont 11 s
234.89 140.10 (1.988) 0 0 t
0.00 0.00 363.75 318.00 cl
0.00 0.00 363.75 318.00 cl
0.00 0.00 363.75 318.00 cl
0.00 0.00 363.75 318.00 cl
0.00 0.00 363.75 318.00 cl
0.00 0.00 363.75 318.00 cl
0.00 0.00 363.75 318.00 cl
0.00 0.00 363.75 318.00 cl
0.00 0.00 363.75 318.00 cl
0.00 0.00 363.75 318.00 cl
0.00 0.00 363.75 318.00 cl
0.00 0.00 363.75 318.00 cl
0.00 0.00 363.75 318.00 cl
0.5765 0.6314 0.6314 srgb
1.07 setlinewidth
[] 0 setdash
0 setlinecap
1 setlinejoin
10.00 setmiterlimit
np
47.94 33.13 m
0 278.89 l
o
0.00 0.00 363.75 318.00 cl
0.00 0.00 363.75 318.00 cl
0.00 0.00 363.75 318.00 cl
/Font1 findfont 10 s
0.3020 0.3020 0.3020 srgb
42.56 51.69 (-1.5) 1 0 t
42.56 125.50 (-1.0) 1 0 t
42.56 199.32 (-0.5) 1 0 t
42.56 273.14 (0.0) 1 0 t
0.00 0.00 363.75 318.00 cl
0.00 0.00 363.75 318.00 cl
0.5765 0.6314 0.6314 srgb
1.07 setlinewidth
[] 0 setdash
0 setlinecap
1 setlinejoin
10.00 setmiterlimit
np
44.95 55.28 m
2.99 0 l
o
np
44.95 129.09 m
2.99 0 l
o
np
44.95 202.91 m
2.99 0 l
o
np
44.95 276.73 m
2.99 0 l
o
0.00 0.00 363.75 318.00 cl
0.00 0.00 363.75 318.00 cl
0.00 0.00 363.75 318.00 cl
0.00 0.00 363.75 318.00 cl
0.00 0.00 363.75 318.00 cl
0.00 0.00 363.75 318.00 cl
0.00 0.00 363.75 318.00 cl
0.5765 0.6314 0.6314 srgb
1.07 setlinewidth
[] 0 setdash
0 setlinecap
1 setlinejoin
10.00 setmiterlimit
np
47.94 33.13 m
309.83 0 l
o
0.00 0.00 363.75 318.00 cl
0.00 0.00 363.75 318.00 cl
0.00 0.00 363.75 318.00 cl
0.5765 0.6314 0.6314 srgb
1.07 setlinewidth
[] 0 setdash
0 setlinecap
1 setlinejoin
10.00 setmiterlimit
np
62.02 30.14 m
0 2.99 l
o
np
132.44 30.14 m
0 2.99 l
o
np
202.86 30.14 m
0 2.99 l
o
np
273.27 30.14 m
0 2.99 l
o
np
343.69 30.14 m
0 2.99 l
o
0.00 0.00 363.75 318.00 cl
0.00 0.00 363.75 318.00 cl
/Font1 findfont 10 s
0.3020 0.3020 0.3020 srgb
62.02 20.57 (0) .5 0 t
132.44 20.57 (2) .5 0 t
202.86 20.57 (4) .5 0 t
273.27 20.57 (6) .5 0 t
343.69 20.57 (8) .5 0 t
0.00 0.00 363.75 318.00 cl
0.00 0.00 363.75 318.00 cl
0.00 0.00 363.75 318.00 cl
0.00 0.00 363.75 318.00 cl
0.00 0.00 363.75 318.00 cl
0.00 0.00 363.75 318.00 cl
/Font1 findfont 12 s
0.3961 0.4824 0.5137 srgb
202.86 5.98 (time) .5 0 t
0.00 0.00 363.75 318.00 cl
0.00 0.00 363.75 318.00 cl
/Font1 findfont 12 s
0.3961 0.4824 0.5137 srgb
14.59 138.23 (T) 90 ta
-1.440 (emper) tb
-0.120 (ature) tb gr
0.00 0.00 363.75 318.00 cl
0.00 0.00 363.75 318.00 cl
0.00 0.00 363.75 318.00 cl
0.00 0.00 363.75 318.00 cl
0.00 0.00 363.75 318.00 cl
0.00 0.00 363.75 318.00 cl
0.00 0.00 363.75 318.00 cl
0.00 0.00 363.75 318.00 cl
0.00 0.00 363.75 318.00 cl
0.00 0.00 363.75 318.00 cl
ep
%%Trailer
%%Pages: 1
%%EOF
