%!PS-Adobe-3.0 EPSF-3.0
%%DocumentNeededResources: font Helvetica
%%+ font Helvetica-Bold
%%+ font Helvetica-Oblique
%%+ font Helvetica-BoldOblique
%%+ font Symbol
%%Title: R Graphics Output
%%Creator: R Software
%%Pages: (atend)
%%BoundingBox: 0 0 600 422
%%EndComments
%%BeginProlog
/bp  { gs sRGB gs } def
% begin .ps.prolog
/gs  { gsave } bind def
/gr  { grestore } bind def
/ep  { showpage gr gr } bind def
/m   { moveto } bind def
/l  { rlineto } bind def
/np  { newpath } bind def
/cp  { closepath } bind def
/f   { fill } bind def
/o   { stroke } bind def
/c   { newpath 0 360 arc } bind def
/r   { 4 2 roll moveto 1 copy 3 -1 roll exch 0 exch rlineto 0 rlineto -1 mul 0 exch rlineto closepath } bind def
/p1  { stroke } bind def
/p2  { gsave bg fill grestore newpath } bind def
/p3  { gsave bg fill grestore stroke } bind def
/p6  { gsave bg eofill grestore newpath } bind def
/p7  { gsave bg eofill grestore stroke } bind def
/t   { 5 -2 roll moveto gsave rotate
       1 index stringwidth pop
       mul neg 0 rmoveto show grestore } bind def
/ta  { 4 -2 roll moveto gsave rotate show } bind def
/tb  { 2 -1 roll 0 rmoveto show } bind def
/cl  { grestore gsave newpath 3 index 3 index moveto 1 index
       4 -1 roll lineto  exch 1 index lineto lineto
       closepath clip newpath } bind def
/rgb { setrgbcolor } bind def
/s   { scalefont setfont } bind def
% end   .ps.prolog
/sRGB { [ /CIEBasedABC
          << /DecodeLMN
               [ { dup 0.03928 le
                        {12.92321 div}
                        {0.055 add 1.055 div 2.4 exp }
                     ifelse
                 } bind dup dup
               ]
             /MatrixLMN [0.412457 0.212673 0.019334
                         0.357576 0.715152 0.119192
                         0.180437 0.072175 0.950301]
             /WhitePoint [0.9505 1.0 1.0890]
           >>
         ] setcolorspace } bind def
/srgb { setcolor } bind def
% begin encoding
/WinAnsiEncoding [
 /.notdef /.notdef /.notdef /.notdef /.notdef /.notdef /.notdef /.notdef
 /.notdef /.notdef /.notdef /.notdef /.notdef /.notdef /.notdef /.notdef
 /.notdef /.notdef /.notdef /.notdef /.notdef /.notdef /.notdef /.notdef
 /.notdef /.notdef /.notdef /.notdef /.notdef /.notdef /.notdef /.notdef
 /space /exclam /quotedbl /numbersign /dollar /percent /ampersand /quoteright
 /parenleft /parenright /asterisk /plus /comma /minus /period /slash
 /zero /one /two /three /four /five /six /seven
 /eight /nine /colon /semicolon /less /equal /greater /question
 /at /A /B /C /D /E /F /G
 /H /I /J /K /L /M /N /O
 /P /Q /R /S /T /U /V /W
 /X /Y /Z /bracketleft /backslash /bracketright /asciicircum /underscore
 /grave /a /b /c /d /e /f /g
 /h /i /j /k /l /m /n /o
 /p /q /r /s /t /u /v /w
 /x /y /z /braceleft /bar /braceright /asciitilde /.notdef
 /Euro /.notdef /quotesinglbase /florin /quotedblbase /ellipsis /dagger /daggerdbl
 /circumflex /perthousand /Scaron /guilsinglleft /OE /.notdef /Zcaron /.notdef
 /.notdef /quoteleft /quoteright /quotedblleft /quotedblright /bullet /endash /emdash
 /tilde /trademark /scaron /guilsinglright /oe /.notdef /zcaron /Ydieresis
 /space /exclamdown /cent /sterling /currency /yen /brokenbar /section
 /dieresis /copyright /ordfeminine /guillemotleft /logicalnot /hyphen /registered /macron
 /degree /plusminus /twosuperior /threesuperior /acute /mu /paragraph /periodcentered
 /cedilla /onesuperior /ordmasculine /guillemotright /onequarter /onehalf /threequarters /questiondown
 /Agrave /Aacute /Acircumflex /Atilde /Adieresis /Aring /AE /Ccedilla
 /Egrave /Eacute /Ecircumflex /Edieresis /Igrave /Iacute /Icircumflex /Idieresis
 /Eth /Ntilde /Ograve /Oacute /Ocircumflex /Otilde /Odieresis /multiply
 /Oslash /Ugrave /Uacute /Ucircumflex /Udieresis /Yacute /Thorn /germandbls
 /agrave /aacute /acircumflex /atilde /adieresis /aring /ae /ccedilla
 /egrave /eacute /ecircumflex /edieresis /igrave /iacute /icircumflex /idieresis
 /eth /ntilde /ograve /oacute /ocircumflex /otilde /odieresis /divide
 /oslash /ugrave /uacute /ucircumflex /udieresis /yacute /thorn /ydieresis
]
 def
% end encoding
%%IncludeResource: font Helvetica
/Helvetica findfont
dup length dict begin
  {1 index /FID ne {def} {pop pop} ifelse} forall
  /Encoding WinAnsiEncoding def
  currentdict
  end
/Font1 exch definefont pop
%%IncludeResource: font Helvetica-Bold
/Helvetica-Bold findfont
dup length dict begin
  {1 index /FID ne {def} {pop pop} ifelse} forall
  /Encoding WinAnsiEncoding def
  currentdict
  end
/Font2 exch definefont pop
%%IncludeResource: font Helvetica-Oblique
/Helvetica-Oblique findfont
dup length dict begin
  {1 index /FID ne {def} {pop pop} ifelse} forall
  /Encoding WinAnsiEncoding def
  currentdict
  end
/Font3 exch definefont pop
%%IncludeResource: font Helvetica-BoldOblique
/Helvetica-BoldOblique findfont
dup length dict begin
  {1 index /FID ne {def} {pop pop} ifelse} forall
  /Encoding WinAnsiEncoding def
  currentdict
  end
/Font4 exch definefont pop
%%IncludeResource: font Symbol
/Symbol findfont
dup length dict begin
  {1 index /FID ne {def} {pop pop} ifelse} forall
  currentdict
  end
/Font5 exch definefont pop
%%EndProlog
%%Page: 1 1
bp
/bg { 1 1 1 srgb } def
0.00 0.00 600.00 421.50 r p2
59.04 73.44 569.76 362.46 cl
59.04 73.44 569.76 362.46 cl
0 0 1 srgb
0.75 setlinewidth
[] 0 setdash
1 setlinecap
1 setlinejoin
10.00 setmiterlimit
77.96 88.02 2.70 c p1
80.33 93.07 2.70 c p1
82.71 95.82 2.70 c p1
85.08 84.14 2.70 c p1
87.46 93.59 2.70 c p1
89.84 93.85 2.70 c p1
92.21 90.17 2.70 c p1
94.59 90.27 2.70 c p1
96.97 90.21 2.70 c p1
99.34 89.10 2.70 c p1
101.72 90.50 2.70 c p1
104.10 88.73 2.70 c p1
106.47 89.49 2.70 c p1
108.85 92.35 2.70 c p1
111.22 95.39 2.70 c p1
113.60 91.75 2.70 c p1
115.98 90.39 2.70 c p1
118.35 89.03 2.70 c p1
120.73 89.28 2.70 c p1
123.11 100.35 2.70 c p1
125.48 92.58 2.70 c p1
127.86 90.46 2.70 c p1
130.23 90.63 2.70 c p1
132.61 93.69 2.70 c p1
134.99 89.77 2.70 c p1
137.36 87.20 2.70 c p1
139.74 94.08 2.70 c p1
142.12 88.64 2.70 c p1
144.49 92.08 2.70 c p1
146.87 88.94 2.70 c p1
149.25 95.88 2.70 c p1
151.62 90.51 2.70 c p1
154.00 89.71 2.70 c p1
156.37 90.42 2.70 c p1
158.75 86.58 2.70 c p1
161.13 88.15 2.70 c p1
163.50 84.71 2.70 c p1
165.88 87.56 2.70 c p1
168.26 91.13 2.70 c p1
170.63 90.54 2.70 c p1
173.01 97.06 2.70 c p1
175.38 88.49 2.70 c p1
177.76 89.22 2.70 c p1
180.14 91.17 2.70 c p1
182.51 88.74 2.70 c p1
184.89 88.83 2.70 c p1
187.27 88.36 2.70 c p1
189.64 87.87 2.70 c p1
192.02 90.35 2.70 c p1
194.40 90.44 2.70 c p1
196.77 85.11 2.70 c p1
199.15 90.15 2.70 c p1
201.52 88.35 2.70 c p1
203.90 88.68 2.70 c p1
206.28 91.62 2.70 c p1
208.65 94.38 2.70 c p1
211.03 99.00 2.70 c p1
213.41 92.71 2.70 c p1
215.78 104.00 2.70 c p1
218.16 99.07 2.70 c p1
220.54 110.91 2.70 c p1
222.91 124.02 2.70 c p1
225.29 122.68 2.70 c p1
227.66 128.55 2.70 c p1
230.04 139.20 2.70 c p1
232.42 153.89 2.70 c p1
234.79 152.65 2.70 c p1
237.17 169.82 2.70 c p1
239.55 178.21 2.70 c p1
241.92 183.17 2.70 c p1
244.30 190.14 2.70 c p1
246.67 196.39 2.70 c p1
249.05 204.23 2.70 c p1
251.43 214.91 2.70 c p1
253.80 226.66 2.70 c p1
256.18 225.69 2.70 c p1
258.56 227.77 2.70 c p1
260.93 236.01 2.70 c p1
263.31 245.03 2.70 c p1
265.69 248.46 2.70 c p1
268.06 254.04 2.70 c p1
270.44 258.91 2.70 c p1
272.81 259.39 2.70 c p1
275.19 267.80 2.70 c p1
277.57 275.39 2.70 c p1
279.94 278.74 2.70 c p1
282.32 281.90 2.70 c p1
284.70 282.12 2.70 c p1
287.07 286.11 2.70 c p1
289.45 285.78 2.70 c p1
291.82 292.58 2.70 c p1
294.20 296.38 2.70 c p1
296.58 303.92 2.70 c p1
298.95 303.97 2.70 c p1
301.33 301.20 2.70 c p1
303.71 306.28 2.70 c p1
306.08 303.27 2.70 c p1
308.46 312.07 2.70 c p1
310.84 314.23 2.70 c p1
313.21 319.87 2.70 c p1
315.59 315.70 2.70 c p1
317.96 314.22 2.70 c p1
320.34 317.52 2.70 c p1
322.72 316.96 2.70 c p1
325.09 317.16 2.70 c p1
327.47 321.76 2.70 c p1
329.85 319.30 2.70 c p1
332.22 324.01 2.70 c p1
334.60 325.68 2.70 c p1
336.97 325.27 2.70 c p1
339.35 325.69 2.70 c p1
341.73 325.02 2.70 c p1
344.10 324.27 2.70 c p1
346.48 331.70 2.70 c p1
348.86 329.62 2.70 c p1
351.23 333.06 2.70 c p1
353.61 326.64 2.70 c p1
355.99 332.06 2.70 c p1
358.36 334.35 2.70 c p1
360.74 332.52 2.70 c p1
363.11 332.47 2.70 c p1
365.49 330.94 2.70 c p1
367.87 341.07 2.70 c p1
370.24 337.05 2.70 c p1
372.62 341.11 2.70 c p1
375.00 335.56 2.70 c p1
377.37 333.50 2.70 c p1
379.75 330.84 2.70 c p1
382.13 334.15 2.70 c p1
384.50 337.39 2.70 c p1
386.88 340.35 2.70 c p1
389.25 338.03 2.70 c p1
391.63 333.44 2.70 c p1
394.01 339.95 2.70 c p1
396.38 332.28 2.70 c p1
398.76 336.87 2.70 c p1
401.14 337.24 2.70 c p1
403.51 331.88 2.70 c p1
405.89 341.82 2.70 c p1
408.26 336.74 2.70 c p1
410.64 337.88 2.70 c p1
413.02 343.92 2.70 c p1
415.39 341.48 2.70 c p1
417.77 339.08 2.70 c p1
420.15 341.33 2.70 c p1
422.52 341.06 2.70 c p1
424.90 345.47 2.70 c p1
427.28 340.86 2.70 c p1
429.65 341.74 2.70 c p1
432.03 341.30 2.70 c p1
434.40 338.92 2.70 c p1
436.78 340.62 2.70 c p1
439.16 345.95 2.70 c p1
441.53 337.47 2.70 c p1
443.91 340.93 2.70 c p1
446.29 345.22 2.70 c p1
448.66 339.85 2.70 c p1
451.04 337.12 2.70 c p1
453.41 337.80 2.70 c p1
455.79 339.49 2.70 c p1
458.17 337.98 2.70 c p1
460.54 340.03 2.70 c p1
462.92 339.55 2.70 c p1
465.30 340.38 2.70 c p1
467.67 342.43 2.70 c p1
470.05 343.21 2.70 c p1
472.43 346.83 2.70 c p1
474.80 340.92 2.70 c p1
477.18 340.09 2.70 c p1
479.55 346.22 2.70 c p1
481.93 347.04 2.70 c p1
484.31 341.41 2.70 c p1
486.68 340.16 2.70 c p1
489.06 335.11 2.70 c p1
491.44 346.14 2.70 c p1
493.81 338.51 2.70 c p1
496.19 337.55 2.70 c p1
498.57 351.76 2.70 c p1
500.94 342.21 2.70 c p1
503.32 341.32 2.70 c p1
505.69 332.15 2.70 c p1
508.07 341.12 2.70 c p1
510.45 344.80 2.70 c p1
512.82 342.90 2.70 c p1
515.20 344.61 2.70 c p1
517.58 348.26 2.70 c p1
519.95 345.50 2.70 c p1
522.33 339.80 2.70 c p1
524.70 343.94 2.70 c p1
527.08 340.88 2.70 c p1
529.46 339.73 2.70 c p1
531.83 331.85 2.70 c p1
534.21 338.89 2.70 c p1
536.59 343.25 2.70 c p1
538.96 348.97 2.70 c p1
541.34 343.30 2.70 c p1
543.72 343.72 2.70 c p1
546.09 338.32 2.70 c p1
548.47 342.17 2.70 c p1
550.84 334.55 2.70 c p1
0.00 0.00 600.00 421.50 cl
0 0 0 srgb
0.75 setlinewidth
[] 0 setdash
1 setlinecap
1 setlinejoin
10.00 setmiterlimit
np
77.96 73.44 m
472.88 0 l
o
np
77.96 73.44 m
0 -7.20 l
o
np
196.18 73.44 m
0 -7.20 l
o
np
314.40 73.44 m
0 -7.20 l
o
np
432.62 73.44 m
0 -7.20 l
o
np
550.84 73.44 m
0 -7.20 l
o
/Font1 findfont 12 s
77.96 47.52 (-0.01) .5 0 t
196.18 47.52 (0.00) .5 0 t
314.40 47.52 (0.01) .5 0 t
432.62 47.52 (0.02) .5 0 t
550.84 47.52 (0.03) .5 0 t
np
59.04 92.13 m
0 226.90 l
o
np
59.04 92.13 m
-7.20 0 l
o
np
59.04 148.85 m
-7.20 0 l
o
np
59.04 205.58 m
-7.20 0 l
o
np
59.04 262.30 m
-7.20 0 l
o
np
59.04 319.03 m
-7.20 0 l
o
41.76 92.13 (0.0) .5 90 t
41.76 148.85 (0.5) .5 90 t
41.76 205.58 (1.0) .5 90 t
41.76 262.30 (1.5) .5 90 t
41.76 319.03 (2.0) .5 90 t
np
59.04 73.44 m
510.72 0 l
0 289.02 l
-510.72 0 l
0 -289.02 l
o
0.00 0.00 600.00 421.50 cl
/Font1 findfont 12 s
0 0 0 srgb
314.40 18.72 (time \(s\)) .5 0 t
12.96 183.61 (T) 90 ta
-1.440 (emper) tb
-0.120 (ature) tb gr
59.04 73.44 569.76 362.46 cl
1 0 0 srgb
0.75 setlinewidth
[] 0 setdash
1 setlinecap
1 setlinejoin
10.00 setmiterlimit
np
77.96 92.13 m
2.37 0 l
2.38 0 l
2.37 0 l
2.38 0 l
2.38 0 l
2.37 0 l
2.38 0 l
2.38 0 l
2.37 0 l
2.38 0 l
2.38 0 l
2.37 0 l
2.38 0 l
2.37 0 l
2.38 0 l
2.38 0 l
2.37 0 l
2.38 0 l
2.38 0 l
2.37 0 l
2.38 0 l
2.37 0 l
2.38 0 l
2.38 0 l
2.37 0 l
2.38 0 l
2.38 0 l
2.37 0 l
2.38 0 l
2.38 0 l
2.37 0 l
2.38 0 l
2.37 0 l
2.38 0 l
2.38 0 l
2.37 0 l
2.38 0 l
2.38 0 l
2.37 0 l
2.38 0 l
2.37 0 l
2.38 0 l
2.38 0 l
2.37 0 l
2.38 0 l
2.38 0 l
2.37 0 l
2.38 0 l
2.38 0 l
2.37 -0.89 l
2.38 0.89 l
2.37 0 l
2.38 0 l
2.38 0.04 l
2.37 0.28 l
2.38 0.89 l
2.38 1.87 l
2.37 3.11 l
2.38 4.38 l
2.38 5.56 l
2.37 6.57 l
2.38 7.36 l
2.37 7.94 l
2.38 8.34 l
2.38 8.55 l
2.37 8.65 l
2.38 8.62 l
2.38 8.50 l
2.37 8.33 l
2.38 8.10 l
2.37 7.84 l
2.38 7.55 l
2.38 7.24 l
2.37 6.94 l
2.38 6.63 l
2.38 6.32 l
2.37 6.01 l
2.38 5.72 l
2.38 5.42 l
2.37 5.15 l
2.38 4.88 l
2.37 4.62 l
2.38 4.37 l
2.38 4.14 l
2.37 3.92 l
2.38 3.70 l
2.38 3.50 l
2.37 3.31 l
2.38 3.13 l
2.37 2.95 l
2.38 2.79 l
2.38 2.64 l
2.37 2.49 l
2.38 2.35 l
2.38 2.22 l
2.37 2.09 l
2.38 1.98 l
2.38 1.87 l
2.37 1.77 l
315.59 314.42 lineto
2.37 1.58 l
2.38 1.48 l
2.38 1.41 l
2.37 1.32 l
2.38 1.25 l
2.38 1.18 l
2.37 1.12 l
2.38 1.05 l
2.37 0.99 l
2.38 0.94 l
2.38 0.88 l
2.37 0.84 l
2.38 0.79 l
2.38 0.74 l
2.37 0.71 l
2.38 0.66 l
2.38 0.63 l
2.37 0.59 l
2.38 0.56 l
2.37 0.52 l
2.38 0.50 l
2.38 0.47 l
2.37 0.45 l
2.38 0.41 l
2.38 0.40 l
2.37 0.37 l
2.38 0.36 l
2.38 0.33 l
2.37 0.31 l
2.38 0.30 l
2.37 0.28 l
2.38 0.26 l
2.38 0.25 l
2.37 0.24 l
2.38 0.22 l
2.38 0.21 l
2.37 0.20 l
2.38 0.18 l
2.37 0.18 l
2.38 0.17 l
2.38 0.16 l
2.37 0.14 l
2.38 0.14 l
2.38 0.14 l
2.37 0.12 l
2.38 0.12 l
2.38 0.11 l
2.37 0.11 l
2.38 0.10 l
2.37 0.09 l
2.38 0.09 l
2.38 0.08 l
2.37 0.08 l
2.38 0.07 l
2.38 0.07 l
2.37 0.07 l
2.38 0.06 l
2.37 0.06 l
2.38 0.06 l
2.38 0.05 l
2.37 0.05 l
2.38 0.05 l
2.38 0.04 l
2.37 0.04 l
2.38 0.04 l
2.38 0.04 l
2.37 0.04 l
2.38 0.03 l
2.37 0.03 l
2.38 0.03 l
2.38 0.03 l
2.37 0.02 l
2.38 0.03 l
2.38 0.02 l
2.37 0.02 l
2.38 0.03 l
2.38 0.02 l
2.37 0.01 l
2.38 0.02 l
2.37 0.02 l
2.38 0.01 l
2.38 0.02 l
2.37 0.01 l
2.38 0.02 l
2.38 0.01 l
2.37 0.01 l
2.38 0.01 l
2.37 0.01 l
2.38 0.01 l
2.38 0.01 l
2.37 0.01 l
2.38 0.01 l
2.38 0.01 l
2.37 0 l
2.38 0.01 l
2.38 0.01 l
2.37 0 l
2.38 0.01 l
2.37 0 l
o
np
480.93 211.50 m
19.77 0 l
o
0 0 1 srgb
490.81 224.40 2.70 c p1
/Font1 findfont 12 s
0 0 0 srgb
510.58 220.09 (Exper) 0 ta
0.180 (iment) tb gr
510.58 207.19 (Theor) 0 ta
0.360 (y) tb gr
ep
%%Trailer
%%Pages: 1
%%EOF
