%!PS-Adobe-3.0 EPSF-3.0
%%DocumentNeededResources: font Helvetica
%%+ font Helvetica-Bold
%%+ font Helvetica-Oblique
%%+ font Helvetica-BoldOblique
%%+ font Symbol
%%Title: R Graphics Output
%%Creator: R Software
%%Pages: (atend)
%%BoundingBox: 0 0 436 393
%%EndComments
%%BeginProlog
/bp  { gs sRGB gs } def
% begin .ps.prolog
/gs  { gsave } bind def
/gr  { grestore } bind def
/ep  { showpage gr gr } bind def
/m   { moveto } bind def
/l  { rlineto } bind def
/np  { newpath } bind def
/cp  { closepath } bind def
/f   { fill } bind def
/o   { stroke } bind def
/c   { newpath 0 360 arc } bind def
/r   { 4 2 roll moveto 1 copy 3 -1 roll exch 0 exch rlineto 0 rlineto -1 mul 0 exch rlineto closepath } bind def
/p1  { stroke } bind def
/p2  { gsave bg fill grestore newpath } bind def
/p3  { gsave bg fill grestore stroke } bind def
/p6  { gsave bg eofill grestore newpath } bind def
/p7  { gsave bg eofill grestore stroke } bind def
/t   { 5 -2 roll moveto gsave rotate
       1 index stringwidth pop
       mul neg 0 rmoveto show grestore } bind def
/ta  { 4 -2 roll moveto gsave rotate show } bind def
/tb  { 2 -1 roll 0 rmoveto show } bind def
/cl  { grestore gsave newpath 3 index 3 index moveto 1 index
       4 -1 roll lineto  exch 1 index lineto lineto
       closepath clip newpath } bind def
/rgb { setrgbcolor } bind def
/s   { scalefont setfont } bind def
% end   .ps.prolog
/sRGB { [ /CIEBasedABC
          << /DecodeLMN
               [ { dup 0.03928 le
                        {12.92321 div}
                        {0.055 add 1.055 div 2.4 exp }
                     ifelse
                 } bind dup dup
               ]
             /MatrixLMN [0.412457 0.212673 0.019334
                         0.357576 0.715152 0.119192
                         0.180437 0.072175 0.950301]
             /WhitePoint [0.9505 1.0 1.0890]
           >>
         ] setcolorspace } bind def
/srgb { setcolor } bind def
% begin encoding
/WinAnsiEncoding [
 /.notdef /.notdef /.notdef /.notdef /.notdef /.notdef /.notdef /.notdef
 /.notdef /.notdef /.notdef /.notdef /.notdef /.notdef /.notdef /.notdef
 /.notdef /.notdef /.notdef /.notdef /.notdef /.notdef /.notdef /.notdef
 /.notdef /.notdef /.notdef /.notdef /.notdef /.notdef /.notdef /.notdef
 /space /exclam /quotedbl /numbersign /dollar /percent /ampersand /quoteright
 /parenleft /parenright /asterisk /plus /comma /minus /period /slash
 /zero /one /two /three /four /five /six /seven
 /eight /nine /colon /semicolon /less /equal /greater /question
 /at /A /B /C /D /E /F /G
 /H /I /J /K /L /M /N /O
 /P /Q /R /S /T /U /V /W
 /X /Y /Z /bracketleft /backslash /bracketright /asciicircum /underscore
 /grave /a /b /c /d /e /f /g
 /h /i /j /k /l /m /n /o
 /p /q /r /s /t /u /v /w
 /x /y /z /braceleft /bar /braceright /asciitilde /.notdef
 /Euro /.notdef /quotesinglbase /florin /quotedblbase /ellipsis /dagger /daggerdbl
 /circumflex /perthousand /Scaron /guilsinglleft /OE /.notdef /Zcaron /.notdef
 /.notdef /quoteleft /quoteright /quotedblleft /quotedblright /bullet /endash /emdash
 /tilde /trademark /scaron /guilsinglright /oe /.notdef /zcaron /Ydieresis
 /space /exclamdown /cent /sterling /currency /yen /brokenbar /section
 /dieresis /copyright /ordfeminine /guillemotleft /logicalnot /hyphen /registered /macron
 /degree /plusminus /twosuperior /threesuperior /acute /mu /paragraph /periodcentered
 /cedilla /onesuperior /ordmasculine /guillemotright /onequarter /onehalf /threequarters /questiondown
 /Agrave /Aacute /Acircumflex /Atilde /Adieresis /Aring /AE /Ccedilla
 /Egrave /Eacute /Ecircumflex /Edieresis /Igrave /Iacute /Icircumflex /Idieresis
 /Eth /Ntilde /Ograve /Oacute /Ocircumflex /Otilde /Odieresis /multiply
 /Oslash /Ugrave /Uacute /Ucircumflex /Udieresis /Yacute /Thorn /germandbls
 /agrave /aacute /acircumflex /atilde /adieresis /aring /ae /ccedilla
 /egrave /eacute /ecircumflex /edieresis /igrave /iacute /icircumflex /idieresis
 /eth /ntilde /ograve /oacute /ocircumflex /otilde /odieresis /divide
 /oslash /ugrave /uacute /ucircumflex /udieresis /yacute /thorn /ydieresis
]
 def
% end encoding
%%IncludeResource: font Helvetica
/Helvetica findfont
dup length dict begin
  {1 index /FID ne {def} {pop pop} ifelse} forall
  /Encoding WinAnsiEncoding def
  currentdict
  end
/Font1 exch definefont pop
%%IncludeResource: font Helvetica-Bold
/Helvetica-Bold findfont
dup length dict begin
  {1 index /FID ne {def} {pop pop} ifelse} forall
  /Encoding WinAnsiEncoding def
  currentdict
  end
/Font2 exch definefont pop
%%IncludeResource: font Helvetica-Oblique
/Helvetica-Oblique findfont
dup length dict begin
  {1 index /FID ne {def} {pop pop} ifelse} forall
  /Encoding WinAnsiEncoding def
  currentdict
  end
/Font3 exch definefont pop
%%IncludeResource: font Helvetica-BoldOblique
/Helvetica-BoldOblique findfont
dup length dict begin
  {1 index /FID ne {def} {pop pop} ifelse} forall
  /Encoding WinAnsiEncoding def
  currentdict
  end
/Font4 exch definefont pop
%%IncludeResource: font Symbol
/Symbol findfont
dup length dict begin
  {1 index /FID ne {def} {pop pop} ifelse} forall
  currentdict
  end
/Font5 exch definefont pop
%%EndProlog
%%Page: 1 1
bp
/bg { 1 1 1 srgb } def
0.00 0.00 435.75 393.00 r p2
59.04 73.44 405.51 333.96 cl
59.04 73.44 405.51 333.96 cl
0 0 0 srgb
0.75 setlinewidth
[] 0 setdash
1 setlinecap
1 setlinejoin
10.00 setmiterlimit
71.87 319.68 2.16 c p1
107.52 306.29 2.16 c p1
143.16 294.27 2.16 c p1
178.81 283.34 2.16 c p1
214.45 273.28 2.16 c p1
250.10 263.94 2.16 c p1
285.74 255.20 2.16 c p1
321.39 246.98 2.16 c p1
357.03 239.19 2.16 c p1
392.68 231.80 2.16 c p1
0.00 0.00 435.75 393.00 cl
0 0 0 srgb
0.75 setlinewidth
[] 0 setdash
1 setlinecap
1 setlinejoin
10.00 setmiterlimit
np
101.04 73.44 m
291.64 0 l
o
np
101.04 73.44 m
0 -7.20 l
o
np
159.36 73.44 m
0 -7.20 l
o
np
217.69 73.44 m
0 -7.20 l
o
np
276.02 73.44 m
0 -7.20 l
o
np
334.35 73.44 m
0 -7.20 l
o
np
392.68 73.44 m
0 -7.20 l
o
/Font1 findfont 12 s
101.04 47.52 (0.6) .5 0 t
159.36 47.52 (0.8) .5 0 t
217.69 47.52 (1.0) .5 0 t
276.02 47.52 (1.2) .5 0 t
334.35 47.52 (1.4) .5 0 t
392.68 47.52 (1.6) .5 0 t
np
59.04 83.09 m
0 241.22 l
o
np
59.04 83.09 m
-7.20 0 l
o
np
59.04 123.29 m
-7.20 0 l
o
np
59.04 163.50 m
-7.20 0 l
o
np
59.04 203.70 m
-7.20 0 l
o
np
59.04 243.90 m
-7.20 0 l
o
np
59.04 284.11 m
-7.20 0 l
o
np
59.04 324.31 m
-7.20 0 l
o
41.76 83.09 (-3.0) .5 90 t
41.76 123.29 (-2.5) .5 90 t
41.76 163.50 (-2.0) .5 90 t
41.76 203.70 (-1.5) .5 90 t
41.76 243.90 (-1.0) .5 90 t
41.76 284.11 (-0.5) .5 90 t
41.76 324.31 (0.0) .5 90 t
np
59.04 73.44 m
346.47 0 l
0 260.52 l
-346.47 0 l
0 -260.52 l
o
0.00 0.00 435.75 393.00 cl
/Font1 findfont 12 s
0 0 0 srgb
232.27 18.72 (p [1/s]) .5 0 t
12.96 203.70 (log E\(p\)) .5 90 t
59.04 73.44 405.51 333.96 cl
1 0 0 srgb
0.75 setlinewidth
[] 0 setdash
1 setlinecap
1 setlinejoin
10.00 setmiterlimit
np
71.87 314.29 m
2.91 -5.03 l
-5.82 0 l
2.91 5.03 l
o
np
107.52 298.93 m
2.91 -5.04 l
-5.82 0 l
2.91 5.04 l
o
np
143.16 284.93 m
2.91 -5.04 l
-5.82 0 l
2.91 5.04 l
o
np
178.81 272.02 m
2.91 -5.04 l
-5.82 0 l
2.91 5.04 l
o
np
214.45 260.01 m
2.91 -5.04 l
-5.82 0 l
2.91 5.04 l
o
np
250.10 248.74 m
2.91 -5.04 l
-5.82 0 l
2.91 5.04 l
o
np
285.74 238.10 m
2.91 -5.04 l
-5.82 0 l
2.91 5.04 l
o
np
321.39 228.01 m
2.91 -5.04 l
-5.82 0 l
2.91 5.04 l
o
np
357.03 218.38 m
2.91 -5.04 l
-5.82 0 l
2.91 5.04 l
o
np
392.68 209.17 m
2.91 -5.03 l
-5.82 0 l
2.91 5.03 l
o
0 0.8039 0 srgb
np
68.82 300.70 m
6.11 0 l
o
np
71.87 297.65 m
0 6.11 l
o
np
104.46 283.42 m
6.11 0 l
o
np
107.52 280.36 m
0 6.11 l
o
np
140.11 267.60 m
6.11 0 l
o
np
143.16 264.54 m
0 6.11 l
o
np
175.75 253.01 m
6.11 0 l
o
np
178.81 249.96 m
0 6.11 l
o
np
211.40 239.49 m
6.11 0 l
o
np
214.45 236.43 m
0 6.11 l
o
np
247.04 226.88 m
6.11 0 l
o
np
250.10 223.83 m
0 6.11 l
o
np
282.69 215.10 m
6.11 0 l
o
np
285.74 212.04 m
0 6.11 l
o
np
318.33 204.05 m
6.11 0 l
o
np
321.39 201.00 m
0 6.11 l
o
np
353.98 193.69 m
6.11 0 l
o
np
357.03 190.64 m
0 6.11 l
o
np
389.62 183.97 m
6.11 0 l
o
np
392.68 180.91 m
0 6.11 l
o
0 0 1 srgb
np
69.71 288.95 m
4.32 4.32 l
o
np
69.71 293.27 m
4.32 -4.32 l
o
np
105.36 269.92 m
4.32 4.32 l
o
np
105.36 274.24 m
4.32 -4.32 l
o
np
141.00 252.42 m
4.32 4.32 l
o
np
141.00 256.74 m
4.32 -4.32 l
o
np
176.65 236.24 m
4.32 4.32 l
o
np
176.65 240.56 m
4.32 -4.32 l
o
np
212.29 221.21 m
4.32 4.32 l
o
np
212.29 225.53 m
4.32 -4.32 l
o
np
247.94 207.18 m
4.32 4.32 l
o
np
247.94 211.50 m
4.32 -4.32 l
o
np
283.58 194.06 m
4.32 4.32 l
o
np
283.58 198.38 m
4.32 -4.32 l
o
np
319.23 181.75 m
4.32 4.32 l
o
np
319.23 186.07 m
4.32 -4.32 l
o
np
354.87 170.20 m
4.32 4.32 l
o
np
354.87 174.52 m
4.32 -4.32 l
o
np
390.52 159.36 m
4.32 4.32 l
o
np
390.52 163.68 m
4.32 -4.32 l
o
0 1 1 srgb
np
68.82 283.10 m
3.05 3.05 l
3.06 -3.05 l
-3.06 -3.06 l
-3.05 3.06 l
o
np
104.46 262.87 m
3.06 3.06 l
3.05 -3.06 l
-3.05 -3.05 l
-3.06 3.05 l
o
np
140.11 244.22 m
3.05 3.05 l
3.06 -3.05 l
-3.06 -3.06 l
-3.05 3.06 l
o
np
175.75 226.92 m
3.06 3.06 l
3.05 -3.06 l
-3.05 -3.05 l
-3.06 3.05 l
o
np
211.40 210.78 m
3.05 3.05 l
3.06 -3.05 l
-3.06 -3.06 l
-3.05 3.06 l
o
np
247.04 195.59 m
3.06 3.05 l
3.05 -3.05 l
-3.05 -3.06 l
-3.06 3.06 l
o
np
282.69 181.19 m
3.05 3.05 l
3.06 -3.05 l
-3.06 -3.06 l
-3.05 3.06 l
o
np
318.33 167.41 m
3.06 3.05 l
3.05 -3.05 l
-3.05 -3.06 l
-3.06 3.06 l
o
np
353.98 154.10 m
3.05 3.05 l
3.06 -3.05 l
-3.06 -3.06 l
-3.05 3.06 l
o
np
389.62 141.09 m
3.06 3.06 l
3.05 -3.06 l
-3.05 -3.05 l
-3.06 3.05 l
o
1 0 1 srgb
np
71.87 270.45 m
2.91 5.04 l
-5.82 0 l
2.91 -5.04 l
o
np
107.52 248.99 m
2.91 5.04 l
-5.82 0 l
2.91 -5.04 l
o
np
143.16 229.19 m
2.91 5.03 l
-5.82 0 l
2.91 -5.03 l
o
np
178.81 210.84 m
2.91 5.04 l
-5.82 0 l
2.91 -5.04 l
o
np
214.45 193.75 m
2.91 5.04 l
-5.82 0 l
2.91 -5.04 l
o
np
250.10 177.72 m
2.91 5.04 l
-5.82 0 l
2.91 -5.04 l
o
np
285.74 162.60 m
2.91 5.04 l
-5.82 0 l
2.91 -5.04 l
o
np
321.39 148.23 m
2.91 5.04 l
-5.82 0 l
2.91 -5.04 l
o
np
357.03 134.48 m
2.91 5.04 l
-5.82 0 l
2.91 -5.04 l
o
np
392.68 121.25 m
2.91 5.04 l
-5.82 0 l
2.91 -5.04 l
o
/bg { 1 1 1 srgb } def
0 0 0 srgb
86.45 203.70 47.55 -103.09 r p3
96.17 177.93 2.43 c p1
1 0 0 srgb
np
96.17 168.82 m
3.28 -5.67 l
-6.55 0 l
3.27 5.67 l
o
0 0.8039 0 srgb
np
92.74 152.16 m
6.87 0 l
o
np
96.17 148.72 m
0 6.87 l
o
0 0 1 srgb
np
93.74 136.84 m
4.86 4.86 l
o
np
93.74 141.70 m
4.86 -4.86 l
o
0 1 1 srgb
np
92.74 126.39 m
3.43 3.43 l
3.44 -3.43 l
-3.44 -3.44 l
-3.43 3.44 l
o
1 0 1 srgb
np
96.17 109.72 m
3.28 5.67 l
-6.55 0 l
3.27 -5.67 l
o
/Font1 findfont 11 s
0 0 0 srgb
110.23 190.81 (tau =) .5 0 t
105.89 173.98 (0.1 s) 0 0 t
105.89 161.09 (1.0 s) 0 0 t
105.89 148.21 (2.0 s) 0 0 t
105.89 135.32 (3.0 s) 0 0 t
105.89 122.44 (4.0 s) 0 0 t
105.89 109.55 (5.0 s) 0 0 t
0.8275 0.8275 0.8275 srgb
0.75 setlinewidth
[ 0.00 3.00] 0 setdash
np
101.04 73.44 m
0 260.52 l
o
np
159.36 73.44 m
0 260.52 l
o
np
217.69 73.44 m
0 260.52 l
o
np
276.02 73.44 m
0 260.52 l
o
np
334.35 73.44 m
0 260.52 l
o
np
392.68 73.44 m
0 260.52 l
o
np
59.04 83.09 m
346.47 0 l
o
np
59.04 123.29 m
346.47 0 l
o
np
59.04 163.50 m
346.47 0 l
o
np
59.04 203.70 m
346.47 0 l
o
np
59.04 243.90 m
346.47 0 l
o
np
59.04 284.11 m
346.47 0 l
o
np
59.04 324.31 m
346.47 0 l
o
ep
%%Trailer
%%Pages: 1
%%EOF
