%!PS-Adobe-3.0
%%DocumentNeededResources: font Helvetica
%%+ font Helvetica-Bold
%%+ font Helvetica-Oblique
%%+ font Helvetica-BoldOblique
%%+ font Symbol
%%DocumentMedia: special 720 720 0 () ()
%%Title: R Graphics Output
%%Creator: R Software
%%Pages: (atend)
%%BoundingBox: 0 0 720 720
%%EndComments
%%BeginProlog
/bp  { gs sRGB gs } def
% begin .ps.prolog
/gs  { gsave } bind def
/gr  { grestore } bind def
/ep  { showpage gr gr } bind def
/m   { moveto } bind def
/l  { rlineto } bind def
/np  { newpath } bind def
/cp  { closepath } bind def
/f   { fill } bind def
/o   { stroke } bind def
/c   { newpath 0 360 arc } bind def
/r   { 4 2 roll moveto 1 copy 3 -1 roll exch 0 exch rlineto 0 rlineto -1 mul 0 exch rlineto closepath } bind def
/p1  { stroke } bind def
/p2  { gsave bg fill grestore newpath } bind def
/p3  { gsave bg fill grestore stroke } bind def
/p6  { gsave bg eofill grestore newpath } bind def
/p7  { gsave bg eofill grestore stroke } bind def
/t   { 5 -2 roll moveto gsave rotate
       1 index stringwidth pop
       mul neg 0 rmoveto show grestore } bind def
/ta  { 4 -2 roll moveto gsave rotate show } bind def
/tb  { 2 -1 roll 0 rmoveto show } bind def
/cl  { grestore gsave newpath 3 index 3 index moveto 1 index
       4 -1 roll lineto  exch 1 index lineto lineto
       closepath clip newpath } bind def
/rgb { setrgbcolor } bind def
/s   { scalefont setfont } bind def
% end   .ps.prolog
/sRGB { [ /CIEBasedABC
          << /DecodeLMN
               [ { dup 0.03928 le
                        {12.92321 div}
                        {0.055 add 1.055 div 2.4 exp }
                     ifelse
                 } bind dup dup
               ]
             /MatrixLMN [0.412457 0.212673 0.019334
                         0.357576 0.715152 0.119192
                         0.180437 0.072175 0.950301]
             /WhitePoint [0.9505 1.0 1.0890]
           >>
         ] setcolorspace } bind def
/srgb { setcolor } bind def
% begin encoding
/WinAnsiEncoding [
 /.notdef /.notdef /.notdef /.notdef /.notdef /.notdef /.notdef /.notdef
 /.notdef /.notdef /.notdef /.notdef /.notdef /.notdef /.notdef /.notdef
 /.notdef /.notdef /.notdef /.notdef /.notdef /.notdef /.notdef /.notdef
 /.notdef /.notdef /.notdef /.notdef /.notdef /.notdef /.notdef /.notdef
 /space /exclam /quotedbl /numbersign /dollar /percent /ampersand /quoteright
 /parenleft /parenright /asterisk /plus /comma /minus /period /slash
 /zero /one /two /three /four /five /six /seven
 /eight /nine /colon /semicolon /less /equal /greater /question
 /at /A /B /C /D /E /F /G
 /H /I /J /K /L /M /N /O
 /P /Q /R /S /T /U /V /W
 /X /Y /Z /bracketleft /backslash /bracketright /asciicircum /underscore
 /grave /a /b /c /d /e /f /g
 /h /i /j /k /l /m /n /o
 /p /q /r /s /t /u /v /w
 /x /y /z /braceleft /bar /braceright /asciitilde /.notdef
 /Euro /.notdef /quotesinglbase /florin /quotedblbase /ellipsis /dagger /daggerdbl
 /circumflex /perthousand /Scaron /guilsinglleft /OE /.notdef /Zcaron /.notdef
 /.notdef /quoteleft /quoteright /quotedblleft /quotedblright /bullet /endash /emdash
 /tilde /trademark /scaron /guilsinglright /oe /.notdef /zcaron /Ydieresis
 /space /exclamdown /cent /sterling /currency /yen /brokenbar /section
 /dieresis /copyright /ordfeminine /guillemotleft /logicalnot /hyphen /registered /macron
 /degree /plusminus /twosuperior /threesuperior /acute /mu /paragraph /periodcentered
 /cedilla /onesuperior /ordmasculine /guillemotright /onequarter /onehalf /threequarters /questiondown
 /Agrave /Aacute /Acircumflex /Atilde /Adieresis /Aring /AE /Ccedilla
 /Egrave /Eacute /Ecircumflex /Edieresis /Igrave /Iacute /Icircumflex /Idieresis
 /Eth /Ntilde /Ograve /Oacute /Ocircumflex /Otilde /Odieresis /multiply
 /Oslash /Ugrave /Uacute /Ucircumflex /Udieresis /Yacute /Thorn /germandbls
 /agrave /aacute /acircumflex /atilde /adieresis /aring /ae /ccedilla
 /egrave /eacute /ecircumflex /edieresis /igrave /iacute /icircumflex /idieresis
 /eth /ntilde /ograve /oacute /ocircumflex /otilde /odieresis /divide
 /oslash /ugrave /uacute /ucircumflex /udieresis /yacute /thorn /ydieresis
]
 def
% end encoding
%%IncludeResource: font Helvetica
/Helvetica findfont
dup length dict begin
  {1 index /FID ne {def} {pop pop} ifelse} forall
  /Encoding WinAnsiEncoding def
  currentdict
  end
/Font1 exch definefont pop
%%IncludeResource: font Helvetica-Bold
/Helvetica-Bold findfont
dup length dict begin
  {1 index /FID ne {def} {pop pop} ifelse} forall
  /Encoding WinAnsiEncoding def
  currentdict
  end
/Font2 exch definefont pop
%%IncludeResource: font Helvetica-Oblique
/Helvetica-Oblique findfont
dup length dict begin
  {1 index /FID ne {def} {pop pop} ifelse} forall
  /Encoding WinAnsiEncoding def
  currentdict
  end
/Font3 exch definefont pop
%%IncludeResource: font Helvetica-BoldOblique
/Helvetica-BoldOblique findfont
dup length dict begin
  {1 index /FID ne {def} {pop pop} ifelse} forall
  /Encoding WinAnsiEncoding def
  currentdict
  end
/Font4 exch definefont pop
%%IncludeResource: font Symbol
/Symbol findfont
dup length dict begin
  {1 index /FID ne {def} {pop pop} ifelse} forall
  currentdict
  end
/Font5 exch definefont pop
%%EndProlog
%%Page: 1 1
bp
59.04 433.44 689.76 660.96 cl
1 0 0 srgb
0.75 setlinewidth
[] 0 setdash
1 setlinecap
1 setlinejoin
10.00 setmiterlimit
np
82.40 450.62 m
0.19 -0.10 l
0.19 0.05 l
0.20 -0.15 l
0.19 0.15 l
0.19 -0.05 l
0.19 -0.15 l
0.20 0.15 l
0.19 0 l
0.19 0.05 l
0.19 -0.10 l
0.20 0.10 l
0.19 0.05 l
0.19 -0.05 l
0.19 -0.05 l
0.20 0.05 l
0.19 -0.25 l
0.19 0.34 l
0.19 -0.53 l
0.19 0.24 l
0.20 0.15 l
0.19 -0.15 l
0.19 0 l
0.19 0.05 l
0.20 0.10 l
0.19 -0.15 l
0.19 -0.05 l
0.19 0.20 l
0.20 -0.05 l
0.19 0.10 l
0.19 -0.05 l
0.19 0.10 l
0.20 0.05 l
0.19 -0.30 l
0.19 0.10 l
0.19 0.05 l
0.19 0.15 l
0.20 -0.49 l
0.19 0.10 l
0.19 0.09 l
0.19 -0.09 l
0.20 -0.05 l
0.19 0.10 l
0.19 0.09 l
0.19 -0.09 l
0.20 0.09 l
0.19 0.05 l
0.19 0.10 l
0.19 -0.05 l
0.20 -0.10 l
0.19 0.05 l
0.19 0.15 l
0.19 0.14 l
0.19 -0.24 l
0.20 0 l
0.19 -0.24 l
0.19 0.09 l
0.19 0 l
0.20 0 l
0.19 0.10 l
0.19 0.05 l
0.19 -0.15 l
0.20 -0.09 l
0.19 0.14 l
0.19 -0.19 l
0.19 0 l
0.20 0.15 l
0.19 0.04 l
0.19 -0.19 l
0.19 0.05 l
0.20 0 l
0.19 0.10 l
0.19 -0.10 l
0.19 0 l
0.19 -0.05 l
0.20 -0.15 l
0.19 0.10 l
0.19 -0.10 l
0.19 0.10 l
0.20 0.20 l
0.19 0 l
0.19 0.04 l
0.19 0 l
0.20 0.25 l
0.19 -0.15 l
0.19 0.05 l
0.19 -0.24 l
0.20 0.19 l
0.19 -0.29 l
0.19 0.19 l
0.19 -0.04 l
0.19 0 l
0.20 0.29 l
0.19 -0.10 l
0.19 -0.05 l
0.19 0.25 l
0.20 0 l
0.19 0.04 l
0.19 0.01 l
0.19 -0.10 l
101.64 450.47 lineto
0.19 0.10 l
0.19 -0.05 l
0.19 -0.19 l
0.20 0.14 l
0.19 -0.19 l
0.19 0.34 l
0.19 -0.19 l
0.19 -0.10 l
0.20 -0.10 l
0.19 -0.15 l
0.19 0 l
0.19 0.05 l
0.20 -0.19 l
0.19 0.05 l
0.19 0.29 l
0.19 -0.19 l
0.20 -0.15 l
0.19 0.24 l
0.19 -0.09 l
0.19 0.09 l
0.20 -0.14 l
0.19 0.19 l
0.19 0.20 l
0.19 -0.05 l
0.19 -0.25 l
0.20 0.05 l
0.19 0 l
0.19 -0.09 l
0.19 0.29 l
0.20 -0.05 l
0.19 0.05 l
0.19 -0.34 l
0.19 0.19 l
0.20 0.05 l
0.19 0.20 l
0.19 0 l
0.19 -0.10 l
0.20 0.14 l
0.19 -0.29 l
0.19 0 l
0.19 0.20 l
0.19 0.09 l
0.20 0.15 l
0.19 0.05 l
0.19 -0.24 l
0.19 0.29 l
0.20 -0.24 l
0.19 -0.05 l
0.19 0.14 l
0.19 -0.29 l
0.20 0 l
0.19 -0.10 l
0.19 0.10 l
0.19 -0.10 l
0.20 -0.09 l
0.19 0 l
0.19 -0.05 l
0.19 0.09 l
0.19 -0.04 l
0.20 -0.05 l
0.19 -0.20 l
0.19 0.34 l
0.19 -0.09 l
0.20 0.24 l
0.19 -0.05 l
0.19 -0.05 l
0.19 0.10 l
0.20 0.19 l
0.19 -0.14 l
0.19 -0.20 l
0.19 0.15 l
0.20 -0.15 l
0.19 0 l
0.19 0.20 l
0.19 0 l
0.20 0.05 l
0.19 0.10 l
0.19 -0.15 l
0.19 -0.15 l
0.19 0.10 l
0.20 0.05 l
0.19 0.15 l
0.19 -0.10 l
0.19 -0.25 l
0.20 0.15 l
0.19 0 l
0.19 0.15 l
0.19 -0.20 l
0.20 0.20 l
0.19 -0.20 l
0.19 0.10 l
0.19 0.44 l
0.20 -0.29 l
0.19 -0.10 l
0.19 0.05 l
0.19 -0.20 l
0.19 0.15 l
0.20 0.10 l
0.19 -0.10 l
120.87 450.58 lineto
0.19 -0.69 l
0.20 0.49 l
0.19 0.10 l
0.19 -0.05 l
0.19 -0.10 l
0.20 0.25 l
0.19 -0.15 l
0.19 -0.05 l
0.19 0 l
0.20 0.10 l
0.19 0 l
0.19 -0.05 l
0.19 0.05 l
0.19 -0.10 l
0.20 0.15 l
0.19 0.19 l
0.19 -0.34 l
0.19 0 l
0.20 0.39 l
0.19 -0.34 l
0.19 -0.14 l
0.19 -0.05 l
0.20 0.24 l
0.19 0 l
0.19 0.05 l
0.19 -0.20 l
0.20 0 l
0.19 0 l
0.19 0.20 l
0.19 0 l
0.19 -0.05 l
0.20 -0.34 l
0.19 0.05 l
0.19 0.14 l
0.19 -0.04 l
0.20 0.19 l
0.19 -0.15 l
0.19 0.10 l
0.19 -0.24 l
0.20 0.10 l
0.19 0.04 l
0.19 0.15 l
0.19 0.05 l
0.20 0.05 l
0.19 -0.05 l
0.19 -0.05 l
0.19 0.20 l
0.19 -0.15 l
0.20 -0.19 l
0.19 -0.05 l
0.19 0.24 l
0.19 0.10 l
0.20 0.14 l
0.19 0.15 l
0.19 -0.15 l
0.19 -0.04 l
0.20 0.04 l
0.19 -0.24 l
0.19 0.05 l
0.19 0.15 l
0.20 -0.10 l
0.19 0.05 l
0.19 -0.05 l
0.19 0.14 l
0.19 0.05 l
0.20 -0.05 l
0.19 -0.09 l
0.19 0 l
0.19 0.14 l
0.20 -0.24 l
0.19 -0.10 l
0.19 0.15 l
0.19 -0.29 l
0.20 0.19 l
0.19 -0.10 l
0.19 0 l
0.19 0.15 l
0.20 0 l
0.19 -0.05 l
0.19 -0.10 l
0.19 -0.19 l
0.20 0.29 l
0.19 0 l
0.19 -0.14 l
0.19 -0.10 l
0.19 0.44 l
0.20 -1.56 l
0.19 0.39 l
0.19 0.83 l
0.19 2.29 l
0.20 2.48 l
0.19 1.70 l
0.19 0.98 l
0.19 -0.29 l
0.20 -1.27 l
0.19 -1.56 l
0.19 -1.56 l
0.19 -1.02 l
0.20 -1.12 l
140.11 450.14 lineto
0.19 -0.68 l
0.19 -0.49 l
0.19 -0.53 l
0.20 0 l
0.19 -0.20 l
0.19 -0.29 l
0.19 0 l
0.20 -0.29 l
0.19 -0.29 l
0.19 0.19 l
0.19 -0.53 l
0.20 0.34 l
0.19 -0.15 l
0.19 0 l
0.19 -0.15 l
0.20 0.25 l
0.19 -0.15 l
0.19 -0.05 l
0.19 -0.14 l
0.19 0.09 l
0.20 -0.04 l
0.19 0.29 l
0.19 -0.05 l
0.19 0.05 l
0.20 -0.05 l
0.19 0.19 l
0.19 0.44 l
0.19 0.10 l
0.20 0.29 l
0.19 0.10 l
0.19 0.20 l
0.19 0.29 l
0.20 0.14 l
0.19 0.54 l
0.19 0.39 l
0.19 0.24 l
0.19 0.20 l
0.20 0.68 l
0.19 0.34 l
0.19 0.39 l
0.19 0.20 l
0.20 0.92 l
0.19 0.39 l
0.19 0.54 l
0.19 0.63 l
0.20 0.78 l
0.19 0.63 l
0.19 0.69 l
0.19 0.58 l
0.20 0.73 l
0.19 0.73 l
0.19 0.78 l
0.19 1.07 l
0.19 0.78 l
0.20 0.98 l
0.19 0.05 l
0.19 1.46 l
0.19 0.87 l
0.20 0.88 l
0.19 1.32 l
0.19 0.82 l
0.19 1.17 l
0.20 1.03 l
0.19 0.87 l
0.19 1.07 l
0.19 1.08 l
0.20 1.31 l
0.19 1.07 l
0.19 1.37 l
0.19 0.83 l
0.19 0.87 l
0.20 1.46 l
0.19 1.17 l
0.19 1.22 l
0.19 1.27 l
0.20 1.26 l
0.19 1.32 l
0.19 1.22 l
0.19 1.12 l
0.20 1.26 l
0.19 1.27 l
0.19 1.17 l
0.19 1.02 l
0.20 1.27 l
0.19 1.22 l
0.19 1.02 l
0.19 1.27 l
0.20 1.17 l
0.19 1.41 l
0.19 1.02 l
0.19 1.12 l
0.19 1.32 l
0.20 0.92 l
0.19 1.42 l
0.19 1.46 l
0.19 1.07 l
0.20 0.97 l
0.19 1.42 l
0.19 1.07 l
159.34 513.38 lineto
0.20 0.92 l
0.19 1.56 l
0.19 1.12 l
0.19 1.17 l
0.20 1.27 l
0.19 0.78 l
0.19 1.31 l
0.19 1.03 l
0.19 1.36 l
0.20 1.07 l
0.19 0.64 l
0.19 1.80 l
0.19 1.02 l
0.20 1.02 l
0.19 1.12 l
0.19 0.98 l
0.19 1.36 l
0.20 1.17 l
0.19 1.07 l
0.19 1.12 l
0.19 1.08 l
0.20 1.07 l
0.19 1.12 l
0.19 0.88 l
0.19 1.16 l
0.19 1.17 l
0.20 1.12 l
0.19 1.03 l
0.19 0.87 l
0.19 0.83 l
0.20 1.07 l
0.19 0.88 l
0.19 0.98 l
0.19 1.07 l
0.20 1.02 l
0.19 1.02 l
0.19 0.93 l
0.19 0.97 l
0.20 1.03 l
0.19 0.87 l
0.19 1.22 l
0.19 0.88 l
0.19 0.58 l
0.20 0.78 l
0.19 0.88 l
0.19 0.92 l
0.19 1.03 l
0.20 0.78 l
0.19 0.78 l
0.19 1.07 l
0.19 0.97 l
0.20 0.73 l
0.19 0.78 l
0.19 0.44 l
0.19 1.02 l
0.20 0.69 l
0.19 0.97 l
0.19 0.83 l
0.19 0.97 l
0.19 0.68 l
0.20 0.78 l
0.19 0.59 l
0.19 1.02 l
0.19 0.39 l
0.20 0.88 l
0.19 0.83 l
0.19 0.83 l
0.19 0.63 l
0.20 0.68 l
0.19 0.68 l
0.19 0.98 l
0.19 0.58 l
0.20 1.12 l
0.19 0.34 l
0.19 0.78 l
0.19 0.68 l
0.19 0.39 l
0.20 0.78 l
0.19 0.59 l
0.19 0.92 l
0.19 0.64 l
0.20 0.53 l
0.19 0.69 l
0.19 0.82 l
0.19 0.78 l
0.20 0.34 l
0.19 0.73 l
0.19 0.59 l
0.19 0.63 l
0.20 0.78 l
0.19 0.59 l
0.19 0.73 l
0.19 0.44 l
0.20 0.63 l
0.19 0.54 l
0.19 0.63 l
0.19 0.73 l
0.19 0.34 l
0.20 0.83 l
178.58 600.14 lineto
0.19 0.64 l
0.19 0.63 l
0.20 0.49 l
0.19 0.29 l
0.19 0.73 l
0.19 0.73 l
0.20 0 l
0.19 0.88 l
0.19 0.24 l
0.19 0.63 l
0.20 0.34 l
0.19 0.54 l
0.19 0.44 l
0.19 0.49 l
0.19 0.24 l
0.20 0.10 l
0.19 0.87 l
0.19 0.35 l
0.19 0.48 l
0.20 0.54 l
0.19 0.63 l
0.19 0.10 l
0.19 0.44 l
0.20 0.58 l
0.19 0.29 l
0.19 0.25 l
0.19 0.63 l
0.20 0.29 l
0.19 0.20 l
0.19 0.53 l
0.19 0.59 l
0.19 0.24 l
0.20 0.30 l
0.19 0.29 l
0.19 0.58 l
0.19 1.27 l
0.20 -0.20 l
0.19 0.34 l
0.19 0.15 l
0.19 0.49 l
0.20 0.29 l
0.19 0.39 l
0.19 0.54 l
0.19 0.48 l
0.20 0.25 l
0.19 0.48 l
0.19 0.54 l
0.19 0.24 l
0.19 0.39 l
0.20 0.49 l
0.19 0.39 l
0.19 0.10 l
0.19 0.63 l
0.20 0.39 l
0.19 -0.05 l
0.19 0.34 l
0.19 0.34 l
0.20 0.20 l
0.19 0.58 l
0.19 0.10 l
0.19 0.20 l
0.20 0.29 l
0.19 0.49 l
0.19 0.19 l
0.19 0.24 l
0.19 0.39 l
0.20 0.05 l
0.19 0 l
0.19 0.49 l
0.19 0.24 l
0.20 0 l
0.19 0.30 l
0.19 0.09 l
0.19 0.34 l
0.20 0.35 l
0.19 0 l
0.19 0.53 l
0.19 0.15 l
0.20 0.29 l
0.19 0.34 l
0.19 0.59 l
0.19 0.09 l
0.19 0.20 l
0.20 0.14 l
0.19 0.44 l
0.19 -0.05 l
0.19 0.05 l
0.20 0.44 l
0.19 0.29 l
0.19 0.30 l
0.19 0.19 l
0.20 0.29 l
0.19 0.39 l
0.19 0.30 l
0.19 0.24 l
0.20 0.34 l
0.19 0.15 l
0.19 -0.05 l
0.19 0.34 l
197.82 634.73 lineto
0.19 0.34 l
0.19 0.15 l
0.19 0.44 l
0.19 0.10 l
0.20 -0.20 l
0.19 0.39 l
0.19 0 l
0.19 0.44 l
0.20 -0.15 l
0.19 0.25 l
0.19 0.53 l
0.19 -0.34 l
0.20 0.25 l
0.19 0.04 l
0.19 0.01 l
0.19 0.29 l
0.20 0.29 l
0.19 0.39 l
0.19 0.10 l
0.19 0.29 l
0.19 -0.15 l
0.20 0.25 l
0.19 -0.15 l
0.19 0.34 l
0.19 0.05 l
0.20 0.44 l
0.19 -0.24 l
0.19 0.34 l
0.19 0.19 l
0.20 0.25 l
0.19 0.24 l
0.19 -0.05 l
0.19 0.39 l
0.20 -0.20 l
0.19 0.25 l
0.19 0.14 l
0.19 0.15 l
0.19 0.05 l
0.20 0.24 l
0.19 0 l
0.19 0.20 l
0.19 0.14 l
0.20 0.30 l
0.19 -0.15 l
0.19 0 l
0.19 0.34 l
0.20 0.25 l
0.19 0.14 l
0.19 0.05 l
0.19 0.29 l
0.20 -0.09 l
0.19 0.24 l
0.19 0.15 l
0.19 0.09 l
0.19 0.15 l
0.20 0.05 l
0.19 0.09 l
0.19 0.01 l
0.19 -0.05 l
0.20 0.53 l
0.19 -0.48 l
0.19 0.34 l
0.19 0.29 l
0.20 0 l
0.19 0.24 l
0.19 0.20 l
0.19 0.05 l
0.20 -0.05 l
0.19 0.09 l
0.19 0.15 l
0.19 -0.05 l
0.19 0.34 l
0.20 -0.09 l
0.19 0.14 l
0.19 0.10 l
0.19 0.10 l
0.20 0.14 l
0.19 0 l
0.19 0 l
0.19 0.05 l
0.20 0.25 l
0.19 0.19 l
0.19 0.10 l
0.19 0.10 l
0.20 0 l
0.19 0.09 l
0.19 0 l
0.19 0.15 l
0.19 -0.15 l
0.20 0.25 l
0.19 0.05 l
0.19 0.04 l
0.19 0.25 l
0.20 0.05 l
0.19 0.09 l
0.19 0.15 l
0.19 0.05 l
0.20 -0.10 l
0.19 0 l
217.05 647.01 lineto
0.19 0 l
0.20 0.15 l
0.19 0.05 l
0.19 0.24 l
0.19 -0.14 l
0.20 0.09 l
0.19 0.20 l
0.19 0 l
0.19 -0.20 l
0.19 0.25 l
0.20 0 l
0.19 0.05 l
0.19 0.05 l
0.19 0.14 l
0.20 0 l
0.19 -0.05 l
0.19 0.39 l
0.19 -0.39 l
0.20 0.39 l
0.19 0.10 l
0.19 0.10 l
0.19 0 l
0.20 0.19 l
0.19 -0.05 l
0.19 0 l
0.19 0.25 l
0.19 -0.25 l
0.20 0 l
0.19 0.35 l
0.19 0.04 l
0.19 -0.19 l
0.20 0.34 l
0.19 -0.10 l
0.19 0.10 l
0.19 0.10 l
0.20 0 l
0.19 -0.25 l
0.19 0.64 l
0.19 -0.20 l
0.20 0 l
0.19 -0.05 l
0.19 0.15 l
0.19 0.05 l
0.19 0.15 l
0.20 -0.10 l
0.19 0.05 l
0.19 0.05 l
0.19 0.14 l
0.20 0.05 l
0.19 -0.05 l
0.19 -0.10 l
0.19 0 l
0.20 0.15 l
0.19 0.05 l
0.19 0 l
0.19 -0.20 l
0.20 0.15 l
0.19 0.20 l
0.19 0.09 l
0.19 -0.09 l
0.19 -0.30 l
0.20 0.30 l
0.19 0.04 l
0.19 0 l
0.19 0.05 l
0.20 -0.19 l
0.19 0.24 l
0.19 -0.24 l
0.19 0.15 l
0.20 0.04 l
0.19 0 l
0.19 0.10 l
0.19 0 l
0.20 0.15 l
0.19 0.24 l
0.19 0 l
0.19 -0.29 l
0.19 0 l
0.20 0.29 l
0.19 -0.10 l
0.19 0.05 l
0.19 0.05 l
0.20 0.10 l
0.19 0.19 l
0.19 -0.14 l
0.19 0.34 l
0.20 -0.15 l
0.19 -0.05 l
0.19 -0.09 l
0.19 -0.10 l
0.20 0.19 l
0.19 -0.04 l
0.19 0 l
0.19 0.04 l
0.19 0.39 l
0.20 -0.04 l
0.19 0.14 l
0.19 -0.24 l
0.19 0.14 l
236.29 651.55 lineto
0.19 -0.15 l
0.19 0.10 l
0.19 0.10 l
0.20 0.19 l
0.19 -0.44 l
0.19 -0.04 l
0.19 0.29 l
0.20 -0.10 l
0.19 0.10 l
0.19 -0.05 l
0.19 -0.15 l
0.19 0.15 l
0.20 0.10 l
0.19 0 l
0.19 -0.20 l
0.19 -0.14 l
0.20 0.34 l
0.19 -0.10 l
0.19 -0.19 l
0.19 0.29 l
0.20 -0.15 l
0.19 0.20 l
0.19 -0.20 l
0.19 0.05 l
0.20 -0.24 l
0.19 0.05 l
0.19 0.29 l
0.19 0.05 l
0.20 -0.05 l
0.19 0.05 l
0.19 0 l
0.19 0.05 l
0.19 0 l
0.20 0 l
0.19 0.04 l
0.19 -0.34 l
0.19 0.49 l
0.20 -0.10 l
0.19 0.39 l
0.19 -0.34 l
0.19 0.05 l
0.20 -0.05 l
0.19 -0.14 l
0.19 0.05 l
0.19 0 l
0.20 0 l
0.19 0.14 l
0.19 -0.24 l
0.19 0.29 l
0.19 -0.05 l
0.20 -0.24 l
0.19 0.34 l
0.19 -0.20 l
0.19 0.25 l
0.20 0.14 l
0.19 -0.09 l
0.19 -0.15 l
0.19 -0.05 l
0.20 0.20 l
0.19 -0.15 l
0.19 -0.10 l
0.19 0.05 l
0.20 -0.10 l
0.19 0.15 l
0.19 -0.19 l
0.19 0.09 l
0.19 0.05 l
0.20 -0.05 l
0.19 0.05 l
0.19 -0.14 l
0.19 -0.10 l
0.20 0.05 l
0.19 -0.15 l
0.19 0 l
0.19 0.15 l
0.20 -0.15 l
0.19 0.05 l
0.19 0 l
0.19 0.15 l
0.20 0.14 l
0.19 -0.05 l
0.19 0.10 l
0.19 0 l
0.19 0.10 l
0.20 0 l
0.19 -0.05 l
0.19 -0.05 l
0.19 0 l
0.20 0.20 l
0.19 -0.10 l
0.19 0.15 l
0.19 0.04 l
0.20 0.05 l
0.19 0.10 l
0.19 -0.05 l
0.19 0.10 l
0.20 -0.20 l
0.19 -0.24 l
0.19 0.24 l
255.52 651.85 lineto
0.19 0.14 l
0.20 0.05 l
0.19 0.10 l
0.19 0.24 l
0.19 -0.09 l
0.20 -0.10 l
0.19 0 l
0.19 0.05 l
0.19 0.09 l
0.20 -0.09 l
0.19 -0.30 l
0.19 0.25 l
0.19 0 l
0.20 -0.05 l
0.19 0 l
0.19 0.15 l
0.19 0 l
0.19 0.09 l
0.20 -0.14 l
0.19 0 l
0.19 -0.05 l
0.19 -0.05 l
0.20 0.15 l
0.19 -0.15 l
0.19 0.15 l
0.19 0 l
0.20 -0.05 l
0.19 0 l
0.19 -0.15 l
0.19 -0.14 l
0.20 0 l
0.19 0.04 l
0.19 0.05 l
0.19 -0.09 l
0.20 0.19 l
0.19 -0.19 l
0.19 0.04 l
0.19 0.35 l
0.19 -0.25 l
0.20 0 l
0.19 -0.05 l
0.19 0.25 l
0.19 0 l
0.20 0.05 l
0.19 -0.15 l
0.19 0.34 l
0.19 -0.34 l
0.20 0.15 l
0.19 -0.54 l
0.19 0.39 l
0.19 0.05 l
0.20 -0.05 l
0.19 0.15 l
0.19 -0.05 l
0.19 -0.25 l
0.19 0.30 l
0.20 -0.34 l
0.19 0 l
0.19 0.09 l
0.19 0 l
0.20 0.20 l
0.19 0.10 l
0.19 -0.05 l
0.19 -0.10 l
0.20 0.05 l
0.19 -0.05 l
0.19 0.29 l
0.19 -0.39 l
0.20 -0.10 l
0.19 0.15 l
0.19 -0.10 l
0.19 0.20 l
0.19 -0.05 l
0.20 -0.05 l
0.19 0.05 l
0.19 0.19 l
0.19 -0.14 l
0.20 0.14 l
0.19 -0.38 l
0.19 0.14 l
0.19 -0.05 l
0.20 0.10 l
0.19 0 l
0.19 0.10 l
0.19 -0.20 l
0.20 0.30 l
0.19 -0.39 l
0.19 -0.35 l
0.19 0.35 l
0.19 0.29 l
0.20 -0.29 l
0.19 0.24 l
0.19 -0.10 l
0.19 0 l
0.20 -0.05 l
0.19 0.30 l
0.19 -0.20 l
0.19 -0.19 l
0.20 0.14 l
currentpoint o m
274.76 652.44 lineto
0.19 -0.10 l
0.19 0.19 l
0.20 -0.09 l
0.19 -0.20 l
0.19 0.05 l
0.19 -0.10 l
0.19 -0.05 l
0.20 0.34 l
0.19 -0.14 l
0.19 0 l
0.19 -0.05 l
0.20 -0.15 l
0.19 0.20 l
0.19 0.05 l
0.19 -0.20 l
0.20 -0.09 l
0.19 0 l
0.19 -0.25 l
0.19 0.05 l
0.20 0.15 l
0.19 -0.30 l
0.19 0.30 l
0.19 0.05 l
0.19 0 l
0.20 -0.25 l
0.19 -0.24 l
0.19 0.29 l
0.19 -0.24 l
0.20 0.10 l
0.19 0.04 l
0.19 -0.04 l
0.19 0.09 l
0.20 -0.05 l
0.19 0.10 l
0.19 -0.10 l
0.19 0.05 l
0.20 0.30 l
0.19 -0.25 l
0.19 0 l
0.19 0.15 l
0.20 -0.05 l
0.19 -0.15 l
0.19 0.20 l
0.19 -0.29 l
0.19 0 l
0.20 0.29 l
0.19 0 l
0.19 0 l
0.19 0.10 l
0.20 0 l
0.19 -0.30 l
0.19 0.34 l
0.19 0.15 l
0.20 -0.19 l
0.19 0.04 l
0.19 -0.14 l
0.19 0.14 l
0.20 -0.09 l
0.19 0.05 l
0.19 -0.20 l
0.19 0.15 l
0.19 0 l
0.20 0.24 l
0.19 -0.14 l
0.19 -0.20 l
0.19 0.10 l
0.20 -0.20 l
0.19 0 l
0.19 0.15 l
0.19 -0.34 l
0.20 0.24 l
0.19 -0.14 l
0.19 0.14 l
0.19 0 l
0.20 -0.24 l
0.19 0.14 l
0.19 -0.19 l
0.19 0.24 l
0.19 0.10 l
0.20 -0.49 l
0.19 0.35 l
0.19 -0.10 l
0.19 -0.10 l
0.20 -0.05 l
0.19 0.05 l
0.19 0.29 l
0.19 0.05 l
0.20 -0.10 l
0.19 0.05 l
0.19 -0.48 l
0.19 0.04 l
0.20 0 l
0.19 0.35 l
0.19 0.14 l
0.19 -0.24 l
0.19 -0.05 l
0.20 -0.05 l
0.19 -0.15 l
0.19 0.15 l
293.99 651.66 lineto
0.20 0.34 l
0.19 -0.19 l
0.19 -0.25 l
0.19 0.15 l
0.20 0 l
0.19 0.10 l
0.19 -0.10 l
0.19 0 l
0.20 -0.19 l
0.19 0.19 l
0.19 -0.24 l
0.19 0 l
0.19 -0.10 l
0.20 0.24 l
0.19 -0.09 l
0.19 -0.05 l
0.19 -0.05 l
0.20 0.05 l
0.19 0 l
0.19 -0.05 l
0.19 0 l
0.20 0.05 l
0.19 0.09 l
0.19 0.10 l
0.19 -0.19 l
0.20 0.05 l
0.19 -0.10 l
0.19 0.05 l
0.19 -0.05 l
0.19 -0.05 l
0.20 0.29 l
0.19 -0.14 l
0.19 -0.15 l
0.19 0.20 l
0.20 -0.15 l
0.19 -0.10 l
0.19 0.10 l
0.19 0.05 l
0.20 -0.25 l
0.19 0.25 l
0.19 -0.05 l
0.19 -0.10 l
0.20 -0.19 l
0.19 0.29 l
0.19 -0.34 l
0.19 0.44 l
0.20 -0.05 l
0.19 -0.05 l
0.19 -0.05 l
0.19 0.05 l
0.19 -0.29 l
0.20 0.24 l
0.19 -0.10 l
0.19 -0.14 l
0.19 0.14 l
0.20 -0.14 l
0.19 -0.10 l
0.19 0.24 l
0.19 -0.04 l
0.20 -0.05 l
0.19 0.05 l
0.19 -0.20 l
0.19 0.24 l
0.20 0 l
0.19 -0.04 l
0.19 0 l
0.19 -0.05 l
0.19 -0.39 l
0.20 0.58 l
0.19 -0.29 l
0.19 0.05 l
0.19 -0.15 l
0.20 0.05 l
0.19 0.29 l
0.19 -0.34 l
0.19 0.10 l
0.20 0 l
0.19 0.20 l
0.19 -0.05 l
0.19 -0.15 l
0.20 0.05 l
0.19 0.19 l
0.19 -0.19 l
0.19 -0.10 l
0.19 0.05 l
0.20 0.15 l
0.19 -0.15 l
0.19 0.24 l
0.19 -0.09 l
0.20 0.09 l
0.19 -0.04 l
0.19 0 l
0.19 -0.05 l
0.20 0.24 l
0.19 -0.15 l
0.19 0 l
0.19 -0.29 l
0.20 0.10 l
0.19 0 l
313.23 651.33 lineto
0.19 -0.10 l
0.19 0.19 l
0.20 -0.09 l
0.19 -0.20 l
0.19 0.05 l
0.19 0 l
0.20 -0.10 l
0.19 0 l
0.19 -0.14 l
0.19 0.04 l
0.20 0.10 l
0.19 0.05 l
0.19 0.05 l
0.19 -0.15 l
0.20 -0.34 l
0.19 0.10 l
0.19 -0.10 l
0.19 -0.09 l
0.19 -0.05 l
0.20 0.24 l
0.19 -0.05 l
0.19 0.25 l
0.19 -0.05 l
0.20 0 l
0.19 0.09 l
0.19 0.05 l
0.19 0.10 l
0.20 0 l
0.19 -0.15 l
0.19 -0.04 l
0.19 0.09 l
0.20 -0.29 l
0.19 0.24 l
0.19 0.15 l
0.19 0 l
0.19 -0.24 l
0.20 0.14 l
0.19 -0.09 l
0.19 0.09 l
0.19 0.10 l
0.20 -0.15 l
0.19 0.05 l
0.19 -0.05 l
0.19 -0.63 l
0.20 0.78 l
0.19 -0.15 l
0.19 -0.04 l
0.19 0.14 l
0.20 -0.05 l
0.19 0 l
0.19 -0.19 l
0.19 0.15 l
0.20 0.14 l
0.19 -0.14 l
0.19 -0.05 l
0.19 -0.15 l
0.19 0.24 l
0.20 -0.09 l
0.19 -0.10 l
0.19 0.15 l
0.19 -0.25 l
0.20 0 l
0.19 0.10 l
0.19 0.39 l
0.19 -0.49 l
0.20 0.05 l
0.19 -0.19 l
0.19 0.09 l
0.19 0.10 l
0.20 -0.10 l
0.19 0.25 l
0.19 -0.34 l
0.19 0.14 l
0.19 -0.09 l
0.20 0.19 l
0.19 -0.24 l
0.19 -0.25 l
0.19 0.30 l
0.20 -0.05 l
0.19 -0.25 l
0.19 0.05 l
0.19 0 l
0.20 0 l
0.19 -0.05 l
0.19 0.25 l
0.19 0.05 l
0.20 -0.20 l
0.19 0.05 l
0.19 -0.24 l
0.19 0.24 l
0.19 0 l
0.20 -0.15 l
0.19 0.20 l
0.19 -0.05 l
0.19 -0.05 l
0.20 -0.05 l
0.19 0.15 l
0.19 0.19 l
0.19 0.05 l
332.47 650.70 lineto
0.19 0.24 l
0.19 0.10 l
0.19 -0.05 l
0.20 0.19 l
0.19 0 l
0.19 -0.04 l
0.19 0 l
0.19 0.09 l
0.20 -0.09 l
0.19 -0.20 l
0.19 0.05 l
0.19 -0.05 l
0.20 -0.05 l
0.19 0.10 l
0.19 -0.10 l
0.19 -0.10 l
0.20 0 l
0.19 0.05 l
0.19 -0.05 l
0.19 0.10 l
0.20 -0.29 l
0.19 -0.10 l
0.19 0.05 l
0.19 -0.10 l
0.19 0.10 l
0.20 -0.19 l
0.19 0.19 l
0.19 0 l
0.19 -0.19 l
0.20 0.09 l
0.19 -0.04 l
0.19 0.14 l
0.19 -0.24 l
0.20 0.10 l
0.19 0.04 l
0.19 -0.19 l
0.19 0.10 l
0.20 0.24 l
0.19 -0.44 l
0.19 0.25 l
0.19 -0.30 l
0.19 0.15 l
0.20 0.20 l
0.19 0.24 l
0.19 -0.20 l
0.19 -0.09 l
0.20 0.29 l
0.19 0.10 l
0.19 0.05 l
0.19 -0.35 l
0.20 0.20 l
0.19 -0.15 l
0.19 0.20 l
0.19 -0.15 l
0.20 0.15 l
0.19 -0.34 l
0.19 0.24 l
0.19 0.15 l
0.20 -0.39 l
0.19 0.19 l
0.19 -0.24 l
0.19 0.10 l
0.19 -0.15 l
0.20 0.10 l
0.19 -0.05 l
0.19 -0.10 l
0.19 -0.19 l
0.20 0.19 l
0.19 -0.14 l
0.19 -0.20 l
0.19 0.24 l
0.20 -0.04 l
0.19 0.04 l
0.19 0.20 l
0.19 0 l
0.20 -0.34 l
0.19 0 l
0.19 0 l
0.19 0.29 l
0.19 -0.19 l
0.20 0.19 l
0.19 -0.29 l
0.19 -0.10 l
0.19 0.15 l
0.20 -0.10 l
0.19 0.34 l
0.19 -0.19 l
0.19 0.24 l
0.20 0 l
0.19 0 l
0.19 0 l
0.19 -0.24 l
0.20 0.29 l
0.19 -0.24 l
0.19 -0.10 l
0.19 -0.10 l
0.19 0.10 l
0.20 0.19 l
0.19 -0.24 l
351.70 650.26 lineto
0.19 -0.09 l
0.20 -0.05 l
0.19 -0.10 l
0.19 0.10 l
0.19 0.19 l
0.20 -0.34 l
0.19 -0.15 l
0.19 0.20 l
0.19 0.10 l
0.20 -0.15 l
0.19 -0.14 l
0.19 0.14 l
0.19 -0.10 l
0.19 0 l
0.20 0.15 l
0.19 0 l
0.19 0.10 l
0.19 0.10 l
0.20 -0.20 l
0.19 0 l
0.19 -0.05 l
0.19 0.25 l
0.20 -0.30 l
0.19 0.05 l
0.19 -0.05 l
0.19 0.15 l
0.20 -0.05 l
0.19 0.05 l
0.19 0 l
0.19 -0.10 l
0.19 -0.05 l
0.20 -0.14 l
0.19 0 l
0.19 -0.20 l
0.19 0.15 l
0.20 0 l
0.19 0.05 l
0.19 0.14 l
0.19 0.10 l
0.20 0 l
0.19 -0.29 l
0.19 -0.15 l
0.19 0.20 l
0.20 0.05 l
0.19 0.19 l
0.19 -0.39 l
0.19 0.10 l
0.19 0 l
0.20 0.19 l
0.19 -0.24 l
0.19 0.15 l
0.19 -0.10 l
0.20 0.05 l
0.19 -0.20 l
0.19 0.34 l
0.19 -0.09 l
0.20 0 l
0.19 0 l
0.19 0 l
0.19 0.14 l
0.20 -0.09 l
0.19 0.19 l
0.19 -0.15 l
0.19 -0.04 l
0.20 0.19 l
0.19 -0.34 l
0.19 0.15 l
0.19 -0.15 l
0.19 0.10 l
0.20 0.19 l
0.19 -0.14 l
0.19 0.19 l
0.19 -0.19 l
0.20 0 l
0.19 0.05 l
0.19 -0.25 l
0.19 0.25 l
0.20 -0.15 l
0.19 -0.05 l
0.19 -0.15 l
0.19 0.15 l
0.20 -0.10 l
0.19 -0.19 l
0.19 0.10 l
0.19 0 l
0.19 0 l
0.20 0.09 l
0.19 0.20 l
0.19 -0.05 l
0.19 -0.15 l
0.20 0.15 l
0.19 -0.15 l
0.19 -0.04 l
0.19 0.43 l
0.20 -0.14 l
0.19 -0.15 l
0.19 -0.24 l
0.19 0.19 l
0.20 -0.14 l
370.94 649.68 lineto
0.19 0.20 l
0.19 -0.10 l
0.19 0.10 l
0.20 0 l
0.19 -0.05 l
0.19 -0.10 l
0.19 0 l
0.20 0.05 l
0.19 0.15 l
0.19 -0.15 l
0.19 0.05 l
0.20 0.10 l
0.19 -0.29 l
0.19 0 l
0.19 0.29 l
0.20 -0.25 l
0.19 -0.14 l
0.19 0.05 l
0.19 0.24 l
0.19 -0.15 l
0.20 0 l
0.19 -0.29 l
0.19 0 l
0.19 0 l
0.20 0.15 l
0.19 0.19 l
0.19 -0.19 l
0.19 0.05 l
0.20 0 l
0.19 -0.05 l
0.19 0 l
0.19 -0.10 l
0.20 0.05 l
0.19 0.19 l
0.19 -0.04 l
0.19 0 l
0.19 -0.34 l
0.20 0.19 l
0.19 -0.19 l
0.19 0.34 l
0.19 -0.34 l
0.20 0.19 l
0.19 -0.05 l
0.19 0.25 l
0.19 -0.20 l
0.20 0.24 l
0.19 -0.09 l
0.19 0 l
0.19 0 l
0.20 -0.10 l
0.19 0.29 l
0.19 -0.10 l
0.19 -0.04 l
0.19 0.04 l
0.20 -0.19 l
0.19 0 l
0.19 0 l
0.19 0.10 l
0.20 0.05 l
0.19 0 l
0.19 0.24 l
0.19 -0.10 l
0.20 -0.05 l
0.19 -0.05 l
0.19 0.20 l
0.19 -0.29 l
0.20 -0.05 l
0.19 -0.15 l
0.19 0 l
0.19 -0.14 l
0.19 0.09 l
0.20 -0.34 l
0.19 0.20 l
0.19 -0.05 l
0.19 0.29 l
0.20 -0.05 l
0.19 0.10 l
0.19 -0.15 l
0.19 0.05 l
0.20 0 l
0.19 -0.19 l
0.19 0.05 l
0.19 0.09 l
0.20 0.44 l
0.19 -0.39 l
0.19 0.25 l
0.19 -0.20 l
0.20 -0.05 l
0.19 0.20 l
0.19 -0.24 l
0.19 0 l
0.19 0.14 l
0.20 0.10 l
0.19 -0.10 l
0.19 0.20 l
0.19 -0.30 l
0.20 -0.24 l
0.19 0.10 l
0.19 -0.10 l
390.17 649.30 lineto
0.20 -0.05 l
0.19 0 l
0.19 0.05 l
0.19 0.14 l
0.20 -0.04 l
0.19 0.14 l
0.19 -0.34 l
0.19 0.20 l
0.19 0.04 l
0.20 -0.04 l
0.19 -0.15 l
0.19 0 l
0.19 -0.05 l
0.20 0.10 l
0.19 -0.24 l
0.19 0.04 l
0.19 -0.04 l
0.20 0.09 l
0.19 -0.14 l
0.19 -0.10 l
0.19 0.15 l
0.20 0 l
0.19 -0.05 l
0.19 0.05 l
0.19 0 l
0.19 0.04 l
0.20 -0.09 l
0.19 -0.25 l
0.19 0.15 l
0.19 -0.05 l
0.20 0 l
0.19 0.24 l
0.19 0.05 l
0.19 0.34 l
0.20 -0.09 l
0.19 -0.54 l
0.19 0.44 l
0.19 -0.19 l
0.20 0.19 l
0.19 -0.15 l
0.19 0.15 l
0.19 -0.24 l
0.19 -0.05 l
0.20 0.29 l
0.19 -0.15 l
0.19 0.10 l
0.19 -0.34 l
0.20 0.20 l
0.19 -0.20 l
0.19 0.10 l
0.19 0.10 l
0.20 -0.05 l
0.19 0.14 l
0.19 -0.29 l
0.19 -0.05 l
0.20 0.25 l
0.19 -0.05 l
0.19 -0.05 l
0.19 0 l
0.19 0.10 l
0.20 -0.15 l
0.19 -0.10 l
0.19 0.05 l
0.19 -0.24 l
0.20 0.44 l
0.19 -0.34 l
0.19 0.09 l
0.19 0.25 l
0.20 -0.25 l
0.19 -0.09 l
0.19 0.39 l
0.19 -0.10 l
0.20 -0.20 l
0.19 -0.19 l
0.19 0.19 l
0.19 -0.05 l
0.19 -0.09 l
0.20 0.19 l
0.19 0 l
0.19 -0.10 l
0.19 -0.09 l
0.20 0.19 l
0.19 0.05 l
0.19 -0.29 l
0.19 0.05 l
0.20 0.10 l
0.19 0 l
0.19 -0.15 l
0.19 0.19 l
0.20 0.15 l
0.19 0 l
0.19 -0.10 l
0.19 0 l
0.20 0.10 l
0.19 0.20 l
0.19 -0.10 l
0.19 -0.25 l
0.19 0.25 l
0.20 -0.10 l
409.41 649.25 lineto
0.19 -0.09 l
0.19 -0.25 l
0.20 0.10 l
0.19 -0.29 l
0.19 0.19 l
0.19 -0.05 l
0.20 0.05 l
0.19 0.15 l
0.19 -0.24 l
0.19 0.14 l
0.20 0.10 l
0.19 -0.15 l
0.19 0.10 l
0.19 -0.05 l
0.19 -0.14 l
0.20 -0.10 l
0.19 -0.10 l
0.19 0.20 l
0.19 -0.05 l
0.20 0.10 l
0.19 -0.30 l
0.19 0.20 l
0.19 0.19 l
0.20 -0.19 l
0.19 -0.05 l
0.19 0 l
0.19 -0.10 l
0.20 0.25 l
0.19 -0.10 l
0.19 -0.05 l
0.19 -0.19 l
0.19 0.04 l
0.20 0 l
0.19 0.20 l
0.19 -0.15 l
0.19 -0.09 l
0.20 0.34 l
0.19 -0.39 l
0.19 0.19 l
0.19 -0.29 l
0.20 0.05 l
0.19 0.44 l
0.19 -0.10 l
0.19 -0.20 l
0.20 0.10 l
0.19 0.15 l
0.19 -0.05 l
0.19 -0.05 l
0.19 0.15 l
0.20 -0.05 l
0.19 0.24 l
0.19 0 l
0.19 -0.10 l
0.20 0.10 l
0.19 -0.29 l
0.19 0.05 l
0.19 0.19 l
0.20 0 l
0.19 0.05 l
0.19 -0.24 l
0.19 0.19 l
0.20 -0.04 l
0.19 -0.15 l
0.19 -0.29 l
0.19 0.63 l
0.19 -0.44 l
0.20 0.20 l
0.19 -0.15 l
0.19 0.10 l
0.19 -0.25 l
0.20 0.20 l
0.19 0.05 l
0.19 0 l
0.19 -0.05 l
0.20 0.05 l
0.19 -0.15 l
0.19 -0.29 l
0.19 0 l
0.20 0 l
0.19 -0.05 l
0.19 -0.10 l
0.19 0.30 l
0.19 0.05 l
0.20 -0.10 l
0.19 -0.15 l
0.19 0.29 l
0.19 0 l
0.20 -0.19 l
0.19 -0.10 l
0.19 -0.19 l
0.19 0 l
0.20 -0.05 l
0.19 0.34 l
0.19 -0.15 l
0.19 0.05 l
0.20 -0.14 l
0.19 0.29 l
0.19 0 l
0.19 0.14 l
428.65 648.82 lineto
0.19 -0.29 l
0.19 0.24 l
0.19 -0.19 l
0.19 0.19 l
0.20 -0.05 l
0.19 0.05 l
0.19 0 l
0.19 0.15 l
0.20 0 l
0.19 -0.05 l
0.19 -0.15 l
0.19 0.15 l
0.20 -0.15 l
0.19 0.10 l
0.19 -0.10 l
0.19 0.10 l
0.20 -0.05 l
0.19 -0.14 l
0.19 0.19 l
0.19 -0.05 l
0.19 0 l
0.20 -0.24 l
0.19 0.05 l
0.19 -0.25 l
0.19 0.05 l
0.20 0.05 l
0.19 0.10 l
0.19 -0.15 l
0.19 0.39 l
0.20 -0.53 l
0.19 0.19 l
0.19 0.10 l
0.19 -0.05 l
0.20 -0.14 l
0.19 0.04 l
0.19 -0.04 l
0.19 0 l
0.19 0.24 l
0.20 -0.15 l
0.19 -0.09 l
0.19 -0.10 l
0.19 0.24 l
0.20 -0.10 l
0.19 0.25 l
0.19 -0.29 l
0.19 0.14 l
0.20 -0.24 l
0.19 0.19 l
0.19 -0.19 l
0.19 0.29 l
0.20 0.05 l
0.19 0.05 l
0.19 -0.29 l
0.19 0.04 l
0.19 0.20 l
0.20 -0.05 l
0.19 -0.10 l
0.19 0.34 l
0.19 -0.19 l
0.20 0.15 l
0.19 0.09 l
0.19 -0.29 l
0.19 0.05 l
0.20 -0.10 l
0.19 -0.05 l
0.19 0.10 l
0.19 -0.19 l
0.20 0 l
0.19 0.19 l
0.19 -0.05 l
0.19 -0.05 l
0.19 0.10 l
0.20 0.05 l
0.19 -0.15 l
0.19 0.10 l
0.19 0 l
0.20 -0.19 l
0.19 -0.15 l
0.19 0.10 l
0.19 -0.05 l
0.20 0.19 l
0.19 -0.24 l
0.19 0.05 l
0.19 0.10 l
0.20 0 l
0.19 -0.10 l
0.19 0.24 l
0.19 -0.24 l
0.19 0 l
0.20 -0.05 l
0.19 0.05 l
0.19 -0.05 l
0.19 -0.05 l
0.20 -0.05 l
0.19 -0.39 l
0.19 0.49 l
0.19 -0.29 l
0.20 0 l
0.19 0.10 l
447.88 648.05 lineto
0.19 -0.05 l
0.20 0.05 l
0.19 0.14 l
0.19 -0.09 l
0.19 -0.20 l
0.20 -0.10 l
0.19 0.34 l
0.19 -0.19 l
0.19 0.34 l
0.19 -0.29 l
0.20 0.14 l
0.19 -0.34 l
0.19 0.30 l
0.19 0.04 l
0.20 0.05 l
0.19 -0.14 l
0.19 -0.05 l
0.19 -0.10 l
0.20 0.34 l
0.19 0 l
0.19 0.20 l
0.19 -0.20 l
0.20 -0.05 l
0.19 -0.19 l
0.19 0.24 l
0.19 -0.10 l
0.19 0.05 l
0.20 -0.05 l
0.19 0.25 l
0.19 -0.39 l
0.19 0.19 l
0.20 0.10 l
0.19 -0.14 l
0.19 0.09 l
0.19 -0.09 l
0.20 0 l
0.19 -0.10 l
0.19 0.14 l
0.19 -0.14 l
0.20 0.14 l
0.19 0 l
0.19 0.10 l
0.19 0.05 l
0.19 -0.05 l
0.20 0.05 l
0.19 -0.15 l
0.19 0.05 l
0.19 -0.09 l
0.20 -0.15 l
0.19 0.19 l
0.19 -0.09 l
0.19 0.05 l
0.20 0.09 l
0.19 -0.24 l
0.19 0.15 l
0.19 -0.30 l
0.20 0.39 l
0.19 -0.24 l
0.19 0.15 l
0.19 -0.20 l
0.19 0 l
0.20 0.15 l
0.19 0.10 l
0.19 -0.15 l
0.19 -0.10 l
0.20 0.15 l
0.19 -0.20 l
0.19 0.44 l
0.19 -0.34 l
0.20 0.20 l
0.19 -0.35 l
0.19 0.10 l
0.19 -0.24 l
0.20 0.05 l
0.19 0.05 l
0.19 0.04 l
0.19 0.10 l
0.19 -0.05 l
0.20 0 l
0.19 0.05 l
0.19 -0.14 l
0.19 -0.05 l
0.20 0.39 l
0.19 -0.20 l
0.19 -0.09 l
0.19 0.14 l
0.20 -0.14 l
0.19 0.09 l
0.19 0.20 l
0.19 -0.05 l
0.20 0.05 l
0.19 0.29 l
0.19 -0.34 l
0.19 0.05 l
0.19 -0.15 l
0.20 -0.19 l
0.19 0.19 l
0.19 -0.05 l
0.19 0 l
currentpoint o m
467.12 648.15 lineto
0.19 -0.10 l
0.19 -0.05 l
0.19 0.20 l
0.20 0.19 l
0.19 -0.14 l
0.19 0.09 l
0.19 0.10 l
0.20 -0.10 l
0.19 -0.19 l
0.19 0.05 l
0.19 -0.05 l
0.20 -0.34 l
0.19 0.14 l
0.19 -0.04 l
0.19 0 l
0.19 0.09 l
0.20 0.05 l
0.19 -0.10 l
0.19 -0.19 l
0.19 0.05 l
0.20 -0.10 l
0.19 -0.05 l
0.19 0.05 l
0.19 -0.24 l
0.20 0.05 l
0.19 0 l
0.19 0.14 l
0.19 0.20 l
0.20 -0.15 l
0.19 -0.19 l
0.19 0.05 l
0.19 0 l
0.19 -0.15 l
0.20 0.19 l
0.19 0.39 l
0.19 0.05 l
0.19 0.10 l
0.20 -0.39 l
0.19 -0.19 l
0.19 -0.05 l
0.19 0.14 l
0.20 0.05 l
0.19 0.05 l
0.19 0.15 l
0.19 0.34 l
0.20 -0.05 l
0.19 -0.05 l
0.19 0.05 l
0.19 0 l
0.19 0.05 l
0.20 -0.05 l
0.19 -0.10 l
0.19 0.10 l
0.19 0 l
0.20 -0.20 l
0.19 0.10 l
0.19 0.15 l
0.19 -0.15 l
0.20 0.10 l
0.19 -0.10 l
0.19 0.25 l
0.19 -0.25 l
0.20 0.15 l
0.19 -0.44 l
0.19 0.24 l
0.19 -0.09 l
0.19 -0.25 l
0.20 0.15 l
0.19 -0.05 l
0.19 -0.05 l
0.19 0.05 l
0.20 0.15 l
0.19 -0.10 l
0.19 0 l
0.19 0.05 l
0.20 -0.05 l
0.19 0.15 l
0.19 -0.15 l
0.19 -0.29 l
0.20 0.10 l
0.19 -0.25 l
0.19 0.44 l
0.19 -0.05 l
0.19 0.10 l
0.20 -0.15 l
0.19 -0.09 l
0.19 0.09 l
0.19 0.25 l
0.20 -0.34 l
0.19 0.09 l
0.19 -0.05 l
0.19 0.10 l
0.20 0 l
0.19 -0.05 l
0.19 -0.05 l
0.19 0.10 l
0.20 0.25 l
0.19 -0.20 l
0.19 0.24 l
486.35 648.10 lineto
0.19 0.10 l
0.20 0.10 l
0.19 -0.15 l
0.19 -0.05 l
0.19 0 l
0.20 -0.29 l
0.19 0.20 l
0.19 0.14 l
0.19 -0.19 l
0.20 -0.05 l
0.19 0.05 l
0.19 0.05 l
0.19 0.14 l
0.20 -0.09 l
0.19 -0.20 l
0.19 0.25 l
0.19 0 l
0.20 -0.25 l
0.19 -0.10 l
0.19 -0.04 l
0.19 -0.05 l
0.19 -0.05 l
0.20 0.10 l
0.19 -0.10 l
0.19 0.14 l
0.19 -0.29 l
0.20 0 l
0.19 0.05 l
0.19 0.05 l
0.19 0.15 l
0.20 -0.25 l
0.19 0.15 l
0.19 -0.20 l
0.19 -0.04 l
0.20 -0.25 l
0.19 0.49 l
0.19 0.05 l
0.19 -0.20 l
0.19 0.05 l
0.20 0.10 l
0.19 -0.10 l
0.19 0.05 l
0.19 0.24 l
0.20 -0.43 l
0.19 0.19 l
0.19 0.10 l
0.19 -0.10 l
0.20 -0.10 l
0.19 0.25 l
0.19 -0.39 l
0.19 0.19 l
0.20 -0.19 l
0.19 0.14 l
0.19 -0.34 l
0.19 0.39 l
0.19 0.15 l
0.20 0.14 l
0.19 -0.09 l
0.19 0 l
0.19 0.05 l
0.20 -0.30 l
0.19 0 l
0.19 0.10 l
0.19 0.29 l
0.20 -0.04 l
0.19 -0.10 l
0.19 0 l
0.19 -0.05 l
0.20 0.15 l
0.19 0.09 l
0.19 -0.09 l
0.19 -0.15 l
0.19 0.15 l
0.20 0.14 l
0.19 -0.58 l
0.19 0.39 l
0.19 -0.05 l
0.20 0.05 l
0.19 -0.05 l
0.19 0 l
0.19 -0.05 l
0.20 -0.15 l
0.19 -0.14 l
0.19 0 l
0.19 0 l
0.20 -0.05 l
0.19 0 l
0.19 -0.05 l
0.19 -0.05 l
0.19 -0.19 l
0.20 0.14 l
0.19 -0.14 l
0.19 0.14 l
0.19 0.15 l
0.20 -0.15 l
0.19 0 l
0.19 0 l
0.19 0.15 l
0.20 -0.10 l
505.59 647.38 lineto
0.19 0 l
0.19 -0.20 l
0.20 0.15 l
0.19 -0.05 l
0.19 0.20 l
0.19 -0.05 l
0.19 -0.05 l
0.20 0 l
0.19 -0.05 l
0.19 0.15 l
0.19 -0.20 l
0.20 0.25 l
0.19 -0.05 l
0.19 0.09 l
0.19 -0.14 l
0.20 0.05 l
0.19 0.09 l
0.19 -0.09 l
0.19 -0.05 l
0.20 0.19 l
0.19 0 l
0.19 0.15 l
0.19 -0.24 l
0.20 0.09 l
0.19 -0.09 l
0.19 -0.05 l
0.19 0.09 l
0.19 -0.19 l
0.20 0.24 l
0.19 -0.14 l
0.19 -0.10 l
0.19 -0.19 l
0.20 0.09 l
0.19 -0.05 l
0.19 0.15 l
0.19 0.10 l
0.20 0 l
0.19 0.10 l
0.19 -0.15 l
0.19 -0.15 l
0.20 0.25 l
0.19 -0.20 l
0.19 0 l
0.19 0.05 l
0.19 -0.10 l
0.20 -0.14 l
0.19 -0.05 l
0.19 0.14 l
0.19 0.10 l
0.20 -0.24 l
0.19 0.34 l
0.19 -0.15 l
0.19 0.25 l
0.20 -0.25 l
0.19 0.10 l
0.19 0 l
0.19 -0.29 l
0.20 0.34 l
0.19 -0.10 l
0.19 0.39 l
0.19 -0.19 l
0.19 -0.29 l
0.20 0.04 l
0.19 0 l
0.19 0.20 l
0.19 0.10 l
0.20 -0.15 l
0.19 0.10 l
0.19 0.10 l
0.19 0 l
0.20 0.09 l
0.19 -0.19 l
0.19 -0.05 l
0.19 -0.10 l
0.20 0.10 l
0.19 -0.05 l
0.19 0 l
0.19 -0.15 l
0.19 0.10 l
0.20 -0.05 l
0.19 0.05 l
0.19 -0.05 l
0.19 0.20 l
0.20 -0.15 l
0.19 0.10 l
0.19 -0.19 l
0.19 0.29 l
0.20 -0.44 l
0.19 0.34 l
0.19 -0.10 l
0.19 -0.34 l
0.20 0.34 l
0.19 -0.05 l
0.19 0.05 l
0.19 -0.09 l
0.19 0.09 l
0.20 0.25 l
0.19 -0.15 l
0.19 0.24 l
524.82 647.82 lineto
0.20 -0.29 l
0.19 0.05 l
0.19 -0.20 l
0.19 0 l
0.20 0.05 l
0.19 -0.10 l
0.19 0.20 l
0.19 -0.10 l
0.20 0.15 l
0.19 -0.24 l
0.19 -0.10 l
0.19 0.19 l
0.19 0.15 l
0.20 0.24 l
0.19 -0.14 l
0.19 -0.10 l
0.19 -0.20 l
0.20 -0.14 l
0.19 0.10 l
0.19 -0.05 l
0.19 0.24 l
0.20 0.10 l
0.19 -0.25 l
0.19 -0.09 l
0.19 0.05 l
0.20 -0.15 l
0.19 -0.29 l
0.19 0.48 l
0.19 -0.04 l
0.19 0.09 l
0.20 0.30 l
0.19 0.09 l
0.19 -0.14 l
0.19 -0.10 l
0.20 -0.15 l
0.19 0.25 l
0.19 -0.44 l
0.19 0.29 l
0.20 -0.19 l
0.19 0 l
0.19 0.05 l
0.19 -0.05 l
0.20 0.19 l
0.19 -0.14 l
0.19 -0.10 l
0.19 0.24 l
0.20 -0.14 l
0.19 0.24 l
0.19 0 l
0.19 -0.15 l
0.19 -0.05 l
0.20 0.05 l
0.19 -0.09 l
0.19 0.04 l
0.19 0.10 l
0.20 0.10 l
0.19 0.05 l
0.19 -0.44 l
0.19 0.49 l
0.20 -0.30 l
0.19 0.15 l
0.19 0 l
0.19 0.05 l
0.20 -0.15 l
0.19 -0.14 l
0.19 0.05 l
0.19 0 l
0.19 0.09 l
0.20 -0.14 l
0.19 -0.15 l
0.19 0.20 l
0.19 -0.25 l
0.20 -0.24 l
0.19 0.29 l
0.19 -0.19 l
0.19 0.29 l
0.20 -0.24 l
0.19 0.19 l
0.19 -0.05 l
0.19 -0.14 l
0.20 0.04 l
0.19 -0.09 l
0.19 -0.20 l
0.19 0.34 l
0.19 -0.19 l
0.20 0.10 l
0.19 0.24 l
0.19 -0.05 l
0.19 -0.19 l
0.20 0.44 l
0.19 -0.35 l
0.19 0.15 l
0.19 0 l
0.20 -0.44 l
0.19 0.44 l
0.19 -0.19 l
0.19 0 l
0.20 0.29 l
0.19 -0.10 l
544.06 647.29 lineto
0.19 0.05 l
0.19 0 l
0.20 -0.24 l
0.19 0.19 l
0.19 0 l
0.19 0.05 l
0.20 0 l
0.19 0.10 l
0.19 -0.39 l
0.19 0.29 l
0.20 -0.10 l
0.19 -0.48 l
0.19 0.24 l
0.19 0.19 l
0.20 0.05 l
0.19 -0.19 l
0.19 0.05 l
0.19 0.05 l
0.19 0.14 l
0.20 -0.05 l
0.19 -0.05 l
0.19 -0.19 l
0.19 0.15 l
0.20 -0.15 l
0.19 -0.10 l
0.19 0.05 l
0.19 -0.24 l
0.20 0 l
0.19 0.24 l
0.19 0 l
0.19 -0.10 l
0.20 -0.39 l
0.19 0.59 l
0.19 0 l
0.19 -0.29 l
0.19 0 l
0.20 0.05 l
0.19 0.04 l
0.19 0.10 l
0.19 0 l
0.20 0.10 l
0.19 0.10 l
0.19 -0.20 l
0.19 -0.19 l
0.20 0.34 l
0.19 0.10 l
0.19 0 l
0.19 -0.20 l
0.20 -0.10 l
0.19 0.30 l
0.19 -0.15 l
0.19 0.10 l
0.20 0.09 l
0.19 0.10 l
0.19 -0.19 l
0.19 0 l
0.19 0.09 l
0.20 -0.04 l
0.19 0.09 l
0.19 -0.14 l
0.19 0.14 l
0.20 -0.14 l
0.19 -0.10 l
0.19 0.05 l
0.19 -0.15 l
0.20 0.39 l
0.19 -0.24 l
0.19 -0.24 l
0.19 0.24 l
0.20 0.19 l
0.19 -0.19 l
0.19 0.15 l
0.19 -0.39 l
0.19 0 l
0.20 0.19 l
0.19 -0.24 l
0.19 0.14 l
0.19 0.20 l
0.20 -0.25 l
0.19 -0.14 l
0.19 -0.44 l
0.19 0.58 l
0.20 0.05 l
0.19 -0.14 l
0.19 -0.05 l
0.19 0.15 l
0.20 -0.15 l
0.19 0.15 l
0.19 -0.10 l
0.19 0.34 l
0.19 -0.34 l
0.20 0.05 l
0.19 -0.20 l
0.19 -0.10 l
0.19 0 l
0.20 0.10 l
0.19 0.05 l
0.19 0 l
0.19 -0.10 l
563.30 647.05 lineto
0.19 -0.05 l
0.19 -0.14 l
0.19 0.29 l
0.20 -0.39 l
0.19 0.19 l
0.19 0.15 l
0.19 -0.15 l
0.19 -0.14 l
0.20 0.15 l
0.19 0.09 l
0.19 0.10 l
0.19 -0.29 l
0.20 0.48 l
0.19 -0.04 l
0.19 -0.20 l
0.19 0.10 l
0.20 0.10 l
0.19 -0.10 l
0.19 0.15 l
0.19 -0.05 l
0.20 -0.05 l
0.19 -0.20 l
0.19 0 l
0.19 -0.39 l
0.19 0.39 l
0.20 0.15 l
0.19 -0.29 l
0.19 -0.15 l
0.19 0 l
0.20 -0.10 l
0.19 0.34 l
0.19 -0.04 l
0.19 -0.20 l
0.20 0.05 l
0.19 0.10 l
0.19 -0.05 l
0.19 0.39 l
0.20 -0.73 l
0.19 -0.20 l
0.19 -0.05 l
0.19 0.05 l
0.19 0.05 l
0.20 0.05 l
0.19 0.10 l
0.19 0 l
0.19 -0.05 l
0.20 0.24 l
0.19 0.15 l
0.19 0.05 l
0.19 -0.25 l
0.20 0.30 l
0.19 -0.05 l
0.19 0 l
0.19 0.10 l
0.20 0.14 l
0.19 0.10 l
0.19 0.05 l
0.19 0 l
0.20 0.05 l
0.19 -0.05 l
0.19 -0.10 l
0.19 0 l
0.19 -0.14 l
0.20 0.04 l
0.19 0.05 l
0.19 0.05 l
0.19 0 l
0.20 -0.05 l
0.19 0.15 l
0.19 -0.10 l
0.19 0.15 l
0.20 0.05 l
0.19 -0.10 l
0.19 -0.34 l
0.19 0.19 l
0.20 -0.14 l
0.19 0.19 l
0.19 -0.14 l
0.19 0.14 l
0.19 0.15 l
0.20 -0.29 l
0.19 0 l
0.19 -0.05 l
0.19 0.09 l
0.20 -0.34 l
0.19 -0.24 l
0.19 0.24 l
0.19 0.34 l
0.20 -0.34 l
0.19 0.05 l
0.19 -0.05 l
0.19 0.05 l
0.20 0.30 l
0.19 -0.15 l
0.19 0 l
0.19 0 l
0.19 0.10 l
0.20 -0.15 l
0.19 -0.19 l
582.53 647.01 lineto
0.19 -0.25 l
0.20 0.25 l
0.19 0.14 l
0.19 -0.19 l
0.19 -0.20 l
0.20 0.35 l
0.19 0 l
0.19 0.04 l
0.19 0 l
0.20 -0.19 l
0.19 0.05 l
0.19 -0.05 l
0.19 0 l
0.19 -0.15 l
0.20 0.15 l
0.19 -0.10 l
0.19 0.05 l
0.19 0.10 l
0.20 -0.05 l
0.19 -0.15 l
0.19 0.10 l
0.19 0.25 l
0.20 -0.20 l
0.19 0.29 l
0.19 -0.34 l
0.19 0.29 l
0.20 -0.19 l
0.19 0 l
0.19 0 l
0.19 0.05 l
0.19 0.05 l
0.20 -0.25 l
0.19 -0.14 l
0.19 0 l
0.19 0.14 l
0.20 0 l
0.19 -0.09 l
0.19 -0.10 l
0.19 0.10 l
0.20 -0.05 l
0.19 0 l
0.19 0.14 l
0.19 0 l
0.20 -0.09 l
0.19 0.19 l
0.19 -0.05 l
0.19 -0.29 l
0.19 0.10 l
0.20 0.05 l
0.19 0.09 l
0.19 -0.04 l
0.19 0.09 l
0.20 -0.29 l
0.19 0.20 l
0.19 -0.10 l
0.19 0.14 l
0.20 -0.19 l
0.19 0.10 l
0.19 -0.05 l
0.19 0.10 l
0.20 -0.05 l
0.19 -0.34 l
0.19 0.29 l
0.19 -0.05 l
0.20 0.10 l
0.19 0.29 l
0.19 0 l
0.19 -0.29 l
0.19 0.24 l
0.20 -0.10 l
0.19 0 l
0.19 -0.19 l
0.19 -0.05 l
0.20 0.24 l
0.19 -0.14 l
0.19 0.10 l
0.19 -0.15 l
0.20 0.05 l
0.19 0 l
0.19 0.05 l
0.19 0 l
0.20 0.05 l
0.19 -0.20 l
0.19 -0.19 l
0.19 0.09 l
0.19 0.10 l
0.20 -0.05 l
0.19 -0.05 l
0.19 0.05 l
0.19 0.20 l
0.20 -0.05 l
0.19 -0.20 l
0.19 0.15 l
0.19 -0.05 l
0.20 0.05 l
0.19 -0.24 l
0.19 0.19 l
0.19 -0.14 l
0.20 0.04 l
601.77 646.72 lineto
0.19 -0.24 l
0.19 0.19 l
0.19 -0.05 l
0.20 -0.05 l
0.19 0.20 l
0.19 -0.15 l
0.19 -0.24 l
0.20 0.15 l
0.19 -0.15 l
0.19 -0.15 l
0.19 0 l
0.20 0.15 l
0.19 0.05 l
0.19 0 l
0.19 0.05 l
0.20 0.34 l
0.19 -0.24 l
0.19 0.14 l
0.19 -0.05 l
0.19 -0.24 l
0.20 -0.05 l
0.19 0.24 l
0.19 -0.04 l
0.19 -0.05 l
0.20 0.09 l
0.19 -0.09 l
0.19 0.05 l
0.19 0.14 l
0.20 -0.53 l
0.19 0.29 l
0.19 0.10 l
0.19 -0.20 l
0.20 -0.14 l
0.19 -0.15 l
0.19 0.29 l
0.19 0.10 l
0.19 -0.15 l
0.20 0.10 l
0.19 0 l
0.19 -0.05 l
0.19 0 l
0.20 0 l
0.19 0 l
0.19 0.10 l
0.19 0.05 l
0.20 0.10 l
0.19 -0.30 l
0.19 0.25 l
0.19 -0.10 l
0.20 0.05 l
0.19 0.10 l
0.19 0.14 l
0.19 -0.05 l
0.19 0 l
0.20 0.10 l
0.19 -0.15 l
0.19 0 l
0.19 0.35 l
0.20 -0.44 l
0.19 0.14 l
0.19 0 l
0.19 -0.05 l
0.20 0.25 l
0.19 -0.05 l
0.19 -0.10 l
0.19 0.05 l
0.20 -0.14 l
0.19 0.04 l
0.19 -0.09 l
0.19 -0.15 l
0.20 -0.10 l
0.19 -0.05 l
0.19 -0.04 l
0.19 0.34 l
0.19 -0.15 l
0.20 0.10 l
0.19 -0.15 l
0.19 0.20 l
0.19 0 l
0.20 -0.20 l
0.19 0.10 l
0.19 0 l
0.19 -0.10 l
0.20 -0.05 l
0.19 -0.24 l
0.19 0.15 l
0.19 0.05 l
0.20 -0.15 l
0.19 0.10 l
0.19 -0.30 l
0.19 0.05 l
0.19 0.20 l
0.20 -0.05 l
0.19 0.49 l
0.19 -0.20 l
0.19 0.05 l
0.20 -0.15 l
0.19 0.05 l
0.19 0.20 l
621.00 646.53 lineto
0.20 0.20 l
0.19 -0.15 l
0.19 0.15 l
0.19 -0.10 l
0.20 0.10 l
0.19 0 l
0.19 0.04 l
0.19 0 l
0.19 -0.19 l
0.20 0.10 l
0.19 0.05 l
0.19 0 l
0.19 0.14 l
0.20 0.15 l
0.19 -0.29 l
0.19 -0.15 l
0.19 0.29 l
0.20 0.05 l
0.19 -0.14 l
0.19 0.04 l
0.19 -0.04 l
0.20 0.09 l
0.19 -0.09 l
0.19 -0.05 l
0.19 0.05 l
0.19 0.09 l
0.20 -0.24 l
0.19 0.15 l
0.19 -0.05 l
0.19 0.05 l
0.20 -0.20 l
0.19 0.10 l
0.19 0.10 l
0.19 -0.30 l
0.20 0.20 l
0.19 -0.25 l
0.19 0.30 l
0.19 -0.25 l
0.20 0.15 l
0.19 -0.05 l
0.19 0.05 l
0.19 0 l
0.19 -0.10 l
0.20 0.15 l
0.19 -0.44 l
0.19 0.29 l
0.19 0 l
0.20 -0.09 l
0.19 0.19 l
0.19 0.05 l
0.19 0 l
0.20 0 l
0.19 -0.20 l
0.19 -0.09 l
0.19 0 l
0.20 0.09 l
0.19 0 l
0.19 0.10 l
0.19 0.25 l
0.19 -0.30 l
0.20 -0.29 l
0.19 0.20 l
0.19 0.09 l
0.19 -0.09 l
0.20 0.04 l
0.19 0.10 l
0.19 0.10 l
0.19 0.10 l
0.20 -0.05 l
0.19 -0.15 l
0.19 -0.14 l
0.19 0.14 l
0.20 0.05 l
0.19 0 l
0.19 -0.14 l
0.19 0.24 l
0.20 0.05 l
0.19 -0.10 l
0.19 -0.19 l
0.19 -0.05 l
0.19 0 l
0.20 0 l
0.19 0.19 l
0.19 -0.05 l
0.19 -0.09 l
0.20 0.19 l
0.19 -0.15 l
0.19 0.05 l
0.19 -0.14 l
0.20 0.05 l
0.19 0.04 l
0.19 0.35 l
0.19 -0.30 l
0.20 -0.29 l
0.19 0.25 l
0.19 -0.25 l
0.19 0.15 l
0.19 0 l
0.20 -0.05 l
640.24 646.39 lineto
0.19 -0.24 l
0.19 0.14 l
0.20 -0.05 l
0.19 0.25 l
0.19 0.05 l
0.19 -0.15 l
0.20 0.15 l
0.19 -0.10 l
0.19 -0.05 l
0.19 0.15 l
0.20 -0.15 l
0.19 0.05 l
0.19 0.49 l
0.19 -0.05 l
0.19 -0.10 l
0.20 0.10 l
0.19 -0.30 l
0.19 -0.04 l
0.19 0.19 l
0.20 -0.05 l
0.19 0.15 l
0.19 -0.20 l
0.19 0.05 l
0.20 0.05 l
0.19 -0.10 l
0.19 -0.04 l
0.19 0 l
0.20 -0.05 l
0.19 -0.10 l
0.19 0.05 l
0.19 0.05 l
0.19 0.09 l
0.20 -0.09 l
0.19 0.24 l
0.19 -0.24 l
0.19 -0.15 l
0.20 0 l
0.19 -0.05 l
0.19 -0.14 l
0.19 0.14 l
0.20 -0.29 l
0.19 0.05 l
0.19 -0.10 l
0.19 0.25 l
0.20 -0.05 l
0.19 0.09 l
0.19 0 l
0.19 0.05 l
0.19 0 l
0.20 -0.29 l
0.19 0 l
0.19 0.44 l
0.19 -0.20 l
0.20 0.20 l
0.19 -0.34 l
0.19 0.29 l
0.19 -0.19 l
0.20 -0.05 l
0.19 -0.05 l
0.19 0.05 l
0.19 0.24 l
0.20 0.10 l
0.19 -0.05 l
0.19 -0.05 l
0.19 0.15 l
0.19 -0.10 l
0.20 0.19 l
0.19 -0.19 l
0.19 -0.05 l
0.19 0.29 l
0.20 -0.19 l
0.19 0.05 l
0.19 -0.25 l
0.19 0.15 l
0.20 0 l
0.19 0.05 l
0.19 -0.20 l
0.19 0 l
0.20 0.10 l
0.19 0.10 l
0.19 0.05 l
0.19 -0.20 l
0.20 -0.09 l
0.19 0.04 l
0.19 -0.19 l
0.19 0.05 l
0.19 -0.10 l
0.20 -0.14 l
0.19 0 l
0.19 0 l
0.19 0.09 l
0.20 -0.09 l
0.19 0.14 l
0.19 0.10 l
0.19 -0.05 l
0.20 0 l
0.19 -0.10 l
0.19 0 l
0.19 -0.09 l
currentpoint o m
659.48 646.30 lineto
0.19 -0.15 l
0.19 0.05 l
0.19 0.10 l
0.19 -0.25 l
0.20 0.10 l
0.19 -0.10 l
0.19 0.15 l
0.19 -0.05 l
0.20 0.15 l
0.19 -0.15 l
0.19 -0.05 l
0.19 0.20 l
0.20 -0.05 l
0.19 -0.10 l
0.19 0.10 l
0.19 0 l
0.20 0.14 l
0.19 -0.14 l
0.19 -0.05 l
0.19 -0.10 l
0.19 0.10 l
0.20 0.05 l
0.19 -0.15 l
0.19 0.39 l
0.19 -0.29 l
0.20 0.24 l
0.19 -0.09 l
0.19 -0.20 l
0.19 0.10 l
0.20 -0.05 l
0.19 0.20 l
0.19 -0.15 l
0.19 0.10 l
0.20 -0.49 l
0.19 0 l
0.19 0.29 l
o
0.00 0.00 720.00 720.00 cl
0 0 0 srgb
0.75 setlinewidth
[] 0 setdash
1 setlinecap
1 setlinejoin
10.00 setmiterlimit
np
137.80 433.44 m
432.80 0 l
o
np
137.80 433.44 m
0 -7.20 l
o
np
282.07 433.44 m
0 -7.20 l
o
np
426.34 433.44 m
0 -7.20 l
o
np
570.60 433.44 m
0 -7.20 l
o
/Font1 findfont 12 s
137.80 407.52 (0.00) .5 0 t
282.07 407.52 (0.05) .5 0 t
426.34 407.52 (0.10) .5 0 t
570.60 407.52 (0.15) .5 0 t
np
59.04 453.72 m
0 191.55 l
o
np
59.04 453.72 m
-7.20 0 l
o
np
59.04 485.64 m
-7.20 0 l
o
np
59.04 517.57 m
-7.20 0 l
o
np
59.04 549.49 m
-7.20 0 l
o
np
59.04 581.42 m
-7.20 0 l
o
np
59.04 613.34 m
-7.20 0 l
o
np
59.04 645.27 m
-7.20 0 l
o
41.76 453.72 (-5.4) .5 90 t
41.76 517.57 (-5.0) .5 90 t
41.76 581.42 (-4.6) .5 90 t
41.76 645.27 (-4.2) .5 90 t
np
59.04 433.44 m
630.72 0 l
0 227.52 l
-630.72 0 l
0 -227.52 l
o
0.00 360.00 720.00 720.00 cl
/Font2 findfont 14 s
0 0 0 srgb
374.40 685.45 (IR Detector Signals) .5 0 t
/Font1 findfont 12 s
374.40 378.72 (Time \(s\)) .5 0 t
12.96 547.20 (Signal \(V\)) .5 90 t
59.04 433.44 689.76 660.96 cl
0 0 1 srgb
0.75 setlinewidth
[] 0 setdash
1 setlinecap
1 setlinejoin
10.00 setmiterlimit
np
82.21 443.45 m
0.19 0.15 l
0.19 -0.15 l
0.19 0.10 l
0.20 0.10 l
0.19 -0.20 l
0.19 0.20 l
0.19 0.14 l
0.20 -0.29 l
0.19 0.20 l
0.19 0.43 l
0.19 -0.48 l
0.20 0.05 l
0.19 -0.10 l
0.19 0.15 l
0.19 -0.20 l
0.20 -0.10 l
0.19 0.05 l
0.19 0 l
0.19 -0.29 l
0.19 0.10 l
0.20 0.05 l
0.19 0.14 l
0.19 -0.19 l
0.19 0.05 l
0.20 -0.25 l
0.19 0.15 l
0.19 -0.05 l
0.19 -0.05 l
0.20 0.10 l
0.19 -0.15 l
0.19 -0.09 l
0.19 -0.05 l
0.20 0.19 l
0.19 -0.05 l
0.19 -0.09 l
0.19 -0.10 l
0.19 0.44 l
0.20 -0.39 l
0.19 0 l
0.19 0.05 l
0.19 0.24 l
0.20 0.10 l
0.19 -0.05 l
0.19 -0.05 l
0.19 0 l
0.20 0 l
0.19 0.29 l
0.19 0.05 l
0.19 -0.10 l
0.20 0.15 l
0.19 0 l
0.19 0.05 l
0.19 -0.24 l
0.19 0.19 l
0.20 -0.05 l
0.19 -0.14 l
0.19 0.48 l
0.19 -0.48 l
0.20 0.19 l
0.19 0.05 l
0.19 -0.15 l
0.19 0.25 l
0.20 -0.15 l
0.19 -0.05 l
0.19 0.10 l
0.19 0.10 l
0.20 -0.39 l
0.19 -0.05 l
0.19 -0.05 l
0.19 0.29 l
0.20 -0.24 l
0.19 -0.05 l
0.19 0.05 l
0.19 0.05 l
0.19 -0.15 l
0.20 -0.14 l
0.19 0.09 l
0.19 -0.09 l
0.19 0.19 l
0.20 0.05 l
0.19 -0.10 l
0.19 0 l
0.19 -0.05 l
0.20 0.05 l
0.19 0.10 l
0.19 -0.19 l
0.19 0.14 l
0.20 0.05 l
0.19 -0.14 l
0.19 0.24 l
0.19 -0.05 l
0.19 0.15 l
0.20 -0.05 l
0.19 -0.10 l
0.19 0.05 l
0.19 -0.24 l
0.20 0.04 l
0.19 0.10 l
0.19 -0.14 l
101.44 443.31 lineto
0.20 0.05 l
0.19 0.34 l
0.19 -0.05 l
0.19 -0.24 l
0.20 0.15 l
0.19 0.10 l
0.19 -0.10 l
0.19 0.24 l
0.19 -0.19 l
0.20 -0.15 l
0.19 0.29 l
0.19 0 l
0.19 0 l
0.20 -0.29 l
0.19 -0.19 l
0.19 0.34 l
0.19 -0.30 l
0.20 0.10 l
0.19 0.10 l
0.19 -0.29 l
0.19 0.10 l
0.20 0 l
0.19 0 l
0.19 0.24 l
0.19 -0.24 l
0.19 0.43 l
0.20 -0.39 l
0.19 -0.04 l
0.19 0.29 l
0.19 -0.34 l
0.20 0.19 l
0.19 -0.10 l
0.19 0.10 l
0.19 -0.19 l
0.20 0.10 l
0.19 -0.05 l
0.19 0 l
0.19 0.14 l
0.20 -0.19 l
0.19 0 l
0.19 0 l
0.19 0.05 l
0.19 0.09 l
0.20 -0.29 l
0.19 0.10 l
0.19 0.15 l
0.19 0.04 l
0.20 -0.09 l
0.19 0.14 l
0.19 -0.19 l
0.19 0.19 l
0.20 -0.09 l
0.19 0 l
0.19 0.14 l
0.19 0 l
0.20 -0.24 l
0.19 0.10 l
0.19 -0.05 l
0.19 -0.05 l
0.19 -0.05 l
0.20 -0.10 l
0.19 0.15 l
0.19 0.19 l
0.19 0 l
0.20 0.05 l
0.19 -0.14 l
0.19 0.24 l
0.19 -0.05 l
0.20 0 l
0.19 0.15 l
0.19 -0.05 l
0.19 -0.39 l
0.20 0.49 l
0.19 -0.39 l
0.19 0.19 l
0.19 -0.29 l
0.20 0.10 l
0.19 -0.10 l
0.19 0.10 l
0.19 0.10 l
0.19 0.14 l
0.20 -0.14 l
0.19 0 l
0.19 -0.15 l
0.19 0.05 l
0.20 0.05 l
0.19 -0.15 l
0.19 0.05 l
0.19 0 l
0.20 0.10 l
0.19 0.14 l
0.19 -0.14 l
0.19 0.10 l
0.20 0 l
0.19 -0.20 l
0.19 0.10 l
0.19 -0.15 l
0.19 0.10 l
0.20 -0.05 l
120.68 443.37 lineto
0.19 0.15 l
0.19 -0.15 l
0.20 0.24 l
0.19 -0.34 l
0.19 0 l
0.19 0.20 l
0.20 0.24 l
0.19 -0.29 l
0.19 -0.15 l
0.19 0.25 l
0.20 0.05 l
0.19 0 l
0.19 -0.20 l
0.19 0.05 l
0.19 -0.15 l
0.20 0.20 l
0.19 -0.15 l
0.19 0.15 l
0.19 -0.39 l
0.20 0.15 l
0.19 0.19 l
0.19 -0.15 l
0.19 0 l
0.20 0.10 l
0.19 0.05 l
0.19 -0.34 l
0.19 0.15 l
0.20 0.04 l
0.19 0.10 l
0.19 0.20 l
0.19 -0.34 l
0.19 0.19 l
0.20 0.10 l
0.19 0 l
0.19 -0.05 l
0.19 -0.24 l
0.20 0.14 l
0.19 0 l
0.19 -0.14 l
0.19 -0.05 l
0.20 0.29 l
0.19 0.05 l
0.19 -0.20 l
0.19 0.10 l
0.20 -0.19 l
0.19 0.14 l
0.19 0.10 l
0.19 0.05 l
0.19 0.05 l
0.20 0 l
0.19 -0.29 l
0.19 0.29 l
0.19 0 l
0.20 -0.15 l
0.19 0.05 l
0.19 0.15 l
0.19 -0.20 l
0.20 0.05 l
0.19 0.25 l
0.19 0 l
0.19 -0.25 l
0.20 -0.10 l
0.19 0 l
0.19 0.10 l
0.19 -0.05 l
0.19 0.10 l
0.20 0 l
0.19 -0.05 l
0.19 0.10 l
0.19 -0.10 l
0.20 0.39 l
0.19 -0.44 l
0.19 0.05 l
0.19 -0.24 l
0.20 0.15 l
0.19 -0.05 l
0.19 0.05 l
0.19 0.09 l
0.20 -0.05 l
0.19 -0.04 l
0.19 0.19 l
0.19 -0.34 l
0.20 0.39 l
0.19 -0.29 l
0.19 0 l
0.19 -0.10 l
0.19 -0.19 l
0.20 -1.17 l
0.19 1.41 l
0.19 0.88 l
0.19 2.48 l
0.20 3.07 l
0.19 3.12 l
0.19 1.65 l
0.19 0.59 l
0.20 -0.15 l
0.19 -0.29 l
0.19 -0.58 l
0.19 -0.35 l
139.92 453.12 lineto
0.19 -0.49 l
0.19 -0.29 l
0.19 -0.10 l
0.19 -0.09 l
0.20 -0.34 l
0.19 -0.35 l
0.19 0 l
0.19 -0.38 l
0.20 -0.15 l
0.19 -0.29 l
0.19 -0.20 l
0.19 0.15 l
0.20 -0.34 l
0.19 -0.10 l
0.19 -0.05 l
0.19 0.05 l
0.20 -0.10 l
0.19 -0.05 l
0.19 -0.14 l
0.19 -0.20 l
0.19 0 l
0.20 -0.09 l
0.19 -0.25 l
0.19 -0.05 l
0.19 0 l
0.20 -0.19 l
0.19 0.24 l
0.19 -0.05 l
0.19 -0.09 l
0.20 0.14 l
0.19 0.15 l
0.19 0.15 l
0.19 -0.05 l
0.20 0.24 l
0.19 0.10 l
0.19 0.05 l
0.19 0.29 l
0.19 0.54 l
0.20 -0.15 l
0.19 0.24 l
0.19 0.34 l
0.19 0.49 l
0.20 0.24 l
0.19 0.44 l
0.19 0.34 l
0.19 0.20 l
0.20 0.73 l
0.19 0.10 l
0.19 0.34 l
0.19 0.63 l
0.20 0.29 l
0.19 0.64 l
0.19 0.44 l
0.19 0.78 l
0.19 0.63 l
0.20 0.68 l
0.19 0.29 l
0.19 0.73 l
0.19 0.44 l
0.20 0.68 l
0.19 0.69 l
0.19 0.63 l
0.19 0.78 l
0.20 0.49 l
0.19 0.29 l
0.19 0.97 l
0.19 0.59 l
0.20 0.68 l
0.19 0.78 l
0.19 0.63 l
0.19 0.73 l
0.19 0.44 l
0.20 0.93 l
0.19 0.87 l
0.19 0.88 l
0.19 0.78 l
0.20 0.49 l
0.19 0.88 l
0.19 0.63 l
0.19 0.92 l
0.20 0.64 l
0.19 0.87 l
0.19 0.59 l
0.19 0.97 l
0.20 0.88 l
0.19 0.93 l
0.19 0.63 l
0.19 0.49 l
0.20 0.83 l
0.19 1.02 l
0.19 0.78 l
0.19 0.78 l
0.19 0.83 l
0.20 0.73 l
0.19 0.63 l
0.19 0.78 l
0.19 0.92 l
0.20 0.69 l
0.19 0.82 l
159.15 490.05 lineto
0.19 0.69 l
0.20 0.82 l
0.19 0.83 l
0.19 0.88 l
0.19 0.29 l
0.20 1.02 l
0.19 0.78 l
0.19 0.69 l
0.19 0.73 l
0.19 0.82 l
0.20 0.69 l
0.19 1.12 l
0.19 0.63 l
0.19 0.68 l
0.20 0.83 l
0.19 0.68 l
0.19 0.68 l
0.19 0.74 l
0.20 0.63 l
0.19 0.68 l
0.19 0.73 l
0.19 0.64 l
0.20 0.77 l
0.19 0.49 l
0.19 0.83 l
0.19 0.54 l
0.19 0.73 l
0.20 0.53 l
0.19 0.88 l
0.19 0.49 l
0.19 0.73 l
0.20 0.58 l
0.19 0.39 l
0.19 0.73 l
0.19 0.59 l
0.20 0.48 l
0.19 0.78 l
0.19 0.64 l
0.19 0.29 l
0.20 0.93 l
0.19 0.43 l
0.19 0.64 l
0.19 0.78 l
0.19 0.44 l
0.20 0.58 l
0.19 0.44 l
0.19 0.78 l
0.19 0.58 l
0.20 0.68 l
0.19 0.69 l
0.19 0.39 l
0.19 0.53 l
0.20 0.73 l
0.19 0.20 l
0.19 0.73 l
0.19 0.58 l
0.20 0.64 l
0.19 0.58 l
0.19 0.59 l
0.19 0.24 l
0.19 0.58 l
0.20 0.69 l
0.19 0.68 l
0.19 0.24 l
0.19 0.44 l
0.20 0.34 l
0.19 0.59 l
0.19 0.58 l
0.19 0.29 l
0.20 0.64 l
0.19 0.53 l
0.19 0.34 l
0.19 0.44 l
0.20 0.68 l
0.19 0.05 l
0.19 0.54 l
0.19 0.63 l
0.19 0.25 l
0.20 0.58 l
0.19 0.34 l
0.19 0.34 l
0.19 0.49 l
0.20 0.24 l
0.19 0.54 l
0.19 0.44 l
0.19 0.29 l
0.20 0.39 l
0.19 0.24 l
0.19 0.54 l
0.19 0.44 l
0.20 0.29 l
0.19 0.54 l
0.19 0.14 l
0.19 0.44 l
0.20 0.49 l
0.19 0.39 l
0.19 0.29 l
0.19 0.59 l
0.19 0.39 l
178.39 546.28 lineto
0.19 0.29 l
0.19 0.39 l
0.19 0.10 l
0.20 0.58 l
0.19 0.24 l
0.19 0.49 l
0.19 0.25 l
0.20 0.34 l
0.19 0.19 l
0.19 0.49 l
0.19 0.44 l
0.20 0.19 l
0.19 0.39 l
0.19 0.15 l
0.19 0.24 l
0.19 0.54 l
0.20 0.34 l
0.19 0.39 l
0.19 0.29 l
0.19 0.29 l
0.20 0.25 l
0.19 0.29 l
0.19 0.10 l
0.19 0.48 l
0.20 0.10 l
0.19 0.44 l
0.19 0.19 l
0.19 0 l
0.20 0.35 l
0.19 0.34 l
0.19 0.09 l
0.19 0.64 l
0.19 -0.10 l
0.20 0.39 l
0.19 0.05 l
0.19 0.29 l
0.19 0.25 l
0.20 0.09 l
0.19 0.05 l
0.19 0.25 l
0.19 0.63 l
0.20 0.05 l
0.19 0.44 l
0.19 0.04 l
0.19 0.35 l
0.20 0.48 l
0.19 0.15 l
0.19 0.19 l
0.19 0.15 l
0.19 0.10 l
0.20 0.68 l
0.19 0 l
0.19 0.15 l
0.19 0.29 l
0.20 0.29 l
0.19 0.29 l
0.19 0.30 l
0.19 0.09 l
0.20 0.44 l
0.19 0.15 l
0.19 -0.15 l
0.19 0.29 l
0.20 0.35 l
0.19 0.04 l
0.19 0.15 l
0.19 0.39 l
0.19 0 l
0.20 0.10 l
0.19 0.34 l
0.19 -0.05 l
0.19 0.39 l
0.20 -0.05 l
0.19 0.39 l
0.19 0.15 l
0.19 0.14 l
0.20 0.10 l
0.19 -0.10 l
0.19 0.15 l
0.19 0.34 l
0.20 0.24 l
0.19 -0.09 l
0.19 0.05 l
0.19 0.24 l
0.19 0.29 l
0.20 -0.05 l
0.19 0.34 l
0.19 0.30 l
0.19 0.19 l
0.20 0.15 l
0.19 0.19 l
0.19 0 l
0.19 0.34 l
0.20 -0.09 l
0.19 0.43 l
0.19 0.20 l
0.19 0.15 l
0.20 0.19 l
0.19 0.15 l
0.19 0 l
197.62 568.84 lineto
0.20 0.34 l
0.19 0 l
0.19 -0.10 l
0.19 0.34 l
0.19 0.10 l
0.20 -0.05 l
0.19 0.29 l
0.19 0.30 l
0.19 0.05 l
0.20 0.19 l
0.19 0.10 l
0.19 0.14 l
0.19 -0.14 l
0.20 0.29 l
0.19 0.05 l
0.19 0.29 l
0.19 -0.05 l
0.20 0.10 l
0.19 0.24 l
0.19 -0.09 l
0.19 0.05 l
0.19 0.19 l
0.20 0.15 l
0.19 0.29 l
0.19 0 l
0.19 -0.10 l
0.20 0.29 l
0.19 0.05 l
0.19 -0.05 l
0.19 0.15 l
0.20 0.10 l
0.19 0.05 l
0.19 0.19 l
0.19 0.20 l
0.20 0.14 l
0.19 0.10 l
0.19 0 l
0.19 0 l
0.19 0.05 l
0.20 0.24 l
0.19 0 l
0.19 0 l
0.19 -0.09 l
0.20 0.34 l
0.19 0.05 l
0.19 0.09 l
0.19 0 l
0.20 0.39 l
0.19 -0.34 l
0.19 0.20 l
0.19 0.14 l
0.20 0.15 l
0.19 -0.10 l
0.19 0.29 l
0.19 0.01 l
0.19 0 l
0.20 0.34 l
0.19 -0.30 l
0.19 0.25 l
0.19 0.24 l
0.20 -0.14 l
0.19 0.29 l
0.19 -0.10 l
0.19 -0.05 l
0.20 0 l
0.19 0.20 l
0.19 0.14 l
0.19 -0.09 l
0.20 0 l
0.19 0.19 l
0.19 0 l
0.19 0 l
0.19 0.20 l
0.20 -0.05 l
0.19 0.24 l
0.19 0.20 l
0.19 0.14 l
0.20 -0.14 l
0.19 -0.05 l
0.19 0 l
0.19 0.24 l
0.20 0.15 l
0.19 0 l
0.19 -0.15 l
0.19 0.20 l
0.20 0.04 l
0.19 0.05 l
0.19 -0.09 l
0.19 -0.05 l
0.19 0.09 l
0.20 0.20 l
0.19 -0.15 l
0.19 0.20 l
0.19 0 l
0.20 -0.10 l
0.19 0.29 l
0.19 0 l
0.19 0.15 l
0.20 -0.10 l
216.86 576.88 lineto
0.19 -0.14 l
0.19 0.44 l
0.20 -0.05 l
0.19 0 l
0.19 0.10 l
0.19 0.09 l
0.19 0.10 l
0.20 -0.15 l
0.19 0.20 l
0.19 -0.05 l
0.19 0.10 l
0.20 0.10 l
0.19 0.19 l
0.19 0.15 l
0.19 -0.20 l
0.20 0.20 l
0.19 0.09 l
0.19 -0.09 l
0.19 -0.10 l
0.20 0.19 l
0.19 -0.14 l
0.19 0.14 l
0.19 0.15 l
0.20 -0.05 l
0.19 -0.14 l
0.19 0.39 l
0.19 -0.15 l
0.19 -0.15 l
0.20 -0.04 l
0.19 -0.05 l
0.19 0.05 l
0.19 0.04 l
0.20 0.15 l
0.19 0.10 l
0.19 0 l
0.19 0.05 l
0.20 -0.30 l
0.19 -0.14 l
0.19 0.29 l
0.19 0 l
0.20 0.24 l
0.19 -0.04 l
0.19 0.09 l
0.19 -0.29 l
0.19 0.15 l
0.20 0.10 l
0.19 0.04 l
0.19 0 l
0.19 -0.04 l
0.20 0.29 l
0.19 0.14 l
0.19 -0.19 l
0.19 0.05 l
0.20 -0.15 l
0.19 0 l
0.19 0.25 l
0.19 0 l
0.20 0.19 l
0.19 0.24 l
0.19 0.05 l
0.19 -0.19 l
0.19 -0.10 l
0.20 -0.05 l
0.19 0.15 l
0.19 0 l
0.19 0 l
0.20 0.15 l
0.19 0.09 l
0.19 -0.19 l
0.19 0.10 l
0.20 0.04 l
0.19 0.05 l
0.19 0.05 l
0.19 -0.29 l
0.20 0.05 l
0.19 -0.15 l
0.19 0.29 l
0.19 0.10 l
0.19 -0.29 l
0.20 0.29 l
0.19 -0.19 l
0.19 0.24 l
0.19 -0.24 l
0.20 -0.10 l
0.19 -0.05 l
0.19 0.25 l
0.19 0.09 l
0.20 -0.19 l
0.19 -0.10 l
0.19 0.20 l
0.19 0 l
0.20 0.09 l
0.19 -0.19 l
0.19 0.19 l
0.19 0.05 l
0.19 0.05 l
0.20 -0.15 l
0.19 0.39 l
0.19 -0.09 l
236.09 579.91 lineto
0.20 0.05 l
0.19 -0.29 l
0.19 0.24 l
0.19 0.25 l
0.20 0 l
0.19 -0.15 l
0.19 -0.44 l
0.19 0.15 l
0.20 0.24 l
0.19 -0.10 l
0.19 0.05 l
0.19 0.25 l
0.19 -0.25 l
0.20 0.39 l
0.19 0 l
0.19 -0.14 l
0.19 -0.05 l
0.20 -0.10 l
0.19 0.39 l
0.19 -0.24 l
0.19 -0.10 l
0.20 -0.19 l
0.19 0.34 l
0.19 -0.20 l
0.19 0.20 l
0.20 -0.15 l
0.19 0.10 l
0.19 0 l
0.19 -0.10 l
0.20 0.10 l
0.19 -0.25 l
0.19 0.30 l
0.19 -0.05 l
0.19 0 l
0.20 0.10 l
0.19 -0.20 l
0.19 0.05 l
0.19 -0.10 l
0.20 -0.09 l
0.19 0.29 l
0.19 0.09 l
0.19 -0.14 l
0.20 0.05 l
0.19 0.14 l
0.19 -0.09 l
0.19 -0.15 l
0.20 -0.05 l
0.19 0.10 l
0.19 0 l
0.19 0.15 l
0.19 -0.30 l
0.20 -0.05 l
0.19 0.44 l
0.19 -0.05 l
0.19 0 l
0.20 0.10 l
0.19 0.15 l
0.19 -0.34 l
0.19 0.10 l
0.20 0 l
0.19 0.14 l
0.19 -0.10 l
0.19 0.15 l
0.20 -0.29 l
0.19 0.14 l
0.19 0 l
0.19 0.15 l
0.19 0 l
0.20 -0.10 l
0.19 0.05 l
0.19 0 l
0.19 -0.10 l
0.20 0.05 l
0.19 0.05 l
0.19 0.05 l
0.19 0 l
0.20 0.10 l
0.19 -0.15 l
0.19 0 l
0.19 0.15 l
0.20 -0.44 l
0.19 0.15 l
0.19 -0.10 l
0.19 -0.10 l
0.19 0.29 l
0.20 0.10 l
0.19 0.10 l
0.19 -0.20 l
0.19 -0.04 l
0.20 0.04 l
0.19 0.20 l
0.19 -0.15 l
0.19 -0.19 l
0.20 0.15 l
0.19 -0.15 l
0.19 -0.10 l
0.19 0.05 l
0.20 0.34 l
0.19 -0.10 l
255.33 580.46 lineto
0.19 -0.25 l
0.19 0.05 l
0.20 0.10 l
0.19 0 l
0.19 -0.10 l
0.19 0.24 l
0.20 0 l
0.19 -0.19 l
0.19 0.10 l
0.19 0.05 l
0.20 0.05 l
0.19 -0.25 l
0.19 0 l
0.19 0.25 l
0.20 0.09 l
0.19 0.05 l
0.19 -0.05 l
0.19 0.05 l
0.19 -0.05 l
0.20 -0.39 l
0.19 0.34 l
0.19 0.15 l
0.19 -0.05 l
0.20 0.05 l
0.19 -0.29 l
0.19 0.19 l
0.19 -0.14 l
0.20 0 l
0.19 0.63 l
0.19 -0.78 l
0.19 0.20 l
0.20 0.05 l
0.19 -0.25 l
0.19 0.15 l
0.19 -0.10 l
0.20 -0.05 l
0.19 0.05 l
0.19 -0.39 l
0.19 0.34 l
0.19 -0.24 l
0.20 0.34 l
0.19 0.05 l
0.19 -0.05 l
0.19 0 l
0.20 0.10 l
0.19 0.05 l
0.19 -0.05 l
0.19 -0.05 l
0.20 0.05 l
0.19 0.14 l
0.19 -0.24 l
0.19 0 l
0.20 0 l
0.19 0.10 l
0.19 -0.10 l
0.19 -0.19 l
0.19 0.34 l
0.20 -0.05 l
0.19 -0.10 l
0.19 0.05 l
0.19 0 l
0.20 0.05 l
0.19 -0.10 l
0.19 0.10 l
0.19 0.05 l
0.20 0.05 l
0.19 0.14 l
0.19 -0.09 l
0.19 -0.10 l
0.20 -0.15 l
0.19 0.15 l
0.19 0.14 l
0.19 0.05 l
0.19 0.05 l
0.20 -0.44 l
0.19 0.10 l
0.19 -0.05 l
0.19 -0.09 l
0.20 0.04 l
0.19 0.30 l
0.19 -0.10 l
0.19 -0.20 l
0.20 0.10 l
0.19 0.10 l
0.19 -0.15 l
0.19 0 l
0.20 0.10 l
0.19 -0.14 l
0.19 0.09 l
0.19 0.15 l
0.19 -0.20 l
0.20 0.10 l
0.19 -0.24 l
0.19 0.14 l
0.19 -0.14 l
0.20 -0.10 l
0.19 0.15 l
0.19 0.14 l
0.19 -0.05 l
currentpoint o m
274.57 580.41 lineto
0.19 0.10 l
0.19 -0.05 l
0.19 0.10 l
0.20 -0.15 l
0.19 0.20 l
0.19 -0.05 l
0.19 -0.10 l
0.19 0.20 l
0.20 -0.20 l
0.19 0 l
0.19 0.15 l
0.19 -0.24 l
0.20 0.09 l
0.19 0 l
0.19 -0.24 l
0.19 0.29 l
0.20 -0.29 l
0.19 0 l
0.19 0.15 l
0.19 -0.05 l
0.20 0.05 l
0.19 0 l
0.19 -0.05 l
0.19 -0.05 l
0.19 -0.05 l
0.20 0.15 l
0.19 -0.10 l
0.19 0.15 l
0.19 -0.34 l
0.20 -0.10 l
0.19 0.34 l
0.19 0.05 l
0.19 -0.15 l
0.20 0 l
0.19 -0.05 l
0.19 -0.24 l
0.19 0.15 l
0.20 -0.15 l
0.19 0 l
0.19 0.05 l
0.19 0 l
0.20 0.05 l
0.19 0 l
0.19 -0.05 l
0.19 0.29 l
0.19 -0.05 l
0.20 0.05 l
0.19 0 l
0.19 0.15 l
0.19 0.05 l
0.20 -0.10 l
0.19 0.15 l
0.19 -0.10 l
0.19 0.10 l
0.20 0.09 l
0.19 -0.14 l
0.19 0.05 l
0.19 -0.20 l
0.20 0.25 l
0.19 -0.30 l
0.19 0.15 l
0.19 -0.10 l
0.19 -0.19 l
0.20 0.09 l
0.19 -0.09 l
0.19 0.24 l
0.19 -0.19 l
0.20 -0.05 l
0.19 0.10 l
0.19 -0.05 l
0.19 0 l
0.20 -0.05 l
0.19 0.10 l
0.19 0.34 l
0.19 -0.05 l
0.20 -0.29 l
0.19 0.14 l
0.19 -0.19 l
0.19 0.19 l
0.19 -0.10 l
0.20 0 l
0.19 0.10 l
0.19 -0.10 l
0.19 -0.09 l
0.20 -0.15 l
0.19 -0.05 l
0.19 0.39 l
0.19 -0.14 l
0.20 0 l
0.19 0.14 l
0.19 -0.14 l
0.19 -0.10 l
0.20 0 l
0.19 0.19 l
0.19 -0.29 l
0.19 0.25 l
0.19 -0.25 l
0.20 0.20 l
0.19 0 l
293.80 580.08 lineto
0.19 0.05 l
0.20 0.05 l
0.19 -0.05 l
0.19 0.39 l
0.19 -0.34 l
0.20 0.05 l
0.19 0 l
0.19 0.05 l
0.19 -0.34 l
0.20 0.09 l
0.19 0.20 l
0.19 0.10 l
0.19 0 l
0.19 -0.20 l
0.20 -0.05 l
0.19 -0.24 l
0.19 0.19 l
0.19 0.20 l
0.20 -0.24 l
0.19 -0.05 l
0.19 0.09 l
0.19 -0.19 l
0.20 0.34 l
0.19 -0.10 l
0.19 -0.14 l
0.19 0.09 l
0.20 0.20 l
0.19 -0.24 l
0.19 0 l
0.19 0.04 l
0.19 -0.04 l
0.20 0.43 l
0.19 -0.19 l
0.19 -0.19 l
0.19 0.09 l
0.20 -0.24 l
0.19 0.10 l
0.19 0 l
0.19 0.09 l
0.20 0 l
0.19 0.44 l
0.19 -0.34 l
0.19 0 l
0.20 -0.34 l
0.19 0.29 l
0.19 0 l
0.19 -0.05 l
0.20 0.10 l
0.19 -0.24 l
0.19 0.19 l
0.19 -0.09 l
0.19 0.14 l
0.20 -0.14 l
0.19 -0.30 l
0.19 0.05 l
0.19 0.20 l
0.20 0 l
0.19 0 l
0.19 -0.20 l
0.19 0.20 l
0.20 -0.05 l
0.19 0.15 l
0.19 -0.05 l
0.19 -0.05 l
0.20 0.19 l
0.19 -0.14 l
0.19 0 l
0.19 0.05 l
0.19 0.09 l
0.20 0 l
0.19 -0.14 l
0.19 0.05 l
0.19 -0.10 l
0.20 0.19 l
0.19 -0.19 l
0.19 0 l
0.19 0.19 l
0.20 -0.14 l
0.19 0 l
0.19 0.05 l
0.19 -0.25 l
0.20 0.10 l
0.19 -0.19 l
0.19 -0.15 l
0.19 0.34 l
0.19 -0.14 l
0.20 0.19 l
0.19 -0.10 l
0.19 0 l
0.19 -0.05 l
0.20 0.25 l
0.19 -0.25 l
0.19 -0.29 l
0.19 0.20 l
0.20 0.10 l
0.19 -0.15 l
0.19 0.24 l
0.19 -0.34 l
0.20 0.34 l
313.04 579.99 lineto
0.19 0 l
0.19 -0.05 l
0.19 -0.14 l
0.20 0.48 l
0.19 -0.43 l
0.19 -0.05 l
0.19 0.19 l
0.20 -0.19 l
0.19 0.09 l
0.19 0.05 l
0.19 -0.14 l
0.20 0.10 l
0.19 0.14 l
0.19 0.05 l
0.19 -0.10 l
0.20 0.25 l
0.19 -0.34 l
0.19 0.19 l
0.19 -0.10 l
0.19 -0.05 l
0.20 -0.19 l
0.19 0.05 l
0.19 -0.10 l
0.19 0 l
0.20 0.15 l
0.19 0 l
0.19 0.05 l
0.19 -0.15 l
0.20 0.05 l
0.19 -0.05 l
0.19 0.39 l
0.19 -0.39 l
0.20 0.10 l
0.19 0 l
0.19 -0.20 l
0.19 0.05 l
0.19 0 l
0.20 0.15 l
0.19 0.14 l
0.19 0.05 l
0.19 -0.39 l
0.20 0 l
0.19 0.30 l
0.19 -0.25 l
0.19 -0.09 l
0.20 -0.10 l
0.19 0.14 l
0.19 0.20 l
0.19 -0.24 l
0.20 0 l
0.19 0.19 l
0.19 -0.10 l
0.19 -0.14 l
0.20 0.19 l
0.19 0.05 l
0.19 0 l
0.19 0.24 l
0.19 -0.29 l
0.20 0.10 l
0.19 -0.15 l
0.19 0.10 l
0.19 0.05 l
0.20 -0.15 l
0.19 -0.14 l
0.19 -0.05 l
0.19 0.05 l
0.20 0.44 l
0.19 -0.05 l
0.19 -0.39 l
0.19 0.19 l
0.20 -0.09 l
0.19 0 l
0.19 0.14 l
0.19 -0.19 l
0.19 0 l
0.20 0.05 l
0.19 0 l
0.19 -0.15 l
0.19 0.10 l
0.20 -0.29 l
0.19 0.09 l
0.19 0 l
0.19 -0.09 l
0.20 0.14 l
0.19 -0.10 l
0.19 -0.04 l
0.19 0.09 l
0.20 0.05 l
0.19 -0.19 l
0.19 -0.25 l
0.19 -0.09 l
0.19 0.29 l
0.20 0.10 l
0.19 0.14 l
0.19 -0.14 l
0.19 0.05 l
0.20 0.09 l
0.19 -0.14 l
0.19 0.14 l
332.27 579.32 lineto
0.20 0.14 l
0.19 -0.05 l
0.19 -0.09 l
0.19 0.19 l
0.20 -0.14 l
0.19 -0.10 l
0.19 0.24 l
0.19 -0.09 l
0.19 0.04 l
0.20 0.20 l
0.19 -0.20 l
0.19 0 l
0.19 0 l
0.20 0.20 l
0.19 0.05 l
0.19 -0.29 l
0.19 0 l
0.20 0.14 l
0.19 0 l
0.19 0.05 l
0.19 -0.19 l
0.20 0.39 l
0.19 -0.39 l
0.19 0.14 l
0.19 -0.09 l
0.19 0.19 l
0.20 -0.34 l
0.19 -0.15 l
0.19 0.49 l
0.19 -0.29 l
0.20 0.14 l
0.19 0 l
0.19 -0.19 l
0.19 0.19 l
0.20 0.10 l
0.19 -0.19 l
0.19 -0.05 l
0.19 -0.05 l
0.20 0 l
0.19 -0.15 l
0.19 0.05 l
0.19 -0.19 l
0.19 0.14 l
0.20 0.54 l
0.19 -0.29 l
0.19 0.05 l
0.19 0.05 l
0.20 -0.20 l
0.19 0.05 l
0.19 -0.15 l
0.19 -0.04 l
0.20 0 l
0.19 0.09 l
0.19 0.20 l
0.19 -0.15 l
0.20 0.10 l
0.19 0.15 l
0.19 -0.10 l
0.19 -0.05 l
0.19 0.15 l
0.20 -0.30 l
0.19 0 l
0.19 0.05 l
0.19 -0.05 l
0.20 0.05 l
0.19 -0.14 l
0.19 0.19 l
0.19 -0.14 l
0.20 0.34 l
0.19 -0.10 l
0.19 -0.34 l
0.19 0 l
0.20 0.34 l
0.19 -0.24 l
0.19 -0.15 l
0.19 0.19 l
0.20 0.20 l
0.19 -0.24 l
0.19 0.04 l
0.19 -0.04 l
0.19 0.04 l
0.20 -0.14 l
0.19 0.19 l
0.19 -0.04 l
0.19 0.24 l
0.20 -0.24 l
0.19 0.04 l
0.19 0.30 l
0.19 -0.25 l
0.20 -0.24 l
0.19 0 l
0.19 0.24 l
0.19 0 l
0.20 -0.05 l
0.19 0 l
0.19 0.10 l
0.19 0 l
0.19 -0.29 l
0.20 0.05 l
351.51 579.18 lineto
0.19 -0.15 l
0.19 0.39 l
0.20 -0.24 l
0.19 -0.05 l
0.19 -0.05 l
0.19 -0.05 l
0.20 0 l
0.19 0.10 l
0.19 0.10 l
0.19 -0.05 l
0.20 0.10 l
0.19 -0.15 l
0.19 0.05 l
0.19 0 l
0.19 0.15 l
0.20 -0.10 l
0.19 -0.15 l
0.19 0.25 l
0.19 0 l
0.20 -0.44 l
0.19 0.34 l
0.19 -0.15 l
0.19 0.10 l
0.20 0.10 l
0.19 -0.10 l
0.19 0.34 l
0.19 -0.19 l
0.20 0.09 l
0.19 -0.14 l
0.19 -0.15 l
0.19 0.25 l
0.19 -0.34 l
0.20 0.04 l
0.19 0.05 l
0.19 -0.24 l
0.19 0.19 l
0.20 0.05 l
0.19 -0.14 l
0.19 0.09 l
0.19 0.05 l
0.20 -0.09 l
0.19 0.09 l
0.19 0 l
0.19 -0.29 l
0.20 0.39 l
0.19 0.05 l
0.19 -0.15 l
0.19 0.05 l
0.19 0.10 l
0.20 -0.05 l
0.19 0 l
0.19 0 l
0.19 -0.14 l
0.20 0.14 l
0.19 -0.10 l
0.19 0 l
0.19 0.10 l
0.20 -0.24 l
0.19 0.10 l
0.19 -0.05 l
0.19 0.19 l
0.20 -0.14 l
0.19 0.05 l
0.19 0.14 l
0.19 -0.14 l
0.19 0.04 l
0.20 -0.04 l
0.19 0.09 l
0.19 -0.34 l
0.19 0.05 l
0.20 0.20 l
0.19 -0.20 l
0.19 -0.05 l
0.19 0.10 l
0.20 -0.20 l
0.19 0.01 l
0.19 0 l
0.19 -0.05 l
0.20 0.29 l
0.19 -0.44 l
0.19 0.15 l
0.19 0.14 l
0.20 0.15 l
0.19 -0.20 l
0.19 -0.09 l
0.19 0.05 l
0.19 -0.10 l
0.20 -0.05 l
0.19 0.05 l
0.19 0.34 l
0.19 -0.20 l
0.20 -0.04 l
0.19 0.09 l
0.19 0.15 l
0.19 -0.44 l
0.20 0.39 l
0.19 -0.24 l
0.19 0.19 l
0.19 -0.14 l
370.75 579.14 lineto
0.19 -0.25 l
0.19 -0.09 l
0.19 0.29 l
0.19 0.05 l
0.20 -0.10 l
0.19 -0.05 l
0.19 -0.10 l
0.19 0 l
0.20 -0.04 l
0.19 0 l
0.19 0 l
0.19 0.19 l
0.20 -0.24 l
0.19 0.10 l
0.19 0.14 l
0.19 0 l
0.20 0 l
0.19 0.10 l
0.19 -0.34 l
0.19 0.19 l
0.19 0.34 l
0.20 -0.58 l
0.19 0.34 l
0.19 -0.15 l
0.19 -0.19 l
0.20 0.05 l
0.19 -0.24 l
0.19 0.14 l
0.19 0.10 l
0.20 -0.15 l
0.19 0.10 l
0.19 -0.05 l
0.19 -0.24 l
0.20 0.10 l
0.19 -0.10 l
0.19 0.29 l
0.19 0 l
0.19 -0.29 l
0.20 0.10 l
0.19 0.14 l
0.19 -0.29 l
0.19 -0.05 l
0.20 0.15 l
0.19 -0.15 l
0.19 0.34 l
0.19 0.15 l
0.20 -0.05 l
0.19 -0.05 l
0.19 0.05 l
0.19 -0.05 l
0.20 -0.10 l
0.19 0.15 l
0.19 -0.29 l
0.19 0.19 l
0.19 0.34 l
0.20 -0.24 l
0.19 0.10 l
0.19 -0.20 l
0.19 0.05 l
0.20 0.05 l
0.19 -0.05 l
0.19 0.05 l
0.19 -0.05 l
0.20 0.05 l
0.19 0 l
0.19 -0.10 l
0.19 0.20 l
0.20 0 l
0.19 0 l
0.19 0.05 l
0.19 0.19 l
0.19 0 l
0.20 -0.14 l
0.19 0.14 l
0.19 -0.05 l
0.19 0.01 l
0.20 -0.30 l
0.19 0.25 l
0.19 -0.30 l
0.19 0.10 l
0.20 0.15 l
0.19 -0.25 l
0.19 0.30 l
0.19 0 l
0.20 -0.10 l
0.19 -0.05 l
0.19 -0.19 l
0.19 -0.05 l
0.20 0.05 l
0.19 0 l
0.19 0.14 l
0.19 0.20 l
0.19 0.05 l
0.20 -0.25 l
0.19 0.05 l
0.19 -0.10 l
0.19 -0.24 l
0.20 0.05 l
0.19 0 l
389.98 578.85 lineto
0.19 -0.29 l
0.20 0 l
0.19 0.10 l
0.19 -0.05 l
0.19 -0.24 l
0.20 0.24 l
0.19 0.05 l
0.19 -0.15 l
0.19 0.34 l
0.19 -0.09 l
0.20 0.09 l
0.19 -0.19 l
0.19 0.05 l
0.19 0.10 l
0.20 0 l
0.19 0 l
0.19 -0.25 l
0.19 0.15 l
0.20 0.05 l
0.19 -0.15 l
0.19 0.05 l
0.19 0.05 l
0.20 -0.20 l
0.19 0.30 l
0.19 0.05 l
0.19 0 l
0.19 -0.10 l
0.20 0 l
0.19 0.19 l
0.19 0.20 l
0.19 -0.25 l
0.20 -0.09 l
0.19 0.09 l
0.19 -0.04 l
0.19 0 l
0.20 0.19 l
0.19 -0.34 l
0.19 -0.15 l
0.19 0.10 l
0.20 0 l
0.19 0 l
0.19 0.05 l
0.19 -0.15 l
0.19 -0.14 l
0.20 0.14 l
0.19 0 l
0.19 -0.14 l
0.19 0.10 l
0.20 0.04 l
0.19 -0.19 l
0.19 0.10 l
0.19 0.29 l
0.20 -0.15 l
0.19 0.05 l
0.19 -0.39 l
0.19 0.15 l
0.20 0.15 l
0.19 -0.10 l
0.19 0.29 l
0.19 -0.05 l
0.19 -0.34 l
0.20 0.34 l
0.19 -0.05 l
0.19 -0.14 l
0.19 -0.05 l
0.20 0.24 l
0.19 0.05 l
0.19 -0.10 l
0.19 0.10 l
0.20 -0.10 l
0.19 -0.14 l
0.19 0.14 l
0.19 0.10 l
0.20 -0.10 l
0.19 0.25 l
0.19 -0.10 l
0.19 -0.10 l
0.19 -0.05 l
0.20 0.10 l
0.19 -0.14 l
0.19 0.04 l
0.19 0.20 l
0.20 -0.34 l
0.19 0 l
0.19 0.10 l
0.19 0.09 l
0.20 -0.24 l
0.19 0.20 l
0.19 -0.10 l
0.19 -0.05 l
0.20 0 l
0.19 0 l
0.19 0.05 l
0.19 -0.15 l
0.20 -0.05 l
0.19 -0.34 l
0.19 0.44 l
0.19 0.05 l
0.19 -0.10 l
409.22 578.37 lineto
0.19 0.10 l
0.19 -0.14 l
0.19 -0.15 l
0.20 0.19 l
0.19 -0.09 l
0.19 0.19 l
0.19 -0.10 l
0.20 0.10 l
0.19 0.10 l
0.19 -0.24 l
0.19 0 l
0.20 -0.05 l
0.19 0.05 l
0.19 -0.05 l
0.19 -0.15 l
0.19 0.25 l
0.20 0.14 l
0.19 -0.10 l
0.19 0.15 l
0.19 0 l
0.20 0.15 l
0.19 -0.05 l
0.19 -0.15 l
0.19 0.10 l
0.20 -0.05 l
0.19 0.15 l
0.19 -0.25 l
0.19 -0.05 l
0.20 0.05 l
0.19 0.05 l
0.19 0.05 l
0.19 -0.39 l
0.19 0.39 l
0.20 0.10 l
0.19 -0.24 l
0.19 -0.10 l
0.19 0.29 l
0.20 -0.19 l
0.19 -0.05 l
0.19 0.19 l
0.19 0.34 l
0.20 -0.44 l
0.19 0.05 l
0.19 0.25 l
0.19 -0.34 l
0.20 -0.05 l
0.19 -0.10 l
0.19 0 l
0.19 -0.24 l
0.19 0 l
0.20 0.24 l
0.19 0.10 l
0.19 -0.20 l
0.19 -0.19 l
0.20 0.14 l
0.19 0.20 l
0.19 -0.05 l
0.19 -0.10 l
0.20 0.05 l
0.19 -0.05 l
0.19 0.15 l
0.19 -0.05 l
0.20 0 l
0.19 0.20 l
0.19 -0.05 l
0.19 -0.10 l
0.19 -0.10 l
0.20 0.15 l
0.19 -0.20 l
0.19 0.35 l
0.19 -0.35 l
0.20 0.15 l
0.19 -0.05 l
0.19 -0.19 l
0.19 0.09 l
0.20 -0.19 l
0.19 0.05 l
0.19 -0.05 l
0.19 0.20 l
0.20 0 l
0.19 -0.05 l
0.19 0.19 l
0.19 -0.05 l
0.19 -0.05 l
0.20 -0.09 l
0.19 0.05 l
0.19 -0.20 l
0.19 -0.19 l
0.20 0.19 l
0.19 0 l
0.19 -0.29 l
0.19 0.29 l
0.20 0 l
0.19 0.10 l
0.19 0.19 l
0.19 -0.09 l
0.20 -0.25 l
0.19 0.10 l
0.19 0.20 l
428.45 578.24 lineto
0.20 0.04 l
0.19 0.05 l
0.19 0.05 l
0.19 -0.05 l
0.19 0.10 l
0.20 0.05 l
0.19 -0.39 l
0.19 0.34 l
0.19 -0.24 l
0.20 0.09 l
0.19 0.05 l
0.19 0 l
0.19 -0.04 l
0.20 -0.10 l
0.19 0.19 l
0.19 -0.19 l
0.19 -0.29 l
0.20 0.24 l
0.19 0.10 l
0.19 0.14 l
0.19 -0.19 l
0.19 -0.05 l
0.20 0.05 l
0.19 0.24 l
0.19 0.10 l
0.19 -0.20 l
0.20 0.10 l
0.19 0.10 l
0.19 -0.34 l
0.19 0 l
0.20 0.10 l
0.19 -0.20 l
0.19 0 l
0.19 0.15 l
0.20 0.05 l
0.19 -0.15 l
0.19 0.05 l
0.19 -0.15 l
0.19 0 l
0.20 0.10 l
0.19 -0.19 l
0.19 0.05 l
0.19 0.14 l
0.20 -0.14 l
0.19 0.19 l
0.19 -0.19 l
0.19 0.14 l
0.20 0.34 l
0.19 -0.39 l
0.19 0.10 l
0.19 0.15 l
0.20 -0.10 l
0.19 -0.10 l
0.19 0.15 l
0.19 0.10 l
0.19 -0.25 l
0.20 0.25 l
0.19 -0.05 l
0.19 -0.10 l
0.19 0 l
0.20 -0.10 l
0.19 0.15 l
0.19 0 l
0.19 0.05 l
0.20 0.05 l
0.19 -0.34 l
0.19 0.24 l
0.19 -0.05 l
0.20 0.20 l
0.19 0.09 l
0.19 -0.19 l
0.19 -0.05 l
0.19 -0.10 l
0.20 0.10 l
0.19 -0.19 l
0.19 0.04 l
0.19 -0.04 l
0.20 0.19 l
0.19 -0.05 l
0.19 -0.29 l
0.19 0.15 l
0.20 0.09 l
0.19 0.15 l
0.19 -0.15 l
0.19 0.05 l
0.20 -0.05 l
0.19 -0.19 l
0.19 0.14 l
0.19 0 l
0.19 -0.19 l
0.20 0.34 l
0.19 -0.19 l
0.19 0.24 l
0.19 -0.10 l
0.20 -0.14 l
0.19 0.05 l
0.19 -0.10 l
0.19 0.10 l
0.20 -0.30 l
447.69 577.80 lineto
0.19 0.35 l
0.19 0 l
0.20 -0.10 l
0.19 -0.05 l
0.19 0.19 l
0.19 -0.14 l
0.20 0 l
0.19 -0.10 l
0.19 0.25 l
0.19 0 l
0.19 -0.05 l
0.20 0.05 l
0.19 0.04 l
0.19 0.10 l
0.19 -0.34 l
0.20 0.39 l
0.19 -0.15 l
0.19 -0.04 l
0.19 0 l
0.20 0 l
0.19 0 l
0.19 -0.10 l
0.19 0.10 l
0.20 -0.05 l
0.19 0 l
0.19 0 l
0.19 0.24 l
0.19 -0.14 l
0.20 0 l
0.19 -0.05 l
0.19 0 l
0.19 -0.15 l
0.20 0.10 l
0.19 -0.15 l
0.19 0.10 l
0.19 -0.15 l
0.20 -0.14 l
0.19 0.29 l
0.19 0.10 l
0.19 -0.10 l
0.20 -0.15 l
0.19 0.20 l
0.19 -0.24 l
0.19 0 l
0.19 -0.20 l
0.20 0 l
0.19 0.34 l
0.19 -0.19 l
0.19 0 l
0.20 -0.05 l
0.19 -0.05 l
0.19 0 l
0.19 0.34 l
0.20 -0.10 l
0.19 -0.09 l
0.19 0.19 l
0.19 -0.14 l
0.20 0.14 l
0.19 -0.14 l
0.19 0.04 l
0.19 0.30 l
0.19 -0.15 l
0.20 0.05 l
0.19 -0.15 l
0.19 -0.09 l
0.19 0.19 l
0.20 -0.10 l
0.19 0.15 l
0.19 0.10 l
0.19 -0.15 l
0.20 0.10 l
0.19 -0.29 l
0.19 0.53 l
0.19 -0.19 l
0.20 -0.25 l
0.19 0.15 l
0.19 -0.05 l
0.19 -0.29 l
0.19 0.29 l
0.20 0 l
0.19 -0.10 l
0.19 -0.14 l
0.19 0.19 l
0.20 -0.05 l
0.19 0.05 l
0.19 0 l
0.19 0 l
0.20 -0.14 l
0.19 -0.20 l
0.19 0.15 l
0.19 0 l
0.20 0 l
0.19 -0.10 l
0.19 -0.14 l
0.19 0.14 l
0.19 -0.39 l
0.20 0.39 l
0.19 -0.14 l
0.19 0.14 l
currentpoint o m
466.92 577.67 lineto
0.20 -0.05 l
0.19 0.10 l
0.19 0.24 l
0.19 -0.05 l
0.20 -0.10 l
0.19 0.05 l
0.19 0.15 l
0.19 -0.10 l
0.20 -0.24 l
0.19 0.24 l
0.19 0 l
0.19 -0.05 l
0.19 0.20 l
0.20 -0.10 l
0.19 -0.29 l
0.19 0.09 l
0.19 0.25 l
0.20 0.19 l
0.19 -0.19 l
0.19 -0.15 l
0.19 0.25 l
0.20 -0.25 l
0.19 0.15 l
0.19 0.10 l
0.19 -0.20 l
0.20 -0.19 l
0.19 0.14 l
0.19 0.05 l
0.19 0.05 l
0.20 0.10 l
0.19 -0.20 l
0.19 0.05 l
0.19 -0.05 l
0.19 0.15 l
0.20 0 l
0.19 -0.19 l
0.19 0.09 l
0.19 -0.19 l
0.20 -0.15 l
0.19 -0.14 l
0.19 0.04 l
0.19 0.10 l
0.20 0.29 l
0.19 -0.19 l
0.19 -0.20 l
0.19 0.25 l
0.20 -0.10 l
0.19 0.15 l
0.19 0.05 l
0.19 -0.10 l
0.19 0.15 l
0.20 -0.20 l
0.19 0 l
0.19 -0.19 l
0.19 0.24 l
0.20 -0.10 l
0.19 0.29 l
0.19 -0.19 l
0.19 0.19 l
0.20 0 l
0.19 -0.19 l
0.19 -0.10 l
0.19 0.10 l
0.20 0 l
0.19 -0.10 l
0.19 0.15 l
0.19 0.15 l
0.19 -0.15 l
0.20 -0.24 l
0.19 0.04 l
0.19 0.35 l
0.19 0 l
0.20 -0.20 l
0.19 0.20 l
0.19 -0.05 l
0.19 0.14 l
0.20 -0.19 l
0.19 -0.15 l
0.19 0.05 l
0.19 -0.14 l
0.20 0.14 l
0.19 0.20 l
0.19 0 l
0.19 0.05 l
0.19 -0.25 l
0.20 0.20 l
0.19 -0.05 l
0.19 0.14 l
0.19 -0.04 l
0.20 -0.05 l
0.19 0.09 l
0.19 -0.14 l
0.19 0 l
0.20 0 l
0.19 -0.15 l
0.19 -0.05 l
0.19 0.05 l
0.20 -0.09 l
0.19 0.14 l
486.16 577.58 lineto
0.19 0.19 l
0.19 -0.10 l
0.20 0.25 l
0.19 -0.05 l
0.19 -0.05 l
0.19 0.10 l
0.20 -0.25 l
0.19 0 l
0.19 0.05 l
0.19 -0.05 l
0.20 0.05 l
0.19 -0.19 l
0.19 0.05 l
0.19 0 l
0.20 -0.15 l
0.19 0.05 l
0.19 0.44 l
0.19 0 l
0.19 -0.44 l
0.20 0.29 l
0.19 -0.29 l
0.19 0.15 l
0.19 0.05 l
0.20 0.19 l
0.19 -0.15 l
0.19 0.35 l
0.19 -0.10 l
0.20 -0.20 l
0.19 -0.24 l
0.19 0.34 l
0.19 -0.19 l
0.20 0.19 l
0.19 0.05 l
0.19 0.05 l
0.19 0.15 l
0.20 -0.15 l
0.19 -0.24 l
0.19 -0.15 l
0.19 0.15 l
0.19 0.04 l
0.20 0.05 l
0.19 -0.09 l
0.19 0.14 l
0.19 -0.24 l
0.20 0.10 l
0.19 0.09 l
0.19 0.05 l
0.19 -0.24 l
0.20 -0.10 l
0.19 0.29 l
0.19 -0.09 l
0.19 0.24 l
0.20 -0.24 l
0.19 -0.05 l
0.19 0.19 l
0.19 -0.34 l
0.19 0.25 l
0.20 -0.05 l
0.19 -0.15 l
0.19 0.20 l
0.19 -0.20 l
0.20 -0.10 l
0.19 0 l
0.19 0.05 l
0.19 0.15 l
0.20 0.10 l
0.19 0.24 l
0.19 -0.29 l
0.19 0.24 l
0.20 0 l
0.19 -0.14 l
0.19 0.19 l
0.19 -0.10 l
0.19 -0.09 l
0.20 0.04 l
0.19 0.05 l
0.19 -0.24 l
0.19 0.15 l
0.20 -0.05 l
0.19 -0.10 l
0.19 0 l
0.19 -0.05 l
0.20 0.15 l
0.19 0.14 l
0.19 0.30 l
0.19 -0.34 l
0.20 0.04 l
0.19 -0.04 l
0.19 0 l
0.19 -0.15 l
0.19 -0.15 l
0.20 0.10 l
0.19 0.05 l
0.19 0.29 l
0.19 -0.19 l
0.20 -0.05 l
0.19 -0.20 l
0.19 0.20 l
0.19 -0.20 l
505.40 577.49 lineto
0.19 0.09 l
0.19 -0.19 l
0.19 -0.15 l
0.20 -0.05 l
0.19 -0.14 l
0.19 0.68 l
0.19 -0.10 l
0.19 0.15 l
0.20 0 l
0.19 0.05 l
0.19 -0.05 l
0.19 0.10 l
0.20 -0.05 l
0.19 0.15 l
0.19 -0.05 l
0.19 -0.20 l
0.20 0.15 l
0.19 -0.15 l
0.19 -0.05 l
0.19 0.25 l
0.20 -0.15 l
0.19 0.10 l
0.19 0.05 l
0.19 -0.15 l
0.19 0 l
0.20 0.10 l
0.19 -0.10 l
0.19 -0.14 l
0.19 0.09 l
0.20 0.05 l
0.19 -0.29 l
0.19 -0.15 l
0.19 0.49 l
0.20 -0.05 l
0.19 -0.10 l
0.19 0.05 l
0.19 -0.14 l
0.20 0.09 l
0.19 -0.14 l
0.19 -0.10 l
0.19 0 l
0.20 0.34 l
0.19 -0.29 l
0.19 0.10 l
0.19 -0.34 l
0.19 0.09 l
0.20 0.10 l
0.19 -0.10 l
0.19 0.25 l
0.19 -0.15 l
0.20 0 l
0.19 0.20 l
0.19 -0.20 l
0.19 -0.10 l
0.20 -0.09 l
0.19 0.34 l
0.19 0.29 l
0.19 -0.19 l
0.20 -0.10 l
0.19 0.05 l
0.19 -0.05 l
0.19 0.15 l
0.19 0.04 l
0.20 -0.14 l
0.19 0.05 l
0.19 0.09 l
0.19 -0.09 l
0.20 0.14 l
0.19 -0.14 l
0.19 0.24 l
0.19 -0.05 l
0.20 0.05 l
0.19 0 l
0.19 -0.15 l
0.19 -0.04 l
0.20 -0.20 l
0.19 0.15 l
0.19 -0.10 l
0.19 0 l
0.19 -0.10 l
0.20 0.20 l
0.19 0 l
0.19 -0.10 l
0.19 0.05 l
0.20 -0.10 l
0.19 -0.19 l
0.19 0.24 l
0.19 -0.29 l
0.20 -0.10 l
0.19 -0.05 l
0.19 0.05 l
0.19 0.15 l
0.20 0.14 l
0.19 0.10 l
0.19 -0.14 l
0.19 0.04 l
0.19 -0.04 l
0.20 0 l
0.19 0.04 l
524.63 577.49 lineto
0.19 -0.09 l
0.20 0.14 l
0.19 -0.05 l
0.19 0.10 l
0.19 0.15 l
0.20 -0.20 l
0.19 0.15 l
0.19 -0.05 l
0.19 0.20 l
0.20 -0.34 l
0.19 -0.05 l
0.19 0.14 l
0.19 0.20 l
0.19 -0.10 l
0.20 0.05 l
0.19 -0.20 l
0.19 0.25 l
0.19 -0.10 l
0.20 -0.15 l
0.19 0.15 l
0.19 -0.19 l
0.19 0.19 l
0.20 -0.14 l
0.19 -0.15 l
0.19 0.34 l
0.19 -0.05 l
0.20 -0.10 l
0.19 0.15 l
0.19 -0.19 l
0.19 0.09 l
0.19 -0.09 l
0.20 -0.15 l
0.19 0.05 l
0.19 -0.05 l
0.19 0.05 l
0.20 -0.05 l
0.19 0.10 l
0.19 0.34 l
0.19 -0.25 l
0.20 -0.19 l
0.19 -0.05 l
0.19 0.05 l
0.19 0.05 l
0.20 0 l
0.19 -0.05 l
0.19 -0.05 l
0.19 0.10 l
0.20 0.05 l
0.19 -0.05 l
0.19 0 l
0.19 -0.24 l
0.19 0.19 l
0.20 -0.10 l
0.19 0.15 l
0.19 0.10 l
0.19 -0.05 l
0.20 -0.24 l
0.19 0.24 l
0.19 -0.05 l
0.19 -0.05 l
0.20 -0.10 l
0.19 0.35 l
0.19 0.04 l
0.19 -0.24 l
0.20 0.05 l
0.19 0 l
0.19 0.05 l
0.19 0 l
0.19 -0.10 l
0.20 -0.29 l
0.19 0.39 l
0.19 -0.05 l
0.19 0.15 l
0.20 -0.05 l
0.19 -0.05 l
0.19 0.05 l
0.19 0.19 l
0.20 -0.09 l
0.19 -0.10 l
0.19 0.05 l
0.19 -0.10 l
0.20 0.10 l
0.19 -0.20 l
0.19 0.29 l
0.19 0 l
0.19 0.10 l
0.20 -0.10 l
0.19 -0.24 l
0.19 -0.14 l
0.19 0 l
0.20 0.19 l
0.19 0.10 l
0.19 -0.10 l
0.19 0.24 l
0.20 -0.09 l
0.19 -0.05 l
0.19 -0.29 l
0.19 0 l
0.20 -0.15 l
543.87 577.16 lineto
0.19 0.05 l
0.19 0.10 l
0.19 0.24 l
0.20 0 l
0.19 -0.24 l
0.19 0.05 l
0.19 -0.15 l
0.20 0.15 l
0.19 -0.25 l
0.19 0.15 l
0.19 0.19 l
0.20 -0.04 l
0.19 -0.25 l
0.19 0.25 l
0.19 -0.05 l
0.20 0.19 l
0.19 0 l
0.19 -0.10 l
0.19 0.10 l
0.19 -0.09 l
0.20 0.14 l
0.19 0.20 l
0.19 -0.15 l
0.19 -0.05 l
0.20 0 l
0.19 0 l
0.19 0 l
0.19 0.10 l
0.20 0 l
0.19 0.24 l
0.19 -0.24 l
0.19 -0.15 l
0.20 -0.05 l
0.19 0 l
0.19 0 l
0.19 0.01 l
0.19 0.14 l
0.20 0.10 l
0.19 -0.10 l
0.19 -0.14 l
0.19 -0.10 l
0.20 -0.05 l
0.19 0.15 l
0.19 -0.15 l
0.19 -0.10 l
0.20 -0.05 l
0.19 0.10 l
0.19 -0.05 l
0.19 0.25 l
0.20 -0.25 l
0.19 0.10 l
0.19 0.10 l
0.19 -0.15 l
0.20 0.15 l
0.19 0.05 l
0.19 -0.05 l
0.19 -0.20 l
0.19 0 l
0.20 -0.09 l
0.19 -0.15 l
0.19 0.24 l
0.19 0.15 l
0.20 0 l
0.19 -0.05 l
0.19 0 l
0.19 0.20 l
0.20 -0.15 l
0.19 0.10 l
0.19 -0.05 l
0.19 0.24 l
0.20 -0.48 l
0.19 0.14 l
0.19 0.15 l
0.19 0.14 l
0.19 -0.09 l
0.20 -0.15 l
0.19 0.05 l
0.19 -0.05 l
0.19 -0.05 l
0.20 0.34 l
0.19 -0.14 l
0.19 0.09 l
0.19 -0.14 l
0.20 -0.15 l
0.19 0.10 l
0.19 0.10 l
0.19 -0.10 l
0.20 0 l
0.19 0.05 l
0.19 -0.05 l
0.19 0 l
0.19 0 l
0.20 0 l
0.19 -0.10 l
0.19 0.30 l
0.19 -0.25 l
0.20 -0.05 l
0.19 -0.09 l
0.19 0.09 l
563.10 577.27 lineto
0.20 0.05 l
0.19 0.14 l
0.19 -0.34 l
0.19 0.34 l
0.20 -0.29 l
0.19 0.10 l
0.19 0.14 l
0.19 0 l
0.19 -0.05 l
0.20 0 l
0.19 -0.09 l
0.19 -0.05 l
0.19 0.10 l
0.20 0.09 l
0.19 -0.05 l
0.19 -0.04 l
0.19 -0.05 l
0.20 0 l
0.19 0 l
0.19 0.19 l
0.19 -0.05 l
0.20 -0.09 l
0.19 0.05 l
0.19 -0.05 l
0.19 -0.05 l
0.19 -0.05 l
0.20 0.15 l
0.19 0 l
0.19 0 l
0.19 -0.30 l
0.20 0.20 l
0.19 0.10 l
0.19 0.09 l
0.19 0.05 l
0.20 -0.19 l
0.19 -0.05 l
0.19 0 l
0.19 0.19 l
0.20 -0.29 l
0.19 -0.10 l
0.19 -0.09 l
0.19 0.19 l
0.19 0.10 l
0.20 0.10 l
0.19 -0.10 l
0.19 0.05 l
0.19 0 l
0.20 0.10 l
0.19 0 l
0.19 -0.15 l
0.19 0 l
0.20 0.10 l
0.19 0.19 l
0.19 -0.39 l
0.19 0.15 l
0.20 -0.05 l
0.19 0.10 l
0.19 -0.15 l
0.19 0.25 l
0.19 -0.10 l
0.20 -0.10 l
0.19 0.10 l
0.19 -0.20 l
0.19 -0.19 l
0.20 0.15 l
0.19 0.09 l
0.19 0.25 l
0.19 -0.05 l
0.20 -0.20 l
0.19 0.05 l
0.19 0.10 l
0.19 0 l
0.20 0.15 l
0.19 -0.25 l
0.19 0.15 l
0.19 -0.20 l
0.20 0.05 l
0.19 0 l
0.19 0 l
0.19 0.05 l
0.19 0.05 l
0.20 0.15 l
0.19 0 l
0.19 -0.10 l
0.19 0.15 l
0.20 -0.15 l
0.19 -0.10 l
0.19 -0.05 l
0.19 0.10 l
0.20 -0.10 l
0.19 0.05 l
0.19 0.10 l
0.19 -0.20 l
0.20 0.15 l
0.19 0.20 l
0.19 -0.25 l
0.19 0.29 l
0.19 -0.04 l
0.20 -0.30 l
582.34 577.52 lineto
0.19 -0.25 l
0.19 -0.04 l
0.20 0.14 l
0.19 -0.19 l
0.19 0 l
0.19 -0.05 l
0.20 0.19 l
0.19 0.15 l
0.19 -0.15 l
0.19 -0.14 l
0.20 0.29 l
0.19 -0.15 l
0.19 0.15 l
0.19 0 l
0.19 -0.05 l
0.20 -0.05 l
0.19 -0.14 l
0.19 0.05 l
0.19 -0.10 l
0.20 0 l
0.19 0.14 l
0.19 0.05 l
0.19 0 l
0.20 0 l
0.19 -0.19 l
0.19 -0.10 l
0.19 0.29 l
0.20 0.05 l
0.19 -0.05 l
0.19 0.05 l
0.19 0.20 l
0.19 -0.15 l
0.20 -0.10 l
0.19 0.20 l
0.19 -0.10 l
0.19 -0.19 l
0.20 0.19 l
0.19 -0.19 l
0.19 0 l
0.19 -0.10 l
0.20 -0.15 l
0.19 0.20 l
0.19 0 l
0.19 -0.10 l
0.20 0 l
0.19 0 l
0.19 -0.14 l
0.19 0.24 l
0.19 0 l
0.20 -0.15 l
0.19 0.20 l
0.19 -0.39 l
0.19 0.29 l
0.20 -0.10 l
0.19 0.15 l
0.19 0 l
0.19 -0.15 l
0.20 0.10 l
0.19 0.10 l
0.19 -0.05 l
0.19 0.05 l
0.20 -0.15 l
0.19 -0.09 l
0.19 0.34 l
0.19 -0.05 l
0.19 0.14 l
0.20 -0.24 l
0.19 0.15 l
0.19 -0.44 l
0.19 0.44 l
0.20 0.14 l
0.19 0.15 l
0.19 -0.24 l
0.19 -0.15 l
0.20 0.19 l
0.19 0.15 l
0.19 -0.10 l
0.19 0 l
0.20 -0.14 l
0.19 -0.25 l
0.19 0.10 l
0.19 -0.05 l
0.20 0.34 l
0.19 -0.29 l
0.19 0.10 l
0.19 -0.29 l
0.19 0.24 l
0.20 -0.10 l
0.19 0 l
0.19 -0.09 l
0.19 0 l
0.20 0.14 l
0.19 -0.05 l
0.19 0.05 l
0.19 0.05 l
0.20 0.15 l
0.19 0 l
0.19 -0.25 l
0.19 -0.19 l
601.58 577.23 lineto
0.19 -0.19 l
0.19 0.19 l
0.19 -0.14 l
0.19 0 l
0.20 0.09 l
0.19 -0.04 l
0.19 -0.15 l
0.19 0 l
0.20 -0.15 l
0.19 0.30 l
0.19 0.05 l
0.19 -0.05 l
0.20 0 l
0.19 -0.05 l
0.19 0.24 l
0.19 -0.14 l
0.20 -0.15 l
0.19 0.24 l
0.19 0 l
0.19 0 l
0.19 0.05 l
0.20 0.25 l
0.19 0 l
0.19 -0.20 l
0.19 -0.24 l
0.20 -0.10 l
0.19 -0.10 l
0.19 0.30 l
0.19 -0.05 l
0.20 0.34 l
0.19 -0.15 l
0.19 0.15 l
0.19 -0.25 l
0.20 0 l
0.19 0 l
0.19 -0.24 l
0.19 0.15 l
0.19 -0.20 l
0.20 0.20 l
0.19 0 l
0.19 0.19 l
0.19 -0.14 l
0.20 0 l
0.19 -0.20 l
0.19 0.05 l
0.19 -0.10 l
0.20 0 l
0.19 0.10 l
0.19 0.05 l
0.19 -0.10 l
0.20 0.15 l
0.19 0.34 l
0.19 -0.34 l
0.19 -0.05 l
0.19 0.05 l
0.20 -0.24 l
0.19 0.38 l
0.19 0 l
0.19 -0.14 l
0.20 0.05 l
0.19 -0.20 l
0.19 0 l
0.19 -0.24 l
0.20 0.29 l
0.19 -0.05 l
0.19 0.05 l
0.19 0 l
0.20 -0.10 l
0.19 0.20 l
0.19 -0.24 l
0.19 0.09 l
0.19 -0.14 l
0.20 0.34 l
0.19 -0.05 l
0.19 0.19 l
0.19 -0.09 l
0.20 -0.39 l
0.19 0.05 l
0.19 0.05 l
0.19 0.04 l
0.20 0.05 l
0.19 -0.09 l
0.19 0.14 l
0.19 0 l
0.20 0.05 l
0.19 0.15 l
0.19 -0.10 l
0.19 -0.05 l
0.20 -0.14 l
0.19 0.04 l
0.19 -0.09 l
0.19 0 l
0.19 0.09 l
0.20 0.15 l
0.19 -0.10 l
0.19 0.30 l
0.19 -0.15 l
0.20 -0.05 l
0.19 0 l
620.81 577.24 lineto
0.19 -0.05 l
0.20 0 l
0.19 0 l
0.19 0.10 l
0.19 0.10 l
0.20 -0.15 l
0.19 0.05 l
0.19 -0.10 l
0.19 -0.05 l
0.19 -0.09 l
0.20 0 l
0.19 0.09 l
0.19 -0.04 l
0.19 0.14 l
0.20 -0.14 l
0.19 0.04 l
0.19 0.15 l
0.19 -0.24 l
0.20 0.09 l
0.19 0 l
0.19 0.35 l
0.19 -0.15 l
0.20 0.05 l
0.19 -0.20 l
0.19 0.15 l
0.19 0.05 l
0.19 -0.20 l
0.20 0 l
0.19 -0.29 l
0.19 0.29 l
0.19 0 l
0.20 -0.09 l
0.19 0.14 l
0.19 0.10 l
0.19 0 l
0.20 -0.19 l
0.19 0.34 l
0.19 -0.05 l
0.19 -0.20 l
0.20 -0.09 l
0.19 0.14 l
0.19 -0.05 l
0.19 0.10 l
0.19 0.10 l
0.20 -0.10 l
0.19 -0.10 l
0.19 0.20 l
0.19 -0.10 l
0.20 0.15 l
0.19 -0.25 l
0.19 -0.04 l
0.19 -0.10 l
0.20 0.10 l
0.19 0.24 l
0.19 -0.24 l
0.19 -0.25 l
0.20 -0.09 l
0.19 0.04 l
0.19 0.35 l
0.19 -0.05 l
0.19 0.05 l
0.20 -0.10 l
0.19 -0.10 l
0.19 0.10 l
0.19 -0.34 l
0.20 0 l
0.19 0.19 l
0.19 0.15 l
0.19 -0.15 l
0.20 0.10 l
0.19 -0.10 l
0.19 0.20 l
0.19 -0.10 l
0.20 -0.05 l
0.19 -0.19 l
0.19 0.24 l
0.19 -0.10 l
0.19 -0.09 l
0.20 0.34 l
0.19 -0.15 l
0.19 0.10 l
0.19 -0.15 l
0.20 0.15 l
0.19 -0.20 l
0.19 0.25 l
0.19 -0.39 l
0.20 0.24 l
0.19 0.10 l
0.19 0 l
0.19 0.15 l
0.20 -0.05 l
0.19 -0.20 l
0.19 0.15 l
0.19 0.05 l
0.20 -0.10 l
0.19 -0.10 l
0.19 0.10 l
0.19 -0.10 l
0.19 0.20 l
640.05 577.20 lineto
0.19 0 l
0.19 -0.19 l
0.19 0.19 l
0.20 0 l
0.19 -0.10 l
0.19 0.10 l
0.19 0 l
0.20 -0.29 l
0.19 0 l
0.19 0 l
0.19 0.19 l
0.20 -0.14 l
0.19 0 l
0.19 0.19 l
0.19 0 l
0.19 -0.14 l
0.20 -0.10 l
0.19 -0.05 l
0.19 0.29 l
0.19 0.05 l
0.20 0.05 l
0.19 -0.15 l
0.19 -0.04 l
0.19 0 l
0.20 0.09 l
0.19 0.05 l
0.19 0.15 l
0.19 -0.34 l
0.20 0.19 l
0.19 0.20 l
0.19 -0.20 l
0.19 -0.05 l
0.19 0.05 l
0.20 -0.14 l
0.19 0.14 l
0.19 -0.14 l
0.19 -0.10 l
0.20 0.15 l
0.19 -0.05 l
0.19 0.05 l
0.19 0.14 l
0.20 -0.14 l
0.19 0 l
0.19 -0.15 l
0.19 0.05 l
0.20 0.10 l
0.19 -0.10 l
0.19 0.05 l
0.19 0.05 l
0.19 0.09 l
0.20 -0.19 l
0.19 -0.10 l
0.19 0.05 l
0.19 -0.10 l
0.20 0.05 l
0.19 0.15 l
0.19 -0.05 l
0.19 0.15 l
0.20 -0.35 l
0.19 0.30 l
0.19 -0.25 l
0.19 0.05 l
0.20 0.15 l
0.19 -0.15 l
0.19 0.05 l
0.19 -0.05 l
0.19 -0.05 l
0.20 -0.04 l
0.19 0 l
0.19 0.34 l
0.19 -0.30 l
0.20 0.10 l
0.19 0.20 l
0.19 -0.15 l
0.19 0.05 l
0.20 -0.24 l
0.19 0.24 l
0.19 0 l
0.19 0 l
0.20 -0.05 l
0.19 -0.29 l
0.19 0.19 l
0.19 0.15 l
0.19 -0.10 l
0.20 0.10 l
0.19 -0.05 l
0.19 -0.05 l
0.19 0.25 l
0.20 -0.05 l
0.19 -0.15 l
0.19 0.10 l
0.19 0.05 l
0.20 -0.34 l
0.19 0.24 l
0.19 -0.10 l
0.19 -0.09 l
0.20 0.04 l
0.19 0.10 l
0.19 0.10 l
currentpoint o m
659.28 576.87 lineto
0.20 0 l
0.19 0.14 l
0.19 0 l
0.19 0.15 l
0.19 -0.10 l
0.20 0 l
0.19 0.10 l
0.19 -0.15 l
0.19 -0.09 l
0.20 0.09 l
0.19 0.05 l
0.19 -0.14 l
0.19 -0.05 l
0.20 -0.05 l
0.19 -0.05 l
0.19 0.24 l
0.19 0.15 l
0.20 -0.10 l
0.19 0 l
0.19 0.15 l
0.19 0 l
0.19 -0.20 l
0.20 -0.19 l
0.19 0 l
0.19 -0.05 l
0.19 0.20 l
0.20 -0.05 l
0.19 -0.29 l
0.19 0.43 l
0.19 0.05 l
0.20 -0.14 l
0.19 0.05 l
0.19 -0.05 l
0.19 -0.05 l
0.20 0.05 l
0.19 -0.05 l
o
/Font1 findfont 12 s
506.60 457.93 (vtMO1l , Shot No 03 T = 299.4  C) 0 0 t
1 0 0 srgb
506.60 443.53 (vtMO1l , Shot No 04 T = 299.5  C) 0 0 t
0.8275 0.8275 0.8275 srgb
0.75 setlinewidth
[ 0.00 3.00] 0 setdash
np
137.80 433.44 m
0 227.52 l
o
np
282.07 433.44 m
0 227.52 l
o
np
426.34 433.44 m
0 227.52 l
o
np
570.60 433.44 m
0 227.52 l
o
np
59.04 453.72 m
630.72 0 l
o
np
59.04 485.64 m
630.72 0 l
o
np
59.04 517.57 m
630.72 0 l
o
np
59.04 549.49 m
630.72 0 l
o
np
59.04 581.42 m
630.72 0 l
o
np
59.04 613.34 m
630.72 0 l
o
np
59.04 645.27 m
630.72 0 l
o
59.04 73.44 689.76 300.96 cl
59.04 73.44 689.76 300.96 cl
1 0 0 srgb
0.75 setlinewidth
[] 0 setdash
1 setlinecap
1 setlinejoin
10.00 setmiterlimit
np
82.40 132.01 m
11.68 0 l
11.68 -0.67 l
11.68 -1.36 l
11.68 -2.71 l
11.68 4.07 l
11.68 0 l
11.68 -2.04 l
11.68 -1.35 l
11.68 6.10 l
11.68 -21.69 l
11.68 5.42 l
11.68 11.53 l
11.68 31.87 l
11.68 34.57 l
11.68 23.74 l
11.68 13.56 l
11.68 -4.07 l
11.68 -17.63 l
11.68 -21.69 l
11.68 -21.70 l
11.68 -14.24 l
11.68 -15.59 l
11.68 -12.21 l
11.68 -9.49 l
11.68 -6.78 l
11.68 -7.45 l
11.68 0 l
11.68 -2.71 l
11.68 -4.07 l
11.68 0 l
11.68 -4.07 l
11.68 -4.07 l
11.68 2.72 l
11.68 -7.46 l
11.68 4.75 l
11.68 -2.04 l
11.68 0 l
11.68 -2.03 l
11.68 3.39 l
11.68 -2.03 l
11.68 -0.68 l
11.68 -2.03 l
11.68 1.35 l
11.68 -0.67 l
11.68 4.06 l
11.68 -0.67 l
11.68 0.68 l
11.68 -0.68 l
11.68 2.71 l
11.68 6.10 l
o
0.00 0.00 720.00 720.00 cl
0 0 0 srgb
0.75 setlinewidth
[] 0 setdash
1 setlinecap
1 setlinejoin
10.00 setmiterlimit
np
123.28 73.44 m
525.60 0 l
o
np
123.28 73.44 m
0 -7.20 l
o
np
210.88 73.44 m
0 -7.20 l
o
np
298.48 73.44 m
0 -7.20 l
o
np
386.08 73.44 m
0 -7.20 l
o
np
473.68 73.44 m
0 -7.20 l
o
np
561.28 73.44 m
0 -7.20 l
o
np
648.88 73.44 m
0 -7.20 l
o
/Font1 findfont 12 s
123.28 47.52 (-0.0005) .5 0 t
210.88 47.52 (0.0000) .5 0 t
298.48 47.52 (0.0005) .5 0 t
386.08 47.52 (0.0010) .5 0 t
473.68 47.52 (0.0015) .5 0 t
561.28 47.52 (0.0020) .5 0 t
648.88 47.52 (0.0025) .5 0 t
np
59.04 83.27 m
0 177.73 l
o
np
59.04 83.27 m
-7.20 0 l
o
np
59.04 127.70 m
-7.20 0 l
o
np
59.04 172.14 m
-7.20 0 l
o
np
59.04 216.57 m
-7.20 0 l
o
np
59.04 261.00 m
-7.20 0 l
o
41.76 83.27 (-0.02) .5 90 t
41.76 127.70 (0.00) .5 90 t
41.76 172.14 (0.02) .5 90 t
41.76 216.57 (0.04) .5 90 t
41.76 261.00 (0.06) .5 90 t
np
59.04 73.44 m
630.72 0 l
0 227.52 l
-630.72 0 l
0 -227.52 l
o
0.00 0.00 720.00 360.00 cl
/Font2 findfont 14 s
0 0 0 srgb
374.40 325.45 (Time Detail) .5 0 t
/Font1 findfont 12 s
374.40 18.72 (Time \(s\)) .5 0 t
12.96 187.20 (Signal \(V\)) .5 90 t
59.04 73.44 689.76 300.96 cl
0 0 1 srgb
0.75 setlinewidth
[] 0 setdash
1 setlinecap
1 setlinejoin
10.00 setmiterlimit
np
82.40 131.15 m
11.68 -0.68 l
11.68 -0.68 l
11.68 2.72 l
11.68 -4.75 l
11.68 5.43 l
11.68 -4.07 l
11.68 0 l
11.68 -1.35 l
11.68 -2.72 l
11.68 -16.27 l
11.68 19.67 l
11.68 12.20 l
11.68 34.58 l
11.68 42.72 l
11.68 43.39 l
11.68 23.06 l
11.68 8.13 l
11.68 -2.03 l
11.68 -4.07 l
11.68 -8.13 l
11.68 -4.75 l
11.68 -8.13 l
11.68 -6.78 l
11.68 -4.07 l
11.68 -1.35 l
11.68 -1.36 l
11.68 -4.74 l
11.68 -4.75 l
11.68 0 l
11.68 -5.42 l
11.68 -2.03 l
11.68 -4.07 l
11.68 -2.71 l
11.68 2.03 l
11.68 -4.74 l
11.68 -1.36 l
11.68 -0.67 l
11.68 0.68 l
11.68 -1.36 l
11.68 -0.68 l
11.68 -2.03 l
11.68 -2.71 l
11.68 0 l
11.68 -1.35 l
11.68 -3.39 l
11.68 -0.68 l
11.68 0 l
11.68 -2.71 l
11.68 3.39 l
11.68 -0.68 l
o
0.8275 0.8275 0.8275 srgb
0.75 setlinewidth
[ 0.00 3.00] 0 setdash
np
123.28 73.44 m
0 227.52 l
o
np
210.88 73.44 m
0 227.52 l
o
np
298.48 73.44 m
0 227.52 l
o
np
386.08 73.44 m
0 227.52 l
o
np
473.68 73.44 m
0 227.52 l
o
np
561.28 73.44 m
0 227.52 l
o
np
648.88 73.44 m
0 227.52 l
o
np
59.04 83.27 m
630.72 0 l
o
np
59.04 127.70 m
630.72 0 l
o
np
59.04 172.14 m
630.72 0 l
o
np
59.04 216.57 m
630.72 0 l
o
np
59.04 261.00 m
630.72 0 l
o
ep
%%Trailer
%%Pages: 1
%%EOF
