%!PS-Adobe-3.0 EPSF-3.0
%%DocumentNeededResources: font Helvetica
%%+ font Helvetica-Bold
%%+ font Helvetica-Oblique
%%+ font Helvetica-BoldOblique
%%+ font Symbol
%%Title: R Graphics Output
%%Creator: R Software
%%Pages: (atend)
%%BoundingBox: 0 0 359 250
%%EndComments
%%BeginProlog
/bp  { gs sRGB gs } def
% begin .ps.prolog
/gs  { gsave } bind def
/gr  { grestore } bind def
/ep  { showpage gr gr } bind def
/m   { moveto } bind def
/l  { rlineto } bind def
/np  { newpath } bind def
/cp  { closepath } bind def
/f   { fill } bind def
/o   { stroke } bind def
/c   { newpath 0 360 arc } bind def
/r   { 4 2 roll moveto 1 copy 3 -1 roll exch 0 exch rlineto 0 rlineto -1 mul 0 exch rlineto closepath } bind def
/p1  { stroke } bind def
/p2  { gsave bg fill grestore newpath } bind def
/p3  { gsave bg fill grestore stroke } bind def
/p6  { gsave bg eofill grestore newpath } bind def
/p7  { gsave bg eofill grestore stroke } bind def
/t   { 5 -2 roll moveto gsave rotate
       1 index stringwidth pop
       mul neg 0 rmoveto show grestore } bind def
/ta  { 4 -2 roll moveto gsave rotate show } bind def
/tb  { 2 -1 roll 0 rmoveto show } bind def
/cl  { grestore gsave newpath 3 index 3 index moveto 1 index
       4 -1 roll lineto  exch 1 index lineto lineto
       closepath clip newpath } bind def
/rgb { setrgbcolor } bind def
/s   { scalefont setfont } bind def
% end   .ps.prolog
/sRGB { [ /CIEBasedABC
          << /DecodeLMN
               [ { dup 0.03928 le
                        {12.92321 div}
                        {0.055 add 1.055 div 2.4 exp }
                     ifelse
                 } bind dup dup
               ]
             /MatrixLMN [0.412457 0.212673 0.019334
                         0.357576 0.715152 0.119192
                         0.180437 0.072175 0.950301]
             /WhitePoint [0.9505 1.0 1.0890]
           >>
         ] setcolorspace } bind def
/srgb { setcolor } bind def
% begin encoding
/WinAnsiEncoding [
 /.notdef /.notdef /.notdef /.notdef /.notdef /.notdef /.notdef /.notdef
 /.notdef /.notdef /.notdef /.notdef /.notdef /.notdef /.notdef /.notdef
 /.notdef /.notdef /.notdef /.notdef /.notdef /.notdef /.notdef /.notdef
 /.notdef /.notdef /.notdef /.notdef /.notdef /.notdef /.notdef /.notdef
 /space /exclam /quotedbl /numbersign /dollar /percent /ampersand /quoteright
 /parenleft /parenright /asterisk /plus /comma /minus /period /slash
 /zero /one /two /three /four /five /six /seven
 /eight /nine /colon /semicolon /less /equal /greater /question
 /at /A /B /C /D /E /F /G
 /H /I /J /K /L /M /N /O
 /P /Q /R /S /T /U /V /W
 /X /Y /Z /bracketleft /backslash /bracketright /asciicircum /underscore
 /grave /a /b /c /d /e /f /g
 /h /i /j /k /l /m /n /o
 /p /q /r /s /t /u /v /w
 /x /y /z /braceleft /bar /braceright /asciitilde /.notdef
 /Euro /.notdef /quotesinglbase /florin /quotedblbase /ellipsis /dagger /daggerdbl
 /circumflex /perthousand /Scaron /guilsinglleft /OE /.notdef /Zcaron /.notdef
 /.notdef /quoteleft /quoteright /quotedblleft /quotedblright /bullet /endash /emdash
 /tilde /trademark /scaron /guilsinglright /oe /.notdef /zcaron /Ydieresis
 /space /exclamdown /cent /sterling /currency /yen /brokenbar /section
 /dieresis /copyright /ordfeminine /guillemotleft /logicalnot /hyphen /registered /macron
 /degree /plusminus /twosuperior /threesuperior /acute /mu /paragraph /periodcentered
 /cedilla /onesuperior /ordmasculine /guillemotright /onequarter /onehalf /threequarters /questiondown
 /Agrave /Aacute /Acircumflex /Atilde /Adieresis /Aring /AE /Ccedilla
 /Egrave /Eacute /Ecircumflex /Edieresis /Igrave /Iacute /Icircumflex /Idieresis
 /Eth /Ntilde /Ograve /Oacute /Ocircumflex /Otilde /Odieresis /multiply
 /Oslash /Ugrave /Uacute /Ucircumflex /Udieresis /Yacute /Thorn /germandbls
 /agrave /aacute /acircumflex /atilde /adieresis /aring /ae /ccedilla
 /egrave /eacute /ecircumflex /edieresis /igrave /iacute /icircumflex /idieresis
 /eth /ntilde /ograve /oacute /ocircumflex /otilde /odieresis /divide
 /oslash /ugrave /uacute /ucircumflex /udieresis /yacute /thorn /ydieresis
]
 def
% end encoding
%%IncludeResource: font Helvetica
/Helvetica findfont
dup length dict begin
  {1 index /FID ne {def} {pop pop} ifelse} forall
  /Encoding WinAnsiEncoding def
  currentdict
  end
/Font1 exch definefont pop
%%IncludeResource: font Helvetica-Bold
/Helvetica-Bold findfont
dup length dict begin
  {1 index /FID ne {def} {pop pop} ifelse} forall
  /Encoding WinAnsiEncoding def
  currentdict
  end
/Font2 exch definefont pop
%%IncludeResource: font Helvetica-Oblique
/Helvetica-Oblique findfont
dup length dict begin
  {1 index /FID ne {def} {pop pop} ifelse} forall
  /Encoding WinAnsiEncoding def
  currentdict
  end
/Font3 exch definefont pop
%%IncludeResource: font Helvetica-BoldOblique
/Helvetica-BoldOblique findfont
dup length dict begin
  {1 index /FID ne {def} {pop pop} ifelse} forall
  /Encoding WinAnsiEncoding def
  currentdict
  end
/Font4 exch definefont pop
%%IncludeResource: font Symbol
/Symbol findfont
dup length dict begin
  {1 index /FID ne {def} {pop pop} ifelse} forall
  currentdict
  end
/Font5 exch definefont pop
%%EndProlog
%%Page: 1 1
bp
0.00 0.00 359.25 249.75 cl
0.00 0.00 359.25 249.75 cl
0.00 0.00 359.25 249.75 cl
0.00 0.00 359.25 249.75 cl
0.00 0.00 359.25 249.75 cl
0.00 0.00 359.25 249.75 cl
0.00 0.00 359.25 249.75 cl
0.00 0.00 359.25 249.75 cl
0.00 0.00 359.25 249.75 cl
/bg { 1 1 1 srgb } def
1 1 1 srgb
1.07 setlinewidth
[] 0 setdash
1 setlinecap
1 setlinejoin
10.00 setmiterlimit
-0.00 0.00 359.25 249.75 r p3
0.00 0.00 359.25 249.75 cl
0.00 0.00 359.25 249.75 cl
0.00 0.00 359.25 249.75 cl
41.05 34.33 353.27 243.77 cl
/bg { 1 1 1 srgb } def
41.05 34.33 312.23 209.45 r p2
0 0 1 srgb
0.71 setlinewidth
[] 0 setdash
1 setlinecap
1 setlinejoin
10.00 setmiterlimit
np
53.68 46.60 m
1.56 1.56 l
1.56 -1.56 l
-1.56 -1.55 l
-1.56 1.55 l
o
np
55.11 50.20 m
1.55 1.56 l
1.56 -1.56 l
-1.56 -1.56 l
-1.55 1.56 l
o
np
56.53 52.15 m
1.56 1.56 l
1.56 -1.56 l
-1.56 -1.55 l
-1.56 1.55 l
o
np
57.96 43.85 m
1.56 1.55 l
1.55 -1.55 l
-1.55 -1.56 l
-1.56 1.56 l
o
np
59.39 50.57 m
1.55 1.55 l
1.56 -1.55 l
-1.56 -1.56 l
-1.55 1.56 l
o
np
60.81 50.75 m
1.56 1.56 l
1.56 -1.56 l
-1.56 -1.55 l
-1.56 1.55 l
o
np
62.24 48.14 m
1.56 1.55 l
1.55 -1.55 l
-1.55 -1.56 l
-1.56 1.56 l
o
np
63.67 48.20 m
1.55 1.56 l
1.56 -1.56 l
-1.56 -1.55 l
-1.55 1.55 l
o
np
65.09 48.16 m
1.56 1.56 l
1.56 -1.56 l
-1.56 -1.56 l
-1.56 1.56 l
o
np
66.52 47.37 m
1.56 1.56 l
1.55 -1.56 l
-1.55 -1.56 l
-1.56 1.56 l
o
np
67.94 48.37 m
1.56 1.56 l
1.56 -1.56 l
-1.56 -1.56 l
-1.56 1.56 l
o
np
69.37 47.11 m
1.56 1.56 l
1.56 -1.56 l
-1.56 -1.56 l
-1.56 1.56 l
o
np
70.80 47.65 m
1.55 1.55 l
1.56 -1.55 l
-1.56 -1.56 l
-1.55 1.56 l
o
np
72.22 49.68 m
1.56 1.56 l
1.56 -1.56 l
-1.56 -1.55 l
-1.56 1.55 l
o
np
73.65 51.85 m
1.56 1.56 l
1.55 -1.56 l
-1.55 -1.56 l
-1.56 1.56 l
o
np
75.08 49.26 m
1.55 1.56 l
1.56 -1.56 l
-1.56 -1.56 l
-1.55 1.56 l
o
np
76.50 48.29 m
1.56 1.56 l
1.56 -1.56 l
-1.56 -1.56 l
-1.56 1.56 l
o
np
77.93 47.32 m
1.56 1.56 l
1.55 -1.56 l
-1.55 -1.56 l
-1.56 1.56 l
o
np
79.36 47.50 m
1.55 1.56 l
1.56 -1.56 l
-1.56 -1.56 l
-1.55 1.56 l
o
np
80.78 55.38 m
1.56 1.55 l
1.56 -1.55 l
-1.56 -1.56 l
-1.56 1.56 l
o
np
82.21 49.85 m
1.56 1.56 l
1.55 -1.56 l
-1.55 -1.56 l
-1.56 1.56 l
o
np
83.63 48.34 m
1.56 1.56 l
1.56 -1.56 l
-1.56 -1.56 l
-1.56 1.56 l
o
np
85.06 48.46 m
1.56 1.56 l
1.56 -1.56 l
-1.56 -1.56 l
-1.56 1.56 l
o
np
86.49 50.64 m
1.55 1.56 l
1.56 -1.56 l
-1.56 -1.56 l
-1.55 1.56 l
o
np
87.91 47.85 m
1.56 1.55 l
1.56 -1.55 l
-1.56 -1.56 l
-1.56 1.56 l
o
np
89.34 46.02 m
1.56 1.56 l
1.55 -1.56 l
-1.55 -1.56 l
-1.56 1.56 l
o
np
90.77 50.92 m
1.55 1.56 l
1.56 -1.56 l
-1.56 -1.56 l
-1.55 1.56 l
o
np
92.19 47.05 m
1.56 1.56 l
1.56 -1.56 l
-1.56 -1.56 l
-1.56 1.56 l
o
np
93.62 49.49 m
1.56 1.56 l
1.55 -1.56 l
-1.55 -1.56 l
-1.56 1.56 l
o
np
95.05 47.26 m
1.55 1.56 l
1.56 -1.56 l
-1.56 -1.56 l
-1.55 1.56 l
o
np
96.47 52.20 m
1.56 1.55 l
1.56 -1.55 l
-1.56 -1.56 l
-1.56 1.56 l
o
np
97.90 48.38 m
1.56 1.55 l
1.55 -1.55 l
-1.55 -1.56 l
-1.56 1.56 l
o
np
99.32 47.81 m
1.56 1.56 l
1.56 -1.56 l
-1.56 -1.56 l
-1.56 1.56 l
o
np
100.75 48.31 m
1.56 1.56 l
1.56 -1.56 l
-1.56 -1.55 l
-1.56 1.55 l
o
np
102.18 45.58 m
1.55 1.56 l
1.56 -1.56 l
-1.56 -1.56 l
-1.55 1.56 l
o
np
103.60 46.70 m
1.56 1.56 l
1.56 -1.56 l
-1.56 -1.56 l
-1.56 1.56 l
o
np
105.03 44.25 m
1.56 1.56 l
1.55 -1.56 l
-1.55 -1.56 l
-1.56 1.56 l
o
np
106.46 46.28 m
1.55 1.56 l
1.56 -1.56 l
-1.56 -1.56 l
-1.55 1.56 l
o
np
107.88 48.81 m
1.56 1.56 l
1.56 -1.56 l
-1.56 -1.55 l
-1.56 1.55 l
o
np
109.31 48.40 m
1.56 1.56 l
1.55 -1.56 l
-1.55 -1.56 l
-1.56 1.56 l
o
np
110.73 53.04 m
1.56 1.55 l
1.56 -1.55 l
-1.56 -1.56 l
-1.56 1.56 l
o
np
112.16 46.94 m
1.56 1.56 l
1.56 -1.56 l
-1.56 -1.56 l
-1.56 1.56 l
o
np
113.59 47.46 m
1.55 1.55 l
1.56 -1.55 l
-1.56 -1.56 l
-1.55 1.56 l
o
np
115.01 48.85 m
1.56 1.55 l
1.56 -1.55 l
-1.56 -1.56 l
-1.56 1.56 l
o
np
116.44 47.12 m
1.56 1.56 l
1.55 -1.56 l
-1.55 -1.56 l
-1.56 1.56 l
o
np
117.87 47.18 m
1.55 1.56 l
1.56 -1.56 l
-1.56 -1.56 l
-1.55 1.56 l
o
np
119.29 46.85 m
1.56 1.55 l
1.56 -1.55 l
-1.56 -1.56 l
-1.56 1.56 l
o
np
120.72 46.50 m
1.56 1.55 l
1.55 -1.55 l
-1.55 -1.56 l
-1.56 1.56 l
o
np
122.15 48.26 m
1.55 1.56 l
1.56 -1.56 l
-1.56 -1.56 l
-1.55 1.56 l
o
np
123.57 48.32 m
1.56 1.56 l
1.56 -1.56 l
-1.56 -1.55 l
-1.56 1.55 l
o
np
125.00 45.15 m
1.56 1.56 l
1.55 -1.56 l
-1.55 -1.55 l
-1.56 1.55 l
o
np
126.42 48.12 m
1.56 1.55 l
1.56 -1.55 l
-1.56 -1.56 l
-1.56 1.56 l
o
np
127.85 46.84 m
1.56 1.56 l
1.56 -1.56 l
-1.56 -1.56 l
-1.56 1.56 l
o
np
129.28 47.07 m
1.55 1.56 l
1.56 -1.56 l
-1.56 -1.56 l
-1.55 1.56 l
o
np
130.70 49.19 m
1.56 1.56 l
1.56 -1.56 l
-1.56 -1.56 l
-1.56 1.56 l
o
np
132.13 51.24 m
1.56 1.55 l
1.55 -1.55 l
-1.55 -1.56 l
-1.56 1.56 l
o
np
133.56 54.68 m
1.55 1.55 l
1.56 -1.55 l
-1.56 -1.56 l
-1.55 1.56 l
o
np
134.98 50.41 m
1.56 1.55 l
1.56 -1.55 l
-1.56 -1.56 l
-1.56 1.56 l
o
np
136.41 58.67 m
1.56 1.56 l
1.55 -1.56 l
-1.55 -1.56 l
-1.56 1.56 l
o
np
137.84 55.39 m
1.55 1.55 l
1.56 -1.55 l
-1.56 -1.56 l
-1.55 1.56 l
o
np
139.26 64.00 m
1.56 1.56 l
1.56 -1.56 l
-1.56 -1.55 l
-1.56 1.55 l
o
np
140.69 73.49 m
1.56 1.55 l
1.55 -1.55 l
-1.55 -1.56 l
-1.56 1.56 l
o
np
142.11 72.65 m
1.56 1.56 l
1.56 -1.56 l
-1.56 -1.56 l
-1.56 1.56 l
o
np
143.54 76.90 m
1.56 1.56 l
1.56 -1.56 l
-1.56 -1.56 l
-1.56 1.56 l
o
np
144.97 84.53 m
1.55 1.56 l
1.56 -1.56 l
-1.56 -1.56 l
-1.55 1.56 l
o
np
146.39 95.00 m
1.56 1.56 l
1.56 -1.56 l
-1.56 -1.55 l
-1.56 1.55 l
o
np
147.82 94.12 m
1.56 1.56 l
1.55 -1.56 l
-1.55 -1.56 l
-1.56 1.56 l
o
np
149.25 106.33 m
1.55 1.55 l
1.56 -1.55 l
-1.56 -1.56 l
-1.55 1.56 l
o
np
150.67 112.27 m
1.56 1.55 l
1.56 -1.55 l
-1.56 -1.56 l
-1.56 1.56 l
o
np
152.10 115.75 m
1.56 1.56 l
1.55 -1.56 l
-1.55 -1.56 l
-1.56 1.56 l
o
np
153.52 120.67 m
1.56 1.56 l
1.56 -1.56 l
-1.56 -1.56 l
-1.56 1.56 l
o
np
154.95 125.07 m
1.56 1.55 l
1.56 -1.55 l
-1.56 -1.56 l
-1.56 1.56 l
o
np
156.38 130.59 m
1.56 1.56 l
1.55 -1.56 l
-1.55 -1.56 l
-1.56 1.56 l
o
np
157.80 138.13 m
1.56 1.56 l
1.56 -1.56 l
-1.56 -1.56 l
-1.56 1.56 l
o
np
159.23 146.44 m
1.56 1.56 l
1.56 -1.56 l
-1.56 -1.56 l
-1.56 1.56 l
o
np
160.66 145.69 m
1.55 1.56 l
1.56 -1.56 l
-1.56 -1.56 l
-1.55 1.56 l
o
np
162.08 147.11 m
1.56 1.56 l
1.56 -1.56 l
-1.56 -1.56 l
-1.56 1.56 l
o
np
163.51 152.93 m
1.56 1.55 l
1.55 -1.55 l
-1.55 -1.56 l
-1.56 1.56 l
o
np
164.94 159.29 m
1.55 1.56 l
1.56 -1.56 l
-1.56 -1.56 l
-1.55 1.56 l
o
np
166.36 161.68 m
1.56 1.56 l
1.56 -1.56 l
-1.56 -1.56 l
-1.56 1.56 l
o
np
167.79 165.60 m
1.56 1.56 l
1.55 -1.56 l
-1.55 -1.56 l
-1.56 1.56 l
o
np
169.21 169.02 m
1.56 1.55 l
1.56 -1.55 l
-1.56 -1.56 l
-1.56 1.56 l
o
np
170.64 169.32 m
1.56 1.56 l
1.56 -1.56 l
-1.56 -1.56 l
-1.56 1.56 l
o
np
172.07 175.26 m
1.55 1.56 l
1.56 -1.56 l
-1.56 -1.56 l
-1.55 1.56 l
o
np
173.49 180.62 m
1.56 1.55 l
1.56 -1.55 l
-1.56 -1.56 l
-1.56 1.56 l
o
np
174.92 182.96 m
1.56 1.56 l
1.55 -1.56 l
-1.55 -1.55 l
-1.56 1.55 l
o
np
176.35 185.18 m
1.55 1.55 l
1.56 -1.55 l
-1.56 -1.56 l
-1.55 1.56 l
o
np
177.77 185.30 m
1.56 1.55 l
1.56 -1.55 l
-1.56 -1.56 l
-1.56 1.56 l
o
np
179.20 188.10 m
1.56 1.56 l
1.55 -1.56 l
-1.55 -1.56 l
-1.56 1.56 l
o
np
180.63 187.84 m
1.55 1.55 l
1.56 -1.55 l
-1.56 -1.56 l
-1.55 1.56 l
o
np
182.05 192.64 m
1.56 1.56 l
1.56 -1.56 l
-1.56 -1.55 l
-1.56 1.55 l
o
np
183.48 195.32 m
1.56 1.56 l
1.55 -1.56 l
-1.55 -1.56 l
-1.56 1.56 l
o
np
184.90 200.66 m
1.56 1.56 l
1.56 -1.56 l
-1.56 -1.56 l
-1.56 1.56 l
o
np
186.33 200.67 m
1.56 1.56 l
1.56 -1.56 l
-1.56 -1.55 l
-1.56 1.55 l
o
np
187.76 198.67 m
1.55 1.56 l
1.56 -1.56 l
-1.56 -1.56 l
-1.55 1.56 l
o
np
189.18 202.27 m
1.56 1.55 l
1.56 -1.55 l
-1.56 -1.56 l
-1.56 1.56 l
o
np
190.61 200.11 m
1.56 1.55 l
1.55 -1.55 l
-1.55 -1.56 l
-1.56 1.56 l
o
np
192.04 206.35 m
1.55 1.55 l
1.56 -1.55 l
-1.56 -1.56 l
-1.55 1.56 l
o
np
193.46 207.86 m
1.56 1.56 l
1.56 -1.56 l
-1.56 -1.55 l
-1.56 1.55 l
o
np
194.89 211.86 m
1.56 1.56 l
1.55 -1.56 l
-1.55 -1.56 l
-1.56 1.56 l
o
np
196.32 208.88 m
1.55 1.55 l
1.56 -1.55 l
-1.56 -1.56 l
-1.55 1.56 l
o
np
197.74 207.81 m
1.56 1.55 l
1.56 -1.55 l
-1.56 -1.56 l
-1.56 1.56 l
o
np
199.17 210.14 m
1.56 1.56 l
1.55 -1.56 l
-1.55 -1.56 l
-1.56 1.56 l
o
np
200.59 209.73 m
1.56 1.56 l
1.56 -1.56 l
-1.56 -1.56 l
-1.56 1.56 l
o
np
202.02 209.85 m
1.56 1.56 l
1.56 -1.56 l
-1.56 -1.55 l
-1.56 1.55 l
o
np
203.45 213.12 m
1.55 1.56 l
1.56 -1.56 l
-1.56 -1.56 l
-1.55 1.56 l
o
np
204.87 211.36 m
1.56 1.55 l
1.56 -1.55 l
-1.56 -1.56 l
-1.56 1.56 l
o
np
206.30 214.70 m
1.56 1.56 l
1.55 -1.56 l
-1.55 -1.56 l
-1.56 1.56 l
o
np
207.73 215.87 m
1.55 1.56 l
1.56 -1.56 l
-1.56 -1.55 l
-1.55 1.55 l
o
np
209.15 215.57 m
1.56 1.56 l
1.56 -1.56 l
-1.56 -1.56 l
-1.56 1.56 l
o
np
210.58 215.86 m
1.56 1.56 l
1.55 -1.56 l
-1.55 -1.55 l
-1.56 1.55 l
o
np
212.00 215.37 m
1.56 1.56 l
1.56 -1.56 l
-1.56 -1.55 l
-1.56 1.55 l
o
np
213.43 214.83 m
1.56 1.56 l
1.56 -1.56 l
-1.56 -1.56 l
-1.56 1.56 l
o
np
214.86 220.11 m
1.55 1.56 l
1.56 -1.56 l
-1.56 -1.55 l
-1.55 1.55 l
o
np
216.28 218.62 m
1.56 1.56 l
1.56 -1.56 l
-1.56 -1.56 l
-1.56 1.56 l
o
np
217.71 221.06 m
1.56 1.56 l
1.55 -1.56 l
-1.55 -1.56 l
-1.56 1.56 l
o
np
219.14 216.49 m
1.55 1.56 l
1.56 -1.56 l
-1.56 -1.56 l
-1.55 1.56 l
o
np
220.56 220.34 m
1.56 1.56 l
1.56 -1.56 l
-1.56 -1.56 l
-1.56 1.56 l
o
np
221.99 221.97 m
1.56 1.55 l
1.55 -1.55 l
-1.55 -1.56 l
-1.56 1.56 l
o
np
223.42 220.65 m
1.55 1.56 l
1.56 -1.56 l
-1.56 -1.55 l
-1.55 1.55 l
o
np
224.84 220.61 m
1.56 1.56 l
1.56 -1.56 l
-1.56 -1.55 l
-1.56 1.55 l
o
np
226.27 219.52 m
1.56 1.56 l
1.55 -1.56 l
-1.55 -1.55 l
-1.56 1.55 l
o
np
227.69 226.72 m
1.56 1.56 l
1.56 -1.56 l
-1.56 -1.56 l
-1.56 1.56 l
o
np
229.12 223.86 m
1.56 1.55 l
1.56 -1.55 l
-1.56 -1.56 l
-1.56 1.56 l
o
np
230.55 226.74 m
1.55 1.56 l
1.56 -1.56 l
-1.56 -1.55 l
-1.55 1.55 l
o
np
231.97 222.79 m
1.56 1.56 l
1.56 -1.56 l
-1.56 -1.56 l
-1.56 1.56 l
o
np
233.40 221.32 m
1.56 1.56 l
1.55 -1.56 l
-1.55 -1.56 l
-1.56 1.56 l
o
np
234.83 219.42 m
1.55 1.56 l
1.56 -1.56 l
-1.56 -1.55 l
-1.55 1.55 l
o
np
236.25 221.77 m
1.56 1.56 l
1.56 -1.56 l
-1.56 -1.55 l
-1.56 1.55 l
o
np
237.68 224.08 m
1.56 1.55 l
1.55 -1.55 l
-1.55 -1.56 l
-1.56 1.56 l
o
np
239.11 226.18 m
1.55 1.56 l
1.56 -1.56 l
-1.56 -1.55 l
-1.55 1.55 l
o
np
240.53 224.53 m
1.56 1.56 l
1.56 -1.56 l
-1.56 -1.56 l
-1.56 1.56 l
o
np
241.96 221.26 m
1.56 1.56 l
1.55 -1.56 l
-1.55 -1.56 l
-1.56 1.56 l
o
np
243.38 225.89 m
1.56 1.56 l
1.56 -1.56 l
-1.56 -1.56 l
-1.56 1.56 l
o
np
244.81 220.43 m
1.56 1.56 l
1.56 -1.56 l
-1.56 -1.55 l
-1.56 1.55 l
o
np
246.24 223.69 m
1.55 1.56 l
1.56 -1.56 l
-1.56 -1.55 l
-1.55 1.55 l
o
np
247.66 223.96 m
1.56 1.55 l
1.56 -1.55 l
-1.56 -1.56 l
-1.56 1.56 l
o
np
249.09 220.14 m
1.56 1.56 l
1.55 -1.56 l
-1.55 -1.56 l
-1.56 1.56 l
o
np
250.52 227.21 m
1.55 1.56 l
1.56 -1.56 l
-1.56 -1.56 l
-1.55 1.56 l
o
np
251.94 223.59 m
1.56 1.56 l
1.56 -1.56 l
-1.56 -1.55 l
-1.56 1.55 l
o
np
253.37 224.41 m
1.56 1.55 l
1.55 -1.55 l
-1.55 -1.56 l
-1.56 1.56 l
o
np
254.80 228.70 m
1.55 1.56 l
1.56 -1.56 l
-1.56 -1.56 l
-1.55 1.56 l
o
np
256.22 226.96 m
1.56 1.56 l
1.56 -1.56 l
-1.56 -1.55 l
-1.56 1.55 l
o
np
257.65 225.25 m
1.56 1.56 l
1.55 -1.56 l
-1.55 -1.55 l
-1.56 1.55 l
o
np
259.07 226.85 m
1.56 1.56 l
1.56 -1.56 l
-1.56 -1.56 l
-1.56 1.56 l
o
np
260.50 226.66 m
1.56 1.55 l
1.56 -1.55 l
-1.56 -1.56 l
-1.56 1.56 l
o
np
261.93 229.80 m
1.55 1.55 l
1.56 -1.55 l
-1.56 -1.56 l
-1.55 1.56 l
o
np
263.35 226.51 m
1.56 1.56 l
1.56 -1.56 l
-1.56 -1.55 l
-1.56 1.55 l
o
np
264.78 227.14 m
1.56 1.56 l
1.55 -1.56 l
-1.55 -1.56 l
-1.56 1.56 l
o
np
266.21 226.82 m
1.55 1.56 l
1.56 -1.56 l
-1.56 -1.55 l
-1.55 1.55 l
o
np
267.63 225.13 m
1.56 1.56 l
1.56 -1.56 l
-1.56 -1.55 l
-1.56 1.55 l
o
np
269.06 226.34 m
1.56 1.56 l
1.55 -1.56 l
-1.55 -1.56 l
-1.56 1.56 l
o
np
270.48 230.13 m
1.56 1.56 l
1.56 -1.56 l
-1.56 -1.56 l
-1.56 1.56 l
o
np
271.91 224.09 m
1.56 1.56 l
1.56 -1.56 l
-1.56 -1.55 l
-1.56 1.55 l
o
np
273.34 226.56 m
1.55 1.56 l
1.56 -1.56 l
-1.56 -1.56 l
-1.55 1.56 l
o
np
274.76 229.61 m
1.56 1.56 l
1.56 -1.56 l
-1.56 -1.56 l
-1.56 1.56 l
o
np
276.19 225.79 m
1.56 1.56 l
1.55 -1.56 l
-1.55 -1.56 l
-1.56 1.56 l
o
np
277.62 223.85 m
1.55 1.56 l
1.56 -1.56 l
-1.56 -1.56 l
-1.55 1.56 l
o
np
279.04 224.33 m
1.56 1.56 l
1.56 -1.56 l
-1.56 -1.56 l
-1.56 1.56 l
o
np
280.47 225.53 m
1.56 1.56 l
1.55 -1.56 l
-1.55 -1.56 l
-1.56 1.56 l
o
np
281.90 224.46 m
1.55 1.56 l
1.56 -1.56 l
-1.56 -1.56 l
-1.55 1.56 l
o
np
283.32 225.91 m
1.56 1.56 l
1.56 -1.56 l
-1.56 -1.55 l
-1.56 1.55 l
o
np
284.75 225.57 m
1.56 1.56 l
1.55 -1.56 l
-1.55 -1.56 l
-1.56 1.56 l
o
np
286.17 226.16 m
1.56 1.56 l
1.56 -1.56 l
-1.56 -1.56 l
-1.56 1.56 l
o
np
287.60 227.62 m
1.56 1.56 l
1.56 -1.56 l
-1.56 -1.56 l
-1.56 1.56 l
o
np
289.03 228.17 m
1.55 1.56 l
1.56 -1.56 l
-1.56 -1.55 l
-1.55 1.55 l
o
np
290.45 230.75 m
1.56 1.56 l
1.56 -1.56 l
-1.56 -1.56 l
-1.56 1.56 l
o
np
291.88 226.54 m
1.56 1.56 l
1.55 -1.56 l
-1.55 -1.56 l
-1.56 1.56 l
o
np
293.31 225.95 m
1.55 1.56 l
1.56 -1.56 l
-1.56 -1.55 l
-1.55 1.55 l
o
np
294.73 230.31 m
1.56 1.56 l
1.56 -1.56 l
-1.56 -1.55 l
-1.56 1.55 l
o
np
296.16 230.90 m
1.56 1.56 l
1.55 -1.56 l
-1.55 -1.56 l
-1.56 1.56 l
o
np
297.59 226.89 m
1.55 1.56 l
1.56 -1.56 l
-1.56 -1.55 l
-1.55 1.55 l
o
np
299.01 226.00 m
1.56 1.56 l
1.56 -1.56 l
-1.56 -1.56 l
-1.56 1.56 l
o
np
300.44 222.41 m
1.56 1.56 l
1.55 -1.56 l
-1.55 -1.56 l
-1.56 1.56 l
o
np
301.86 230.26 m
1.56 1.55 l
1.56 -1.55 l
-1.56 -1.56 l
-1.56 1.56 l
o
np
303.29 224.83 m
1.56 1.55 l
1.56 -1.55 l
-1.56 -1.56 l
-1.56 1.56 l
o
np
304.72 224.15 m
1.55 1.55 l
1.56 -1.55 l
-1.56 -1.56 l
-1.55 1.56 l
o
np
306.14 234.25 m
1.56 1.56 l
1.56 -1.56 l
-1.56 -1.56 l
-1.56 1.56 l
o
np
307.57 227.46 m
1.56 1.56 l
1.55 -1.56 l
-1.55 -1.55 l
-1.56 1.55 l
o
np
309.00 226.83 m
1.55 1.55 l
1.56 -1.55 l
-1.56 -1.56 l
-1.55 1.56 l
o
np
310.42 220.30 m
1.56 1.56 l
1.56 -1.56 l
-1.56 -1.56 l
-1.56 1.56 l
o
np
311.85 226.69 m
1.56 1.55 l
1.55 -1.55 l
-1.55 -1.56 l
-1.56 1.56 l
o
np
313.27 229.30 m
1.56 1.56 l
1.56 -1.56 l
-1.56 -1.56 l
-1.56 1.56 l
o
np
314.70 227.95 m
1.56 1.56 l
1.56 -1.56 l
-1.56 -1.56 l
-1.56 1.56 l
o
np
316.13 229.16 m
1.56 1.56 l
1.55 -1.56 l
-1.55 -1.55 l
-1.56 1.55 l
o
np
317.55 231.77 m
1.56 1.55 l
1.56 -1.55 l
-1.56 -1.56 l
-1.56 1.56 l
o
np
318.98 229.80 m
1.56 1.56 l
1.56 -1.56 l
-1.56 -1.56 l
-1.56 1.56 l
o
np
320.41 225.75 m
1.55 1.55 l
1.56 -1.55 l
-1.56 -1.56 l
-1.55 1.56 l
o
np
321.83 228.69 m
1.56 1.56 l
1.56 -1.56 l
-1.56 -1.56 l
-1.56 1.56 l
o
np
323.26 226.51 m
1.56 1.56 l
1.55 -1.56 l
-1.55 -1.56 l
-1.56 1.56 l
o
np
324.69 225.70 m
1.55 1.55 l
1.56 -1.55 l
-1.56 -1.56 l
-1.55 1.56 l
o
np
326.11 220.09 m
1.56 1.56 l
1.56 -1.56 l
-1.56 -1.56 l
-1.56 1.56 l
o
np
327.54 225.10 m
1.56 1.55 l
1.55 -1.55 l
-1.55 -1.56 l
-1.56 1.56 l
o
np
328.96 228.20 m
1.56 1.55 l
1.56 -1.55 l
-1.56 -1.56 l
-1.56 1.56 l
o
np
330.39 232.27 m
1.56 1.56 l
1.56 -1.56 l
-1.56 -1.56 l
-1.56 1.56 l
o
np
331.82 228.24 m
1.55 1.55 l
1.56 -1.55 l
-1.56 -1.56 l
-1.55 1.56 l
o
np
333.24 228.53 m
1.56 1.56 l
1.56 -1.56 l
-1.56 -1.56 l
-1.56 1.56 l
o
np
334.67 224.69 m
1.56 1.56 l
1.55 -1.56 l
-1.55 -1.55 l
-1.56 1.55 l
o
np
336.10 227.43 m
1.55 1.56 l
1.56 -1.56 l
-1.56 -1.56 l
-1.55 1.56 l
o
np
337.52 222.01 m
1.56 1.56 l
1.56 -1.56 l
-1.56 -1.56 l
-1.56 1.56 l
o
1 0 0 srgb
1.92 setlinewidth
[] 0 setdash
0 setlinecap
1.00 setmiterlimit
np
55.24 49.53 m
1.42 0 l
1.43 0 l
1.43 0 l
1.42 0 l
1.43 0 l
1.43 0 l
1.42 0 l
1.43 0 l
1.43 0 l
1.42 0 l
1.43 0 l
1.42 0 l
1.43 0 l
1.43 0 l
1.42 0 l
1.43 0 l
1.43 0 l
1.42 0 l
1.43 0 l
1.43 0 l
1.42 0 l
1.43 0 l
1.42 0 l
1.43 0 l
1.43 0 l
1.42 0 l
1.43 0 l
1.43 0 l
1.42 0 l
1.43 0 l
1.43 0 l
1.42 0 l
1.43 0 l
1.42 0 l
1.43 0 l
1.43 0 l
1.42 0 l
1.43 0 l
1.43 0 l
1.42 0 l
1.43 0 l
1.42 0 l
1.43 0 l
1.43 0 l
1.42 0 l
1.43 0 l
1.43 0 l
1.42 0 l
1.43 0 l
1.43 0 l
1.42 0 l
1.43 0 l
1.42 0 l
1.43 0.06 l
1.43 0.29 l
1.42 0.83 l
1.43 1.62 l
1.43 2.53 l
1.42 3.44 l
1.43 4.27 l
1.43 4.93 l
1.42 5.46 l
1.43 5.82 l
1.42 6.06 l
1.43 6.17 l
1.43 6.20 l
1.42 6.16 l
1.43 6.05 l
1.43 5.90 l
1.42 5.72 l
1.43 5.53 l
1.43 5.31 l
1.42 5.09 l
1.43 4.86 l
1.42 4.64 l
1.43 4.41 l
1.43 4.20 l
1.42 3.98 l
1.43 3.78 l
1.43 3.58 l
1.42 3.39 l
1.43 3.21 l
1.42 3.03 l
1.43 2.87 l
1.43 2.71 l
1.42 2.57 l
1.43 2.42 l
1.43 2.28 l
1.42 2.16 l
1.43 2.04 l
1.43 1.92 l
1.42 1.82 l
1.43 1.71 l
1.42 1.62 l
1.43 1.53 l
1.43 1.44 l
1.42 1.36 l
1.43 1.28 l
1.43 1.21 l
197.87 208.13 lineto
1.43 1.08 l
1.43 1.02 l
1.42 0.96 l
1.43 0.90 l
1.42 0.86 l
1.43 0.80 l
1.43 0.76 l
1.42 0.72 l
1.43 0.68 l
1.43 0.64 l
1.42 0.60 l
1.43 0.57 l
1.42 0.53 l
1.43 0.51 l
1.43 0.48 l
1.42 0.45 l
1.43 0.42 l
1.43 0.40 l
1.42 0.38 l
1.43 0.36 l
1.43 0.34 l
1.42 0.31 l
1.43 0.30 l
1.42 0.29 l
1.43 0.26 l
1.43 0.25 l
1.42 0.24 l
1.43 0.23 l
1.43 0.21 l
1.42 0.20 l
1.43 0.18 l
1.43 0.18 l
1.42 0.17 l
1.43 0.16 l
1.42 0.15 l
1.43 0.14 l
1.43 0.13 l
1.42 0.12 l
1.43 0.12 l
1.43 0.11 l
1.42 0.11 l
1.43 0.10 l
1.43 0.09 l
1.42 0.09 l
1.43 0.08 l
1.42 0.08 l
1.43 0.08 l
1.43 0.07 l
1.42 0.06 l
1.43 0.06 l
1.43 0.06 l
1.42 0.06 l
1.43 0.05 l
1.42 0.05 l
1.43 0.05 l
1.43 0.04 l
1.42 0.04 l
1.43 0.04 l
1.43 0.04 l
1.42 0.03 l
1.43 0.04 l
1.43 0.03 l
1.42 0.03 l
1.43 0.02 l
1.42 0.03 l
1.43 0.02 l
1.43 0.03 l
1.42 0.02 l
1.43 0.02 l
1.43 0.02 l
1.42 0.02 l
1.43 0.01 l
1.43 0.02 l
1.42 0.02 l
1.43 0.01 l
1.42 0.01 l
1.43 0.02 l
1.43 0.01 l
1.42 0.01 l
1.43 0.01 l
1.43 0.01 l
1.42 0.01 l
1.43 0.01 l
1.43 0.01 l
1.42 0.01 l
1.43 0 l
1.42 0.01 l
1.43 0.01 l
1.43 0.01 l
1.42 0 l
1.43 0.01 l
1.43 0 l
1.42 0.01 l
1.43 0 l
1.42 0.01 l
1.43 0 l
1.43 0 l
1.42 0.01 l
1.43 0 l
o
/Font1 findfont 14 s
0 0 0 srgb
227.28 185.76 (nls) 0 ta
-0.210 (.lm results) tb gr
/Font1 findfont 11 s
236.56 166.84 (a) 0 0 t
/Font5 findfont 11 s
245.22 166.84 (=) 0 0 t
/Font1 findfont 11 s
253.81 166.84 (1.173595) 0 0 t
235.95 150.62 (B) 0 0 t
/Font5 findfont 11 s
245.83 150.62 (=) 0 0 t
/Font1 findfont 11 s
254.42 150.62 (2.201245) 0 0 t
/Font5 findfont 11 s
239.36 134.57 (s) 0 0 t
248.54 134.57 (=) 0 0 t
/Font1 findfont 11 s
257.12 134.57 (0.03066) 0 0 t
235.95 118.22 (S) 0 0 t
/Font5 findfont 11 s
245.83 118.22 (=) 0 0 t
/Font1 findfont 11 s
254.42 118.22 (0.186138) 0 0 t
0.4980 0.4980 0.4980 srgb
1.07 setlinewidth
[] 0 setdash
1 setlinecap
10.00 setmiterlimit
41.05 34.33 312.23 209.45 r p1
0.00 0.00 359.25 249.75 cl
0.00 0.00 359.25 249.75 cl
0.00 0.00 359.25 249.75 cl
0.00 0.00 359.25 249.75 cl
0.00 0.00 359.25 249.75 cl
0.00 0.00 359.25 249.75 cl
/Font1 findfont 10 s
0 0 0 srgb
35.67 45.94 (0.0) 1 0 t
35.67 86.30 (0.5) 1 0 t
35.67 126.65 (1.0) 1 0 t
35.67 167.01 (1.5) 1 0 t
35.67 207.37 (2.0) 1 0 t
0.00 0.00 359.25 249.75 cl
0.00 0.00 359.25 249.75 cl
0 0 0 srgb
1.07 setlinewidth
[] 0 setdash
0 setlinecap
1 setlinejoin
10.00 setmiterlimit
np
38.06 49.53 m
2.99 0 l
o
np
38.06 89.89 m
2.99 0 l
o
np
38.06 130.24 m
2.99 0 l
o
np
38.06 170.60 m
2.99 0 l
o
np
38.06 210.96 m
2.99 0 l
o
0.00 0.00 359.25 249.75 cl
0.00 0.00 359.25 249.75 cl
0.00 0.00 359.25 249.75 cl
0.00 0.00 359.25 249.75 cl
0.00 0.00 359.25 249.75 cl
0.00 0.00 359.25 249.75 cl
0.00 0.00 359.25 249.75 cl
0.00 0.00 359.25 249.75 cl
0 0 0 srgb
1.07 setlinewidth
[] 0 setdash
0 setlinecap
1 setlinejoin
10.00 setmiterlimit
np
55.24 31.34 m
0 2.99 l
o
np
126.20 31.34 m
0 2.99 l
o
np
197.16 31.34 m
0 2.99 l
o
np
268.12 31.34 m
0 2.99 l
o
np
339.08 31.34 m
0 2.99 l
o
0.00 0.00 359.25 249.75 cl
0.00 0.00 359.25 249.75 cl
/Font1 findfont 10 s
0 0 0 srgb
55.24 21.77 (-0.01) .5 0 t
126.20 21.77 (0.00) .5 0 t
197.16 21.77 (0.01) .5 0 t
268.12 21.77 (0.02) .5 0 t
339.08 21.77 (0.03) .5 0 t
0.00 0.00 359.25 249.75 cl
0.00 0.00 359.25 249.75 cl
0.00 0.00 359.25 249.75 cl
0.00 0.00 359.25 249.75 cl
/Font1 findfont 12 s
0 0 0 srgb
197.16 8.37 (time) .5 0 t
0.00 0.00 359.25 249.75 cl
0.00 0.00 359.25 249.75 cl
/Font1 findfont 12 s
0 0 0 srgb
16.98 104.71 (T) 90 ta
-1.440 (emper) tb
-0.120 (ature) tb gr
0.00 0.00 359.25 249.75 cl
0.00 0.00 359.25 249.75 cl
0.00 0.00 359.25 249.75 cl
0.00 0.00 359.25 249.75 cl
/bg { 1 1 1 srgb } def
65.52 173.32 75.94 57.13 r p2
0.00 0.00 359.25 249.75 cl
0.00 0.00 359.25 249.75 cl
0.00 0.00 359.25 249.75 cl
0.00 0.00 359.25 249.75 cl
/bg { 1 1 1 srgb } def
0.8000 0.8000 0.8000 srgb
1.07 setlinewidth
[] 0 setdash
1 setlinecap
1 setlinejoin
10.00 setmiterlimit
69.77 194.85 17.28 17.28 r p3
0.00 0.00 359.25 249.75 cl
0.00 0.00 359.25 249.75 cl
0 0 1 srgb
0.71 setlinewidth
[] 0 setdash
1 setlinecap
1 setlinejoin
10.00 setmiterlimit
np
76.85 203.49 m
1.56 1.56 l
1.56 -1.56 l
-1.56 -1.56 l
-1.56 1.56 l
o
0.00 0.00 359.25 249.75 cl
0.00 0.00 359.25 249.75 cl
0.00 0.00 359.25 249.75 cl
0.00 0.00 359.25 249.75 cl
/bg { 1 1 1 srgb } def
0.8000 0.8000 0.8000 srgb
1.07 setlinewidth
[] 0 setdash
1 setlinecap
1 setlinejoin
10.00 setmiterlimit
69.77 177.57 17.28 17.28 r p3
0.00 0.00 359.25 249.75 cl
0.00 0.00 359.25 249.75 cl
0.00 0.00 359.25 249.75 cl
0.00 0.00 359.25 249.75 cl
1 0 0 srgb
1.92 setlinewidth
[] 0 setdash
0 setlinecap
1 setlinejoin
10.00 setmiterlimit
np
71.50 186.21 m
13.82 0 l
o
0.00 0.00 359.25 249.75 cl
0.00 0.00 359.25 249.75 cl
/Font1 findfont 10 s
0 0 0 srgb
89.21 199.90 (e) 0 ta
-0.300 (xper) tb
0.150 (iment) tb gr
0.00 0.00 359.25 249.75 cl
0.00 0.00 359.25 249.75 cl
/Font1 findfont 10 s
0 0 0 srgb
89.21 182.62 (theor) 0 ta
0.300 (y) tb gr
0.00 0.00 359.25 249.75 cl
0.00 0.00 359.25 249.75 cl
0.00 0.00 359.25 249.75 cl
0.00 0.00 359.25 249.75 cl
0.00 0.00 359.25 249.75 cl
0.00 0.00 359.25 249.75 cl
ep
%%Trailer
%%Pages: 1
%%EOF
