%!PS-Adobe-3.0 EPSF-3.0
%%DocumentNeededResources: font Helvetica
%%+ font Helvetica-Bold
%%+ font Helvetica-Oblique
%%+ font Helvetica-BoldOblique
%%+ font Symbol
%%Title: R Graphics Output
%%Creator: R Software
%%Pages: (atend)
%%BoundingBox: 0 0 403 251
%%EndComments
%%BeginProlog
/bp  { gs sRGB gs } def
% begin .ps.prolog
/gs  { gsave } bind def
/gr  { grestore } bind def
/ep  { showpage gr gr } bind def
/m   { moveto } bind def
/l  { rlineto } bind def
/np  { newpath } bind def
/cp  { closepath } bind def
/f   { fill } bind def
/o   { stroke } bind def
/c   { newpath 0 360 arc } bind def
/r   { 4 2 roll moveto 1 copy 3 -1 roll exch 0 exch rlineto 0 rlineto -1 mul 0 exch rlineto closepath } bind def
/p1  { stroke } bind def
/p2  { gsave bg fill grestore newpath } bind def
/p3  { gsave bg fill grestore stroke } bind def
/p6  { gsave bg eofill grestore newpath } bind def
/p7  { gsave bg eofill grestore stroke } bind def
/t   { 5 -2 roll moveto gsave rotate
       1 index stringwidth pop
       mul neg 0 rmoveto show grestore } bind def
/ta  { 4 -2 roll moveto gsave rotate show } bind def
/tb  { 2 -1 roll 0 rmoveto show } bind def
/cl  { grestore gsave newpath 3 index 3 index moveto 1 index
       4 -1 roll lineto  exch 1 index lineto lineto
       closepath clip newpath } bind def
/rgb { setrgbcolor } bind def
/s   { scalefont setfont } bind def
% end   .ps.prolog
/sRGB { [ /CIEBasedABC
          << /DecodeLMN
               [ { dup 0.03928 le
                        {12.92321 div}
                        {0.055 add 1.055 div 2.4 exp }
                     ifelse
                 } bind dup dup
               ]
             /MatrixLMN [0.412457 0.212673 0.019334
                         0.357576 0.715152 0.119192
                         0.180437 0.072175 0.950301]
             /WhitePoint [0.9505 1.0 1.0890]
           >>
         ] setcolorspace } bind def
/srgb { setcolor } bind def
% begin encoding
/WinAnsiEncoding [
 /.notdef /.notdef /.notdef /.notdef /.notdef /.notdef /.notdef /.notdef
 /.notdef /.notdef /.notdef /.notdef /.notdef /.notdef /.notdef /.notdef
 /.notdef /.notdef /.notdef /.notdef /.notdef /.notdef /.notdef /.notdef
 /.notdef /.notdef /.notdef /.notdef /.notdef /.notdef /.notdef /.notdef
 /space /exclam /quotedbl /numbersign /dollar /percent /ampersand /quoteright
 /parenleft /parenright /asterisk /plus /comma /minus /period /slash
 /zero /one /two /three /four /five /six /seven
 /eight /nine /colon /semicolon /less /equal /greater /question
 /at /A /B /C /D /E /F /G
 /H /I /J /K /L /M /N /O
 /P /Q /R /S /T /U /V /W
 /X /Y /Z /bracketleft /backslash /bracketright /asciicircum /underscore
 /grave /a /b /c /d /e /f /g
 /h /i /j /k /l /m /n /o
 /p /q /r /s /t /u /v /w
 /x /y /z /braceleft /bar /braceright /asciitilde /.notdef
 /Euro /.notdef /quotesinglbase /florin /quotedblbase /ellipsis /dagger /daggerdbl
 /circumflex /perthousand /Scaron /guilsinglleft /OE /.notdef /Zcaron /.notdef
 /.notdef /quoteleft /quoteright /quotedblleft /quotedblright /bullet /endash /emdash
 /tilde /trademark /scaron /guilsinglright /oe /.notdef /zcaron /Ydieresis
 /space /exclamdown /cent /sterling /currency /yen /brokenbar /section
 /dieresis /copyright /ordfeminine /guillemotleft /logicalnot /hyphen /registered /macron
 /degree /plusminus /twosuperior /threesuperior /acute /mu /paragraph /periodcentered
 /cedilla /onesuperior /ordmasculine /guillemotright /onequarter /onehalf /threequarters /questiondown
 /Agrave /Aacute /Acircumflex /Atilde /Adieresis /Aring /AE /Ccedilla
 /Egrave /Eacute /Ecircumflex /Edieresis /Igrave /Iacute /Icircumflex /Idieresis
 /Eth /Ntilde /Ograve /Oacute /Ocircumflex /Otilde /Odieresis /multiply
 /Oslash /Ugrave /Uacute /Ucircumflex /Udieresis /Yacute /Thorn /germandbls
 /agrave /aacute /acircumflex /atilde /adieresis /aring /ae /ccedilla
 /egrave /eacute /ecircumflex /edieresis /igrave /iacute /icircumflex /idieresis
 /eth /ntilde /ograve /oacute /ocircumflex /otilde /odieresis /divide
 /oslash /ugrave /uacute /ucircumflex /udieresis /yacute /thorn /ydieresis
]
 def
% end encoding
%%IncludeResource: font Helvetica
/Helvetica findfont
dup length dict begin
  {1 index /FID ne {def} {pop pop} ifelse} forall
  /Encoding WinAnsiEncoding def
  currentdict
  end
/Font1 exch definefont pop
%%IncludeResource: font Helvetica-Bold
/Helvetica-Bold findfont
dup length dict begin
  {1 index /FID ne {def} {pop pop} ifelse} forall
  /Encoding WinAnsiEncoding def
  currentdict
  end
/Font2 exch definefont pop
%%IncludeResource: font Helvetica-Oblique
/Helvetica-Oblique findfont
dup length dict begin
  {1 index /FID ne {def} {pop pop} ifelse} forall
  /Encoding WinAnsiEncoding def
  currentdict
  end
/Font3 exch definefont pop
%%IncludeResource: font Helvetica-BoldOblique
/Helvetica-BoldOblique findfont
dup length dict begin
  {1 index /FID ne {def} {pop pop} ifelse} forall
  /Encoding WinAnsiEncoding def
  currentdict
  end
/Font4 exch definefont pop
%%IncludeResource: font Symbol
/Symbol findfont
dup length dict begin
  {1 index /FID ne {def} {pop pop} ifelse} forall
  currentdict
  end
/Font5 exch definefont pop
%%EndProlog
%%Page: 1 1
bp
0.00 0.00 402.75 251.25 cl
0.00 0.00 402.75 251.25 cl
0.00 0.00 402.75 251.25 cl
0.00 0.00 402.75 251.25 cl
0.00 0.00 402.75 251.25 cl
0.00 0.00 402.75 251.25 cl
0.00 0.00 402.75 251.25 cl
0.00 0.00 402.75 251.25 cl
0.00 0.00 402.75 251.25 cl
/bg { 1 1 1 srgb } def
1 1 1 srgb
1.07 setlinewidth
[] 0 setdash
1 setlinecap
1 setlinejoin
10.00 setmiterlimit
-0.00 0.00 402.75 251.25 r p3
0.00 0.00 402.75 251.25 cl
0.00 0.00 402.75 251.25 cl
0.00 0.00 402.75 251.25 cl
41.05 34.33 303.82 245.27 cl
/bg { 1 1 1 srgb } def
41.05 34.33 262.77 210.95 r p2
0 0 1 srgb
0.71 setlinewidth
[] 0 setdash
1 setlinecap
1 setlinejoin
10.00 setmiterlimit
np
51.43 46.69 m
1.56 1.56 l
1.56 -1.56 l
-1.56 -1.56 l
-1.56 1.56 l
o
np
52.63 50.31 m
1.56 1.56 l
1.56 -1.56 l
-1.56 -1.55 l
-1.56 1.55 l
o
np
53.83 52.28 m
1.56 1.56 l
1.56 -1.56 l
-1.56 -1.56 l
-1.56 1.56 l
o
np
55.03 43.91 m
1.56 1.56 l
1.56 -1.56 l
-1.56 -1.55 l
-1.56 1.55 l
o
np
56.24 50.68 m
1.55 1.56 l
1.56 -1.56 l
-1.56 -1.55 l
-1.55 1.55 l
o
np
57.44 50.87 m
1.55 1.56 l
1.56 -1.56 l
-1.56 -1.56 l
-1.55 1.56 l
o
np
58.64 48.23 m
1.55 1.56 l
1.56 -1.56 l
-1.56 -1.55 l
-1.55 1.55 l
o
np
59.84 48.30 m
1.55 1.56 l
1.56 -1.56 l
-1.56 -1.55 l
-1.55 1.55 l
o
np
61.04 48.26 m
1.55 1.56 l
1.56 -1.56 l
-1.56 -1.56 l
-1.55 1.56 l
o
np
62.24 47.47 m
1.55 1.55 l
1.56 -1.55 l
-1.56 -1.56 l
-1.55 1.56 l
o
np
63.44 48.47 m
1.56 1.56 l
1.55 -1.56 l
-1.55 -1.56 l
-1.56 1.56 l
o
np
64.64 47.20 m
1.56 1.56 l
1.55 -1.56 l
-1.55 -1.56 l
-1.56 1.56 l
o
np
65.84 47.74 m
1.56 1.56 l
1.55 -1.56 l
-1.55 -1.55 l
-1.56 1.55 l
o
np
67.04 49.79 m
1.56 1.56 l
1.55 -1.56 l
-1.55 -1.55 l
-1.56 1.55 l
o
np
68.24 51.98 m
1.56 1.55 l
1.55 -1.55 l
-1.55 -1.56 l
-1.56 1.56 l
o
np
69.44 49.37 m
1.56 1.55 l
1.55 -1.55 l
-1.55 -1.56 l
-1.56 1.56 l
o
np
70.64 48.39 m
1.56 1.56 l
1.56 -1.56 l
-1.56 -1.56 l
-1.56 1.56 l
o
np
71.84 47.41 m
1.56 1.56 l
1.56 -1.56 l
-1.56 -1.55 l
-1.56 1.55 l
o
np
73.04 47.59 m
1.56 1.56 l
1.56 -1.56 l
-1.56 -1.55 l
-1.56 1.55 l
o
np
74.24 55.53 m
1.56 1.56 l
1.56 -1.56 l
-1.56 -1.56 l
-1.56 1.56 l
o
np
75.44 49.96 m
1.56 1.56 l
1.56 -1.56 l
-1.56 -1.55 l
-1.56 1.55 l
o
np
76.64 48.44 m
1.56 1.56 l
1.56 -1.56 l
-1.56 -1.56 l
-1.56 1.56 l
o
np
77.84 48.56 m
1.56 1.56 l
1.56 -1.56 l
-1.56 -1.56 l
-1.56 1.56 l
o
np
79.04 50.76 m
1.56 1.55 l
1.56 -1.55 l
-1.56 -1.56 l
-1.56 1.56 l
o
np
80.24 47.94 m
1.56 1.56 l
1.56 -1.56 l
-1.56 -1.55 l
-1.56 1.55 l
o
np
81.44 46.10 m
1.56 1.56 l
1.56 -1.56 l
-1.56 -1.55 l
-1.56 1.55 l
o
np
82.64 51.04 m
1.56 1.55 l
1.56 -1.55 l
-1.56 -1.56 l
-1.56 1.56 l
o
np
83.85 47.14 m
1.55 1.56 l
1.56 -1.56 l
-1.56 -1.56 l
-1.55 1.56 l
o
np
85.05 49.60 m
1.55 1.56 l
1.56 -1.56 l
-1.56 -1.56 l
-1.55 1.56 l
o
np
86.25 47.35 m
1.55 1.56 l
1.56 -1.56 l
-1.56 -1.55 l
-1.55 1.55 l
o
np
87.45 52.32 m
1.55 1.56 l
1.56 -1.56 l
-1.56 -1.55 l
-1.55 1.55 l
o
np
88.65 48.48 m
1.55 1.55 l
1.56 -1.55 l
-1.56 -1.56 l
-1.55 1.56 l
o
np
89.85 47.91 m
1.55 1.55 l
1.56 -1.55 l
-1.56 -1.56 l
-1.55 1.56 l
o
np
91.05 48.41 m
1.55 1.56 l
1.56 -1.56 l
-1.56 -1.55 l
-1.55 1.55 l
o
np
92.25 45.66 m
1.56 1.56 l
1.55 -1.56 l
-1.55 -1.55 l
-1.56 1.55 l
o
np
93.45 46.79 m
1.56 1.56 l
1.55 -1.56 l
-1.55 -1.56 l
-1.56 1.56 l
o
np
94.65 44.32 m
1.56 1.56 l
1.55 -1.56 l
-1.55 -1.56 l
-1.56 1.56 l
o
np
95.85 46.37 m
1.56 1.55 l
1.55 -1.55 l
-1.55 -1.56 l
-1.56 1.56 l
o
np
97.05 48.92 m
1.56 1.56 l
1.55 -1.56 l
-1.55 -1.56 l
-1.56 1.56 l
o
np
98.25 48.50 m
1.56 1.56 l
1.55 -1.56 l
-1.55 -1.56 l
-1.56 1.56 l
o
np
99.45 53.17 m
1.56 1.56 l
1.56 -1.56 l
-1.56 -1.56 l
-1.56 1.56 l
o
np
100.65 47.03 m
1.56 1.56 l
1.56 -1.56 l
-1.56 -1.56 l
-1.56 1.56 l
o
np
101.85 47.55 m
1.56 1.56 l
1.56 -1.56 l
-1.56 -1.56 l
-1.56 1.56 l
o
np
103.05 48.95 m
1.56 1.56 l
1.56 -1.56 l
-1.56 -1.56 l
-1.56 1.56 l
o
np
104.25 47.21 m
1.56 1.56 l
1.56 -1.56 l
-1.56 -1.56 l
-1.56 1.56 l
o
np
105.45 47.27 m
1.56 1.56 l
1.56 -1.56 l
-1.56 -1.55 l
-1.56 1.55 l
o
np
106.65 46.94 m
1.56 1.55 l
1.56 -1.55 l
-1.56 -1.56 l
-1.56 1.56 l
o
np
107.85 46.58 m
1.56 1.56 l
1.56 -1.56 l
-1.56 -1.55 l
-1.56 1.55 l
o
np
109.05 48.36 m
1.56 1.56 l
1.56 -1.56 l
-1.56 -1.56 l
-1.56 1.56 l
o
np
110.25 48.42 m
1.56 1.56 l
1.56 -1.56 l
-1.56 -1.55 l
-1.56 1.55 l
o
np
111.45 45.23 m
1.56 1.56 l
1.56 -1.56 l
-1.56 -1.56 l
-1.56 1.56 l
o
np
112.66 48.22 m
1.55 1.55 l
1.56 -1.55 l
-1.56 -1.56 l
-1.55 1.56 l
o
np
113.86 46.93 m
1.55 1.56 l
1.56 -1.56 l
-1.56 -1.56 l
-1.55 1.56 l
o
np
115.06 47.16 m
1.55 1.56 l
1.56 -1.56 l
-1.56 -1.55 l
-1.55 1.55 l
o
np
116.26 49.30 m
1.55 1.55 l
1.56 -1.55 l
-1.56 -1.56 l
-1.55 1.56 l
o
np
117.46 51.36 m
1.55 1.56 l
1.56 -1.56 l
-1.56 -1.56 l
-1.55 1.56 l
o
np
118.66 54.82 m
1.55 1.56 l
1.56 -1.56 l
-1.56 -1.55 l
-1.55 1.55 l
o
np
119.86 50.52 m
1.56 1.56 l
1.55 -1.56 l
-1.55 -1.55 l
-1.56 1.55 l
o
np
121.06 58.84 m
1.56 1.56 l
1.55 -1.56 l
-1.55 -1.55 l
-1.56 1.55 l
o
np
122.26 55.54 m
1.56 1.56 l
1.55 -1.56 l
-1.55 -1.56 l
-1.56 1.56 l
o
np
123.46 64.22 m
1.56 1.55 l
1.55 -1.55 l
-1.55 -1.56 l
-1.56 1.56 l
o
np
124.66 73.77 m
1.56 1.55 l
1.55 -1.55 l
-1.55 -1.56 l
-1.56 1.56 l
o
np
125.86 72.92 m
1.56 1.56 l
1.55 -1.56 l
-1.55 -1.55 l
-1.56 1.55 l
o
np
127.06 77.21 m
1.56 1.55 l
1.56 -1.55 l
-1.56 -1.56 l
-1.56 1.56 l
o
np
128.26 84.89 m
1.56 1.56 l
1.56 -1.56 l
-1.56 -1.56 l
-1.56 1.56 l
o
np
129.46 95.44 m
1.56 1.55 l
1.56 -1.55 l
-1.56 -1.56 l
-1.56 1.56 l
o
np
130.66 94.55 m
1.56 1.56 l
1.56 -1.56 l
-1.56 -1.56 l
-1.56 1.56 l
o
np
131.86 106.84 m
1.56 1.56 l
1.56 -1.56 l
-1.56 -1.56 l
-1.56 1.56 l
o
np
133.06 112.83 m
1.56 1.55 l
1.56 -1.55 l
-1.56 -1.56 l
-1.56 1.56 l
o
np
134.26 116.34 m
1.56 1.55 l
1.56 -1.55 l
-1.56 -1.56 l
-1.56 1.56 l
o
np
135.46 121.29 m
1.56 1.55 l
1.56 -1.55 l
-1.56 -1.56 l
-1.56 1.56 l
o
np
136.66 125.72 m
1.56 1.55 l
1.56 -1.55 l
-1.56 -1.56 l
-1.56 1.56 l
o
np
137.86 131.28 m
1.56 1.56 l
1.56 -1.56 l
-1.56 -1.56 l
-1.56 1.56 l
o
np
139.06 138.88 m
1.56 1.55 l
1.56 -1.55 l
-1.56 -1.56 l
-1.56 1.56 l
o
np
140.27 147.24 m
1.55 1.56 l
1.56 -1.56 l
-1.56 -1.56 l
-1.55 1.56 l
o
np
141.47 146.49 m
1.55 1.56 l
1.56 -1.56 l
-1.56 -1.56 l
-1.55 1.56 l
o
np
142.67 147.92 m
1.55 1.56 l
1.56 -1.56 l
-1.56 -1.56 l
-1.55 1.56 l
o
np
143.87 153.78 m
1.55 1.55 l
1.56 -1.55 l
-1.56 -1.56 l
-1.55 1.56 l
o
np
145.07 160.19 m
1.55 1.55 l
1.56 -1.55 l
-1.56 -1.56 l
-1.55 1.56 l
o
np
146.27 162.59 m
1.55 1.56 l
1.56 -1.56 l
-1.56 -1.56 l
-1.55 1.56 l
o
np
147.47 166.54 m
1.56 1.56 l
1.55 -1.56 l
-1.55 -1.56 l
-1.56 1.56 l
o
np
148.67 169.98 m
1.56 1.56 l
1.55 -1.56 l
-1.55 -1.56 l
-1.56 1.56 l
o
np
149.87 170.28 m
1.56 1.56 l
1.55 -1.56 l
-1.55 -1.55 l
-1.56 1.55 l
o
np
151.07 176.27 m
1.56 1.56 l
1.55 -1.56 l
-1.55 -1.56 l
-1.56 1.56 l
o
np
152.27 181.66 m
1.56 1.56 l
1.55 -1.56 l
-1.55 -1.55 l
-1.56 1.55 l
o
np
153.47 184.03 m
1.56 1.56 l
1.55 -1.56 l
-1.55 -1.56 l
-1.56 1.56 l
o
np
154.67 186.26 m
1.56 1.55 l
1.56 -1.55 l
-1.56 -1.56 l
-1.56 1.56 l
o
np
155.87 186.38 m
1.56 1.55 l
1.56 -1.55 l
-1.56 -1.56 l
-1.56 1.56 l
o
np
157.07 189.20 m
1.56 1.56 l
1.56 -1.56 l
-1.56 -1.56 l
-1.56 1.56 l
o
np
158.27 188.94 m
1.56 1.55 l
1.56 -1.55 l
-1.56 -1.56 l
-1.56 1.56 l
o
np
159.47 193.78 m
1.56 1.56 l
1.56 -1.56 l
-1.56 -1.56 l
-1.56 1.56 l
o
np
160.67 196.47 m
1.56 1.56 l
1.56 -1.56 l
-1.56 -1.55 l
-1.56 1.55 l
o
np
161.87 201.85 m
1.56 1.56 l
1.56 -1.56 l
-1.56 -1.56 l
-1.56 1.56 l
o
np
163.07 201.86 m
1.56 1.56 l
1.56 -1.56 l
-1.56 -1.55 l
-1.56 1.55 l
o
np
164.27 199.85 m
1.56 1.56 l
1.56 -1.56 l
-1.56 -1.56 l
-1.56 1.56 l
o
np
165.47 203.47 m
1.56 1.56 l
1.56 -1.56 l
-1.56 -1.56 l
-1.56 1.56 l
o
np
166.67 201.29 m
1.56 1.56 l
1.56 -1.56 l
-1.56 -1.56 l
-1.56 1.56 l
o
np
167.88 207.58 m
1.55 1.55 l
1.56 -1.55 l
-1.56 -1.56 l
-1.55 1.56 l
o
np
169.08 209.11 m
1.55 1.55 l
1.56 -1.55 l
-1.56 -1.56 l
-1.55 1.56 l
o
np
170.28 213.13 m
1.55 1.56 l
1.56 -1.56 l
-1.56 -1.56 l
-1.55 1.56 l
o
np
171.48 210.13 m
1.55 1.55 l
1.56 -1.55 l
-1.56 -1.56 l
-1.55 1.56 l
o
np
172.68 209.05 m
1.55 1.56 l
1.56 -1.56 l
-1.56 -1.56 l
-1.55 1.56 l
o
np
173.88 211.40 m
1.55 1.56 l
1.56 -1.56 l
-1.56 -1.56 l
-1.55 1.56 l
o
np
175.08 210.98 m
1.56 1.56 l
1.55 -1.56 l
-1.55 -1.55 l
-1.56 1.55 l
o
np
176.28 211.11 m
1.56 1.56 l
1.55 -1.56 l
-1.55 -1.56 l
-1.56 1.56 l
o
np
177.48 214.40 m
1.56 1.56 l
1.55 -1.56 l
-1.55 -1.56 l
-1.56 1.56 l
o
np
178.68 212.62 m
1.56 1.56 l
1.55 -1.56 l
-1.55 -1.55 l
-1.56 1.55 l
o
np
179.88 215.99 m
1.56 1.56 l
1.55 -1.56 l
-1.55 -1.56 l
-1.56 1.56 l
o
np
181.08 217.17 m
1.56 1.56 l
1.55 -1.56 l
-1.55 -1.55 l
-1.56 1.55 l
o
np
182.28 216.87 m
1.56 1.55 l
1.55 -1.55 l
-1.55 -1.56 l
-1.56 1.56 l
o
np
183.48 217.16 m
1.56 1.56 l
1.56 -1.56 l
-1.56 -1.55 l
-1.56 1.55 l
o
np
184.68 216.67 m
1.56 1.56 l
1.56 -1.56 l
-1.56 -1.56 l
-1.56 1.56 l
o
np
185.88 216.12 m
1.56 1.56 l
1.56 -1.56 l
-1.56 -1.55 l
-1.56 1.55 l
o
np
187.08 221.44 m
1.56 1.56 l
1.56 -1.56 l
-1.56 -1.55 l
-1.56 1.55 l
o
np
188.28 219.94 m
1.56 1.56 l
1.56 -1.56 l
-1.56 -1.56 l
-1.56 1.56 l
o
np
189.48 222.40 m
1.56 1.56 l
1.56 -1.56 l
-1.56 -1.56 l
-1.56 1.56 l
o
np
190.68 217.79 m
1.56 1.56 l
1.56 -1.56 l
-1.56 -1.55 l
-1.56 1.55 l
o
np
191.88 221.67 m
1.56 1.56 l
1.56 -1.56 l
-1.56 -1.55 l
-1.56 1.55 l
o
np
193.08 223.31 m
1.56 1.56 l
1.56 -1.56 l
-1.56 -1.56 l
-1.56 1.56 l
o
np
194.28 221.99 m
1.56 1.56 l
1.56 -1.56 l
-1.56 -1.56 l
-1.56 1.56 l
o
np
195.49 221.95 m
1.55 1.55 l
1.56 -1.55 l
-1.56 -1.56 l
-1.55 1.56 l
o
np
196.69 220.85 m
1.55 1.56 l
1.56 -1.56 l
-1.56 -1.56 l
-1.55 1.56 l
o
np
197.89 228.10 m
1.55 1.56 l
1.56 -1.56 l
-1.56 -1.56 l
-1.55 1.56 l
o
np
199.09 225.21 m
1.55 1.56 l
1.56 -1.56 l
-1.56 -1.55 l
-1.55 1.55 l
o
np
200.29 228.12 m
1.55 1.56 l
1.56 -1.56 l
-1.56 -1.56 l
-1.55 1.56 l
o
np
201.49 224.14 m
1.55 1.56 l
1.56 -1.56 l
-1.56 -1.56 l
-1.55 1.56 l
o
np
202.69 222.66 m
1.55 1.56 l
1.56 -1.56 l
-1.56 -1.56 l
-1.55 1.56 l
o
np
203.89 220.75 m
1.56 1.56 l
1.55 -1.56 l
-1.55 -1.56 l
-1.56 1.56 l
o
np
205.09 223.12 m
1.56 1.55 l
1.55 -1.55 l
-1.55 -1.56 l
-1.56 1.56 l
o
np
206.29 225.44 m
1.56 1.55 l
1.55 -1.55 l
-1.55 -1.56 l
-1.56 1.56 l
o
np
207.49 227.56 m
1.56 1.56 l
1.55 -1.56 l
-1.55 -1.56 l
-1.56 1.56 l
o
np
208.69 225.89 m
1.56 1.56 l
1.55 -1.56 l
-1.55 -1.55 l
-1.56 1.55 l
o
np
209.89 222.60 m
1.56 1.56 l
1.55 -1.56 l
-1.55 -1.56 l
-1.56 1.56 l
o
np
211.09 227.26 m
1.56 1.56 l
1.56 -1.56 l
-1.56 -1.56 l
-1.56 1.56 l
o
np
212.29 221.77 m
1.56 1.55 l
1.56 -1.55 l
-1.56 -1.56 l
-1.56 1.56 l
o
np
213.49 225.05 m
1.56 1.56 l
1.56 -1.56 l
-1.56 -1.56 l
-1.56 1.56 l
o
np
214.69 225.31 m
1.56 1.56 l
1.56 -1.56 l
-1.56 -1.55 l
-1.56 1.55 l
o
np
215.89 221.47 m
1.56 1.56 l
1.56 -1.56 l
-1.56 -1.56 l
-1.56 1.56 l
o
np
217.09 228.59 m
1.56 1.56 l
1.56 -1.56 l
-1.56 -1.56 l
-1.56 1.56 l
o
np
218.29 224.95 m
1.56 1.56 l
1.56 -1.56 l
-1.56 -1.56 l
-1.56 1.56 l
o
np
219.49 225.77 m
1.56 1.55 l
1.56 -1.55 l
-1.56 -1.56 l
-1.56 1.56 l
o
np
220.69 230.09 m
1.56 1.56 l
1.56 -1.56 l
-1.56 -1.56 l
-1.56 1.56 l
o
np
221.89 228.34 m
1.56 1.56 l
1.56 -1.56 l
-1.56 -1.55 l
-1.56 1.55 l
o
np
223.09 226.62 m
1.56 1.56 l
1.56 -1.56 l
-1.56 -1.56 l
-1.56 1.56 l
o
np
224.30 228.23 m
1.55 1.56 l
1.56 -1.56 l
-1.56 -1.56 l
-1.55 1.56 l
o
np
225.50 228.03 m
1.55 1.56 l
1.56 -1.56 l
-1.56 -1.55 l
-1.55 1.55 l
o
np
226.70 231.20 m
1.55 1.55 l
1.56 -1.55 l
-1.56 -1.56 l
-1.55 1.56 l
o
np
227.90 227.89 m
1.55 1.56 l
1.56 -1.56 l
-1.56 -1.56 l
-1.55 1.56 l
o
np
229.10 228.52 m
1.55 1.56 l
1.56 -1.56 l
-1.56 -1.55 l
-1.55 1.55 l
o
np
230.30 228.20 m
1.55 1.56 l
1.56 -1.56 l
-1.56 -1.55 l
-1.55 1.55 l
o
np
231.50 226.50 m
1.56 1.56 l
1.55 -1.56 l
-1.55 -1.56 l
-1.56 1.56 l
o
np
232.70 227.72 m
1.56 1.55 l
1.55 -1.55 l
-1.55 -1.56 l
-1.56 1.56 l
o
np
233.90 231.53 m
1.56 1.56 l
1.55 -1.56 l
-1.55 -1.56 l
-1.56 1.56 l
o
np
235.10 225.45 m
1.56 1.56 l
1.55 -1.56 l
-1.55 -1.55 l
-1.56 1.55 l
o
np
236.30 227.94 m
1.56 1.55 l
1.55 -1.55 l
-1.55 -1.56 l
-1.56 1.56 l
o
np
237.50 231.01 m
1.56 1.56 l
1.55 -1.56 l
-1.55 -1.56 l
-1.56 1.56 l
o
np
238.70 227.16 m
1.56 1.56 l
1.56 -1.56 l
-1.56 -1.56 l
-1.56 1.56 l
o
np
239.90 225.20 m
1.56 1.56 l
1.56 -1.56 l
-1.56 -1.55 l
-1.56 1.55 l
o
np
241.10 225.69 m
1.56 1.56 l
1.56 -1.56 l
-1.56 -1.55 l
-1.56 1.55 l
o
np
242.30 226.90 m
1.56 1.56 l
1.56 -1.56 l
-1.56 -1.56 l
-1.56 1.56 l
o
np
243.50 225.82 m
1.56 1.56 l
1.56 -1.56 l
-1.56 -1.56 l
-1.56 1.56 l
o
np
244.70 227.29 m
1.56 1.55 l
1.56 -1.55 l
-1.56 -1.56 l
-1.56 1.56 l
o
np
245.90 226.94 m
1.56 1.56 l
1.56 -1.56 l
-1.56 -1.56 l
-1.56 1.56 l
o
np
247.10 227.54 m
1.56 1.55 l
1.56 -1.55 l
-1.56 -1.56 l
-1.56 1.56 l
o
np
248.30 229.00 m
1.56 1.56 l
1.56 -1.56 l
-1.56 -1.55 l
-1.56 1.55 l
o
np
249.50 229.56 m
1.56 1.56 l
1.56 -1.56 l
-1.56 -1.56 l
-1.56 1.56 l
o
np
250.70 232.16 m
1.56 1.55 l
1.56 -1.55 l
-1.56 -1.56 l
-1.56 1.56 l
o
np
251.91 227.92 m
1.55 1.56 l
1.56 -1.56 l
-1.56 -1.56 l
-1.55 1.56 l
o
np
253.11 227.33 m
1.55 1.55 l
1.56 -1.55 l
-1.56 -1.56 l
-1.55 1.56 l
o
np
254.31 231.72 m
1.55 1.55 l
1.56 -1.55 l
-1.56 -1.56 l
-1.55 1.56 l
o
np
255.51 232.31 m
1.55 1.55 l
1.56 -1.55 l
-1.56 -1.56 l
-1.55 1.56 l
o
np
256.71 228.27 m
1.55 1.56 l
1.56 -1.56 l
-1.56 -1.55 l
-1.55 1.55 l
o
np
257.91 227.37 m
1.55 1.56 l
1.56 -1.56 l
-1.56 -1.55 l
-1.55 1.55 l
o
np
259.11 223.76 m
1.56 1.56 l
1.55 -1.56 l
-1.55 -1.56 l
-1.56 1.56 l
o
np
260.31 231.66 m
1.56 1.56 l
1.55 -1.56 l
-1.55 -1.56 l
-1.56 1.56 l
o
np
261.51 226.19 m
1.56 1.56 l
1.55 -1.56 l
-1.55 -1.56 l
-1.56 1.56 l
o
np
262.71 225.51 m
1.56 1.55 l
1.55 -1.55 l
-1.55 -1.56 l
-1.56 1.56 l
o
np
263.91 235.68 m
1.56 1.56 l
1.55 -1.56 l
-1.55 -1.55 l
-1.56 1.55 l
o
np
265.11 228.85 m
1.56 1.55 l
1.55 -1.55 l
-1.55 -1.56 l
-1.56 1.56 l
o
np
266.31 228.20 m
1.56 1.56 l
1.56 -1.56 l
-1.56 -1.55 l
-1.56 1.55 l
o
np
267.51 221.63 m
1.56 1.56 l
1.56 -1.56 l
-1.56 -1.56 l
-1.56 1.56 l
o
np
268.71 228.06 m
1.56 1.56 l
1.56 -1.56 l
-1.56 -1.55 l
-1.56 1.55 l
o
np
269.91 230.70 m
1.56 1.55 l
1.56 -1.55 l
-1.56 -1.56 l
-1.56 1.56 l
o
np
271.11 229.33 m
1.56 1.56 l
1.56 -1.56 l
-1.56 -1.55 l
-1.56 1.55 l
o
np
272.31 230.56 m
1.56 1.56 l
1.56 -1.56 l
-1.56 -1.56 l
-1.56 1.56 l
o
np
273.51 233.18 m
1.56 1.56 l
1.56 -1.56 l
-1.56 -1.56 l
-1.56 1.56 l
o
np
274.71 231.20 m
1.56 1.56 l
1.56 -1.56 l
-1.56 -1.56 l
-1.56 1.56 l
o
np
275.91 227.12 m
1.56 1.55 l
1.56 -1.55 l
-1.56 -1.56 l
-1.56 1.56 l
o
np
277.11 230.08 m
1.56 1.56 l
1.56 -1.56 l
-1.56 -1.55 l
-1.56 1.55 l
o
np
278.31 227.89 m
1.56 1.56 l
1.56 -1.56 l
-1.56 -1.56 l
-1.56 1.56 l
o
np
279.52 227.07 m
1.55 1.55 l
1.56 -1.55 l
-1.56 -1.56 l
-1.55 1.56 l
o
np
280.72 221.42 m
1.55 1.56 l
1.56 -1.56 l
-1.56 -1.56 l
-1.55 1.56 l
o
np
281.92 226.46 m
1.55 1.56 l
1.56 -1.56 l
-1.56 -1.55 l
-1.55 1.55 l
o
np
283.12 229.58 m
1.55 1.56 l
1.56 -1.56 l
-1.56 -1.55 l
-1.55 1.55 l
o
np
284.32 233.69 m
1.55 1.55 l
1.56 -1.55 l
-1.56 -1.56 l
-1.55 1.56 l
o
np
285.52 229.63 m
1.55 1.55 l
1.56 -1.55 l
-1.56 -1.56 l
-1.55 1.56 l
o
np
286.72 229.92 m
1.56 1.56 l
1.55 -1.56 l
-1.55 -1.56 l
-1.56 1.56 l
o
np
287.92 226.06 m
1.56 1.55 l
1.55 -1.55 l
-1.55 -1.56 l
-1.56 1.56 l
o
np
289.12 228.81 m
1.56 1.56 l
1.55 -1.56 l
-1.55 -1.55 l
-1.56 1.55 l
o
np
290.32 223.35 m
1.56 1.56 l
1.55 -1.56 l
-1.55 -1.56 l
-1.56 1.56 l
o
1 0 0 srgb
1.07 setlinewidth
[] 0 setdash
0 setlinecap
1.00 setmiterlimit
np
52.99 49.64 m
1.20 0 l
1.20 0 l
1.20 0 l
1.20 0 l
1.20 0 l
1.20 0 l
1.20 0 l
1.20 0 l
1.20 0 l
1.21 0 l
1.20 0 l
1.20 0 l
1.20 0 l
1.20 0 l
1.20 0 l
1.20 0 l
1.20 0 l
1.20 0 l
1.20 0 l
1.20 0 l
1.20 0 l
1.20 0 l
1.20 0 l
1.20 0 l
1.20 0 l
1.20 0 l
1.20 0 l
1.20 0 l
1.20 0 l
1.20 0 l
1.20 0 l
1.20 0 l
1.20 0 l
1.21 0 l
1.20 0 l
1.20 0 l
1.20 0 l
1.20 0 l
1.20 0 l
1.20 0 l
1.20 0 l
1.20 0 l
1.20 0 l
1.20 0 l
1.20 0 l
1.20 0 l
1.20 0 l
1.20 0 l
1.20 0 l
1.20 0 l
1.20 0 l
1.20 0 l
1.20 0 l
1.20 0.06 l
1.20 0.29 l
1.20 0.84 l
1.21 1.63 l
1.20 2.55 l
1.20 3.47 l
1.20 4.29 l
1.20 4.97 l
1.20 5.50 l
1.20 5.86 l
1.20 6.10 l
1.20 6.22 l
1.20 6.24 l
1.20 6.20 l
1.20 6.09 l
1.20 5.95 l
1.20 5.76 l
1.20 5.57 l
1.20 5.35 l
1.20 5.12 l
1.20 4.90 l
1.20 4.67 l
1.20 4.45 l
1.20 4.22 l
1.20 4.02 l
1.20 3.80 l
1.21 3.61 l
1.20 3.41 l
1.20 3.23 l
1.20 3.06 l
1.20 2.89 l
1.20 2.73 l
1.20 2.58 l
1.20 2.44 l
1.20 2.30 l
1.20 2.17 l
1.20 2.06 l
1.20 1.93 l
1.20 1.83 l
1.20 1.73 l
1.20 1.63 l
1.20 1.54 l
1.20 1.45 l
1.20 1.37 l
1.20 1.29 l
1.20 1.22 l
173.03 209.38 lineto
1.20 1.08 l
1.20 1.03 l
1.21 0.96 l
1.20 0.92 l
1.20 0.86 l
1.20 0.81 l
1.20 0.76 l
1.20 0.73 l
1.20 0.68 l
1.20 0.64 l
1.20 0.61 l
1.20 0.57 l
1.20 0.54 l
1.20 0.51 l
1.20 0.48 l
1.20 0.46 l
1.20 0.42 l
1.20 0.41 l
1.20 0.38 l
1.20 0.36 l
1.20 0.34 l
1.20 0.32 l
1.20 0.30 l
1.20 0.28 l
1.20 0.27 l
1.20 0.26 l
1.21 0.23 l
1.20 0.23 l
1.20 0.21 l
1.20 0.20 l
1.20 0.19 l
1.20 0.18 l
1.20 0.17 l
1.20 0.16 l
1.20 0.15 l
1.20 0.14 l
1.20 0.14 l
1.20 0.12 l
1.20 0.12 l
1.20 0.11 l
1.20 0.11 l
1.20 0.10 l
1.20 0.09 l
1.20 0.09 l
1.20 0.08 l
1.20 0.08 l
1.20 0.08 l
1.20 0.07 l
1.20 0.07 l
1.21 0.06 l
1.20 0.06 l
1.20 0.05 l
1.20 0.06 l
1.20 0.05 l
1.20 0.04 l
1.20 0.05 l
1.20 0.04 l
1.20 0.04 l
1.20 0.03 l
1.20 0.04 l
1.20 0.03 l
1.20 0.03 l
1.20 0.03 l
1.20 0.03 l
1.20 0.03 l
1.20 0.02 l
1.20 0.03 l
1.20 0.02 l
1.20 0.02 l
1.20 0.02 l
1.20 0.02 l
1.20 0.01 l
1.21 0.02 l
1.20 0.02 l
1.20 0.01 l
1.20 0.01 l
1.20 0.02 l
1.20 0.01 l
1.20 0.01 l
1.20 0.01 l
1.20 0.01 l
1.20 0.01 l
1.20 0.01 l
1.20 0.01 l
1.20 0.01 l
1.20 0 l
1.20 0.01 l
1.20 0.01 l
1.20 0.01 l
1.20 0 l
1.20 0.01 l
1.20 0 l
1.20 0.01 l
1.20 0 l
1.20 0.01 l
1.21 0 l
1.20 0.01 l
1.20 0 l
1.20 0 l
o
/Font1 findfont 14 s
0 0 0 srgb
191.32 186.88 (nls) 0 ta
-0.210 (.lm results) tb gr
/Font1 findfont 11 s
200.60 167.82 (a) 0 0 t
/Font5 findfont 11 s
209.26 167.82 (=) 0 0 t
/Font1 findfont 11 s
217.84 167.82 (1.173595) 0 0 t
199.99 151.48 (B) 0 0 t
/Font5 findfont 11 s
209.87 151.48 (=) 0 0 t
/Font1 findfont 11 s
218.45 151.48 (2.201245) 0 0 t
/Font5 findfont 11 s
203.40 135.31 (s) 0 0 t
212.57 135.31 (=) 0 0 t
/Font1 findfont 11 s
221.16 135.31 (0.03066) 0 0 t
199.99 118.85 (S) 0 0 t
/Font5 findfont 11 s
209.87 118.85 (=) 0 0 t
/Font1 findfont 11 s
218.45 118.85 (0.186138) 0 0 t
0.4980 0.4980 0.4980 srgb
1 setlinecap
10.00 setmiterlimit
41.05 34.33 262.77 210.95 r p1
0.00 0.00 402.75 251.25 cl
0.00 0.00 402.75 251.25 cl
0.00 0.00 402.75 251.25 cl
0.00 0.00 402.75 251.25 cl
0.00 0.00 402.75 251.25 cl
0.00 0.00 402.75 251.25 cl
/Font1 findfont 10 s
0 0 0 srgb
35.67 46.05 (0.0) 1 0 t
35.67 86.69 (0.5) 1 0 t
35.67 127.34 (1.0) 1 0 t
35.67 167.99 (1.5) 1 0 t
35.67 208.64 (2.0) 1 0 t
0.00 0.00 402.75 251.25 cl
0.00 0.00 402.75 251.25 cl
0 0 0 srgb
1.07 setlinewidth
[] 0 setdash
0 setlinecap
1 setlinejoin
10.00 setmiterlimit
np
38.06 49.64 m
2.99 0 l
o
np
38.06 90.28 m
2.99 0 l
o
np
38.06 130.93 m
2.99 0 l
o
np
38.06 171.58 m
2.99 0 l
o
np
38.06 212.23 m
2.99 0 l
o
0.00 0.00 402.75 251.25 cl
0.00 0.00 402.75 251.25 cl
0.00 0.00 402.75 251.25 cl
0.00 0.00 402.75 251.25 cl
0.00 0.00 402.75 251.25 cl
0.00 0.00 402.75 251.25 cl
0.00 0.00 402.75 251.25 cl
0.00 0.00 402.75 251.25 cl
0 0 0 srgb
1.07 setlinewidth
[] 0 setdash
0 setlinecap
1 setlinejoin
10.00 setmiterlimit
np
52.99 31.34 m
0 2.99 l
o
np
112.71 31.34 m
0 2.99 l
o
np
172.43 31.34 m
0 2.99 l
o
np
232.15 31.34 m
0 2.99 l
o
np
291.88 31.34 m
0 2.99 l
o
0.00 0.00 402.75 251.25 cl
0.00 0.00 402.75 251.25 cl
/Font1 findfont 10 s
0 0 0 srgb
52.99 21.77 (-0.01) .5 0 t
112.71 21.77 (0.00) .5 0 t
172.43 21.77 (0.01) .5 0 t
232.15 21.77 (0.02) .5 0 t
291.88 21.77 (0.03) .5 0 t
0.00 0.00 402.75 251.25 cl
0.00 0.00 402.75 251.25 cl
0.00 0.00 402.75 251.25 cl
0.00 0.00 402.75 251.25 cl
/Font1 findfont 12 s
0 0 0 srgb
172.43 8.37 (time) .5 0 t
0.00 0.00 402.75 251.25 cl
0.00 0.00 402.75 251.25 cl
/Font1 findfont 12 s
0 0 0 srgb
16.98 105.46 (T) 90 ta
-1.440 (emper) tb
-0.120 (ature) tb gr
0.00 0.00 402.75 251.25 cl
0.00 0.00 402.75 251.25 cl
0.00 0.00 402.75 251.25 cl
0.00 0.00 402.75 251.25 cl
/bg { 1 1 1 srgb } def
312.32 111.23 75.94 57.13 r p2
0.00 0.00 402.75 251.25 cl
0.00 0.00 402.75 251.25 cl
0.00 0.00 402.75 251.25 cl
0.00 0.00 402.75 251.25 cl
/bg { 1 1 1 srgb } def
0.8000 0.8000 0.8000 srgb
1.07 setlinewidth
[] 0 setdash
1 setlinecap
1 setlinejoin
10.00 setmiterlimit
316.58 132.76 17.28 17.28 r p3
0.00 0.00 402.75 251.25 cl
0.00 0.00 402.75 251.25 cl
0 0 1 srgb
0.71 setlinewidth
[] 0 setdash
1 setlinecap
1 setlinejoin
10.00 setmiterlimit
np
323.66 141.40 m
1.56 1.56 l
1.55 -1.56 l
-1.55 -1.55 l
-1.56 1.55 l
o
0.00 0.00 402.75 251.25 cl
0.00 0.00 402.75 251.25 cl
0.00 0.00 402.75 251.25 cl
0.00 0.00 402.75 251.25 cl
/bg { 1 1 1 srgb } def
0.8000 0.8000 0.8000 srgb
1.07 setlinewidth
[] 0 setdash
1 setlinecap
1 setlinejoin
10.00 setmiterlimit
316.58 115.48 17.28 17.28 r p3
0.00 0.00 402.75 251.25 cl
0.00 0.00 402.75 251.25 cl
0.00 0.00 402.75 251.25 cl
0.00 0.00 402.75 251.25 cl
1 0 0 srgb
1.07 setlinewidth
[] 0 setdash
0 setlinecap
1 setlinejoin
10.00 setmiterlimit
np
318.30 124.12 m
13.83 0 l
o
0.00 0.00 402.75 251.25 cl
0.00 0.00 402.75 251.25 cl
/Font1 findfont 10 s
0 0 0 srgb
336.02 137.81 (e) 0 ta
-0.300 (xper) tb
0.150 (iment) tb gr
0.00 0.00 402.75 251.25 cl
0.00 0.00 402.75 251.25 cl
/Font1 findfont 10 s
0 0 0 srgb
336.02 120.53 (theor) 0 ta
0.300 (y) tb gr
0.00 0.00 402.75 251.25 cl
0.00 0.00 402.75 251.25 cl
0.00 0.00 402.75 251.25 cl
0.00 0.00 402.75 251.25 cl
0.00 0.00 402.75 251.25 cl
0.00 0.00 402.75 251.25 cl
ep
%%Trailer
%%Pages: 1
%%EOF
