%!PS-Adobe-3.0 EPSF-3.0
%%DocumentNeededResources: font Helvetica
%%+ font Helvetica-Bold
%%+ font Helvetica-Oblique
%%+ font Helvetica-BoldOblique
%%+ font Symbol
%%Title: R Graphics Output
%%Creator: R Software
%%Pages: (atend)
%%BoundingBox: 0 0 329 209
%%EndComments
%%BeginProlog
/bp  { gs sRGB gs } def
% begin .ps.prolog
/gs  { gsave } bind def
/gr  { grestore } bind def
/ep  { showpage gr gr } bind def
/m   { moveto } bind def
/l  { rlineto } bind def
/np  { newpath } bind def
/cp  { closepath } bind def
/f   { fill } bind def
/o   { stroke } bind def
/c   { newpath 0 360 arc } bind def
/r   { 4 2 roll moveto 1 copy 3 -1 roll exch 0 exch rlineto 0 rlineto -1 mul 0 exch rlineto closepath } bind def
/p1  { stroke } bind def
/p2  { gsave bg fill grestore newpath } bind def
/p3  { gsave bg fill grestore stroke } bind def
/p6  { gsave bg eofill grestore newpath } bind def
/p7  { gsave bg eofill grestore stroke } bind def
/t   { 5 -2 roll moveto gsave rotate
       1 index stringwidth pop
       mul neg 0 rmoveto show grestore } bind def
/ta  { 4 -2 roll moveto gsave rotate show } bind def
/tb  { 2 -1 roll 0 rmoveto show } bind def
/cl  { grestore gsave newpath 3 index 3 index moveto 1 index
       4 -1 roll lineto  exch 1 index lineto lineto
       closepath clip newpath } bind def
/rgb { setrgbcolor } bind def
/s   { scalefont setfont } bind def
% end   .ps.prolog
/sRGB { [ /CIEBasedABC
          << /DecodeLMN
               [ { dup 0.03928 le
                        {12.92321 div}
                        {0.055 add 1.055 div 2.4 exp }
                     ifelse
                 } bind dup dup
               ]
             /MatrixLMN [0.412457 0.212673 0.019334
                         0.357576 0.715152 0.119192
                         0.180437 0.072175 0.950301]
             /WhitePoint [0.9505 1.0 1.0890]
           >>
         ] setcolorspace } bind def
/srgb { setcolor } bind def
% begin encoding
/WinAnsiEncoding [
 /.notdef /.notdef /.notdef /.notdef /.notdef /.notdef /.notdef /.notdef
 /.notdef /.notdef /.notdef /.notdef /.notdef /.notdef /.notdef /.notdef
 /.notdef /.notdef /.notdef /.notdef /.notdef /.notdef /.notdef /.notdef
 /.notdef /.notdef /.notdef /.notdef /.notdef /.notdef /.notdef /.notdef
 /space /exclam /quotedbl /numbersign /dollar /percent /ampersand /quoteright
 /parenleft /parenright /asterisk /plus /comma /minus /period /slash
 /zero /one /two /three /four /five /six /seven
 /eight /nine /colon /semicolon /less /equal /greater /question
 /at /A /B /C /D /E /F /G
 /H /I /J /K /L /M /N /O
 /P /Q /R /S /T /U /V /W
 /X /Y /Z /bracketleft /backslash /bracketright /asciicircum /underscore
 /grave /a /b /c /d /e /f /g
 /h /i /j /k /l /m /n /o
 /p /q /r /s /t /u /v /w
 /x /y /z /braceleft /bar /braceright /asciitilde /.notdef
 /Euro /.notdef /quotesinglbase /florin /quotedblbase /ellipsis /dagger /daggerdbl
 /circumflex /perthousand /Scaron /guilsinglleft /OE /.notdef /Zcaron /.notdef
 /.notdef /quoteleft /quoteright /quotedblleft /quotedblright /bullet /endash /emdash
 /tilde /trademark /scaron /guilsinglright /oe /.notdef /zcaron /Ydieresis
 /space /exclamdown /cent /sterling /currency /yen /brokenbar /section
 /dieresis /copyright /ordfeminine /guillemotleft /logicalnot /hyphen /registered /macron
 /degree /plusminus /twosuperior /threesuperior /acute /mu /paragraph /periodcentered
 /cedilla /onesuperior /ordmasculine /guillemotright /onequarter /onehalf /threequarters /questiondown
 /Agrave /Aacute /Acircumflex /Atilde /Adieresis /Aring /AE /Ccedilla
 /Egrave /Eacute /Ecircumflex /Edieresis /Igrave /Iacute /Icircumflex /Idieresis
 /Eth /Ntilde /Ograve /Oacute /Ocircumflex /Otilde /Odieresis /multiply
 /Oslash /Ugrave /Uacute /Ucircumflex /Udieresis /Yacute /Thorn /germandbls
 /agrave /aacute /acircumflex /atilde /adieresis /aring /ae /ccedilla
 /egrave /eacute /ecircumflex /edieresis /igrave /iacute /icircumflex /idieresis
 /eth /ntilde /ograve /oacute /ocircumflex /otilde /odieresis /divide
 /oslash /ugrave /uacute /ucircumflex /udieresis /yacute /thorn /ydieresis
]
 def
% end encoding
%%IncludeResource: font Helvetica
/Helvetica findfont
dup length dict begin
  {1 index /FID ne {def} {pop pop} ifelse} forall
  /Encoding WinAnsiEncoding def
  currentdict
  end
/Font1 exch definefont pop
%%IncludeResource: font Helvetica-Bold
/Helvetica-Bold findfont
dup length dict begin
  {1 index /FID ne {def} {pop pop} ifelse} forall
  /Encoding WinAnsiEncoding def
  currentdict
  end
/Font2 exch definefont pop
%%IncludeResource: font Helvetica-Oblique
/Helvetica-Oblique findfont
dup length dict begin
  {1 index /FID ne {def} {pop pop} ifelse} forall
  /Encoding WinAnsiEncoding def
  currentdict
  end
/Font3 exch definefont pop
%%IncludeResource: font Helvetica-BoldOblique
/Helvetica-BoldOblique findfont
dup length dict begin
  {1 index /FID ne {def} {pop pop} ifelse} forall
  /Encoding WinAnsiEncoding def
  currentdict
  end
/Font4 exch definefont pop
%%IncludeResource: font Symbol
/Symbol findfont
dup length dict begin
  {1 index /FID ne {def} {pop pop} ifelse} forall
  currentdict
  end
/Font5 exch definefont pop
%%EndProlog
%%Page: 1 1
bp
0.00 0.00 329.25 209.25 cl
0.00 0.00 329.25 209.25 cl
0.00 0.00 329.25 209.25 cl
0.00 0.00 329.25 209.25 cl
0.00 0.00 329.25 209.25 cl
0.00 0.00 329.25 209.25 cl
0.00 0.00 329.25 209.25 cl
0.00 0.00 329.25 209.25 cl
0.00 0.00 329.25 209.25 cl
/bg { 1 1 1 srgb } def
1 1 1 srgb
1.07 setlinewidth
[] 0 setdash
1 setlinecap
1 setlinejoin
10.00 setmiterlimit
-0.00 0.00 329.25 209.25 r p3
0.00 0.00 329.25 209.25 cl
0.00 0.00 329.25 209.25 cl
0.00 0.00 329.25 209.25 cl
42.40 31.35 260.82 203.77 cl
/bg { 0.9216 0.9216 0.9216 srgb } def
42.40 31.35 218.42 172.42 r p2
1 1 1 srgb
0.53 setlinewidth
[] 0 setdash
0 setlinecap
1 setlinejoin
10.00 setmiterlimit
np
42.40 59.19 m
218.42 0 l
o
np
42.40 99.21 m
218.42 0 l
o
np
42.40 139.23 m
218.42 0 l
o
np
42.40 179.24 m
218.42 0 l
o
np
78.36 31.35 m
0 172.42 l
o
np
151.17 31.35 m
0 172.42 l
o
np
223.98 31.35 m
0 172.42 l
o
1.07 setlinewidth
[] 0 setdash
np
42.40 39.18 m
218.42 0 l
o
np
42.40 79.20 m
218.42 0 l
o
np
42.40 119.22 m
218.42 0 l
o
np
42.40 159.23 m
218.42 0 l
o
np
42.40 199.25 m
218.42 0 l
o
np
114.77 31.35 m
0 172.42 l
o
np
187.58 31.35 m
0 172.42 l
o
np
260.38 31.35 m
0 172.42 l
o
0.8039 0.7451 0.4392 srgb
1.00 setmiterlimit
np
42.40 39.19 m
0.44 -0.01 l
0.43 0 l
0.44 0 l
0.44 0 l
0.43 0.01 l
0.44 0 l
0.44 0.03 l
0.43 0.07 l
0.44 0.14 l
0.44 0.26 l
0.43 0.41 l
0.44 0.59 l
0.44 0.78 l
0.43 1.00 l
0.44 1.22 l
0.44 1.43 l
0.43 1.63 l
0.44 1.83 l
0.44 2.01 l
0.44 2.17 l
0.43 2.31 l
0.44 2.43 l
0.44 2.53 l
0.43 2.62 l
0.44 2.69 l
0.44 2.74 l
0.43 2.78 l
0.44 2.81 l
0.44 2.83 l
0.43 2.83 l
0.44 2.83 l
0.44 2.81 l
0.43 2.80 l
0.44 2.77 l
0.44 2.73 l
0.43 2.71 l
0.44 2.66 l
0.44 2.62 l
0.44 2.58 l
0.43 2.53 l
0.44 2.48 l
0.44 2.43 l
0.43 2.38 l
0.44 2.33 l
0.44 2.27 l
0.43 2.22 l
0.44 2.17 l
0.44 2.12 l
0.43 2.06 l
0.44 2.01 l
0.44 1.96 l
0.43 1.91 l
0.44 1.86 l
0.44 1.81 l
0.43 1.77 l
0.44 1.71 l
0.44 1.67 l
0.44 1.62 l
0.43 1.58 l
0.44 1.53 l
0.44 1.49 l
0.43 1.45 l
0.44 1.41 l
0.44 1.37 l
0.43 1.33 l
0.44 1.29 l
0.44 1.25 l
0.43 1.22 l
0.44 1.19 l
0.44 1.14 l
0.43 1.12 l
0.44 1.08 l
0.44 1.06 l
0.43 1.02 l
0.44 0.99 l
0.44 0.96 l
0.44 0.94 l
0.43 0.91 l
0.44 0.88 l
0.44 0.85 l
0.43 0.83 l
0.44 0.81 l
0.44 0.78 l
0.43 0.76 l
0.44 0.73 l
0.44 0.72 l
0.43 0.69 l
0.44 0.68 l
0.44 0.65 l
0.43 0.63 l
0.44 0.62 l
0.44 0.59 l
0.43 0.58 l
0.44 0.56 l
0.44 0.55 l
0.44 0.53 l
0.43 0.51 l
0.44 0.50 l
0.44 0.48 l
86.08 181.88 lineto
0.44 0.45 l
0.44 0.44 l
0.43 0.43 l
0.44 0.42 l
0.44 0.40 l
0.43 0.39 l
0.44 0.38 l
0.44 0.36 l
0.43 0.36 l
0.44 0.34 l
0.44 0.34 l
0.43 0.32 l
0.44 0.32 l
0.44 0.30 l
0.44 0.30 l
0.43 0.29 l
0.44 0.27 l
0.44 0.27 l
0.43 0.27 l
0.44 0.25 l
0.44 0.25 l
0.43 0.23 l
0.44 0.23 l
0.44 0.23 l
0.43 0.22 l
0.44 0.21 l
0.44 0.20 l
0.43 0.20 l
0.44 0.19 l
0.44 0.18 l
0.43 0.18 l
0.44 0.18 l
0.44 0.17 l
0.44 0.16 l
0.43 0.16 l
0.44 0.15 l
0.44 0.15 l
0.43 0.14 l
0.44 0.14 l
0.44 0.14 l
0.43 0.13 l
0.44 0.12 l
0.44 0.13 l
0.43 0.11 l
0.44 0.12 l
0.44 0.11 l
0.43 0.11 l
0.44 0.10 l
0.44 0.10 l
0.43 0.10 l
0.44 0.09 l
0.44 0.09 l
0.44 0.09 l
0.43 0.09 l
0.44 0.08 l
0.44 0.08 l
0.43 0.07 l
0.44 0.08 l
0.44 0.07 l
0.43 0.07 l
0.44 0.06 l
0.44 0.07 l
0.43 0.06 l
0.44 0.06 l
0.44 0.06 l
0.43 0.05 l
0.44 0.06 l
0.44 0.05 l
0.43 0.05 l
0.44 0.05 l
0.44 0.04 l
0.44 0.05 l
0.43 0.04 l
0.44 0.04 l
0.44 0.04 l
0.43 0.04 l
0.44 0.04 l
0.44 0.03 l
0.43 0.04 l
0.44 0.03 l
0.44 0.03 l
0.43 0.03 l
0.44 0.03 l
0.44 0.03 l
0.43 0.02 l
0.44 0.03 l
0.44 0.02 l
0.43 0.03 l
0.44 0.02 l
0.44 0.02 l
0.43 0.02 l
0.44 0.02 l
0.44 0.02 l
0.44 0.02 l
0.43 0.01 l
0.44 0.02 l
0.44 0.01 l
0.43 0.02 l
0.44 0.01 l
129.77 195.81 lineto
0.43 0.01 l
0.44 0.01 l
0.44 0.01 l
0.43 0.01 l
0.44 0.01 l
0.44 0.01 l
0.43 0.01 l
0.44 0.01 l
0.44 0 l
0.43 0.01 l
0.44 0 l
0.44 0.01 l
0.44 0 l
0.43 0.01 l
0.44 0 l
0.44 0 l
0.43 0.01 l
0.44 0 l
0.44 0 l
0.43 0 l
0.44 0 l
0.44 0 l
0.43 0 l
0.44 0 l
0.44 0 l
0.43 0 l
0.44 0 l
0.44 0 l
0.43 0 l
0.44 -0.01 l
0.44 0 l
0.44 0 l
0.43 -0.01 l
0.44 0 l
0.44 0 l
0.43 -0.01 l
0.44 0 l
0.44 -0.01 l
0.43 0 l
0.44 -0.01 l
0.44 0 l
0.43 -0.01 l
0.44 0 l
0.44 -0.01 l
0.43 0 l
0.44 -0.01 l
0.44 -0.01 l
0.43 0 l
0.44 -0.01 l
0.44 -0.01 l
0.44 -0.01 l
0.43 0 l
0.44 -0.01 l
0.44 -0.01 l
0.43 -0.01 l
0.44 0 l
0.44 -0.01 l
0.43 -0.01 l
0.44 -0.01 l
0.44 -0.01 l
0.43 -0.01 l
0.44 -0.01 l
0.44 0 l
0.43 -0.01 l
0.44 -0.01 l
0.44 -0.01 l
0.43 -0.01 l
0.44 -0.01 l
0.44 -0.01 l
0.44 -0.01 l
0.43 -0.01 l
0.44 -0.01 l
0.44 -0.01 l
0.43 -0.01 l
0.44 -0.01 l
0.44 -0.01 l
0.43 -0.01 l
0.44 -0.01 l
0.44 -0.01 l
0.43 -0.01 l
0.44 -0.01 l
0.44 -0.01 l
0.43 -0.01 l
0.44 -0.02 l
0.44 -0.01 l
0.43 -0.01 l
0.44 -0.01 l
0.44 -0.01 l
0.44 -0.01 l
0.43 -0.01 l
0.44 -0.01 l
0.44 -0.02 l
0.43 -0.01 l
0.44 -0.01 l
0.44 -0.01 l
0.43 -0.01 l
0.44 -0.01 l
0.44 -0.01 l
0.43 -0.02 l
173.45 195.32 lineto
0.44 -0.01 l
0.43 -0.01 l
0.44 -0.01 l
0.44 -0.02 l
0.43 -0.01 l
0.44 -0.01 l
0.44 -0.01 l
0.44 -0.01 l
0.43 -0.02 l
0.44 -0.01 l
0.44 -0.01 l
0.43 -0.01 l
0.44 -0.01 l
0.44 -0.02 l
0.43 -0.01 l
0.44 -0.01 l
0.44 -0.01 l
0.43 -0.02 l
0.44 -0.01 l
0.44 -0.01 l
0.43 -0.01 l
0.44 -0.02 l
0.44 -0.01 l
0.43 -0.01 l
0.44 -0.01 l
0.44 -0.02 l
0.44 -0.01 l
0.43 -0.01 l
0.44 -0.01 l
0.44 -0.02 l
0.43 -0.01 l
0.44 -0.01 l
0.44 -0.01 l
0.43 -0.02 l
0.44 -0.01 l
0.44 -0.01 l
0.43 -0.02 l
0.44 -0.01 l
0.44 -0.01 l
0.43 -0.01 l
0.44 -0.02 l
0.44 -0.01 l
0.43 -0.01 l
0.44 -0.02 l
0.44 -0.01 l
0.44 -0.01 l
0.43 -0.01 l
0.44 -0.02 l
0.44 -0.01 l
0.43 -0.01 l
0.44 -0.02 l
0.44 -0.01 l
0.43 -0.01 l
0.44 -0.02 l
0.44 -0.01 l
0.43 -0.01 l
0.44 -0.01 l
0.44 -0.02 l
0.43 -0.01 l
0.44 -0.01 l
0.44 -0.02 l
0.43 -0.01 l
0.44 -0.01 l
0.44 -0.02 l
0.44 -0.01 l
0.43 -0.01 l
0.44 -0.02 l
0.44 -0.01 l
0.43 -0.01 l
0.44 -0.02 l
0.44 -0.01 l
0.43 -0.01 l
0.44 -0.01 l
0.44 -0.02 l
0.43 -0.01 l
0.44 -0.01 l
0.44 -0.02 l
0.43 -0.01 l
0.44 -0.01 l
0.44 -0.02 l
0.43 -0.01 l
0.44 -0.01 l
0.44 -0.02 l
0.44 -0.01 l
0.43 -0.01 l
0.44 -0.02 l
0.44 -0.01 l
0.43 -0.01 l
0.44 -0.02 l
0.44 -0.01 l
0.43 -0.01 l
0.44 -0.02 l
0.44 -0.01 l
0.43 -0.01 l
0.44 -0.02 l
0.44 -0.01 l
0.43 -0.01 l
0.44 -0.02 l
0.44 -0.01 l
217.13 194.04 lineto
0.44 -0.02 l
0.44 -0.01 l
0.44 -0.01 l
0.43 -0.02 l
0.44 -0.01 l
0.44 -0.01 l
0.43 -0.02 l
0.44 -0.01 l
0.44 -0.01 l
0.43 -0.02 l
0.44 -0.01 l
0.44 -0.01 l
0.43 -0.02 l
0.44 -0.01 l
0.44 -0.01 l
0.43 -0.02 l
0.44 -0.01 l
0.44 -0.01 l
0.43 -0.02 l
0.44 -0.01 l
0.44 -0.01 l
0.44 -0.02 l
0.43 -0.01 l
0.44 -0.02 l
0.44 -0.01 l
0.43 -0.01 l
0.44 -0.02 l
0.44 -0.01 l
0.43 -0.01 l
0.44 -0.02 l
0.44 -0.01 l
0.43 -0.01 l
0.44 -0.02 l
0.44 -0.01 l
0.43 -0.01 l
0.44 -0.02 l
0.44 -0.01 l
0.43 -0.01 l
0.44 -0.02 l
0.44 -0.01 l
0.44 -0.01 l
0.43 -0.02 l
0.44 -0.01 l
0.44 -0.01 l
0.43 -0.02 l
0.44 -0.01 l
0.44 -0.01 l
0.43 -0.02 l
0.44 -0.01 l
0.44 -0.02 l
0.43 -0.01 l
0.44 -0.01 l
0.44 -0.02 l
0.43 -0.01 l
0.44 -0.01 l
0.44 -0.02 l
0.43 -0.01 l
0.44 -0.01 l
0.44 -0.02 l
0.44 -0.01 l
0.43 -0.01 l
0.44 -0.02 l
0.44 -0.01 l
0.43 -0.01 l
0.44 -0.02 l
0.44 -0.01 l
0.43 -0.01 l
0.44 -0.02 l
0.44 -0.01 l
0.43 -0.02 l
0.44 -0.01 l
0.44 -0.01 l
0.43 -0.02 l
0.44 -0.01 l
0.44 -0.01 l
0.43 -0.02 l
0.44 -0.01 l
0.44 -0.01 l
0.44 -0.02 l
0.43 -0.01 l
0.44 -0.01 l
0.44 -0.02 l
0.43 -0.01 l
0.44 -0.01 l
0.44 -0.02 l
0.43 -0.01 l
0.44 -0.02 l
0.44 -0.01 l
0.43 -0.01 l
0.44 -0.02 l
0.44 -0.01 l
0.43 -0.01 l
0.44 -0.02 l
0.44 -0.01 l
0.43 -0.01 l
0.44 -0.02 l
0.44 -0.01 l
0.44 -0.01 l
0.43 -0.02 l
260.82 192.69 lineto
o
0.6078 0.8039 0.6078 srgb
np
42.40 39.19 m
0.44 -0.01 l
0.43 0 l
0.44 0 l
0.44 0 l
0.43 0.01 l
0.44 0 l
0.44 0.03 l
0.43 0.07 l
0.44 0.14 l
0.44 0.26 l
0.43 0.40 l
0.44 0.58 l
0.44 0.77 l
0.43 0.98 l
0.44 1.19 l
0.44 1.41 l
0.43 1.60 l
0.44 1.79 l
0.44 1.96 l
0.44 2.11 l
0.43 2.25 l
0.44 2.36 l
0.44 2.46 l
0.43 2.54 l
0.44 2.61 l
0.44 2.65 l
0.43 2.69 l
0.44 2.70 l
0.44 2.72 l
0.43 2.72 l
0.44 2.71 l
0.44 2.70 l
0.43 2.67 l
0.44 2.64 l
0.44 2.61 l
0.43 2.57 l
0.44 2.53 l
0.44 2.49 l
0.44 2.44 l
0.43 2.38 l
0.44 2.34 l
0.44 2.29 l
0.43 2.23 l
0.44 2.18 l
0.44 2.13 l
0.43 2.07 l
0.44 2.02 l
0.44 1.96 l
0.43 1.92 l
0.44 1.86 l
0.44 1.80 l
0.43 1.76 l
0.44 1.71 l
0.44 1.66 l
0.43 1.61 l
0.44 1.56 l
0.44 1.52 l
0.44 1.47 l
0.43 1.43 l
0.44 1.38 l
0.44 1.34 l
0.43 1.30 l
0.44 1.26 l
0.44 1.22 l
0.43 1.18 l
0.44 1.14 l
0.44 1.11 l
0.43 1.07 l
0.44 1.04 l
0.44 1.00 l
0.43 0.98 l
0.44 0.94 l
0.44 0.91 l
0.43 0.87 l
0.44 0.86 l
0.44 0.82 l
0.44 0.79 l
0.43 0.77 l
0.44 0.74 l
0.44 0.72 l
0.43 0.69 l
0.44 0.67 l
0.44 0.65 l
0.43 0.62 l
0.44 0.61 l
0.44 0.58 l
0.43 0.56 l
0.44 0.54 l
0.44 0.52 l
0.43 0.50 l
0.44 0.49 l
0.44 0.47 l
0.43 0.45 l
0.44 0.43 l
0.44 0.42 l
0.44 0.40 l
0.43 0.39 l
0.44 0.37 l
0.44 0.36 l
86.08 170.95 lineto
0.44 0.33 l
0.44 0.32 l
0.43 0.30 l
0.44 0.30 l
0.44 0.28 l
0.43 0.27 l
0.44 0.26 l
0.44 0.25 l
0.43 0.24 l
0.44 0.22 l
0.44 0.22 l
0.43 0.21 l
0.44 0.20 l
0.44 0.19 l
0.44 0.18 l
0.43 0.18 l
0.44 0.16 l
0.44 0.16 l
0.43 0.15 l
0.44 0.14 l
0.44 0.13 l
0.43 0.13 l
0.44 0.12 l
0.44 0.11 l
0.43 0.11 l
0.44 0.10 l
0.44 0.09 l
0.43 0.09 l
0.44 0.09 l
0.44 0.07 l
0.43 0.08 l
0.44 0.06 l
0.44 0.07 l
0.44 0.05 l
0.43 0.05 l
0.44 0.05 l
0.44 0.05 l
0.43 0.03 l
0.44 0.04 l
0.44 0.03 l
0.43 0.03 l
0.44 0.02 l
0.44 0.02 l
0.43 0.01 l
0.44 0.01 l
0.44 0.01 l
0.43 0.01 l
0.44 0 l
0.44 0 l
0.43 -0.01 l
0.44 -0.01 l
0.44 -0.01 l
0.44 -0.01 l
0.43 -0.01 l
0.44 -0.02 l
0.44 -0.02 l
0.43 -0.03 l
0.44 -0.02 l
0.44 -0.03 l
0.43 -0.03 l
0.44 -0.03 l
0.44 -0.04 l
0.43 -0.04 l
0.44 -0.03 l
0.44 -0.04 l
0.43 -0.05 l
0.44 -0.04 l
0.44 -0.05 l
0.43 -0.05 l
0.44 -0.04 l
0.44 -0.06 l
0.44 -0.05 l
0.43 -0.05 l
0.44 -0.06 l
0.44 -0.06 l
0.43 -0.05 l
0.44 -0.06 l
0.44 -0.06 l
0.43 -0.07 l
0.44 -0.06 l
0.44 -0.07 l
0.43 -0.06 l
0.44 -0.07 l
0.44 -0.07 l
0.43 -0.07 l
0.44 -0.07 l
0.44 -0.07 l
0.43 -0.07 l
0.44 -0.07 l
0.44 -0.08 l
0.43 -0.07 l
0.44 -0.08 l
0.44 -0.07 l
0.44 -0.08 l
0.43 -0.08 l
0.44 -0.08 l
0.44 -0.08 l
0.43 -0.08 l
0.44 -0.08 l
129.77 174.50 lineto
0.43 -0.08 l
0.44 -0.09 l
0.44 -0.08 l
0.43 -0.09 l
0.44 -0.08 l
0.44 -0.09 l
0.43 -0.08 l
0.44 -0.09 l
0.44 -0.09 l
0.43 -0.08 l
0.44 -0.09 l
0.44 -0.09 l
0.44 -0.09 l
0.43 -0.09 l
0.44 -0.09 l
0.44 -0.09 l
0.43 -0.09 l
0.44 -0.09 l
0.44 -0.09 l
0.43 -0.09 l
0.44 -0.10 l
0.44 -0.09 l
0.43 -0.09 l
0.44 -0.09 l
0.44 -0.10 l
0.43 -0.09 l
0.44 -0.10 l
0.44 -0.09 l
0.43 -0.09 l
0.44 -0.10 l
0.44 -0.09 l
0.44 -0.10 l
0.43 -0.10 l
0.44 -0.09 l
0.44 -0.10 l
0.43 -0.09 l
0.44 -0.10 l
0.44 -0.10 l
0.43 -0.09 l
0.44 -0.10 l
0.44 -0.10 l
0.43 -0.10 l
0.44 -0.09 l
0.44 -0.10 l
0.43 -0.10 l
0.44 -0.10 l
0.44 -0.10 l
0.43 -0.09 l
0.44 -0.10 l
0.44 -0.10 l
0.44 -0.10 l
0.43 -0.10 l
0.44 -0.10 l
0.44 -0.10 l
0.43 -0.10 l
0.44 -0.10 l
0.44 -0.10 l
0.43 -0.10 l
0.44 -0.10 l
0.44 -0.10 l
0.43 -0.10 l
0.44 -0.10 l
0.44 -0.10 l
0.43 -0.10 l
0.44 -0.10 l
0.44 -0.10 l
0.43 -0.10 l
0.44 -0.10 l
0.44 -0.10 l
0.44 -0.10 l
0.43 -0.10 l
0.44 -0.10 l
0.44 -0.10 l
0.43 -0.10 l
0.44 -0.10 l
0.44 -0.10 l
0.43 -0.10 l
0.44 -0.10 l
0.44 -0.11 l
0.43 -0.10 l
0.44 -0.10 l
0.44 -0.10 l
0.43 -0.10 l
0.44 -0.10 l
0.44 -0.10 l
0.43 -0.10 l
0.44 -0.10 l
0.44 -0.11 l
0.44 -0.10 l
0.43 -0.10 l
0.44 -0.10 l
0.44 -0.10 l
0.43 -0.10 l
0.44 -0.10 l
0.44 -0.11 l
0.43 -0.10 l
0.44 -0.10 l
0.44 -0.10 l
0.43 -0.10 l
173.45 164.84 lineto
0.44 -0.10 l
0.43 -0.10 l
0.44 -0.11 l
0.44 -0.10 l
0.43 -0.10 l
0.44 -0.10 l
0.44 -0.10 l
0.44 -0.10 l
0.43 -0.10 l
0.44 -0.11 l
0.44 -0.10 l
0.43 -0.10 l
0.44 -0.10 l
0.44 -0.10 l
0.43 -0.10 l
0.44 -0.10 l
0.44 -0.10 l
0.43 -0.11 l
0.44 -0.10 l
0.44 -0.10 l
0.43 -0.10 l
0.44 -0.10 l
0.44 -0.10 l
0.43 -0.10 l
0.44 -0.10 l
0.44 -0.10 l
0.44 -0.10 l
0.43 -0.11 l
0.44 -0.10 l
0.44 -0.10 l
0.43 -0.10 l
0.44 -0.10 l
0.44 -0.10 l
0.43 -0.10 l
0.44 -0.10 l
0.44 -0.10 l
0.43 -0.10 l
0.44 -0.10 l
0.44 -0.10 l
0.43 -0.10 l
0.44 -0.10 l
0.44 -0.10 l
0.43 -0.11 l
0.44 -0.10 l
0.44 -0.10 l
0.44 -0.10 l
0.43 -0.10 l
0.44 -0.10 l
0.44 -0.10 l
0.43 -0.10 l
0.44 -0.10 l
0.44 -0.10 l
0.43 -0.10 l
0.44 -0.10 l
0.44 -0.10 l
0.43 -0.10 l
0.44 -0.10 l
0.44 -0.10 l
0.43 -0.10 l
0.44 -0.10 l
0.44 -0.10 l
0.43 -0.10 l
0.44 -0.10 l
0.44 -0.09 l
0.44 -0.10 l
0.43 -0.10 l
0.44 -0.10 l
0.44 -0.10 l
0.43 -0.10 l
0.44 -0.10 l
0.44 -0.10 l
0.43 -0.10 l
0.44 -0.10 l
0.44 -0.10 l
0.43 -0.10 l
0.44 -0.10 l
0.44 -0.09 l
0.43 -0.10 l
0.44 -0.10 l
0.44 -0.10 l
0.43 -0.10 l
0.44 -0.10 l
0.44 -0.10 l
0.44 -0.09 l
0.43 -0.10 l
0.44 -0.10 l
0.44 -0.10 l
0.43 -0.10 l
0.44 -0.10 l
0.44 -0.09 l
0.43 -0.10 l
0.44 -0.10 l
0.44 -0.10 l
0.43 -0.10 l
0.44 -0.09 l
0.44 -0.10 l
0.43 -0.10 l
0.44 -0.10 l
0.44 -0.10 l
217.13 154.85 lineto
0.44 -0.10 l
0.44 -0.10 l
0.44 -0.10 l
0.43 -0.09 l
0.44 -0.10 l
0.44 -0.10 l
0.43 -0.10 l
0.44 -0.09 l
0.44 -0.10 l
0.43 -0.10 l
0.44 -0.09 l
0.44 -0.10 l
0.43 -0.10 l
0.44 -0.09 l
0.44 -0.10 l
0.43 -0.10 l
0.44 -0.09 l
0.44 -0.10 l
0.43 -0.10 l
0.44 -0.09 l
0.44 -0.10 l
0.44 -0.10 l
0.43 -0.09 l
0.44 -0.10 l
0.44 -0.09 l
0.43 -0.10 l
0.44 -0.10 l
0.44 -0.09 l
0.43 -0.10 l
0.44 -0.09 l
0.44 -0.10 l
0.43 -0.10 l
0.44 -0.09 l
0.44 -0.10 l
0.43 -0.09 l
0.44 -0.10 l
0.44 -0.09 l
0.43 -0.10 l
0.44 -0.09 l
0.44 -0.10 l
0.44 -0.09 l
0.43 -0.10 l
0.44 -0.09 l
0.44 -0.10 l
0.43 -0.09 l
0.44 -0.10 l
0.44 -0.09 l
0.43 -0.10 l
0.44 -0.09 l
0.44 -0.10 l
0.43 -0.09 l
0.44 -0.10 l
0.44 -0.09 l
0.43 -0.10 l
0.44 -0.09 l
0.44 -0.09 l
0.43 -0.10 l
0.44 -0.09 l
0.44 -0.10 l
0.44 -0.09 l
0.43 -0.09 l
0.44 -0.10 l
0.44 -0.09 l
0.43 -0.09 l
0.44 -0.10 l
0.44 -0.09 l
0.43 -0.09 l
0.44 -0.10 l
0.44 -0.09 l
0.43 -0.09 l
0.44 -0.10 l
0.44 -0.09 l
0.43 -0.09 l
0.44 -0.10 l
0.44 -0.09 l
0.43 -0.09 l
0.44 -0.10 l
0.44 -0.09 l
0.44 -0.09 l
0.43 -0.09 l
0.44 -0.10 l
0.44 -0.09 l
0.43 -0.09 l
0.44 -0.09 l
0.44 -0.10 l
0.43 -0.09 l
0.44 -0.09 l
0.44 -0.09 l
0.43 -0.09 l
0.44 -0.10 l
0.44 -0.09 l
0.43 -0.09 l
0.44 -0.09 l
0.44 -0.09 l
0.43 -0.09 l
0.44 -0.10 l
0.44 -0.09 l
0.44 -0.09 l
0.43 -0.09 l
260.82 145.40 lineto
o
0.5294 0.8078 0.9804 srgb
np
42.40 39.19 m
0.44 -0.01 l
0.43 0 l
0.44 0 l
0.44 0 l
0.43 0.01 l
0.44 0 l
0.44 0.03 l
0.43 0.07 l
0.44 0.14 l
0.44 0.25 l
0.43 0.40 l
0.44 0.56 l
0.44 0.76 l
0.43 0.97 l
0.44 1.17 l
0.44 1.37 l
0.43 1.57 l
0.44 1.74 l
0.44 1.91 l
0.44 2.06 l
0.43 2.18 l
0.44 2.29 l
0.44 2.38 l
0.43 2.46 l
0.44 2.51 l
0.44 2.56 l
0.43 2.58 l
0.44 2.60 l
0.44 2.61 l
0.43 2.60 l
0.44 2.59 l
0.44 2.57 l
0.43 2.54 l
0.44 2.51 l
0.44 2.47 l
0.43 2.44 l
0.44 2.39 l
0.44 2.34 l
0.44 2.29 l
0.43 2.24 l
0.44 2.19 l
0.44 2.14 l
0.43 2.08 l
0.44 2.03 l
0.44 1.97 l
0.43 1.92 l
0.44 1.86 l
0.44 1.82 l
0.43 1.76 l
0.44 1.70 l
0.44 1.66 l
0.43 1.60 l
0.44 1.55 l
0.44 1.51 l
0.43 1.45 l
0.44 1.41 l
0.44 1.37 l
0.44 1.32 l
0.43 1.27 l
0.44 1.23 l
0.44 1.19 l
0.43 1.15 l
0.44 1.11 l
0.44 1.07 l
0.43 1.04 l
0.44 1.00 l
0.44 0.96 l
0.43 0.93 l
0.44 0.89 l
0.44 0.86 l
0.43 0.83 l
0.44 0.80 l
0.44 0.77 l
0.43 0.74 l
0.44 0.71 l
0.44 0.69 l
0.44 0.66 l
0.43 0.63 l
0.44 0.61 l
0.44 0.58 l
0.43 0.56 l
0.44 0.54 l
0.44 0.52 l
0.43 0.49 l
0.44 0.48 l
0.44 0.45 l
0.43 0.43 l
0.44 0.42 l
0.44 0.40 l
0.43 0.38 l
0.44 0.36 l
0.44 0.35 l
0.43 0.33 l
0.44 0.31 l
0.44 0.30 l
0.44 0.28 l
0.43 0.27 l
0.44 0.26 l
0.44 0.24 l
86.08 160.00 lineto
0.44 0.22 l
0.44 0.21 l
0.43 0.19 l
0.44 0.18 l
0.44 0.17 l
0.43 0.16 l
0.44 0.15 l
0.44 0.14 l
0.43 0.13 l
0.44 0.12 l
0.44 0.11 l
0.43 0.11 l
0.44 0.09 l
0.44 0.09 l
0.44 0.08 l
0.43 0.06 l
0.44 0.07 l
0.44 0.05 l
0.43 0.05 l
0.44 0.04 l
0.44 0.04 l
0.43 0.02 l
0.44 0.02 l
0.44 0.02 l
0.43 0.01 l
0.44 0 l
0.44 0 l
0.43 -0.01 l
0.44 -0.01 l
0.44 -0.02 l
0.43 -0.02 l
0.44 -0.02 l
0.44 -0.04 l
0.44 -0.03 l
0.43 -0.04 l
0.44 -0.05 l
0.44 -0.04 l
0.43 -0.06 l
0.44 -0.05 l
0.44 -0.06 l
0.43 -0.07 l
0.44 -0.06 l
0.44 -0.07 l
0.43 -0.07 l
0.44 -0.08 l
0.44 -0.08 l
0.43 -0.08 l
0.44 -0.09 l
0.44 -0.09 l
0.43 -0.09 l
0.44 -0.09 l
0.44 -0.09 l
0.44 -0.10 l
0.43 -0.10 l
0.44 -0.11 l
0.44 -0.10 l
0.43 -0.11 l
0.44 -0.11 l
0.44 -0.11 l
0.43 -0.11 l
0.44 -0.11 l
0.44 -0.12 l
0.43 -0.12 l
0.44 -0.12 l
0.44 -0.12 l
0.43 -0.12 l
0.44 -0.13 l
0.44 -0.12 l
0.43 -0.13 l
0.44 -0.13 l
0.44 -0.13 l
0.44 -0.13 l
0.43 -0.13 l
0.44 -0.14 l
0.44 -0.13 l
0.43 -0.14 l
0.44 -0.14 l
0.44 -0.14 l
0.43 -0.13 l
0.44 -0.15 l
0.44 -0.14 l
0.43 -0.14 l
0.44 -0.14 l
0.44 -0.15 l
0.43 -0.14 l
0.44 -0.15 l
0.44 -0.14 l
0.43 -0.15 l
0.44 -0.15 l
0.44 -0.15 l
0.43 -0.15 l
0.44 -0.15 l
0.44 -0.15 l
0.44 -0.15 l
0.43 -0.15 l
0.44 -0.15 l
0.44 -0.15 l
0.43 -0.16 l
0.44 -0.15 l
129.77 154.73 lineto
0.43 -0.16 l
0.44 -0.15 l
0.44 -0.16 l
0.43 -0.16 l
0.44 -0.15 l
0.44 -0.16 l
0.43 -0.15 l
0.44 -0.16 l
0.44 -0.16 l
0.43 -0.16 l
0.44 -0.16 l
0.44 -0.15 l
0.44 -0.16 l
0.43 -0.16 l
0.44 -0.16 l
0.44 -0.16 l
0.43 -0.16 l
0.44 -0.16 l
0.44 -0.16 l
0.43 -0.16 l
0.44 -0.16 l
0.44 -0.16 l
0.43 -0.16 l
0.44 -0.16 l
0.44 -0.17 l
0.43 -0.16 l
0.44 -0.16 l
0.44 -0.16 l
0.43 -0.16 l
0.44 -0.16 l
0.44 -0.17 l
0.44 -0.16 l
0.43 -0.16 l
0.44 -0.16 l
0.44 -0.16 l
0.43 -0.17 l
0.44 -0.16 l
0.44 -0.16 l
0.43 -0.16 l
0.44 -0.16 l
0.44 -0.17 l
0.43 -0.16 l
0.44 -0.16 l
0.44 -0.16 l
0.43 -0.17 l
0.44 -0.16 l
0.44 -0.16 l
0.43 -0.16 l
0.44 -0.17 l
0.44 -0.16 l
0.44 -0.16 l
0.43 -0.16 l
0.44 -0.16 l
0.44 -0.17 l
0.43 -0.16 l
0.44 -0.16 l
0.44 -0.16 l
0.43 -0.16 l
0.44 -0.17 l
0.44 -0.16 l
0.43 -0.16 l
0.44 -0.16 l
0.44 -0.16 l
0.43 -0.17 l
0.44 -0.16 l
0.44 -0.16 l
0.43 -0.16 l
0.44 -0.16 l
0.44 -0.16 l
0.44 -0.16 l
0.43 -0.16 l
0.44 -0.16 l
0.44 -0.17 l
0.43 -0.16 l
0.44 -0.16 l
0.44 -0.16 l
0.43 -0.16 l
0.44 -0.16 l
0.44 -0.16 l
0.43 -0.16 l
0.44 -0.16 l
0.44 -0.16 l
0.43 -0.16 l
0.44 -0.16 l
0.44 -0.16 l
0.43 -0.16 l
0.44 -0.15 l
0.44 -0.16 l
0.44 -0.16 l
0.43 -0.16 l
0.44 -0.16 l
0.44 -0.16 l
0.43 -0.16 l
0.44 -0.15 l
0.44 -0.16 l
0.43 -0.16 l
0.44 -0.16 l
0.44 -0.16 l
0.43 -0.15 l
173.45 138.70 lineto
0.44 -0.16 l
0.43 -0.15 l
0.44 -0.16 l
0.44 -0.16 l
0.43 -0.15 l
0.44 -0.16 l
0.44 -0.16 l
0.44 -0.15 l
0.43 -0.16 l
0.44 -0.15 l
0.44 -0.16 l
0.43 -0.16 l
0.44 -0.15 l
0.44 -0.16 l
0.43 -0.15 l
0.44 -0.16 l
0.44 -0.15 l
0.43 -0.15 l
0.44 -0.16 l
0.44 -0.15 l
0.43 -0.16 l
0.44 -0.15 l
0.44 -0.15 l
0.43 -0.16 l
0.44 -0.15 l
0.44 -0.15 l
0.44 -0.16 l
0.43 -0.15 l
0.44 -0.15 l
0.44 -0.15 l
0.43 -0.16 l
0.44 -0.15 l
0.44 -0.15 l
0.43 -0.15 l
0.44 -0.15 l
0.44 -0.15 l
0.43 -0.16 l
0.44 -0.15 l
0.44 -0.15 l
0.43 -0.15 l
0.44 -0.15 l
0.44 -0.15 l
0.43 -0.15 l
0.44 -0.15 l
0.44 -0.15 l
0.44 -0.15 l
0.43 -0.15 l
0.44 -0.15 l
0.44 -0.14 l
0.43 -0.15 l
0.44 -0.15 l
0.44 -0.15 l
0.43 -0.15 l
0.44 -0.15 l
0.44 -0.14 l
0.43 -0.15 l
0.44 -0.15 l
0.44 -0.15 l
0.43 -0.14 l
0.44 -0.15 l
0.44 -0.15 l
0.43 -0.14 l
0.44 -0.15 l
0.44 -0.14 l
0.44 -0.15 l
0.43 -0.15 l
0.44 -0.14 l
0.44 -0.15 l
0.43 -0.14 l
0.44 -0.15 l
0.44 -0.14 l
0.43 -0.15 l
0.44 -0.14 l
0.44 -0.14 l
0.43 -0.15 l
0.44 -0.14 l
0.44 -0.15 l
0.43 -0.14 l
0.44 -0.14 l
0.44 -0.15 l
0.43 -0.14 l
0.44 -0.14 l
0.44 -0.14 l
0.44 -0.15 l
0.43 -0.14 l
0.44 -0.14 l
0.44 -0.14 l
0.43 -0.14 l
0.44 -0.14 l
0.44 -0.14 l
0.43 -0.15 l
0.44 -0.14 l
0.44 -0.14 l
0.43 -0.14 l
0.44 -0.14 l
0.44 -0.14 l
0.43 -0.14 l
0.44 -0.14 l
0.44 -0.13 l
217.13 123.86 lineto
0.44 -0.14 l
0.44 -0.14 l
0.44 -0.14 l
0.43 -0.14 l
0.44 -0.14 l
0.44 -0.13 l
0.43 -0.14 l
0.44 -0.14 l
0.44 -0.14 l
0.43 -0.13 l
0.44 -0.14 l
0.44 -0.14 l
0.43 -0.13 l
0.44 -0.14 l
0.44 -0.14 l
0.43 -0.13 l
0.44 -0.14 l
0.44 -0.13 l
0.43 -0.14 l
0.44 -0.13 l
0.44 -0.14 l
0.44 -0.13 l
0.43 -0.14 l
0.44 -0.13 l
0.44 -0.14 l
0.43 -0.13 l
0.44 -0.13 l
0.44 -0.14 l
0.43 -0.13 l
0.44 -0.13 l
0.44 -0.14 l
0.43 -0.13 l
0.44 -0.13 l
0.44 -0.13 l
0.43 -0.14 l
0.44 -0.13 l
0.44 -0.13 l
0.43 -0.13 l
0.44 -0.13 l
0.44 -0.14 l
0.44 -0.13 l
0.43 -0.13 l
0.44 -0.13 l
0.44 -0.13 l
0.43 -0.13 l
0.44 -0.13 l
0.44 -0.13 l
0.43 -0.13 l
0.44 -0.13 l
0.44 -0.13 l
0.43 -0.13 l
0.44 -0.12 l
0.44 -0.13 l
0.43 -0.13 l
0.44 -0.13 l
0.44 -0.13 l
0.43 -0.13 l
0.44 -0.12 l
0.44 -0.13 l
0.44 -0.13 l
0.43 -0.13 l
0.44 -0.12 l
0.44 -0.13 l
0.43 -0.13 l
0.44 -0.12 l
0.44 -0.13 l
0.43 -0.12 l
0.44 -0.13 l
0.44 -0.13 l
0.43 -0.12 l
0.44 -0.13 l
0.44 -0.12 l
0.43 -0.13 l
0.44 -0.12 l
0.44 -0.13 l
0.43 -0.12 l
0.44 -0.12 l
0.44 -0.13 l
0.44 -0.12 l
0.43 -0.12 l
0.44 -0.13 l
0.44 -0.12 l
0.43 -0.12 l
0.44 -0.13 l
0.44 -0.12 l
0.43 -0.12 l
0.44 -0.12 l
0.44 -0.13 l
0.43 -0.12 l
0.44 -0.12 l
0.44 -0.12 l
0.43 -0.12 l
0.44 -0.12 l
0.44 -0.12 l
0.43 -0.12 l
0.44 -0.12 l
0.44 -0.12 l
0.44 -0.12 l
0.43 -0.12 l
260.82 110.94 lineto
o
1 0.6275 0.4784 srgb
np
42.40 39.19 m
0.44 -0.01 l
0.43 0 l
0.44 0 l
0.44 0 l
0.43 0 l
0.44 0.01 l
0.44 0.03 l
0.43 0.06 l
0.44 0.14 l
0.44 0.24 l
0.43 0.38 l
0.44 0.54 l
0.44 0.73 l
0.43 0.91 l
0.44 1.10 l
0.44 1.28 l
0.43 1.47 l
0.44 1.62 l
0.44 1.77 l
0.44 1.89 l
0.43 2.01 l
0.44 2.09 l
0.44 2.16 l
0.43 2.22 l
0.44 2.27 l
0.44 2.29 l
0.43 2.30 l
0.44 2.31 l
0.44 2.30 l
0.43 2.28 l
0.44 2.27 l
0.44 2.23 l
0.43 2.20 l
0.44 2.16 l
0.44 2.11 l
0.43 2.07 l
0.44 2.01 l
0.44 1.97 l
0.44 1.91 l
0.43 1.86 l
0.44 1.81 l
0.44 1.75 l
0.43 1.69 l
0.44 1.64 l
0.44 1.58 l
0.43 1.53 l
0.44 1.47 l
0.44 1.43 l
0.43 1.37 l
0.44 1.31 l
0.44 1.27 l
0.43 1.22 l
0.44 1.17 l
0.44 1.12 l
0.43 1.08 l
0.44 1.03 l
0.44 0.99 l
0.44 0.94 l
0.43 0.91 l
0.44 0.86 l
0.44 0.83 l
0.43 0.79 l
0.44 0.75 l
0.44 0.72 l
0.43 0.68 l
0.44 0.65 l
0.44 0.62 l
0.43 0.58 l
0.44 0.56 l
0.44 0.53 l
0.43 0.50 l
0.44 0.47 l
0.44 0.44 l
0.43 0.42 l
0.44 0.40 l
0.44 0.37 l
0.44 0.34 l
0.43 0.33 l
0.44 0.30 l
0.44 0.29 l
0.43 0.26 l
0.44 0.24 l
0.44 0.23 l
0.43 0.21 l
0.44 0.19 l
0.44 0.17 l
0.43 0.16 l
0.44 0.14 l
0.44 0.12 l
0.43 0.11 l
0.44 0.10 l
0.44 0.08 l
0.43 0.08 l
0.44 0.05 l
0.44 0.05 l
0.44 0.03 l
0.43 0.02 l
0.44 0.02 l
0.44 0 l
86.08 133.36 lineto
0.44 -0.02 l
0.44 -0.03 l
0.43 -0.04 l
0.44 -0.05 l
0.44 -0.05 l
0.43 -0.07 l
0.44 -0.07 l
0.44 -0.08 l
0.43 -0.08 l
0.44 -0.10 l
0.44 -0.10 l
0.43 -0.10 l
0.44 -0.12 l
0.44 -0.12 l
0.44 -0.12 l
0.43 -0.13 l
0.44 -0.14 l
0.44 -0.14 l
0.43 -0.15 l
0.44 -0.15 l
0.44 -0.16 l
0.43 -0.16 l
0.44 -0.16 l
0.44 -0.17 l
0.43 -0.17 l
0.44 -0.18 l
0.44 -0.18 l
0.43 -0.19 l
0.44 -0.18 l
0.44 -0.19 l
0.43 -0.20 l
0.44 -0.20 l
0.44 -0.20 l
0.44 -0.20 l
0.43 -0.20 l
0.44 -0.21 l
0.44 -0.21 l
0.43 -0.21 l
0.44 -0.22 l
0.44 -0.22 l
0.43 -0.21 l
0.44 -0.23 l
0.44 -0.22 l
0.43 -0.22 l
0.44 -0.23 l
0.44 -0.23 l
0.43 -0.23 l
0.44 -0.23 l
0.44 -0.23 l
0.43 -0.23 l
0.44 -0.24 l
0.44 -0.23 l
0.44 -0.24 l
0.43 -0.24 l
0.44 -0.24 l
0.44 -0.24 l
0.43 -0.24 l
0.44 -0.24 l
0.44 -0.25 l
0.43 -0.24 l
0.44 -0.24 l
0.44 -0.25 l
0.43 -0.24 l
0.44 -0.25 l
0.44 -0.25 l
0.43 -0.24 l
0.44 -0.25 l
0.44 -0.25 l
0.43 -0.25 l
0.44 -0.25 l
0.44 -0.25 l
0.44 -0.24 l
0.43 -0.25 l
0.44 -0.25 l
0.44 -0.25 l
0.43 -0.25 l
0.44 -0.25 l
0.44 -0.25 l
0.43 -0.26 l
0.44 -0.25 l
0.44 -0.25 l
0.43 -0.25 l
0.44 -0.25 l
0.44 -0.25 l
0.43 -0.25 l
0.44 -0.25 l
0.44 -0.25 l
0.43 -0.25 l
0.44 -0.25 l
0.44 -0.25 l
0.43 -0.25 l
0.44 -0.25 l
0.44 -0.25 l
0.44 -0.25 l
0.43 -0.24 l
0.44 -0.25 l
0.44 -0.25 l
0.43 -0.25 l
0.44 -0.25 l
129.77 113.08 lineto
0.43 -0.25 l
0.44 -0.25 l
0.44 -0.24 l
0.43 -0.25 l
0.44 -0.24 l
0.44 -0.25 l
0.43 -0.24 l
0.44 -0.25 l
0.44 -0.24 l
0.43 -0.25 l
0.44 -0.24 l
0.44 -0.24 l
0.44 -0.24 l
0.43 -0.25 l
0.44 -0.24 l
0.44 -0.24 l
0.43 -0.24 l
0.44 -0.24 l
0.44 -0.24 l
0.43 -0.24 l
0.44 -0.24 l
0.44 -0.23 l
0.43 -0.24 l
0.44 -0.24 l
0.44 -0.23 l
0.43 -0.24 l
0.44 -0.24 l
0.44 -0.23 l
0.43 -0.23 l
0.44 -0.24 l
0.44 -0.23 l
0.44 -0.23 l
0.43 -0.24 l
0.44 -0.23 l
0.44 -0.23 l
0.43 -0.23 l
0.44 -0.23 l
0.44 -0.23 l
0.43 -0.23 l
0.44 -0.22 l
0.44 -0.23 l
0.43 -0.23 l
0.44 -0.22 l
0.44 -0.23 l
0.43 -0.23 l
0.44 -0.22 l
0.44 -0.22 l
0.43 -0.23 l
0.44 -0.22 l
0.44 -0.22 l
0.44 -0.22 l
0.43 -0.22 l
0.44 -0.22 l
0.44 -0.22 l
0.43 -0.22 l
0.44 -0.22 l
0.44 -0.22 l
0.43 -0.22 l
0.44 -0.21 l
0.44 -0.22 l
0.43 -0.21 l
0.44 -0.22 l
0.44 -0.21 l
0.43 -0.22 l
0.44 -0.21 l
0.44 -0.21 l
0.43 -0.21 l
0.44 -0.21 l
0.44 -0.22 l
0.44 -0.21 l
0.43 -0.20 l
0.44 -0.21 l
0.44 -0.21 l
0.43 -0.21 l
0.44 -0.20 l
0.44 -0.21 l
0.43 -0.21 l
0.44 -0.20 l
0.44 -0.20 l
0.43 -0.21 l
0.44 -0.20 l
0.44 -0.20 l
0.43 -0.21 l
0.44 -0.20 l
0.44 -0.20 l
0.43 -0.20 l
0.44 -0.20 l
0.44 -0.19 l
0.44 -0.20 l
0.43 -0.20 l
0.44 -0.20 l
0.44 -0.19 l
0.43 -0.20 l
0.44 -0.19 l
0.44 -0.20 l
0.43 -0.19 l
0.44 -0.19 l
0.44 -0.20 l
0.43 -0.19 l
173.45 90.98 lineto
0.44 -0.19 l
0.43 -0.19 l
0.44 -0.19 l
0.44 -0.19 l
0.43 -0.18 l
0.44 -0.19 l
0.44 -0.19 l
0.44 -0.19 l
0.43 -0.18 l
0.44 -0.19 l
0.44 -0.18 l
0.43 -0.18 l
0.44 -0.19 l
0.44 -0.18 l
0.43 -0.18 l
0.44 -0.18 l
0.44 -0.18 l
0.43 -0.18 l
0.44 -0.18 l
0.44 -0.18 l
0.43 -0.18 l
0.44 -0.18 l
0.44 -0.18 l
0.43 -0.17 l
0.44 -0.18 l
0.44 -0.17 l
0.44 -0.18 l
0.43 -0.17 l
0.44 -0.18 l
0.44 -0.17 l
0.43 -0.17 l
0.44 -0.17 l
0.44 -0.18 l
0.43 -0.17 l
0.44 -0.17 l
0.44 -0.17 l
0.43 -0.16 l
0.44 -0.17 l
0.44 -0.17 l
0.43 -0.17 l
0.44 -0.16 l
0.44 -0.17 l
0.43 -0.17 l
0.44 -0.16 l
0.44 -0.17 l
0.44 -0.16 l
0.43 -0.16 l
0.44 -0.17 l
0.44 -0.16 l
0.43 -0.16 l
0.44 -0.16 l
0.44 -0.16 l
0.43 -0.16 l
0.44 -0.16 l
0.44 -0.16 l
0.43 -0.16 l
0.44 -0.16 l
0.44 -0.15 l
0.43 -0.16 l
0.44 -0.15 l
0.44 -0.16 l
0.43 -0.16 l
0.44 -0.15 l
0.44 -0.15 l
0.44 -0.16 l
0.43 -0.15 l
0.44 -0.15 l
0.44 -0.15 l
0.43 -0.15 l
0.44 -0.16 l
0.44 -0.15 l
0.43 -0.15 l
0.44 -0.14 l
0.44 -0.15 l
0.43 -0.15 l
0.44 -0.15 l
0.44 -0.15 l
0.43 -0.14 l
0.44 -0.15 l
0.44 -0.14 l
0.43 -0.15 l
0.44 -0.14 l
0.44 -0.15 l
0.44 -0.14 l
0.43 -0.14 l
0.44 -0.14 l
0.44 -0.15 l
0.43 -0.14 l
0.44 -0.14 l
0.44 -0.14 l
0.43 -0.14 l
0.44 -0.14 l
0.44 -0.14 l
0.43 -0.14 l
0.44 -0.13 l
0.44 -0.14 l
0.43 -0.14 l
0.44 -0.13 l
0.44 -0.14 l
217.13 74.80 lineto
0.44 -0.14 l
0.44 -0.13 l
0.44 -0.14 l
0.43 -0.13 l
0.44 -0.13 l
0.44 -0.14 l
0.43 -0.13 l
0.44 -0.13 l
0.44 -0.13 l
0.43 -0.13 l
0.44 -0.13 l
0.44 -0.13 l
0.43 -0.13 l
0.44 -0.13 l
0.44 -0.13 l
0.43 -0.12 l
0.44 -0.13 l
0.44 -0.13 l
0.43 -0.13 l
0.44 -0.12 l
0.44 -0.13 l
0.44 -0.12 l
0.43 -0.13 l
0.44 -0.12 l
0.44 -0.12 l
0.43 -0.13 l
0.44 -0.12 l
0.44 -0.12 l
0.43 -0.12 l
0.44 -0.12 l
0.44 -0.13 l
0.43 -0.12 l
0.44 -0.12 l
0.44 -0.12 l
0.43 -0.11 l
0.44 -0.12 l
0.44 -0.12 l
0.43 -0.12 l
0.44 -0.12 l
0.44 -0.11 l
0.44 -0.12 l
0.43 -0.12 l
0.44 -0.11 l
0.44 -0.12 l
0.43 -0.11 l
0.44 -0.12 l
0.44 -0.11 l
0.43 -0.11 l
0.44 -0.12 l
0.44 -0.11 l
0.43 -0.11 l
0.44 -0.11 l
0.44 -0.12 l
0.43 -0.11 l
0.44 -0.11 l
0.44 -0.11 l
0.43 -0.11 l
0.44 -0.11 l
0.44 -0.11 l
0.44 -0.10 l
0.43 -0.11 l
0.44 -0.11 l
0.44 -0.11 l
0.43 -0.10 l
0.44 -0.11 l
0.44 -0.11 l
0.43 -0.10 l
0.44 -0.11 l
0.44 -0.10 l
0.43 -0.11 l
0.44 -0.10 l
0.44 -0.11 l
0.43 -0.10 l
0.44 -0.10 l
0.44 -0.11 l
0.43 -0.10 l
0.44 -0.10 l
0.44 -0.10 l
0.44 -0.10 l
0.43 -0.10 l
0.44 -0.10 l
0.44 -0.10 l
0.43 -0.10 l
0.44 -0.10 l
0.44 -0.10 l
0.43 -0.10 l
0.44 -0.10 l
0.44 -0.10 l
0.43 -0.09 l
0.44 -0.10 l
0.44 -0.10 l
0.43 -0.09 l
0.44 -0.10 l
0.44 -0.10 l
0.43 -0.09 l
0.44 -0.10 l
0.44 -0.09 l
0.44 -0.09 l
0.43 -0.10 l
260.82 63.49 lineto
o
/Font3 findfont 11 s
0 0 0 srgb
116.05 182.58 (L) 0 0 t
/Font5 findfont 11 s
125.89 182.58 (=) 0 0 t
/Font1 findfont 11 s
134.48 182.58 (1) 0 0 t
/Font5 findfont 11 s
140.59 182.58 ( ) 0 0 t
/Font1 findfont 11 s
143.34 182.58 (m) 0 0 t
152.50 182.58 (m) 0 0 t
/Font5 findfont 11 s
161.67 182.58 ( ) 0 0 t
164.42 182.58 ( ) 0 0 t
167.17 182.58 ( ) 0 0 t
/Font3 findfont 11 s
169.92 182.58 (b) 0 0 t
/Font5 findfont 11 s
179.76 182.58 (=) 0 0 t
188.35 182.58 ( ) 0 0 t
/Font3 findfont 11 s
191.10 182.58 (c) 0 0 t
/Font5 findfont 11 s
200.03 182.58 (=) 0 0 t
/Font1 findfont 11 s
208.62 182.58 (4) 0 0 t
/Font5 findfont 11 s
214.73 182.58 ( ) 0 0 t
/Font1 findfont 11 s
217.48 182.58 (m) 0 0 t
226.64 182.58 (m) 0 0 t
0.00 0.00 329.25 209.25 cl
0.00 0.00 329.25 209.25 cl
0.00 0.00 329.25 209.25 cl
0.00 0.00 329.25 209.25 cl
0.00 0.00 329.25 209.25 cl
0.00 0.00 329.25 209.25 cl
/Font1 findfont 9 s
0.3020 0.3020 0.3020 srgb
37.47 35.95 (0.00) 1 0 t
37.47 75.97 (0.25) 1 0 t
37.47 115.99 (0.50) 1 0 t
37.47 156.00 (0.75) 1 0 t
37.47 196.02 (1.00) 1 0 t
0.00 0.00 329.25 209.25 cl
0.00 0.00 329.25 209.25 cl
0.2000 0.2000 0.2000 srgb
1.07 setlinewidth
[] 0 setdash
0 setlinecap
1 setlinejoin
10.00 setmiterlimit
np
39.66 39.18 m
2.74 0 l
o
np
39.66 79.20 m
2.74 0 l
o
np
39.66 119.22 m
2.74 0 l
o
np
39.66 159.23 m
2.74 0 l
o
np
39.66 199.25 m
2.74 0 l
o
0.00 0.00 329.25 209.25 cl
0.00 0.00 329.25 209.25 cl
0.00 0.00 329.25 209.25 cl
0.00 0.00 329.25 209.25 cl
0.00 0.00 329.25 209.25 cl
0.00 0.00 329.25 209.25 cl
0.00 0.00 329.25 209.25 cl
0.00 0.00 329.25 209.25 cl
0.2000 0.2000 0.2000 srgb
1.07 setlinewidth
[] 0 setdash
0 setlinecap
1 setlinejoin
10.00 setmiterlimit
np
114.77 28.61 m
0 2.74 l
o
np
187.58 28.61 m
0 2.74 l
o
np
260.38 28.61 m
0 2.74 l
o
0.00 0.00 329.25 209.25 cl
0.00 0.00 329.25 209.25 cl
/Font1 findfont 9 s
0.3020 0.3020 0.3020 srgb
114.77 19.95 (0.5) .5 0 t
187.58 19.95 (1.0) .5 0 t
260.38 19.95 (1.5) .5 0 t
0.00 0.00 329.25 209.25 cl
0.00 0.00 329.25 209.25 cl
0.00 0.00 329.25 209.25 cl
0.00 0.00 329.25 209.25 cl
/Font1 findfont 11 s
0 0 0 srgb
151.61 7.67 (time) .5 0 t
0.00 0.00 329.25 209.25 cl
0.00 0.00 329.25 209.25 cl
/Font1 findfont 11 s
0 0 0 srgb
15.57 117.56 (V) .5 90 t
0.00 0.00 329.25 209.25 cl
0.00 0.00 329.25 209.25 cl
0.00 0.00 329.25 209.25 cl
0.00 0.00 329.25 209.25 cl
/bg { 1 1 1 srgb } def
269.32 70.91 45.94 93.31 r p2
0.00 0.00 329.25 209.25 cl
0.00 0.00 329.25 209.25 cl
/Font5 findfont 11 s
0 0 0 srgb
273.57 151.34 ( ) 0 0 t
276.32 151.34 ( ) 0 0 t
/Font3 findfont 11 s
279.07 151.34 (H) 0 0 t
/Font1 findfont 8 s
288.20 149.32 (1) 0 0 t
0.00 0.00 329.25 209.25 cl
0.00 0.00 329.25 209.25 cl
/bg { 0.9490 0.9490 0.9490 srgb } def
1 1 1 srgb
1.07 setlinewidth
[] 0 setdash
1 setlinecap
1 setlinejoin
10.00 setmiterlimit
273.57 127.00 17.28 17.28 r p3
0.00 0.00 329.25 209.25 cl
0.00 0.00 329.25 209.25 cl
0.8039 0.7451 0.4392 srgb
1.07 setlinewidth
[] 0 setdash
0 setlinecap
1 setlinejoin
10.00 setmiterlimit
np
275.30 135.64 m
13.83 0 l
o
0.00 0.00 329.25 209.25 cl
0.00 0.00 329.25 209.25 cl
0.8039 0.7451 0.4392 srgb
1.07 setlinewidth
[] 0 setdash
0 setlinecap
1 setlinejoin
10.00 setmiterlimit
np
275.30 135.64 m
13.83 0 l
o
0.00 0.00 329.25 209.25 cl
0.00 0.00 329.25 209.25 cl
0.8039 0.7451 0.4392 srgb
1.07 setlinewidth
[] 0 setdash
0 setlinecap
1 setlinejoin
10.00 setmiterlimit
np
275.30 135.64 m
13.83 0 l
o
0.00 0.00 329.25 209.25 cl
0.00 0.00 329.25 209.25 cl
0.8039 0.7451 0.4392 srgb
1.07 setlinewidth
[] 0 setdash
0 setlinecap
1 setlinejoin
10.00 setmiterlimit
np
275.30 135.64 m
13.83 0 l
o
0.00 0.00 329.25 209.25 cl
0.00 0.00 329.25 209.25 cl
/bg { 0.9490 0.9490 0.9490 srgb } def
1 1 1 srgb
1.07 setlinewidth
[] 0 setdash
1 setlinecap
1 setlinejoin
10.00 setmiterlimit
273.57 109.72 17.28 17.28 r p3
0.00 0.00 329.25 209.25 cl
0.00 0.00 329.25 209.25 cl
0.6078 0.8039 0.6078 srgb
1.07 setlinewidth
[] 0 setdash
0 setlinecap
1 setlinejoin
10.00 setmiterlimit
np
275.30 118.36 m
13.83 0 l
o
0.00 0.00 329.25 209.25 cl
0.00 0.00 329.25 209.25 cl
0.6078 0.8039 0.6078 srgb
1.07 setlinewidth
[] 0 setdash
0 setlinecap
1 setlinejoin
10.00 setmiterlimit
np
275.30 118.36 m
13.83 0 l
o
0.00 0.00 329.25 209.25 cl
0.00 0.00 329.25 209.25 cl
0.6078 0.8039 0.6078 srgb
1.07 setlinewidth
[] 0 setdash
0 setlinecap
1 setlinejoin
10.00 setmiterlimit
np
275.30 118.36 m
13.83 0 l
o
0.00 0.00 329.25 209.25 cl
0.00 0.00 329.25 209.25 cl
0.6078 0.8039 0.6078 srgb
1.07 setlinewidth
[] 0 setdash
0 setlinecap
1 setlinejoin
10.00 setmiterlimit
np
275.30 118.36 m
13.83 0 l
o
0.00 0.00 329.25 209.25 cl
0.00 0.00 329.25 209.25 cl
/bg { 0.9490 0.9490 0.9490 srgb } def
1 1 1 srgb
1.07 setlinewidth
[] 0 setdash
1 setlinecap
1 setlinejoin
10.00 setmiterlimit
273.57 92.44 17.28 17.28 r p3
0.00 0.00 329.25 209.25 cl
0.00 0.00 329.25 209.25 cl
0.5294 0.8078 0.9804 srgb
1.07 setlinewidth
[] 0 setdash
0 setlinecap
1 setlinejoin
10.00 setmiterlimit
np
275.30 101.08 m
13.83 0 l
o
0.00 0.00 329.25 209.25 cl
0.00 0.00 329.25 209.25 cl
0.5294 0.8078 0.9804 srgb
1.07 setlinewidth
[] 0 setdash
0 setlinecap
1 setlinejoin
10.00 setmiterlimit
np
275.30 101.08 m
13.83 0 l
o
0.00 0.00 329.25 209.25 cl
0.00 0.00 329.25 209.25 cl
0.5294 0.8078 0.9804 srgb
1.07 setlinewidth
[] 0 setdash
0 setlinecap
1 setlinejoin
10.00 setmiterlimit
np
275.30 101.08 m
13.83 0 l
o
0.00 0.00 329.25 209.25 cl
0.00 0.00 329.25 209.25 cl
0.5294 0.8078 0.9804 srgb
1.07 setlinewidth
[] 0 setdash
0 setlinecap
1 setlinejoin
10.00 setmiterlimit
np
275.30 101.08 m
13.83 0 l
o
0.00 0.00 329.25 209.25 cl
0.00 0.00 329.25 209.25 cl
/bg { 0.9490 0.9490 0.9490 srgb } def
1 1 1 srgb
1.07 setlinewidth
[] 0 setdash
1 setlinecap
1 setlinejoin
10.00 setmiterlimit
273.57 75.16 17.28 17.28 r p3
0.00 0.00 329.25 209.25 cl
0.00 0.00 329.25 209.25 cl
1 0.6275 0.4784 srgb
1.07 setlinewidth
[] 0 setdash
0 setlinecap
1 setlinejoin
10.00 setmiterlimit
np
275.30 83.80 m
13.83 0 l
o
0.00 0.00 329.25 209.25 cl
0.00 0.00 329.25 209.25 cl
1 0.6275 0.4784 srgb
1.07 setlinewidth
[] 0 setdash
0 setlinecap
1 setlinejoin
10.00 setmiterlimit
np
275.30 83.80 m
13.83 0 l
o
0.00 0.00 329.25 209.25 cl
0.00 0.00 329.25 209.25 cl
1 0.6275 0.4784 srgb
1.07 setlinewidth
[] 0 setdash
0 setlinecap
1 setlinejoin
10.00 setmiterlimit
np
275.30 83.80 m
13.83 0 l
o
0.00 0.00 329.25 209.25 cl
0.00 0.00 329.25 209.25 cl
1 0.6275 0.4784 srgb
1.07 setlinewidth
[] 0 setdash
0 setlinecap
1 setlinejoin
10.00 setmiterlimit
np
275.30 83.80 m
13.83 0 l
o
0.00 0.00 329.25 209.25 cl
0.00 0.00 329.25 209.25 cl
/Font1 findfont 9 s
0 0 0 srgb
293.01 132.41 (0.01) 0 0 t
0.00 0.00 329.25 209.25 cl
0.00 0.00 329.25 209.25 cl
/Font1 findfont 9 s
0 0 0 srgb
293.01 115.13 (0.1) 0 0 t
0.00 0.00 329.25 209.25 cl
0.00 0.00 329.25 209.25 cl
/Font1 findfont 9 s
0 0 0 srgb
293.01 97.85 (0.2) 0 0 t
0.00 0.00 329.25 209.25 cl
0.00 0.00 329.25 209.25 cl
/Font1 findfont 9 s
0 0 0 srgb
293.01 80.57 (0.3) 0 0 t
0.00 0.00 329.25 209.25 cl
0.00 0.00 329.25 209.25 cl
0.00 0.00 329.25 209.25 cl
0.00 0.00 329.25 209.25 cl
0.00 0.00 329.25 209.25 cl
0.00 0.00 329.25 209.25 cl
ep
%%Trailer
%%Pages: 1
%%EOF
