%!PS-Adobe-3.0 EPSF-3.0
%%DocumentNeededResources: font Helvetica
%%+ font Helvetica-Bold
%%+ font Helvetica-Oblique
%%+ font Helvetica-BoldOblique
%%+ font Symbol
%%Title: R Graphics Output
%%Creator: R Software
%%Pages: (atend)
%%BoundingBox: 0 0 338 300
%%EndComments
%%BeginProlog
/bp  { gs sRGB gs } def
% begin .ps.prolog
/gs  { gsave } bind def
/gr  { grestore } bind def
/ep  { showpage gr gr } bind def
/m   { moveto } bind def
/l  { rlineto } bind def
/np  { newpath } bind def
/cp  { closepath } bind def
/f   { fill } bind def
/o   { stroke } bind def
/c   { newpath 0 360 arc } bind def
/r   { 4 2 roll moveto 1 copy 3 -1 roll exch 0 exch rlineto 0 rlineto -1 mul 0 exch rlineto closepath } bind def
/p1  { stroke } bind def
/p2  { gsave bg fill grestore newpath } bind def
/p3  { gsave bg fill grestore stroke } bind def
/p6  { gsave bg eofill grestore newpath } bind def
/p7  { gsave bg eofill grestore stroke } bind def
/t   { 5 -2 roll moveto gsave rotate
       1 index stringwidth pop
       mul neg 0 rmoveto show grestore } bind def
/ta  { 4 -2 roll moveto gsave rotate show } bind def
/tb  { 2 -1 roll 0 rmoveto show } bind def
/cl  { grestore gsave newpath 3 index 3 index moveto 1 index
       4 -1 roll lineto  exch 1 index lineto lineto
       closepath clip newpath } bind def
/rgb { setrgbcolor } bind def
/s   { scalefont setfont } bind def
% end   .ps.prolog
/sRGB { [ /CIEBasedABC
          << /DecodeLMN
               [ { dup 0.03928 le
                        {12.92321 div}
                        {0.055 add 1.055 div 2.4 exp }
                     ifelse
                 } bind dup dup
               ]
             /MatrixLMN [0.412457 0.212673 0.019334
                         0.357576 0.715152 0.119192
                         0.180437 0.072175 0.950301]
             /WhitePoint [0.9505 1.0 1.0890]
           >>
         ] setcolorspace } bind def
/srgb { setcolor } bind def
% begin encoding
/WinAnsiEncoding [
 /.notdef /.notdef /.notdef /.notdef /.notdef /.notdef /.notdef /.notdef
 /.notdef /.notdef /.notdef /.notdef /.notdef /.notdef /.notdef /.notdef
 /.notdef /.notdef /.notdef /.notdef /.notdef /.notdef /.notdef /.notdef
 /.notdef /.notdef /.notdef /.notdef /.notdef /.notdef /.notdef /.notdef
 /space /exclam /quotedbl /numbersign /dollar /percent /ampersand /quoteright
 /parenleft /parenright /asterisk /plus /comma /minus /period /slash
 /zero /one /two /three /four /five /six /seven
 /eight /nine /colon /semicolon /less /equal /greater /question
 /at /A /B /C /D /E /F /G
 /H /I /J /K /L /M /N /O
 /P /Q /R /S /T /U /V /W
 /X /Y /Z /bracketleft /backslash /bracketright /asciicircum /underscore
 /grave /a /b /c /d /e /f /g
 /h /i /j /k /l /m /n /o
 /p /q /r /s /t /u /v /w
 /x /y /z /braceleft /bar /braceright /asciitilde /.notdef
 /Euro /.notdef /quotesinglbase /florin /quotedblbase /ellipsis /dagger /daggerdbl
 /circumflex /perthousand /Scaron /guilsinglleft /OE /.notdef /Zcaron /.notdef
 /.notdef /quoteleft /quoteright /quotedblleft /quotedblright /bullet /endash /emdash
 /tilde /trademark /scaron /guilsinglright /oe /.notdef /zcaron /Ydieresis
 /space /exclamdown /cent /sterling /currency /yen /brokenbar /section
 /dieresis /copyright /ordfeminine /guillemotleft /logicalnot /hyphen /registered /macron
 /degree /plusminus /twosuperior /threesuperior /acute /mu /paragraph /periodcentered
 /cedilla /onesuperior /ordmasculine /guillemotright /onequarter /onehalf /threequarters /questiondown
 /Agrave /Aacute /Acircumflex /Atilde /Adieresis /Aring /AE /Ccedilla
 /Egrave /Eacute /Ecircumflex /Edieresis /Igrave /Iacute /Icircumflex /Idieresis
 /Eth /Ntilde /Ograve /Oacute /Ocircumflex /Otilde /Odieresis /multiply
 /Oslash /Ugrave /Uacute /Ucircumflex /Udieresis /Yacute /Thorn /germandbls
 /agrave /aacute /acircumflex /atilde /adieresis /aring /ae /ccedilla
 /egrave /eacute /ecircumflex /edieresis /igrave /iacute /icircumflex /idieresis
 /eth /ntilde /ograve /oacute /ocircumflex /otilde /odieresis /divide
 /oslash /ugrave /uacute /ucircumflex /udieresis /yacute /thorn /ydieresis
]
 def
% end encoding
%%IncludeResource: font Helvetica
/Helvetica findfont
dup length dict begin
  {1 index /FID ne {def} {pop pop} ifelse} forall
  /Encoding WinAnsiEncoding def
  currentdict
  end
/Font1 exch definefont pop
%%IncludeResource: font Helvetica-Bold
/Helvetica-Bold findfont
dup length dict begin
  {1 index /FID ne {def} {pop pop} ifelse} forall
  /Encoding WinAnsiEncoding def
  currentdict
  end
/Font2 exch definefont pop
%%IncludeResource: font Helvetica-Oblique
/Helvetica-Oblique findfont
dup length dict begin
  {1 index /FID ne {def} {pop pop} ifelse} forall
  /Encoding WinAnsiEncoding def
  currentdict
  end
/Font3 exch definefont pop
%%IncludeResource: font Helvetica-BoldOblique
/Helvetica-BoldOblique findfont
dup length dict begin
  {1 index /FID ne {def} {pop pop} ifelse} forall
  /Encoding WinAnsiEncoding def
  currentdict
  end
/Font4 exch definefont pop
%%IncludeResource: font Symbol
/Symbol findfont
dup length dict begin
  {1 index /FID ne {def} {pop pop} ifelse} forall
  currentdict
  end
/Font5 exch definefont pop
%%EndProlog
%%Page: 1 1
bp
/bg { 1 1 1 srgb } def
0.00 0.00 337.50 300.00 r p2
59.04 73.44 307.26 240.96 cl
59.04 73.44 307.26 240.96 cl
/Font1 findfont 2 s
1 0 0 srgb
68.23 119.09 (+) .5 0 t
68.46 105.49 (+) .5 0 t
68.68 102.56 (+) .5 0 t
68.91 100.66 (+) .5 0 t
69.13 99.37 (+) .5 0 t
69.36 97.87 (+) .5 0 t
69.58 99.73 (+) .5 0 t
69.81 99.62 (+) .5 0 t
70.03 100.34 (+) .5 0 t
70.26 101.62 (+) .5 0 t
70.48 103.31 (+) .5 0 t
70.70 103.62 (+) .5 0 t
70.93 109.23 (+) .5 0 t
71.15 110.76 (+) .5 0 t
71.38 116.38 (+) .5 0 t
71.60 114.63 (+) .5 0 t
71.83 94.30 (+) .5 0 t
72.05 91.41 (+) .5 0 t
72.28 88.69 (+) .5 0 t
72.50 88.78 (+) .5 0 t
72.73 89.67 (+) .5 0 t
72.95 89.19 (+) .5 0 t
73.18 89.46 (+) .5 0 t
73.40 87.95 (+) .5 0 t
73.63 90.88 (+) .5 0 t
73.85 90.36 (+) .5 0 t
74.07 89.24 (+) .5 0 t
74.30 85.94 (+) .5 0 t
74.52 88.24 (+) .5 0 t
74.75 83.15 (+) .5 0 t
74.97 81.85 (+) .5 0 t
75.20 79.14 (+) .5 0 t
75.42 89.20 (+) .5 0 t
75.65 111.92 (+) .5 0 t
75.87 115.89 (+) .5 0 t
76.10 116.20 (+) .5 0 t
76.32 118.54 (+) .5 0 t
76.55 119.26 (+) .5 0 t
76.77 123.65 (+) .5 0 t
77.00 124.78 (+) .5 0 t
77.22 129.16 (+) .5 0 t
77.44 131.91 (+) .5 0 t
77.67 135.49 (+) .5 0 t
77.89 137.83 (+) .5 0 t
78.12 141.82 (+) .5 0 t
78.34 145.79 (+) .5 0 t
78.57 153.06 (+) .5 0 t
78.79 159.07 (+) .5 0 t
79.02 161.84 (+) .5 0 t
79.24 155.18 (+) .5 0 t
79.47 139.14 (+) .5 0 t
79.69 141.48 (+) .5 0 t
79.92 142.20 (+) .5 0 t
80.14 142.91 (+) .5 0 t
80.37 141.99 (+) .5 0 t
80.59 143.92 (+) .5 0 t
80.81 145.45 (+) .5 0 t
81.04 146.58 (+) .5 0 t
81.26 146.87 (+) .5 0 t
81.49 146.77 (+) .5 0 t
81.71 146.25 (+) .5 0 t
81.94 144.93 (+) .5 0 t
82.16 141.54 (+) .5 0 t
82.39 138.99 (+) .5 0 t
82.61 136.84 (+) .5 0 t
82.84 135.10 (+) .5 0 t
83.06 148.89 (+) .5 0 t
83.29 166.78 (+) .5 0 t
83.51 167.48 (+) .5 0 t
83.74 168.19 (+) .5 0 t
83.96 170.14 (+) .5 0 t
84.18 174.11 (+) .5 0 t
84.41 173.19 (+) .5 0 t
84.63 175.94 (+) .5 0 t
84.86 179.93 (+) .5 0 t
85.08 182.68 (+) .5 0 t
85.31 185.04 (+) .5 0 t
85.53 188.19 (+) .5 0 t
85.76 190.96 (+) .5 0 t
85.98 195.75 (+) .5 0 t
86.21 201.79 (+) .5 0 t
86.43 205.35 (+) .5 0 t
86.66 203.62 (+) .5 0 t
86.88 184.29 (+) .5 0 t
87.11 182.14 (+) .5 0 t
87.33 180.40 (+) .5 0 t
87.55 182.74 (+) .5 0 t
87.78 182.24 (+) .5 0 t
88.00 183.76 (+) .5 0 t
88.23 182.03 (+) .5 0 t
88.45 184.77 (+) .5 0 t
88.68 181.00 (+) .5 0 t
88.90 182.93 (+) .5 0 t
89.13 180.79 (+) .5 0 t
89.35 180.27 (+) .5 0 t
89.58 177.72 (+) .5 0 t
89.80 170.65 (+) .5 0 t
90.03 168.50 (+) .5 0 t
90.25 165.54 (+) .5 0 t
90.48 169.51 (+) .5 0 t
90.70 193.94 (+) .5 0 t
90.92 195.05 (+) .5 0 t
91.15 197.82 (+) .5 0 t
91.37 196.48 (+) .5 0 t
91.60 197.61 (+) .5 0 t
91.82 200.76 (+) .5 0 t
92.05 201.08 (+) .5 0 t
92.27 202.60 (+) .5 0 t
92.50 204.14 (+) .5 0 t
92.72 205.66 (+) .5 0 t
92.95 208.01 (+) .5 0 t
93.17 209.13 (+) .5 0 t
93.40 215.15 (+) .5 0 t
93.62 217.50 (+) .5 0 t
93.85 222.70 (+) .5 0 t
94.07 222.60 (+) .5 0 t
94.29 220.04 (+) .5 0 t
94.52 199.09 (+) .5 0 t
94.74 196.94 (+) .5 0 t
94.97 198.88 (+) .5 0 t
95.19 199.18 (+) .5 0 t
95.42 198.67 (+) .5 0 t
95.64 199.38 (+) .5 0 t
95.87 197.64 (+) .5 0 t
96.09 198.76 (+) .5 0 t
96.32 197.01 (+) .5 0 t
96.54 194.87 (+) .5 0 t
96.77 193.53 (+) .5 0 t
96.99 189.75 (+) .5 0 t
97.22 188.00 (+) .5 0 t
97.44 184.64 (+) .5 0 t
97.66 181.25 (+) .5 0 t
97.89 177.88 (+) .5 0 t
98.11 189.63 (+) .5 0 t
98.34 206.29 (+) .5 0 t
98.56 208.63 (+) .5 0 t
98.79 208.94 (+) .5 0 t
99.01 205.56 (+) .5 0 t
99.24 207.50 (+) .5 0 t
99.46 207.80 (+) .5 0 t
99.69 211.36 (+) .5 0 t
99.91 210.45 (+) .5 0 t
100.14 212.79 (+) .5 0 t
100.36 213.92 (+) .5 0 t
100.59 214.21 (+) .5 0 t
100.81 216.98 (+) .5 0 t
101.03 224.22 (+) .5 0 t
101.26 226.58 (+) .5 0 t
101.48 229.73 (+) .5 0 t
101.71 230.05 (+) .5 0 t
101.93 218.90 (+) .5 0 t
102.16 208.17 (+) .5 0 t
102.38 204.38 (+) .5 0 t
102.61 205.44 (+) .5 0 t
102.83 203.81 (+) .5 0 t
103.06 204.87 (+) .5 0 t
103.28 203.89 (+) .5 0 t
103.51 202.67 (+) .5 0 t
103.73 200.87 (+) .5 0 t
103.96 200.71 (+) .5 0 t
104.18 199.89 (+) .5 0 t
104.40 197.68 (+) .5 0 t
104.63 192.62 (+) .5 0 t
104.85 190.57 (+) .5 0 t
105.08 185.50 (+) .5 0 t
105.30 183.05 (+) .5 0 t
105.53 183.30 (+) .5 0 t
105.75 198.26 (+) .5 0 t
105.98 209.71 (+) .5 0 t
106.20 209.14 (+) .5 0 t
106.43 208.98 (+) .5 0 t
106.65 210.61 (+) .5 0 t
106.88 212.49 (+) .5 0 t
107.10 211.92 (+) .5 0 t
107.33 211.92 (+) .5 0 t
107.55 215.03 (+) .5 0 t
107.77 214.46 (+) .5 0 t
108.00 217.73 (+) .5 0 t
108.22 219.20 (+) .5 0 t
108.45 222.72 (+) .5 0 t
108.67 226.40 (+) .5 0 t
108.90 228.69 (+) .5 0 t
109.12 234.25 (+) .5 0 t
109.35 226.89 (+) .5 0 t
109.57 207.11 (+) .5 0 t
109.80 206.13 (+) .5 0 t
110.02 206.95 (+) .5 0 t
110.25 205.97 (+) .5 0 t
110.47 202.54 (+) .5 0 t
110.70 203.76 (+) .5 0 t
110.92 202.78 (+) .5 0 t
111.14 202.37 (+) .5 0 t
111.37 201.39 (+) .5 0 t
111.59 201.23 (+) .5 0 t
111.82 196.33 (+) .5 0 t
112.04 196.16 (+) .5 0 t
112.27 193.14 (+) .5 0 t
112.49 191.10 (+) .5 0 t
112.72 184.80 (+) .5 0 t
112.94 180.96 (+) .5 0 t
113.17 184.64 (+) .5 0 t
113.39 209.01 (+) .5 0 t
113.62 208.44 (+) .5 0 t
113.84 208.44 (+) .5 0 t
114.07 208.27 (+) .5 0 t
114.29 212.20 (+) .5 0 t
114.51 207.70 (+) .5 0 t
114.74 210.40 (+) .5 0 t
114.96 211.88 (+) .5 0 t
115.19 211.47 (+) .5 0 t
115.41 212.53 (+) .5 0 t
115.64 216.87 (+) .5 0 t
115.86 218.09 (+) .5 0 t
116.09 222.43 (+) .5 0 t
116.31 225.54 (+) .5 0 t
116.54 230.44 (+) .5 0 t
116.76 229.46 (+) .5 0 t
116.99 226.60 (+) .5 0 t
117.21 203.14 (+) .5 0 t
117.44 203.38 (+) .5 0 t
117.66 202.57 (+) .5 0 t
117.88 202.40 (+) .5 0 t
118.11 203.47 (+) .5 0 t
118.33 200.61 (+) .5 0 t
118.56 200.45 (+) .5 0 t
118.78 201.10 (+) .5 0 t
119.01 199.47 (+) .5 0 t
119.23 197.67 (+) .5 0 t
119.46 195.87 (+) .5 0 t
119.68 193.42 (+) .5 0 t
119.91 187.94 (+) .5 0 t
120.13 184.92 (+) .5 0 t
120.36 179.61 (+) .5 0 t
120.58 179.85 (+) .5 0 t
120.81 194.82 (+) .5 0 t
121.03 202.99 (+) .5 0 t
121.25 206.51 (+) .5 0 t
121.48 205.94 (+) .5 0 t
121.70 206.35 (+) .5 0 t
121.93 207.00 (+) .5 0 t
122.15 206.02 (+) .5 0 t
122.38 207.66 (+) .5 0 t
122.60 207.09 (+) .5 0 t
122.83 209.13 (+) .5 0 t
123.05 211.42 (+) .5 0 t
123.28 213.30 (+) .5 0 t
123.50 217.39 (+) .5 0 t
123.73 218.86 (+) .5 0 t
123.95 221.97 (+) .5 0 t
124.18 226.88 (+) .5 0 t
124.40 227.94 (+) .5 0 t
124.62 215.11 (+) .5 0 t
124.85 201.62 (+) .5 0 t
125.07 201.46 (+) .5 0 t
125.30 199.66 (+) .5 0 t
125.52 199.25 (+) .5 0 t
125.75 201.13 (+) .5 0 t
125.97 198.93 (+) .5 0 t
126.20 196.07 (+) .5 0 t
126.42 197.54 (+) .5 0 t
126.65 196.97 (+) .5 0 t
126.87 192.47 (+) .5 0 t
127.10 189.45 (+) .5 0 t
127.32 186.42 (+) .5 0 t
127.55 183.56 (+) .5 0 t
127.77 178.50 (+) .5 0 t
127.99 179.56 (+) .5 0 t
128.22 175.88 (+) .5 0 t
128.44 195.34 (+) .5 0 t
128.67 203.92 (+) .5 0 t
128.89 201.72 (+) .5 0 t
129.12 203.19 (+) .5 0 t
129.34 205.24 (+) .5 0 t
129.57 204.67 (+) .5 0 t
129.79 203.69 (+) .5 0 t
130.02 203.69 (+) .5 0 t
130.24 204.75 (+) .5 0 t
130.47 207.45 (+) .5 0 t
130.69 209.90 (+) .5 0 t
130.92 212.60 (+) .5 0 t
131.14 214.08 (+) .5 0 t
131.36 218.57 (+) .5 0 t
131.59 222.91 (+) .5 0 t
131.81 223.56 (+) .5 0 t
132.04 220.29 (+) .5 0 t
132.26 198.06 (+) .5 0 t
132.49 199.12 (+) .5 0 t
132.71 198.30 (+) .5 0 t
132.94 194.05 (+) .5 0 t
133.16 196.75 (+) .5 0 t
133.39 195.53 (+) .5 0 t
133.61 194.14 (+) .5 0 t
133.84 193.16 (+) .5 0 t
134.06 190.71 (+) .5 0 t
134.29 190.54 (+) .5 0 t
134.51 189.73 (+) .5 0 t
134.73 183.02 (+) .5 0 t
134.96 183.27 (+) .5 0 t
135.18 180.82 (+) .5 0 t
135.41 174.52 (+) .5 0 t
135.63 171.91 (+) .5 0 t
135.86 173.95 (+) .5 0 t
136.08 197.50 (+) .5 0 t
136.31 198.97 (+) .5 0 t
136.53 201.84 (+) .5 0 t
136.76 198.40 (+) .5 0 t
136.98 201.10 (+) .5 0 t
137.21 201.92 (+) .5 0 t
137.43 200.94 (+) .5 0 t
137.66 200.37 (+) .5 0 t
137.88 205.28 (+) .5 0 t
138.10 205.93 (+) .5 0 t
138.33 206.59 (+) .5 0 t
138.55 209.45 (+) .5 0 t
138.78 211.74 (+) .5 0 t
139.00 217.71 (+) .5 0 t
139.23 219.75 (+) .5 0 t
139.45 222.04 (+) .5 0 t
139.68 212.64 (+) .5 0 t
139.90 194.08 (+) .5 0 t
140.13 193.51 (+) .5 0 t
140.35 192.70 (+) .5 0 t
140.58 191.72 (+) .5 0 t
140.80 192.37 (+) .5 0 t
141.03 191.15 (+) .5 0 t
141.25 191.80 (+) .5 0 t
141.47 189.60 (+) .5 0 t
141.70 188.37 (+) .5 0 t
141.92 185.35 (+) .5 0 t
142.15 183.14 (+) .5 0 t
142.37 180.69 (+) .5 0 t
142.60 177.25 (+) .5 0 t
142.82 174.64 (+) .5 0 t
143.05 170.14 (+) .5 0 t
143.27 169.16 (+) .5 0 t
143.50 188.21 (+) .5 0 t
143.72 195.16 (+) .5 0 t
143.95 196.64 (+) .5 0 t
144.17 192.80 (+) .5 0 t
144.40 195.25 (+) .5 0 t
144.62 195.09 (+) .5 0 t
144.84 196.56 (+) .5 0 t
145.07 196.97 (+) .5 0 t
145.29 200.08 (+) .5 0 t
145.52 200.08 (+) .5 0 t
145.74 202.37 (+) .5 0 t
145.97 203.84 (+) .5 0 t
146.19 206.70 (+) .5 0 t
146.42 208.99 (+) .5 0 t
146.64 211.28 (+) .5 0 t
146.87 214.96 (+) .5 0 t
147.09 218.07 (+) .5 0 t
147.32 197.06 (+) .5 0 t
147.54 189.70 (+) .5 0 t
147.77 189.54 (+) .5 0 t
147.99 189.79 (+) .5 0 t
148.21 186.11 (+) .5 0 t
148.44 186.77 (+) .5 0 t
148.66 188.24 (+) .5 0 t
148.89 187.42 (+) .5 0 t
149.11 184.40 (+) .5 0 t
149.34 183.83 (+) .5 0 t
149.56 180.97 (+) .5 0 t
149.79 180.39 (+) .5 0 t
150.01 178.60 (+) .5 0 t
150.24 172.47 (+) .5 0 t
150.46 170.67 (+) .5 0 t
150.69 163.97 (+) .5 0 t
150.91 167.24 (+) .5 0 t
151.14 189.97 (+) .5 0 t
151.36 191.19 (+) .5 0 t
151.58 191.03 (+) .5 0 t
151.81 191.69 (+) .5 0 t
152.03 191.28 (+) .5 0 t
152.26 192.75 (+) .5 0 t
152.48 192.59 (+) .5 0 t
152.71 194.63 (+) .5 0 t
152.93 194.47 (+) .5 0 t
153.16 196.35 (+) .5 0 t
153.38 196.76 (+) .5 0 t
153.61 203.55 (+) .5 0 t
153.83 200.93 (+) .5 0 t
154.06 207.07 (+) .5 0 t
154.28 212.22 (+) .5 0 t
154.51 213.28 (+) .5 0 t
154.73 207.56 (+) .5 0 t
154.95 185.73 (+) .5 0 t
155.18 186.39 (+) .5 0 t
155.40 185.16 (+) .5 0 t
155.63 181.73 (+) .5 0 t
155.85 183.61 (+) .5 0 t
156.08 182.79 (+) .5 0 t
156.30 183.04 (+) .5 0 t
156.53 183.29 (+) .5 0 t
156.75 181.24 (+) .5 0 t
156.98 180.26 (+) .5 0 t
157.20 176.99 (+) .5 0 t
157.43 175.20 (+) .5 0 t
157.65 171.36 (+) .5 0 t
157.88 168.09 (+) .5 0 t
158.10 163.84 (+) .5 0 t
158.32 159.99 (+) .5 0 t
158.55 164.49 (+) .5 0 t
158.77 187.22 (+) .5 0 t
159.00 187.47 (+) .5 0 t
159.22 187.47 (+) .5 0 t
159.45 189.76 (+) .5 0 t
159.67 187.55 (+) .5 0 t
159.90 190.01 (+) .5 0 t
160.12 190.25 (+) .5 0 t
160.35 190.09 (+) .5 0 t
160.57 193.77 (+) .5 0 t
160.80 191.97 (+) .5 0 t
161.02 194.67 (+) .5 0 t
161.25 199.17 (+) .5 0 t
161.47 201.46 (+) .5 0 t
161.69 204.98 (+) .5 0 t
161.92 210.29 (+) .5 0 t
162.14 211.76 (+) .5 0 t
162.37 195.25 (+) .5 0 t
162.59 180.94 (+) .5 0 t
162.82 181.60 (+) .5 0 t
163.04 180.78 (+) .5 0 t
163.27 180.21 (+) .5 0 t
163.49 180.46 (+) .5 0 t
163.72 180.46 (+) .5 0 t
163.94 179.89 (+) .5 0 t
164.17 177.27 (+) .5 0 t
164.39 176.86 (+) .5 0 t
164.62 173.84 (+) .5 0 t
164.84 171.63 (+) .5 0 t
165.06 169.59 (+) .5 0 t
165.29 165.34 (+) .5 0 t
165.51 162.32 (+) .5 0 t
165.74 157.82 (+) .5 0 t
165.96 158.48 (+) .5 0 t
166.19 177.94 (+) .5 0 t
166.41 184.07 (+) .5 0 t
166.64 184.31 (+) .5 0 t
166.86 184.97 (+) .5 0 t
167.09 183.74 (+) .5 0 t
167.31 184.40 (+) .5 0 t
167.54 185.46 (+) .5 0 t
167.76 186.28 (+) .5 0 t
167.99 186.12 (+) .5 0 t
168.21 188.82 (+) .5 0 t
168.43 189.23 (+) .5 0 t
168.66 192.74 (+) .5 0 t
168.88 194.38 (+) .5 0 t
169.11 197.08 (+) .5 0 t
169.33 203.05 (+) .5 0 t
169.56 205.50 (+) .5 0 t
169.78 206.57 (+) .5 0 t
170.01 183.51 (+) .5 0 t
170.23 176.97 (+) .5 0 t
170.46 177.22 (+) .5 0 t
170.68 176.24 (+) .5 0 t
170.91 177.47 (+) .5 0 t
171.13 176.08 (+) .5 0 t
171.36 175.51 (+) .5 0 t
171.58 174.28 (+) .5 0 t
171.80 173.71 (+) .5 0 t
172.03 171.09 (+) .5 0 t
172.25 170.69 (+) .5 0 t
172.48 165.21 (+) .5 0 t
172.70 164.64 (+) .5 0 t
172.93 160.55 (+) .5 0 t
173.15 153.44 (+) .5 0 t
173.38 153.28 (+) .5 0 t
173.60 158.18 (+) .5 0 t
173.83 177.23 (+) .5 0 t
174.05 179.69 (+) .5 0 t
174.28 179.52 (+) .5 0 t
174.50 179.36 (+) .5 0 t
174.73 177.73 (+) .5 0 t
174.95 180.43 (+) .5 0 t
175.17 181.90 (+) .5 0 t
175.40 183.54 (+) .5 0 t
175.62 185.01 (+) .5 0 t
175.85 183.62 (+) .5 0 t
176.07 188.53 (+) .5 0 t
176.30 189.18 (+) .5 0 t
176.52 191.88 (+) .5 0 t
176.75 195.97 (+) .5 0 t
176.97 200.30 (+) .5 0 t
177.20 200.55 (+) .5 0 t
177.42 193.19 (+) .5 0 t
177.65 174.23 (+) .5 0 t
177.87 174.47 (+) .5 0 t
178.10 173.25 (+) .5 0 t
178.32 174.31 (+) .5 0 t
178.54 173.74 (+) .5 0 t
178.77 172.51 (+) .5 0 t
178.99 171.53 (+) .5 0 t
179.22 170.15 (+) .5 0 t
179.44 168.92 (+) .5 0 t
179.67 167.12 (+) .5 0 t
179.89 165.08 (+) .5 0 t
180.12 160.83 (+) .5 0 t
180.34 159.85 (+) .5 0 t
180.57 156.17 (+) .5 0 t
180.79 150.29 (+) .5 0 t
181.02 147.26 (+) .5 0 t
181.24 157.07 (+) .5 0 t
181.47 175.31 (+) .5 0 t
181.69 176.78 (+) .5 0 t
181.91 173.51 (+) .5 0 t
182.14 176.21 (+) .5 0 t
182.36 176.86 (+) .5 0 t
182.59 179.32 (+) .5 0 t
182.81 178.34 (+) .5 0 t
183.04 180.22 (+) .5 0 t
183.26 180.22 (+) .5 0 t
183.49 178.34 (+) .5 0 t
183.71 179.32 (+) .5 0 t
183.94 176.86 (+) .5 0 t
184.16 176.21 (+) .5 0 t
184.39 173.51 (+) .5 0 t
184.61 176.78 (+) .5 0 t
184.83 175.31 (+) .5 0 t
185.06 157.07 (+) .5 0 t
185.28 147.26 (+) .5 0 t
185.51 150.29 (+) .5 0 t
185.73 156.17 (+) .5 0 t
185.96 159.85 (+) .5 0 t
186.18 160.83 (+) .5 0 t
186.41 165.08 (+) .5 0 t
186.63 167.12 (+) .5 0 t
186.86 168.92 (+) .5 0 t
187.08 170.15 (+) .5 0 t
187.31 171.53 (+) .5 0 t
187.53 172.51 (+) .5 0 t
187.76 173.74 (+) .5 0 t
187.98 174.31 (+) .5 0 t
188.20 173.25 (+) .5 0 t
188.43 174.47 (+) .5 0 t
188.65 174.23 (+) .5 0 t
188.88 193.19 (+) .5 0 t
189.10 200.55 (+) .5 0 t
189.33 200.30 (+) .5 0 t
189.55 195.97 (+) .5 0 t
189.78 191.88 (+) .5 0 t
190.00 189.18 (+) .5 0 t
190.23 188.53 (+) .5 0 t
190.45 183.62 (+) .5 0 t
190.68 185.01 (+) .5 0 t
190.90 183.54 (+) .5 0 t
191.13 181.90 (+) .5 0 t
191.35 180.43 (+) .5 0 t
191.57 177.73 (+) .5 0 t
191.80 179.36 (+) .5 0 t
192.02 179.52 (+) .5 0 t
192.25 179.69 (+) .5 0 t
192.47 177.23 (+) .5 0 t
192.70 158.18 (+) .5 0 t
192.92 153.28 (+) .5 0 t
193.15 153.44 (+) .5 0 t
193.37 160.55 (+) .5 0 t
193.60 164.64 (+) .5 0 t
193.82 165.21 (+) .5 0 t
194.05 170.69 (+) .5 0 t
194.27 171.09 (+) .5 0 t
194.50 173.71 (+) .5 0 t
194.72 174.28 (+) .5 0 t
194.94 175.51 (+) .5 0 t
195.17 176.08 (+) .5 0 t
195.39 177.47 (+) .5 0 t
195.62 176.24 (+) .5 0 t
195.84 177.22 (+) .5 0 t
196.07 176.97 (+) .5 0 t
196.29 183.51 (+) .5 0 t
196.52 206.57 (+) .5 0 t
196.74 205.50 (+) .5 0 t
196.97 203.05 (+) .5 0 t
197.19 197.08 (+) .5 0 t
197.42 194.38 (+) .5 0 t
197.64 192.74 (+) .5 0 t
197.87 189.23 (+) .5 0 t
198.09 188.82 (+) .5 0 t
198.31 186.12 (+) .5 0 t
198.54 186.28 (+) .5 0 t
198.76 185.46 (+) .5 0 t
198.99 184.40 (+) .5 0 t
199.21 183.74 (+) .5 0 t
199.44 184.97 (+) .5 0 t
199.66 184.31 (+) .5 0 t
199.89 184.07 (+) .5 0 t
200.11 177.94 (+) .5 0 t
200.34 158.48 (+) .5 0 t
200.56 157.82 (+) .5 0 t
200.79 162.32 (+) .5 0 t
201.01 165.34 (+) .5 0 t
201.24 169.59 (+) .5 0 t
201.46 171.63 (+) .5 0 t
201.68 173.84 (+) .5 0 t
201.91 176.86 (+) .5 0 t
202.13 177.27 (+) .5 0 t
202.36 179.89 (+) .5 0 t
202.58 180.46 (+) .5 0 t
202.81 180.46 (+) .5 0 t
203.03 180.21 (+) .5 0 t
203.26 180.78 (+) .5 0 t
203.48 181.60 (+) .5 0 t
203.71 180.94 (+) .5 0 t
203.93 195.25 (+) .5 0 t
204.16 211.76 (+) .5 0 t
204.38 210.29 (+) .5 0 t
204.61 204.98 (+) .5 0 t
204.83 201.46 (+) .5 0 t
205.05 199.17 (+) .5 0 t
205.28 194.67 (+) .5 0 t
205.50 191.97 (+) .5 0 t
205.73 193.77 (+) .5 0 t
205.95 190.09 (+) .5 0 t
206.18 190.25 (+) .5 0 t
206.40 190.01 (+) .5 0 t
206.63 187.55 (+) .5 0 t
206.85 189.76 (+) .5 0 t
207.08 187.47 (+) .5 0 t
207.30 187.47 (+) .5 0 t
207.53 187.22 (+) .5 0 t
207.75 164.49 (+) .5 0 t
207.98 159.99 (+) .5 0 t
208.20 163.84 (+) .5 0 t
208.42 168.09 (+) .5 0 t
208.65 171.36 (+) .5 0 t
208.87 175.20 (+) .5 0 t
209.10 176.99 (+) .5 0 t
209.32 180.26 (+) .5 0 t
209.55 181.24 (+) .5 0 t
209.77 183.29 (+) .5 0 t
210.00 183.04 (+) .5 0 t
210.22 182.79 (+) .5 0 t
210.45 183.61 (+) .5 0 t
210.67 181.73 (+) .5 0 t
210.90 185.16 (+) .5 0 t
211.12 186.39 (+) .5 0 t
211.35 185.73 (+) .5 0 t
211.57 207.56 (+) .5 0 t
211.79 213.28 (+) .5 0 t
212.02 212.22 (+) .5 0 t
212.24 207.07 (+) .5 0 t
212.47 200.93 (+) .5 0 t
212.69 203.55 (+) .5 0 t
212.92 196.76 (+) .5 0 t
213.14 196.35 (+) .5 0 t
213.37 194.47 (+) .5 0 t
213.59 194.63 (+) .5 0 t
213.82 192.59 (+) .5 0 t
214.04 192.75 (+) .5 0 t
214.27 191.28 (+) .5 0 t
214.49 191.69 (+) .5 0 t
214.72 191.03 (+) .5 0 t
214.94 191.19 (+) .5 0 t
215.16 189.97 (+) .5 0 t
215.39 167.24 (+) .5 0 t
215.61 163.97 (+) .5 0 t
215.84 170.67 (+) .5 0 t
216.06 172.47 (+) .5 0 t
216.29 178.60 (+) .5 0 t
216.51 180.39 (+) .5 0 t
216.74 180.97 (+) .5 0 t
216.96 183.83 (+) .5 0 t
217.19 184.40 (+) .5 0 t
217.41 187.42 (+) .5 0 t
217.64 188.24 (+) .5 0 t
217.86 186.77 (+) .5 0 t
218.09 186.11 (+) .5 0 t
218.31 189.79 (+) .5 0 t
218.53 189.54 (+) .5 0 t
218.76 189.70 (+) .5 0 t
218.98 197.06 (+) .5 0 t
219.21 218.07 (+) .5 0 t
219.43 214.96 (+) .5 0 t
219.66 211.28 (+) .5 0 t
219.88 208.99 (+) .5 0 t
220.11 206.70 (+) .5 0 t
220.33 203.84 (+) .5 0 t
220.56 202.37 (+) .5 0 t
220.78 200.08 (+) .5 0 t
221.01 200.08 (+) .5 0 t
221.23 196.97 (+) .5 0 t
221.46 196.56 (+) .5 0 t
221.68 195.09 (+) .5 0 t
221.90 195.25 (+) .5 0 t
222.13 192.80 (+) .5 0 t
222.35 196.64 (+) .5 0 t
222.58 195.16 (+) .5 0 t
222.80 188.21 (+) .5 0 t
223.03 169.16 (+) .5 0 t
223.25 170.14 (+) .5 0 t
223.48 174.64 (+) .5 0 t
223.70 177.25 (+) .5 0 t
223.93 180.69 (+) .5 0 t
224.15 183.14 (+) .5 0 t
224.38 185.35 (+) .5 0 t
224.60 188.37 (+) .5 0 t
224.83 189.60 (+) .5 0 t
225.05 191.80 (+) .5 0 t
225.27 191.15 (+) .5 0 t
225.50 192.37 (+) .5 0 t
225.72 191.72 (+) .5 0 t
225.95 192.70 (+) .5 0 t
226.17 193.51 (+) .5 0 t
226.40 194.08 (+) .5 0 t
226.62 212.64 (+) .5 0 t
226.85 222.04 (+) .5 0 t
227.07 219.75 (+) .5 0 t
227.30 217.71 (+) .5 0 t
227.52 211.74 (+) .5 0 t
227.75 209.45 (+) .5 0 t
227.97 206.59 (+) .5 0 t
228.20 205.93 (+) .5 0 t
228.42 205.28 (+) .5 0 t
228.64 200.37 (+) .5 0 t
228.87 200.94 (+) .5 0 t
229.09 201.92 (+) .5 0 t
229.32 201.10 (+) .5 0 t
229.54 198.40 (+) .5 0 t
229.77 201.84 (+) .5 0 t
229.99 198.97 (+) .5 0 t
230.22 197.50 (+) .5 0 t
230.44 173.95 (+) .5 0 t
230.67 171.91 (+) .5 0 t
230.89 174.52 (+) .5 0 t
231.12 180.82 (+) .5 0 t
231.34 183.27 (+) .5 0 t
231.57 183.02 (+) .5 0 t
231.79 189.73 (+) .5 0 t
232.01 190.54 (+) .5 0 t
232.24 190.71 (+) .5 0 t
232.46 193.16 (+) .5 0 t
232.69 194.14 (+) .5 0 t
232.91 195.53 (+) .5 0 t
233.14 196.75 (+) .5 0 t
233.36 194.05 (+) .5 0 t
233.59 198.30 (+) .5 0 t
233.81 199.12 (+) .5 0 t
234.04 198.06 (+) .5 0 t
234.26 220.29 (+) .5 0 t
234.49 223.56 (+) .5 0 t
234.71 222.91 (+) .5 0 t
234.94 218.57 (+) .5 0 t
235.16 214.08 (+) .5 0 t
235.38 212.60 (+) .5 0 t
235.61 209.90 (+) .5 0 t
235.83 207.45 (+) .5 0 t
236.06 204.75 (+) .5 0 t
236.28 203.69 (+) .5 0 t
236.51 203.69 (+) .5 0 t
236.73 204.67 (+) .5 0 t
236.96 205.24 (+) .5 0 t
237.18 203.19 (+) .5 0 t
237.41 201.72 (+) .5 0 t
237.63 203.92 (+) .5 0 t
237.86 195.34 (+) .5 0 t
238.08 175.88 (+) .5 0 t
238.31 179.56 (+) .5 0 t
238.53 178.50 (+) .5 0 t
238.75 183.56 (+) .5 0 t
238.98 186.42 (+) .5 0 t
239.20 189.45 (+) .5 0 t
239.43 192.47 (+) .5 0 t
239.65 196.97 (+) .5 0 t
239.88 197.54 (+) .5 0 t
240.10 196.07 (+) .5 0 t
240.33 198.93 (+) .5 0 t
240.55 201.13 (+) .5 0 t
240.78 199.25 (+) .5 0 t
241.00 199.66 (+) .5 0 t
241.23 201.46 (+) .5 0 t
241.45 201.62 (+) .5 0 t
241.68 215.11 (+) .5 0 t
241.90 227.94 (+) .5 0 t
242.12 226.88 (+) .5 0 t
242.35 221.97 (+) .5 0 t
242.57 218.86 (+) .5 0 t
242.80 217.39 (+) .5 0 t
243.02 213.30 (+) .5 0 t
243.25 211.42 (+) .5 0 t
243.47 209.13 (+) .5 0 t
243.70 207.09 (+) .5 0 t
243.92 207.66 (+) .5 0 t
244.15 206.02 (+) .5 0 t
244.37 207.00 (+) .5 0 t
244.60 206.35 (+) .5 0 t
244.82 205.94 (+) .5 0 t
245.05 206.51 (+) .5 0 t
245.27 202.99 (+) .5 0 t
245.49 194.82 (+) .5 0 t
245.72 179.85 (+) .5 0 t
245.94 179.61 (+) .5 0 t
246.17 184.92 (+) .5 0 t
246.39 187.94 (+) .5 0 t
246.62 193.42 (+) .5 0 t
246.84 195.87 (+) .5 0 t
247.07 197.67 (+) .5 0 t
247.29 199.47 (+) .5 0 t
247.52 201.10 (+) .5 0 t
247.74 200.45 (+) .5 0 t
247.97 200.61 (+) .5 0 t
248.19 203.47 (+) .5 0 t
248.42 202.40 (+) .5 0 t
248.64 202.57 (+) .5 0 t
248.86 203.38 (+) .5 0 t
249.09 203.14 (+) .5 0 t
249.31 226.60 (+) .5 0 t
249.54 229.46 (+) .5 0 t
249.76 230.44 (+) .5 0 t
249.99 225.54 (+) .5 0 t
250.21 222.43 (+) .5 0 t
250.44 218.09 (+) .5 0 t
250.66 216.87 (+) .5 0 t
250.89 212.53 (+) .5 0 t
251.11 211.47 (+) .5 0 t
251.34 211.88 (+) .5 0 t
251.56 210.40 (+) .5 0 t
251.79 207.70 (+) .5 0 t
252.01 212.20 (+) .5 0 t
252.23 208.27 (+) .5 0 t
252.46 208.44 (+) .5 0 t
252.68 208.44 (+) .5 0 t
252.91 209.01 (+) .5 0 t
253.13 184.64 (+) .5 0 t
253.36 180.96 (+) .5 0 t
253.58 184.80 (+) .5 0 t
253.81 191.10 (+) .5 0 t
254.03 193.14 (+) .5 0 t
254.26 196.16 (+) .5 0 t
254.48 196.33 (+) .5 0 t
254.71 201.23 (+) .5 0 t
254.93 201.39 (+) .5 0 t
255.16 202.37 (+) .5 0 t
255.38 202.78 (+) .5 0 t
255.60 203.76 (+) .5 0 t
255.83 202.54 (+) .5 0 t
256.05 205.97 (+) .5 0 t
256.28 206.95 (+) .5 0 t
256.50 206.13 (+) .5 0 t
256.73 207.11 (+) .5 0 t
256.95 226.89 (+) .5 0 t
257.18 234.25 (+) .5 0 t
257.40 228.69 (+) .5 0 t
257.63 226.40 (+) .5 0 t
257.85 222.72 (+) .5 0 t
258.08 219.20 (+) .5 0 t
258.30 217.73 (+) .5 0 t
258.53 214.46 (+) .5 0 t
258.75 215.03 (+) .5 0 t
258.97 211.92 (+) .5 0 t
259.20 211.92 (+) .5 0 t
259.42 212.49 (+) .5 0 t
259.65 210.61 (+) .5 0 t
259.87 208.98 (+) .5 0 t
260.10 209.14 (+) .5 0 t
260.32 209.71 (+) .5 0 t
260.55 198.26 (+) .5 0 t
260.77 183.30 (+) .5 0 t
261.00 183.05 (+) .5 0 t
261.22 185.50 (+) .5 0 t
261.45 190.57 (+) .5 0 t
261.67 192.62 (+) .5 0 t
261.90 197.68 (+) .5 0 t
262.12 199.89 (+) .5 0 t
262.34 200.71 (+) .5 0 t
262.57 200.87 (+) .5 0 t
262.79 202.67 (+) .5 0 t
263.02 203.89 (+) .5 0 t
263.24 204.87 (+) .5 0 t
263.47 203.81 (+) .5 0 t
263.69 205.44 (+) .5 0 t
263.92 204.38 (+) .5 0 t
264.14 208.17 (+) .5 0 t
264.37 218.90 (+) .5 0 t
264.59 230.05 (+) .5 0 t
264.82 229.73 (+) .5 0 t
265.04 226.58 (+) .5 0 t
265.27 224.22 (+) .5 0 t
265.49 216.98 (+) .5 0 t
265.71 214.21 (+) .5 0 t
265.94 213.92 (+) .5 0 t
266.16 212.79 (+) .5 0 t
266.39 210.45 (+) .5 0 t
266.61 211.36 (+) .5 0 t
266.84 207.80 (+) .5 0 t
267.06 207.50 (+) .5 0 t
267.29 205.56 (+) .5 0 t
267.51 208.94 (+) .5 0 t
267.74 208.63 (+) .5 0 t
267.96 206.29 (+) .5 0 t
268.19 189.63 (+) .5 0 t
268.41 177.88 (+) .5 0 t
268.64 181.25 (+) .5 0 t
268.86 184.64 (+) .5 0 t
269.08 188.00 (+) .5 0 t
269.31 189.75 (+) .5 0 t
269.53 193.53 (+) .5 0 t
269.76 194.87 (+) .5 0 t
269.98 197.01 (+) .5 0 t
270.21 198.76 (+) .5 0 t
270.43 197.64 (+) .5 0 t
270.66 199.38 (+) .5 0 t
270.88 198.67 (+) .5 0 t
271.11 199.18 (+) .5 0 t
271.33 198.88 (+) .5 0 t
271.56 196.94 (+) .5 0 t
271.78 199.09 (+) .5 0 t
272.01 220.04 (+) .5 0 t
272.23 222.60 (+) .5 0 t
272.45 222.70 (+) .5 0 t
272.68 217.50 (+) .5 0 t
272.90 215.15 (+) .5 0 t
273.13 209.13 (+) .5 0 t
273.35 208.01 (+) .5 0 t
273.58 205.66 (+) .5 0 t
273.80 204.14 (+) .5 0 t
274.03 202.60 (+) .5 0 t
274.25 201.08 (+) .5 0 t
274.48 200.76 (+) .5 0 t
274.70 197.61 (+) .5 0 t
274.93 196.48 (+) .5 0 t
275.15 197.82 (+) .5 0 t
275.38 195.05 (+) .5 0 t
275.60 193.94 (+) .5 0 t
275.82 169.51 (+) .5 0 t
276.05 165.54 (+) .5 0 t
276.27 168.50 (+) .5 0 t
276.50 170.65 (+) .5 0 t
276.72 177.72 (+) .5 0 t
276.95 180.27 (+) .5 0 t
277.17 180.79 (+) .5 0 t
277.40 182.93 (+) .5 0 t
277.62 181.00 (+) .5 0 t
277.85 184.77 (+) .5 0 t
278.07 182.03 (+) .5 0 t
278.30 183.76 (+) .5 0 t
278.52 182.24 (+) .5 0 t
278.75 182.74 (+) .5 0 t
278.97 180.40 (+) .5 0 t
279.19 182.14 (+) .5 0 t
279.42 184.29 (+) .5 0 t
279.64 203.62 (+) .5 0 t
279.87 205.35 (+) .5 0 t
280.09 201.79 (+) .5 0 t
280.32 195.75 (+) .5 0 t
280.54 190.96 (+) .5 0 t
280.77 188.19 (+) .5 0 t
280.99 185.04 (+) .5 0 t
281.22 182.68 (+) .5 0 t
281.44 179.93 (+) .5 0 t
281.67 175.94 (+) .5 0 t
281.89 173.19 (+) .5 0 t
282.12 174.11 (+) .5 0 t
282.34 170.14 (+) .5 0 t
282.56 168.19 (+) .5 0 t
282.79 167.48 (+) .5 0 t
283.01 166.78 (+) .5 0 t
283.24 148.89 (+) .5 0 t
283.46 135.10 (+) .5 0 t
283.69 136.84 (+) .5 0 t
283.91 138.99 (+) .5 0 t
284.14 141.54 (+) .5 0 t
284.36 144.93 (+) .5 0 t
284.59 146.25 (+) .5 0 t
284.81 146.77 (+) .5 0 t
285.04 146.87 (+) .5 0 t
285.26 146.58 (+) .5 0 t
285.49 145.45 (+) .5 0 t
285.71 143.92 (+) .5 0 t
285.93 141.99 (+) .5 0 t
286.16 142.91 (+) .5 0 t
286.38 142.20 (+) .5 0 t
286.61 141.48 (+) .5 0 t
286.83 139.14 (+) .5 0 t
287.06 155.18 (+) .5 0 t
287.28 161.84 (+) .5 0 t
287.51 159.07 (+) .5 0 t
287.73 153.06 (+) .5 0 t
287.96 145.79 (+) .5 0 t
288.18 141.82 (+) .5 0 t
288.41 137.83 (+) .5 0 t
288.63 135.49 (+) .5 0 t
288.86 131.91 (+) .5 0 t
289.08 129.16 (+) .5 0 t
289.30 124.78 (+) .5 0 t
289.53 123.65 (+) .5 0 t
289.75 119.26 (+) .5 0 t
289.98 118.54 (+) .5 0 t
290.20 116.20 (+) .5 0 t
290.43 115.89 (+) .5 0 t
290.65 111.92 (+) .5 0 t
290.88 89.20 (+) .5 0 t
291.10 79.14 (+) .5 0 t
291.33 81.85 (+) .5 0 t
291.55 83.15 (+) .5 0 t
291.78 88.24 (+) .5 0 t
292.00 85.94 (+) .5 0 t
292.23 89.24 (+) .5 0 t
292.45 90.36 (+) .5 0 t
292.67 90.88 (+) .5 0 t
292.90 87.95 (+) .5 0 t
293.12 89.46 (+) .5 0 t
293.35 89.19 (+) .5 0 t
293.57 89.67 (+) .5 0 t
293.80 88.78 (+) .5 0 t
294.02 88.69 (+) .5 0 t
294.25 91.41 (+) .5 0 t
294.47 94.30 (+) .5 0 t
294.70 114.63 (+) .5 0 t
294.92 116.38 (+) .5 0 t
295.15 110.76 (+) .5 0 t
295.37 109.23 (+) .5 0 t
295.60 103.62 (+) .5 0 t
295.82 103.31 (+) .5 0 t
296.04 101.62 (+) .5 0 t
296.27 100.34 (+) .5 0 t
296.49 99.62 (+) .5 0 t
296.72 99.73 (+) .5 0 t
296.94 97.87 (+) .5 0 t
297.17 99.37 (+) .5 0 t
297.39 100.66 (+) .5 0 t
297.62 102.56 (+) .5 0 t
297.84 105.49 (+) .5 0 t
298.07 119.09 (+) .5 0 t
0.00 0.00 337.50 300.00 cl
0 0 0 srgb
0.75 setlinewidth
[] 0 setdash
1 setlinecap
1 setlinejoin
10.00 setmiterlimit
np
68.01 73.44 m
230.06 0 l
o
np
68.01 73.44 m
0 -7.20 l
o
np
125.52 73.44 m
0 -7.20 l
o
np
183.04 73.44 m
0 -7.20 l
o
np
240.55 73.44 m
0 -7.20 l
o
np
298.07 73.44 m
0 -7.20 l
o
/Font1 findfont 12 s
68.01 47.52 (0.0) .5 0 t
125.52 47.52 (0.5) .5 0 t
183.04 47.52 (1.0) .5 0 t
240.55 47.52 (1.5) .5 0 t
298.07 47.52 (2.0) .5 0 t
np
59.04 94.32 m
0 125.78 l
o
np
59.04 94.32 m
-7.20 0 l
o
np
59.04 125.77 m
-7.20 0 l
o
np
59.04 157.21 m
-7.20 0 l
o
np
59.04 188.66 m
-7.20 0 l
o
np
59.04 220.10 m
-7.20 0 l
o
41.76 94.32 (14) .5 90 t
41.76 125.77 (16) .5 90 t
41.76 157.21 (18) .5 90 t
41.76 188.66 (20) .5 90 t
41.76 220.10 (22) .5 90 t
np
59.04 73.44 m
248.22 0 l
0 167.52 l
-248.22 0 l
0 -167.52 l
o
0.00 0.00 337.50 300.00 cl
/Font1 findfont 12 s
0 0 0 srgb
183.15 18.72 (time/tmax) .5 0 t
12.96 157.20 (T) .5 90 t
59.04 73.44 307.26 240.96 cl
0 0 1 srgb
0.75 setlinewidth
[] 0 setdash
1 setlinecap
1 setlinejoin
10.00 setmiterlimit
68.23 119.59 0.54 c p1
68.46 106.00 0.54 c p1
68.68 103.07 0.54 c p1
68.91 101.17 0.54 c p1
69.13 99.87 0.54 c p1
69.36 98.38 0.54 c p1
69.58 100.23 0.54 c p1
69.81 100.13 0.54 c p1
70.03 100.84 0.54 c p1
70.26 102.12 0.54 c p1
70.48 103.82 0.54 c p1
70.70 104.12 0.54 c p1
70.93 109.74 0.54 c p1
71.15 111.27 0.54 c p1
71.38 116.88 0.54 c p1
71.60 115.14 0.54 c p1
71.83 94.80 0.54 c p1
72.05 91.91 0.54 c p1
72.28 89.20 0.54 c p1
72.50 89.29 0.54 c p1
72.73 90.17 0.54 c p1
72.95 89.69 0.54 c p1
73.18 89.96 0.54 c p1
73.40 88.46 0.54 c p1
73.63 91.39 0.54 c p1
73.85 90.86 0.54 c p1
74.07 89.74 0.54 c p1
74.30 86.44 0.54 c p1
74.52 88.74 0.54 c p1
74.75 83.66 0.54 c p1
74.97 82.36 0.54 c p1
75.20 79.64 0.54 c p1
75.42 89.71 0.54 c p1
75.65 112.42 0.54 c p1
75.87 116.40 0.54 c p1
76.10 116.71 0.54 c p1
76.32 119.05 0.54 c p1
76.55 119.77 0.54 c p1
76.77 124.15 0.54 c p1
77.00 125.28 0.54 c p1
77.22 129.66 0.54 c p1
77.44 132.41 0.54 c p1
77.67 136.00 0.54 c p1
77.89 138.33 0.54 c p1
78.12 142.33 0.54 c p1
78.34 146.30 0.54 c p1
78.57 153.56 0.54 c p1
78.79 159.58 0.54 c p1
79.02 162.34 0.54 c p1
79.24 155.69 0.54 c p1
79.47 139.65 0.54 c p1
79.69 141.99 0.54 c p1
79.92 142.71 0.54 c p1
80.14 143.41 0.54 c p1
80.37 142.50 0.54 c p1
80.59 144.43 0.54 c p1
80.81 145.95 0.54 c p1
81.04 147.08 0.54 c p1
81.26 147.38 0.54 c p1
81.49 147.28 0.54 c p1
81.71 146.76 0.54 c p1
81.94 145.43 0.54 c p1
82.16 142.05 0.54 c p1
82.39 139.50 0.54 c p1
82.61 137.34 0.54 c p1
82.84 135.61 0.54 c p1
83.06 149.40 0.54 c p1
83.29 167.28 0.54 c p1
83.51 167.99 0.54 c p1
83.74 168.69 0.54 c p1
83.96 170.64 0.54 c p1
84.18 174.61 0.54 c p1
84.41 173.70 0.54 c p1
84.63 176.45 0.54 c p1
84.86 180.44 0.54 c p1
85.08 183.19 0.54 c p1
85.31 185.54 0.54 c p1
85.53 188.70 0.54 c p1
85.76 191.46 0.54 c p1
85.98 196.26 0.54 c p1
86.21 202.29 0.54 c p1
86.43 205.86 0.54 c p1
86.66 204.12 0.54 c p1
86.88 184.80 0.54 c p1
87.11 182.64 0.54 c p1
87.33 180.91 0.54 c p1
87.55 183.25 0.54 c p1
87.78 182.74 0.54 c p1
88.00 184.26 0.54 c p1
88.23 182.53 0.54 c p1
88.45 185.28 0.54 c p1
88.68 181.50 0.54 c p1
88.90 183.43 0.54 c p1
89.13 181.29 0.54 c p1
89.35 180.77 0.54 c p1
89.58 178.22 0.54 c p1
89.80 171.16 0.54 c p1
90.03 169.00 0.54 c p1
90.25 166.04 0.54 c p1
90.48 170.02 0.54 c p1
90.70 194.45 0.54 c p1
90.92 195.56 0.54 c p1
91.15 198.32 0.54 c p1
91.37 196.98 0.54 c p1
91.60 198.11 0.54 c p1
91.82 201.27 0.54 c p1
92.05 201.58 0.54 c p1
92.27 203.10 0.54 c p1
92.50 204.64 0.54 c p1
92.72 206.16 0.54 c p1
92.95 208.52 0.54 c p1
93.17 209.63 0.54 c p1
93.40 215.65 0.54 c p1
93.62 218.01 0.54 c p1
93.85 223.21 0.54 c p1
94.07 223.11 0.54 c p1
94.29 220.54 0.54 c p1
94.52 199.60 0.54 c p1
94.74 197.44 0.54 c p1
94.97 199.39 0.54 c p1
95.19 199.68 0.54 c p1
95.42 199.18 0.54 c p1
95.64 199.88 0.54 c p1
95.87 198.15 0.54 c p1
96.09 199.26 0.54 c p1
96.32 197.51 0.54 c p1
96.54 195.37 0.54 c p1
96.77 194.03 0.54 c p1
96.99 190.26 0.54 c p1
97.22 188.51 0.54 c p1
97.44 185.14 0.54 c p1
97.66 181.76 0.54 c p1
97.89 178.39 0.54 c p1
98.11 190.13 0.54 c p1
98.34 206.79 0.54 c p1
98.56 209.13 0.54 c p1
98.79 209.44 0.54 c p1
99.01 206.06 0.54 c p1
99.24 208.01 0.54 c p1
99.46 208.30 0.54 c p1
99.69 211.87 0.54 c p1
99.91 210.95 0.54 c p1
100.14 213.29 0.54 c p1
100.36 214.42 0.54 c p1
100.59 214.72 0.54 c p1
100.81 217.48 0.54 c p1
101.03 224.73 0.54 c p1
101.26 227.08 0.54 c p1
101.48 230.24 0.54 c p1
101.71 230.55 0.54 c p1
101.93 219.40 0.54 c p1
102.16 208.68 0.54 c p1
102.38 204.88 0.54 c p1
102.61 205.95 0.54 c p1
102.83 204.31 0.54 c p1
103.06 205.38 0.54 c p1
103.28 204.40 0.54 c p1
103.51 203.17 0.54 c p1
103.73 201.37 0.54 c p1
103.96 201.21 0.54 c p1
104.18 200.39 0.54 c p1
104.40 198.19 0.54 c p1
104.63 193.12 0.54 c p1
104.85 191.08 0.54 c p1
105.08 186.01 0.54 c p1
105.30 183.56 0.54 c p1
105.53 183.80 0.54 c p1
105.75 198.77 0.54 c p1
105.98 210.21 0.54 c p1
106.20 209.64 0.54 c p1
106.43 209.48 0.54 c p1
106.65 211.12 0.54 c p1
106.88 213.00 0.54 c p1
107.10 212.43 0.54 c p1
107.33 212.43 0.54 c p1
107.55 215.53 0.54 c p1
107.77 214.96 0.54 c p1
108.00 218.23 0.54 c p1
108.22 219.71 0.54 c p1
108.45 223.22 0.54 c p1
108.67 226.90 0.54 c p1
108.90 229.19 0.54 c p1
109.12 234.76 0.54 c p1
109.35 227.40 0.54 c p1
109.57 207.61 0.54 c p1
109.80 206.63 0.54 c p1
110.02 207.45 0.54 c p1
110.25 206.47 0.54 c p1
110.47 203.04 0.54 c p1
110.70 204.27 0.54 c p1
110.92 203.29 0.54 c p1
111.14 202.88 0.54 c p1
111.37 201.90 0.54 c p1
111.59 201.74 0.54 c p1
111.82 196.83 0.54 c p1
112.04 196.67 0.54 c p1
112.27 193.65 0.54 c p1
112.49 191.60 0.54 c p1
112.72 185.31 0.54 c p1
112.94 181.47 0.54 c p1
113.17 185.15 0.54 c p1
113.39 209.51 0.54 c p1
113.62 208.94 0.54 c p1
113.84 208.94 0.54 c p1
114.07 208.78 0.54 c p1
114.29 212.70 0.54 c p1
114.51 208.21 0.54 c p1
114.74 210.91 0.54 c p1
114.96 212.38 0.54 c p1
115.19 211.97 0.54 c p1
115.41 213.04 0.54 c p1
115.64 217.37 0.54 c p1
115.86 218.60 0.54 c p1
116.09 222.93 0.54 c p1
116.31 226.04 0.54 c p1
116.54 230.95 0.54 c p1
116.76 229.97 0.54 c p1
116.99 227.11 0.54 c p1
117.21 203.64 0.54 c p1
117.44 203.89 0.54 c p1
117.66 203.07 0.54 c p1
117.88 202.91 0.54 c p1
118.11 203.97 0.54 c p1
118.33 201.11 0.54 c p1
118.56 200.95 0.54 c p1
118.78 201.61 0.54 c p1
119.01 199.97 0.54 c p1
119.23 198.17 0.54 c p1
119.46 196.38 0.54 c p1
119.68 193.92 0.54 c p1
119.91 188.45 0.54 c p1
120.13 185.42 0.54 c p1
120.36 180.11 0.54 c p1
120.58 180.36 0.54 c p1
120.81 195.32 0.54 c p1
121.03 203.50 0.54 c p1
121.25 207.01 0.54 c p1
121.48 206.44 0.54 c p1
121.70 206.85 0.54 c p1
121.93 207.51 0.54 c p1
122.15 206.53 0.54 c p1
122.38 208.16 0.54 c p1
122.60 207.59 0.54 c p1
122.83 209.64 0.54 c p1
123.05 211.93 0.54 c p1
123.28 213.81 0.54 c p1
123.50 217.90 0.54 c p1
123.73 219.37 0.54 c p1
123.95 222.48 0.54 c p1
124.18 227.38 0.54 c p1
124.40 228.45 0.54 c p1
124.62 215.61 0.54 c p1
124.85 202.12 0.54 c p1
125.07 201.96 0.54 c p1
125.30 200.16 0.54 c p1
125.52 199.76 0.54 c p1
125.75 199.76 0.54 c p1
125.97 200.16 0.54 c p1
126.20 201.96 0.54 c p1
126.42 202.12 0.54 c p1
126.65 215.61 0.54 c p1
126.87 228.45 0.54 c p1
127.10 227.38 0.54 c p1
127.32 222.48 0.54 c p1
127.55 219.37 0.54 c p1
127.77 217.90 0.54 c p1
127.99 213.81 0.54 c p1
128.22 211.93 0.54 c p1
128.44 209.64 0.54 c p1
128.67 207.59 0.54 c p1
128.89 208.16 0.54 c p1
129.12 206.53 0.54 c p1
129.34 207.51 0.54 c p1
129.57 206.85 0.54 c p1
129.79 206.44 0.54 c p1
130.02 207.01 0.54 c p1
130.24 203.50 0.54 c p1
130.47 195.32 0.54 c p1
130.69 180.36 0.54 c p1
130.92 180.11 0.54 c p1
131.14 185.42 0.54 c p1
131.36 188.45 0.54 c p1
131.59 193.92 0.54 c p1
131.81 196.38 0.54 c p1
132.04 198.17 0.54 c p1
132.26 199.97 0.54 c p1
132.49 201.61 0.54 c p1
132.71 200.95 0.54 c p1
132.94 201.11 0.54 c p1
133.16 203.97 0.54 c p1
133.39 202.91 0.54 c p1
133.61 203.07 0.54 c p1
133.84 203.89 0.54 c p1
134.06 203.64 0.54 c p1
134.29 227.11 0.54 c p1
134.51 229.97 0.54 c p1
134.73 230.95 0.54 c p1
134.96 226.04 0.54 c p1
135.18 222.93 0.54 c p1
135.41 218.60 0.54 c p1
135.63 217.37 0.54 c p1
135.86 213.04 0.54 c p1
136.08 211.97 0.54 c p1
136.31 212.38 0.54 c p1
136.53 210.91 0.54 c p1
136.76 208.21 0.54 c p1
136.98 212.70 0.54 c p1
137.21 208.78 0.54 c p1
137.43 208.94 0.54 c p1
137.66 208.94 0.54 c p1
137.88 209.51 0.54 c p1
138.10 185.15 0.54 c p1
138.33 181.47 0.54 c p1
138.55 185.31 0.54 c p1
138.78 191.60 0.54 c p1
139.00 193.65 0.54 c p1
139.23 196.67 0.54 c p1
139.45 196.83 0.54 c p1
139.68 201.74 0.54 c p1
139.90 201.90 0.54 c p1
140.13 202.88 0.54 c p1
140.35 203.29 0.54 c p1
140.58 204.27 0.54 c p1
140.80 203.04 0.54 c p1
141.03 206.47 0.54 c p1
141.25 207.45 0.54 c p1
141.47 206.63 0.54 c p1
141.70 207.61 0.54 c p1
141.92 227.40 0.54 c p1
142.15 234.76 0.54 c p1
142.37 229.19 0.54 c p1
142.60 226.90 0.54 c p1
142.82 223.22 0.54 c p1
143.05 219.71 0.54 c p1
143.27 218.23 0.54 c p1
143.50 214.96 0.54 c p1
143.72 215.53 0.54 c p1
143.95 212.43 0.54 c p1
144.17 212.43 0.54 c p1
144.40 213.00 0.54 c p1
144.62 211.12 0.54 c p1
144.84 209.48 0.54 c p1
145.07 209.64 0.54 c p1
145.29 210.21 0.54 c p1
145.52 198.77 0.54 c p1
145.74 183.80 0.54 c p1
145.97 183.56 0.54 c p1
146.19 186.01 0.54 c p1
146.42 191.08 0.54 c p1
146.64 193.12 0.54 c p1
146.87 198.19 0.54 c p1
147.09 200.39 0.54 c p1
147.32 201.21 0.54 c p1
147.54 201.37 0.54 c p1
147.77 203.17 0.54 c p1
147.99 204.40 0.54 c p1
148.21 205.38 0.54 c p1
148.44 204.31 0.54 c p1
148.66 205.95 0.54 c p1
148.89 204.88 0.54 c p1
149.11 208.68 0.54 c p1
149.34 219.40 0.54 c p1
149.56 230.55 0.54 c p1
149.79 230.24 0.54 c p1
150.01 227.08 0.54 c p1
150.24 224.73 0.54 c p1
150.46 217.48 0.54 c p1
150.69 214.72 0.54 c p1
150.91 214.42 0.54 c p1
151.14 213.29 0.54 c p1
151.36 210.95 0.54 c p1
151.58 211.87 0.54 c p1
151.81 208.30 0.54 c p1
152.03 208.01 0.54 c p1
152.26 206.06 0.54 c p1
152.48 209.44 0.54 c p1
152.71 209.13 0.54 c p1
152.93 206.79 0.54 c p1
153.16 190.13 0.54 c p1
153.38 178.39 0.54 c p1
153.61 181.76 0.54 c p1
153.83 185.14 0.54 c p1
154.06 188.51 0.54 c p1
154.28 190.26 0.54 c p1
154.51 194.03 0.54 c p1
154.73 195.37 0.54 c p1
154.95 197.51 0.54 c p1
155.18 199.26 0.54 c p1
155.40 198.15 0.54 c p1
155.63 199.88 0.54 c p1
155.85 199.18 0.54 c p1
156.08 199.68 0.54 c p1
156.30 199.39 0.54 c p1
156.53 197.44 0.54 c p1
156.75 199.60 0.54 c p1
156.98 220.54 0.54 c p1
157.20 223.11 0.54 c p1
157.43 223.21 0.54 c p1
157.65 218.01 0.54 c p1
157.88 215.65 0.54 c p1
158.10 209.63 0.54 c p1
158.32 208.52 0.54 c p1
158.55 206.16 0.54 c p1
158.77 204.64 0.54 c p1
159.00 203.10 0.54 c p1
159.22 201.58 0.54 c p1
159.45 201.27 0.54 c p1
159.67 198.11 0.54 c p1
159.90 196.98 0.54 c p1
160.12 198.32 0.54 c p1
160.35 195.56 0.54 c p1
160.57 194.45 0.54 c p1
160.80 170.02 0.54 c p1
161.02 166.04 0.54 c p1
161.25 169.00 0.54 c p1
161.47 171.16 0.54 c p1
161.69 178.22 0.54 c p1
161.92 180.77 0.54 c p1
162.14 181.29 0.54 c p1
162.37 183.43 0.54 c p1
162.59 181.50 0.54 c p1
162.82 185.28 0.54 c p1
163.04 182.53 0.54 c p1
163.27 184.26 0.54 c p1
163.49 182.74 0.54 c p1
163.72 183.25 0.54 c p1
163.94 180.91 0.54 c p1
164.17 182.64 0.54 c p1
164.39 184.80 0.54 c p1
164.62 204.12 0.54 c p1
164.84 205.86 0.54 c p1
165.06 202.29 0.54 c p1
165.29 196.26 0.54 c p1
165.51 191.46 0.54 c p1
165.74 188.70 0.54 c p1
165.96 185.54 0.54 c p1
166.19 183.19 0.54 c p1
166.41 180.44 0.54 c p1
166.64 176.45 0.54 c p1
166.86 173.70 0.54 c p1
167.09 174.61 0.54 c p1
167.31 170.64 0.54 c p1
167.54 168.69 0.54 c p1
167.76 167.99 0.54 c p1
167.99 167.28 0.54 c p1
168.21 149.40 0.54 c p1
168.43 135.61 0.54 c p1
168.66 137.34 0.54 c p1
168.88 139.50 0.54 c p1
169.11 142.05 0.54 c p1
169.33 145.43 0.54 c p1
169.56 146.76 0.54 c p1
169.78 147.28 0.54 c p1
170.01 147.38 0.54 c p1
170.23 147.08 0.54 c p1
170.46 145.95 0.54 c p1
170.68 144.43 0.54 c p1
170.91 142.50 0.54 c p1
171.13 143.41 0.54 c p1
171.36 142.71 0.54 c p1
171.58 141.99 0.54 c p1
171.80 139.65 0.54 c p1
172.03 155.69 0.54 c p1
172.25 162.34 0.54 c p1
172.48 159.58 0.54 c p1
172.70 153.56 0.54 c p1
172.93 146.30 0.54 c p1
173.15 142.33 0.54 c p1
173.38 138.33 0.54 c p1
173.60 136.00 0.54 c p1
173.83 132.41 0.54 c p1
174.05 129.66 0.54 c p1
174.28 125.28 0.54 c p1
174.50 124.15 0.54 c p1
174.73 119.77 0.54 c p1
174.95 119.05 0.54 c p1
175.17 116.71 0.54 c p1
175.40 116.40 0.54 c p1
175.62 112.42 0.54 c p1
175.85 89.71 0.54 c p1
176.07 79.64 0.54 c p1
176.30 82.36 0.54 c p1
176.52 83.66 0.54 c p1
176.75 88.74 0.54 c p1
176.97 86.44 0.54 c p1
177.20 89.74 0.54 c p1
177.42 90.86 0.54 c p1
177.65 91.39 0.54 c p1
177.87 88.46 0.54 c p1
178.10 89.96 0.54 c p1
178.32 89.69 0.54 c p1
178.54 90.17 0.54 c p1
178.77 89.29 0.54 c p1
178.99 89.20 0.54 c p1
179.22 91.91 0.54 c p1
179.44 94.80 0.54 c p1
179.67 115.14 0.54 c p1
179.89 116.88 0.54 c p1
180.12 111.27 0.54 c p1
180.34 109.74 0.54 c p1
180.57 104.12 0.54 c p1
180.79 103.82 0.54 c p1
181.02 102.12 0.54 c p1
181.24 100.84 0.54 c p1
181.47 100.13 0.54 c p1
181.69 100.23 0.54 c p1
181.91 98.38 0.54 c p1
182.14 99.87 0.54 c p1
182.36 101.17 0.54 c p1
182.59 103.07 0.54 c p1
182.81 106.00 0.54 c p1
183.04 119.59 0.54 c p1
0 0 0 srgb
np
68.01 73.44 m
0 167.52 l
o
np
125.52 73.44 m
0 167.52 l
o
np
183.04 73.44 m
0 167.52 l
o
np
298.07 73.44 m
0 167.52 l
o
ep
%%Trailer
%%Pages: 1
%%EOF
