%!PS-Adobe-3.0 EPSF-3.0
%%DocumentNeededResources: font Helvetica
%%+ font Helvetica-Bold
%%+ font Helvetica-Oblique
%%+ font Helvetica-BoldOblique
%%+ font Symbol
%%Title: R Graphics Output
%%Creator: R Software
%%Pages: (atend)
%%BoundingBox: 0 0 375 300
%%EndComments
%%BeginProlog
/bp  { gs sRGB gs } def
% begin .ps.prolog
/gs  { gsave } bind def
/gr  { grestore } bind def
/ep  { showpage gr gr } bind def
/m   { moveto } bind def
/l  { rlineto } bind def
/np  { newpath } bind def
/cp  { closepath } bind def
/f   { fill } bind def
/o   { stroke } bind def
/c   { newpath 0 360 arc } bind def
/r   { 4 2 roll moveto 1 copy 3 -1 roll exch 0 exch rlineto 0 rlineto -1 mul 0 exch rlineto closepath } bind def
/p1  { stroke } bind def
/p2  { gsave bg fill grestore newpath } bind def
/p3  { gsave bg fill grestore stroke } bind def
/p6  { gsave bg eofill grestore newpath } bind def
/p7  { gsave bg eofill grestore stroke } bind def
/t   { 5 -2 roll moveto gsave rotate
       1 index stringwidth pop
       mul neg 0 rmoveto show grestore } bind def
/ta  { 4 -2 roll moveto gsave rotate show } bind def
/tb  { 2 -1 roll 0 rmoveto show } bind def
/cl  { grestore gsave newpath 3 index 3 index moveto 1 index
       4 -1 roll lineto  exch 1 index lineto lineto
       closepath clip newpath } bind def
/rgb { setrgbcolor } bind def
/s   { scalefont setfont } bind def
% end   .ps.prolog
/sRGB { [ /CIEBasedABC
          << /DecodeLMN
               [ { dup 0.03928 le
                        {12.92321 div}
                        {0.055 add 1.055 div 2.4 exp }
                     ifelse
                 } bind dup dup
               ]
             /MatrixLMN [0.412457 0.212673 0.019334
                         0.357576 0.715152 0.119192
                         0.180437 0.072175 0.950301]
             /WhitePoint [0.9505 1.0 1.0890]
           >>
         ] setcolorspace } bind def
/srgb { setcolor } bind def
% begin encoding
/WinAnsiEncoding [
 /.notdef /.notdef /.notdef /.notdef /.notdef /.notdef /.notdef /.notdef
 /.notdef /.notdef /.notdef /.notdef /.notdef /.notdef /.notdef /.notdef
 /.notdef /.notdef /.notdef /.notdef /.notdef /.notdef /.notdef /.notdef
 /.notdef /.notdef /.notdef /.notdef /.notdef /.notdef /.notdef /.notdef
 /space /exclam /quotedbl /numbersign /dollar /percent /ampersand /quoteright
 /parenleft /parenright /asterisk /plus /comma /minus /period /slash
 /zero /one /two /three /four /five /six /seven
 /eight /nine /colon /semicolon /less /equal /greater /question
 /at /A /B /C /D /E /F /G
 /H /I /J /K /L /M /N /O
 /P /Q /R /S /T /U /V /W
 /X /Y /Z /bracketleft /backslash /bracketright /asciicircum /underscore
 /grave /a /b /c /d /e /f /g
 /h /i /j /k /l /m /n /o
 /p /q /r /s /t /u /v /w
 /x /y /z /braceleft /bar /braceright /asciitilde /.notdef
 /Euro /.notdef /quotesinglbase /florin /quotedblbase /ellipsis /dagger /daggerdbl
 /circumflex /perthousand /Scaron /guilsinglleft /OE /.notdef /Zcaron /.notdef
 /.notdef /quoteleft /quoteright /quotedblleft /quotedblright /bullet /endash /emdash
 /tilde /trademark /scaron /guilsinglright /oe /.notdef /zcaron /Ydieresis
 /space /exclamdown /cent /sterling /currency /yen /brokenbar /section
 /dieresis /copyright /ordfeminine /guillemotleft /logicalnot /hyphen /registered /macron
 /degree /plusminus /twosuperior /threesuperior /acute /mu /paragraph /periodcentered
 /cedilla /onesuperior /ordmasculine /guillemotright /onequarter /onehalf /threequarters /questiondown
 /Agrave /Aacute /Acircumflex /Atilde /Adieresis /Aring /AE /Ccedilla
 /Egrave /Eacute /Ecircumflex /Edieresis /Igrave /Iacute /Icircumflex /Idieresis
 /Eth /Ntilde /Ograve /Oacute /Ocircumflex /Otilde /Odieresis /multiply
 /Oslash /Ugrave /Uacute /Ucircumflex /Udieresis /Yacute /Thorn /germandbls
 /agrave /aacute /acircumflex /atilde /adieresis /aring /ae /ccedilla
 /egrave /eacute /ecircumflex /edieresis /igrave /iacute /icircumflex /idieresis
 /eth /ntilde /ograve /oacute /ocircumflex /otilde /odieresis /divide
 /oslash /ugrave /uacute /ucircumflex /udieresis /yacute /thorn /ydieresis
]
 def
% end encoding
%%IncludeResource: font Helvetica
/Helvetica findfont
dup length dict begin
  {1 index /FID ne {def} {pop pop} ifelse} forall
  /Encoding WinAnsiEncoding def
  currentdict
  end
/Font1 exch definefont pop
%%IncludeResource: font Helvetica-Bold
/Helvetica-Bold findfont
dup length dict begin
  {1 index /FID ne {def} {pop pop} ifelse} forall
  /Encoding WinAnsiEncoding def
  currentdict
  end
/Font2 exch definefont pop
%%IncludeResource: font Helvetica-Oblique
/Helvetica-Oblique findfont
dup length dict begin
  {1 index /FID ne {def} {pop pop} ifelse} forall
  /Encoding WinAnsiEncoding def
  currentdict
  end
/Font3 exch definefont pop
%%IncludeResource: font Helvetica-BoldOblique
/Helvetica-BoldOblique findfont
dup length dict begin
  {1 index /FID ne {def} {pop pop} ifelse} forall
  /Encoding WinAnsiEncoding def
  currentdict
  end
/Font4 exch definefont pop
%%IncludeResource: font Symbol
/Symbol findfont
dup length dict begin
  {1 index /FID ne {def} {pop pop} ifelse} forall
  currentdict
  end
/Font5 exch definefont pop
%%EndProlog
%%Page: 1 1
bp
/bg { 1 1 1 srgb } def
0.00 0.00 375.00 300.00 r p2
59.04 73.44 344.76 240.96 cl
59.04 73.44 344.76 240.96 cl
/Font1 findfont 6 s
1 0 0 srgb
69.62 121.17 (+) .5 0 t
69.88 110.85 (+) .5 0 t
70.14 108.63 (+) .5 0 t
70.40 107.19 (+) .5 0 t
70.66 106.21 (+) .5 0 t
70.92 105.07 (+) .5 0 t
71.17 106.48 (+) .5 0 t
71.43 106.40 (+) .5 0 t
71.69 106.94 (+) .5 0 t
71.95 107.91 (+) .5 0 t
72.21 109.20 (+) .5 0 t
72.47 109.43 (+) .5 0 t
72.73 113.69 (+) .5 0 t
72.98 114.85 (+) .5 0 t
73.24 119.12 (+) .5 0 t
73.50 117.79 (+) .5 0 t
73.76 102.36 (+) .5 0 t
74.02 100.16 (+) .5 0 t
74.28 98.10 (+) .5 0 t
74.54 98.17 (+) .5 0 t
74.79 98.84 (+) .5 0 t
75.05 98.48 (+) .5 0 t
75.31 98.68 (+) .5 0 t
75.57 97.54 (+) .5 0 t
75.83 99.77 (+) .5 0 t
76.09 99.37 (+) .5 0 t
76.35 98.52 (+) .5 0 t
76.60 96.01 (+) .5 0 t
76.86 97.76 (+) .5 0 t
77.12 93.90 (+) .5 0 t
77.38 92.91 (+) .5 0 t
77.64 90.85 (+) .5 0 t
77.90 98.49 (+) .5 0 t
78.16 115.73 (+) .5 0 t
78.41 118.75 (+) .5 0 t
78.67 118.98 (+) .5 0 t
78.93 120.76 (+) .5 0 t
79.19 121.30 (+) .5 0 t
79.45 124.63 (+) .5 0 t
79.71 125.49 (+) .5 0 t
79.97 128.81 (+) .5 0 t
80.23 130.90 (+) .5 0 t
80.48 133.62 (+) .5 0 t
80.74 135.39 (+) .5 0 t
81.00 138.42 (+) .5 0 t
81.26 141.44 (+) .5 0 t
81.52 146.95 (+) .5 0 t
81.78 151.52 (+) .5 0 t
82.04 153.61 (+) .5 0 t
82.29 148.56 (+) .5 0 t
82.55 136.39 (+) .5 0 t
82.81 138.17 (+) .5 0 t
83.07 138.71 (+) .5 0 t
83.33 139.25 (+) .5 0 t
83.59 138.55 (+) .5 0 t
83.85 140.02 (+) .5 0 t
84.10 141.17 (+) .5 0 t
84.36 142.03 (+) .5 0 t
84.62 142.26 (+) .5 0 t
84.88 142.18 (+) .5 0 t
85.14 141.79 (+) .5 0 t
85.40 140.78 (+) .5 0 t
85.66 138.21 (+) .5 0 t
85.91 136.28 (+) .5 0 t
86.17 134.64 (+) .5 0 t
86.43 133.33 (+) .5 0 t
86.69 143.79 (+) .5 0 t
86.95 157.36 (+) .5 0 t
87.21 157.90 (+) .5 0 t
87.47 158.43 (+) .5 0 t
87.72 159.91 (+) .5 0 t
87.98 162.93 (+) .5 0 t
88.24 162.23 (+) .5 0 t
88.50 164.32 (+) .5 0 t
88.76 167.35 (+) .5 0 t
89.02 169.43 (+) .5 0 t
89.28 171.22 (+) .5 0 t
89.53 173.61 (+) .5 0 t
89.79 175.71 (+) .5 0 t
90.05 179.35 (+) .5 0 t
90.31 183.93 (+) .5 0 t
90.57 186.63 (+) .5 0 t
90.83 185.32 (+) .5 0 t
91.09 170.65 (+) .5 0 t
91.35 169.02 (+) .5 0 t
91.60 167.70 (+) .5 0 t
91.86 169.48 (+) .5 0 t
92.12 169.09 (+) .5 0 t
92.38 170.25 (+) .5 0 t
92.64 168.93 (+) .5 0 t
92.90 171.02 (+) .5 0 t
93.16 168.15 (+) .5 0 t
93.41 169.62 (+) .5 0 t
93.67 167.99 (+) .5 0 t
93.93 167.60 (+) .5 0 t
94.19 165.66 (+) .5 0 t
94.45 160.30 (+) .5 0 t
94.71 158.67 (+) .5 0 t
94.97 156.42 (+) .5 0 t
95.22 159.44 (+) .5 0 t
95.48 177.98 (+) .5 0 t
95.74 178.82 (+) .5 0 t
96.00 180.92 (+) .5 0 t
96.26 179.90 (+) .5 0 t
96.52 180.76 (+) .5 0 t
96.78 183.15 (+) .5 0 t
97.03 183.39 (+) .5 0 t
97.29 184.55 (+) .5 0 t
97.55 185.71 (+) .5 0 t
97.81 186.87 (+) .5 0 t
98.07 188.66 (+) .5 0 t
98.33 189.50 (+) .5 0 t
98.59 194.07 (+) .5 0 t
98.84 195.85 (+) .5 0 t
99.10 199.80 (+) .5 0 t
99.36 199.73 (+) .5 0 t
99.62 197.78 (+) .5 0 t
99.88 181.89 (+) .5 0 t
100.14 180.25 (+) .5 0 t
100.40 181.73 (+) .5 0 t
100.66 181.95 (+) .5 0 t
100.91 181.57 (+) .5 0 t
101.17 182.10 (+) .5 0 t
101.43 180.79 (+) .5 0 t
101.69 181.63 (+) .5 0 t
101.95 180.30 (+) .5 0 t
102.21 178.68 (+) .5 0 t
102.47 177.66 (+) .5 0 t
102.72 174.80 (+) .5 0 t
102.98 173.47 (+) .5 0 t
103.24 170.91 (+) .5 0 t
103.50 168.35 (+) .5 0 t
103.76 165.79 (+) .5 0 t
104.02 174.70 (+) .5 0 t
104.28 187.35 (+) .5 0 t
104.53 189.12 (+) .5 0 t
104.79 189.36 (+) .5 0 t
105.05 186.79 (+) .5 0 t
105.31 188.27 (+) .5 0 t
105.57 188.49 (+) .5 0 t
105.83 191.20 (+) .5 0 t
106.09 190.50 (+) .5 0 t
106.34 192.28 (+) .5 0 t
106.60 193.14 (+) .5 0 t
106.86 193.36 (+) .5 0 t
107.12 195.46 (+) .5 0 t
107.38 200.96 (+) .5 0 t
107.64 202.74 (+) .5 0 t
107.90 205.14 (+) .5 0 t
108.15 205.38 (+) .5 0 t
108.41 196.91 (+) .5 0 t
108.67 188.77 (+) .5 0 t
108.93 185.90 (+) .5 0 t
109.19 186.70 (+) .5 0 t
109.45 185.46 (+) .5 0 t
109.71 186.27 (+) .5 0 t
109.96 185.53 (+) .5 0 t
110.22 184.60 (+) .5 0 t
110.48 183.23 (+) .5 0 t
110.74 183.11 (+) .5 0 t
111.00 182.49 (+) .5 0 t
111.26 180.82 (+) .5 0 t
111.52 176.97 (+) .5 0 t
111.78 175.42 (+) .5 0 t
112.03 171.57 (+) .5 0 t
112.29 169.71 (+) .5 0 t
112.55 169.90 (+) .5 0 t
112.81 181.25 (+) .5 0 t
113.07 189.94 (+) .5 0 t
113.33 189.51 (+) .5 0 t
113.59 189.38 (+) .5 0 t
113.84 190.63 (+) .5 0 t
114.10 192.05 (+) .5 0 t
114.36 191.62 (+) .5 0 t
114.62 191.62 (+) .5 0 t
114.88 193.98 (+) .5 0 t
115.14 193.55 (+) .5 0 t
115.40 196.03 (+) .5 0 t
115.65 197.15 (+) .5 0 t
115.91 199.82 (+) .5 0 t
116.17 202.61 (+) .5 0 t
116.43 204.35 (+) .5 0 t
116.69 208.57 (+) .5 0 t
116.95 202.98 (+) .5 0 t
117.21 187.97 (+) .5 0 t
117.46 187.23 (+) .5 0 t
117.72 187.85 (+) .5 0 t
117.98 187.10 (+) .5 0 t
118.24 184.50 (+) .5 0 t
118.50 185.43 (+) .5 0 t
118.76 184.68 (+) .5 0 t
119.02 184.37 (+) .5 0 t
119.27 183.63 (+) .5 0 t
119.53 183.51 (+) .5 0 t
119.79 179.79 (+) .5 0 t
120.05 179.66 (+) .5 0 t
120.31 177.37 (+) .5 0 t
120.57 175.82 (+) .5 0 t
120.83 171.04 (+) .5 0 t
121.09 168.13 (+) .5 0 t
121.34 170.92 (+) .5 0 t
121.60 189.41 (+) .5 0 t
121.86 188.98 (+) .5 0 t
122.12 188.98 (+) .5 0 t
122.38 188.85 (+) .5 0 t
122.64 191.83 (+) .5 0 t
122.90 188.42 (+) .5 0 t
123.15 190.47 (+) .5 0 t
123.41 191.59 (+) .5 0 t
123.67 191.28 (+) .5 0 t
123.93 192.08 (+) .5 0 t
124.19 195.37 (+) .5 0 t
124.45 196.30 (+) .5 0 t
124.71 199.59 (+) .5 0 t
124.96 201.95 (+) .5 0 t
125.22 205.68 (+) .5 0 t
125.48 204.93 (+) .5 0 t
125.74 202.76 (+) .5 0 t
126.00 184.95 (+) .5 0 t
126.26 185.14 (+) .5 0 t
126.52 184.52 (+) .5 0 t
126.77 184.40 (+) .5 0 t
127.03 185.21 (+) .5 0 t
127.29 183.03 (+) .5 0 t
127.55 182.91 (+) .5 0 t
127.81 183.41 (+) .5 0 t
128.07 182.17 (+) .5 0 t
128.33 180.80 (+) .5 0 t
128.58 179.44 (+) .5 0 t
128.84 177.58 (+) .5 0 t
129.10 173.42 (+) .5 0 t
129.36 171.13 (+) .5 0 t
129.62 167.10 (+) .5 0 t
129.88 167.28 (+) .5 0 t
130.14 178.64 (+) .5 0 t
130.39 184.84 (+) .5 0 t
130.65 187.51 (+) .5 0 t
130.91 187.08 (+) .5 0 t
131.17 187.39 (+) .5 0 t
131.43 187.89 (+) .5 0 t
131.69 187.14 (+) .5 0 t
131.95 188.38 (+) .5 0 t
132.21 187.95 (+) .5 0 t
132.46 189.50 (+) .5 0 t
132.72 191.24 (+) .5 0 t
132.98 192.67 (+) .5 0 t
133.24 195.77 (+) .5 0 t
133.50 196.89 (+) .5 0 t
133.76 199.25 (+) .5 0 t
134.02 202.97 (+) .5 0 t
134.27 203.78 (+) .5 0 t
134.53 194.04 (+) .5 0 t
134.79 183.80 (+) .5 0 t
135.05 183.68 (+) .5 0 t
135.31 182.32 (+) .5 0 t
135.57 182.01 (+) .5 0 t
135.83 183.43 (+) .5 0 t
136.08 181.76 (+) .5 0 t
136.34 179.59 (+) .5 0 t
136.60 180.71 (+) .5 0 t
136.86 180.27 (+) .5 0 t
137.12 176.86 (+) .5 0 t
137.38 174.57 (+) .5 0 t
137.64 172.27 (+) .5 0 t
137.89 170.10 (+) .5 0 t
138.15 166.25 (+) .5 0 t
138.41 167.06 (+) .5 0 t
138.67 164.27 (+) .5 0 t
138.93 179.04 (+) .5 0 t
139.19 185.55 (+) .5 0 t
139.45 183.88 (+) .5 0 t
139.70 185.00 (+) .5 0 t
139.96 186.55 (+) .5 0 t
140.22 186.11 (+) .5 0 t
140.48 185.37 (+) .5 0 t
140.74 185.37 (+) .5 0 t
141.00 186.18 (+) .5 0 t
141.26 188.23 (+) .5 0 t
141.52 190.09 (+) .5 0 t
141.77 192.14 (+) .5 0 t
142.03 193.26 (+) .5 0 t
142.29 196.67 (+) .5 0 t
142.55 199.96 (+) .5 0 t
142.81 200.46 (+) .5 0 t
143.07 197.97 (+) .5 0 t
143.33 181.10 (+) .5 0 t
143.58 181.91 (+) .5 0 t
143.84 181.29 (+) .5 0 t
144.10 178.06 (+) .5 0 t
144.36 180.11 (+) .5 0 t
144.62 179.18 (+) .5 0 t
144.88 178.12 (+) .5 0 t
145.14 177.38 (+) .5 0 t
145.39 175.52 (+) .5 0 t
145.65 175.40 (+) .5 0 t
145.91 174.78 (+) .5 0 t
146.17 169.69 (+) .5 0 t
146.43 169.88 (+) .5 0 t
146.69 168.02 (+) .5 0 t
146.95 163.24 (+) .5 0 t
147.20 161.26 (+) .5 0 t
147.46 162.81 (+) .5 0 t
147.72 180.68 (+) .5 0 t
147.98 181.80 (+) .5 0 t
148.24 183.97 (+) .5 0 t
148.50 181.36 (+) .5 0 t
148.76 183.41 (+) .5 0 t
149.01 184.03 (+) .5 0 t
149.27 183.29 (+) .5 0 t
149.53 182.85 (+) .5 0 t
149.79 186.58 (+) .5 0 t
150.05 187.07 (+) .5 0 t
150.31 187.57 (+) .5 0 t
150.57 189.74 (+) .5 0 t
150.82 191.48 (+) .5 0 t
151.08 196.01 (+) .5 0 t
151.34 197.56 (+) .5 0 t
151.60 199.30 (+) .5 0 t
151.86 192.17 (+) .5 0 t
152.12 178.08 (+) .5 0 t
152.38 177.65 (+) .5 0 t
152.64 177.03 (+) .5 0 t
152.89 176.29 (+) .5 0 t
153.15 176.79 (+) .5 0 t
153.41 175.85 (+) .5 0 t
153.67 176.35 (+) .5 0 t
153.93 174.68 (+) .5 0 t
154.19 173.75 (+) .5 0 t
154.45 171.45 (+) .5 0 t
154.70 169.78 (+) .5 0 t
154.96 167.92 (+) .5 0 t
155.22 165.31 (+) .5 0 t
155.48 163.33 (+) .5 0 t
155.74 159.92 (+) .5 0 t
156.00 159.17 (+) .5 0 t
156.26 173.63 (+) .5 0 t
156.51 178.90 (+) .5 0 t
156.77 180.02 (+) .5 0 t
157.03 177.11 (+) .5 0 t
157.29 178.97 (+) .5 0 t
157.55 178.85 (+) .5 0 t
157.81 179.96 (+) .5 0 t
158.07 180.27 (+) .5 0 t
158.32 182.63 (+) .5 0 t
158.58 182.63 (+) .5 0 t
158.84 184.37 (+) .5 0 t
159.10 185.49 (+) .5 0 t
159.36 187.66 (+) .5 0 t
159.62 189.40 (+) .5 0 t
159.88 191.14 (+) .5 0 t
160.13 193.93 (+) .5 0 t
160.39 196.29 (+) .5 0 t
160.65 180.34 (+) .5 0 t
160.91 174.76 (+) .5 0 t
161.17 174.64 (+) .5 0 t
161.43 174.82 (+) .5 0 t
161.69 172.03 (+) .5 0 t
161.95 172.53 (+) .5 0 t
162.20 173.65 (+) .5 0 t
162.46 173.03 (+) .5 0 t
162.72 170.73 (+) .5 0 t
162.98 170.30 (+) .5 0 t
163.24 168.13 (+) .5 0 t
163.50 167.70 (+) .5 0 t
163.76 166.33 (+) .5 0 t
164.01 161.68 (+) .5 0 t
164.27 160.31 (+) .5 0 t
164.53 155.23 (+) .5 0 t
164.79 157.71 (+) .5 0 t
165.05 174.96 (+) .5 0 t
165.31 175.89 (+) .5 0 t
165.57 175.77 (+) .5 0 t
165.82 176.26 (+) .5 0 t
166.08 175.95 (+) .5 0 t
166.34 177.07 (+) .5 0 t
166.60 176.95 (+) .5 0 t
166.86 178.50 (+) .5 0 t
167.12 178.38 (+) .5 0 t
167.38 179.81 (+) .5 0 t
167.63 180.12 (+) .5 0 t
167.89 185.27 (+) .5 0 t
168.15 183.28 (+) .5 0 t
168.41 187.94 (+) .5 0 t
168.67 191.85 (+) .5 0 t
168.93 192.65 (+) .5 0 t
169.19 188.31 (+) .5 0 t
169.44 171.75 (+) .5 0 t
169.70 172.24 (+) .5 0 t
169.96 171.31 (+) .5 0 t
170.22 168.71 (+) .5 0 t
170.48 170.14 (+) .5 0 t
170.74 169.52 (+) .5 0 t
171.00 169.70 (+) .5 0 t
171.25 169.89 (+) .5 0 t
171.51 168.34 (+) .5 0 t
171.77 167.60 (+) .5 0 t
172.03 165.11 (+) .5 0 t
172.29 163.75 (+) .5 0 t
172.55 160.84 (+) .5 0 t
172.81 158.35 (+) .5 0 t
173.07 155.13 (+) .5 0 t
173.32 152.21 (+) .5 0 t
173.58 155.63 (+) .5 0 t
173.84 172.88 (+) .5 0 t
174.10 173.06 (+) .5 0 t
174.36 173.06 (+) .5 0 t
174.62 174.80 (+) .5 0 t
174.88 173.13 (+) .5 0 t
175.13 174.99 (+) .5 0 t
175.39 175.18 (+) .5 0 t
175.65 175.05 (+) .5 0 t
175.91 177.85 (+) .5 0 t
176.17 176.48 (+) .5 0 t
176.43 178.53 (+) .5 0 t
176.69 181.94 (+) .5 0 t
176.94 183.68 (+) .5 0 t
177.20 186.35 (+) .5 0 t
177.46 190.38 (+) .5 0 t
177.72 191.50 (+) .5 0 t
177.98 178.97 (+) .5 0 t
178.24 168.11 (+) .5 0 t
178.50 168.61 (+) .5 0 t
178.75 167.99 (+) .5 0 t
179.01 167.56 (+) .5 0 t
179.27 167.74 (+) .5 0 t
179.53 167.74 (+) .5 0 t
179.79 167.31 (+) .5 0 t
180.05 165.33 (+) .5 0 t
180.31 165.02 (+) .5 0 t
180.56 162.72 (+) .5 0 t
180.82 161.05 (+) .5 0 t
181.08 159.50 (+) .5 0 t
181.34 156.27 (+) .5 0 t
181.60 153.98 (+) .5 0 t
181.86 150.56 (+) .5 0 t
182.12 151.06 (+) .5 0 t
182.38 165.83 (+) .5 0 t
182.63 170.48 (+) .5 0 t
182.89 170.67 (+) .5 0 t
183.15 171.17 (+) .5 0 t
183.41 170.24 (+) .5 0 t
183.67 170.73 (+) .5 0 t
183.93 171.54 (+) .5 0 t
184.19 172.16 (+) .5 0 t
184.44 172.04 (+) .5 0 t
184.70 174.09 (+) .5 0 t
184.96 174.40 (+) .5 0 t
185.22 177.07 (+) .5 0 t
185.48 178.31 (+) .5 0 t
185.74 180.36 (+) .5 0 t
186.00 184.89 (+) .5 0 t
186.25 186.75 (+) .5 0 t
186.51 187.56 (+) .5 0 t
186.77 170.06 (+) .5 0 t
187.03 165.10 (+) .5 0 t
187.29 165.29 (+) .5 0 t
187.55 164.54 (+) .5 0 t
187.81 165.47 (+) .5 0 t
188.06 164.42 (+) .5 0 t
188.32 163.99 (+) .5 0 t
188.58 163.06 (+) .5 0 t
188.84 162.62 (+) .5 0 t
189.10 160.64 (+) .5 0 t
189.36 160.33 (+) .5 0 t
189.62 156.17 (+) .5 0 t
189.87 155.74 (+) .5 0 t
190.13 152.64 (+) .5 0 t
190.39 147.24 (+) .5 0 t
190.65 147.12 (+) .5 0 t
190.91 150.84 (+) .5 0 t
191.17 165.30 (+) .5 0 t
191.43 167.16 (+) .5 0 t
191.68 167.04 (+) .5 0 t
191.94 166.91 (+) .5 0 t
192.20 165.67 (+) .5 0 t
192.46 167.72 (+) .5 0 t
192.72 168.84 (+) .5 0 t
192.98 170.08 (+) .5 0 t
193.24 171.20 (+) .5 0 t
193.50 170.14 (+) .5 0 t
193.75 173.87 (+) .5 0 t
194.01 174.36 (+) .5 0 t
194.27 176.41 (+) .5 0 t
194.53 179.51 (+) .5 0 t
194.79 182.80 (+) .5 0 t
195.05 182.99 (+) .5 0 t
195.31 177.41 (+) .5 0 t
195.56 163.01 (+) .5 0 t
195.82 163.20 (+) .5 0 t
196.08 162.27 (+) .5 0 t
196.34 163.08 (+) .5 0 t
196.60 162.65 (+) .5 0 t
196.86 161.72 (+) .5 0 t
197.12 160.97 (+) .5 0 t
197.37 159.92 (+) .5 0 t
197.63 158.99 (+) .5 0 t
197.89 157.62 (+) .5 0 t
198.15 156.07 (+) .5 0 t
198.41 152.85 (+) .5 0 t
198.67 152.10 (+) .5 0 t
198.93 149.31 (+) .5 0 t
199.18 144.85 (+) .5 0 t
199.44 142.55 (+) .5 0 t
199.70 150.00 (+) .5 0 t
199.96 163.83 (+) .5 0 t
200.22 164.95 (+) .5 0 t
200.48 162.47 (+) .5 0 t
200.74 164.52 (+) .5 0 t
200.99 165.02 (+) .5 0 t
201.25 166.88 (+) .5 0 t
201.51 166.13 (+) .5 0 t
201.77 167.56 (+) .5 0 t
202.03 167.56 (+) .5 0 t
202.29 166.13 (+) .5 0 t
202.55 166.88 (+) .5 0 t
202.81 165.02 (+) .5 0 t
203.06 164.52 (+) .5 0 t
203.32 162.47 (+) .5 0 t
203.58 164.95 (+) .5 0 t
203.84 163.83 (+) .5 0 t
204.10 150.00 (+) .5 0 t
204.36 142.55 (+) .5 0 t
204.62 144.85 (+) .5 0 t
204.87 149.31 (+) .5 0 t
205.13 152.10 (+) .5 0 t
205.39 152.85 (+) .5 0 t
205.65 156.07 (+) .5 0 t
205.91 157.62 (+) .5 0 t
206.17 158.99 (+) .5 0 t
206.43 159.92 (+) .5 0 t
206.68 160.97 (+) .5 0 t
206.94 161.72 (+) .5 0 t
207.20 162.65 (+) .5 0 t
207.46 163.08 (+) .5 0 t
207.72 162.27 (+) .5 0 t
207.98 163.20 (+) .5 0 t
208.24 163.01 (+) .5 0 t
208.49 177.41 (+) .5 0 t
208.75 182.99 (+) .5 0 t
209.01 182.80 (+) .5 0 t
209.27 179.51 (+) .5 0 t
209.53 176.41 (+) .5 0 t
209.79 174.36 (+) .5 0 t
210.05 173.87 (+) .5 0 t
210.30 170.14 (+) .5 0 t
210.56 171.20 (+) .5 0 t
210.82 170.08 (+) .5 0 t
211.08 168.84 (+) .5 0 t
211.34 167.72 (+) .5 0 t
211.60 165.67 (+) .5 0 t
211.86 166.91 (+) .5 0 t
212.11 167.04 (+) .5 0 t
212.37 167.16 (+) .5 0 t
212.63 165.30 (+) .5 0 t
212.89 150.84 (+) .5 0 t
213.15 147.12 (+) .5 0 t
213.41 147.24 (+) .5 0 t
213.67 152.64 (+) .5 0 t
213.93 155.74 (+) .5 0 t
214.18 156.17 (+) .5 0 t
214.44 160.33 (+) .5 0 t
214.70 160.64 (+) .5 0 t
214.96 162.62 (+) .5 0 t
215.22 163.06 (+) .5 0 t
215.48 163.99 (+) .5 0 t
215.74 164.42 (+) .5 0 t
215.99 165.47 (+) .5 0 t
216.25 164.54 (+) .5 0 t
216.51 165.29 (+) .5 0 t
216.77 165.10 (+) .5 0 t
217.03 170.06 (+) .5 0 t
217.29 187.56 (+) .5 0 t
217.55 186.75 (+) .5 0 t
217.80 184.89 (+) .5 0 t
218.06 180.36 (+) .5 0 t
218.32 178.31 (+) .5 0 t
218.58 177.07 (+) .5 0 t
218.84 174.40 (+) .5 0 t
219.10 174.09 (+) .5 0 t
219.36 172.04 (+) .5 0 t
219.61 172.16 (+) .5 0 t
219.87 171.54 (+) .5 0 t
220.13 170.73 (+) .5 0 t
220.39 170.24 (+) .5 0 t
220.65 171.17 (+) .5 0 t
220.91 170.67 (+) .5 0 t
221.17 170.48 (+) .5 0 t
221.42 165.83 (+) .5 0 t
221.68 151.06 (+) .5 0 t
221.94 150.56 (+) .5 0 t
222.20 153.98 (+) .5 0 t
222.46 156.27 (+) .5 0 t
222.72 159.50 (+) .5 0 t
222.98 161.05 (+) .5 0 t
223.23 162.72 (+) .5 0 t
223.49 165.02 (+) .5 0 t
223.75 165.33 (+) .5 0 t
224.01 167.31 (+) .5 0 t
224.27 167.74 (+) .5 0 t
224.53 167.74 (+) .5 0 t
224.79 167.56 (+) .5 0 t
225.05 167.99 (+) .5 0 t
225.30 168.61 (+) .5 0 t
225.56 168.11 (+) .5 0 t
225.82 178.97 (+) .5 0 t
226.08 191.50 (+) .5 0 t
226.34 190.38 (+) .5 0 t
226.60 186.35 (+) .5 0 t
226.86 183.68 (+) .5 0 t
227.11 181.94 (+) .5 0 t
227.37 178.53 (+) .5 0 t
227.63 176.48 (+) .5 0 t
227.89 177.85 (+) .5 0 t
228.15 175.05 (+) .5 0 t
228.41 175.18 (+) .5 0 t
228.67 174.99 (+) .5 0 t
228.92 173.13 (+) .5 0 t
229.18 174.80 (+) .5 0 t
229.44 173.06 (+) .5 0 t
229.70 173.06 (+) .5 0 t
229.96 172.88 (+) .5 0 t
230.22 155.63 (+) .5 0 t
230.48 152.21 (+) .5 0 t
230.73 155.13 (+) .5 0 t
230.99 158.35 (+) .5 0 t
231.25 160.84 (+) .5 0 t
231.51 163.75 (+) .5 0 t
231.77 165.11 (+) .5 0 t
232.03 167.60 (+) .5 0 t
232.29 168.34 (+) .5 0 t
232.54 169.89 (+) .5 0 t
232.80 169.70 (+) .5 0 t
233.06 169.52 (+) .5 0 t
233.32 170.14 (+) .5 0 t
233.58 168.71 (+) .5 0 t
233.84 171.31 (+) .5 0 t
234.10 172.24 (+) .5 0 t
234.36 171.75 (+) .5 0 t
234.61 188.31 (+) .5 0 t
234.87 192.65 (+) .5 0 t
235.13 191.85 (+) .5 0 t
235.39 187.94 (+) .5 0 t
235.65 183.28 (+) .5 0 t
235.91 185.27 (+) .5 0 t
236.17 180.12 (+) .5 0 t
236.42 179.81 (+) .5 0 t
236.68 178.38 (+) .5 0 t
236.94 178.50 (+) .5 0 t
237.20 176.95 (+) .5 0 t
237.46 177.07 (+) .5 0 t
237.72 175.95 (+) .5 0 t
237.98 176.26 (+) .5 0 t
238.23 175.77 (+) .5 0 t
238.49 175.89 (+) .5 0 t
238.75 174.96 (+) .5 0 t
239.01 157.71 (+) .5 0 t
239.27 155.23 (+) .5 0 t
239.53 160.31 (+) .5 0 t
239.79 161.68 (+) .5 0 t
240.04 166.33 (+) .5 0 t
240.30 167.70 (+) .5 0 t
240.56 168.13 (+) .5 0 t
240.82 170.30 (+) .5 0 t
241.08 170.73 (+) .5 0 t
241.34 173.03 (+) .5 0 t
241.60 173.65 (+) .5 0 t
241.85 172.53 (+) .5 0 t
242.11 172.03 (+) .5 0 t
242.37 174.82 (+) .5 0 t
242.63 174.64 (+) .5 0 t
242.89 174.76 (+) .5 0 t
243.15 180.34 (+) .5 0 t
243.41 196.29 (+) .5 0 t
243.66 193.93 (+) .5 0 t
243.92 191.14 (+) .5 0 t
244.18 189.40 (+) .5 0 t
244.44 187.66 (+) .5 0 t
244.70 185.49 (+) .5 0 t
244.96 184.37 (+) .5 0 t
245.22 182.63 (+) .5 0 t
245.48 182.63 (+) .5 0 t
245.73 180.27 (+) .5 0 t
245.99 179.96 (+) .5 0 t
246.25 178.85 (+) .5 0 t
246.51 178.97 (+) .5 0 t
246.77 177.11 (+) .5 0 t
247.03 180.02 (+) .5 0 t
247.29 178.90 (+) .5 0 t
247.54 173.63 (+) .5 0 t
247.80 159.17 (+) .5 0 t
248.06 159.92 (+) .5 0 t
248.32 163.33 (+) .5 0 t
248.58 165.31 (+) .5 0 t
248.84 167.92 (+) .5 0 t
249.10 169.78 (+) .5 0 t
249.35 171.45 (+) .5 0 t
249.61 173.75 (+) .5 0 t
249.87 174.68 (+) .5 0 t
250.13 176.35 (+) .5 0 t
250.39 175.85 (+) .5 0 t
250.65 176.79 (+) .5 0 t
250.91 176.29 (+) .5 0 t
251.16 177.03 (+) .5 0 t
251.42 177.65 (+) .5 0 t
251.68 178.08 (+) .5 0 t
251.94 192.17 (+) .5 0 t
252.20 199.30 (+) .5 0 t
252.46 197.56 (+) .5 0 t
252.72 196.01 (+) .5 0 t
252.97 191.48 (+) .5 0 t
253.23 189.74 (+) .5 0 t
253.49 187.57 (+) .5 0 t
253.75 187.07 (+) .5 0 t
254.01 186.58 (+) .5 0 t
254.27 182.85 (+) .5 0 t
254.53 183.29 (+) .5 0 t
254.79 184.03 (+) .5 0 t
255.04 183.41 (+) .5 0 t
255.30 181.36 (+) .5 0 t
255.56 183.97 (+) .5 0 t
255.82 181.80 (+) .5 0 t
256.08 180.68 (+) .5 0 t
256.34 162.81 (+) .5 0 t
256.60 161.26 (+) .5 0 t
256.85 163.24 (+) .5 0 t
257.11 168.02 (+) .5 0 t
257.37 169.88 (+) .5 0 t
257.63 169.69 (+) .5 0 t
257.89 174.78 (+) .5 0 t
258.15 175.40 (+) .5 0 t
258.41 175.52 (+) .5 0 t
258.66 177.38 (+) .5 0 t
258.92 178.12 (+) .5 0 t
259.18 179.18 (+) .5 0 t
259.44 180.11 (+) .5 0 t
259.70 178.06 (+) .5 0 t
259.96 181.29 (+) .5 0 t
260.22 181.91 (+) .5 0 t
260.47 181.10 (+) .5 0 t
260.73 197.97 (+) .5 0 t
260.99 200.46 (+) .5 0 t
261.25 199.96 (+) .5 0 t
261.51 196.67 (+) .5 0 t
261.77 193.26 (+) .5 0 t
262.03 192.14 (+) .5 0 t
262.28 190.09 (+) .5 0 t
262.54 188.23 (+) .5 0 t
262.80 186.18 (+) .5 0 t
263.06 185.37 (+) .5 0 t
263.32 185.37 (+) .5 0 t
263.58 186.11 (+) .5 0 t
263.84 186.55 (+) .5 0 t
264.09 185.00 (+) .5 0 t
264.35 183.88 (+) .5 0 t
264.61 185.55 (+) .5 0 t
264.87 179.04 (+) .5 0 t
265.13 164.27 (+) .5 0 t
265.39 167.06 (+) .5 0 t
265.65 166.25 (+) .5 0 t
265.91 170.10 (+) .5 0 t
266.16 172.27 (+) .5 0 t
266.42 174.57 (+) .5 0 t
266.68 176.86 (+) .5 0 t
266.94 180.27 (+) .5 0 t
267.20 180.71 (+) .5 0 t
267.46 179.59 (+) .5 0 t
267.72 181.76 (+) .5 0 t
267.97 183.43 (+) .5 0 t
268.23 182.01 (+) .5 0 t
268.49 182.32 (+) .5 0 t
268.75 183.68 (+) .5 0 t
269.01 183.80 (+) .5 0 t
269.27 194.04 (+) .5 0 t
269.53 203.78 (+) .5 0 t
269.78 202.97 (+) .5 0 t
270.04 199.25 (+) .5 0 t
270.30 196.89 (+) .5 0 t
270.56 195.77 (+) .5 0 t
270.82 192.67 (+) .5 0 t
271.08 191.24 (+) .5 0 t
271.34 189.50 (+) .5 0 t
271.59 187.95 (+) .5 0 t
271.85 188.38 (+) .5 0 t
272.11 187.14 (+) .5 0 t
272.37 187.89 (+) .5 0 t
272.63 187.39 (+) .5 0 t
272.89 187.08 (+) .5 0 t
273.15 187.51 (+) .5 0 t
273.40 184.84 (+) .5 0 t
273.66 178.64 (+) .5 0 t
273.92 167.28 (+) .5 0 t
274.18 167.10 (+) .5 0 t
274.44 171.13 (+) .5 0 t
274.70 173.42 (+) .5 0 t
274.96 177.58 (+) .5 0 t
275.22 179.44 (+) .5 0 t
275.47 180.80 (+) .5 0 t
275.73 182.17 (+) .5 0 t
275.99 183.41 (+) .5 0 t
276.25 182.91 (+) .5 0 t
276.51 183.03 (+) .5 0 t
276.77 185.21 (+) .5 0 t
277.03 184.40 (+) .5 0 t
277.28 184.52 (+) .5 0 t
277.54 185.14 (+) .5 0 t
277.80 184.95 (+) .5 0 t
278.06 202.76 (+) .5 0 t
278.32 204.93 (+) .5 0 t
278.58 205.68 (+) .5 0 t
278.84 201.95 (+) .5 0 t
279.09 199.59 (+) .5 0 t
279.35 196.30 (+) .5 0 t
279.61 195.37 (+) .5 0 t
279.87 192.08 (+) .5 0 t
280.13 191.28 (+) .5 0 t
280.39 191.59 (+) .5 0 t
280.65 190.47 (+) .5 0 t
280.90 188.42 (+) .5 0 t
281.16 191.83 (+) .5 0 t
281.42 188.85 (+) .5 0 t
281.68 188.98 (+) .5 0 t
281.94 188.98 (+) .5 0 t
282.20 189.41 (+) .5 0 t
282.46 170.92 (+) .5 0 t
282.71 168.13 (+) .5 0 t
282.97 171.04 (+) .5 0 t
283.23 175.82 (+) .5 0 t
283.49 177.37 (+) .5 0 t
283.75 179.66 (+) .5 0 t
284.01 179.79 (+) .5 0 t
284.27 183.51 (+) .5 0 t
284.52 183.63 (+) .5 0 t
284.78 184.37 (+) .5 0 t
285.04 184.68 (+) .5 0 t
285.30 185.43 (+) .5 0 t
285.56 184.50 (+) .5 0 t
285.82 187.10 (+) .5 0 t
286.08 187.85 (+) .5 0 t
286.34 187.23 (+) .5 0 t
286.59 187.97 (+) .5 0 t
286.85 202.98 (+) .5 0 t
287.11 208.57 (+) .5 0 t
287.37 204.35 (+) .5 0 t
287.63 202.61 (+) .5 0 t
287.89 199.82 (+) .5 0 t
288.15 197.15 (+) .5 0 t
288.40 196.03 (+) .5 0 t
288.66 193.55 (+) .5 0 t
288.92 193.98 (+) .5 0 t
289.18 191.62 (+) .5 0 t
289.44 191.62 (+) .5 0 t
289.70 192.05 (+) .5 0 t
289.96 190.63 (+) .5 0 t
290.21 189.38 (+) .5 0 t
290.47 189.51 (+) .5 0 t
290.73 189.94 (+) .5 0 t
290.99 181.25 (+) .5 0 t
291.25 169.90 (+) .5 0 t
291.51 169.71 (+) .5 0 t
291.77 171.57 (+) .5 0 t
292.02 175.42 (+) .5 0 t
292.28 176.97 (+) .5 0 t
292.54 180.82 (+) .5 0 t
292.80 182.49 (+) .5 0 t
293.06 183.11 (+) .5 0 t
293.32 183.23 (+) .5 0 t
293.58 184.60 (+) .5 0 t
293.83 185.53 (+) .5 0 t
294.09 186.27 (+) .5 0 t
294.35 185.46 (+) .5 0 t
294.61 186.70 (+) .5 0 t
294.87 185.90 (+) .5 0 t
295.13 188.77 (+) .5 0 t
295.39 196.91 (+) .5 0 t
295.65 205.38 (+) .5 0 t
295.90 205.14 (+) .5 0 t
296.16 202.74 (+) .5 0 t
296.42 200.96 (+) .5 0 t
296.68 195.46 (+) .5 0 t
296.94 193.36 (+) .5 0 t
297.20 193.14 (+) .5 0 t
297.46 192.28 (+) .5 0 t
297.71 190.50 (+) .5 0 t
297.97 191.20 (+) .5 0 t
298.23 188.49 (+) .5 0 t
298.49 188.27 (+) .5 0 t
298.75 186.79 (+) .5 0 t
299.01 189.36 (+) .5 0 t
299.27 189.12 (+) .5 0 t
299.52 187.35 (+) .5 0 t
299.78 174.70 (+) .5 0 t
300.04 165.79 (+) .5 0 t
300.30 168.35 (+) .5 0 t
300.56 170.91 (+) .5 0 t
300.82 173.47 (+) .5 0 t
301.08 174.80 (+) .5 0 t
301.33 177.66 (+) .5 0 t
301.59 178.68 (+) .5 0 t
301.85 180.30 (+) .5 0 t
302.11 181.63 (+) .5 0 t
302.37 180.79 (+) .5 0 t
302.63 182.10 (+) .5 0 t
302.89 181.57 (+) .5 0 t
303.14 181.95 (+) .5 0 t
303.40 181.73 (+) .5 0 t
303.66 180.25 (+) .5 0 t
303.92 181.89 (+) .5 0 t
304.18 197.78 (+) .5 0 t
304.44 199.73 (+) .5 0 t
304.70 199.80 (+) .5 0 t
304.95 195.85 (+) .5 0 t
305.21 194.07 (+) .5 0 t
305.47 189.50 (+) .5 0 t
305.73 188.66 (+) .5 0 t
305.99 186.87 (+) .5 0 t
306.25 185.71 (+) .5 0 t
306.51 184.55 (+) .5 0 t
306.77 183.39 (+) .5 0 t
307.02 183.15 (+) .5 0 t
307.28 180.76 (+) .5 0 t
307.54 179.90 (+) .5 0 t
307.80 180.92 (+) .5 0 t
308.06 178.82 (+) .5 0 t
308.32 177.98 (+) .5 0 t
308.58 159.44 (+) .5 0 t
308.83 156.42 (+) .5 0 t
309.09 158.67 (+) .5 0 t
309.35 160.30 (+) .5 0 t
309.61 165.66 (+) .5 0 t
309.87 167.60 (+) .5 0 t
310.13 167.99 (+) .5 0 t
310.39 169.62 (+) .5 0 t
310.64 168.15 (+) .5 0 t
310.90 171.02 (+) .5 0 t
311.16 168.93 (+) .5 0 t
311.42 170.25 (+) .5 0 t
311.68 169.09 (+) .5 0 t
311.94 169.48 (+) .5 0 t
312.20 167.70 (+) .5 0 t
312.45 169.02 (+) .5 0 t
312.71 170.65 (+) .5 0 t
312.97 185.32 (+) .5 0 t
313.23 186.63 (+) .5 0 t
313.49 183.93 (+) .5 0 t
313.75 179.35 (+) .5 0 t
314.01 175.71 (+) .5 0 t
314.26 173.61 (+) .5 0 t
314.52 171.22 (+) .5 0 t
314.78 169.43 (+) .5 0 t
315.04 167.35 (+) .5 0 t
315.30 164.32 (+) .5 0 t
315.56 162.23 (+) .5 0 t
315.82 162.93 (+) .5 0 t
316.08 159.91 (+) .5 0 t
316.33 158.43 (+) .5 0 t
316.59 157.90 (+) .5 0 t
316.85 157.36 (+) .5 0 t
317.11 143.79 (+) .5 0 t
317.37 133.33 (+) .5 0 t
317.63 134.64 (+) .5 0 t
317.89 136.28 (+) .5 0 t
318.14 138.21 (+) .5 0 t
318.40 140.78 (+) .5 0 t
318.66 141.79 (+) .5 0 t
318.92 142.18 (+) .5 0 t
319.18 142.26 (+) .5 0 t
319.44 142.03 (+) .5 0 t
319.70 141.17 (+) .5 0 t
319.95 140.02 (+) .5 0 t
320.21 138.55 (+) .5 0 t
320.47 139.25 (+) .5 0 t
320.73 138.71 (+) .5 0 t
320.99 138.17 (+) .5 0 t
321.25 136.39 (+) .5 0 t
321.51 148.56 (+) .5 0 t
321.76 153.61 (+) .5 0 t
322.02 151.52 (+) .5 0 t
322.28 146.95 (+) .5 0 t
322.54 141.44 (+) .5 0 t
322.80 138.42 (+) .5 0 t
323.06 135.39 (+) .5 0 t
323.32 133.62 (+) .5 0 t
323.57 130.90 (+) .5 0 t
323.83 128.81 (+) .5 0 t
324.09 125.49 (+) .5 0 t
324.35 124.63 (+) .5 0 t
324.61 121.30 (+) .5 0 t
324.87 120.76 (+) .5 0 t
325.13 118.98 (+) .5 0 t
325.38 118.75 (+) .5 0 t
325.64 115.73 (+) .5 0 t
325.90 98.49 (+) .5 0 t
326.16 90.85 (+) .5 0 t
326.42 92.91 (+) .5 0 t
326.68 93.90 (+) .5 0 t
326.94 97.76 (+) .5 0 t
327.20 96.01 (+) .5 0 t
327.45 98.52 (+) .5 0 t
327.71 99.37 (+) .5 0 t
327.97 99.77 (+) .5 0 t
328.23 97.54 (+) .5 0 t
328.49 98.68 (+) .5 0 t
328.75 98.48 (+) .5 0 t
329.01 98.84 (+) .5 0 t
329.26 98.17 (+) .5 0 t
329.52 98.10 (+) .5 0 t
329.78 100.16 (+) .5 0 t
330.04 102.36 (+) .5 0 t
330.30 117.79 (+) .5 0 t
330.56 119.12 (+) .5 0 t
330.82 114.85 (+) .5 0 t
331.07 113.69 (+) .5 0 t
331.33 109.43 (+) .5 0 t
331.59 109.20 (+) .5 0 t
331.85 107.91 (+) .5 0 t
332.11 106.94 (+) .5 0 t
332.37 106.40 (+) .5 0 t
332.63 106.48 (+) .5 0 t
332.88 105.07 (+) .5 0 t
333.14 106.21 (+) .5 0 t
333.40 107.19 (+) .5 0 t
333.66 108.63 (+) .5 0 t
333.92 110.85 (+) .5 0 t
334.18 121.17 (+) .5 0 t
0.00 0.00 375.00 300.00 cl
0 0 0 srgb
0.75 setlinewidth
[] 0 setdash
1 setlinecap
1 setlinejoin
10.00 setmiterlimit
np
69.36 73.44 m
264.82 0 l
o
np
69.36 73.44 m
0 -7.20 l
o
np
135.57 73.44 m
0 -7.20 l
o
np
201.77 73.44 m
0 -7.20 l
o
np
267.97 73.44 m
0 -7.20 l
o
np
334.18 73.44 m
0 -7.20 l
o
/Font1 findfont 12 s
69.36 47.52 (0.0) .5 0 t
135.57 47.52 (0.5) .5 0 t
201.77 47.52 (1.0) .5 0 t
267.97 47.52 (1.5) .5 0 t
334.18 47.52 (2.0) .5 0 t
np
59.04 79.64 m
0 143.18 l
o
np
59.04 79.64 m
-7.20 0 l
o
np
59.04 103.51 m
-7.20 0 l
o
np
59.04 127.37 m
-7.20 0 l
o
np
59.04 151.23 m
-7.20 0 l
o
np
59.04 175.10 m
-7.20 0 l
o
np
59.04 198.96 m
-7.20 0 l
o
np
59.04 222.82 m
-7.20 0 l
o
41.76 79.64 (12) .5 90 t
41.76 103.51 (14) .5 90 t
41.76 127.37 (16) .5 90 t
41.76 151.23 (18) .5 90 t
41.76 175.10 (20) .5 90 t
41.76 198.96 (22) .5 90 t
41.76 222.82 (24) .5 90 t
np
59.04 73.44 m
285.72 0 l
0 167.52 l
-285.72 0 l
0 -167.52 l
o
0.00 0.00 375.00 300.00 cl
/Font1 findfont 12 s
0 0 0 srgb
201.90 18.72 (time/tmax) .5 0 t
12.96 157.20 (T) .5 90 t
59.04 73.44 344.76 240.96 cl
0 0 1 srgb
0.75 setlinewidth
[] 0 setdash
1 setlinecap
1 setlinejoin
10.00 setmiterlimit
69.62 122.69 1.35 c p1
69.88 112.37 1.35 c p1
70.14 110.15 1.35 c p1
70.40 108.70 1.35 c p1
70.66 107.72 1.35 c p1
70.92 106.59 1.35 c p1
71.17 107.99 1.35 c p1
71.43 107.91 1.35 c p1
71.69 108.46 1.35 c p1
71.95 109.43 1.35 c p1
72.21 110.71 1.35 c p1
72.47 110.94 1.35 c p1
72.73 115.21 1.35 c p1
72.98 116.37 1.35 c p1
73.24 120.63 1.35 c p1
73.50 119.30 1.35 c p1
73.76 103.87 1.35 c p1
74.02 101.68 1.35 c p1
74.28 99.62 1.35 c p1
74.54 99.69 1.35 c p1
74.79 100.36 1.35 c p1
75.05 99.99 1.35 c p1
75.31 100.20 1.35 c p1
75.57 99.06 1.35 c p1
75.83 101.28 1.35 c p1
76.09 100.88 1.35 c p1
76.35 100.03 1.35 c p1
76.60 97.53 1.35 c p1
76.86 99.27 1.35 c p1
77.12 95.41 1.35 c p1
77.38 94.43 1.35 c p1
77.64 92.37 1.35 c p1
77.90 100.01 1.35 c p1
78.16 117.25 1.35 c p1
78.41 120.26 1.35 c p1
78.67 120.50 1.35 c p1
78.93 122.27 1.35 c p1
79.19 122.82 1.35 c p1
79.45 126.15 1.35 c p1
79.71 127.00 1.35 c p1
79.97 130.33 1.35 c p1
80.23 132.42 1.35 c p1
80.48 135.13 1.35 c p1
80.74 136.91 1.35 c p1
81.00 139.94 1.35 c p1
81.26 142.95 1.35 c p1
81.52 148.46 1.35 c p1
81.78 153.03 1.35 c p1
82.04 155.13 1.35 c p1
82.29 150.08 1.35 c p1
82.55 137.91 1.35 c p1
82.81 139.68 1.35 c p1
83.07 140.23 1.35 c p1
83.33 140.76 1.35 c p1
83.59 140.07 1.35 c p1
83.85 141.53 1.35 c p1
84.10 142.69 1.35 c p1
84.36 143.55 1.35 c p1
84.62 143.77 1.35 c p1
84.88 143.70 1.35 c p1
85.14 143.30 1.35 c p1
85.40 142.30 1.35 c p1
85.66 139.73 1.35 c p1
85.91 137.79 1.35 c p1
86.17 136.16 1.35 c p1
86.43 134.84 1.35 c p1
86.69 145.30 1.35 c p1
86.95 158.88 1.35 c p1
87.21 159.41 1.35 c p1
87.47 159.95 1.35 c p1
87.72 161.42 1.35 c p1
87.98 164.44 1.35 c p1
88.24 163.75 1.35 c p1
88.50 165.83 1.35 c p1
88.76 168.86 1.35 c p1
89.02 170.95 1.35 c p1
89.28 172.73 1.35 c p1
89.53 175.13 1.35 c p1
89.79 177.23 1.35 c p1
90.05 180.86 1.35 c p1
90.31 185.44 1.35 c p1
90.57 188.15 1.35 c p1
90.83 186.84 1.35 c p1
91.09 172.17 1.35 c p1
91.35 170.53 1.35 c p1
91.60 169.22 1.35 c p1
91.86 170.99 1.35 c p1
92.12 170.61 1.35 c p1
92.38 171.76 1.35 c p1
92.64 170.45 1.35 c p1
92.90 172.53 1.35 c p1
93.16 169.67 1.35 c p1
93.41 171.13 1.35 c p1
93.67 169.51 1.35 c p1
93.93 169.11 1.35 c p1
94.19 167.18 1.35 c p1
94.45 161.82 1.35 c p1
94.71 160.18 1.35 c p1
94.97 157.93 1.35 c p1
95.22 160.95 1.35 c p1
95.48 179.49 1.35 c p1
95.74 180.34 1.35 c p1
96.00 182.43 1.35 c p1
96.26 181.42 1.35 c p1
96.52 182.27 1.35 c p1
96.78 184.67 1.35 c p1
97.03 184.91 1.35 c p1
97.29 186.06 1.35 c p1
97.55 187.23 1.35 c p1
97.81 188.38 1.35 c p1
98.07 190.17 1.35 c p1
98.33 191.01 1.35 c p1
98.59 195.58 1.35 c p1
98.84 197.37 1.35 c p1
99.10 201.32 1.35 c p1
99.36 201.24 1.35 c p1
99.62 199.30 1.35 c p1
99.88 183.40 1.35 c p1
100.14 181.76 1.35 c p1
100.40 183.24 1.35 c p1
100.66 183.46 1.35 c p1
100.91 183.08 1.35 c p1
101.17 183.62 1.35 c p1
101.43 182.30 1.35 c p1
101.69 183.15 1.35 c p1
101.95 181.82 1.35 c p1
102.21 180.19 1.35 c p1
102.47 179.18 1.35 c p1
102.72 176.31 1.35 c p1
102.98 174.98 1.35 c p1
103.24 172.43 1.35 c p1
103.50 169.86 1.35 c p1
103.76 167.31 1.35 c p1
104.02 176.22 1.35 c p1
104.28 188.86 1.35 c p1
104.53 190.64 1.35 c p1
104.79 190.87 1.35 c p1
105.05 188.31 1.35 c p1
105.31 189.78 1.35 c p1
105.57 190.01 1.35 c p1
105.83 192.71 1.35 c p1
106.09 192.02 1.35 c p1
106.34 193.79 1.35 c p1
106.60 194.65 1.35 c p1
106.86 194.87 1.35 c p1
107.12 196.97 1.35 c p1
107.38 202.47 1.35 c p1
107.64 204.26 1.35 c p1
107.90 206.65 1.35 c p1
108.15 206.89 1.35 c p1
108.41 198.43 1.35 c p1
108.67 190.29 1.35 c p1
108.93 187.41 1.35 c p1
109.19 188.22 1.35 c p1
109.45 186.98 1.35 c p1
109.71 187.79 1.35 c p1
109.96 187.04 1.35 c p1
110.22 186.11 1.35 c p1
110.48 184.75 1.35 c p1
110.74 184.62 1.35 c p1
111.00 184.00 1.35 c p1
111.26 182.33 1.35 c p1
111.52 178.48 1.35 c p1
111.78 176.93 1.35 c p1
112.03 173.09 1.35 c p1
112.29 171.23 1.35 c p1
112.55 171.41 1.35 c p1
112.81 182.77 1.35 c p1
113.07 191.46 1.35 c p1
113.33 191.02 1.35 c p1
113.59 190.90 1.35 c p1
113.84 192.14 1.35 c p1
114.10 193.57 1.35 c p1
114.36 193.14 1.35 c p1
114.62 193.14 1.35 c p1
114.88 195.49 1.35 c p1
115.14 195.06 1.35 c p1
115.40 197.54 1.35 c p1
115.65 198.66 1.35 c p1
115.91 201.33 1.35 c p1
116.17 204.12 1.35 c p1
116.43 205.86 1.35 c p1
116.69 210.08 1.35 c p1
116.95 204.50 1.35 c p1
117.21 189.48 1.35 c p1
117.46 188.74 1.35 c p1
117.72 189.36 1.35 c p1
117.98 188.62 1.35 c p1
118.24 186.01 1.35 c p1
118.50 186.94 1.35 c p1
118.76 186.20 1.35 c p1
119.02 185.89 1.35 c p1
119.27 185.15 1.35 c p1
119.53 185.02 1.35 c p1
119.79 181.30 1.35 c p1
120.05 181.18 1.35 c p1
120.31 178.88 1.35 c p1
120.57 177.33 1.35 c p1
120.83 172.56 1.35 c p1
121.09 169.64 1.35 c p1
121.34 172.43 1.35 c p1
121.60 190.92 1.35 c p1
121.86 190.49 1.35 c p1
122.12 190.49 1.35 c p1
122.38 190.37 1.35 c p1
122.64 193.35 1.35 c p1
122.90 189.93 1.35 c p1
123.15 191.98 1.35 c p1
123.41 193.10 1.35 c p1
123.67 192.79 1.35 c p1
123.93 193.60 1.35 c p1
124.19 196.89 1.35 c p1
124.45 197.82 1.35 c p1
124.71 201.11 1.35 c p1
124.96 203.47 1.35 c p1
125.22 207.19 1.35 c p1
125.48 206.45 1.35 c p1
125.74 204.28 1.35 c p1
126.00 186.47 1.35 c p1
126.26 186.66 1.35 c p1
126.52 186.04 1.35 c p1
126.77 185.91 1.35 c p1
127.03 186.72 1.35 c p1
127.29 184.55 1.35 c p1
127.55 184.43 1.35 c p1
127.81 184.92 1.35 c p1
128.07 183.68 1.35 c p1
128.33 182.32 1.35 c p1
128.58 180.96 1.35 c p1
128.84 179.09 1.35 c p1
129.10 174.94 1.35 c p1
129.36 172.64 1.35 c p1
129.62 168.61 1.35 c p1
129.88 168.80 1.35 c p1
130.14 180.15 1.35 c p1
130.39 186.36 1.35 c p1
130.65 189.03 1.35 c p1
130.91 188.59 1.35 c p1
131.17 188.90 1.35 c p1
131.43 189.40 1.35 c p1
131.69 188.66 1.35 c p1
131.95 189.90 1.35 c p1
132.21 189.47 1.35 c p1
132.46 191.02 1.35 c p1
132.72 192.76 1.35 c p1
132.98 194.18 1.35 c p1
133.24 197.29 1.35 c p1
133.50 198.40 1.35 c p1
133.76 200.76 1.35 c p1
134.02 204.49 1.35 c p1
134.27 205.29 1.35 c p1
134.53 195.55 1.35 c p1
134.79 185.32 1.35 c p1
135.05 185.19 1.35 c p1
135.31 183.83 1.35 c p1
135.57 183.52 1.35 c p1
135.83 183.52 1.35 c p1
136.08 183.83 1.35 c p1
136.34 185.19 1.35 c p1
136.60 185.32 1.35 c p1
136.86 195.55 1.35 c p1
137.12 205.29 1.35 c p1
137.38 204.49 1.35 c p1
137.64 200.76 1.35 c p1
137.89 198.40 1.35 c p1
138.15 197.29 1.35 c p1
138.41 194.18 1.35 c p1
138.67 192.76 1.35 c p1
138.93 191.02 1.35 c p1
139.19 189.47 1.35 c p1
139.45 189.90 1.35 c p1
139.70 188.66 1.35 c p1
139.96 189.40 1.35 c p1
140.22 188.90 1.35 c p1
140.48 188.59 1.35 c p1
140.74 189.03 1.35 c p1
141.00 186.36 1.35 c p1
141.26 180.15 1.35 c p1
141.52 168.80 1.35 c p1
141.77 168.61 1.35 c p1
142.03 172.64 1.35 c p1
142.29 174.94 1.35 c p1
142.55 179.09 1.35 c p1
142.81 180.96 1.35 c p1
143.07 182.32 1.35 c p1
143.33 183.68 1.35 c p1
143.58 184.92 1.35 c p1
143.84 184.43 1.35 c p1
144.10 184.55 1.35 c p1
144.36 186.72 1.35 c p1
144.62 185.91 1.35 c p1
144.88 186.04 1.35 c p1
145.14 186.66 1.35 c p1
145.39 186.47 1.35 c p1
145.65 204.28 1.35 c p1
145.91 206.45 1.35 c p1
146.17 207.19 1.35 c p1
146.43 203.47 1.35 c p1
146.69 201.11 1.35 c p1
146.95 197.82 1.35 c p1
147.20 196.89 1.35 c p1
147.46 193.60 1.35 c p1
147.72 192.79 1.35 c p1
147.98 193.10 1.35 c p1
148.24 191.98 1.35 c p1
148.50 189.93 1.35 c p1
148.76 193.35 1.35 c p1
149.01 190.37 1.35 c p1
149.27 190.49 1.35 c p1
149.53 190.49 1.35 c p1
149.79 190.92 1.35 c p1
150.05 172.43 1.35 c p1
150.31 169.64 1.35 c p1
150.57 172.56 1.35 c p1
150.82 177.33 1.35 c p1
151.08 178.88 1.35 c p1
151.34 181.18 1.35 c p1
151.60 181.30 1.35 c p1
151.86 185.02 1.35 c p1
152.12 185.15 1.35 c p1
152.38 185.89 1.35 c p1
152.64 186.20 1.35 c p1
152.89 186.94 1.35 c p1
153.15 186.01 1.35 c p1
153.41 188.62 1.35 c p1
153.67 189.36 1.35 c p1
153.93 188.74 1.35 c p1
154.19 189.48 1.35 c p1
154.45 204.50 1.35 c p1
154.70 210.08 1.35 c p1
154.96 205.86 1.35 c p1
155.22 204.12 1.35 c p1
155.48 201.33 1.35 c p1
155.74 198.66 1.35 c p1
156.00 197.54 1.35 c p1
156.26 195.06 1.35 c p1
156.51 195.49 1.35 c p1
156.77 193.14 1.35 c p1
157.03 193.14 1.35 c p1
157.29 193.57 1.35 c p1
157.55 192.14 1.35 c p1
157.81 190.90 1.35 c p1
158.07 191.02 1.35 c p1
158.32 191.46 1.35 c p1
158.58 182.77 1.35 c p1
158.84 171.41 1.35 c p1
159.10 171.23 1.35 c p1
159.36 173.09 1.35 c p1
159.62 176.93 1.35 c p1
159.88 178.48 1.35 c p1
160.13 182.33 1.35 c p1
160.39 184.00 1.35 c p1
160.65 184.62 1.35 c p1
160.91 184.75 1.35 c p1
161.17 186.11 1.35 c p1
161.43 187.04 1.35 c p1
161.69 187.79 1.35 c p1
161.95 186.98 1.35 c p1
162.20 188.22 1.35 c p1
162.46 187.41 1.35 c p1
162.72 190.29 1.35 c p1
162.98 198.43 1.35 c p1
163.24 206.89 1.35 c p1
163.50 206.65 1.35 c p1
163.76 204.26 1.35 c p1
164.01 202.47 1.35 c p1
164.27 196.97 1.35 c p1
164.53 194.87 1.35 c p1
164.79 194.65 1.35 c p1
165.05 193.79 1.35 c p1
165.31 192.02 1.35 c p1
165.57 192.71 1.35 c p1
165.82 190.01 1.35 c p1
166.08 189.78 1.35 c p1
166.34 188.31 1.35 c p1
166.60 190.87 1.35 c p1
166.86 190.64 1.35 c p1
167.12 188.86 1.35 c p1
167.38 176.22 1.35 c p1
167.63 167.31 1.35 c p1
167.89 169.86 1.35 c p1
168.15 172.43 1.35 c p1
168.41 174.98 1.35 c p1
168.67 176.31 1.35 c p1
168.93 179.18 1.35 c p1
169.19 180.19 1.35 c p1
169.44 181.82 1.35 c p1
169.70 183.15 1.35 c p1
169.96 182.30 1.35 c p1
170.22 183.62 1.35 c p1
170.48 183.08 1.35 c p1
170.74 183.46 1.35 c p1
171.00 183.24 1.35 c p1
171.25 181.76 1.35 c p1
171.51 183.40 1.35 c p1
171.77 199.30 1.35 c p1
172.03 201.24 1.35 c p1
172.29 201.32 1.35 c p1
172.55 197.37 1.35 c p1
172.81 195.58 1.35 c p1
173.07 191.01 1.35 c p1
173.32 190.17 1.35 c p1
173.58 188.38 1.35 c p1
173.84 187.23 1.35 c p1
174.10 186.06 1.35 c p1
174.36 184.91 1.35 c p1
174.62 184.67 1.35 c p1
174.88 182.27 1.35 c p1
175.13 181.42 1.35 c p1
175.39 182.43 1.35 c p1
175.65 180.34 1.35 c p1
175.91 179.49 1.35 c p1
176.17 160.95 1.35 c p1
176.43 157.93 1.35 c p1
176.69 160.18 1.35 c p1
176.94 161.82 1.35 c p1
177.20 167.18 1.35 c p1
177.46 169.11 1.35 c p1
177.72 169.51 1.35 c p1
177.98 171.13 1.35 c p1
178.24 169.67 1.35 c p1
178.50 172.53 1.35 c p1
178.75 170.45 1.35 c p1
179.01 171.76 1.35 c p1
179.27 170.61 1.35 c p1
179.53 170.99 1.35 c p1
179.79 169.22 1.35 c p1
180.05 170.53 1.35 c p1
180.31 172.17 1.35 c p1
180.56 186.84 1.35 c p1
180.82 188.15 1.35 c p1
181.08 185.44 1.35 c p1
181.34 180.86 1.35 c p1
181.60 177.23 1.35 c p1
181.86 175.13 1.35 c p1
182.12 172.73 1.35 c p1
182.38 170.95 1.35 c p1
182.63 168.86 1.35 c p1
182.89 165.83 1.35 c p1
183.15 163.75 1.35 c p1
183.41 164.44 1.35 c p1
183.67 161.42 1.35 c p1
183.93 159.95 1.35 c p1
184.19 159.41 1.35 c p1
184.44 158.88 1.35 c p1
184.70 145.30 1.35 c p1
184.96 134.84 1.35 c p1
185.22 136.16 1.35 c p1
185.48 137.79 1.35 c p1
185.74 139.73 1.35 c p1
186.00 142.30 1.35 c p1
186.25 143.30 1.35 c p1
186.51 143.70 1.35 c p1
186.77 143.77 1.35 c p1
187.03 143.55 1.35 c p1
187.29 142.69 1.35 c p1
187.55 141.53 1.35 c p1
187.81 140.07 1.35 c p1
188.06 140.76 1.35 c p1
188.32 140.23 1.35 c p1
188.58 139.68 1.35 c p1
188.84 137.91 1.35 c p1
189.10 150.08 1.35 c p1
189.36 155.13 1.35 c p1
189.62 153.03 1.35 c p1
189.87 148.46 1.35 c p1
190.13 142.95 1.35 c p1
190.39 139.94 1.35 c p1
190.65 136.91 1.35 c p1
190.91 135.13 1.35 c p1
191.17 132.42 1.35 c p1
191.43 130.33 1.35 c p1
191.68 127.00 1.35 c p1
191.94 126.15 1.35 c p1
192.20 122.82 1.35 c p1
192.46 122.27 1.35 c p1
192.72 120.50 1.35 c p1
192.98 120.26 1.35 c p1
193.24 117.25 1.35 c p1
193.50 100.01 1.35 c p1
193.75 92.37 1.35 c p1
194.01 94.43 1.35 c p1
194.27 95.41 1.35 c p1
194.53 99.27 1.35 c p1
194.79 97.53 1.35 c p1
195.05 100.03 1.35 c p1
195.31 100.88 1.35 c p1
195.56 101.28 1.35 c p1
195.82 99.06 1.35 c p1
196.08 100.20 1.35 c p1
196.34 99.99 1.35 c p1
196.60 100.36 1.35 c p1
196.86 99.69 1.35 c p1
197.12 99.62 1.35 c p1
197.37 101.68 1.35 c p1
197.63 103.87 1.35 c p1
197.89 119.30 1.35 c p1
198.15 120.63 1.35 c p1
198.41 116.37 1.35 c p1
198.67 115.21 1.35 c p1
198.93 110.94 1.35 c p1
199.18 110.71 1.35 c p1
199.44 109.43 1.35 c p1
199.70 108.46 1.35 c p1
199.96 107.91 1.35 c p1
200.22 107.99 1.35 c p1
200.48 106.59 1.35 c p1
200.74 107.72 1.35 c p1
200.99 108.70 1.35 c p1
201.25 110.15 1.35 c p1
201.51 112.37 1.35 c p1
201.77 122.69 1.35 c p1
0 0 0 srgb
np
69.36 73.44 m
0 167.52 l
o
np
135.57 73.44 m
0 167.52 l
o
np
201.77 73.44 m
0 167.52 l
o
np
334.18 73.44 m
0 167.52 l
o
ep
%%Trailer
%%Pages: 1
%%EOF
