%!PS-Adobe-3.0 EPSF-3.0
%%DocumentNeededResources: font Helvetica
%%+ font Helvetica-Bold
%%+ font Helvetica-Oblique
%%+ font Helvetica-BoldOblique
%%+ font Symbol
%%Title: R Graphics Output
%%Creator: R Software
%%Pages: (atend)
%%BoundingBox: 0 0 275 212
%%EndComments
%%BeginProlog
/bp  { gs sRGB gs } def
% begin .ps.prolog
/gs  { gsave } bind def
/gr  { grestore } bind def
/ep  { showpage gr gr } bind def
/m   { moveto } bind def
/l  { rlineto } bind def
/np  { newpath } bind def
/cp  { closepath } bind def
/f   { fill } bind def
/o   { stroke } bind def
/c   { newpath 0 360 arc } bind def
/r   { 4 2 roll moveto 1 copy 3 -1 roll exch 0 exch rlineto 0 rlineto -1 mul 0 exch rlineto closepath } bind def
/p1  { stroke } bind def
/p2  { gsave bg fill grestore newpath } bind def
/p3  { gsave bg fill grestore stroke } bind def
/p6  { gsave bg eofill grestore newpath } bind def
/p7  { gsave bg eofill grestore stroke } bind def
/t   { 5 -2 roll moveto gsave rotate
       1 index stringwidth pop
       mul neg 0 rmoveto show grestore } bind def
/ta  { 4 -2 roll moveto gsave rotate show } bind def
/tb  { 2 -1 roll 0 rmoveto show } bind def
/cl  { grestore gsave newpath 3 index 3 index moveto 1 index
       4 -1 roll lineto  exch 1 index lineto lineto
       closepath clip newpath } bind def
/rgb { setrgbcolor } bind def
/s   { scalefont setfont } bind def
% end   .ps.prolog
/sRGB { [ /CIEBasedABC
          << /DecodeLMN
               [ { dup 0.03928 le
                        {12.92321 div}
                        {0.055 add 1.055 div 2.4 exp }
                     ifelse
                 } bind dup dup
               ]
             /MatrixLMN [0.412457 0.212673 0.019334
                         0.357576 0.715152 0.119192
                         0.180437 0.072175 0.950301]
             /WhitePoint [0.9505 1.0 1.0890]
           >>
         ] setcolorspace } bind def
/srgb { setcolor } bind def
% begin encoding
/WinAnsiEncoding [
 /.notdef /.notdef /.notdef /.notdef /.notdef /.notdef /.notdef /.notdef
 /.notdef /.notdef /.notdef /.notdef /.notdef /.notdef /.notdef /.notdef
 /.notdef /.notdef /.notdef /.notdef /.notdef /.notdef /.notdef /.notdef
 /.notdef /.notdef /.notdef /.notdef /.notdef /.notdef /.notdef /.notdef
 /space /exclam /quotedbl /numbersign /dollar /percent /ampersand /quoteright
 /parenleft /parenright /asterisk /plus /comma /minus /period /slash
 /zero /one /two /three /four /five /six /seven
 /eight /nine /colon /semicolon /less /equal /greater /question
 /at /A /B /C /D /E /F /G
 /H /I /J /K /L /M /N /O
 /P /Q /R /S /T /U /V /W
 /X /Y /Z /bracketleft /backslash /bracketright /asciicircum /underscore
 /grave /a /b /c /d /e /f /g
 /h /i /j /k /l /m /n /o
 /p /q /r /s /t /u /v /w
 /x /y /z /braceleft /bar /braceright /asciitilde /.notdef
 /Euro /.notdef /quotesinglbase /florin /quotedblbase /ellipsis /dagger /daggerdbl
 /circumflex /perthousand /Scaron /guilsinglleft /OE /.notdef /Zcaron /.notdef
 /.notdef /quoteleft /quoteright /quotedblleft /quotedblright /bullet /endash /emdash
 /tilde /trademark /scaron /guilsinglright /oe /.notdef /zcaron /Ydieresis
 /space /exclamdown /cent /sterling /currency /yen /brokenbar /section
 /dieresis /copyright /ordfeminine /guillemotleft /logicalnot /hyphen /registered /macron
 /degree /plusminus /twosuperior /threesuperior /acute /mu /paragraph /periodcentered
 /cedilla /onesuperior /ordmasculine /guillemotright /onequarter /onehalf /threequarters /questiondown
 /Agrave /Aacute /Acircumflex /Atilde /Adieresis /Aring /AE /Ccedilla
 /Egrave /Eacute /Ecircumflex /Edieresis /Igrave /Iacute /Icircumflex /Idieresis
 /Eth /Ntilde /Ograve /Oacute /Ocircumflex /Otilde /Odieresis /multiply
 /Oslash /Ugrave /Uacute /Ucircumflex /Udieresis /Yacute /Thorn /germandbls
 /agrave /aacute /acircumflex /atilde /adieresis /aring /ae /ccedilla
 /egrave /eacute /ecircumflex /edieresis /igrave /iacute /icircumflex /idieresis
 /eth /ntilde /ograve /oacute /ocircumflex /otilde /odieresis /divide
 /oslash /ugrave /uacute /ucircumflex /udieresis /yacute /thorn /ydieresis
]
 def
% end encoding
%%IncludeResource: font Helvetica
/Helvetica findfont
dup length dict begin
  {1 index /FID ne {def} {pop pop} ifelse} forall
  /Encoding WinAnsiEncoding def
  currentdict
  end
/Font1 exch definefont pop
%%IncludeResource: font Helvetica-Bold
/Helvetica-Bold findfont
dup length dict begin
  {1 index /FID ne {def} {pop pop} ifelse} forall
  /Encoding WinAnsiEncoding def
  currentdict
  end
/Font2 exch definefont pop
%%IncludeResource: font Helvetica-Oblique
/Helvetica-Oblique findfont
dup length dict begin
  {1 index /FID ne {def} {pop pop} ifelse} forall
  /Encoding WinAnsiEncoding def
  currentdict
  end
/Font3 exch definefont pop
%%IncludeResource: font Helvetica-BoldOblique
/Helvetica-BoldOblique findfont
dup length dict begin
  {1 index /FID ne {def} {pop pop} ifelse} forall
  /Encoding WinAnsiEncoding def
  currentdict
  end
/Font4 exch definefont pop
%%IncludeResource: font Symbol
/Symbol findfont
dup length dict begin
  {1 index /FID ne {def} {pop pop} ifelse} forall
  currentdict
  end
/Font5 exch definefont pop
%%EndProlog
%%Page: 1 1
bp
0.00 0.00 275.25 211.50 cl
0.00 0.00 275.25 211.50 cl
0.00 0.00 275.25 211.50 cl
0.00 0.00 275.25 211.50 cl
0.00 0.00 275.25 211.50 cl
0.00 0.00 275.25 211.50 cl
0.00 0.00 275.25 211.50 cl
0.00 0.00 275.25 211.50 cl
0.00 0.00 275.25 211.50 cl
/bg { 1 1 1 srgb } def
1 1 1 srgb
1.07 setlinewidth
[] 0 setdash
1 setlinecap
1 setlinejoin
10.00 setmiterlimit
0.00 0.00 275.25 211.50 r p3
0.00 0.00 275.25 211.50 cl
0.00 0.00 275.25 211.50 cl
0.00 0.00 275.25 211.50 cl
35.14 31.35 269.77 206.02 cl
/bg { 0.9216 0.9216 0.9216 srgb } def
35.14 31.35 234.63 174.67 r p2
1 1 1 srgb
0.53 setlinewidth
[] 0 setdash
0 setlinecap
1 setlinejoin
10.00 setmiterlimit
np
35.14 72.61 m
234.63 0 l
o
np
35.14 133.57 m
234.63 0 l
o
np
35.14 194.53 m
234.63 0 l
o
np
70.59 31.35 m
0 174.67 l
o
np
124.45 31.35 m
0 174.67 l
o
np
178.31 31.35 m
0 174.67 l
o
np
232.17 31.35 m
0 174.67 l
o
1.07 setlinewidth
[] 0 setdash
np
35.14 42.14 m
234.63 0 l
o
np
35.14 103.09 m
234.63 0 l
o
np
35.14 164.05 m
234.63 0 l
o
np
43.65 31.35 m
0 174.67 l
o
np
97.52 31.35 m
0 174.67 l
o
np
151.38 31.35 m
0 174.67 l
o
np
205.24 31.35 m
0 174.67 l
o
np
259.11 31.35 m
0 174.67 l
o
0.5294 0.8078 0.9216 srgb
0.71 setlinewidth
[] 0 setdash
1 setlinecap
45.81 41.96 1.95 c p1
47.96 39.29 1.95 c p1
50.12 40.60 1.95 c p1
52.27 42.30 1.95 c p1
54.43 44.90 1.95 c p1
56.58 41.24 1.95 c p1
58.74 47.70 1.95 c p1
60.89 54.86 1.95 c p1
63.05 57.13 1.95 c p1
65.20 65.09 1.95 c p1
67.35 72.25 1.95 c p1
69.51 78.43 1.95 c p1
71.66 86.13 1.95 c p1
73.82 90.91 1.95 c p1
75.97 96.69 1.95 c p1
78.13 97.50 1.95 c p1
80.28 109.69 1.95 c p1
82.44 116.64 1.95 c p1
84.59 122.26 1.95 c p1
86.74 124.64 1.95 c p1
88.90 135.08 1.95 c p1
91.05 135.87 1.95 c p1
93.21 139.64 1.95 c p1
95.36 146.31 1.95 c p1
97.52 145.07 1.95 c p1
99.67 149.09 1.95 c p1
101.83 159.17 1.95 c p1
103.98 156.28 1.95 c p1
106.14 162.95 1.95 c p1
108.29 157.99 1.95 c p1
110.44 163.38 1.95 c p1
112.60 166.95 1.95 c p1
114.75 168.79 1.95 c p1
116.91 167.49 1.95 c p1
119.06 171.74 1.95 c p1
121.22 170.70 1.95 c p1
123.37 176.57 1.95 c p1
125.53 178.88 1.95 c p1
127.68 172.12 1.95 c p1
129.84 181.77 1.95 c p1
131.99 176.85 1.95 c p1
134.14 182.03 1.95 c p1
136.30 183.51 1.95 c p1
138.45 182.31 1.95 c p1
140.61 182.06 1.95 c p1
142.76 184.82 1.95 c p1
144.92 186.20 1.95 c p1
147.07 187.96 1.95 c p1
149.23 181.42 1.95 c p1
151.38 183.02 1.95 c p1
153.53 191.03 1.95 c p1
155.69 190.59 1.95 c p1
157.84 189.57 1.95 c p1
160.00 190.68 1.95 c p1
162.15 191.57 1.95 c p1
164.31 183.22 1.95 c p1
166.46 192.76 1.95 c p1
168.62 189.19 1.95 c p1
170.77 191.23 1.95 c p1
172.93 190.22 1.95 c p1
175.08 193.33 1.95 c p1
177.23 190.59 1.95 c p1
179.39 192.92 1.95 c p1
181.54 190.91 1.95 c p1
183.70 189.39 1.95 c p1
185.85 195.18 1.95 c p1
188.01 194.20 1.95 c p1
190.16 196.75 1.95 c p1
192.32 192.85 1.95 c p1
194.47 195.56 1.95 c p1
196.63 197.76 1.95 c p1
198.78 192.37 1.95 c p1
200.93 189.94 1.95 c p1
203.09 192.68 1.95 c p1
205.24 192.83 1.95 c p1
207.40 193.80 1.95 c p1
209.55 197.69 1.95 c p1
211.71 192.79 1.95 c p1
213.86 194.56 1.95 c p1
216.02 193.16 1.95 c p1
218.17 193.82 1.95 c p1
220.32 194.59 1.95 c p1
222.48 197.12 1.95 c p1
224.63 194.22 1.95 c p1
226.79 195.71 1.95 c p1
228.94 195.91 1.95 c p1
231.10 196.28 1.95 c p1
233.25 192.68 1.95 c p1
235.41 198.08 1.95 c p1
237.56 193.21 1.95 c p1
239.72 193.91 1.95 c p1
241.87 197.62 1.95 c p1
244.02 197.38 1.95 c p1
246.18 191.59 1.95 c p1
248.33 192.14 1.95 c p1
250.49 190.97 1.95 c p1
252.64 194.74 1.95 c p1
254.80 194.72 1.95 c p1
256.95 195.22 1.95 c p1
259.11 195.69 1.95 c p1
0.00 0.00 275.25 211.50 cl
0.00 0.00 275.25 211.50 cl
0.00 0.00 275.25 211.50 cl
0.00 0.00 275.25 211.50 cl
0.00 0.00 275.25 211.50 cl
0.00 0.00 275.25 211.50 cl
/Font1 findfont 9 s
0.3020 0.3020 0.3020 srgb
30.21 38.90 (-2) 1 0 t
30.21 99.86 (-1) 1 0 t
30.21 160.82 (0) 1 0 t
0.00 0.00 275.25 211.50 cl
0.00 0.00 275.25 211.50 cl
0.2000 0.2000 0.2000 srgb
1.07 setlinewidth
[] 0 setdash
0 setlinecap
1 setlinejoin
10.00 setmiterlimit
np
32.40 42.14 m
2.74 0 l
o
np
32.40 103.09 m
2.74 0 l
o
np
32.40 164.05 m
2.74 0 l
o
0.00 0.00 275.25 211.50 cl
0.00 0.00 275.25 211.50 cl
0.00 0.00 275.25 211.50 cl
0.00 0.00 275.25 211.50 cl
0.00 0.00 275.25 211.50 cl
0.00 0.00 275.25 211.50 cl
0.00 0.00 275.25 211.50 cl
0.00 0.00 275.25 211.50 cl
0.2000 0.2000 0.2000 srgb
1.07 setlinewidth
[] 0 setdash
0 setlinecap
1 setlinejoin
10.00 setmiterlimit
np
43.65 28.61 m
0 2.74 l
o
np
97.52 28.61 m
0 2.74 l
o
np
151.38 28.61 m
0 2.74 l
o
np
205.24 28.61 m
0 2.74 l
o
np
259.11 28.61 m
0 2.74 l
o
0.00 0.00 275.25 211.50 cl
0.00 0.00 275.25 211.50 cl
/Font1 findfont 9 s
0.3020 0.3020 0.3020 srgb
43.65 19.95 (0.00) .5 0 t
97.52 19.95 (0.25) .5 0 t
151.38 19.95 (0.50) .5 0 t
205.24 19.95 (0.75) .5 0 t
259.11 19.95 (1.00) .5 0 t
0.00 0.00 275.25 211.50 cl
0.00 0.00 275.25 211.50 cl
0.00 0.00 275.25 211.50 cl
0.00 0.00 275.25 211.50 cl
/Font1 findfont 11 s
0 0 0 srgb
152.46 7.67 (time) .5 0 t
0.00 0.00 275.25 211.50 cl
0.00 0.00 275.25 211.50 cl
/Font1 findfont 11 s
0 0 0 srgb
15.57 87.20 (T) 90 ta
-1.320 (emper) tb
-0.110 (ature) tb gr
0.00 0.00 275.25 211.50 cl
0.00 0.00 275.25 211.50 cl
0.00 0.00 275.25 211.50 cl
0.00 0.00 275.25 211.50 cl
ep
%%Trailer
%%Pages: 1
%%EOF
