%!PS-Adobe-3.0 EPSF-3.0
%%DocumentNeededResources: font Helvetica
%%+ font Helvetica-Bold
%%+ font Helvetica-Oblique
%%+ font Helvetica-BoldOblique
%%+ font Symbol
%%Title: R Graphics Output
%%Creator: R Software
%%Pages: (atend)
%%BoundingBox: 0 0 375 300
%%EndComments
%%BeginProlog
/bp  { gs sRGB gs } def
% begin .ps.prolog
/gs  { gsave } bind def
/gr  { grestore } bind def
/ep  { showpage gr gr } bind def
/m   { moveto } bind def
/l  { rlineto } bind def
/np  { newpath } bind def
/cp  { closepath } bind def
/f   { fill } bind def
/o   { stroke } bind def
/c   { newpath 0 360 arc } bind def
/r   { 4 2 roll moveto 1 copy 3 -1 roll exch 0 exch rlineto 0 rlineto -1 mul 0 exch rlineto closepath } bind def
/p1  { stroke } bind def
/p2  { gsave bg fill grestore newpath } bind def
/p3  { gsave bg fill grestore stroke } bind def
/p6  { gsave bg eofill grestore newpath } bind def
/p7  { gsave bg eofill grestore stroke } bind def
/t   { 5 -2 roll moveto gsave rotate
       1 index stringwidth pop
       mul neg 0 rmoveto show grestore } bind def
/ta  { 4 -2 roll moveto gsave rotate show } bind def
/tb  { 2 -1 roll 0 rmoveto show } bind def
/cl  { grestore gsave newpath 3 index 3 index moveto 1 index
       4 -1 roll lineto  exch 1 index lineto lineto
       closepath clip newpath } bind def
/rgb { setrgbcolor } bind def
/s   { scalefont setfont } bind def
% end   .ps.prolog
/sRGB { [ /CIEBasedABC
          << /DecodeLMN
               [ { dup 0.03928 le
                        {12.92321 div}
                        {0.055 add 1.055 div 2.4 exp }
                     ifelse
                 } bind dup dup
               ]
             /MatrixLMN [0.412457 0.212673 0.019334
                         0.357576 0.715152 0.119192
                         0.180437 0.072175 0.950301]
             /WhitePoint [0.9505 1.0 1.0890]
           >>
         ] setcolorspace } bind def
/srgb { setcolor } bind def
% begin encoding
/WinAnsiEncoding [
 /.notdef /.notdef /.notdef /.notdef /.notdef /.notdef /.notdef /.notdef
 /.notdef /.notdef /.notdef /.notdef /.notdef /.notdef /.notdef /.notdef
 /.notdef /.notdef /.notdef /.notdef /.notdef /.notdef /.notdef /.notdef
 /.notdef /.notdef /.notdef /.notdef /.notdef /.notdef /.notdef /.notdef
 /space /exclam /quotedbl /numbersign /dollar /percent /ampersand /quoteright
 /parenleft /parenright /asterisk /plus /comma /minus /period /slash
 /zero /one /two /three /four /five /six /seven
 /eight /nine /colon /semicolon /less /equal /greater /question
 /at /A /B /C /D /E /F /G
 /H /I /J /K /L /M /N /O
 /P /Q /R /S /T /U /V /W
 /X /Y /Z /bracketleft /backslash /bracketright /asciicircum /underscore
 /grave /a /b /c /d /e /f /g
 /h /i /j /k /l /m /n /o
 /p /q /r /s /t /u /v /w
 /x /y /z /braceleft /bar /braceright /asciitilde /.notdef
 /Euro /.notdef /quotesinglbase /florin /quotedblbase /ellipsis /dagger /daggerdbl
 /circumflex /perthousand /Scaron /guilsinglleft /OE /.notdef /Zcaron /.notdef
 /.notdef /quoteleft /quoteright /quotedblleft /quotedblright /bullet /endash /emdash
 /tilde /trademark /scaron /guilsinglright /oe /.notdef /zcaron /Ydieresis
 /space /exclamdown /cent /sterling /currency /yen /brokenbar /section
 /dieresis /copyright /ordfeminine /guillemotleft /logicalnot /hyphen /registered /macron
 /degree /plusminus /twosuperior /threesuperior /acute /mu /paragraph /periodcentered
 /cedilla /onesuperior /ordmasculine /guillemotright /onequarter /onehalf /threequarters /questiondown
 /Agrave /Aacute /Acircumflex /Atilde /Adieresis /Aring /AE /Ccedilla
 /Egrave /Eacute /Ecircumflex /Edieresis /Igrave /Iacute /Icircumflex /Idieresis
 /Eth /Ntilde /Ograve /Oacute /Ocircumflex /Otilde /Odieresis /multiply
 /Oslash /Ugrave /Uacute /Ucircumflex /Udieresis /Yacute /Thorn /germandbls
 /agrave /aacute /acircumflex /atilde /adieresis /aring /ae /ccedilla
 /egrave /eacute /ecircumflex /edieresis /igrave /iacute /icircumflex /idieresis
 /eth /ntilde /ograve /oacute /ocircumflex /otilde /odieresis /divide
 /oslash /ugrave /uacute /ucircumflex /udieresis /yacute /thorn /ydieresis
]
 def
% end encoding
%%IncludeResource: font Helvetica
/Helvetica findfont
dup length dict begin
  {1 index /FID ne {def} {pop pop} ifelse} forall
  /Encoding WinAnsiEncoding def
  currentdict
  end
/Font1 exch definefont pop
%%IncludeResource: font Helvetica-Bold
/Helvetica-Bold findfont
dup length dict begin
  {1 index /FID ne {def} {pop pop} ifelse} forall
  /Encoding WinAnsiEncoding def
  currentdict
  end
/Font2 exch definefont pop
%%IncludeResource: font Helvetica-Oblique
/Helvetica-Oblique findfont
dup length dict begin
  {1 index /FID ne {def} {pop pop} ifelse} forall
  /Encoding WinAnsiEncoding def
  currentdict
  end
/Font3 exch definefont pop
%%IncludeResource: font Helvetica-BoldOblique
/Helvetica-BoldOblique findfont
dup length dict begin
  {1 index /FID ne {def} {pop pop} ifelse} forall
  /Encoding WinAnsiEncoding def
  currentdict
  end
/Font4 exch definefont pop
%%IncludeResource: font Symbol
/Symbol findfont
dup length dict begin
  {1 index /FID ne {def} {pop pop} ifelse} forall
  currentdict
  end
/Font5 exch definefont pop
%%EndProlog
%%Page: 1 1
bp
0.00 0.00 375.00 300.00 cl
0.00 0.00 375.00 300.00 cl
0.00 0.00 375.00 300.00 cl
0.00 0.00 375.00 300.00 cl
0.00 0.00 375.00 300.00 cl
0.00 0.00 375.00 300.00 cl
0.00 0.00 375.00 300.00 cl
0.00 0.00 375.00 300.00 cl
0.00 0.00 375.00 300.00 cl
/bg { 1 1 1 srgb } def
1 1 1 srgb
1.07 setlinewidth
[] 0 setdash
1 setlinecap
1 setlinejoin
10.00 setmiterlimit
0.00 0.00 375.00 300.00 r p3
0.00 0.00 375.00 300.00 cl
0.00 0.00 375.00 300.00 cl
0.00 0.00 375.00 300.00 cl
44.90 31.35 291.57 294.52 cl
/bg { 0.9216 0.9216 0.9216 srgb } def
44.90 31.35 246.67 263.17 r p2
1 1 1 srgb
0.53 setlinewidth
[] 0 setdash
0 setlinecap
1 setlinejoin
10.00 setmiterlimit
np
44.90 38.79 m
246.67 0 l
o
np
44.90 152.04 m
246.67 0 l
o
np
44.90 265.29 m
246.67 0 l
o
np
56.11 31.35 m
0 263.17 l
o
np
79.72 31.35 m
0 263.17 l
o
np
103.32 31.35 m
0 263.17 l
o
np
126.93 31.35 m
0 263.17 l
o
np
150.53 31.35 m
0 263.17 l
o
np
174.14 31.35 m
0 263.17 l
o
np
197.74 31.35 m
0 263.17 l
o
np
221.34 31.35 m
0 263.17 l
o
np
244.95 31.35 m
0 263.17 l
o
np
268.55 31.35 m
0 263.17 l
o
1.07 setlinewidth
[] 0 setdash
np
44.90 95.42 m
246.67 0 l
o
np
44.90 208.67 m
246.67 0 l
o
np
67.91 31.35 m
0 263.17 l
o
np
91.52 31.35 m
0 263.17 l
o
np
115.12 31.35 m
0 263.17 l
o
np
138.73 31.35 m
0 263.17 l
o
np
162.33 31.35 m
0 263.17 l
o
np
185.94 31.35 m
0 263.17 l
o
np
209.54 31.35 m
0 263.17 l
o
np
233.15 31.35 m
0 263.17 l
o
np
256.75 31.35 m
0 263.17 l
o
np
280.36 31.35 m
0 263.17 l
o
/bg { 0 0.7490 0.7686 srgb } def
0 0.7490 0.7686 srgb
0.71 setlinewidth
[] 0 setdash
1 setlinecap
56.11 282.56 1.95 c p3
67.91 184.55 1.95 c p3
79.72 207.12 1.95 c p3
91.52 195.26 1.95 c p3
103.32 190.08 1.95 c p3
115.12 175.75 1.95 c p3
126.93 168.69 1.95 c p3
138.73 148.82 1.95 c p3
150.53 142.81 1.95 c p3
162.33 71.29 1.95 c p3
174.14 80.74 1.95 c p3
185.94 120.94 1.95 c p3
197.74 111.17 1.95 c p3
209.54 131.28 1.95 c p3
221.34 117.58 1.95 c p3
233.15 133.61 1.95 c p3
244.95 119.32 1.95 c p3
256.75 134.65 1.95 c p3
268.55 115.77 1.95 c p3
280.36 137.04 1.95 c p3
/bg { 0.9725 0.4627 0.4275 srgb } def
0.9725 0.4627 0.4275 srgb
56.11 265.19 1.95 c p3
67.91 201.51 1.95 c p3
79.72 189.03 1.95 c p3
91.52 166.21 1.95 c p3
103.32 134.37 1.95 c p3
115.12 43.31 1.95 c p3
126.93 126.97 1.95 c p3
138.73 118.78 1.95 c p3
150.53 134.07 1.95 c p3
162.33 117.68 1.95 c p3
174.14 137.26 1.95 c p3
185.94 112.41 1.95 c p3
197.74 142.05 1.95 c p3
209.54 94.82 1.95 c p3
221.34 158.37 1.95 c p3
233.15 138.07 1.95 c p3
244.95 164.55 1.95 c p3
256.75 107.08 1.95 c p3
268.55 127.91 1.95 c p3
280.36 100.35 1.95 c p3
0 0 0 srgb
1.07 setlinewidth
[] 0 setdash
np
44.90 9.18 m
2.83 0 l
o
np
44.90 16.26 m
2.83 0 l
o
np
44.90 21.75 m
5.67 0 l
o
np
44.90 26.23 m
2.83 0 l
o
np
44.90 30.02 m
2.83 0 l
o
np
44.90 33.30 m
2.83 0 l
o
np
44.90 36.20 m
2.83 0 l
o
np
44.90 38.79 m
8.50 0 l
o
np
44.90 55.84 m
2.83 0 l
o
np
44.90 65.81 m
2.83 0 l
o
np
44.90 72.88 m
2.83 0 l
o
np
44.90 78.37 m
5.67 0 l
o
np
44.90 82.85 m
2.83 0 l
o
np
44.90 86.65 m
2.83 0 l
o
np
44.90 89.93 m
2.83 0 l
o
np
44.90 92.83 m
2.83 0 l
o
np
44.90 95.42 m
8.50 0 l
o
np
44.90 112.46 m
2.83 0 l
o
np
44.90 122.43 m
2.83 0 l
o
np
44.90 129.51 m
2.83 0 l
o
np
44.90 135.00 m
5.67 0 l
o
np
44.90 139.48 m
2.83 0 l
o
np
44.90 143.27 m
2.83 0 l
o
np
44.90 146.55 m
2.83 0 l
o
np
44.90 149.45 m
2.83 0 l
o
np
44.90 152.04 m
8.50 0 l
o
np
44.90 169.09 m
2.83 0 l
o
np
44.90 179.06 m
2.83 0 l
o
np
44.90 186.13 m
2.83 0 l
o
np
44.90 191.62 m
5.67 0 l
o
np
44.90 196.11 m
2.83 0 l
o
np
44.90 199.90 m
2.83 0 l
o
np
44.90 203.18 m
2.83 0 l
o
np
44.90 206.08 m
2.83 0 l
o
np
44.90 208.67 m
8.50 0 l
o
np
44.90 225.71 m
2.83 0 l
o
np
44.90 235.68 m
2.83 0 l
o
np
44.90 242.76 m
2.83 0 l
o
np
44.90 248.25 m
5.67 0 l
o
np
44.90 252.73 m
2.83 0 l
o
np
44.90 256.52 m
2.83 0 l
o
np
44.90 259.81 m
2.83 0 l
o
np
44.90 262.70 m
2.83 0 l
o
np
44.90 265.29 m
8.50 0 l
o
np
44.90 282.34 m
2.83 0 l
o
np
44.90 292.31 m
2.83 0 l
o
np
44.90 299.38 m
2.83 0 l
o
0.00 0.00 375.00 300.00 cl
0.00 0.00 375.00 300.00 cl
0.00 0.00 375.00 300.00 cl
0.00 0.00 375.00 300.00 cl
0.00 0.00 375.00 300.00 cl
0.00 0.00 375.00 300.00 cl
/Font1 findfont 9 s
0.3020 0.3020 0.3020 srgb
39.97 92.19 (10) 1 0 t
39.97 205.44 (1000) 1 0 t
0.00 0.00 375.00 300.00 cl
0.00 0.00 375.00 300.00 cl
0.00 0.00 375.00 300.00 cl
0.2000 0.2000 0.2000 srgb
1.07 setlinewidth
[] 0 setdash
0 setlinecap
1 setlinejoin
10.00 setmiterlimit
np
42.16 95.42 m
2.74 0 l
o
np
42.16 208.67 m
2.74 0 l
o
0.00 0.00 375.00 300.00 cl
0.00 0.00 375.00 300.00 cl
0.00 0.00 375.00 300.00 cl
0.00 0.00 375.00 300.00 cl
0.00 0.00 375.00 300.00 cl
0.00 0.00 375.00 300.00 cl
0.00 0.00 375.00 300.00 cl
0.00 0.00 375.00 300.00 cl
0.00 0.00 375.00 300.00 cl
0.2000 0.2000 0.2000 srgb
1.07 setlinewidth
[] 0 setdash
0 setlinecap
1 setlinejoin
10.00 setmiterlimit
np
67.91 28.61 m
0 2.74 l
o
np
91.52 28.61 m
0 2.74 l
o
np
115.12 28.61 m
0 2.74 l
o
np
138.73 28.61 m
0 2.74 l
o
np
162.33 28.61 m
0 2.74 l
o
np
185.94 28.61 m
0 2.74 l
o
np
209.54 28.61 m
0 2.74 l
o
np
233.15 28.61 m
0 2.74 l
o
np
256.75 28.61 m
0 2.74 l
o
np
280.36 28.61 m
0 2.74 l
o
0.00 0.00 375.00 300.00 cl
0.00 0.00 375.00 300.00 cl
/Font1 findfont 9 s
0.3020 0.3020 0.3020 srgb
67.91 19.95 (2) .5 0 t
91.52 19.95 (4) .5 0 t
115.12 19.95 (6) .5 0 t
138.73 19.95 (8) .5 0 t
162.33 19.95 (10) .5 0 t
185.94 19.95 (12) .5 0 t
209.54 19.95 (14) .5 0 t
233.15 19.95 (16) .5 0 t
256.75 19.95 (18) .5 0 t
280.36 19.95 (20) .5 0 t
0.00 0.00 375.00 300.00 cl
0.00 0.00 375.00 300.00 cl
0.00 0.00 375.00 300.00 cl
0.00 0.00 375.00 300.00 cl
0.00 0.00 375.00 300.00 cl
0.00 0.00 375.00 300.00 cl
/Font1 findfont 11 s
0 0 0 srgb
168.23 7.67 (k) .5 0 t
0.00 0.00 375.00 300.00 cl
0.00 0.00 375.00 300.00 cl
0.00 0.00 375.00 300.00 cl
/Font1 findfont 11 s
0 0 0 srgb
15.57 162.93 (Amplitude) .5 90 t
0.00 0.00 375.00 300.00 cl
0.00 0.00 375.00 300.00 cl
0.00 0.00 375.00 300.00 cl
0.00 0.00 375.00 300.00 cl
0.00 0.00 375.00 300.00 cl
0.00 0.00 375.00 300.00 cl
0.00 0.00 375.00 300.00 cl
/bg { 1 1 1 srgb } def
300.07 134.37 60.94 57.13 r p2
0.00 0.00 375.00 300.00 cl
0.00 0.00 375.00 300.00 cl
/Font2 findfont 12 s
0.8235 0.4118 0.1176 srgb
304.32 178.07 (FFT) 0 0 t
0.00 0.00 375.00 300.00 cl
0.00 0.00 375.00 300.00 cl
/bg { 0.9490 0.9490 0.9490 srgb } def
1 1 1 srgb
1.07 setlinewidth
[] 0 setdash
1 setlinecap
1 setlinejoin
10.00 setmiterlimit
304.32 155.90 17.28 17.28 r p3
0.00 0.00 375.00 300.00 cl
0.00 0.00 375.00 300.00 cl
/bg { 0.9725 0.4627 0.4275 srgb } def
0.9725 0.4627 0.4275 srgb
0.71 setlinewidth
[] 0 setdash
1 setlinecap
1 setlinejoin
10.00 setmiterlimit
312.96 164.54 1.95 c p3
0.00 0.00 375.00 300.00 cl
0.00 0.00 375.00 300.00 cl
/bg { 0.9725 0.4627 0.4275 srgb } def
0.9725 0.4627 0.4275 srgb
0.71 setlinewidth
[] 0 setdash
1 setlinecap
1 setlinejoin
10.00 setmiterlimit
312.96 164.54 1.95 c p3
0.00 0.00 375.00 300.00 cl
0.00 0.00 375.00 300.00 cl
/bg { 0.9490 0.9490 0.9490 srgb } def
1 1 1 srgb
1.07 setlinewidth
[] 0 setdash
1 setlinecap
1 setlinejoin
10.00 setmiterlimit
304.32 138.62 17.28 17.28 r p3
0.00 0.00 375.00 300.00 cl
0.00 0.00 375.00 300.00 cl
/bg { 0 0.7490 0.7686 srgb } def
0 0.7490 0.7686 srgb
0.71 setlinewidth
[] 0 setdash
1 setlinecap
1 setlinejoin
10.00 setmiterlimit
312.96 147.26 1.95 c p3
0.00 0.00 375.00 300.00 cl
0.00 0.00 375.00 300.00 cl
/bg { 0 0.7490 0.7686 srgb } def
0 0.7490 0.7686 srgb
0.71 setlinewidth
[] 0 setdash
1 setlinecap
1 setlinejoin
10.00 setmiterlimit
312.96 147.26 1.95 c p3
0.00 0.00 375.00 300.00 cl
0.00 0.00 375.00 300.00 cl
/Font1 findfont 9 s
0 0 0 srgb
323.76 161.31 (Ep\(256\)) 0 0 t
0.00 0.00 375.00 300.00 cl
0.00 0.00 375.00 300.00 cl
/Font1 findfont 9 s
0 0 0 srgb
323.76 144.03 (Ep\(512\)) 0 0 t
0.00 0.00 375.00 300.00 cl
0.00 0.00 375.00 300.00 cl
0.00 0.00 375.00 300.00 cl
0.00 0.00 375.00 300.00 cl
0.00 0.00 375.00 300.00 cl
0.00 0.00 375.00 300.00 cl
0.00 0.00 375.00 300.00 cl
0.00 0.00 375.00 300.00 cl
0.00 0.00 375.00 300.00 cl
0.00 0.00 375.00 300.00 cl
0.00 0.00 375.00 300.00 cl
0.00 0.00 375.00 300.00 cl
ep
%%Trailer
%%Pages: 1
%%EOF
