%!PS-Adobe-3.0 EPSF-3.0
%%Title: SS93_res_hist.eps
%%Creator: matplotlib version 1.5.1, http://matplotlib.org/
%%CreationDate: Wed Aug 17 14:21:47 2016
%%Orientation: portrait
%%BoundingBox: 18 108 594 684
%%EndComments
%%BeginProlog
/mpldict 8 dict def
mpldict begin
/m { moveto } bind def
/l { lineto } bind def
/r { rlineto } bind def
/c { curveto } bind def
/cl { closepath } bind def
/box {
m
1 index 0 r
0 exch r
neg 0 r
cl
} bind def
/clipbox {
box
clip
newpath
} bind def
%!PS-Adobe-3.0 Resource-Font
%%Title: Bitstream Vera Sans
%%Copyright: Copyright (c) 2003 by Bitstream, Inc. All Rights Reserved.
%%Creator: Converted from TrueType to type 3 by PPR
25 dict begin
/_d{bind def}bind def
/_m{moveto}_d
/_l{lineto}_d
/_cl{closepath eofill}_d
/_c{curveto}_d
/_sc{7 -1 roll{setcachedevice}{pop pop pop pop pop pop}ifelse}_d
/_e{exec}_d
/FontName /BitstreamVeraSans-Roman def
/PaintType 0 def
/FontMatrix[.001 0 0 .001 0 0]def
/FontBBox[-183 -236 1287 928]def
/FontType 3 def
/Encoding [ /period /zero /one /two /three /five /a /d /e /i /l /r /s /u /minus ] def
/FontInfo 10 dict dup begin
/FamilyName (Bitstream Vera Sans) def
/FullName (Bitstream Vera Sans) def
/Notice (Copyright (c) 2003 by Bitstream, Inc. All Rights Reserved. Bitstream Vera is a trademark of Bitstream, Inc.) def
/Weight (Roman) def
/Version (Release 1.10) def
/ItalicAngle 0.0 def
/isFixedPitch false def
/UnderlinePosition -213 def
/UnderlineThickness 143 def
end readonly def
/CharStrings 15 dict dup begin
/period{318 0 107 0 210 124 _sc
107 124 _m
210 124 _l
210 0 _l
107 0 _l
107 124 _l
_cl}_d
/zero{636 0 66 -13 570 742 _sc
318 664 _m
267 664 229 639 203 589 _c
177 539 165 464 165 364 _c
165 264 177 189 203 139 _c
229 89 267 64 318 64 _c
369 64 407 89 433 139 _c
458 189 471 264 471 364 _c
471 464 458 539 433 589 _c
407 639 369 664 318 664 _c
318 742 _m
399 742 461 709 505 645 _c
548 580 570 486 570 364 _c
570 241 548 147 505 83 _c
461 19 399 -13 318 -13 _c
236 -13 173 19 130 83 _c
87 147 66 241 66 364 _c
66 486 87 580 130 645 _c
173 709 236 742 318 742 _c
_cl}_d
/one{636 0 110 0 544 729 _sc
124 83 _m
285 83 _l
285 639 _l
110 604 _l
110 694 _l
284 729 _l
383 729 _l
383 83 _l
544 83 _l
544 0 _l
124 0 _l
124 83 _l
_cl}_d
/two{{636 0 73 0 536 742 _sc
192 83 _m
536 83 _l
536 0 _l
73 0 _l
73 83 _l
110 121 161 173 226 239 _c
290 304 331 346 348 365 _c
380 400 402 430 414 455 _c
426 479 433 504 433 528 _c
433 566 419 598 392 622 _c
365 646 330 659 286 659 _c
255 659 222 653 188 643 _c
154 632 117 616 78 594 _c
78 694 _l
118 710 155 722 189 730 _c
223 738 255 742 284 742 _c
}_e{359 742 419 723 464 685 _c
509 647 532 597 532 534 _c
532 504 526 475 515 449 _c
504 422 484 390 454 354 _c
446 344 420 317 376 272 _c
332 227 271 164 192 83 _c
_cl}_e}_d
/three{{636 0 76 -13 556 742 _sc
406 393 _m
453 383 490 362 516 330 _c
542 298 556 258 556 212 _c
556 140 531 84 482 45 _c
432 6 362 -13 271 -13 _c
240 -13 208 -10 176 -4 _c
144 1 110 10 76 22 _c
76 117 _l
103 101 133 89 166 81 _c
198 73 232 69 268 69 _c
330 69 377 81 409 105 _c
441 129 458 165 458 212 _c
458 254 443 288 413 312 _c
383 336 341 349 287 349 _c
}_e{202 349 _l
202 430 _l
291 430 _l
339 430 376 439 402 459 _c
428 478 441 506 441 543 _c
441 580 427 609 401 629 _c
374 649 336 659 287 659 _c
260 659 231 656 200 650 _c
169 644 135 635 98 623 _c
98 711 _l
135 721 170 729 203 734 _c
235 739 266 742 296 742 _c
370 742 429 725 473 691 _c
517 657 539 611 539 553 _c
539 513 527 479 504 451 _c
481 423 448 403 406 393 _c
_cl}_e}_d
/five{{636 0 77 -13 549 729 _sc
108 729 _m
495 729 _l
495 646 _l
198 646 _l
198 467 _l
212 472 227 476 241 478 _c
255 480 270 482 284 482 _c
365 482 429 459 477 415 _c
525 370 549 310 549 234 _c
549 155 524 94 475 51 _c
426 8 357 -13 269 -13 _c
238 -13 207 -10 175 -6 _c
143 -1 111 6 77 17 _c
77 116 _l
106 100 136 88 168 80 _c
199 72 232 69 267 69 _c
}_e{323 69 368 83 401 113 _c
433 143 450 183 450 234 _c
450 284 433 324 401 354 _c
368 384 323 399 267 399 _c
241 399 214 396 188 390 _c
162 384 135 375 108 363 _c
108 729 _l
_cl}_e}_d
/a{{613 0 60 -13 522 560 _sc
343 275 _m
270 275 220 266 192 250 _c
164 233 150 205 150 165 _c
150 133 160 107 181 89 _c
202 70 231 61 267 61 _c
317 61 357 78 387 114 _c
417 149 432 196 432 255 _c
432 275 _l
343 275 _l
522 312 _m
522 0 _l
432 0 _l
432 83 _l
411 49 385 25 355 10 _c
325 -5 287 -13 243 -13 _c
187 -13 142 2 109 33 _c
76 64 60 106 60 159 _c
}_e{60 220 80 266 122 298 _c
163 329 224 345 306 345 _c
432 345 _l
432 354 _l
432 395 418 427 391 450 _c
364 472 326 484 277 484 _c
245 484 215 480 185 472 _c
155 464 127 453 100 439 _c
100 522 _l
132 534 164 544 195 550 _c
226 556 256 560 286 560 _c
365 560 424 539 463 498 _c
502 457 522 395 522 312 _c
_cl}_e}_d
/d{{635 0 55 -13 544 760 _sc
454 464 _m
454 760 _l
544 760 _l
544 0 _l
454 0 _l
454 82 _l
435 49 411 25 382 10 _c
353 -5 319 -13 279 -13 _c
213 -13 159 13 117 65 _c
75 117 55 187 55 273 _c
55 359 75 428 117 481 _c
159 533 213 560 279 560 _c
319 560 353 552 382 536 _c
411 520 435 496 454 464 _c
148 273 _m
148 207 161 155 188 117 _c
215 79 253 61 301 61 _c
}_e{348 61 385 79 413 117 _c
440 155 454 207 454 273 _c
454 339 440 390 413 428 _c
385 466 348 485 301 485 _c
253 485 215 466 188 428 _c
161 390 148 339 148 273 _c
_cl}_e}_d
/e{{615 0 55 -13 562 560 _sc
562 296 _m
562 252 _l
149 252 _l
153 190 171 142 205 110 _c
238 78 284 62 344 62 _c
378 62 412 66 444 74 _c
476 82 509 95 541 113 _c
541 28 _l
509 14 476 3 442 -3 _c
408 -9 373 -13 339 -13 _c
251 -13 182 12 131 62 _c
80 112 55 181 55 268 _c
55 357 79 428 127 481 _c
175 533 241 560 323 560 _c
397 560 455 536 498 489 _c
}_e{540 441 562 377 562 296 _c
472 322 _m
471 371 457 410 431 440 _c
404 469 368 484 324 484 _c
274 484 234 469 204 441 _c
174 413 156 373 152 322 _c
472 322 _l
_cl}_e}_d
/i{278 0 94 0 184 760 _sc
94 547 _m
184 547 _l
184 0 _l
94 0 _l
94 547 _l
94 760 _m
184 760 _l
184 646 _l
94 646 _l
94 760 _l
_cl}_d
/l{278 0 94 0 184 760 _sc
94 760 _m
184 760 _l
184 0 _l
94 0 _l
94 760 _l
_cl}_d
/r{411 0 91 0 411 560 _sc
411 463 _m
401 469 390 473 378 476 _c
366 478 353 480 339 480 _c
288 480 249 463 222 430 _c
194 397 181 350 181 288 _c
181 0 _l
91 0 _l
91 547 _l
181 547 _l
181 462 _l
199 495 224 520 254 536 _c
284 552 321 560 365 560 _c
371 560 378 559 386 559 _c
393 558 401 557 411 555 _c
411 463 _l
_cl}_d
/s{{521 0 54 -13 472 560 _sc
443 531 _m
443 446 _l
417 458 391 468 364 475 _c
336 481 308 485 279 485 _c
234 485 200 478 178 464 _c
156 450 145 430 145 403 _c
145 382 153 366 169 354 _c
185 342 217 330 265 320 _c
296 313 _l
360 299 405 279 432 255 _c
458 230 472 195 472 151 _c
472 100 452 60 412 31 _c
372 1 316 -13 246 -13 _c
216 -13 186 -10 154 -5 _c
}_e{122 0 89 8 54 20 _c
54 113 _l
87 95 120 82 152 74 _c
184 65 216 61 248 61 _c
290 61 323 68 346 82 _c
368 96 380 117 380 144 _c
380 168 371 187 355 200 _c
339 213 303 226 247 238 _c
216 245 _l
160 257 119 275 95 299 _c
70 323 58 356 58 399 _c
58 450 76 490 112 518 _c
148 546 200 560 268 560 _c
301 560 332 557 362 552 _c
391 547 418 540 443 531 _c
}_e{_cl}_e}_d
/u{634 0 85 -13 543 547 _sc
85 216 _m
85 547 _l
175 547 _l
175 219 _l
175 167 185 129 205 103 _c
225 77 255 64 296 64 _c
344 64 383 79 411 110 _c
439 141 453 183 453 237 _c
453 547 _l
543 547 _l
543 0 _l
453 0 _l
453 84 _l
431 50 405 26 377 10 _c
348 -5 315 -13 277 -13 _c
214 -13 166 6 134 45 _c
101 83 85 140 85 216 _c
_cl}_d
/minus{838 0 106 272 732 355 _sc
106 355 _m
732 355 _l
732 272 _l
106 272 _l
106 355 _l
_cl}_d
end readonly def

/BuildGlyph
 {exch begin
 CharStrings exch
 2 copy known not{pop /.notdef}if
 true 3 1 roll get exec
 end}_d

/BuildChar {
 1 index /Encoding get exch get
 1 index /BuildGlyph get exec
}_d

FontName currentdict end definefont pop
end
%%EndProlog
mpldict begin
18 108 translate
576 576 0 0 clipbox
100000 setmiterlimit
gsave
0 0 m
576 0 l
576 576 l
0 576 l
cl
1.000 setgray
fill
grestore
gsave
72 72 m
518.4 72 l
518.4 518.4 l
72 518.4 l
cl
0.898 setgray
fill
grestore
1.400 setlinewidth
1 setlinejoin
2 setlinecap
[] 0 setdash
1.000 setgray
gsave
446.4 446.4 72 72 clipbox
109.2 72 m
109.2 518.4 l
stroke
grestore
0 setlinecap
0.498 setgray
gsave
/o {
gsave
newpath
translate
1.4 setlinewidth
1 setlinejoin
0 setlinecap
0 0 m
0 -5 l

gsave
0.498 setgray
fill
grestore
stroke
grestore
} bind def
109.2 72 o
grestore
/BitstreamVeraSans-Roman findfont
10.000 scalefont
setfont
gsave
90.700000 58.406250 translate
0.000000 rotate
0.000000 0.000000 m /minus glyphshow
8.378906 0.000000 m /zero glyphshow
14.741211 0.000000 m /period glyphshow
17.919922 0.000000 m /zero glyphshow
24.282227 0.000000 m /one glyphshow
30.644531 0.000000 m /zero glyphshow
grestore
2 setlinecap
1.000 setgray
gsave
446.4 446.4 72 72 clipbox
202.2 72 m
202.2 518.4 l
stroke
grestore
0 setlinecap
0.498 setgray
gsave
/o {
gsave
newpath
translate
1.4 setlinewidth
1 setlinejoin
0 setlinecap
0 0 m
0 -5 l

gsave
0.498 setgray
fill
grestore
stroke
grestore
} bind def
202.2 72 o
grestore
gsave
183.700000 58.406250 translate
0.000000 rotate
0.000000 0.000000 m /minus glyphshow
8.378906 0.000000 m /zero glyphshow
14.741211 0.000000 m /period glyphshow
17.919922 0.000000 m /zero glyphshow
24.282227 0.000000 m /zero glyphshow
30.644531 0.000000 m /five glyphshow
grestore
2 setlinecap
1.000 setgray
gsave
446.4 446.4 72 72 clipbox
295.2 72 m
295.2 518.4 l
stroke
grestore
0 setlinecap
0.498 setgray
gsave
/o {
gsave
newpath
translate
1.4 setlinewidth
1 setlinejoin
0 setlinecap
0 0 m
0 -5 l

gsave
0.498 setgray
fill
grestore
stroke
grestore
} bind def
295.2 72 o
grestore
gsave
280.887500 58.406250 translate
0.000000 rotate
0.000000 0.000000 m /zero glyphshow
6.362305 0.000000 m /period glyphshow
9.541016 0.000000 m /zero glyphshow
15.903320 0.000000 m /zero glyphshow
22.265625 0.000000 m /zero glyphshow
grestore
2 setlinecap
1.000 setgray
gsave
446.4 446.4 72 72 clipbox
388.2 72 m
388.2 518.4 l
stroke
grestore
0 setlinecap
0.498 setgray
gsave
/o {
gsave
newpath
translate
1.4 setlinewidth
1 setlinejoin
0 setlinecap
0 0 m
0 -5 l

gsave
0.498 setgray
fill
grestore
stroke
grestore
} bind def
388.2 72 o
grestore
gsave
373.887500 58.406250 translate
0.000000 rotate
0.000000 0.000000 m /zero glyphshow
6.362305 0.000000 m /period glyphshow
9.541016 0.000000 m /zero glyphshow
15.903320 0.000000 m /zero glyphshow
22.265625 0.000000 m /five glyphshow
grestore
2 setlinecap
1.000 setgray
gsave
446.4 446.4 72 72 clipbox
481.2 72 m
481.2 518.4 l
stroke
grestore
0 setlinecap
0.498 setgray
gsave
/o {
gsave
newpath
translate
1.4 setlinewidth
1 setlinejoin
0 setlinecap
0 0 m
0 -5 l

gsave
0.498 setgray
fill
grestore
stroke
grestore
} bind def
481.2 72 o
grestore
gsave
466.887500 58.406250 translate
0.000000 rotate
0.000000 0.000000 m /zero glyphshow
6.362305 0.000000 m /period glyphshow
9.541016 0.000000 m /zero glyphshow
15.903320 0.000000 m /one glyphshow
22.265625 0.000000 m /zero glyphshow
grestore
0.700 setlinewidth
2 setlinecap
0.949 setgray
gsave
446.4 446.4 72 72 clipbox
155.7 72 m
155.7 518.4 l
stroke
grestore
0.500 setlinewidth
0 setlinecap
0.498 setgray
gsave
/o {
gsave
newpath
translate
0.5 setlinewidth
1 setlinejoin
0 setlinecap
0 0 m
0 0 l

gsave
0.498 setgray
fill
grestore
stroke
grestore
} bind def
155.7 72 o
grestore
0.700 setlinewidth
2 setlinecap
0.949 setgray
gsave
446.4 446.4 72 72 clipbox
248.7 72 m
248.7 518.4 l
stroke
grestore
0.500 setlinewidth
0 setlinecap
0.498 setgray
gsave
/o {
gsave
newpath
translate
0.5 setlinewidth
1 setlinejoin
0 setlinecap
0 0 m
0 0 l

gsave
0.498 setgray
fill
grestore
stroke
grestore
} bind def
248.7 72 o
grestore
0.700 setlinewidth
2 setlinecap
0.949 setgray
gsave
446.4 446.4 72 72 clipbox
341.7 72 m
341.7 518.4 l
stroke
grestore
0.500 setlinewidth
0 setlinecap
0.498 setgray
gsave
/o {
gsave
newpath
translate
0.5 setlinewidth
1 setlinejoin
0 setlinecap
0 0 m
0 0 l

gsave
0.498 setgray
fill
grestore
stroke
grestore
} bind def
341.7 72 o
grestore
0.700 setlinewidth
2 setlinecap
0.949 setgray
gsave
446.4 446.4 72 72 clipbox
434.7 72 m
434.7 518.4 l
stroke
grestore
0.500 setlinewidth
0 setlinecap
0.498 setgray
gsave
/o {
gsave
newpath
translate
0.5 setlinewidth
1 setlinejoin
0 setlinecap
0 0 m
0 0 l

gsave
0.498 setgray
fill
grestore
stroke
grestore
} bind def
434.7 72 o
grestore
1.400 setlinewidth
2 setlinecap
1.000 setgray
gsave
446.4 446.4 72 72 clipbox
72 72 m
518.4 72 l
stroke
grestore
0 setlinecap
0.498 setgray
gsave
/o {
gsave
newpath
translate
1.4 setlinewidth
1 setlinejoin
0 setlinecap
0 0 m
-5 0 l

gsave
0.498 setgray
fill
grestore
stroke
grestore
} bind def
72 72 o
grestore
gsave
59.640625 69.242188 translate
0.000000 rotate
0.000000 0.000000 m /zero glyphshow
grestore
2 setlinecap
1.000 setgray
gsave
446.4 446.4 72 72 clipbox
72 146.4 m
518.4 146.4 l
stroke
grestore
0 setlinecap
0.498 setgray
gsave
/o {
gsave
newpath
translate
1.4 setlinewidth
1 setlinejoin
0 setlinecap
0 0 m
-5 0 l

gsave
0.498 setgray
fill
grestore
stroke
grestore
} bind def
72 146.4 o
grestore
gsave
46.921875 143.642187 translate
0.000000 rotate
0.000000 0.000000 m /five glyphshow
6.362305 0.000000 m /zero glyphshow
12.724609 0.000000 m /zero glyphshow
grestore
2 setlinecap
1.000 setgray
gsave
446.4 446.4 72 72 clipbox
72 220.8 m
518.4 220.8 l
stroke
grestore
0 setlinecap
0.498 setgray
gsave
/o {
gsave
newpath
translate
1.4 setlinewidth
1 setlinejoin
0 setlinecap
0 0 m
-5 0 l

gsave
0.498 setgray
fill
grestore
stroke
grestore
} bind def
72 220.8 o
grestore
gsave
40.562500 218.042187 translate
0.000000 rotate
0.000000 0.000000 m /one glyphshow
6.362305 0.000000 m /zero glyphshow
12.724609 0.000000 m /zero glyphshow
19.086914 0.000000 m /zero glyphshow
grestore
2 setlinecap
1.000 setgray
gsave
446.4 446.4 72 72 clipbox
72 295.2 m
518.4 295.2 l
stroke
grestore
0 setlinecap
0.498 setgray
gsave
/o {
gsave
newpath
translate
1.4 setlinewidth
1 setlinejoin
0 setlinecap
0 0 m
-5 0 l

gsave
0.498 setgray
fill
grestore
stroke
grestore
} bind def
72 295.2 o
grestore
gsave
40.562500 292.442187 translate
0.000000 rotate
0.000000 0.000000 m /one glyphshow
6.362305 0.000000 m /five glyphshow
12.724609 0.000000 m /zero glyphshow
19.086914 0.000000 m /zero glyphshow
grestore
2 setlinecap
1.000 setgray
gsave
446.4 446.4 72 72 clipbox
72 369.6 m
518.4 369.6 l
stroke
grestore
0 setlinecap
0.498 setgray
gsave
/o {
gsave
newpath
translate
1.4 setlinewidth
1 setlinejoin
0 setlinecap
0 0 m
-5 0 l

gsave
0.498 setgray
fill
grestore
stroke
grestore
} bind def
72 369.6 o
grestore
gsave
40.562500 366.842187 translate
0.000000 rotate
0.000000 0.000000 m /two glyphshow
6.362305 0.000000 m /zero glyphshow
12.724609 0.000000 m /zero glyphshow
19.086914 0.000000 m /zero glyphshow
grestore
2 setlinecap
1.000 setgray
gsave
446.4 446.4 72 72 clipbox
72 444 m
518.4 444 l
stroke
grestore
0 setlinecap
0.498 setgray
gsave
/o {
gsave
newpath
translate
1.4 setlinewidth
1 setlinejoin
0 setlinecap
0 0 m
-5 0 l

gsave
0.498 setgray
fill
grestore
stroke
grestore
} bind def
72 444 o
grestore
gsave
40.562500 441.242187 translate
0.000000 rotate
0.000000 0.000000 m /two glyphshow
6.362305 0.000000 m /five glyphshow
12.724609 0.000000 m /zero glyphshow
19.086914 0.000000 m /zero glyphshow
grestore
2 setlinecap
1.000 setgray
gsave
446.4 446.4 72 72 clipbox
72 518.4 m
518.4 518.4 l
stroke
grestore
0 setlinecap
0.498 setgray
gsave
/o {
gsave
newpath
translate
1.4 setlinewidth
1 setlinejoin
0 setlinecap
0 0 m
-5 0 l

gsave
0.498 setgray
fill
grestore
stroke
grestore
} bind def
72 518.4 o
grestore
gsave
40.562500 515.642187 translate
0.000000 rotate
0.000000 0.000000 m /three glyphshow
6.362305 0.000000 m /zero glyphshow
12.724609 0.000000 m /zero glyphshow
19.086914 0.000000 m /zero glyphshow
grestore
0.700 setlinewidth
2 setlinecap
0.949 setgray
gsave
446.4 446.4 72 72 clipbox
72 109.2 m
518.4 109.2 l
stroke
grestore
0.500 setlinewidth
0 setlinecap
0.498 setgray
gsave
/o {
gsave
newpath
translate
0.5 setlinewidth
1 setlinejoin
0 setlinecap
0 0 m
0 0 l

gsave
0.498 setgray
fill
grestore
stroke
grestore
} bind def
72 109.2 o
grestore
0.700 setlinewidth
2 setlinecap
0.949 setgray
gsave
446.4 446.4 72 72 clipbox
72 183.6 m
518.4 183.6 l
stroke
grestore
0.500 setlinewidth
0 setlinecap
0.498 setgray
gsave
/o {
gsave
newpath
translate
0.5 setlinewidth
1 setlinejoin
0 setlinecap
0 0 m
0 0 l

gsave
0.498 setgray
fill
grestore
stroke
grestore
} bind def
72 183.6 o
grestore
0.700 setlinewidth
2 setlinecap
0.949 setgray
gsave
446.4 446.4 72 72 clipbox
72 258 m
518.4 258 l
stroke
grestore
0.500 setlinewidth
0 setlinecap
0.498 setgray
gsave
/o {
gsave
newpath
translate
0.5 setlinewidth
1 setlinejoin
0 setlinecap
0 0 m
0 0 l

gsave
0.498 setgray
fill
grestore
stroke
grestore
} bind def
72 258 o
grestore
0.700 setlinewidth
2 setlinecap
0.949 setgray
gsave
446.4 446.4 72 72 clipbox
72 332.4 m
518.4 332.4 l
stroke
grestore
0.500 setlinewidth
0 setlinecap
0.498 setgray
gsave
/o {
gsave
newpath
translate
0.5 setlinewidth
1 setlinejoin
0 setlinecap
0 0 m
0 0 l

gsave
0.498 setgray
fill
grestore
stroke
grestore
} bind def
72 332.4 o
grestore
0.700 setlinewidth
2 setlinecap
0.949 setgray
gsave
446.4 446.4 72 72 clipbox
72 406.8 m
518.4 406.8 l
stroke
grestore
0.500 setlinewidth
0 setlinecap
0.498 setgray
gsave
/o {
gsave
newpath
translate
0.5 setlinewidth
1 setlinejoin
0 setlinecap
0 0 m
0 0 l

gsave
0.498 setgray
fill
grestore
stroke
grestore
} bind def
72 406.8 o
grestore
0.700 setlinewidth
2 setlinecap
0.949 setgray
gsave
446.4 446.4 72 72 clipbox
72 481.2 m
518.4 481.2 l
stroke
grestore
0.500 setlinewidth
0 setlinecap
0.498 setgray
gsave
/o {
gsave
newpath
translate
0.5 setlinewidth
1 setlinejoin
0 setlinecap
0 0 m
0 0 l

gsave
0.498 setgray
fill
grestore
stroke
grestore
} bind def
72 481.2 o
grestore
1.000 setlinewidth
0 setlinejoin
0.000 0.749 1.000 setrgbcolor
gsave
446.4 446.4 72 72 clipbox
73.349631 72 m
79.333922 72 l
79.333922 72.2976 l
73.349631 72.2976 l
cl
gsave
0.200 setgray
fill
grestore
stroke
grestore
gsave
446.4 446.4 72 72 clipbox
79.333922 72 m
85.318213 72 l
85.318213 72.5952 l
79.333922 72.5952 l
cl
gsave
0.200 setgray
fill
grestore
stroke
grestore
gsave
446.4 446.4 72 72 clipbox
85.318213 72 m
91.302505 72 l
91.302505 72.1488 l
85.318213 72.1488 l
cl
gsave
0.200 setgray
fill
grestore
stroke
grestore
gsave
446.4 446.4 72 72 clipbox
91.302505 72 m
97.286796 72 l
97.286796 72.5952 l
91.302505 72.5952 l
cl
gsave
0.200 setgray
fill
grestore
stroke
grestore
gsave
446.4 446.4 72 72 clipbox
97.286796 72 m
103.271088 72 l
103.271088 72.1488 l
97.286796 72.1488 l
cl
gsave
0.200 setgray
fill
grestore
stroke
grestore
gsave
446.4 446.4 72 72 clipbox
103.271088 72 m
109.255379 72 l
109.255379 73.3392 l
103.271088 73.3392 l
cl
gsave
0.200 setgray
fill
grestore
stroke
grestore
gsave
446.4 446.4 72 72 clipbox
109.255379 72 m
115.239671 72 l
115.239671 73.6368 l
109.255379 73.6368 l
cl
gsave
0.200 setgray
fill
grestore
stroke
grestore
gsave
446.4 446.4 72 72 clipbox
115.239671 72 m
121.223962 72 l
121.223962 73.3392 l
115.239671 73.3392 l
cl
gsave
0.200 setgray
fill
grestore
stroke
grestore
gsave
446.4 446.4 72 72 clipbox
121.223962 72 m
127.208254 72 l
127.208254 73.3392 l
121.223962 73.3392 l
cl
gsave
0.200 setgray
fill
grestore
stroke
grestore
gsave
446.4 446.4 72 72 clipbox
127.208254 72 m
133.192545 72 l
133.192545 74.6784 l
127.208254 74.6784 l
cl
gsave
0.200 setgray
fill
grestore
stroke
grestore
gsave
446.4 446.4 72 72 clipbox
133.192545 72 m
139.176837 72 l
139.176837 76.3152 l
133.192545 76.3152 l
cl
gsave
0.200 setgray
fill
grestore
stroke
grestore
gsave
446.4 446.4 72 72 clipbox
139.176837 72 m
145.161128 72 l
145.161128 75.5712 l
139.176837 75.5712 l
cl
gsave
0.200 setgray
fill
grestore
stroke
grestore
gsave
446.4 446.4 72 72 clipbox
145.161128 72 m
151.14542 72 l
151.14542 76.1664 l
145.161128 76.1664 l
cl
gsave
0.200 setgray
fill
grestore
stroke
grestore
gsave
446.4 446.4 72 72 clipbox
151.14542 72 m
157.129711 72 l
157.129711 76.1664 l
151.14542 76.1664 l
cl
gsave
0.200 setgray
fill
grestore
stroke
grestore
gsave
446.4 446.4 72 72 clipbox
157.129711 72 m
163.114002 72 l
163.114002 78.5472 l
157.129711 78.5472 l
cl
gsave
0.200 setgray
fill
grestore
stroke
grestore
gsave
446.4 446.4 72 72 clipbox
163.114002 72 m
169.098294 72 l
169.098294 79.7376 l
163.114002 79.7376 l
cl
gsave
0.200 setgray
fill
grestore
stroke
grestore
gsave
446.4 446.4 72 72 clipbox
169.098294 72 m
175.082585 72 l
175.082585 80.184 l
169.098294 80.184 l
cl
gsave
0.200 setgray
fill
grestore
stroke
grestore
gsave
446.4 446.4 72 72 clipbox
175.082585 72 m
181.066877 72 l
181.066877 83.16 l
175.082585 83.16 l
cl
gsave
0.200 setgray
fill
grestore
stroke
grestore
gsave
446.4 446.4 72 72 clipbox
181.066877 72 m
187.051168 72 l
187.051168 85.2432 l
181.066877 85.2432 l
cl
gsave
0.200 setgray
fill
grestore
stroke
grestore
gsave
446.4 446.4 72 72 clipbox
187.051168 72 m
193.03546 72 l
193.03546 87.9216 l
187.051168 87.9216 l
cl
gsave
0.200 setgray
fill
grestore
stroke
grestore
gsave
446.4 446.4 72 72 clipbox
193.03546 72 m
199.019751 72 l
199.019751 93.2784 l
193.03546 93.2784 l
cl
gsave
0.200 setgray
fill
grestore
stroke
grestore
gsave
446.4 446.4 72 72 clipbox
199.019751 72 m
205.004043 72 l
205.004043 99.9744 l
199.019751 99.9744 l
cl
gsave
0.200 setgray
fill
grestore
stroke
grestore
gsave
446.4 446.4 72 72 clipbox
205.004043 72 m
210.988334 72 l
210.988334 110.2416 l
205.004043 110.2416 l
cl
gsave
0.200 setgray
fill
grestore
stroke
grestore
gsave
446.4 446.4 72 72 clipbox
210.988334 72 m
216.972626 72 l
216.972626 125.4192 l
210.988334 125.4192 l
cl
gsave
0.200 setgray
fill
grestore
stroke
grestore
gsave
446.4 446.4 72 72 clipbox
216.972626 72 m
222.956917 72 l
222.956917 144.912 l
216.972626 144.912 l
cl
gsave
0.200 setgray
fill
grestore
stroke
grestore
gsave
446.4 446.4 72 72 clipbox
222.956917 72 m
228.941208 72 l
228.941208 164.256 l
222.956917 164.256 l
cl
gsave
0.200 setgray
fill
grestore
stroke
grestore
gsave
446.4 446.4 72 72 clipbox
228.941208 72 m
234.9255 72 l
234.9255 195.504 l
228.941208 195.504 l
cl
gsave
0.200 setgray
fill
grestore
stroke
grestore
gsave
446.4 446.4 72 72 clipbox
234.9255 72 m
240.909791 72 l
240.909791 223.4784 l
234.9255 223.4784 l
cl
gsave
0.200 setgray
fill
grestore
stroke
grestore
gsave
446.4 446.4 72 72 clipbox
240.909791 72 m
246.894083 72 l
246.894083 257.256 l
240.909791 257.256 l
cl
gsave
0.200 setgray
fill
grestore
stroke
grestore
gsave
446.4 446.4 72 72 clipbox
246.894083 72 m
252.878374 72 l
252.878374 291.7776 l
246.894083 291.7776 l
cl
gsave
0.200 setgray
fill
grestore
stroke
grestore
gsave
446.4 446.4 72 72 clipbox
252.878374 72 m
258.862666 72 l
258.862666 331.656 l
252.878374 331.656 l
cl
gsave
0.200 setgray
fill
grestore
stroke
grestore
gsave
446.4 446.4 72 72 clipbox
258.862666 72 m
264.846957 72 l
264.846957 353.5296 l
258.862666 353.5296 l
cl
gsave
0.200 setgray
fill
grestore
stroke
grestore
gsave
446.4 446.4 72 72 clipbox
264.846957 72 m
270.831249 72 l
270.831249 384.0336 l
264.846957 384.0336 l
cl
gsave
0.200 setgray
fill
grestore
stroke
grestore
gsave
446.4 446.4 72 72 clipbox
270.831249 72 m
276.81554 72 l
276.81554 400.6992 l
270.831249 400.6992 l
cl
gsave
0.200 setgray
fill
grestore
stroke
grestore
gsave
446.4 446.4 72 72 clipbox
276.81554 72 m
282.799832 72 l
282.799832 425.6976 l
276.81554 425.6976 l
cl
gsave
0.200 setgray
fill
grestore
stroke
grestore
gsave
446.4 446.4 72 72 clipbox
282.799832 72 m
288.784123 72 l
288.784123 446.232 l
282.799832 446.232 l
cl
gsave
0.200 setgray
fill
grestore
stroke
grestore
gsave
446.4 446.4 72 72 clipbox
288.784123 72 m
294.768415 72 l
294.768415 447.72 l
288.784123 447.72 l
cl
gsave
0.200 setgray
fill
grestore
stroke
grestore
gsave
446.4 446.4 72 72 clipbox
294.768415 72 m
300.752706 72 l
300.752706 441.768 l
294.768415 441.768 l
cl
gsave
0.200 setgray
fill
grestore
stroke
grestore
gsave
446.4 446.4 72 72 clipbox
300.752706 72 m
306.736997 72 l
306.736997 444.5952 l
300.752706 444.5952 l
cl
gsave
0.200 setgray
fill
grestore
stroke
grestore
gsave
446.4 446.4 72 72 clipbox
306.736997 72 m
312.721289 72 l
312.721289 409.3296 l
306.736997 409.3296 l
cl
gsave
0.200 setgray
fill
grestore
stroke
grestore
gsave
446.4 446.4 72 72 clipbox
312.721289 72 m
318.70558 72 l
318.70558 393.5568 l
312.721289 393.5568 l
cl
gsave
0.200 setgray
fill
grestore
stroke
grestore
gsave
446.4 446.4 72 72 clipbox
318.70558 72 m
324.689872 72 l
324.689872 366.1776 l
318.70558 366.1776 l
cl
gsave
0.200 setgray
fill
grestore
stroke
grestore
gsave
446.4 446.4 72 72 clipbox
324.689872 72 m
330.674163 72 l
330.674163 339.5424 l
324.689872 339.5424 l
cl
gsave
0.200 setgray
fill
grestore
stroke
grestore
gsave
446.4 446.4 72 72 clipbox
330.674163 72 m
336.658455 72 l
336.658455 303.5328 l
330.674163 303.5328 l
cl
gsave
0.200 setgray
fill
grestore
stroke
grestore
gsave
446.4 446.4 72 72 clipbox
336.658455 72 m
342.642746 72 l
342.642746 273.7728 l
336.658455 273.7728 l
cl
gsave
0.200 setgray
fill
grestore
stroke
grestore
gsave
446.4 446.4 72 72 clipbox
342.642746 72 m
348.627038 72 l
348.627038 249.3696 l
342.642746 249.3696 l
cl
gsave
0.200 setgray
fill
grestore
stroke
grestore
gsave
446.4 446.4 72 72 clipbox
348.627038 72 m
354.611329 72 l
354.611329 214.848 l
348.627038 214.848 l
cl
gsave
0.200 setgray
fill
grestore
stroke
grestore
gsave
446.4 446.4 72 72 clipbox
354.611329 72 m
360.595621 72 l
360.595621 196.248 l
354.611329 196.248 l
cl
gsave
0.200 setgray
fill
grestore
stroke
grestore
gsave
446.4 446.4 72 72 clipbox
360.595621 72 m
366.579912 72 l
366.579912 174.5232 l
360.595621 174.5232 l
cl
gsave
0.200 setgray
fill
grestore
stroke
grestore
gsave
446.4 446.4 72 72 clipbox
366.579912 72 m
372.564204 72 l
372.564204 158.1552 l
366.579912 158.1552 l
cl
gsave
0.200 setgray
fill
grestore
stroke
grestore
gsave
446.4 446.4 72 72 clipbox
372.564204 72 m
378.548495 72 l
378.548495 132.264 l
372.564204 132.264 l
cl
gsave
0.200 setgray
fill
grestore
stroke
grestore
gsave
446.4 446.4 72 72 clipbox
378.548495 72 m
384.532786 72 l
384.532786 120.8064 l
378.548495 120.8064 l
cl
gsave
0.200 setgray
fill
grestore
stroke
grestore
gsave
446.4 446.4 72 72 clipbox
384.532786 72 m
390.517078 72 l
390.517078 108.3072 l
384.532786 108.3072 l
cl
gsave
0.200 setgray
fill
grestore
stroke
grestore
gsave
446.4 446.4 72 72 clipbox
390.517078 72 m
396.501369 72 l
396.501369 100.7184 l
390.517078 100.7184 l
cl
gsave
0.200 setgray
fill
grestore
stroke
grestore
gsave
446.4 446.4 72 72 clipbox
396.501369 72 m
402.485661 72 l
402.485661 96.4032 l
396.501369 96.4032 l
cl
gsave
0.200 setgray
fill
grestore
stroke
grestore
gsave
446.4 446.4 72 72 clipbox
402.485661 72 m
408.469952 72 l
408.469952 88.2192 l
402.485661 88.2192 l
cl
gsave
0.200 setgray
fill
grestore
stroke
grestore
gsave
446.4 446.4 72 72 clipbox
408.469952 72 m
414.454244 72 l
414.454244 83.7552 l
408.469952 83.7552 l
cl
gsave
0.200 setgray
fill
grestore
stroke
grestore
gsave
446.4 446.4 72 72 clipbox
414.454244 72 m
420.438535 72 l
420.438535 81.3744 l
414.454244 81.3744 l
cl
gsave
0.200 setgray
fill
grestore
stroke
grestore
gsave
446.4 446.4 72 72 clipbox
420.438535 72 m
426.422827 72 l
426.422827 77.8032 l
420.438535 77.8032 l
cl
gsave
0.200 setgray
fill
grestore
stroke
grestore
gsave
446.4 446.4 72 72 clipbox
426.422827 72 m
432.407118 72 l
432.407118 78.1008 l
426.422827 78.1008 l
cl
gsave
0.200 setgray
fill
grestore
stroke
grestore
gsave
446.4 446.4 72 72 clipbox
432.407118 72 m
438.39141 72 l
438.39141 76.3152 l
432.407118 76.3152 l
cl
gsave
0.200 setgray
fill
grestore
stroke
grestore
gsave
446.4 446.4 72 72 clipbox
438.39141 72 m
444.375701 72 l
444.375701 75.1248 l
438.39141 75.1248 l
cl
gsave
0.200 setgray
fill
grestore
stroke
grestore
gsave
446.4 446.4 72 72 clipbox
444.375701 72 m
450.359992 72 l
450.359992 74.976 l
444.375701 74.976 l
cl
gsave
0.200 setgray
fill
grestore
stroke
grestore
gsave
446.4 446.4 72 72 clipbox
450.359992 72 m
456.344284 72 l
456.344284 73.7856 l
450.359992 73.7856 l
cl
gsave
0.200 setgray
fill
grestore
stroke
grestore
gsave
446.4 446.4 72 72 clipbox
456.344284 72 m
462.328575 72 l
462.328575 73.9344 l
456.344284 73.9344 l
cl
gsave
0.200 setgray
fill
grestore
stroke
grestore
gsave
446.4 446.4 72 72 clipbox
462.328575 72 m
468.312867 72 l
468.312867 72.744 l
462.328575 72.744 l
cl
gsave
0.200 setgray
fill
grestore
stroke
grestore
gsave
446.4 446.4 72 72 clipbox
468.312867 72 m
474.297158 72 l
474.297158 73.6368 l
468.312867 73.6368 l
cl
gsave
0.200 setgray
fill
grestore
stroke
grestore
gsave
446.4 446.4 72 72 clipbox
474.297158 72 m
480.28145 72 l
480.28145 72.5952 l
474.297158 72.5952 l
cl
gsave
0.200 setgray
fill
grestore
stroke
grestore
gsave
446.4 446.4 72 72 clipbox
480.28145 72 m
486.265741 72 l
486.265741 73.6368 l
480.28145 73.6368 l
cl
gsave
0.200 setgray
fill
grestore
stroke
grestore
gsave
446.4 446.4 72 72 clipbox
486.265741 72 m
492.250033 72 l
492.250033 72.1488 l
486.265741 72.1488 l
cl
gsave
0.200 setgray
fill
grestore
stroke
grestore
gsave
446.4 446.4 72 72 clipbox
492.250033 72 m
498.234324 72 l
498.234324 72.5952 l
492.250033 72.5952 l
cl
gsave
0.200 setgray
fill
grestore
stroke
grestore
gsave
446.4 446.4 72 72 clipbox
498.234324 72 m
504.218616 72 l
504.218616 72.744 l
498.234324 72.744 l
cl
gsave
0.200 setgray
fill
grestore
stroke
grestore
gsave
446.4 446.4 72 72 clipbox
504.218616 72 m
510.202907 72 l
510.202907 72.8928 l
504.218616 72.8928 l
cl
gsave
0.200 setgray
fill
grestore
stroke
grestore
gsave
446.4 446.4 72 72 clipbox
510.202907 72 m
516.187199 72 l
516.187199 72.5952 l
510.202907 72.5952 l
cl
gsave
0.200 setgray
fill
grestore
stroke
grestore
gsave
446.4 446.4 72 72 clipbox
516.187199 72 m
522.17149 72 l
522.17149 72.2976 l
516.187199 72.2976 l
cl
gsave
0.200 setgray
fill
grestore
stroke
grestore
gsave
446.4 446.4 72 72 clipbox
522.17149 72 m
528.155781 72 l
528.155781 72.2976 l
522.17149 72.2976 l
cl
gsave
0.200 setgray
fill
grestore
stroke
grestore
gsave
446.4 446.4 72 72 clipbox
528.155781 72 m
534.140073 72 l
534.140073 72.4464 l
528.155781 72.4464 l
cl
gsave
0.200 setgray
fill
grestore
stroke
grestore
gsave
446.4 446.4 72 72 clipbox
534.140073 72 m
540.124364 72 l
540.124364 72.8928 l
534.140073 72.8928 l
cl
gsave
0.200 setgray
fill
grestore
stroke
grestore
gsave
446.4 446.4 72 72 clipbox
540.124364 72 m
546.108656 72 l
546.108656 72.2976 l
540.124364 72.2976 l
cl
gsave
0.200 setgray
fill
grestore
stroke
grestore
gsave
446.4 446.4 72 72 clipbox
546.108656 72 m
552.092947 72 l
552.092947 72.1488 l
546.108656 72.1488 l
cl
gsave
0.200 setgray
fill
grestore
stroke
grestore
gsave
446.4 446.4 72 72 clipbox
552.092947 72 m
558.077239 72 l
558.077239 72.4464 l
552.092947 72.4464 l
cl
gsave
0.200 setgray
fill
grestore
stroke
grestore
gsave
446.4 446.4 72 72 clipbox
558.077239 72 m
564.06153 72 l
564.06153 72.1488 l
558.077239 72.1488 l
cl
gsave
0.200 setgray
fill
grestore
stroke
grestore
gsave
446.4 446.4 72 72 clipbox
564.06153 72 m
570.045822 72 l
570.045822 72.2976 l
564.06153 72.2976 l
cl
gsave
0.200 setgray
fill
grestore
stroke
grestore
gsave
446.4 446.4 72 72 clipbox
570.045822 72 m
576.030113 72 l
576.030113 72.4464 l
570.045822 72.4464 l
cl
gsave
0.200 setgray
fill
grestore
stroke
grestore
gsave
446.4 446.4 72 72 clipbox
576.030113 72 m
582.014405 72 l
582.014405 72 l
576.030113 72 l
cl
gsave
0.200 setgray
fill
grestore
stroke
grestore
gsave
446.4 446.4 72 72 clipbox
582.014405 72 m
587.998696 72 l
587.998696 72.4464 l
582.014405 72.4464 l
cl
gsave
0.200 setgray
fill
grestore
stroke
grestore
gsave
446.4 446.4 72 72 clipbox
587.998696 72 m
593.982988 72 l
593.982988 72.1488 l
587.998696 72.1488 l
cl
gsave
0.200 setgray
fill
grestore
stroke
grestore
gsave
446.4 446.4 72 72 clipbox
593.982988 72 m
599.967279 72 l
599.967279 72.1488 l
593.982988 72.1488 l
cl
gsave
0.200 setgray
fill
grestore
stroke
grestore
gsave
446.4 446.4 72 72 clipbox
599.967279 72 m
605.95157 72 l
605.95157 72.4464 l
599.967279 72.4464 l
cl
gsave
0.200 setgray
fill
grestore
stroke
grestore
gsave
446.4 446.4 72 72 clipbox
605.95157 72 m
611.935862 72 l
611.935862 72.1488 l
605.95157 72.1488 l
cl
gsave
0.200 setgray
fill
grestore
stroke
grestore
gsave
446.4 446.4 72 72 clipbox
611.935862 72 m
617.920153 72 l
617.920153 72.1488 l
611.935862 72.1488 l
cl
gsave
0.200 setgray
fill
grestore
stroke
grestore
gsave
446.4 446.4 72 72 clipbox
617.920153 72 m
623.904445 72 l
623.904445 72.1488 l
617.920153 72.1488 l
cl
gsave
0.200 setgray
fill
grestore
stroke
grestore
gsave
446.4 446.4 72 72 clipbox
623.904445 72 m
629.888736 72 l
629.888736 72.2976 l
623.904445 72.2976 l
cl
gsave
0.200 setgray
fill
grestore
stroke
grestore
gsave
446.4 446.4 72 72 clipbox
629.888736 72 m
635.873028 72 l
635.873028 72.1488 l
629.888736 72.1488 l
cl
gsave
0.200 setgray
fill
grestore
stroke
grestore
gsave
446.4 446.4 72 72 clipbox
635.873028 72 m
641.857319 72 l
641.857319 72.2976 l
635.873028 72.2976 l
cl
gsave
0.200 setgray
fill
grestore
stroke
grestore
gsave
446.4 446.4 72 72 clipbox
641.857319 72 m
647.841611 72 l
647.841611 72 l
641.857319 72 l
cl
gsave
0.200 setgray
fill
grestore
stroke
grestore
gsave
446.4 446.4 72 72 clipbox
647.841611 72 m
653.825902 72 l
653.825902 72 l
647.841611 72 l
cl
gsave
0.200 setgray
fill
grestore
stroke
grestore
gsave
446.4 446.4 72 72 clipbox
653.825902 72 m
659.810194 72 l
659.810194 72 l
653.825902 72 l
cl
gsave
0.200 setgray
fill
grestore
stroke
grestore
gsave
446.4 446.4 72 72 clipbox
659.810194 72 m
665.794485 72 l
665.794485 72.1488 l
659.810194 72.1488 l
cl
gsave
0.200 setgray
fill
grestore
stroke
grestore
gsave
446.4 446.4 72 72 clipbox
665.794485 72 m
671.778777 72 l
671.778777 72.2976 l
665.794485 72.2976 l
cl
gsave
0.200 setgray
fill
grestore
stroke
grestore
gsave
72 72 m
518.4 72 l
grestore
gsave
518.4 72 m
518.4 518.4 l
grestore
gsave
72 518.4 m
518.4 518.4 l
grestore
gsave
72 72 m
72 518.4 l
grestore
0.000 setgray
/BitstreamVeraSans-Roman findfont
12.000 scalefont
setfont
gsave
260.960938 28.800000 translate
0.000000 rotate
0.000000 0.000000 m /r glyphshow
4.933594 0.000000 m /e glyphshow
12.316406 0.000000 m /s glyphshow
18.568359 0.000000 m /i glyphshow
21.902344 0.000000 m /d glyphshow
29.519531 0.000000 m /u glyphshow
37.125000 0.000000 m /a glyphshow
44.478516 0.000000 m /l glyphshow
47.812500 0.000000 m /s glyphshow
grestore

end
showpage
