%!PS-Adobe-3.0 EPSF-3.0
%%Creator: MATLAB, The Mathworks, Inc. Version 7.10.0.499 (R2010a). Operating System: Microsoft Windows 7.
%%Title: C:\Users\Gembarovic\Documents\MATLAB\Rozsyp\TheEighth.eps
%%CreationDate: 04/30/2016  12:29:54
%%DocumentNeededFonts: Helvetica
%%DocumentProcessColors: Cyan Magenta Yellow Black
%%LanguageLevel: 2
%%Pages: 1
%%BoundingBox:    96   238   515   553
%%EndComments

%%BeginProlog
% MathWorks dictionary
/MathWorks 160 dict begin
% definition operators
/bdef {bind def} bind def
/ldef {load def} bind def
/xdef {exch def} bdef
/xstore {exch store} bdef
% operator abbreviations
/c  /clip ldef
/cc /concat ldef
/cp /closepath ldef
/gr /grestore ldef
/gs /gsave ldef
/mt /moveto ldef
/np /newpath ldef
/cm /currentmatrix ldef
/sm /setmatrix ldef
/rm /rmoveto ldef
/rl /rlineto ldef
/s {show newpath} bdef
/sc {setcmykcolor} bdef
/sr /setrgbcolor ldef
/sg /setgray ldef
/w /setlinewidth ldef
/j /setlinejoin ldef
/cap /setlinecap ldef
/rc {rectclip} bdef
/rf {rectfill} bdef
% page state control
/pgsv () def
/bpage {/pgsv save def} bdef
/epage {pgsv restore} bdef
/bplot /gsave ldef
/eplot {stroke grestore} bdef
% orientation switch
/portraitMode 0 def /landscapeMode 1 def /rotateMode 2 def
% coordinate system mappings
/dpi2point 0 def
% font control
/FontSize 0 def
/FMS {/FontSize xstore findfont [FontSize 0 0 FontSize neg 0 0]
  makefont setfont} bdef
/ISOLatin1Encoding where {pop /WindowsLatin1Encoding 256 array bdef
ISOLatin1Encoding WindowsLatin1Encoding copy pop
/.notdef/.notdef/quotesinglbase/florin/quotedblbase/ellipsis/dagger
/daggerdbl/circumflex/perthousand/Scaron/guilsinglleft/OE/.notdef/.notdef
/.notdef/.notdef/quoteleft/quoteright/quotedblleft/quotedblright/bullet
/endash/emdash/tilde/trademark/scaron/guilsinglright/oe/.notdef/.notdef
/Ydieresis WindowsLatin1Encoding 128 32 getinterval astore pop}
{/WindowsLatin1Encoding StandardEncoding bdef} ifelse
/reencode {exch dup where {pop load} {pop StandardEncoding} ifelse
  exch dup 3 1 roll findfont dup length dict begin
  { 1 index /FID ne {def}{pop pop} ifelse } forall
  /Encoding exch def currentdict end definefont pop} bdef
/isroman {findfont /CharStrings get /Agrave known} bdef
/FMSR {3 1 roll 1 index dup isroman {reencode} {pop pop} ifelse
  exch FMS} bdef
/csm {1 dpi2point div -1 dpi2point div scale neg translate
 dup landscapeMode eq {pop -90 rotate}
  {rotateMode eq {90 rotate} if} ifelse} bdef
% line types: solid, dotted, dashed, dotdash
/SO { [] 0 setdash } bdef
/DO { [.5 dpi2point mul 4 dpi2point mul] 0 setdash } bdef
/DA { [6 dpi2point mul] 0 setdash } bdef
/DD { [.5 dpi2point mul 4 dpi2point mul 6 dpi2point mul 4
  dpi2point mul] 0 setdash } bdef
% macros for lines and objects
/L {lineto stroke} bdef
/MP {3 1 roll moveto 1 sub {rlineto} repeat} bdef
/AP {{rlineto} repeat} bdef
/PDlw -1 def
/W {/PDlw currentlinewidth def setlinewidth} def
/PP {closepath eofill} bdef
/DP {closepath stroke} bdef
/MR {4 -2 roll moveto dup  0 exch rlineto exch 0 rlineto
  neg 0 exch rlineto closepath} bdef
/FR {MR stroke} bdef
/PR {MR fill} bdef
/L1i {{currentfile picstr readhexstring pop} image} bdef
/tMatrix matrix def
/MakeOval {newpath tMatrix currentmatrix pop translate scale
0 0 1 0 360 arc tMatrix setmatrix} bdef
/FO {MakeOval stroke} bdef
/PO {MakeOval fill} bdef
/PD {currentlinewidth 2 div 0 360 arc fill
   PDlw -1 eq not {PDlw w /PDlw -1 def} if} def
/FA {newpath tMatrix currentmatrix pop translate scale
  0 0 1 5 -2 roll arc tMatrix setmatrix stroke} bdef
/PA {newpath tMatrix currentmatrix pop	translate 0 0 moveto scale
  0 0 1 5 -2 roll arc closepath tMatrix setmatrix fill} bdef
/FAn {newpath tMatrix currentmatrix pop translate scale
  0 0 1 5 -2 roll arcn tMatrix setmatrix stroke} bdef
/PAn {newpath tMatrix currentmatrix pop translate 0 0 moveto scale
  0 0 1 5 -2 roll arcn closepath tMatrix setmatrix fill} bdef
/vradius 0 def /hradius 0 def /lry 0 def
/lrx 0 def /uly 0 def /ulx 0 def /rad 0 def
/MRR {/vradius xdef /hradius xdef /lry xdef /lrx xdef /uly xdef
  /ulx xdef newpath tMatrix currentmatrix pop ulx hradius add uly
  vradius add translate hradius vradius scale 0 0 1 180 270 arc 
  tMatrix setmatrix lrx hradius sub uly vradius add translate
  hradius vradius scale 0 0 1 270 360 arc tMatrix setmatrix
  lrx hradius sub lry vradius sub translate hradius vradius scale
  0 0 1 0 90 arc tMatrix setmatrix ulx hradius add lry vradius sub
  translate hradius vradius scale 0 0 1 90 180 arc tMatrix setmatrix
  closepath} bdef
/FRR {MRR stroke } bdef
/PRR {MRR fill } bdef
/MlrRR {/lry xdef /lrx xdef /uly xdef /ulx xdef /rad lry uly sub 2 div def
  newpath tMatrix currentmatrix pop ulx rad add uly rad add translate
  rad rad scale 0 0 1 90 270 arc tMatrix setmatrix lrx rad sub lry rad
  sub translate rad rad scale 0 0 1 270 90 arc tMatrix setmatrix
  closepath} bdef
/FlrRR {MlrRR stroke } bdef
/PlrRR {MlrRR fill } bdef
/MtbRR {/lry xdef /lrx xdef /uly xdef /ulx xdef /rad lrx ulx sub 2 div def
  newpath tMatrix currentmatrix pop ulx rad add uly rad add translate
  rad rad scale 0 0 1 180 360 arc tMatrix setmatrix lrx rad sub lry rad
  sub translate rad rad scale 0 0 1 0 180 arc tMatrix setmatrix
  closepath} bdef
/FtbRR {MtbRR stroke } bdef
/PtbRR {MtbRR fill } bdef
/stri 6 array def /dtri 6 array def
/smat 6 array def /dmat 6 array def
/tmat1 6 array def /tmat2 6 array def /dif 3 array def
/asub {/ind2 exch def /ind1 exch def dup dup
  ind1 get exch ind2 get sub exch } bdef
/tri_to_matrix {
  2 0 asub 3 1 asub 4 0 asub 5 1 asub
  dup 0 get exch 1 get 7 -1 roll astore } bdef
/compute_transform {
  dmat dtri tri_to_matrix tmat1 invertmatrix 
  smat stri tri_to_matrix tmat2 concatmatrix } bdef
/ds {stri astore pop} bdef
/dt {dtri astore pop} bdef
/db {2 copy /cols xdef /rows xdef mul dup 3 mul string
  currentfile 
  3 index 0 eq {/ASCIIHexDecode filter}
  {/ASCII85Decode filter 3 index 2 eq {/RunLengthDecode filter} if }
  ifelse exch readstring pop
  dup 0 3 index getinterval /rbmap xdef
  dup 2 index dup getinterval /gbmap xdef
  1 index dup 2 mul exch getinterval /bbmap xdef pop pop}bdef
/it {gs np dtri aload pop moveto lineto lineto cp c
  cols rows 8 compute_transform 
  rbmap gbmap bbmap true 3 colorimage gr}bdef
/il {newpath moveto lineto stroke}bdef
currentdict end def
%%EndProlog

%%BeginSetup
MathWorks begin

0 cap

end
%%EndSetup

%%Page: 1 1
%%BeginPageSetup
%%PageBoundingBox:    96   238   515   553
MathWorks begin
bpage
%%EndPageSetup

%%BeginObject: obj1
bplot

/dpi2point 12 def
portraitMode 1152 6636 csm

    0     0  5039  3780 rc
86 dict begin %Colortable dictionary
/c0 { 0.000000 0.000000 0.000000 sr} bdef
/c1 { 1.000000 1.000000 1.000000 sr} bdef
/c2 { 0.900000 0.000000 0.000000 sr} bdef
/c3 { 0.000000 0.820000 0.000000 sr} bdef
/c4 { 0.000000 0.000000 0.800000 sr} bdef
/c5 { 0.910000 0.820000 0.320000 sr} bdef
/c6 { 1.000000 0.260000 0.820000 sr} bdef
/c7 { 0.000000 0.820000 0.820000 sr} bdef
c0
1 j
1 sg
   0    0 5040 3781 rf
6 w
0 1263 3905 0 0 -1263 655 1573 4 MP
PP
-3905 0 0 1263 3905 0 0 -1263 655 1573 5 MP stroke
4 w
DO
0 sg
 655 1573 mt  655  310 L
 655  310 mt  655  310 L
1305 1573 mt 1305  310 L
1305  310 mt 1305  310 L
1956 1573 mt 1956  310 L
1956  310 mt 1956  310 L
2607 1573 mt 2607  310 L
2607  310 mt 2607  310 L
3258 1573 mt 3258  310 L
3258  310 mt 3258  310 L
3909 1573 mt 3909  310 L
3909  310 mt 3909  310 L
4560 1573 mt 4560  310 L
4560  310 mt 4560  310 L
 655 1573 mt 4560 1573 L
4560 1573 mt 4560 1573 L
 655 1152 mt 4560 1152 L
4560 1152 mt 4560 1152 L
 655  731 mt 4560  731 L
4560  731 mt 4560  731 L
 655  310 mt 4560  310 L
4560  310 mt 4560  310 L
SO
6 w
 655  310 mt 4560  310 L
 655 1573 mt 4560 1573 L
4560 1573 mt 4560  310 L
 655 1573 mt  655  310 L
 655 1573 mt 4560 1573 L
 655 1573 mt  655  310 L
 655 1573 mt  655 1533 L
 655  310 mt  655  349 L
%%IncludeResource: font Helvetica
/Helvetica /WindowsLatin1Encoding 120 FMSR

 622 1718 mt 
(0) s
1305 1573 mt 1305 1533 L
1305  310 mt 1305  349 L
1272 1718 mt 
(5) s
1956 1573 mt 1956 1533 L
1956  310 mt 1956  349 L
1890 1718 mt 
(10) s
2607 1573 mt 2607 1533 L
2607  310 mt 2607  349 L
2541 1718 mt 
(15) s
3258 1573 mt 3258 1533 L
3258  310 mt 3258  349 L
3192 1718 mt 
(20) s
3909 1573 mt 3909 1533 L
3909  310 mt 3909  349 L
3843 1718 mt 
(25) s
4560 1573 mt 4560 1533 L
4560  310 mt 4560  349 L
4494 1718 mt 
(30) s
 655 1573 mt  694 1573 L
4560 1573 mt 4520 1573 L
 554 1617 mt 
(0) s
 655 1152 mt  694 1152 L
4560 1152 mt 4520 1152 L
 554 1196 mt 
(1) s
 655  731 mt  694  731 L
4560  731 mt 4520  731 L
 554  775 mt 
(2) s
 655  310 mt  694  310 L
4560  310 mt 4520  310 L
 554  354 mt 
(3) s
 655  310 mt 4560  310 L
 655 1573 mt 4560 1573 L
4560 1573 mt 4560  310 L
 655 1573 mt  655  310 L
gs 655 310 3906 1264 rc
/c8 { 1.000000 0.000000 0.000000 sr} bdef
c8
130 1 130 1 130 1 130 2 130 3 131 2 130 4 130 3 
130 4 130 4 130 4 131 5 130 4 130 5 130 5 130 5 
130 4 131 5 130 4 130 4 130 4 130 3 130 4 131 2 
130 3 130 2 130 1 130 1 130 1 720 1106 30 MP stroke
gr

c8
gs 647 1033 3921 238 rc
/c9 { 0.000000 0.000000 1.000000 sr} bdef
c9
  36   36  720 1106 FO
  36   36  850 1107 FO
  36   36  980 1108 FO
  36   36 1110 1109 FO
  36   36 1240 1111 FO
  36   36 1370 1114 FO
  36   36 1501 1116 FO
  36   36 1631 1120 FO
  36   36 1761 1123 FO
  36   36 1891 1127 FO
  36   36 2021 1131 FO
  36   36 2151 1135 FO
  36   36 2282 1140 FO
  36   36 2412 1144 FO
  36   36 2542 1149 FO
  36   36 2672 1154 FO
  36   36 2802 1159 FO
  36   36 2932 1163 FO
  36   36 3063 1168 FO
  36   36 3193 1172 FO
  36   36 3323 1176 FO
  36   36 3453 1180 FO
  36   36 3583 1183 FO
  36   36 3713 1187 FO
  36   36 3844 1189 FO
  36   36 3974 1192 FO
  36   36 4104 1194 FO
  36   36 4234 1195 FO
  36   36 4364 1196 FO
  36   36 4494 1197 FO
gr

c9
gs 655 310 3906 1264 rc
gr

gs 647 1038 3921 228 rc
/c10 { 0.000000 1.000000 0.000000 sr} bdef
c10
 684 1111 mt  756 1111 L
 720 1075 mt  720 1147 L
 814 1111 mt  886 1111 L
 850 1075 mt  850 1147 L
 944 1112 mt 1016 1112 L
 980 1076 mt  980 1148 L
1074 1113 mt 1146 1113 L
1110 1077 mt 1110 1149 L
1204 1115 mt 1276 1115 L
1240 1079 mt 1240 1151 L
1334 1117 mt 1406 1117 L
1370 1081 mt 1370 1153 L
1465 1120 mt 1537 1120 L
1501 1084 mt 1501 1156 L
1595 1123 mt 1667 1123 L
1631 1087 mt 1631 1159 L
1725 1126 mt 1797 1126 L
1761 1090 mt 1761 1162 L
1855 1129 mt 1927 1129 L
1891 1093 mt 1891 1165 L
1985 1133 mt 2057 1133 L
2021 1097 mt 2021 1169 L
2115 1137 mt 2187 1137 L
2151 1101 mt 2151 1173 L
2246 1141 mt 2318 1141 L
2282 1105 mt 2282 1177 L
2376 1145 mt 2448 1145 L
2412 1109 mt 2412 1181 L
2506 1149 mt 2578 1149 L
2542 1113 mt 2542 1185 L
2636 1154 mt 2708 1154 L
2672 1118 mt 2672 1190 L
2766 1158 mt 2838 1158 L
2802 1122 mt 2802 1194 L
2896 1162 mt 2968 1162 L
2932 1126 mt 2932 1198 L
3027 1166 mt 3099 1166 L
3063 1130 mt 3063 1202 L
3157 1170 mt 3229 1170 L
3193 1134 mt 3193 1206 L
3287 1174 mt 3359 1174 L
3323 1138 mt 3323 1210 L
3417 1177 mt 3489 1177 L
3453 1141 mt 3453 1213 L
3547 1180 mt 3619 1180 L
3583 1144 mt 3583 1216 L
3677 1183 mt 3749 1183 L
3713 1147 mt 3713 1219 L
3808 1186 mt 3880 1186 L
3844 1150 mt 3844 1222 L
3938 1188 mt 4010 1188 L
3974 1152 mt 3974 1224 L
4068 1190 mt 4140 1190 L
4104 1154 mt 4104 1226 L
4198 1191 mt 4270 1191 L
4234 1155 mt 4234 1227 L
4328 1192 mt 4400 1192 L
4364 1156 mt 4364 1228 L
4458 1192 mt 4530 1192 L
4494 1156 mt 4494 1228 L
gr

c10
gs 655 310 3906 1264 rc
gr

0 sg
2576 1861 mt 
(x) s
 472 1278 mt  -90 rotate
(Temperature) s
90 rotate
1439  215 mt 
(Temperature for k = 0.001 at time = 0.29659) s
 638 1616 mt 
( ) s
4544  352 mt 
( ) s
1 sg
0 1263 3905 0 0 -1263 655 3364 4 MP
PP
-3905 0 0 1263 3905 0 0 -1263 655 3364 5 MP stroke
4 w
DO
0 sg
 655 3364 mt  655 2101 L
 655 2101 mt  655 2101 L
1305 3364 mt 1305 2101 L
1305 2101 mt 1305 2101 L
1956 3364 mt 1956 2101 L
1956 2101 mt 1956 2101 L
2607 3364 mt 2607 2101 L
2607 2101 mt 2607 2101 L
3258 3364 mt 3258 2101 L
3258 2101 mt 3258 2101 L
3909 3364 mt 3909 2101 L
3909 2101 mt 3909 2101 L
4560 3364 mt 4560 2101 L
4560 2101 mt 4560 2101 L
 655 3364 mt 4560 3364 L
4560 3364 mt 4560 3364 L
 655 3083 mt 4560 3083 L
4560 3083 mt 4560 3083 L
 655 2802 mt 4560 2802 L
4560 2802 mt 4560 2802 L
 655 2522 mt 4560 2522 L
4560 2522 mt 4560 2522 L
 655 2241 mt 4560 2241 L
4560 2241 mt 4560 2241 L
SO
6 w
 655 2101 mt 4560 2101 L
 655 3364 mt 4560 3364 L
4560 3364 mt 4560 2101 L
 655 3364 mt  655 2101 L
 655 3364 mt 4560 3364 L
 655 3364 mt  655 2101 L
 655 3364 mt  655 3324 L
 655 2101 mt  655 2140 L
 622 3509 mt 
(0) s
1305 3364 mt 1305 3324 L
1305 2101 mt 1305 2140 L
1272 3509 mt 
(5) s
1956 3364 mt 1956 3324 L
1956 2101 mt 1956 2140 L
1890 3509 mt 
(10) s
2607 3364 mt 2607 3324 L
2607 2101 mt 2607 2140 L
2541 3509 mt 
(15) s
3258 3364 mt 3258 3324 L
3258 2101 mt 3258 2140 L
3192 3509 mt 
(20) s
3909 3364 mt 3909 3324 L
3909 2101 mt 3909 2140 L
3843 3509 mt 
(25) s
4560 3364 mt 4560 3324 L
4560 2101 mt 4560 2140 L
4494 3509 mt 
(30) s
 655 3364 mt  694 3364 L
4560 3364 mt 4520 3364 L
 317 3408 mt 
(-0.04) s
 655 3083 mt  694 3083 L
4560 3083 mt 4520 3083 L
 317 3127 mt 
(-0.02) s
 655 2802 mt  694 2802 L
4560 2802 mt 4520 2802 L
 554 2846 mt 
(0) s
 655 2522 mt  694 2522 L
4560 2522 mt 4520 2522 L
 387 2566 mt 
(0.02) s
 655 2241 mt  694 2241 L
4560 2241 mt 4520 2241 L
 387 2285 mt 
(0.04) s
 655 2101 mt 4560 2101 L
 655 3364 mt 4560 3364 L
4560 3364 mt 4560 2101 L
 655 3364 mt  655 2101 L
gs 655 2101 3906 1264 rc
gr

gs 647 2724 3921 160 rc
c9
  36   36  720 2807 FO
  36   36  850 2808 FO
  36   36  980 2806 FO
  36   36 1110 2807 FO
  36   36 1240 2807 FO
  36   36 1370 2807 FO
  36   36 1501 2802 FO
  36   36 1631 2801 FO
  36   36 1761 2803 FO
  36   36 1891 2807 FO
  36   36 2021 2803 FO
  36   36 2151 2801 FO
  36   36 2282 2810 FO
  36   36 2412 2802 FO
  36   36 2542 2806 FO
  36   36 2672 2798 FO
  36   36 2802 2799 FO
  36   36 2932 2801 FO
  36   36 3063 2798 FO
  36   36 3193 2804 FO
  36   36 3323 2798 FO
  36   36 3453 2799 FO
  36   36 3583 2799 FO
  36   36 3713 2800 FO
  36   36 3844 2800 FO
  36   36 3974 2801 FO
  36   36 4104 2797 FO
  36   36 4234 2798 FO
  36   36 4364 2798 FO
  36   36 4494 2799 FO
gr

c9
gs 655 2101 3906 1264 rc
gr

gs 647 2587 3921 431 rc
c10
 684 2660 mt  756 2660 L
 720 2624 mt  720 2696 L
 814 2662 mt  886 2662 L
 850 2626 mt  850 2698 L
 944 2665 mt 1016 2665 L
 980 2629 mt  980 2701 L
1074 2669 mt 1146 2669 L
1110 2633 mt 1110 2705 L
1204 2675 mt 1276 2675 L
1240 2639 mt 1240 2711 L
1334 2683 mt 1406 2683 L
1370 2647 mt 1370 2719 L
1465 2692 mt 1537 2692 L
1501 2656 mt 1501 2728 L
1595 2702 mt 1667 2702 L
1631 2666 mt 1631 2738 L
1725 2713 mt 1797 2713 L
1761 2677 mt 1761 2749 L
1855 2725 mt 1927 2725 L
1891 2689 mt 1891 2761 L
1985 2738 mt 2057 2738 L
2021 2702 mt 2021 2774 L
2115 2751 mt 2187 2751 L
2151 2715 mt 2151 2787 L
2246 2765 mt 2318 2765 L
2282 2729 mt 2282 2801 L
2376 2780 mt 2448 2780 L
2412 2744 mt 2412 2816 L
2506 2795 mt 2578 2795 L
2542 2759 mt 2542 2831 L
2636 2810 mt 2708 2810 L
2672 2774 mt 2672 2846 L
2766 2824 mt 2838 2824 L
2802 2788 mt 2802 2860 L
2896 2839 mt 2968 2839 L
2932 2803 mt 2932 2875 L
3027 2853 mt 3099 2853 L
3063 2817 mt 3063 2889 L
3157 2867 mt 3229 2867 L
3193 2831 mt 3193 2903 L
3287 2880 mt 3359 2880 L
3323 2844 mt 3323 2916 L
3417 2892 mt 3489 2892 L
3453 2856 mt 3453 2928 L
3547 2903 mt 3619 2903 L
3583 2867 mt 3583 2939 L
3677 2913 mt 3749 2913 L
3713 2877 mt 3713 2949 L
3808 2922 mt 3880 2922 L
3844 2886 mt 3844 2958 L
3938 2929 mt 4010 2929 L
3974 2893 mt 3974 2965 L
4068 2935 mt 4140 2935 L
4104 2899 mt 4104 2971 L
4198 2940 mt 4270 2940 L
4234 2904 mt 4234 2976 L
4328 2943 mt 4400 2943 L
4364 2907 mt 4364 2979 L
4458 2944 mt 4530 2944 L
4494 2908 mt 4494 2980 L
gr

c10
gs 655 2101 3906 1264 rc
gr

0 sg
2576 3652 mt 
(x) s
%%IncludeResource: font Symbol
/Symbol /WindowsLatin1Encoding 120 FMSR

 227 3126 mt  -90 rotate
(D) s
90 rotate
%%IncludeResource: font Helvetica
/Helvetica /WindowsLatin1Encoding 120 FMSR

 227 3053 mt  -90 rotate
( Temperature) s
90 rotate
1512 2006 mt 
(Residuals for k = 0.001 at time = 0.29659) s
 638 3407 mt 
( ) s
4544 2143 mt 
( ) s
1 sg
0 480 1020 0 0 -480 3481 850 4 MP
PP
-1020 0 0 480 1020 0 0 -480 3481 850 5 MP stroke
4 w
DO
SO
6 w
0 sg
3481  370 mt 4501  370 L
3481  850 mt 4501  850 L
4501  850 mt 4501  370 L
3481  850 mt 3481  370 L
3481  850 mt 4501  850 L
3481  850 mt 3481  370 L
3481  370 mt 4501  370 L
3481  850 mt 4501  850 L
4501  850 mt 4501  370 L
3481  850 mt 3481  370 L
3943  505 mt 
(Analytical) s
gs 3481 370 1021 481 rc
c8
355 0 3551 462 2 MP stroke
gr

c8
0 sg
3943  653 mt 
(MCMC) s
gs 3481 370 1021 481 rc
gs 3656 537 147 147 rc
c9
  36   36 3729  610 FO
gr

c9
gr

c9
0 sg
3943  801 mt 
(DHW) s
gs 3481 370 1021 481 rc
gs 3656 684 147 147 rc
c10
3693  757 mt 3765  757 L
3729  721 mt 3729  793 L
gr

c10
gr

c10
1 sg
0 334 880 0 0 -334 3621 2495 4 MP
PP
-880 0 0 334 880 0 0 -334 3621 2495 5 MP stroke
4 w
DO
SO
6 w
0 sg
3621 2161 mt 4501 2161 L
3621 2495 mt 4501 2495 L
4501 2495 mt 4501 2161 L
3621 2495 mt 3621 2161 L
3621 2495 mt 4501 2495 L
3621 2495 mt 3621 2161 L
3621 2161 mt 4501 2161 L
3621 2495 mt 4501 2495 L
4501 2495 mt 4501 2161 L
3621 2495 mt 3621 2161 L
4088 2296 mt 
(MCMC) s
gs 3621 2161 881 335 rc
gs 3799 2180 147 147 rc
c9
  36   36 3872 2253 FO
gr

c9
gr

c9
0 sg
4088 2445 mt 
(DHW) s
gs 3621 2161 881 335 rc
gs 3799 2329 147 147 rc
c10
3836 2402 mt 3908 2402 L
3872 2366 mt 3872 2438 L
gr

c10
gr

c10

end %%Color Dict

eplot
%%EndObject

epage
end

showpage

%%Trailer
%%EOF
