%!PS-Adobe-3.0 EPSF-3.0
%%Creator: MATLAB, The Mathworks, Inc. Version 7.10.0.499 (R2010a). Operating System: Microsoft Windows 7.
%%Title: C:\Users\Gembarovic\Documents\MATLAB\Rozsyp\theFirst.eps
%%CreationDate: 04/30/2016  12:25:16
%%DocumentNeededFonts: Helvetica
%%DocumentProcessColors: Cyan Magenta Yellow Black
%%LanguageLevel: 2
%%Pages: 1
%%BoundingBox:    96   238   515   553
%%EndComments

%%BeginProlog
% MathWorks dictionary
/MathWorks 160 dict begin
% definition operators
/bdef {bind def} bind def
/ldef {load def} bind def
/xdef {exch def} bdef
/xstore {exch store} bdef
% operator abbreviations
/c  /clip ldef
/cc /concat ldef
/cp /closepath ldef
/gr /grestore ldef
/gs /gsave ldef
/mt /moveto ldef
/np /newpath ldef
/cm /currentmatrix ldef
/sm /setmatrix ldef
/rm /rmoveto ldef
/rl /rlineto ldef
/s {show newpath} bdef
/sc {setcmykcolor} bdef
/sr /setrgbcolor ldef
/sg /setgray ldef
/w /setlinewidth ldef
/j /setlinejoin ldef
/cap /setlinecap ldef
/rc {rectclip} bdef
/rf {rectfill} bdef
% page state control
/pgsv () def
/bpage {/pgsv save def} bdef
/epage {pgsv restore} bdef
/bplot /gsave ldef
/eplot {stroke grestore} bdef
% orientation switch
/portraitMode 0 def /landscapeMode 1 def /rotateMode 2 def
% coordinate system mappings
/dpi2point 0 def
% font control
/FontSize 0 def
/FMS {/FontSize xstore findfont [FontSize 0 0 FontSize neg 0 0]
  makefont setfont} bdef
/ISOLatin1Encoding where {pop /WindowsLatin1Encoding 256 array bdef
ISOLatin1Encoding WindowsLatin1Encoding copy pop
/.notdef/.notdef/quotesinglbase/florin/quotedblbase/ellipsis/dagger
/daggerdbl/circumflex/perthousand/Scaron/guilsinglleft/OE/.notdef/.notdef
/.notdef/.notdef/quoteleft/quoteright/quotedblleft/quotedblright/bullet
/endash/emdash/tilde/trademark/scaron/guilsinglright/oe/.notdef/.notdef
/Ydieresis WindowsLatin1Encoding 128 32 getinterval astore pop}
{/WindowsLatin1Encoding StandardEncoding bdef} ifelse
/reencode {exch dup where {pop load} {pop StandardEncoding} ifelse
  exch dup 3 1 roll findfont dup length dict begin
  { 1 index /FID ne {def}{pop pop} ifelse } forall
  /Encoding exch def currentdict end definefont pop} bdef
/isroman {findfont /CharStrings get /Agrave known} bdef
/FMSR {3 1 roll 1 index dup isroman {reencode} {pop pop} ifelse
  exch FMS} bdef
/csm {1 dpi2point div -1 dpi2point div scale neg translate
 dup landscapeMode eq {pop -90 rotate}
  {rotateMode eq {90 rotate} if} ifelse} bdef
% line types: solid, dotted, dashed, dotdash
/SO { [] 0 setdash } bdef
/DO { [.5 dpi2point mul 4 dpi2point mul] 0 setdash } bdef
/DA { [6 dpi2point mul] 0 setdash } bdef
/DD { [.5 dpi2point mul 4 dpi2point mul 6 dpi2point mul 4
  dpi2point mul] 0 setdash } bdef
% macros for lines and objects
/L {lineto stroke} bdef
/MP {3 1 roll moveto 1 sub {rlineto} repeat} bdef
/AP {{rlineto} repeat} bdef
/PDlw -1 def
/W {/PDlw currentlinewidth def setlinewidth} def
/PP {closepath eofill} bdef
/DP {closepath stroke} bdef
/MR {4 -2 roll moveto dup  0 exch rlineto exch 0 rlineto
  neg 0 exch rlineto closepath} bdef
/FR {MR stroke} bdef
/PR {MR fill} bdef
/L1i {{currentfile picstr readhexstring pop} image} bdef
/tMatrix matrix def
/MakeOval {newpath tMatrix currentmatrix pop translate scale
0 0 1 0 360 arc tMatrix setmatrix} bdef
/FO {MakeOval stroke} bdef
/PO {MakeOval fill} bdef
/PD {currentlinewidth 2 div 0 360 arc fill
   PDlw -1 eq not {PDlw w /PDlw -1 def} if} def
/FA {newpath tMatrix currentmatrix pop translate scale
  0 0 1 5 -2 roll arc tMatrix setmatrix stroke} bdef
/PA {newpath tMatrix currentmatrix pop	translate 0 0 moveto scale
  0 0 1 5 -2 roll arc closepath tMatrix setmatrix fill} bdef
/FAn {newpath tMatrix currentmatrix pop translate scale
  0 0 1 5 -2 roll arcn tMatrix setmatrix stroke} bdef
/PAn {newpath tMatrix currentmatrix pop translate 0 0 moveto scale
  0 0 1 5 -2 roll arcn closepath tMatrix setmatrix fill} bdef
/vradius 0 def /hradius 0 def /lry 0 def
/lrx 0 def /uly 0 def /ulx 0 def /rad 0 def
/MRR {/vradius xdef /hradius xdef /lry xdef /lrx xdef /uly xdef
  /ulx xdef newpath tMatrix currentmatrix pop ulx hradius add uly
  vradius add translate hradius vradius scale 0 0 1 180 270 arc 
  tMatrix setmatrix lrx hradius sub uly vradius add translate
  hradius vradius scale 0 0 1 270 360 arc tMatrix setmatrix
  lrx hradius sub lry vradius sub translate hradius vradius scale
  0 0 1 0 90 arc tMatrix setmatrix ulx hradius add lry vradius sub
  translate hradius vradius scale 0 0 1 90 180 arc tMatrix setmatrix
  closepath} bdef
/FRR {MRR stroke } bdef
/PRR {MRR fill } bdef
/MlrRR {/lry xdef /lrx xdef /uly xdef /ulx xdef /rad lry uly sub 2 div def
  newpath tMatrix currentmatrix pop ulx rad add uly rad add translate
  rad rad scale 0 0 1 90 270 arc tMatrix setmatrix lrx rad sub lry rad
  sub translate rad rad scale 0 0 1 270 90 arc tMatrix setmatrix
  closepath} bdef
/FlrRR {MlrRR stroke } bdef
/PlrRR {MlrRR fill } bdef
/MtbRR {/lry xdef /lrx xdef /uly xdef /ulx xdef /rad lrx ulx sub 2 div def
  newpath tMatrix currentmatrix pop ulx rad add uly rad add translate
  rad rad scale 0 0 1 180 360 arc tMatrix setmatrix lrx rad sub lry rad
  sub translate rad rad scale 0 0 1 0 180 arc tMatrix setmatrix
  closepath} bdef
/FtbRR {MtbRR stroke } bdef
/PtbRR {MtbRR fill } bdef
/stri 6 array def /dtri 6 array def
/smat 6 array def /dmat 6 array def
/tmat1 6 array def /tmat2 6 array def /dif 3 array def
/asub {/ind2 exch def /ind1 exch def dup dup
  ind1 get exch ind2 get sub exch } bdef
/tri_to_matrix {
  2 0 asub 3 1 asub 4 0 asub 5 1 asub
  dup 0 get exch 1 get 7 -1 roll astore } bdef
/compute_transform {
  dmat dtri tri_to_matrix tmat1 invertmatrix 
  smat stri tri_to_matrix tmat2 concatmatrix } bdef
/ds {stri astore pop} bdef
/dt {dtri astore pop} bdef
/db {2 copy /cols xdef /rows xdef mul dup 3 mul string
  currentfile 
  3 index 0 eq {/ASCIIHexDecode filter}
  {/ASCII85Decode filter 3 index 2 eq {/RunLengthDecode filter} if }
  ifelse exch readstring pop
  dup 0 3 index getinterval /rbmap xdef
  dup 2 index dup getinterval /gbmap xdef
  1 index dup 2 mul exch getinterval /bbmap xdef pop pop}bdef
/it {gs np dtri aload pop moveto lineto lineto cp c
  cols rows 8 compute_transform 
  rbmap gbmap bbmap true 3 colorimage gr}bdef
/il {newpath moveto lineto stroke}bdef
currentdict end def
%%EndProlog

%%BeginSetup
MathWorks begin

0 cap

end
%%EndSetup

%%Page: 1 1
%%BeginPageSetup
%%PageBoundingBox:    96   238   515   553
MathWorks begin
bpage
%%EndPageSetup

%%BeginObject: obj1
bplot

/dpi2point 12 def
portraitMode 1152 6636 csm

    0     0  5039  3780 rc
86 dict begin %Colortable dictionary
/c0 { 0.000000 0.000000 0.000000 sr} bdef
/c1 { 1.000000 1.000000 1.000000 sr} bdef
/c2 { 0.900000 0.000000 0.000000 sr} bdef
/c3 { 0.000000 0.820000 0.000000 sr} bdef
/c4 { 0.000000 0.000000 0.800000 sr} bdef
/c5 { 0.910000 0.820000 0.320000 sr} bdef
/c6 { 1.000000 0.260000 0.820000 sr} bdef
/c7 { 0.000000 0.820000 0.820000 sr} bdef
c0
1 j
1 sg
   0    0 5040 3781 rf
6 w
0 1263 3905 0 0 -1263 655 1573 4 MP
PP
-3905 0 0 1263 3905 0 0 -1263 655 1573 5 MP stroke
4 w
DO
0 sg
 655 1573 mt  655  310 L
 655  310 mt  655  310 L
1305 1573 mt 1305  310 L
1305  310 mt 1305  310 L
1956 1573 mt 1956  310 L
1956  310 mt 1956  310 L
2607 1573 mt 2607  310 L
2607  310 mt 2607  310 L
3258 1573 mt 3258  310 L
3258  310 mt 3258  310 L
3909 1573 mt 3909  310 L
3909  310 mt 3909  310 L
4560 1573 mt 4560  310 L
4560  310 mt 4560  310 L
 655 1573 mt 4560 1573 L
4560 1573 mt 4560 1573 L
 655 1152 mt 4560 1152 L
4560 1152 mt 4560 1152 L
 655  731 mt 4560  731 L
4560  731 mt 4560  731 L
 655  310 mt 4560  310 L
4560  310 mt 4560  310 L
SO
6 w
 655  310 mt 4560  310 L
 655 1573 mt 4560 1573 L
4560 1573 mt 4560  310 L
 655 1573 mt  655  310 L
 655 1573 mt 4560 1573 L
 655 1573 mt  655  310 L
 655 1573 mt  655 1533 L
 655  310 mt  655  349 L
%%IncludeResource: font Helvetica
/Helvetica /WindowsLatin1Encoding 120 FMSR

 622 1718 mt 
(0) s
1305 1573 mt 1305 1533 L
1305  310 mt 1305  349 L
1272 1718 mt 
(5) s
1956 1573 mt 1956 1533 L
1956  310 mt 1956  349 L
1890 1718 mt 
(10) s
2607 1573 mt 2607 1533 L
2607  310 mt 2607  349 L
2541 1718 mt 
(15) s
3258 1573 mt 3258 1533 L
3258  310 mt 3258  349 L
3192 1718 mt 
(20) s
3909 1573 mt 3909 1533 L
3909  310 mt 3909  349 L
3843 1718 mt 
(25) s
4560 1573 mt 4560 1533 L
4560  310 mt 4560  349 L
4494 1718 mt 
(30) s
 655 1573 mt  694 1573 L
4560 1573 mt 4520 1573 L
 554 1617 mt 
(0) s
 655 1152 mt  694 1152 L
4560 1152 mt 4520 1152 L
 554 1196 mt 
(1) s
 655  731 mt  694  731 L
4560  731 mt 4520  731 L
 554  775 mt 
(2) s
 655  310 mt  694  310 L
4560  310 mt 4520  310 L
 554  354 mt 
(3) s
 655  310 mt 4560  310 L
 655 1573 mt 4560 1573 L
4560 1573 mt 4560  310 L
 655 1573 mt  655  310 L
gs 655 310 3906 1264 rc
/c8 { 1.000000 0.000000 0.000000 sr} bdef
c8
130 1 130 1 130 2 130 3 130 4 131 6 130 8 130 11 
130 14 130 19 130 23 131 30 130 36 130 43 130 52 130 59 
130 68 131 75 130 83 130 87 130 90 130 92 130 89 131 85 
130 76 130 66 130 52 130 35 130 19 720 341 30 MP stroke
gr

c8
gs 647 269 3921 1374 rc
/c9 { 0.000000 0.000000 1.000000 sr} bdef
c9
  36   36  720  342 FO
  36   36  850  359 FO
  36   36  980  396 FO
  36   36 1110  446 FO
  36   36 1240  515 FO
  36   36 1370  590 FO
  36   36 1501  671 FO
  36   36 1631  764 FO
  36   36 1761  859 FO
  36   36 1891  943 FO
  36   36 2021 1032 FO
  36   36 2151 1115 FO
  36   36 2282 1193 FO
  36   36 2412 1257 FO
  36   36 2542 1316 FO
  36   36 2672 1369 FO
  36   36 2802 1412 FO
  36   36 2932 1447 FO
  36   36 3063 1478 FO
  36   36 3193 1500 FO
  36   36 3323 1519 FO
  36   36 3453 1533 FO
  36   36 3583 1544 FO
  36   36 3713 1552 FO
  36   36 3844 1558 FO
  36   36 3974 1562 FO
  36   36 4104 1565 FO
  36   36 4234 1567 FO
  36   36 4364 1569 FO
  36   36 4494 1569 FO
gs 655 310 3906 1264 rc
gr

gs 647 289 3921 1354 rc
/c10 { 0.000000 1.000000 0.000000 sr} bdef
c10
 684  362 mt  756  362 L
 720  326 mt  720  398 L
 814  379 mt  886  379 L
 850  343 mt  850  415 L
 944  414 mt 1016  414 L
 980  378 mt  980  450 L
1074  463 mt 1146  463 L
1110  427 mt 1110  499 L
1204  526 mt 1276  526 L
1240  490 mt 1240  562 L
1334  599 mt 1406  599 L
1370  563 mt 1370  635 L
1465  680 mt 1537  680 L
1501  644 mt 1501  716 L
1595  766 mt 1667  766 L
1631  730 mt 1631  802 L
1725  855 mt 1797  855 L
1761  819 mt 1761  891 L
1855  942 mt 1927  942 L
1891  906 mt 1891  978 L
1985 1027 mt 2057 1027 L
2021  991 mt 2021 1063 L
2115 1108 mt 2187 1108 L
2151 1072 mt 2151 1144 L
2246 1182 mt 2318 1182 L
2282 1146 mt 2282 1218 L
2376 1249 mt 2448 1249 L
2412 1213 mt 2412 1285 L
2506 1308 mt 2578 1308 L
2542 1272 mt 2542 1344 L
2636 1359 mt 2708 1359 L
2672 1323 mt 2672 1395 L
2766 1403 mt 2838 1403 L
2802 1367 mt 2802 1439 L
2896 1440 mt 2968 1440 L
2932 1404 mt 2932 1476 L
3027 1470 mt 3099 1470 L
3063 1434 mt 3063 1506 L
3157 1495 mt 3229 1495 L
3193 1459 mt 3193 1531 L
3287 1514 mt 3359 1514 L
3323 1478 mt 3323 1550 L
3417 1529 mt 3489 1529 L
3453 1493 mt 3453 1565 L
3547 1541 mt 3619 1541 L
3583 1505 mt 3583 1577 L
3677 1550 mt 3749 1550 L
3713 1514 mt 3713 1586 L
3808 1556 mt 3880 1556 L
3844 1520 mt 3844 1592 L
3938 1561 mt 4010 1561 L
3974 1525 mt 3974 1597 L
4068 1564 mt 4140 1564 L
4104 1528 mt 4104 1600 L
4198 1567 mt 4270 1567 L
4234 1531 mt 4234 1603 L
4328 1568 mt 4400 1568 L
4364 1532 mt 4364 1604 L
4458 1569 mt 4530 1569 L
4494 1533 mt 4494 1605 L
gs 655 310 3906 1264 rc
gr
gr
gr

c10
0 sg
2576 1861 mt 
(x) s
 472 1278 mt  -90 rotate
(Temperature) s
90 rotate
1406  215 mt 
(Temperature for k = 0.001 at time = 0.037074) s
 638 1616 mt 
( ) s
4544  352 mt 
( ) s
1 sg
0 480 1020 0 0 -480 3481 850 4 MP
PP
-1020 0 0 480 1020 0 0 -480 3481 850 5 MP stroke
4 w
DO
SO
6 w
0 sg
3481  370 mt 4501  370 L
3481  850 mt 4501  850 L
4501  850 mt 4501  370 L
3481  850 mt 3481  370 L
3481  850 mt 4501  850 L
3481  850 mt 3481  370 L
3481  370 mt 4501  370 L
3481  850 mt 4501  850 L
4501  850 mt 4501  370 L
3481  850 mt 3481  370 L
3943  505 mt 
(Analytical) s
gs 3481 370 1021 481 rc
c8
355 0 3551 462 2 MP stroke
gr

c8
0 sg
3943  653 mt 
(MCMC) s
gs 3481 370 1021 481 rc
gs 3656 537 147 147 rc
c9
  36   36 3729  610 FO
gr

c9
gr

c9
0 sg
3943  801 mt 
(DHW) s
gs 3481 370 1021 481 rc
gs 3656 684 147 147 rc
c10
3693  757 mt 3765  757 L
3729  721 mt 3729  793 L
gr

c10
gr

c10
1 sg
0 1263 3905 0 0 -1263 655 3364 4 MP
PP
-3905 0 0 1263 3905 0 0 -1263 655 3364 5 MP stroke
4 w
DO
0 sg
 655 3364 mt  655 2101 L
 655 2101 mt  655 2101 L
1305 3364 mt 1305 2101 L
1305 2101 mt 1305 2101 L
1956 3364 mt 1956 2101 L
1956 2101 mt 1956 2101 L
2607 3364 mt 2607 2101 L
2607 2101 mt 2607 2101 L
3258 3364 mt 3258 2101 L
3258 2101 mt 3258 2101 L
3909 3364 mt 3909 2101 L
3909 2101 mt 3909 2101 L
4560 3364 mt 4560 2101 L
4560 2101 mt 4560 2101 L
 655 3364 mt 4560 3364 L
4560 3364 mt 4560 3364 L
 655 3083 mt 4560 3083 L
4560 3083 mt 4560 3083 L
 655 2802 mt 4560 2802 L
4560 2802 mt 4560 2802 L
 655 2522 mt 4560 2522 L
4560 2522 mt 4560 2522 L
 655 2241 mt 4560 2241 L
4560 2241 mt 4560 2241 L
SO
6 w
 655 2101 mt 4560 2101 L
 655 3364 mt 4560 3364 L
4560 3364 mt 4560 2101 L
 655 3364 mt  655 2101 L
 655 3364 mt 4560 3364 L
 655 3364 mt  655 2101 L
 655 3364 mt  655 3324 L
 655 2101 mt  655 2140 L
 622 3509 mt 
(0) s
1305 3364 mt 1305 3324 L
1305 2101 mt 1305 2140 L
1272 3509 mt 
(5) s
1956 3364 mt 1956 3324 L
1956 2101 mt 1956 2140 L
1890 3509 mt 
(10) s
2607 3364 mt 2607 3324 L
2607 2101 mt 2607 2140 L
2541 3509 mt 
(15) s
3258 3364 mt 3258 3324 L
3258 2101 mt 3258 2140 L
3192 3509 mt 
(20) s
3909 3364 mt 3909 3324 L
3909 2101 mt 3909 2140 L
3843 3509 mt 
(25) s
4560 3364 mt 4560 3324 L
4560 2101 mt 4560 2140 L
4494 3509 mt 
(30) s
 655 3364 mt  694 3364 L
4560 3364 mt 4520 3364 L
 317 3408 mt 
(-0.04) s
 655 3083 mt  694 3083 L
4560 3083 mt 4520 3083 L
 317 3127 mt 
(-0.02) s
 655 2802 mt  694 2802 L
4560 2802 mt 4520 2802 L
 554 2846 mt 
(0) s
 655 2522 mt  694 2522 L
4560 2522 mt 4520 2522 L
 387 2566 mt 
(0.02) s
 655 2241 mt  694 2241 L
4560 2241 mt 4520 2241 L
 387 2285 mt 
(0.04) s
 655 2101 mt 4560 2101 L
 655 3364 mt 4560 3364 L
4560 3364 mt 4560 2101 L
 655 3364 mt  655 2101 L
gs 655 2101 3906 1264 rc
gr

gs 647 2568 3921 391 rc
c9
  36   36  720 2765 FO
  36   36  850 2805 FO
  36   36  980 2779 FO
  36   36 1110 2839 FO
  36   36 1240 2732 FO
  36   36 1370 2781 FO
  36   36 1501 2878 FO
  36   36 1631 2768 FO
  36   36 1761 2641 FO
  36   36 1891 2885 FO
  36   36 2021 2804 FO
  36   36 2151 2802 FO
  36   36 2282 2712 FO
  36   36 2412 2819 FO
  36   36 2542 2841 FO
  36   36 2672 2781 FO
  36   36 2802 2795 FO
  36   36 2932 2834 FO
  36   36 3063 2771 FO
  36   36 3193 2846 FO
  36   36 3323 2831 FO
  36   36 3453 2817 FO
  36   36 3583 2832 FO
  36   36 3713 2817 FO
  36   36 3844 2816 FO
  36   36 3974 2818 FO
  36   36 4104 2816 FO
  36   36 4234 2814 FO
  36   36 4364 2813 FO
  36   36 4494 2811 FO
gr

c9
gs 655 2101 3906 1264 rc
gr

gs 647 2038 3921 1149 rc
c10
 684 2111 mt  756 2111 L
 720 2075 mt  720 2147 L
 814 2139 mt  886 2139 L
 850 2103 mt  850 2175 L
 944 2193 mt 1016 2193 L
 980 2157 mt  980 2229 L
1074 2270 mt 1146 2270 L
1110 2234 mt 1110 2306 L
1204 2365 mt 1276 2365 L
1240 2329 mt 1240 2401 L
1334 2471 mt 1406 2471 L
1370 2435 mt 1370 2507 L
1465 2583 mt 1537 2583 L
1501 2547 mt 1501 2619 L
1595 2697 mt 1667 2697 L
1631 2661 mt 1631 2733 L
1725 2799 mt 1797 2799 L
1761 2763 mt 1761 2835 L
1855 2892 mt 1927 2892 L
1891 2856 mt 1891 2928 L
1985 2970 mt 2057 2970 L
2021 2934 mt 2021 3006 L
2115 3031 mt 2187 3031 L
2151 2995 mt 2151 3067 L
2246 3075 mt 2318 3075 L
2282 3039 mt 2282 3111 L
2376 3102 mt 2448 3102 L
2412 3066 mt 2412 3138 L
2506 3113 mt 2578 3113 L
2542 3077 mt 2542 3149 L
2636 3110 mt 2708 3110 L
2672 3074 mt 2672 3146 L
2766 3096 mt 2838 3096 L
2802 3060 mt 2802 3132 L
2896 3075 mt 2968 3075 L
2932 3039 mt 2932 3111 L
3027 3048 mt 3099 3048 L
3063 3012 mt 3063 3084 L
3157 3018 mt 3229 3018 L
3193 2982 mt 3193 3054 L
3287 2988 mt 3359 2988 L
3323 2952 mt 3323 3024 L
3417 2958 mt 3489 2958 L
3453 2922 mt 3453 2994 L
3547 2931 mt 3619 2931 L
3583 2895 mt 3583 2967 L
3677 2906 mt 3749 2906 L
3713 2870 mt 3713 2942 L
3808 2885 mt 3880 2885 L
3844 2849 mt 3844 2921 L
3938 2868 mt 4010 2868 L
3974 2832 mt 3974 2904 L
4068 2854 mt 4140 2854 L
4104 2818 mt 4104 2890 L
4198 2844 mt 4270 2844 L
4234 2808 mt 4234 2880 L
4328 2838 mt 4400 2838 L
4364 2802 mt 4364 2874 L
4458 2835 mt 4530 2835 L
4494 2799 mt 4494 2871 L
gr

c10
gs 655 2101 3906 1264 rc
gr

0 sg
2576 3652 mt 
(x) s
%%IncludeResource: font Symbol
/Symbol /WindowsLatin1Encoding 120 FMSR

 227 3126 mt  -90 rotate
(D) s
90 rotate
%%IncludeResource: font Helvetica
/Helvetica /WindowsLatin1Encoding 120 FMSR

 227 3053 mt  -90 rotate
( Temperature) s
90 rotate
1478 2006 mt 
(Residuals for k = 0.001 at time = 0.037074) s
 638 3407 mt 
( ) s
4544 2143 mt 
( ) s
1 sg
0 334 880 0 0 -334 3621 2495 4 MP
PP
-880 0 0 334 880 0 0 -334 3621 2495 5 MP stroke
4 w
DO
SO
6 w
0 sg
3621 2161 mt 4501 2161 L
3621 2495 mt 4501 2495 L
4501 2495 mt 4501 2161 L
3621 2495 mt 3621 2161 L
3621 2495 mt 4501 2495 L
3621 2495 mt 3621 2161 L
3621 2161 mt 4501 2161 L
3621 2495 mt 4501 2495 L
4501 2495 mt 4501 2161 L
3621 2495 mt 3621 2161 L
4088 2296 mt 
(MCMC) s
gs 3621 2161 881 335 rc
gs 3799 2180 147 147 rc
c9
  36   36 3872 2253 FO
gr

c9
gr

c9
0 sg
4088 2445 mt 
(DHW) s
gs 3621 2161 881 335 rc
gs 3799 2329 147 147 rc
c10
3836 2402 mt 3908 2402 L
3872 2366 mt 3872 2438 L
gr

c10
gr

c10

end %%Color Dict

eplot
%%EndObject

epage
end

showpage

%%Trailer
%%EOF
