%!PS-Adobe-3.0 EPSF-3.0
%%Creator: MATLAB, The Mathworks, Inc. Version 7.10.0.499 (R2010a). Operating System: Microsoft Windows 7.
%%Title: C:\Users\Gembarovic\Documents\MATLAB\Rozsyp\TheNineth.eps
%%CreationDate: 04/30/2016  12:30:19
%%DocumentNeededFonts: Helvetica
%%DocumentProcessColors: Cyan Magenta Yellow Black
%%LanguageLevel: 2
%%Pages: 1
%%BoundingBox:    96   238   515   553
%%EndComments

%%BeginProlog
% MathWorks dictionary
/MathWorks 160 dict begin
% definition operators
/bdef {bind def} bind def
/ldef {load def} bind def
/xdef {exch def} bdef
/xstore {exch store} bdef
% operator abbreviations
/c  /clip ldef
/cc /concat ldef
/cp /closepath ldef
/gr /grestore ldef
/gs /gsave ldef
/mt /moveto ldef
/np /newpath ldef
/cm /currentmatrix ldef
/sm /setmatrix ldef
/rm /rmoveto ldef
/rl /rlineto ldef
/s {show newpath} bdef
/sc {setcmykcolor} bdef
/sr /setrgbcolor ldef
/sg /setgray ldef
/w /setlinewidth ldef
/j /setlinejoin ldef
/cap /setlinecap ldef
/rc {rectclip} bdef
/rf {rectfill} bdef
% page state control
/pgsv () def
/bpage {/pgsv save def} bdef
/epage {pgsv restore} bdef
/bplot /gsave ldef
/eplot {stroke grestore} bdef
% orientation switch
/portraitMode 0 def /landscapeMode 1 def /rotateMode 2 def
% coordinate system mappings
/dpi2point 0 def
% font control
/FontSize 0 def
/FMS {/FontSize xstore findfont [FontSize 0 0 FontSize neg 0 0]
  makefont setfont} bdef
/ISOLatin1Encoding where {pop /WindowsLatin1Encoding 256 array bdef
ISOLatin1Encoding WindowsLatin1Encoding copy pop
/.notdef/.notdef/quotesinglbase/florin/quotedblbase/ellipsis/dagger
/daggerdbl/circumflex/perthousand/Scaron/guilsinglleft/OE/.notdef/.notdef
/.notdef/.notdef/quoteleft/quoteright/quotedblleft/quotedblright/bullet
/endash/emdash/tilde/trademark/scaron/guilsinglright/oe/.notdef/.notdef
/Ydieresis WindowsLatin1Encoding 128 32 getinterval astore pop}
{/WindowsLatin1Encoding StandardEncoding bdef} ifelse
/reencode {exch dup where {pop load} {pop StandardEncoding} ifelse
  exch dup 3 1 roll findfont dup length dict begin
  { 1 index /FID ne {def}{pop pop} ifelse } forall
  /Encoding exch def currentdict end definefont pop} bdef
/isroman {findfont /CharStrings get /Agrave known} bdef
/FMSR {3 1 roll 1 index dup isroman {reencode} {pop pop} ifelse
  exch FMS} bdef
/csm {1 dpi2point div -1 dpi2point div scale neg translate
 dup landscapeMode eq {pop -90 rotate}
  {rotateMode eq {90 rotate} if} ifelse} bdef
% line types: solid, dotted, dashed, dotdash
/SO { [] 0 setdash } bdef
/DO { [.5 dpi2point mul 4 dpi2point mul] 0 setdash } bdef
/DA { [6 dpi2point mul] 0 setdash } bdef
/DD { [.5 dpi2point mul 4 dpi2point mul 6 dpi2point mul 4
  dpi2point mul] 0 setdash } bdef
% macros for lines and objects
/L {lineto stroke} bdef
/MP {3 1 roll moveto 1 sub {rlineto} repeat} bdef
/AP {{rlineto} repeat} bdef
/PDlw -1 def
/W {/PDlw currentlinewidth def setlinewidth} def
/PP {closepath eofill} bdef
/DP {closepath stroke} bdef
/MR {4 -2 roll moveto dup  0 exch rlineto exch 0 rlineto
  neg 0 exch rlineto closepath} bdef
/FR {MR stroke} bdef
/PR {MR fill} bdef
/L1i {{currentfile picstr readhexstring pop} image} bdef
/tMatrix matrix def
/MakeOval {newpath tMatrix currentmatrix pop translate scale
0 0 1 0 360 arc tMatrix setmatrix} bdef
/FO {MakeOval stroke} bdef
/PO {MakeOval fill} bdef
/PD {currentlinewidth 2 div 0 360 arc fill
   PDlw -1 eq not {PDlw w /PDlw -1 def} if} def
/FA {newpath tMatrix currentmatrix pop translate scale
  0 0 1 5 -2 roll arc tMatrix setmatrix stroke} bdef
/PA {newpath tMatrix currentmatrix pop	translate 0 0 moveto scale
  0 0 1 5 -2 roll arc closepath tMatrix setmatrix fill} bdef
/FAn {newpath tMatrix currentmatrix pop translate scale
  0 0 1 5 -2 roll arcn tMatrix setmatrix stroke} bdef
/PAn {newpath tMatrix currentmatrix pop translate 0 0 moveto scale
  0 0 1 5 -2 roll arcn closepath tMatrix setmatrix fill} bdef
/vradius 0 def /hradius 0 def /lry 0 def
/lrx 0 def /uly 0 def /ulx 0 def /rad 0 def
/MRR {/vradius xdef /hradius xdef /lry xdef /lrx xdef /uly xdef
  /ulx xdef newpath tMatrix currentmatrix pop ulx hradius add uly
  vradius add translate hradius vradius scale 0 0 1 180 270 arc 
  tMatrix setmatrix lrx hradius sub uly vradius add translate
  hradius vradius scale 0 0 1 270 360 arc tMatrix setmatrix
  lrx hradius sub lry vradius sub translate hradius vradius scale
  0 0 1 0 90 arc tMatrix setmatrix ulx hradius add lry vradius sub
  translate hradius vradius scale 0 0 1 90 180 arc tMatrix setmatrix
  closepath} bdef
/FRR {MRR stroke } bdef
/PRR {MRR fill } bdef
/MlrRR {/lry xdef /lrx xdef /uly xdef /ulx xdef /rad lry uly sub 2 div def
  newpath tMatrix currentmatrix pop ulx rad add uly rad add translate
  rad rad scale 0 0 1 90 270 arc tMatrix setmatrix lrx rad sub lry rad
  sub translate rad rad scale 0 0 1 270 90 arc tMatrix setmatrix
  closepath} bdef
/FlrRR {MlrRR stroke } bdef
/PlrRR {MlrRR fill } bdef
/MtbRR {/lry xdef /lrx xdef /uly xdef /ulx xdef /rad lrx ulx sub 2 div def
  newpath tMatrix currentmatrix pop ulx rad add uly rad add translate
  rad rad scale 0 0 1 180 360 arc tMatrix setmatrix lrx rad sub lry rad
  sub translate rad rad scale 0 0 1 0 180 arc tMatrix setmatrix
  closepath} bdef
/FtbRR {MtbRR stroke } bdef
/PtbRR {MtbRR fill } bdef
/stri 6 array def /dtri 6 array def
/smat 6 array def /dmat 6 array def
/tmat1 6 array def /tmat2 6 array def /dif 3 array def
/asub {/ind2 exch def /ind1 exch def dup dup
  ind1 get exch ind2 get sub exch } bdef
/tri_to_matrix {
  2 0 asub 3 1 asub 4 0 asub 5 1 asub
  dup 0 get exch 1 get 7 -1 roll astore } bdef
/compute_transform {
  dmat dtri tri_to_matrix tmat1 invertmatrix 
  smat stri tri_to_matrix tmat2 concatmatrix } bdef
/ds {stri astore pop} bdef
/dt {dtri astore pop} bdef
/db {2 copy /cols xdef /rows xdef mul dup 3 mul string
  currentfile 
  3 index 0 eq {/ASCIIHexDecode filter}
  {/ASCII85Decode filter 3 index 2 eq {/RunLengthDecode filter} if }
  ifelse exch readstring pop
  dup 0 3 index getinterval /rbmap xdef
  dup 2 index dup getinterval /gbmap xdef
  1 index dup 2 mul exch getinterval /bbmap xdef pop pop}bdef
/it {gs np dtri aload pop moveto lineto lineto cp c
  cols rows 8 compute_transform 
  rbmap gbmap bbmap true 3 colorimage gr}bdef
/il {newpath moveto lineto stroke}bdef
currentdict end def
%%EndProlog

%%BeginSetup
MathWorks begin

0 cap

end
%%EndSetup

%%Page: 1 1
%%BeginPageSetup
%%PageBoundingBox:    96   238   515   553
MathWorks begin
bpage
%%EndPageSetup

%%BeginObject: obj1
bplot

/dpi2point 12 def
portraitMode 1152 6636 csm

    0     0  5039  3780 rc
86 dict begin %Colortable dictionary
/c0 { 0.000000 0.000000 0.000000 sr} bdef
/c1 { 1.000000 1.000000 1.000000 sr} bdef
/c2 { 0.900000 0.000000 0.000000 sr} bdef
/c3 { 0.000000 0.820000 0.000000 sr} bdef
/c4 { 0.000000 0.000000 0.800000 sr} bdef
/c5 { 0.910000 0.820000 0.320000 sr} bdef
/c6 { 1.000000 0.260000 0.820000 sr} bdef
/c7 { 0.000000 0.820000 0.820000 sr} bdef
c0
1 j
1 sg
   0    0 5040 3781 rf
6 w
0 1263 3905 0 0 -1263 655 1573 4 MP
PP
-3905 0 0 1263 3905 0 0 -1263 655 1573 5 MP stroke
4 w
DO
0 sg
 655 1573 mt  655  310 L
 655  310 mt  655  310 L
1305 1573 mt 1305  310 L
1305  310 mt 1305  310 L
1956 1573 mt 1956  310 L
1956  310 mt 1956  310 L
2607 1573 mt 2607  310 L
2607  310 mt 2607  310 L
3258 1573 mt 3258  310 L
3258  310 mt 3258  310 L
3909 1573 mt 3909  310 L
3909  310 mt 3909  310 L
4560 1573 mt 4560  310 L
4560  310 mt 4560  310 L
 655 1573 mt 4560 1573 L
4560 1573 mt 4560 1573 L
 655 1152 mt 4560 1152 L
4560 1152 mt 4560 1152 L
 655  731 mt 4560  731 L
4560  731 mt 4560  731 L
 655  310 mt 4560  310 L
4560  310 mt 4560  310 L
SO
6 w
 655  310 mt 4560  310 L
 655 1573 mt 4560 1573 L
4560 1573 mt 4560  310 L
 655 1573 mt  655  310 L
 655 1573 mt 4560 1573 L
 655 1573 mt  655  310 L
 655 1573 mt  655 1533 L
 655  310 mt  655  349 L
%%IncludeResource: font Helvetica
/Helvetica /WindowsLatin1Encoding 120 FMSR

 622 1718 mt 
(0) s
1305 1573 mt 1305 1533 L
1305  310 mt 1305  349 L
1272 1718 mt 
(5) s
1956 1573 mt 1956 1533 L
1956  310 mt 1956  349 L
1890 1718 mt 
(10) s
2607 1573 mt 2607 1533 L
2607  310 mt 2607  349 L
2541 1718 mt 
(15) s
3258 1573 mt 3258 1533 L
3258  310 mt 3258  349 L
3192 1718 mt 
(20) s
3909 1573 mt 3909 1533 L
3909  310 mt 3909  349 L
3843 1718 mt 
(25) s
4560 1573 mt 4560 1533 L
4560  310 mt 4560  349 L
4494 1718 mt 
(30) s
 655 1573 mt  694 1573 L
4560 1573 mt 4520 1573 L
 554 1617 mt 
(0) s
 655 1152 mt  694 1152 L
4560 1152 mt 4520 1152 L
 554 1196 mt 
(1) s
 655  731 mt  694  731 L
4560  731 mt 4520  731 L
 554  775 mt 
(2) s
 655  310 mt  694  310 L
4560  310 mt 4520  310 L
 554  354 mt 
(3) s
 655  310 mt 4560  310 L
 655 1573 mt 4560 1573 L
4560 1573 mt 4560  310 L
 655 1573 mt  655  310 L
gs 655 310 3906 1264 rc
/c8 { 1.000000 0.000000 0.000000 sr} bdef
c8
130 1 130 0 130 1 130 2 130 1 131 2 130 2 130 3 
130 2 130 3 130 3 131 3 130 4 130 3 130 3 130 3 
130 4 131 3 130 3 130 3 130 2 130 3 130 2 131 2 
130 1 130 2 130 1 130 0 130 1 720 1120 30 MP stroke
gr

c8
gs 647 1047 3921 210 rc
/c9 { 0.000000 0.000000 1.000000 sr} bdef
c9
  36   36  720 1120 FO
  36   36  850 1121 FO
  36   36  980 1121 FO
  36   36 1110 1122 FO
  36   36 1240 1124 FO
  36   36 1370 1125 FO
  36   36 1501 1127 FO
  36   36 1631 1129 FO
  36   36 1761 1132 FO
  36   36 1891 1134 FO
  36   36 2021 1137 FO
  36   36 2151 1140 FO
  36   36 2282 1143 FO
  36   36 2412 1147 FO
  36   36 2542 1150 FO
  36   36 2672 1153 FO
  36   36 2802 1156 FO
  36   36 2932 1160 FO
  36   36 3063 1163 FO
  36   36 3193 1166 FO
  36   36 3323 1169 FO
  36   36 3453 1171 FO
  36   36 3583 1174 FO
  36   36 3713 1176 FO
  36   36 3844 1178 FO
  36   36 3974 1179 FO
  36   36 4104 1181 FO
  36   36 4234 1182 FO
  36   36 4364 1182 FO
  36   36 4494 1183 FO
gr

c9
gs 655 310 3906 1264 rc
gr

gs 647 1051 3921 202 rc
/c10 { 0.000000 1.000000 0.000000 sr} bdef
c10
 684 1124 mt  756 1124 L
 720 1088 mt  720 1160 L
 814 1124 mt  886 1124 L
 850 1088 mt  850 1160 L
 944 1124 mt 1016 1124 L
 980 1088 mt  980 1160 L
1074 1125 mt 1146 1125 L
1110 1089 mt 1110 1161 L
1204 1127 mt 1276 1127 L
1240 1091 mt 1240 1163 L
1334 1128 mt 1406 1128 L
1370 1092 mt 1370 1164 L
1465 1130 mt 1537 1130 L
1501 1094 mt 1501 1166 L
1595 1132 mt 1667 1132 L
1631 1096 mt 1631 1168 L
1725 1134 mt 1797 1134 L
1761 1098 mt 1761 1170 L
1855 1136 mt 1927 1136 L
1891 1100 mt 1891 1172 L
1985 1139 mt 2057 1139 L
2021 1103 mt 2021 1175 L
2115 1141 mt 2187 1141 L
2151 1105 mt 2151 1177 L
2246 1144 mt 2318 1144 L
2282 1108 mt 2282 1180 L
2376 1147 mt 2448 1147 L
2412 1111 mt 2412 1183 L
2506 1150 mt 2578 1150 L
2542 1114 mt 2542 1186 L
2636 1153 mt 2708 1153 L
2672 1117 mt 2672 1189 L
2766 1156 mt 2838 1156 L
2802 1120 mt 2802 1192 L
2896 1159 mt 2968 1159 L
2932 1123 mt 2932 1195 L
3027 1162 mt 3099 1162 L
3063 1126 mt 3063 1198 L
3157 1164 mt 3229 1164 L
3193 1128 mt 3193 1200 L
3287 1167 mt 3359 1167 L
3323 1131 mt 3323 1203 L
3417 1169 mt 3489 1169 L
3453 1133 mt 3453 1205 L
3547 1171 mt 3619 1171 L
3583 1135 mt 3583 1207 L
3677 1173 mt 3749 1173 L
3713 1137 mt 3713 1209 L
3808 1175 mt 3880 1175 L
3844 1139 mt 3844 1211 L
3938 1176 mt 4010 1176 L
3974 1140 mt 3974 1212 L
4068 1178 mt 4140 1178 L
4104 1142 mt 4104 1214 L
4198 1179 mt 4270 1179 L
4234 1143 mt 4234 1215 L
4328 1179 mt 4400 1179 L
4364 1143 mt 4364 1215 L
4458 1179 mt 4530 1179 L
4494 1143 mt 4494 1215 L
gr

c10
gs 655 310 3906 1264 rc
gr

0 sg
2576 1861 mt 
(x) s
 472 1278 mt  -90 rotate
(Temperature) s
90 rotate
1439  215 mt 
(Temperature for k = 0.001 at time = 0.33367) s
 638 1616 mt 
( ) s
4544  352 mt 
( ) s
1 sg
0 1263 3905 0 0 -1263 655 3364 4 MP
PP
-3905 0 0 1263 3905 0 0 -1263 655 3364 5 MP stroke
4 w
DO
0 sg
 655 3364 mt  655 2101 L
 655 2101 mt  655 2101 L
1305 3364 mt 1305 2101 L
1305 2101 mt 1305 2101 L
1956 3364 mt 1956 2101 L
1956 2101 mt 1956 2101 L
2607 3364 mt 2607 2101 L
2607 2101 mt 2607 2101 L
3258 3364 mt 3258 2101 L
3258 2101 mt 3258 2101 L
3909 3364 mt 3909 2101 L
3909 2101 mt 3909 2101 L
4560 3364 mt 4560 2101 L
4560 2101 mt 4560 2101 L
 655 3364 mt 4560 3364 L
4560 3364 mt 4560 3364 L
 655 3083 mt 4560 3083 L
4560 3083 mt 4560 3083 L
 655 2802 mt 4560 2802 L
4560 2802 mt 4560 2802 L
 655 2522 mt 4560 2522 L
4560 2522 mt 4560 2522 L
 655 2241 mt 4560 2241 L
4560 2241 mt 4560 2241 L
SO
6 w
 655 2101 mt 4560 2101 L
 655 3364 mt 4560 3364 L
4560 3364 mt 4560 2101 L
 655 3364 mt  655 2101 L
 655 3364 mt 4560 3364 L
 655 3364 mt  655 2101 L
 655 3364 mt  655 3324 L
 655 2101 mt  655 2140 L
 622 3509 mt 
(0) s
1305 3364 mt 1305 3324 L
1305 2101 mt 1305 2140 L
1272 3509 mt 
(5) s
1956 3364 mt 1956 3324 L
1956 2101 mt 1956 2140 L
1890 3509 mt 
(10) s
2607 3364 mt 2607 3324 L
2607 2101 mt 2607 2140 L
2541 3509 mt 
(15) s
3258 3364 mt 3258 3324 L
3258 2101 mt 3258 2140 L
3192 3509 mt 
(20) s
3909 3364 mt 3909 3324 L
3909 2101 mt 3909 2140 L
3843 3509 mt 
(25) s
4560 3364 mt 4560 3324 L
4560 2101 mt 4560 2140 L
4494 3509 mt 
(30) s
 655 3364 mt  694 3364 L
4560 3364 mt 4520 3364 L
 317 3408 mt 
(-0.04) s
 655 3083 mt  694 3083 L
4560 3083 mt 4520 3083 L
 317 3127 mt 
(-0.02) s
 655 2802 mt  694 2802 L
4560 2802 mt 4520 2802 L
 554 2846 mt 
(0) s
 655 2522 mt  694 2522 L
4560 2522 mt 4520 2522 L
 387 2566 mt 
(0.02) s
 655 2241 mt  694 2241 L
4560 2241 mt 4520 2241 L
 387 2285 mt 
(0.04) s
 655 2101 mt 4560 2101 L
 655 3364 mt 4560 3364 L
4560 3364 mt 4560 2101 L
 655 3364 mt  655 2101 L
gs 655 2101 3906 1264 rc
gr

gs 647 2725 3921 157 rc
c9
  36   36  720 2806 FO
  36   36  850 2806 FO
  36   36  980 2806 FO
  36   36 1110 2806 FO
  36   36 1240 2806 FO
  36   36 1370 2806 FO
  36   36 1501 2806 FO
  36   36 1631 2804 FO
  36   36 1761 2802 FO
  36   36 1891 2802 FO
  36   36 2021 2808 FO
  36   36 2151 2801 FO
  36   36 2282 2803 FO
  36   36 2412 2805 FO
  36   36 2542 2806 FO
  36   36 2672 2798 FO
  36   36 2802 2800 FO
  36   36 2932 2803 FO
  36   36 3063 2801 FO
  36   36 3193 2802 FO
  36   36 3323 2800 FO
  36   36 3453 2800 FO
  36   36 3583 2798 FO
  36   36 3713 2798 FO
  36   36 3844 2799 FO
  36   36 3974 2799 FO
  36   36 4104 2800 FO
  36   36 4234 2799 FO
  36   36 4364 2798 FO
  36   36 4494 2799 FO
gr

c9
gs 655 2101 3906 1264 rc
gr

gs 647 2619 3921 367 rc
c10
 684 2692 mt  756 2692 L
 720 2656 mt  720 2728 L
 814 2693 mt  886 2693 L
 850 2657 mt  850 2729 L
 944 2696 mt 1016 2696 L
 980 2660 mt  980 2732 L
1074 2699 mt 1146 2699 L
1110 2663 mt 1110 2735 L
1204 2704 mt 1276 2704 L
1240 2668 mt 1240 2740 L
1334 2710 mt 1406 2710 L
1370 2674 mt 1370 2746 L
1465 2717 mt 1537 2717 L
1501 2681 mt 1501 2753 L
1595 2724 mt 1667 2724 L
1631 2688 mt 1631 2760 L
1725 2733 mt 1797 2733 L
1761 2697 mt 1761 2769 L
1855 2742 mt 1927 2742 L
1891 2706 mt 1891 2778 L
1985 2752 mt 2057 2752 L
2021 2716 mt 2021 2788 L
2115 2763 mt 2187 2763 L
2151 2727 mt 2151 2799 L
2246 2774 mt 2318 2774 L
2282 2738 mt 2282 2810 L
2376 2785 mt 2448 2785 L
2412 2749 mt 2412 2821 L
2506 2796 mt 2578 2796 L
2542 2760 mt 2542 2832 L
2636 2808 mt 2708 2808 L
2672 2772 mt 2672 2844 L
2766 2819 mt 2838 2819 L
2802 2783 mt 2802 2855 L
2896 2831 mt 2968 2831 L
2932 2795 mt 2932 2867 L
3027 2842 mt 3099 2842 L
3063 2806 mt 3063 2878 L
3157 2852 mt 3229 2852 L
3193 2816 mt 3193 2888 L
3287 2862 mt 3359 2862 L
3323 2826 mt 3323 2898 L
3417 2872 mt 3489 2872 L
3453 2836 mt 3453 2908 L
3547 2880 mt 3619 2880 L
3583 2844 mt 3583 2916 L
3677 2888 mt 3749 2888 L
3713 2852 mt 3713 2924 L
3808 2895 mt 3880 2895 L
3844 2859 mt 3844 2931 L
3938 2900 mt 4010 2900 L
3974 2864 mt 3974 2936 L
4068 2905 mt 4140 2905 L
4104 2869 mt 4104 2941 L
4198 2909 mt 4270 2909 L
4234 2873 mt 4234 2945 L
4328 2911 mt 4400 2911 L
4364 2875 mt 4364 2947 L
4458 2912 mt 4530 2912 L
4494 2876 mt 4494 2948 L
gr

c10
gs 655 2101 3906 1264 rc
gr

0 sg
2576 3652 mt 
(x) s
%%IncludeResource: font Symbol
/Symbol /WindowsLatin1Encoding 120 FMSR

 227 3126 mt  -90 rotate
(D) s
90 rotate
%%IncludeResource: font Helvetica
/Helvetica /WindowsLatin1Encoding 120 FMSR

 227 3053 mt  -90 rotate
( Temperature) s
90 rotate
1512 2006 mt 
(Residuals for k = 0.001 at time = 0.33367) s
 638 3407 mt 
( ) s
4544 2143 mt 
( ) s
1 sg
0 480 1020 0 0 -480 3481 850 4 MP
PP
-1020 0 0 480 1020 0 0 -480 3481 850 5 MP stroke
4 w
DO
SO
6 w
0 sg
3481  370 mt 4501  370 L
3481  850 mt 4501  850 L
4501  850 mt 4501  370 L
3481  850 mt 3481  370 L
3481  850 mt 4501  850 L
3481  850 mt 3481  370 L
3481  370 mt 4501  370 L
3481  850 mt 4501  850 L
4501  850 mt 4501  370 L
3481  850 mt 3481  370 L
3943  505 mt 
(Analytical) s
gs 3481 370 1021 481 rc
c8
355 0 3551 462 2 MP stroke
gr

c8
0 sg
3943  653 mt 
(MCMC) s
gs 3481 370 1021 481 rc
gs 3656 537 147 147 rc
c9
  36   36 3729  610 FO
gr

c9
gr

c9
0 sg
3943  801 mt 
(DHW) s
gs 3481 370 1021 481 rc
gs 3656 684 147 147 rc
c10
3693  757 mt 3765  757 L
3729  721 mt 3729  793 L
gr

c10
gr

c10
1 sg
0 334 880 0 0 -334 3621 2495 4 MP
PP
-880 0 0 334 880 0 0 -334 3621 2495 5 MP stroke
4 w
DO
SO
6 w
0 sg
3621 2161 mt 4501 2161 L
3621 2495 mt 4501 2495 L
4501 2495 mt 4501 2161 L
3621 2495 mt 3621 2161 L
3621 2495 mt 4501 2495 L
3621 2495 mt 3621 2161 L
3621 2161 mt 4501 2161 L
3621 2495 mt 4501 2495 L
4501 2495 mt 4501 2161 L
3621 2495 mt 3621 2161 L
4088 2296 mt 
(MCMC) s
gs 3621 2161 881 335 rc
gs 3799 2180 147 147 rc
c9
  36   36 3872 2253 FO
gr

c9
gr

c9
0 sg
4088 2445 mt 
(DHW) s
gs 3621 2161 881 335 rc
gs 3799 2329 147 147 rc
c10
3836 2402 mt 3908 2402 L
3872 2366 mt 3872 2438 L
gr

c10
gr

c10

end %%Color Dict

eplot
%%EndObject

epage
end

showpage

%%Trailer
%%EOF
