%!PS-Adobe-3.0 EPSF-3.0
%%DocumentNeededResources: font Helvetica
%%+ font Helvetica-Bold
%%+ font Helvetica-Oblique
%%+ font Helvetica-BoldOblique
%%+ font Symbol
%%Title: R Graphics Output
%%Creator: R Software
%%Pages: (atend)
%%BoundingBox: 0 0 354 298
%%EndComments
%%BeginProlog
/bp  { gs sRGB gs } def
% begin .ps.prolog
/gs  { gsave } bind def
/gr  { grestore } bind def
/ep  { showpage gr gr } bind def
/m   { moveto } bind def
/l  { rlineto } bind def
/np  { newpath } bind def
/cp  { closepath } bind def
/f   { fill } bind def
/o   { stroke } bind def
/c   { newpath 0 360 arc } bind def
/r   { 4 2 roll moveto 1 copy 3 -1 roll exch 0 exch rlineto 0 rlineto -1 mul 0 exch rlineto closepath } bind def
/p1  { stroke } bind def
/p2  { gsave bg fill grestore newpath } bind def
/p3  { gsave bg fill grestore stroke } bind def
/p6  { gsave bg eofill grestore newpath } bind def
/p7  { gsave bg eofill grestore stroke } bind def
/t   { 5 -2 roll moveto gsave rotate
       1 index stringwidth pop
       mul neg 0 rmoveto show grestore } bind def
/ta  { 4 -2 roll moveto gsave rotate show } bind def
/tb  { 2 -1 roll 0 rmoveto show } bind def
/cl  { grestore gsave newpath 3 index 3 index moveto 1 index
       4 -1 roll lineto  exch 1 index lineto lineto
       closepath clip newpath } bind def
/rgb { setrgbcolor } bind def
/s   { scalefont setfont } bind def
% end   .ps.prolog
/sRGB { [ /CIEBasedABC
          << /DecodeLMN
               [ { dup 0.03928 le
                        {12.92321 div}
                        {0.055 add 1.055 div 2.4 exp }
                     ifelse
                 } bind dup dup
               ]
             /MatrixLMN [0.412457 0.212673 0.019334
                         0.357576 0.715152 0.119192
                         0.180437 0.072175 0.950301]
             /WhitePoint [0.9505 1.0 1.0890]
           >>
         ] setcolorspace } bind def
/srgb { setcolor } bind def
% begin encoding
/WinAnsiEncoding [
 /.notdef /.notdef /.notdef /.notdef /.notdef /.notdef /.notdef /.notdef
 /.notdef /.notdef /.notdef /.notdef /.notdef /.notdef /.notdef /.notdef
 /.notdef /.notdef /.notdef /.notdef /.notdef /.notdef /.notdef /.notdef
 /.notdef /.notdef /.notdef /.notdef /.notdef /.notdef /.notdef /.notdef
 /space /exclam /quotedbl /numbersign /dollar /percent /ampersand /quoteright
 /parenleft /parenright /asterisk /plus /comma /minus /period /slash
 /zero /one /two /three /four /five /six /seven
 /eight /nine /colon /semicolon /less /equal /greater /question
 /at /A /B /C /D /E /F /G
 /H /I /J /K /L /M /N /O
 /P /Q /R /S /T /U /V /W
 /X /Y /Z /bracketleft /backslash /bracketright /asciicircum /underscore
 /grave /a /b /c /d /e /f /g
 /h /i /j /k /l /m /n /o
 /p /q /r /s /t /u /v /w
 /x /y /z /braceleft /bar /braceright /asciitilde /.notdef
 /Euro /.notdef /quotesinglbase /florin /quotedblbase /ellipsis /dagger /daggerdbl
 /circumflex /perthousand /Scaron /guilsinglleft /OE /.notdef /Zcaron /.notdef
 /.notdef /quoteleft /quoteright /quotedblleft /quotedblright /bullet /endash /emdash
 /tilde /trademark /scaron /guilsinglright /oe /.notdef /zcaron /Ydieresis
 /space /exclamdown /cent /sterling /currency /yen /brokenbar /section
 /dieresis /copyright /ordfeminine /guillemotleft /logicalnot /hyphen /registered /macron
 /degree /plusminus /twosuperior /threesuperior /acute /mu /paragraph /periodcentered
 /cedilla /onesuperior /ordmasculine /guillemotright /onequarter /onehalf /threequarters /questiondown
 /Agrave /Aacute /Acircumflex /Atilde /Adieresis /Aring /AE /Ccedilla
 /Egrave /Eacute /Ecircumflex /Edieresis /Igrave /Iacute /Icircumflex /Idieresis
 /Eth /Ntilde /Ograve /Oacute /Ocircumflex /Otilde /Odieresis /multiply
 /Oslash /Ugrave /Uacute /Ucircumflex /Udieresis /Yacute /Thorn /germandbls
 /agrave /aacute /acircumflex /atilde /adieresis /aring /ae /ccedilla
 /egrave /eacute /ecircumflex /edieresis /igrave /iacute /icircumflex /idieresis
 /eth /ntilde /ograve /oacute /ocircumflex /otilde /odieresis /divide
 /oslash /ugrave /uacute /ucircumflex /udieresis /yacute /thorn /ydieresis
]
 def
% end encoding
%%IncludeResource: font Helvetica
/Helvetica findfont
dup length dict begin
  {1 index /FID ne {def} {pop pop} ifelse} forall
  /Encoding WinAnsiEncoding def
  currentdict
  end
/Font1 exch definefont pop
%%IncludeResource: font Helvetica-Bold
/Helvetica-Bold findfont
dup length dict begin
  {1 index /FID ne {def} {pop pop} ifelse} forall
  /Encoding WinAnsiEncoding def
  currentdict
  end
/Font2 exch definefont pop
%%IncludeResource: font Helvetica-Oblique
/Helvetica-Oblique findfont
dup length dict begin
  {1 index /FID ne {def} {pop pop} ifelse} forall
  /Encoding WinAnsiEncoding def
  currentdict
  end
/Font3 exch definefont pop
%%IncludeResource: font Helvetica-BoldOblique
/Helvetica-BoldOblique findfont
dup length dict begin
  {1 index /FID ne {def} {pop pop} ifelse} forall
  /Encoding WinAnsiEncoding def
  currentdict
  end
/Font4 exch definefont pop
%%IncludeResource: font Symbol
/Symbol findfont
dup length dict begin
  {1 index /FID ne {def} {pop pop} ifelse} forall
  currentdict
  end
/Font5 exch definefont pop
%%EndProlog
%%Page: 1 1
bp
/bg { 1 1 1 srgb } def
0.00 0.00 354.00 297.75 r p2
59.04 73.44 323.76 238.71 cl
59.04 73.44 323.76 238.71 cl
0.2745 0.5098 0.7059 srgb
0.75 setlinewidth
[] 0 setdash
1 setlinecap
1 setlinejoin
10.00 setmiterlimit
np
68.84 232.59 m
0.25 0 l
0.25 -2.88 l
0.24 0 l
0.25 0 l
0.24 0 l
0.25 0 l
0.24 0 l
0.25 -22.04 l
0.24 0 l
0.25 0 l
0.24 0 l
0.25 0.01 l
0.24 0 l
0.25 0 l
0.24 -9.98 l
0.25 0 l
0.25 0 l
0.24 0 l
0.25 0 l
0.24 0 l
0.25 -19.09 l
0.24 0 l
0.25 -11.22 l
0.24 -6.05 l
0.25 0 l
0.24 -3.77 l
0.25 0 l
0.24 0 l
0.25 -18.56 l
0.25 -5.70 l
0.24 6.55 l
0.25 0 l
0.24 0 l
0.25 0 l
0.24 0 l
0.25 15.47 l
0.24 0 l
0.25 0 l
0.24 6.66 l
0.25 9.99 l
0.24 0 l
0.25 -17.91 l
0.24 16.68 l
0.25 0 l
0.25 0 l
0.24 0 l
0.25 -7.09 l
0.24 0 l
0.25 -2.52 l
0.24 -8.34 l
0.25 0 l
0.24 0 l
0.25 -32.51 l
0.24 9.31 l
0.25 0 l
0.24 -19.73 l
0.25 0 l
0.25 0 l
0.24 -2.92 l
0.25 0 l
0.24 0 l
0.25 0 l
0.24 0 l
0.25 0 l
0.24 0 l
0.25 0 l
0.24 0 l
0.25 0 l
0.24 0 l
0.25 4.60 l
0.24 0 l
0.25 0 l
0.25 0 l
0.24 0 l
0.25 -3.00 l
0.24 0 l
0.25 0 l
0.24 4.56 l
0.25 34.53 l
0.24 -1.93 l
0.25 -2.38 l
0.24 0 l
0.25 0 l
0.24 0 l
0.25 8.61 l
0.25 0 l
0.24 1.31 l
0.25 -3.38 l
0.24 0 l
0.25 0 l
0.24 0 l
0.25 0 l
0.24 0 l
0.25 0 l
0.24 -5.70 l
0.25 0 l
0.24 0 l
0.25 0 l
0.24 9.77 l
93.38 153.94 lineto
0.25 -11.60 l
0.24 0 l
0.25 0 l
0.24 0 l
0.25 -8.13 l
0.24 -0.38 l
0.25 -23.82 l
0.24 0 l
0.25 0 l
0.24 0 l
0.25 5.77 l
0.24 16.06 l
0.25 0 l
0.25 0 l
0.24 0 l
0.25 0 l
0.24 0 l
0.25 -11.14 l
0.24 0 l
0.25 0 l
0.24 14.83 l
0.25 -21.01 l
0.24 2.96 l
0.25 0 l
0.24 0 l
0.25 -13.56 l
0.24 0 l
0.25 2.96 l
0.25 0 l
0.24 0 l
0.25 0 l
0.24 0 l
0.25 21.46 l
0.24 -17.89 l
0.25 2.64 l
0.24 -9.65 l
0.25 4.62 l
0.24 -17.84 l
0.25 0 l
0.24 0 l
0.25 0 l
0.25 0 l
0.24 0 l
0.25 0 l
0.24 0 l
0.25 0 l
0.24 0.96 l
0.25 -0.42 l
0.24 0 l
0.25 0 l
0.24 36.14 l
0.25 -4.97 l
0.24 0 l
0.25 0 l
0.24 0 l
0.25 -12.29 l
0.25 29.60 l
0.24 0 l
0.25 0 l
0.24 0 l
0.25 0 l
0.24 -19.25 l
0.25 0 l
0.24 0 l
0.25 0 l
0.24 0 l
0.25 0 l
0.24 3.76 l
0.25 0 l
0.25 0 l
0.24 -21.78 l
0.25 -2.79 l
0.24 0 l
0.25 -2.74 l
0.24 0 l
0.25 0 l
0.24 0 l
0.25 11.34 l
0.24 20.94 l
0.25 0 l
0.24 3.31 l
0.25 -1.91 l
0.24 0 l
0.25 -10.78 l
0.25 0 l
0.24 0 l
0.25 0 l
0.24 0 l
0.25 0 l
0.24 0 l
0.25 0 l
0.24 -9.32 l
0.25 0 l
0.24 19.41 l
0.25 0 l
0.24 -6.51 l
0.25 0 l
0.25 0 l
0.24 -15.83 l
117.92 109.54 lineto
0.24 5.62 l
0.25 0 l
0.24 0 l
0.25 15.09 l
0.24 22.74 l
0.25 6.91 l
0.24 -5.46 l
0.25 0 l
0.24 0 l
0.25 -16.84 l
0.24 0 l
0.25 4.14 l
0.25 0 l
0.24 23.97 l
0.25 0 l
0.24 0 l
0.25 -4.40 l
0.24 0 l
0.25 21.20 l
0.24 0 l
0.25 -1.03 l
0.24 -14.20 l
0.25 3.94 l
0.24 -23.77 l
0.25 0.90 l
0.25 0 l
0.24 0 l
0.25 0 l
0.24 0 l
0.25 0.80 l
0.24 9.39 l
0.25 2.87 l
0.24 0 l
0.25 0 l
0.24 0 l
0.25 -23.14 l
0.24 -5.03 l
0.25 25.62 l
0.24 -14.03 l
0.25 0 l
0.25 0 l
0.24 -21.47 l
0.25 33.02 l
0.24 9.35 l
0.25 0 l
0.24 0 l
0.25 -7.15 l
0.24 11.39 l
0.25 15.54 l
0.24 0 l
0.25 0 l
0.24 0 l
0.25 0 l
0.25 0 l
0.24 -14.74 l
0.25 0 l
0.24 -28.13 l
0.25 -7.36 l
0.24 -6.38 l
0.25 -3.91 l
0.24 0 l
0.25 0 l
0.24 0 l
0.25 -31.08 l
0.24 0 l
0.25 -14.35 l
0.24 0 l
0.25 0 l
0.25 0 l
0.24 0 l
0.25 0 l
0.24 0 l
0.25 0 l
0.24 0 l
0.25 0 l
0.24 0 l
0.25 0 l
0.24 0 l
0.25 0.93 l
0.24 3.32 l
0.25 0 l
0.25 0 l
0.24 0 l
0.25 0 l
0.24 7.29 l
0.25 -0.75 l
0.24 0 l
0.25 14.19 l
0.24 0 l
0.25 -8.15 l
0.24 0 l
0.25 21.86 l
0.24 0 l
0.25 13.86 l
0.24 0 l
0.25 -2.19 l
0.25 8.03 l
0.24 -3.19 l
0.25 0 l
142.45 149.21 lineto
0.25 0 l
0.24 0 l
0.25 0 l
0.24 0.28 l
0.25 0 l
0.24 0 l
0.25 0 l
0.24 -16.68 l
0.25 0 l
0.25 -2.69 l
0.24 0 l
0.25 0 l
0.24 0 l
0.25 21.44 l
0.24 0 l
0.25 0 l
0.24 -36.94 l
0.25 0 l
0.24 0 l
0.25 0 l
0.24 0 l
0.25 0 l
0.24 -7.19 l
0.25 0 l
0.25 0 l
0.24 0 l
0.25 -0.19 l
0.24 0 l
0.25 0 l
0.24 5.14 l
0.25 7.31 l
0.24 0 l
0.25 5.35 l
0.24 5.78 l
0.25 -1.64 l
0.24 10.24 l
0.25 -12.18 l
0.25 6.96 l
0.24 0 l
0.25 0 l
0.24 -2.32 l
0.25 0 l
0.24 -16.32 l
0.25 -13.60 l
0.24 0 l
0.25 0 l
0.24 0 l
0.25 0 l
0.24 0 l
0.25 0 l
0.24 0 l
0.25 0 l
0.25 16.93 l
0.24 0 l
0.25 5.37 l
0.24 0.32 l
0.25 0 l
0.24 0 l
0.25 0 l
0.24 -2.44 l
0.25 0 l
0.24 0 l
0.25 8.32 l
0.24 -6.18 l
0.25 0 l
0.25 -19.10 l
0.24 0 l
0.25 9.54 l
0.24 0 l
0.25 0 l
0.24 0 l
0.25 0 l
0.24 0 l
0.25 6.48 l
0.24 0 l
0.25 0 l
0.24 16.42 l
0.25 8.05 l
0.24 0 l
0.25 0 l
0.25 0 l
0.24 0 l
0.25 -8.89 l
0.24 1.74 l
0.25 0 l
0.24 3.38 l
0.25 15.58 l
0.24 0 l
0.25 -14.90 l
0.24 -20.20 l
0.25 0 l
0.24 0 l
0.25 0 l
0.24 -10.89 l
0.25 0 l
0.25 0 l
0.24 0 l
0.25 0 l
0.24 0 l
166.99 132.13 lineto
0.24 0 l
0.25 8.79 l
0.24 0 l
0.25 0 l
0.24 0 l
0.25 0 l
0.24 -29.46 l
0.25 0 l
0.25 -7.57 l
0.24 0 l
0.25 -1.93 l
0.24 0 l
0.25 0 l
0.24 0 l
0.25 17.84 l
0.24 0 l
0.25 -7.24 l
0.24 0 l
0.25 10.02 l
0.24 17.27 l
0.25 0 l
0.24 0 l
0.25 0 l
0.25 -14.30 l
0.24 13.93 l
0.25 0 l
0.24 1.00 l
0.25 -21.11 l
0.24 -6.83 l
0.25 0 l
0.24 9.81 l
0.25 0 l
0.24 0 l
0.25 -18.10 l
0.24 0 l
0.25 0 l
0.25 0 l
0.24 0 l
0.25 0 l
0.24 0 l
0.25 0 l
0.24 21.89 l
0.25 -3.49 l
0.24 -7.71 l
0.25 0 l
0.24 15.39 l
0.25 9.00 l
0.24 -6.57 l
0.25 0 l
0.24 0 l
0.25 0 l
0.25 0 l
0.24 0 l
0.25 -5.81 l
0.24 2.74 l
0.25 0 l
0.24 0 l
0.25 0 l
0.24 40.90 l
0.25 0 l
0.24 -9.52 l
0.25 -50.05 l
0.24 0 l
0.25 0 l
0.25 20.48 l
0.24 0 l
0.25 -18.91 l
0.24 -7.40 l
0.25 0 l
0.24 0 l
0.25 0 l
0.24 15.50 l
0.25 6.24 l
0.24 0 l
0.25 0 l
0.24 0 l
0.25 -8.02 l
0.24 12.89 l
0.25 -21.29 l
0.25 0 l
0.24 0 l
0.25 29.56 l
0.24 -28.75 l
0.25 28.91 l
0.24 -15.76 l
0.25 0 l
0.24 0 l
0.25 0 l
0.24 0 l
0.25 8.74 l
0.24 -17.75 l
0.25 0 l
0.25 0 l
0.24 0 l
0.25 9.84 l
0.24 -22.32 l
0.25 6.36 l
0.24 0 l
0.25 -12.27 l
191.52 106.08 lineto
0.25 -2.23 l
0.24 0 l
0.25 0 l
0.24 -14.68 l
0.25 0 l
0.24 0 l
0.25 -0.17 l
0.25 0 l
0.24 0 l
0.25 0 l
0.24 8.03 l
0.25 20.73 l
0.24 -3.63 l
0.25 1.69 l
0.24 0 l
0.25 0 l
0.24 7.39 l
0.25 22.08 l
0.24 0 l
0.25 5.52 l
0.25 0 l
0.24 0 l
0.25 0 l
0.24 0 l
0.25 0 l
0.24 0 l
0.25 0 l
0.24 7.27 l
0.25 -37.11 l
0.24 21.22 l
0.25 0 l
0.24 0 l
0.25 0 l
0.24 -6.97 l
0.25 4.18 l
0.25 0 l
0.24 0 l
0.25 -0.96 l
0.24 -26.14 l
0.25 0 l
0.24 0 l
0.25 4.40 l
0.24 0 l
0.25 22.98 l
0.24 0 l
0.25 -12.63 l
0.24 15.13 l
0.25 0 l
0.25 0 l
0.24 0 l
0.25 -3.15 l
0.24 0 l
0.25 0 l
0.24 0 l
0.25 -11.36 l
0.24 -5.97 l
0.25 0 l
0.24 10.22 l
0.25 11.11 l
0.24 0 l
0.25 0 l
0.24 0 l
0.25 -11.06 l
0.25 0 l
0.24 0 l
0.25 0 l
0.24 -14.53 l
0.25 0 l
0.24 0 l
0.25 -20.25 l
0.24 -7.47 l
0.25 0 l
0.24 0 l
0.25 31.08 l
0.24 -12.08 l
0.25 0 l
0.25 0 l
0.24 0 l
0.25 19.23 l
0.24 0 l
0.25 -9.01 l
0.24 0 l
0.25 0.49 l
0.24 37.95 l
0.25 0 l
0.24 0 l
0.25 2.55 l
0.24 0 l
0.25 -2.35 l
0.24 0 l
0.25 -1.78 l
0.25 0 l
0.24 4.19 l
0.25 18.61 l
0.24 -5.90 l
0.25 0 l
0.24 -13.14 l
0.25 0 l
0.24 -9.48 l
216.06 150.08 lineto
0.24 0 l
0.25 0 l
0.24 0 l
0.25 4.72 l
0.25 0 l
0.24 0 l
0.25 0 l
0.24 17.63 l
0.25 0 l
0.24 0 l
0.25 0 l
0.24 0 l
0.25 0 l
0.24 -20.47 l
0.25 0 l
0.24 4.61 l
0.25 0 l
0.24 -20.55 l
0.25 0 l
0.25 -22.35 l
0.24 0 l
0.25 0 l
0.24 0 l
0.25 0 l
0.24 25.09 l
0.25 23.41 l
0.24 0 l
0.25 0 l
0.24 0 l
0.25 0 l
0.24 0 l
0.25 0 l
0.25 -27.03 l
0.24 0 l
0.25 0 l
0.24 -14.89 l
0.25 0 l
0.24 -18.96 l
0.25 0 l
0.24 5.61 l
0.25 7.44 l
0.24 0 l
0.25 -3.78 l
0.24 0 l
0.25 -18.77 l
0.24 0 l
0.25 0 l
0.25 0 l
0.24 0 l
0.25 0 l
0.24 12.16 l
0.25 6.56 l
0.24 6.13 l
0.25 0 l
0.24 0 l
0.25 0 l
0.24 0 l
0.25 0 l
0.24 0 l
0.25 0 l
0.25 0 l
0.24 0 l
0.25 0 l
0.24 0 l
0.25 -3.61 l
0.24 0 l
0.25 19.77 l
0.24 0 l
0.25 0 l
0.24 0 l
0.25 0 l
0.24 0 l
0.25 0 l
0.24 2.80 l
0.25 0 l
0.25 -13.25 l
0.24 0 l
0.25 -16.05 l
0.24 0 l
0.25 0 l
0.24 0 l
0.25 1.17 l
0.24 0 l
0.25 0 l
0.24 0 l
0.25 6.73 l
0.24 -8.51 l
0.25 0 l
0.25 37.46 l
0.24 -0.27 l
0.25 0 l
0.24 -15.62 l
0.25 0 l
0.24 17.24 l
0.25 0 l
0.24 4.43 l
0.25 0 l
0.24 -15.34 l
0.25 0 l
240.59 124.18 lineto
0.25 0 l
0.24 14.48 l
0.25 2.85 l
0.25 0 l
0.24 1.13 l
0.25 0 l
0.24 0 l
0.25 -7.62 l
0.24 0 l
0.25 -15.94 l
0.24 0 l
0.25 -9.94 l
0.24 8.11 l
0.25 0 l
0.24 0 l
0.25 0 l
0.25 -2.82 l
0.24 0 l
0.25 0 l
0.24 5.49 l
0.25 22.30 l
0.24 0 l
0.25 8.79 l
0.24 0 l
0.25 0 l
0.24 -4.26 l
0.25 5.35 l
0.24 -3.62 l
0.25 9.61 l
0.24 27.57 l
0.25 0 l
0.25 0 l
0.24 0 l
0.25 0 l
0.24 0 l
0.25 0 l
0.24 -18.68 l
0.25 6.02 l
0.24 0 l
0.25 -9.51 l
0.24 -8.48 l
0.25 -9.68 l
0.24 0 l
0.25 0 l
0.25 -6.99 l
0.24 -0.75 l
0.25 3.73 l
0.24 16.61 l
0.25 0 l
0.24 -19.17 l
0.25 0 l
0.24 0 l
0.25 31.35 l
0.24 -14.06 l
0.25 0 l
0.24 12.40 l
0.25 0 l
0.24 0 l
0.25 0.50 l
0.25 7.58 l
0.24 0 l
0.25 -20.36 l
0.24 8.65 l
0.25 3.73 l
0.24 -29.29 l
0.25 18.48 l
0.24 -23.00 l
0.25 0 l
0.24 0.08 l
0.25 0 l
0.24 2.36 l
0.25 0 l
0.25 25.29 l
0.24 0 l
0.25 0 l
0.24 -9.72 l
0.25 9.50 l
0.24 -18.81 l
0.25 6.48 l
0.24 0 l
0.25 -15.72 l
0.24 0 l
0.25 8.22 l
0.24 0 l
0.25 -34.97 l
0.24 4.05 l
0.25 8.67 l
0.25 -7.40 l
0.24 4.72 l
0.25 -10.64 l
0.24 0 l
0.25 0 l
0.24 0 l
0.25 0 l
0.24 0 l
0.25 9.12 l
0.24 0 l
0.25 -5.91 l
0.24 15.22 l
265.13 124.51 lineto
0.25 5.03 l
0.24 0 l
0.25 0 l
0.24 0 l
0.25 6.65 l
0.24 0.97 l
0.25 0 l
0.24 7.01 l
0.25 -1.31 l
0.24 0 l
0.25 -13.97 l
0.24 14.24 l
0.25 0 l
0.24 5.65 l
0.25 0 l
0.25 2.04 l
0.24 0 l
0.25 -28.10 l
0.24 0 l
0.25 -24.96 l
0.24 0 l
0.25 0 l
0.24 0 l
0.25 0 l
0.24 26.58 l
0.25 9.02 l
0.24 4.42 l
0.25 0 l
0.25 -19.51 l
0.24 0 l
0.25 0 l
0.24 -11.38 l
0.25 0 l
0.24 0 l
0.25 -3.05 l
0.24 0 l
0.25 0 l
0.24 0 l
0.25 0 l
0.24 8.09 l
0.25 0 l
0.24 0 l
0.25 0 l
0.25 0 l
0.24 0 l
0.25 0 l
0.24 0 l
0.25 5.23 l
0.24 0 l
0.25 0 l
0.24 28.81 l
0.25 0 l
0.24 0 l
0.25 0 l
0.24 28.86 l
0.25 0 l
0.25 0 l
0.24 9.43 l
0.25 -14.46 l
0.24 0 l
0.25 0 l
0.24 0 l
0.25 0 l
0.24 0 l
0.25 0 l
0.24 0 l
0.25 0 l
0.24 0 l
0.25 1.71 l
0.24 -13.84 l
0.25 0 l
0.25 -39.32 l
0.24 -11.30 l
0.25 0 l
0.24 0 l
0.25 0 l
0.24 0 l
0.25 7.03 l
0.24 0.89 l
0.25 25.14 l
0.24 0 l
0.25 0 l
0.24 0.67 l
0.25 -1.30 l
0.25 6.14 l
0.24 0 l
0.25 0 l
0.24 0 l
0.25 0 l
0.24 0 l
0.25 3.56 l
0.24 0 l
0.25 0 l
0.24 -4.54 l
0.25 1.25 l
0.24 -18.37 l
0.25 0.82 l
0.24 16.49 l
0.25 0 l
289.67 144.83 lineto
0.24 0 l
0.25 0 l
0.24 6.94 l
0.25 0 l
0.24 0 l
0.25 0 l
0.24 -15.81 l
0.25 0 l
0.24 7.59 l
0.25 0 l
0.24 1.73 l
0.25 0 l
0.25 0 l
0.24 -24.57 l
0.25 0 l
0.24 0 l
0.25 0 l
0.24 0 l
0.25 0 l
0.24 3.13 l
0.25 0 l
0.24 0 l
0.25 0 l
0.24 0 l
0.25 0 l
0.24 0 l
0.25 -10.16 l
0.25 0 l
0.24 24.79 l
0.25 -5.18 l
0.24 0 l
0.25 0 l
0.24 -20.89 l
0.25 0 l
0.24 5.31 l
0.25 0 l
0.24 0 l
0.25 0 l
0.24 6.51 l
0.25 0 l
0.25 0 l
0.24 0 l
0.25 3.23 l
0.24 0 l
0.25 0 l
0.24 0 l
0.25 16.51 l
0.24 0 l
0.25 -30.32 l
0.24 1.92 l
0.25 0 l
0.24 -5.81 l
0.25 0 l
0.24 3.04 l
0.25 -0.28 l
0.25 0 l
0.24 0 l
0.25 -1.23 l
0.24 6.55 l
0.25 0 l
0.24 0 l
0.25 0 l
0.24 0 l
0.25 0 l
0.24 8.37 l
0.25 0 l
0.24 0 l
0.25 0 l
0.25 0 l
0.24 6.01 l
0.25 1.20 l
0.24 0 l
0.25 0 l
0.24 0 l
0.25 -7.43 l
0.24 0 l
0.25 0 l
0.24 0 l
0.25 -20.72 l
0.24 8.45 l
0.25 36.67 l
0.24 -0.18 l
0.25 0 l
0.25 -24.26 l
0.24 0 l
0.25 5.28 l
0.24 2.99 l
0.25 0 l
0.24 0 l
0.25 0 l
0.24 0 l
0.25 -13.86 l
0.24 0 l
0.25 -3.80 l
0.24 0 l
0.25 0 l
0.25 0 l
0.24 0 l
0.25 0 l
o
0.00 0.00 354.00 297.75 cl
/Font1 findfont 12 s
0 0 0 srgb
170.06 18.72 (iter) 0 ta
-0.120 (ation) tb gr
12.96 156.08 (Tm) .5 90 t
0.00 0.00 354.00 297.75 cl
0 0 0 srgb
0.75 setlinewidth
[] 0 setdash
1 setlinecap
1 setlinejoin
10.00 setmiterlimit
np
68.60 73.44 m
245.36 0 l
o
np
68.60 73.44 m
0 -7.20 l
o
np
117.67 73.44 m
0 -7.20 l
o
np
166.74 73.44 m
0 -7.20 l
o
np
215.81 73.44 m
0 -7.20 l
o
np
264.88 73.44 m
0 -7.20 l
o
np
313.96 73.44 m
0 -7.20 l
o
/Font1 findfont 12 s
68.60 47.52 (0) .5 0 t
117.67 47.52 (200) .5 0 t
166.74 47.52 (400) .5 0 t
215.81 47.52 (600) .5 0 t
264.88 47.52 (800) .5 0 t
313.96 47.52 (1000) .5 0 t
np
59.04 102.63 m
0 110.33 l
o
np
59.04 102.63 m
-7.20 0 l
o
np
59.04 139.41 m
-7.20 0 l
o
np
59.04 176.19 m
-7.20 0 l
o
np
59.04 212.96 m
-7.20 0 l
o
41.76 102.63 (1.0) .5 90 t
41.76 139.41 (1.1) .5 90 t
41.76 176.19 (1.2) .5 90 t
41.76 212.96 (1.3) .5 90 t
59.04 73.44 323.76 238.71 cl
1 0 0 srgb
0.75 setlinewidth
[] 0 setdash
1 setlinecap
1 setlinejoin
10.00 setmiterlimit
np
71.05 131.50 m
242.91 0 l
o
0 1 0 srgb
np
71.05 89.17 m
242.91 0 l
o
np
71.05 185.66 m
242.91 0 l
o
ep
%%Trailer
%%Pages: 1
%%EOF
