%!PS-Adobe-3.0 EPSF-3.0
%%DocumentNeededResources: font Helvetica
%%+ font Helvetica-Bold
%%+ font Helvetica-Oblique
%%+ font Helvetica-BoldOblique
%%+ font Symbol
%%Title: R Graphics Output
%%Creator: R Software
%%Pages: (atend)
%%BoundingBox: 128 313 484 479
%%EndComments
%%BeginProlog
/bp  { gs gs } def
% begin .ps.prolog
/gs  { gsave } bind def
/gr  { grestore } bind def
/ep  { showpage gr gr } bind def
/m   { moveto } bind def
/l  { rlineto } bind def
/np  { newpath } bind def
/cp  { closepath } bind def
/f   { fill } bind def
/o   { stroke } bind def
/c   { newpath 0 360 arc } bind def
/r   { 4 2 roll moveto 1 copy 3 -1 roll exch 0 exch rlineto 0 rlineto -1 mul 0 exch rlineto closepath } bind def
/p1  { stroke } bind def
/p2  { gsave bg fill grestore newpath } bind def
/p3  { gsave bg fill grestore stroke } bind def
/p6  { gsave bg eofill grestore newpath } bind def
/p7  { gsave bg eofill grestore stroke } bind def
/t   { 5 -2 roll moveto gsave rotate
       1 index stringwidth pop
       mul neg 0 rmoveto show grestore } bind def
/ta  { 4 -2 roll moveto gsave rotate show } bind def
/tb  { 2 -1 roll 0 rmoveto show } bind def
/cl  { grestore gsave newpath 3 index 3 index moveto 1 index
       4 -1 roll lineto  exch 1 index lineto lineto
       closepath clip newpath } bind def
/rgb { setrgbcolor } bind def
/s   { scalefont setfont } bind def
% end   .ps.prolog
%%IncludeResource: font Helvetica
/Helvetica findfont
dup length dict begin
  {1 index /FID ne {def} {pop pop} ifelse} forall
  /Encoding ISOLatin1Encoding def
  currentdict
  end
/Font1 exch definefont pop
%%IncludeResource: font Helvetica-Bold
/Helvetica-Bold findfont
dup length dict begin
  {1 index /FID ne {def} {pop pop} ifelse} forall
  /Encoding ISOLatin1Encoding def
  currentdict
  end
/Font2 exch definefont pop
%%IncludeResource: font Helvetica-Oblique
/Helvetica-Oblique findfont
dup length dict begin
  {1 index /FID ne {def} {pop pop} ifelse} forall
  /Encoding ISOLatin1Encoding def
  currentdict
  end
/Font3 exch definefont pop
%%IncludeResource: font Helvetica-BoldOblique
/Helvetica-BoldOblique findfont
dup length dict begin
  {1 index /FID ne {def} {pop pop} ifelse} forall
  /Encoding ISOLatin1Encoding def
  currentdict
  end
/Font4 exch definefont pop
%%IncludeResource: font Symbol
/Symbol findfont
dup length dict begin
  {1 index /FID ne {def} {pop pop} ifelse} forall
  currentdict
  end
/Font5 exch definefont pop
%%EndProlog
%%Page: 1 1
bp
127.88 313.13 484.13 478.88 cl
127.88 313.13 484.13 478.88 cl
127.88 313.13 484.13 478.88 cl
127.88 313.13 484.13 478.88 cl
127.88 313.13 484.13 478.88 cl
127.88 313.13 484.13 478.88 cl
127.88 313.13 484.13 478.88 cl
127.88 313.13 484.13 478.88 cl
127.88 313.13 484.13 478.88 cl
/bg { 1 setgray } def
1 setgray
1.07 setlinewidth
[] 0 setdash
1 setlinecap
1 setlinejoin
10.00 setmiterlimit
127.88 313.13 356.25 165.75 r p3
127.88 313.13 484.13 478.88 cl
164.17 345.63 411.78 473.40 cl
/bg { 1 setgray } def
164.17 345.63 247.60 127.77 r p2
0.9216 setgray
0.53 setlinewidth
[] 0 setdash
0 setlinecap
1 setlinejoin
10.00 setmiterlimit
np
164.17 369.14 m
247.61 0 l
o
np
164.17 394.63 m
247.61 0 l
o
np
164.17 420.12 m
247.61 0 l
o
np
164.17 445.61 m
247.61 0 l
o
np
164.17 471.10 m
247.61 0 l
o
np
188.00 345.63 m
0 127.77 l
o
np
235.67 345.63 m
0 127.77 l
o
np
283.33 345.63 m
0 127.77 l
o
np
330.99 345.63 m
0 127.77 l
o
np
378.65 345.63 m
0 127.77 l
o
1.07 setlinewidth
[] 0 setdash
np
164.17 356.40 m
247.61 0 l
o
np
164.17 381.89 m
247.61 0 l
o
np
164.17 407.38 m
247.61 0 l
o
np
164.17 432.87 m
247.61 0 l
o
np
164.17 458.36 m
247.61 0 l
o
np
164.17 345.63 m
0 127.77 l
o
np
211.83 345.63 m
0 127.77 l
o
np
259.50 345.63 m
0 127.77 l
o
np
307.16 345.63 m
0 127.77 l
o
np
354.82 345.63 m
0 127.77 l
o
np
402.48 345.63 m
0 127.77 l
o
0.9725 0.4627 0.4275 rgb
1.00 setmiterlimit
np
164.17 355.77 m
1.85 -0.65 l
1.66 1.83 l
1.66 0.27 l
1.66 -1.77 l
1.66 0.67 l
1.66 -0.98 l
1.66 0.21 l
1.65 -0.16 l
1.66 0.62 l
1.66 0.19 l
1.66 -1.05 l
1.65 -0.05 l
1.66 1.95 l
1.66 -0.71 l
1.66 1.98 l
1.65 -2.00 l
1.66 -0.08 l
1.66 2.33 l
1.66 -2.07 l
1.66 -0.96 l
2.01 0.30 l
1.66 0.67 l
1.66 1.02 l
1.66 0.72 l
1.65 -0.93 l
1.66 1.03 l
1.66 0.70 l
1.66 -2.09 l
1.65 -0.48 l
1.66 9.95 l
1.66 14.14 l
1.66 18.10 l
1.66 15.98 l
1.65 13.78 l
1.66 9.52 l
1.66 8.83 l
1.66 5.94 l
1.66 3.57 l
1.65 4.44 l
1.66 2.68 l
1.66 1.52 l
1.66 -0.15 l
1.66 -1.13 l
1.66 1.68 l
1.65 2.46 l
1.66 -2.55 l
1.66 2.52 l
1.66 -1.25 l
1.65 0.39 l
1.66 -0.20 l
1.66 -3.05 l
1.66 2.48 l
1.66 -0.13 l
1.66 -1.72 l
1.66 0.33 l
1.65 -1.79 l
1.66 -1.69 l
1.66 1.02 l
1.66 -3.20 l
1.66 0.57 l
1.65 0.34 l
1.66 -1.62 l
1.66 -0.45 l
1.66 -1.18 l
1.65 -1.00 l
1.66 -0.81 l
1.66 -1.30 l
1.66 -0.01 l
1.66 -1.79 l
1.65 -0.38 l
1.66 -0.74 l
1.66 -1.71 l
1.66 0.80 l
1.66 -0.98 l
1.66 -2.33 l
1.66 0.35 l
1.65 0.07 l
1.66 -2.84 l
1.66 0.14 l
1.66 -0.40 l
1.65 0.95 l
1.66 -2.79 l
1.66 -0.27 l
1.66 0.14 l
1.66 -0.42 l
1.66 -1.46 l
1.65 -1.19 l
1.66 0.06 l
1.66 -0.96 l
1.66 0.16 l
1.66 0.14 l
1.66 -1.44 l
1.65 0.61 l
1.66 -3.83 l
1.66 1.73 l
1.66 -0.49 l
1.65 -1.20 l
1.66 0.05 l
1.66 -0.72 l
330.53 432.31 lineto
1.66 -2.11 l
1.66 -1.48 l
1.65 2.30 l
1.66 -1.76 l
1.66 0.05 l
1.66 -2.28 l
1.66 -2.77 l
1.66 1.63 l
1.65 0.26 l
1.66 -3.64 l
1.66 2.69 l
1.66 -0.05 l
1.65 -1.54 l
1.66 1.46 l
1.66 -2.13 l
1.66 -0.58 l
1.66 -1.20 l
1.66 0.39 l
1.66 -0.67 l
1.65 -0.48 l
1.66 -0.14 l
1.66 0.11 l
1.66 -1.06 l
1.65 -2.20 l
1.66 -0.10 l
1.66 0.71 l
1.66 -0.65 l
1.66 -1.06 l
1.66 0.34 l
1.65 -0.14 l
1.66 -0.08 l
1.66 -3.45 l
1.66 1.23 l
1.66 1.21 l
1.66 -1.98 l
1.65 0.57 l
1.66 -1.64 l
1.66 -0.11 l
1.66 -3.78 l
1.65 0.54 l
1.66 1.45 l
1.66 -0.89 l
1.66 0.02 l
1.66 -0.60 l
1.66 0.20 l
1.65 -0.25 l
1.66 -1.17 l
1.66 -0.85 l
1.66 0.15 l
o
0.4863 0.6824 0 rgb
np
164.17 355.34 m
1.85 1.24 l
1.66 -0.09 l
1.66 -0.36 l
1.66 -0.51 l
1.66 1.20 l
1.66 0.28 l
1.66 1.39 l
1.65 -3.56 l
1.66 -0.98 l
1.66 5.90 l
1.66 -4.15 l
1.65 0.44 l
1.66 0.62 l
1.66 -0.53 l
1.66 -0.33 l
1.65 0.49 l
1.66 -0.35 l
1.66 1.65 l
1.66 -0.91 l
1.66 -0.39 l
2.01 -0.84 l
1.66 0.04 l
1.66 1.08 l
1.66 2.12 l
1.65 -2.01 l
1.66 -2.01 l
1.66 1.62 l
1.66 -0.77 l
1.65 0.41 l
1.66 -0.25 l
1.66 0.99 l
1.66 -1.32 l
1.66 -0.27 l
1.65 0.86 l
1.66 -4.45 l
1.66 4.05 l
1.66 -0.73 l
1.66 -3.48 l
1.65 5.75 l
1.66 -1.16 l
1.66 1.80 l
1.66 -1.68 l
1.66 1.13 l
1.66 -1.00 l
1.65 0.75 l
1.66 0.33 l
1.66 0.67 l
1.66 -1.45 l
1.65 0.99 l
1.66 -0.49 l
1.66 -1.78 l
1.66 3.26 l
1.66 -0.67 l
1.66 1.18 l
1.66 1.38 l
1.65 -2.46 l
1.66 0.49 l
1.66 -0.90 l
1.66 -0.25 l
1.66 1.38 l
1.65 -1.13 l
1.66 0.08 l
1.66 1.78 l
1.66 0.35 l
1.65 0.12 l
1.66 -0.65 l
1.66 -3.47 l
1.66 5.38 l
1.66 -1.98 l
1.65 -2.33 l
1.66 4.18 l
1.66 -1.04 l
1.66 0.03 l
1.66 0.76 l
1.66 0.85 l
1.66 -0.29 l
1.65 0.45 l
1.66 0.17 l
1.66 -0.51 l
1.66 -0.93 l
1.65 3.50 l
1.66 -2.31 l
1.66 0.79 l
1.66 3.06 l
1.66 -1.74 l
1.66 -0.63 l
1.65 2.90 l
1.66 -1.92 l
1.66 0.05 l
1.66 -0.75 l
1.66 2.45 l
1.66 -0.83 l
1.65 -0.75 l
1.66 -1.33 l
1.66 2.69 l
1.66 0.08 l
1.65 -3.21 l
1.66 3.73 l
1.66 -3.69 l
330.53 366.24 lineto
1.66 -2.55 l
1.66 -2.78 l
1.65 6.24 l
1.66 -1.65 l
1.66 -0.40 l
1.66 1.16 l
1.66 -1.30 l
1.66 0.24 l
1.65 0.25 l
1.66 1.29 l
1.66 -0.64 l
1.66 0.59 l
1.65 -0.64 l
1.66 1.75 l
1.66 -1.05 l
1.66 3.43 l
1.66 -4.63 l
1.66 -0.29 l
1.66 4.45 l
1.65 -1.78 l
1.66 -1.24 l
1.66 0.94 l
1.66 -0.53 l
1.65 -1.61 l
1.66 2.23 l
1.66 -1.22 l
1.66 -0.08 l
1.66 -0.66 l
1.66 0.93 l
1.65 0.77 l
1.66 -2.93 l
1.66 2.19 l
1.66 0.27 l
1.66 -1.02 l
1.66 0.67 l
1.65 1.21 l
1.66 -0.15 l
1.66 0.19 l
1.66 -0.57 l
1.65 -0.60 l
1.66 0.74 l
1.66 -2.60 l
1.66 3.01 l
1.66 -1.42 l
1.66 0.43 l
1.65 4.34 l
1.66 -2.40 l
1.66 -3.24 l
1.66 2.44 l
o
0 0.7490 0.7686 rgb
np
164.17 355.01 m
1.85 3.54 l
1.66 -2.39 l
1.66 -0.31 l
1.66 -0.45 l
1.66 -0.47 l
1.66 2.23 l
1.66 -0.35 l
1.65 -1.16 l
1.66 0.38 l
1.66 0.37 l
1.66 0.99 l
1.65 -1.56 l
1.66 0.12 l
1.66 0.49 l
1.66 -0.68 l
1.65 0.80 l
1.66 -0.25 l
1.66 0.75 l
1.66 -0.46 l
1.66 -1.15 l
2.01 0.60 l
1.66 0.37 l
1.66 -0.15 l
1.66 3.55 l
1.65 -3.12 l
1.66 -1.72 l
1.66 3.98 l
1.66 -3.99 l
1.65 0.07 l
1.66 0.51 l
1.66 1.18 l
1.66 -0.61 l
1.66 -0.77 l
1.65 -0.34 l
1.66 0.22 l
1.66 0.60 l
1.66 2.07 l
1.66 0.11 l
1.65 5.06 l
1.66 -0.78 l
1.66 -0.75 l
1.66 3.00 l
1.66 0.17 l
1.66 1.40 l
1.65 1.34 l
1.66 1.20 l
1.66 1.59 l
1.66 0.28 l
1.65 0.93 l
1.66 1.51 l
1.66 2.01 l
1.66 3.25 l
1.66 1.55 l
1.66 1.57 l
1.66 -0.51 l
1.65 2.92 l
1.66 1.01 l
1.66 -1.59 l
1.66 2.54 l
1.66 0.78 l
1.65 -0.44 l
1.66 1.85 l
1.66 0.67 l
1.66 1.32 l
1.65 1.15 l
1.66 -0.63 l
1.66 1.50 l
1.66 1.27 l
1.66 0.10 l
1.65 0.47 l
1.66 3.32 l
1.66 -3.84 l
1.66 1.63 l
1.66 1.94 l
1.66 0.35 l
1.66 1.24 l
1.65 -1.08 l
1.66 1.11 l
1.66 -0.30 l
1.66 -0.11 l
1.65 1.76 l
1.66 -0.96 l
1.66 1.13 l
1.66 -1.04 l
1.66 0.72 l
1.66 1.99 l
1.65 -2.76 l
1.66 1.58 l
1.66 2.43 l
1.66 -3.36 l
1.66 3.21 l
1.66 -1.56 l
1.65 -1.41 l
1.66 1.23 l
1.66 2.18 l
1.66 -2.14 l
1.65 -0.57 l
1.66 0.96 l
1.66 1.00 l
330.53 402.25 lineto
1.66 -0.56 l
1.66 -1.65 l
1.65 3.03 l
1.66 -0.51 l
1.66 -1.11 l
1.66 0.46 l
1.66 -2.10 l
1.66 2.14 l
1.65 -0.11 l
1.66 -0.88 l
1.66 0 l
1.66 -0.43 l
1.65 0.02 l
1.66 2.23 l
1.66 -2.19 l
1.66 0.98 l
1.66 -1.72 l
1.66 3.66 l
1.66 -3.38 l
1.65 1.82 l
1.66 0.16 l
1.66 -1.56 l
1.66 0.43 l
1.65 -0.94 l
1.66 0.63 l
1.66 -0.04 l
1.66 -0.69 l
1.66 -1.67 l
1.66 1.65 l
1.65 -1.41 l
1.66 1.29 l
1.66 -2.80 l
1.66 2.50 l
1.66 -0.43 l
1.66 2.28 l
1.65 -2.34 l
1.66 -0.88 l
1.66 3.16 l
1.66 -3.50 l
1.65 0.58 l
1.66 -0.57 l
1.66 -0.85 l
1.66 0.26 l
1.66 0.09 l
1.66 -0.20 l
1.65 -0.18 l
1.66 -0.80 l
1.66 -1.35 l
1.66 3.56 l
o
0.7804 0.4863 1 rgb
np
164.17 356.40 m
1.85 0 l
1.66 0 l
1.66 -0.01 l
1.66 0 l
1.66 0 l
1.66 -0.01 l
1.66 0 l
1.65 0 l
1.66 -0.01 l
1.66 -0.01 l
1.66 -0.01 l
1.65 -0.01 l
1.66 -0.01 l
1.66 -0.01 l
1.66 -0.01 l
1.65 -0.02 l
1.66 0 l
1.66 0 l
1.66 -0.01 l
1.66 0.02 l
2.01 0 l
1.66 0.01 l
1.66 0.01 l
1.66 0.01 l
1.65 -0.01 l
1.66 0 l
1.66 0 l
1.66 0.01 l
1.65 0.03 l
1.66 0.03 l
1.66 0 l
1.66 0.03 l
1.66 0.05 l
1.65 0.12 l
1.66 0.20 l
1.66 0.39 l
1.66 0.60 l
1.66 0.75 l
1.65 0.94 l
1.66 1.10 l
1.66 1.25 l
1.66 1.32 l
1.66 1.40 l
1.66 1.48 l
1.65 1.53 l
1.66 1.46 l
1.66 1.54 l
1.66 1.48 l
1.65 1.47 l
1.66 1.39 l
1.66 1.35 l
1.66 1.39 l
1.66 1.31 l
1.66 1.25 l
1.66 1.23 l
1.65 1.12 l
1.66 1.11 l
1.66 1.08 l
1.66 1.04 l
1.66 1.00 l
1.65 0.97 l
1.66 0.88 l
1.66 0.81 l
1.66 0.80 l
1.65 0.77 l
1.66 0.74 l
1.66 0.70 l
1.66 0.65 l
1.66 0.62 l
1.65 0.59 l
1.66 0.54 l
1.66 0.51 l
1.66 0.49 l
1.66 0.44 l
1.66 0.43 l
1.66 0.40 l
1.65 0.36 l
1.66 0.36 l
1.66 0.36 l
1.66 0.28 l
1.65 0.33 l
1.66 0.24 l
1.66 0.22 l
1.66 0.25 l
1.66 0.21 l
1.66 0.15 l
1.65 0.19 l
1.66 0.17 l
1.66 0.15 l
1.66 0.20 l
1.66 0.08 l
1.66 0.11 l
1.65 0.14 l
1.66 0.07 l
1.66 0.09 l
1.66 0.07 l
1.65 0.07 l
1.66 0.03 l
1.66 0.06 l
330.53 401.34 lineto
1.66 0.02 l
1.66 0.05 l
1.65 -0.05 l
1.66 -0.03 l
1.66 -0.03 l
1.66 -0.07 l
1.66 -0.01 l
1.66 -0.05 l
1.65 -0.05 l
1.66 -0.13 l
1.66 -0.04 l
1.66 -0.09 l
1.65 -0.12 l
1.66 -0.09 l
1.66 -0.10 l
1.66 -0.10 l
1.66 -0.13 l
1.66 -0.05 l
1.66 -0.05 l
1.65 -0.20 l
1.66 -0.07 l
1.66 -0.11 l
1.66 -0.11 l
1.65 -0.11 l
1.66 -0.12 l
1.66 -0.13 l
1.66 -0.12 l
1.66 -0.15 l
1.66 -0.15 l
1.65 -0.11 l
1.66 -0.15 l
1.66 -0.13 l
1.66 -0.19 l
1.66 0.10 l
1.66 -0.43 l
1.65 -0.11 l
1.66 -0.18 l
1.66 -0.27 l
1.66 -0.16 l
1.65 -0.16 l
1.66 -0.22 l
1.66 -0.15 l
1.66 -0.20 l
1.66 -0.23 l
1.66 -0.06 l
1.65 -0.29 l
1.66 -0.22 l
1.66 -0.14 l
1.66 -0.22 l
o
/Font1 findfont 11 s
0 setgray
262.10 407.62 (a) 0 0 t
/Font5 findfont 11 s
270.76 407.62 (=) 0 0 t
/Font1 findfont 11 s
279.35 407.62 (0.00478) 0 0 t
/Font5 findfont 11 s
319.10 407.62 ( ) 0 0 t
/Font1 findfont 11 s
321.85 407.62 (c) 0 0 t
327.35 407.62 (m) 0 0 t
/Font1 findfont 8 s
336.51 413.09 (2) 0 0 t
0.75 setlinewidth
[] 0 setdash
1 setlinecap
10.00 setmiterlimit
np
342.40 406.24 m
2.88 10.67 l
o
/Font1 findfont 11 s
346.71 407.62 (s) 0 0 t
0.2000 setgray
1.07 setlinewidth
[] 0 setdash
164.17 345.63 247.60 127.77 r p1
127.88 313.13 484.13 478.88 cl
127.88 313.13 484.13 478.88 cl
127.88 313.13 484.13 478.88 cl
127.88 313.13 484.13 478.88 cl
127.88 313.13 484.13 478.88 cl
127.88 313.13 484.13 478.88 cl
127.88 313.13 484.13 478.88 cl
127.88 313.13 484.13 478.88 cl
127.88 313.13 484.13 478.88 cl
127.88 313.13 484.13 478.88 cl
127.88 313.13 484.13 478.88 cl
127.88 313.13 484.13 478.88 cl
127.88 313.13 484.13 478.88 cl
127.88 313.13 484.13 478.88 cl
127.88 313.13 484.13 478.88 cl
127.88 313.13 484.13 478.88 cl
/Font1 findfont 9 s
0.3020 setgray
159.24 353.16 (0.0) 1 0 t
159.24 378.66 (0.5) 1 0 t
159.24 404.15 (1.0) 1 0 t
159.24 429.64 (1.5) 1 0 t
159.24 455.13 (2.0) 1 0 t
127.88 313.13 484.13 478.88 cl
127.88 313.13 484.13 478.88 cl
0.2000 setgray
1.07 setlinewidth
[] 0 setdash
0 setlinecap
1 setlinejoin
10.00 setmiterlimit
np
161.43 356.40 m
2.74 0 l
o
np
161.43 381.89 m
2.74 0 l
o
np
161.43 407.38 m
2.74 0 l
o
np
161.43 432.87 m
2.74 0 l
o
np
161.43 458.36 m
2.74 0 l
o
127.88 313.13 484.13 478.88 cl
127.88 313.13 484.13 478.88 cl
127.88 313.13 484.13 478.88 cl
127.88 313.13 484.13 478.88 cl
127.88 313.13 484.13 478.88 cl
127.88 313.13 484.13 478.88 cl
127.88 313.13 484.13 478.88 cl
127.88 313.13 484.13 478.88 cl
127.88 313.13 484.13 478.88 cl
127.88 313.13 484.13 478.88 cl
0.2000 setgray
1.07 setlinewidth
[] 0 setdash
0 setlinecap
1 setlinejoin
10.00 setmiterlimit
np
164.17 342.89 m
0 2.74 l
o
np
211.83 342.89 m
0 2.74 l
o
np
259.50 342.89 m
0 2.74 l
o
np
307.16 342.89 m
0 2.74 l
o
np
354.82 342.89 m
0 2.74 l
o
np
402.48 342.89 m
0 2.74 l
o
127.88 313.13 484.13 478.88 cl
127.88 313.13 484.13 478.88 cl
/Font1 findfont 9 s
0.3020 setgray
164.17 334.23 (0) .5 0 t
211.83 334.23 (10) .5 0 t
259.50 334.23 (20) .5 0 t
307.16 334.23 (30) .5 0 t
354.82 334.23 (40) .5 0 t
402.48 334.23 (50) .5 0 t
127.88 313.13 484.13 478.88 cl
127.88 313.13 484.13 478.88 cl
127.88 313.13 484.13 478.88 cl
127.88 313.13 484.13 478.88 cl
127.88 313.13 484.13 478.88 cl
127.88 313.13 484.13 478.88 cl
/Font1 findfont 11 s
0 setgray
287.98 320.85 (t \(s\)) .5 0 t
127.88 313.13 484.13 478.88 cl
127.88 313.13 484.13 478.88 cl
/Font1 findfont 11 s
0 setgray
141.25 409.51 (T) .5 90 t
127.88 313.13 484.13 478.88 cl
127.88 313.13 484.13 478.88 cl
127.88 313.13 484.13 478.88 cl
127.88 313.13 484.13 478.88 cl
127.88 313.13 484.13 478.88 cl
127.88 313.13 484.13 478.88 cl
127.88 313.13 484.13 478.88 cl
127.88 313.13 484.13 478.88 cl
/bg { 1 setgray } def
423.12 362.62 55.53 93.78 r p2
127.88 313.13 484.13 478.88 cl
127.88 313.13 484.13 478.88 cl
/Font1 findfont 11 s
0 setgray
428.79 442.28 (location) 0 0 t
127.88 313.13 484.13 478.88 cl
127.88 313.13 484.13 478.88 cl
/bg { 1 setgray } def
428.79 420.13 17.28 17.28 r p2
127.88 313.13 484.13 478.88 cl
127.88 313.13 484.13 478.88 cl
0.9725 0.4627 0.4275 rgb
1.07 setlinewidth
[] 0 setdash
0 setlinecap
1 setlinejoin
10.00 setmiterlimit
np
430.51 428.77 m
13.83 0 l
o
127.88 313.13 484.13 478.88 cl
127.88 313.13 484.13 478.88 cl
/bg { 1 setgray } def
428.79 402.85 17.28 17.28 r p2
127.88 313.13 484.13 478.88 cl
127.88 313.13 484.13 478.88 cl
0.4863 0.6824 0 rgb
1.07 setlinewidth
[] 0 setdash
0 setlinecap
1 setlinejoin
10.00 setmiterlimit
np
430.51 411.49 m
13.83 0 l
o
127.88 313.13 484.13 478.88 cl
127.88 313.13 484.13 478.88 cl
/bg { 1 setgray } def
428.79 385.57 17.28 17.28 r p2
127.88 313.13 484.13 478.88 cl
127.88 313.13 484.13 478.88 cl
0 0.7490 0.7686 rgb
1.07 setlinewidth
[] 0 setdash
0 setlinecap
1 setlinejoin
10.00 setmiterlimit
np
430.51 394.21 m
13.83 0 l
o
127.88 313.13 484.13 478.88 cl
127.88 313.13 484.13 478.88 cl
/bg { 1 setgray } def
428.79 368.29 17.28 17.28 r p2
127.88 313.13 484.13 478.88 cl
127.88 313.13 484.13 478.88 cl
0.7804 0.4863 1 rgb
1.07 setlinewidth
[] 0 setdash
0 setlinecap
1 setlinejoin
10.00 setmiterlimit
np
430.51 376.93 m
13.83 0 l
o
127.88 313.13 484.13 478.88 cl
127.88 313.13 484.13 478.88 cl
/Font1 findfont 9 s
0 setgray
448.23 425.54 (1) 0 0 t
127.88 313.13 484.13 478.88 cl
127.88 313.13 484.13 478.88 cl
/Font1 findfont 9 s
0 setgray
448.23 408.26 (2) 0 0 t
127.88 313.13 484.13 478.88 cl
127.88 313.13 484.13 478.88 cl
/Font1 findfont 9 s
0 setgray
448.23 390.98 (3) 0 0 t
127.88 313.13 484.13 478.88 cl
127.88 313.13 484.13 478.88 cl
/Font1 findfont 9 s
0 setgray
448.23 373.70 (theor) 0 ta
0.270 (y) tb gr
127.88 313.13 484.13 478.88 cl
127.88 313.13 484.13 478.88 cl
127.88 313.13 484.13 478.88 cl
127.88 313.13 484.13 478.88 cl
127.88 313.13 484.13 478.88 cl
127.88 313.13 484.13 478.88 cl
127.88 313.13 484.13 478.88 cl
127.88 313.13 484.13 478.88 cl
127.88 313.13 484.13 478.88 cl
127.88 313.13 484.13 478.88 cl
ep
%%Trailer
%%Pages: 1
%%EOF
