%!PS-Adobe-3.0 EPSF-3.0
%%DocumentNeededResources: font Helvetica
%%+ font Helvetica-Bold
%%+ font Helvetica-Oblique
%%+ font Helvetica-BoldOblique
%%+ font Symbol
%%Title: R Graphics Output
%%Creator: R Software
%%Pages: (atend)
%%BoundingBox: 0 0 366 223
%%EndComments
%%BeginProlog
/bp  { gs sRGB gs } def
% begin .ps.prolog
/gs  { gsave } bind def
/gr  { grestore } bind def
/ep  { showpage gr gr } bind def
/m   { moveto } bind def
/l  { rlineto } bind def
/np  { newpath } bind def
/cp  { closepath } bind def
/f   { fill } bind def
/o   { stroke } bind def
/c   { newpath 0 360 arc } bind def
/r   { 4 2 roll moveto 1 copy 3 -1 roll exch 0 exch rlineto 0 rlineto -1 mul 0 exch rlineto closepath } bind def
/p1  { stroke } bind def
/p2  { gsave bg fill grestore newpath } bind def
/p3  { gsave bg fill grestore stroke } bind def
/p6  { gsave bg eofill grestore newpath } bind def
/p7  { gsave bg eofill grestore stroke } bind def
/t   { 5 -2 roll moveto gsave rotate
       1 index stringwidth pop
       mul neg 0 rmoveto show grestore } bind def
/ta  { 4 -2 roll moveto gsave rotate show } bind def
/tb  { 2 -1 roll 0 rmoveto show } bind def
/cl  { grestore gsave newpath 3 index 3 index moveto 1 index
       4 -1 roll lineto  exch 1 index lineto lineto
       closepath clip newpath } bind def
/rgb { setrgbcolor } bind def
/s   { scalefont setfont } bind def
% end   .ps.prolog
/sRGB { [ /CIEBasedABC
          << /DecodeLMN
               [ { dup 0.03928 le
                        {12.92321 div}
                        {0.055 add 1.055 div 2.4 exp }
                     ifelse
                 } bind dup dup
               ]
             /MatrixLMN [0.412457 0.212673 0.019334
                         0.357576 0.715152 0.119192
                         0.180437 0.072175 0.950301]
             /WhitePoint [0.9505 1.0 1.0890]
           >>
         ] setcolorspace } bind def
/srgb { setcolor } bind def
% begin encoding
/WinAnsiEncoding [
 /.notdef /.notdef /.notdef /.notdef /.notdef /.notdef /.notdef /.notdef
 /.notdef /.notdef /.notdef /.notdef /.notdef /.notdef /.notdef /.notdef
 /.notdef /.notdef /.notdef /.notdef /.notdef /.notdef /.notdef /.notdef
 /.notdef /.notdef /.notdef /.notdef /.notdef /.notdef /.notdef /.notdef
 /space /exclam /quotedbl /numbersign /dollar /percent /ampersand /quoteright
 /parenleft /parenright /asterisk /plus /comma /minus /period /slash
 /zero /one /two /three /four /five /six /seven
 /eight /nine /colon /semicolon /less /equal /greater /question
 /at /A /B /C /D /E /F /G
 /H /I /J /K /L /M /N /O
 /P /Q /R /S /T /U /V /W
 /X /Y /Z /bracketleft /backslash /bracketright /asciicircum /underscore
 /grave /a /b /c /d /e /f /g
 /h /i /j /k /l /m /n /o
 /p /q /r /s /t /u /v /w
 /x /y /z /braceleft /bar /braceright /asciitilde /.notdef
 /Euro /.notdef /quotesinglbase /florin /quotedblbase /ellipsis /dagger /daggerdbl
 /circumflex /perthousand /Scaron /guilsinglleft /OE /.notdef /Zcaron /.notdef
 /.notdef /quoteleft /quoteright /quotedblleft /quotedblright /bullet /endash /emdash
 /tilde /trademark /scaron /guilsinglright /oe /.notdef /zcaron /Ydieresis
 /space /exclamdown /cent /sterling /currency /yen /brokenbar /section
 /dieresis /copyright /ordfeminine /guillemotleft /logicalnot /hyphen /registered /macron
 /degree /plusminus /twosuperior /threesuperior /acute /mu /paragraph /periodcentered
 /cedilla /onesuperior /ordmasculine /guillemotright /onequarter /onehalf /threequarters /questiondown
 /Agrave /Aacute /Acircumflex /Atilde /Adieresis /Aring /AE /Ccedilla
 /Egrave /Eacute /Ecircumflex /Edieresis /Igrave /Iacute /Icircumflex /Idieresis
 /Eth /Ntilde /Ograve /Oacute /Ocircumflex /Otilde /Odieresis /multiply
 /Oslash /Ugrave /Uacute /Ucircumflex /Udieresis /Yacute /Thorn /germandbls
 /agrave /aacute /acircumflex /atilde /adieresis /aring /ae /ccedilla
 /egrave /eacute /ecircumflex /edieresis /igrave /iacute /icircumflex /idieresis
 /eth /ntilde /ograve /oacute /ocircumflex /otilde /odieresis /divide
 /oslash /ugrave /uacute /ucircumflex /udieresis /yacute /thorn /ydieresis
]
 def
% end encoding
%%IncludeResource: font Helvetica
/Helvetica findfont
dup length dict begin
  {1 index /FID ne {def} {pop pop} ifelse} forall
  /Encoding WinAnsiEncoding def
  currentdict
  end
/Font1 exch definefont pop
%%IncludeResource: font Helvetica-Bold
/Helvetica-Bold findfont
dup length dict begin
  {1 index /FID ne {def} {pop pop} ifelse} forall
  /Encoding WinAnsiEncoding def
  currentdict
  end
/Font2 exch definefont pop
%%IncludeResource: font Helvetica-Oblique
/Helvetica-Oblique findfont
dup length dict begin
  {1 index /FID ne {def} {pop pop} ifelse} forall
  /Encoding WinAnsiEncoding def
  currentdict
  end
/Font3 exch definefont pop
%%IncludeResource: font Helvetica-BoldOblique
/Helvetica-BoldOblique findfont
dup length dict begin
  {1 index /FID ne {def} {pop pop} ifelse} forall
  /Encoding WinAnsiEncoding def
  currentdict
  end
/Font4 exch definefont pop
%%IncludeResource: font Symbol
/Symbol findfont
dup length dict begin
  {1 index /FID ne {def} {pop pop} ifelse} forall
  currentdict
  end
/Font5 exch definefont pop
%%EndProlog
%%Page: 1 1
bp
0.00 0.00 366.00 222.75 cl
0.00 0.00 366.00 222.75 cl
0.00 0.00 366.00 222.75 cl
0.00 0.00 366.00 222.75 cl
0.00 0.00 366.00 222.75 cl
0.00 0.00 366.00 222.75 cl
0.00 0.00 366.00 222.75 cl
0.00 0.00 366.00 222.75 cl
0.00 0.00 366.00 222.75 cl
/bg { 1 1 1 srgb } def
1 1 1 srgb
1.07 setlinewidth
[] 0 setdash
1 setlinecap
1 setlinejoin
10.00 setmiterlimit
0.00 0.00 366.00 222.75 r p3
0.00 0.00 366.00 222.75 cl
0.00 0.00 366.00 222.75 cl
0.00 0.00 366.00 222.75 cl
37.39 31.35 287.07 217.27 cl
/bg { 0.9216 0.9216 0.9216 srgb } def
37.39 31.35 249.67 185.92 r p2
1 1 1 srgb
0.53 setlinewidth
[] 0 setdash
0 setlinecap
1 setlinejoin
10.00 setmiterlimit
np
37.39 56.56 m
249.68 0 l
o
np
37.39 89.89 m
249.68 0 l
o
np
37.39 123.23 m
249.68 0 l
o
np
37.39 156.57 m
249.68 0 l
o
np
37.39 189.91 m
249.68 0 l
o
np
37.39 31.35 m
0 185.92 l
o
np
92.88 31.35 m
0 185.92 l
o
np
148.36 31.35 m
0 185.92 l
o
np
203.84 31.35 m
0 185.92 l
o
np
259.33 31.35 m
0 185.92 l
o
1.07 setlinewidth
[] 0 setdash
np
37.39 39.89 m
249.68 0 l
o
np
37.39 73.23 m
249.68 0 l
o
np
37.39 106.56 m
249.68 0 l
o
np
37.39 139.90 m
249.68 0 l
o
np
37.39 173.24 m
249.68 0 l
o
np
37.39 206.58 m
249.68 0 l
o
np
65.14 31.35 m
0 185.92 l
o
np
120.62 31.35 m
0 185.92 l
o
np
176.10 31.35 m
0 185.92 l
o
np
231.59 31.35 m
0 185.92 l
o
np
287.07 31.35 m
0 185.92 l
o
1 0.3882 0.2784 srgb
1.00 setmiterlimit
np
37.39 39.89 m
2.53 0 l
2.52 0 l
2.52 0 l
2.52 0 l
2.52 0 l
2.53 0 l
2.52 0 l
2.52 0 l
2.52 0 l
2.52 0 l
2.53 0 l
2.52 -0.09 l
2.52 0.03 l
2.52 0.56 l
2.52 3.19 l
2.53 8.25 l
2.52 13.86 l
2.52 18.09 l
2.52 20.13 l
2.52 20.13 l
2.53 18.68 l
2.52 16.37 l
2.52 13.72 l
2.52 11.08 l
2.52 8.61 l
2.53 6.43 l
2.52 4.55 l
2.52 2.99 l
2.52 1.70 l
2.52 0.65 l
2.53 -0.19 l
2.52 -0.87 l
2.52 -1.38 l
2.52 -1.79 l
2.52 -2.09 l
2.52 -2.33 l
2.53 -2.49 l
2.52 -2.60 l
2.52 -2.67 l
2.52 -2.71 l
2.52 -2.71 l
2.53 -2.71 l
2.52 -2.69 l
2.52 -2.64 l
2.52 -2.59 l
2.52 -2.54 l
2.53 -2.48 l
2.52 -2.41 l
2.52 -2.34 l
2.52 -2.27 l
2.52 -2.20 l
2.53 -2.14 l
2.52 -2.06 l
2.52 -1.99 l
2.52 -1.92 l
2.52 -1.86 l
2.53 -1.79 l
2.52 -1.72 l
2.52 -1.67 l
2.52 -1.60 l
2.52 -1.55 l
2.53 -1.49 l
2.52 -1.43 l
2.52 -1.38 l
2.52 -1.33 l
2.52 -1.28 l
2.53 -1.24 l
2.52 -1.18 l
2.52 -1.15 l
2.52 -1.10 l
2.52 -1.06 l
2.53 -1.02 l
2.52 -0.98 l
2.52 -0.94 l
2.52 -0.92 l
2.52 -0.87 l
2.53 -0.85 l
2.52 -0.81 l
2.52 -0.78 l
2.52 -0.76 l
2.52 -0.72 l
2.53 -0.70 l
2.52 -0.67 l
2.52 -0.65 l
2.52 -0.63 l
2.52 -0.60 l
2.52 -0.58 l
2.53 -0.56 l
2.52 -0.54 l
2.52 -0.52 l
2.52 -0.50 l
2.52 -0.48 l
2.53 -0.46 l
2.52 -0.45 l
2.52 -0.43 l
2.52 -0.42 l
2.52 -0.40 l
2.53 -0.38 l
2.52 -0.38 l
o
0.8039 0.7451 0.4392 srgb
np
37.39 39.89 m
2.53 0 l
2.52 0 l
2.52 0 l
2.52 0 l
2.52 0 l
2.53 0 l
2.52 0 l
2.52 0 l
2.52 0 l
2.52 0 l
2.53 0 l
2.52 -0.09 l
2.52 0.03 l
2.52 0.55 l
2.52 3.14 l
2.53 8.01 l
2.52 13.25 l
2.52 17.03 l
2.52 18.69 l
2.52 18.48 l
2.53 16.97 l
2.52 14.78 l
2.52 12.34 l
2.52 9.93 l
2.52 7.74 l
2.53 5.80 l
2.52 4.14 l
2.52 2.77 l
2.52 1.63 l
2.52 0.71 l
2.53 -0.04 l
2.52 -0.64 l
2.52 -1.10 l
2.52 -1.47 l
2.52 -1.75 l
2.52 -1.96 l
2.53 -2.11 l
2.52 -2.23 l
2.52 -2.29 l
2.52 -2.34 l
2.52 -2.35 l
2.53 -2.35 l
2.52 -2.34 l
2.52 -2.30 l
2.52 -2.27 l
2.52 -2.22 l
2.53 -2.17 l
2.52 -2.12 l
2.52 -2.06 l
2.52 -2.00 l
2.52 -1.95 l
2.53 -1.88 l
2.52 -1.82 l
2.52 -1.76 l
2.52 -1.70 l
2.52 -1.64 l
2.53 -1.59 l
2.52 -1.53 l
2.52 -1.48 l
2.52 -1.42 l
2.52 -1.37 l
2.53 -1.33 l
2.52 -1.27 l
2.52 -1.23 l
2.52 -1.18 l
2.52 -1.14 l
2.53 -1.10 l
2.52 -1.06 l
2.52 -1.02 l
2.52 -0.98 l
2.52 -0.94 l
2.53 -0.91 l
2.52 -0.87 l
2.52 -0.85 l
2.52 -0.81 l
2.52 -0.78 l
2.53 -0.76 l
2.52 -0.72 l
2.52 -0.70 l
2.52 -0.67 l
2.52 -0.65 l
2.53 -0.63 l
2.52 -0.60 l
2.52 -0.58 l
2.52 -0.56 l
2.52 -0.54 l
2.52 -0.51 l
2.53 -0.50 l
2.52 -0.49 l
2.52 -0.46 l
2.52 -0.45 l
2.52 -0.43 l
2.53 -0.41 l
2.52 -0.41 l
2.52 -0.38 l
2.52 -0.38 l
2.52 -0.35 l
2.53 -0.35 l
2.52 -0.34 l
o
0.5608 0.7373 0.5608 srgb
np
37.39 39.89 m
2.53 0 l
2.52 0 l
2.52 0 l
2.52 0 l
2.52 0 l
2.53 0 l
2.52 0 l
2.52 0 l
2.52 0 l
2.52 0 l
2.53 0 l
2.52 -0.09 l
2.52 0.03 l
2.52 0.46 l
2.52 2.53 l
2.53 6.30 l
2.52 10.27 l
2.52 13.05 l
2.52 14.24 l
2.52 14.04 l
2.53 12.91 l
2.52 11.30 l
2.52 9.54 l
2.52 7.81 l
2.52 6.22 l
2.53 4.83 l
2.52 3.62 l
2.52 2.62 l
2.52 1.78 l
2.52 1.08 l
2.53 0.52 l
2.52 0.05 l
2.52 -0.31 l
2.52 -0.61 l
2.52 -0.85 l
2.52 -1.03 l
2.53 -1.17 l
2.52 -1.28 l
2.52 -1.36 l
2.52 -1.41 l
2.52 -1.45 l
2.53 -1.46 l
2.52 -1.47 l
2.52 -1.47 l
2.52 -1.46 l
2.52 -1.44 l
2.53 -1.41 l
2.52 -1.39 l
2.52 -1.35 l
2.52 -1.33 l
2.52 -1.29 l
2.53 -1.25 l
2.52 -1.22 l
2.52 -1.18 l
2.52 -1.14 l
2.52 -1.11 l
2.53 -1.07 l
2.52 -1.03 l
2.52 -1.00 l
2.52 -0.97 l
2.52 -0.93 l
2.53 -0.90 l
2.52 -0.87 l
2.52 -0.84 l
2.52 -0.81 l
2.52 -0.78 l
2.53 -0.75 l
2.52 -0.72 l
2.52 -0.70 l
2.52 -0.68 l
2.52 -0.64 l
2.53 -0.63 l
2.52 -0.60 l
2.52 -0.58 l
2.52 -0.57 l
2.52 -0.54 l
2.53 -0.52 l
2.52 -0.50 l
2.52 -0.48 l
2.52 -0.47 l
2.52 -0.45 l
2.53 -0.43 l
2.52 -0.42 l
2.52 -0.40 l
2.52 -0.39 l
2.52 -0.38 l
2.52 -0.36 l
2.53 -0.35 l
2.52 -0.33 l
2.52 -0.33 l
2.52 -0.31 l
2.52 -0.31 l
2.53 -0.29 l
2.52 -0.28 l
2.52 -0.27 l
2.52 -0.26 l
2.52 -0.26 l
2.53 -0.24 l
2.52 -0.24 l
o
0.5294 0.8078 0.9804 srgb
np
37.39 39.89 m
2.53 0 l
2.52 0 l
2.52 0 l
2.52 0 l
2.52 0 l
2.53 0 l
2.52 0 l
2.52 0 l
2.52 0 l
2.52 0 l
2.53 0 l
2.52 -0.04 l
2.52 0.01 l
2.52 0.25 l
2.52 1.41 l
2.53 3.63 l
2.52 6.08 l
2.52 7.95 l
2.52 8.91 l
2.52 9.04 l
2.53 8.57 l
2.52 7.76 l
2.52 6.78 l
2.52 5.79 l
2.52 4.84 l
2.53 3.99 l
2.52 3.22 l
2.52 2.57 l
2.52 2.02 l
2.52 1.54 l
2.53 1.14 l
2.52 0.82 l
2.52 0.54 l
2.52 0.31 l
2.52 0.13 l
2.52 -0.03 l
2.53 -0.15 l
2.52 -0.25 l
2.52 -0.33 l
2.52 -0.39 l
2.52 -0.44 l
2.53 -0.48 l
2.52 -0.51 l
2.52 -0.53 l
2.52 -0.54 l
2.52 -0.55 l
2.53 -0.55 l
2.52 -0.56 l
2.52 -0.55 l
2.52 -0.54 l
2.52 -0.54 l
2.53 -0.53 l
2.52 -0.51 l
2.52 -0.51 l
2.52 -0.49 l
2.52 -0.48 l
2.53 -0.47 l
2.52 -0.45 l
2.52 -0.45 l
2.52 -0.43 l
2.52 -0.41 l
2.53 -0.40 l
2.52 -0.39 l
2.52 -0.38 l
2.52 -0.37 l
2.52 -0.35 l
2.53 -0.34 l
2.52 -0.34 l
2.52 -0.32 l
2.52 -0.31 l
2.52 -0.29 l
2.53 -0.29 l
2.52 -0.28 l
2.52 -0.27 l
2.52 -0.26 l
2.52 -0.26 l
2.53 -0.24 l
2.52 -0.24 l
2.52 -0.22 l
2.52 -0.23 l
2.52 -0.21 l
2.53 -0.20 l
2.52 -0.20 l
2.52 -0.20 l
2.52 -0.18 l
2.52 -0.18 l
2.52 -0.18 l
2.53 -0.17 l
2.52 -0.16 l
2.52 -0.16 l
2.52 -0.15 l
2.52 -0.15 l
2.53 -0.15 l
2.52 -0.14 l
2.52 -0.13 l
2.52 -0.13 l
2.52 -0.13 l
2.53 -0.12 l
2.52 -0.12 l
o
1 0.6275 0.4784 srgb
np
37.39 39.89 m
2.53 0 l
2.52 0 l
2.52 0 l
2.52 0 l
2.52 0 l
2.53 0 l
2.52 0 l
2.52 0 l
2.52 0 l
2.52 0 l
2.53 0 l
2.52 -0.02 l
2.52 0 l
2.52 0.14 l
2.52 0.80 l
2.53 2.08 l
2.52 3.51 l
2.52 4.65 l
2.52 5.30 l
2.52 5.50 l
2.53 5.35 l
2.52 4.98 l
2.52 4.51 l
2.52 4.01 l
2.52 3.52 l
2.53 3.05 l
2.52 2.65 l
2.52 2.27 l
2.52 1.96 l
2.52 1.67 l
2.53 1.44 l
2.52 1.22 l
2.52 1.05 l
2.52 0.89 l
2.52 0.77 l
2.52 0.65 l
2.53 0.55 l
2.52 0.47 l
2.52 0.40 l
2.52 0.33 l
2.52 0.29 l
2.53 0.24 l
2.52 0.20 l
2.52 0.17 l
2.52 0.14 l
2.52 0.12 l
2.53 0.10 l
2.52 0.08 l
2.52 0.06 l
2.52 0.05 l
2.52 0.04 l
2.53 0.03 l
2.52 0.02 l
2.52 0.02 l
2.52 0.01 l
2.52 0 l
2.53 0 l
2.52 -0.01 l
2.52 0 l
2.52 -0.01 l
2.52 -0.02 l
2.53 -0.01 l
2.52 -0.02 l
2.52 -0.02 l
2.52 -0.02 l
2.52 -0.02 l
2.53 -0.02 l
2.52 -0.02 l
2.52 -0.02 l
2.52 -0.03 l
2.52 -0.02 l
2.53 -0.03 l
2.52 -0.02 l
2.52 -0.03 l
2.52 -0.02 l
2.52 -0.03 l
2.53 -0.03 l
2.52 -0.02 l
2.52 -0.03 l
2.52 -0.03 l
2.52 -0.02 l
2.53 -0.03 l
2.52 -0.03 l
2.52 -0.03 l
2.52 -0.02 l
2.52 -0.03 l
2.52 -0.03 l
2.53 -0.03 l
2.52 -0.02 l
2.52 -0.03 l
2.52 -0.03 l
2.52 -0.03 l
2.53 -0.02 l
2.52 -0.03 l
2.52 -0.03 l
2.52 -0.03 l
2.52 -0.02 l
2.53 -0.03 l
2.52 -0.03 l
o
/Font3 findfont 11 s
0 0 0 srgb
225.46 203.63 (R) 0 0 t
/Font1 findfont 8 s
234.59 201.62 (1) 0 0 t
/Font5 findfont 11 s
241.58 203.63 (=) 0 0 t
/Font1 findfont 11 s
250.16 203.63 (0.5) 0 0 t
/Font3 findfont 11 s
230.05 190.38 (R) 0 0 t
/Font1 findfont 8 s
239.17 188.36 (0) 0 0 t
/Font5 findfont 11 s
246.17 190.38 (=) 0 0 t
/Font1 findfont 11 s
254.75 190.38 (0) 0 0 t
/Font3 findfont 11 s
232.33 177.12 (r) 0 0 t
/Font1 findfont 8 s
236.88 175.11 (0) 0 0 t
/Font5 findfont 11 s
243.88 177.12 (=) 0 0 t
/Font1 findfont 11 s
252.46 177.12 (0) 0 0 t
/Font3 findfont 11 s
215.04 162.62 (L) 0 0 t
0.75 setlinewidth
[] 0 setdash
1 setlinecap
10.00 setmiterlimit
np
223.78 161.23 m
2.88 10.68 l
o
228.09 162.62 (R) 0 0 t
/Font5 findfont 11 s
239.77 162.62 (=) 0 0 t
/Font1 findfont 11 s
248.35 162.62 (0.411) 0 0 t
/Font3 findfont 11 s
224.63 149.39 (H) 0 0 t
/Font5 findfont 11 s
236.30 149.39 (=) 0 0 t
/Font1 findfont 11 s
244.88 149.39 (0.01) 0 0 t
/Font3 findfont 11 s
221.83 137.87 (t) 0 0 t
/Font1 findfont 8 s
225.99 135.86 (p) 0 0 t
/Font5 findfont 11 s
232.98 137.87 (=) 0 0 t
/Font1 findfont 11 s
241.56 137.87 (0.001) 0 0 t
0.00 0.00 366.00 222.75 cl
0.00 0.00 366.00 222.75 cl
0.00 0.00 366.00 222.75 cl
0.00 0.00 366.00 222.75 cl
0.00 0.00 366.00 222.75 cl
0.00 0.00 366.00 222.75 cl
/Font1 findfont 9 s
0.3020 0.3020 0.3020 srgb
32.46 36.66 (0.0) 1 0 t
32.46 70.00 (0.5) 1 0 t
32.46 103.33 (1.0) 1 0 t
32.46 136.67 (1.5) 1 0 t
32.46 170.01 (2.0) 1 0 t
32.46 203.35 (2.5) 1 0 t
0.00 0.00 366.00 222.75 cl
0.00 0.00 366.00 222.75 cl
0.2000 0.2000 0.2000 srgb
1.07 setlinewidth
[] 0 setdash
0 setlinecap
1 setlinejoin
10.00 setmiterlimit
np
34.65 39.89 m
2.74 0 l
o
np
34.65 73.23 m
2.74 0 l
o
np
34.65 106.56 m
2.74 0 l
o
np
34.65 139.90 m
2.74 0 l
o
np
34.65 173.24 m
2.74 0 l
o
np
34.65 206.58 m
2.74 0 l
o
0.00 0.00 366.00 222.75 cl
0.00 0.00 366.00 222.75 cl
0.00 0.00 366.00 222.75 cl
0.00 0.00 366.00 222.75 cl
0.00 0.00 366.00 222.75 cl
0.00 0.00 366.00 222.75 cl
0.00 0.00 366.00 222.75 cl
0.00 0.00 366.00 222.75 cl
0.2000 0.2000 0.2000 srgb
1.07 setlinewidth
[] 0 setdash
0 setlinecap
1 setlinejoin
10.00 setmiterlimit
np
65.14 28.61 m
0 2.74 l
o
np
120.62 28.61 m
0 2.74 l
o
np
176.10 28.61 m
0 2.74 l
o
np
231.59 28.61 m
0 2.74 l
o
np
287.07 28.61 m
0 2.74 l
o
0.00 0.00 366.00 222.75 cl
0.00 0.00 366.00 222.75 cl
/Font1 findfont 9 s
0.3020 0.3020 0.3020 srgb
65.14 19.95 (0.00) .5 0 t
120.62 19.95 (0.02) .5 0 t
176.10 19.95 (0.04) .5 0 t
231.59 19.95 (0.06) .5 0 t
287.07 19.95 (0.08) .5 0 t
0.00 0.00 366.00 222.75 cl
0.00 0.00 366.00 222.75 cl
0.00 0.00 366.00 222.75 cl
0.00 0.00 366.00 222.75 cl
/Font1 findfont 11 s
0 0 0 srgb
162.23 7.67 (time) .5 0 t
0.00 0.00 366.00 222.75 cl
0.00 0.00 366.00 222.75 cl
/Font1 findfont 11 s
0 0 0 srgb
15.57 124.31 (V) .5 90 t
0.00 0.00 366.00 222.75 cl
0.00 0.00 366.00 222.75 cl
0.00 0.00 366.00 222.75 cl
0.00 0.00 366.00 222.75 cl
/bg { 1 1 1 srgb } def
295.57 70.14 56.44 108.34 r p2
0.00 0.00 366.00 222.75 cl
0.00 0.00 366.00 222.75 cl
/Font5 findfont 11 s
0 0 0 srgb
299.82 167.72 ( ) 0 0 t
302.57 167.72 ( ) 0 0 t
/Font3 findfont 11 s
305.32 167.72 (r) 0 0 t
/Font1 findfont 8 s
309.88 165.70 (1) 0 0 t
0.00 0.00 366.00 222.75 cl
0.00 0.00 366.00 222.75 cl
/bg { 0.9490 0.9490 0.9490 srgb } def
1 1 1 srgb
1.07 setlinewidth
[] 0 setdash
1 setlinecap
1 setlinejoin
10.00 setmiterlimit
299.82 143.51 17.28 17.28 r p3
0.00 0.00 366.00 222.75 cl
0.00 0.00 366.00 222.75 cl
1 0.3882 0.2784 srgb
1.07 setlinewidth
[] 0 setdash
0 setlinecap
1 setlinejoin
10.00 setmiterlimit
np
301.55 152.15 m
13.83 0 l
o
0.00 0.00 366.00 222.75 cl
0.00 0.00 366.00 222.75 cl
1 0.3882 0.2784 srgb
1.07 setlinewidth
[] 0 setdash
0 setlinecap
1 setlinejoin
10.00 setmiterlimit
np
301.55 152.15 m
13.83 0 l
o
0.00 0.00 366.00 222.75 cl
0.00 0.00 366.00 222.75 cl
1 0.3882 0.2784 srgb
1.07 setlinewidth
[] 0 setdash
0 setlinecap
1 setlinejoin
10.00 setmiterlimit
np
301.55 152.15 m
13.83 0 l
o
0.00 0.00 366.00 222.75 cl
0.00 0.00 366.00 222.75 cl
1 0.3882 0.2784 srgb
1.07 setlinewidth
[] 0 setdash
0 setlinecap
1 setlinejoin
10.00 setmiterlimit
np
301.55 152.15 m
13.83 0 l
o
0.00 0.00 366.00 222.75 cl
0.00 0.00 366.00 222.75 cl
1 0.3882 0.2784 srgb
1.07 setlinewidth
[] 0 setdash
0 setlinecap
1 setlinejoin
10.00 setmiterlimit
np
301.55 152.15 m
13.83 0 l
o
0.00 0.00 366.00 222.75 cl
0.00 0.00 366.00 222.75 cl
/bg { 0.9490 0.9490 0.9490 srgb } def
1 1 1 srgb
1.07 setlinewidth
[] 0 setdash
1 setlinecap
1 setlinejoin
10.00 setmiterlimit
299.82 126.23 17.28 17.28 r p3
0.00 0.00 366.00 222.75 cl
0.00 0.00 366.00 222.75 cl
0.8039 0.7451 0.4392 srgb
1.07 setlinewidth
[] 0 setdash
0 setlinecap
1 setlinejoin
10.00 setmiterlimit
np
301.55 134.87 m
13.83 0 l
o
0.00 0.00 366.00 222.75 cl
0.00 0.00 366.00 222.75 cl
0.8039 0.7451 0.4392 srgb
1.07 setlinewidth
[] 0 setdash
0 setlinecap
1 setlinejoin
10.00 setmiterlimit
np
301.55 134.87 m
13.83 0 l
o
0.00 0.00 366.00 222.75 cl
0.00 0.00 366.00 222.75 cl
0.8039 0.7451 0.4392 srgb
1.07 setlinewidth
[] 0 setdash
0 setlinecap
1 setlinejoin
10.00 setmiterlimit
np
301.55 134.87 m
13.83 0 l
o
0.00 0.00 366.00 222.75 cl
0.00 0.00 366.00 222.75 cl
0.8039 0.7451 0.4392 srgb
1.07 setlinewidth
[] 0 setdash
0 setlinecap
1 setlinejoin
10.00 setmiterlimit
np
301.55 134.87 m
13.83 0 l
o
0.00 0.00 366.00 222.75 cl
0.00 0.00 366.00 222.75 cl
0.8039 0.7451 0.4392 srgb
1.07 setlinewidth
[] 0 setdash
0 setlinecap
1 setlinejoin
10.00 setmiterlimit
np
301.55 134.87 m
13.83 0 l
o
0.00 0.00 366.00 222.75 cl
0.00 0.00 366.00 222.75 cl
/bg { 0.9490 0.9490 0.9490 srgb } def
1 1 1 srgb
1.07 setlinewidth
[] 0 setdash
1 setlinecap
1 setlinejoin
10.00 setmiterlimit
299.82 108.95 17.28 17.28 r p3
0.00 0.00 366.00 222.75 cl
0.00 0.00 366.00 222.75 cl
0.5608 0.7373 0.5608 srgb
1.07 setlinewidth
[] 0 setdash
0 setlinecap
1 setlinejoin
10.00 setmiterlimit
np
301.55 117.59 m
13.83 0 l
o
0.00 0.00 366.00 222.75 cl
0.00 0.00 366.00 222.75 cl
0.5608 0.7373 0.5608 srgb
1.07 setlinewidth
[] 0 setdash
0 setlinecap
1 setlinejoin
10.00 setmiterlimit
np
301.55 117.59 m
13.83 0 l
o
0.00 0.00 366.00 222.75 cl
0.00 0.00 366.00 222.75 cl
0.5608 0.7373 0.5608 srgb
1.07 setlinewidth
[] 0 setdash
0 setlinecap
1 setlinejoin
10.00 setmiterlimit
np
301.55 117.59 m
13.83 0 l
o
0.00 0.00 366.00 222.75 cl
0.00 0.00 366.00 222.75 cl
0.5608 0.7373 0.5608 srgb
1.07 setlinewidth
[] 0 setdash
0 setlinecap
1 setlinejoin
10.00 setmiterlimit
np
301.55 117.59 m
13.83 0 l
o
0.00 0.00 366.00 222.75 cl
0.00 0.00 366.00 222.75 cl
0.5608 0.7373 0.5608 srgb
1.07 setlinewidth
[] 0 setdash
0 setlinecap
1 setlinejoin
10.00 setmiterlimit
np
301.55 117.59 m
13.83 0 l
o
0.00 0.00 366.00 222.75 cl
0.00 0.00 366.00 222.75 cl
/bg { 0.9490 0.9490 0.9490 srgb } def
1 1 1 srgb
1.07 setlinewidth
[] 0 setdash
1 setlinecap
1 setlinejoin
10.00 setmiterlimit
299.82 91.67 17.28 17.28 r p3
0.00 0.00 366.00 222.75 cl
0.00 0.00 366.00 222.75 cl
0.5294 0.8078 0.9804 srgb
1.07 setlinewidth
[] 0 setdash
0 setlinecap
1 setlinejoin
10.00 setmiterlimit
np
301.55 100.31 m
13.83 0 l
o
0.00 0.00 366.00 222.75 cl
0.00 0.00 366.00 222.75 cl
0.5294 0.8078 0.9804 srgb
1.07 setlinewidth
[] 0 setdash
0 setlinecap
1 setlinejoin
10.00 setmiterlimit
np
301.55 100.31 m
13.83 0 l
o
0.00 0.00 366.00 222.75 cl
0.00 0.00 366.00 222.75 cl
0.5294 0.8078 0.9804 srgb
1.07 setlinewidth
[] 0 setdash
0 setlinecap
1 setlinejoin
10.00 setmiterlimit
np
301.55 100.31 m
13.83 0 l
o
0.00 0.00 366.00 222.75 cl
0.00 0.00 366.00 222.75 cl
0.5294 0.8078 0.9804 srgb
1.07 setlinewidth
[] 0 setdash
0 setlinecap
1 setlinejoin
10.00 setmiterlimit
np
301.55 100.31 m
13.83 0 l
o
0.00 0.00 366.00 222.75 cl
0.00 0.00 366.00 222.75 cl
0.5294 0.8078 0.9804 srgb
1.07 setlinewidth
[] 0 setdash
0 setlinecap
1 setlinejoin
10.00 setmiterlimit
np
301.55 100.31 m
13.83 0 l
o
0.00 0.00 366.00 222.75 cl
0.00 0.00 366.00 222.75 cl
/bg { 0.9490 0.9490 0.9490 srgb } def
1 1 1 srgb
1.07 setlinewidth
[] 0 setdash
1 setlinecap
1 setlinejoin
10.00 setmiterlimit
299.82 74.39 17.28 17.28 r p3
0.00 0.00 366.00 222.75 cl
0.00 0.00 366.00 222.75 cl
1 0.6275 0.4784 srgb
1.07 setlinewidth
[] 0 setdash
0 setlinecap
1 setlinejoin
10.00 setmiterlimit
np
301.55 83.03 m
13.83 0 l
o
0.00 0.00 366.00 222.75 cl
0.00 0.00 366.00 222.75 cl
1 0.6275 0.4784 srgb
1.07 setlinewidth
[] 0 setdash
0 setlinecap
1 setlinejoin
10.00 setmiterlimit
np
301.55 83.03 m
13.83 0 l
o
0.00 0.00 366.00 222.75 cl
0.00 0.00 366.00 222.75 cl
1 0.6275 0.4784 srgb
1.07 setlinewidth
[] 0 setdash
0 setlinecap
1 setlinejoin
10.00 setmiterlimit
np
301.55 83.03 m
13.83 0 l
o
0.00 0.00 366.00 222.75 cl
0.00 0.00 366.00 222.75 cl
1 0.6275 0.4784 srgb
1.07 setlinewidth
[] 0 setdash
0 setlinecap
1 setlinejoin
10.00 setmiterlimit
np
301.55 83.03 m
13.83 0 l
o
0.00 0.00 366.00 222.75 cl
0.00 0.00 366.00 222.75 cl
1 0.6275 0.4784 srgb
1.07 setlinewidth
[] 0 setdash
0 setlinecap
1 setlinejoin
10.00 setmiterlimit
np
301.55 83.03 m
13.83 0 l
o
0.00 0.00 366.00 222.75 cl
0.00 0.00 366.00 222.75 cl
/Font1 findfont 9 s
0 0 0 srgb
319.26 148.92 (0.001) 0 0 t
0.00 0.00 366.00 222.75 cl
0.00 0.00 366.00 222.75 cl
/Font1 findfont 9 s
0 0 0 srgb
319.26 131.64 (0.25) 0 0 t
0.00 0.00 366.00 222.75 cl
0.00 0.00 366.00 222.75 cl
/Font1 findfont 9 s
0 0 0 srgb
319.26 114.36 (0.50) 0 0 t
0.00 0.00 366.00 222.75 cl
0.00 0.00 366.00 222.75 cl
/Font1 findfont 9 s
0 0 0 srgb
319.26 97.08 (0.75) 0 0 t
0.00 0.00 366.00 222.75 cl
0.00 0.00 366.00 222.75 cl
/Font1 findfont 9 s
0 0 0 srgb
319.26 79.80 (0.9999) 0 0 t
0.00 0.00 366.00 222.75 cl
0.00 0.00 366.00 222.75 cl
0.00 0.00 366.00 222.75 cl
0.00 0.00 366.00 222.75 cl
0.00 0.00 366.00 222.75 cl
0.00 0.00 366.00 222.75 cl
ep
%%Trailer
%%Pages: 1
%%EOF
