%!PS-Adobe-3.0 EPSF-3.0
%%DocumentNeededResources: font Helvetica
%%+ font Helvetica-Bold
%%+ font Helvetica-Oblique
%%+ font Helvetica-BoldOblique
%%+ font Symbol
%%Title: R Graphics Output
%%Creator: R Software
%%Pages: (atend)
%%BoundingBox: 0 0 339 208
%%EndComments
%%BeginProlog
/bp  { gs sRGB gs } def
% begin .ps.prolog
/gs  { gsave } bind def
/gr  { grestore } bind def
/ep  { showpage gr gr } bind def
/m   { moveto } bind def
/l  { rlineto } bind def
/np  { newpath } bind def
/cp  { closepath } bind def
/f   { fill } bind def
/o   { stroke } bind def
/c   { newpath 0 360 arc } bind def
/r   { 4 2 roll moveto 1 copy 3 -1 roll exch 0 exch rlineto 0 rlineto -1 mul 0 exch rlineto closepath } bind def
/p1  { stroke } bind def
/p2  { gsave bg fill grestore newpath } bind def
/p3  { gsave bg fill grestore stroke } bind def
/p6  { gsave bg eofill grestore newpath } bind def
/p7  { gsave bg eofill grestore stroke } bind def
/t   { 5 -2 roll moveto gsave rotate
       1 index stringwidth pop
       mul neg 0 rmoveto show grestore } bind def
/ta  { 4 -2 roll moveto gsave rotate show } bind def
/tb  { 2 -1 roll 0 rmoveto show } bind def
/cl  { grestore gsave newpath 3 index 3 index moveto 1 index
       4 -1 roll lineto  exch 1 index lineto lineto
       closepath clip newpath } bind def
/rgb { setrgbcolor } bind def
/s   { scalefont setfont } bind def
% end   .ps.prolog
/sRGB { [ /CIEBasedABC
          << /DecodeLMN
               [ { dup 0.03928 le
                        {12.92321 div}
                        {0.055 add 1.055 div 2.4 exp }
                     ifelse
                 } bind dup dup
               ]
             /MatrixLMN [0.412457 0.212673 0.019334
                         0.357576 0.715152 0.119192
                         0.180437 0.072175 0.950301]
             /WhitePoint [0.9505 1.0 1.0890]
           >>
         ] setcolorspace } bind def
/srgb { setcolor } bind def
% begin encoding
/WinAnsiEncoding [
 /.notdef /.notdef /.notdef /.notdef /.notdef /.notdef /.notdef /.notdef
 /.notdef /.notdef /.notdef /.notdef /.notdef /.notdef /.notdef /.notdef
 /.notdef /.notdef /.notdef /.notdef /.notdef /.notdef /.notdef /.notdef
 /.notdef /.notdef /.notdef /.notdef /.notdef /.notdef /.notdef /.notdef
 /space /exclam /quotedbl /numbersign /dollar /percent /ampersand /quoteright
 /parenleft /parenright /asterisk /plus /comma /minus /period /slash
 /zero /one /two /three /four /five /six /seven
 /eight /nine /colon /semicolon /less /equal /greater /question
 /at /A /B /C /D /E /F /G
 /H /I /J /K /L /M /N /O
 /P /Q /R /S /T /U /V /W
 /X /Y /Z /bracketleft /backslash /bracketright /asciicircum /underscore
 /grave /a /b /c /d /e /f /g
 /h /i /j /k /l /m /n /o
 /p /q /r /s /t /u /v /w
 /x /y /z /braceleft /bar /braceright /asciitilde /.notdef
 /Euro /.notdef /quotesinglbase /florin /quotedblbase /ellipsis /dagger /daggerdbl
 /circumflex /perthousand /Scaron /guilsinglleft /OE /.notdef /Zcaron /.notdef
 /.notdef /quoteleft /quoteright /quotedblleft /quotedblright /bullet /endash /emdash
 /tilde /trademark /scaron /guilsinglright /oe /.notdef /zcaron /Ydieresis
 /space /exclamdown /cent /sterling /currency /yen /brokenbar /section
 /dieresis /copyright /ordfeminine /guillemotleft /logicalnot /hyphen /registered /macron
 /degree /plusminus /twosuperior /threesuperior /acute /mu /paragraph /periodcentered
 /cedilla /onesuperior /ordmasculine /guillemotright /onequarter /onehalf /threequarters /questiondown
 /Agrave /Aacute /Acircumflex /Atilde /Adieresis /Aring /AE /Ccedilla
 /Egrave /Eacute /Ecircumflex /Edieresis /Igrave /Iacute /Icircumflex /Idieresis
 /Eth /Ntilde /Ograve /Oacute /Ocircumflex /Otilde /Odieresis /multiply
 /Oslash /Ugrave /Uacute /Ucircumflex /Udieresis /Yacute /Thorn /germandbls
 /agrave /aacute /acircumflex /atilde /adieresis /aring /ae /ccedilla
 /egrave /eacute /ecircumflex /edieresis /igrave /iacute /icircumflex /idieresis
 /eth /ntilde /ograve /oacute /ocircumflex /otilde /odieresis /divide
 /oslash /ugrave /uacute /ucircumflex /udieresis /yacute /thorn /ydieresis
]
 def
% end encoding
%%IncludeResource: font Helvetica
/Helvetica findfont
dup length dict begin
  {1 index /FID ne {def} {pop pop} ifelse} forall
  /Encoding WinAnsiEncoding def
  currentdict
  end
/Font1 exch definefont pop
%%IncludeResource: font Helvetica-Bold
/Helvetica-Bold findfont
dup length dict begin
  {1 index /FID ne {def} {pop pop} ifelse} forall
  /Encoding WinAnsiEncoding def
  currentdict
  end
/Font2 exch definefont pop
%%IncludeResource: font Helvetica-Oblique
/Helvetica-Oblique findfont
dup length dict begin
  {1 index /FID ne {def} {pop pop} ifelse} forall
  /Encoding WinAnsiEncoding def
  currentdict
  end
/Font3 exch definefont pop
%%IncludeResource: font Helvetica-BoldOblique
/Helvetica-BoldOblique findfont
dup length dict begin
  {1 index /FID ne {def} {pop pop} ifelse} forall
  /Encoding WinAnsiEncoding def
  currentdict
  end
/Font4 exch definefont pop
%%IncludeResource: font Symbol
/Symbol findfont
dup length dict begin
  {1 index /FID ne {def} {pop pop} ifelse} forall
  currentdict
  end
/Font5 exch definefont pop
%%EndProlog
%%Page: 1 1
bp
0.00 0.00 339.00 208.50 cl
0.00 0.00 339.00 208.50 cl
0.00 0.00 339.00 208.50 cl
0.00 0.00 339.00 208.50 cl
0.00 0.00 339.00 208.50 cl
0.00 0.00 339.00 208.50 cl
0.00 0.00 339.00 208.50 cl
0.00 0.00 339.00 208.50 cl
0.00 0.00 339.00 208.50 cl
/bg { 1 1 1 srgb } def
1 1 1 srgb
1.07 setlinewidth
[] 0 setdash
1 setlinecap
1 setlinejoin
10.00 setmiterlimit
0.00 0.00 339.00 208.50 r p3
0.00 0.00 339.00 208.50 cl
0.00 0.00 339.00 208.50 cl
0.00 0.00 339.00 208.50 cl
39.90 31.35 260.07 203.02 cl
/bg { 0.9216 0.9216 0.9216 srgb } def
39.90 31.35 220.17 171.67 r p2
1 1 1 srgb
0.53 setlinewidth
[] 0 setdash
0 setlinecap
1 setlinejoin
10.00 setmiterlimit
np
39.90 60.37 m
220.17 0 l
o
np
39.90 102.80 m
220.17 0 l
o
np
39.90 145.24 m
220.17 0 l
o
np
39.90 187.67 m
220.17 0 l
o
np
76.59 31.35 m
0 171.67 l
o
np
149.98 31.35 m
0 171.67 l
o
np
223.37 31.35 m
0 171.67 l
o
1.07 setlinewidth
[] 0 setdash
np
39.90 39.15 m
220.17 0 l
o
np
39.90 81.58 m
220.17 0 l
o
np
39.90 124.02 m
220.17 0 l
o
np
39.90 166.45 m
220.17 0 l
o
np
39.90 31.35 m
0 171.67 l
o
np
113.29 31.35 m
0 171.67 l
o
np
186.68 31.35 m
0 171.67 l
o
np
260.07 31.35 m
0 171.67 l
o
1 0.3882 0.2784 srgb
1.00 setmiterlimit
np
39.90 39.15 m
0.55 29.59 l
0.55 25.31 l
0.55 21.49 l
0.55 18.08 l
0.56 15.07 l
0.55 12.39 l
0.55 10.01 l
0.55 7.93 l
0.55 6.09 l
0.55 4.47 l
0.56 3.06 l
0.55 1.82 l
0.55 0.76 l
0.55 -0.17 l
0.55 -0.96 l
0.56 -1.65 l
0.55 -2.21 l
0.55 -2.70 l
0.55 -3.10 l
0.55 -3.43 l
0.55 -3.70 l
0.56 -3.90 l
0.55 -4.07 l
0.55 -4.18 l
0.55 -4.25 l
0.55 -4.30 l
0.56 -4.32 l
0.55 -4.31 l
0.55 -4.27 l
0.55 -4.23 l
0.55 -4.17 l
0.55 -4.08 l
0.56 -4.00 l
0.55 -3.91 l
0.55 -3.80 l
0.55 -3.69 l
0.55 -3.58 l
0.56 -3.46 l
0.55 -3.34 l
0.55 -3.23 l
0.55 -3.10 l
0.55 -2.99 l
0.55 -2.87 l
0.56 -2.75 l
0.55 -2.64 l
0.55 -2.52 l
0.55 -2.41 l
0.55 -2.31 l
0.55 -2.20 l
0.56 -2.10 l
0.55 -2.01 l
0.55 -1.90 l
0.55 -1.82 l
0.55 -1.73 l
0.56 -1.64 l
0.55 -1.56 l
0.55 -1.48 l
0.55 -1.40 l
0.55 -1.34 l
0.55 -1.26 l
0.56 -1.20 l
0.55 -1.14 l
0.55 -1.07 l
0.55 -1.02 l
0.55 -0.96 l
0.56 -0.91 l
0.55 -0.86 l
0.55 -0.81 l
0.55 -0.77 l
0.55 -0.72 l
0.55 -0.69 l
0.56 -0.64 l
0.55 -0.61 l
0.55 -0.58 l
0.55 -0.54 l
0.55 -0.51 l
0.56 -0.48 l
0.55 -0.46 l
0.55 -0.43 l
0.55 -0.40 l
0.55 -0.38 l
0.55 -0.35 l
0.56 -0.34 l
0.55 -0.32 l
0.55 -0.29 l
0.55 -0.28 l
0.55 -0.27 l
0.56 -0.24 l
0.55 -0.24 l
0.55 -0.21 l
0.55 -0.21 l
0.55 -0.19 l
0.55 -0.18 l
0.56 -0.17 l
0.55 -0.16 l
0.55 -0.15 l
0.55 -0.15 l
0.55 -0.13 l
0.56 -0.12 l
95.08 40.88 lineto
0.55 -0.11 l
0.55 -0.10 l
0.55 -0.10 l
0.55 -0.09 l
0.56 -0.08 l
0.55 -0.08 l
0.55 -0.08 l
0.55 -0.07 l
0.55 -0.06 l
0.56 -0.06 l
0.55 -0.06 l
0.55 -0.05 l
0.55 -0.05 l
0.55 -0.05 l
0.55 -0.05 l
0.56 -0.04 l
0.55 -0.04 l
0.55 -0.03 l
0.55 -0.04 l
0.55 -0.03 l
0.56 -0.03 l
0.55 -0.03 l
0.55 -0.02 l
0.55 -0.03 l
0.55 -0.02 l
0.55 -0.02 l
0.56 -0.02 l
0.55 -0.02 l
0.55 -0.02 l
0.55 -0.01 l
0.55 -0.02 l
0.56 -0.01 l
0.55 -0.02 l
0.55 -0.01 l
0.55 -0.01 l
0.55 -0.01 l
0.55 -0.01 l
0.56 -0.01 l
0.55 -0.01 l
0.55 -0.01 l
0.55 -0.01 l
0.55 -0.01 l
0.56 0 l
0.55 -0.01 l
0.55 -0.01 l
0.55 0 l
0.55 -0.01 l
0.55 0 l
0.56 -0.01 l
0.55 0 l
0.55 0 l
0.55 -0.01 l
0.55 0 l
0.56 0 l
0.55 -0.01 l
0.55 0 l
0.55 0 l
0.55 -0.01 l
0.55 0 l
0.56 0 l
0.55 0 l
0.55 0 l
0.55 -0.01 l
0.55 0 l
0.55 0 l
0.56 0 l
0.55 0 l
0.55 0 l
0.55 0 l
0.55 -0.01 l
0.56 0 l
0.55 0 l
0.55 0 l
0.55 0 l
0.55 0 l
0.55 0 l
0.56 0 l
0.55 0 l
0.55 0 l
0.55 0 l
0.55 0 l
0.56 0 l
0.55 0 l
0.55 0 l
0.55 0 l
0.55 -0.01 l
0.55 0 l
0.56 0 l
0.55 0 l
0.55 0 l
0.55 0 l
0.55 0 l
0.56 0 l
0.55 0 l
0.55 0 l
0.55 0 l
0.55 0 l
0.55 0 l
0.56 0 l
150.26 39.15 lineto
0.55 0 l
0.55 0 l
0.55 0 l
0.56 0 l
0.55 0 l
0.55 0 l
0.55 0 l
0.55 0 l
0.55 0 l
0.56 0 l
0.55 0 l
0.55 0 l
0.55 0 l
0.55 0 l
0.56 0 l
0.55 0 l
0.55 0 l
0.55 0 l
0.55 0 l
0.55 0 l
0.56 0 l
0.55 0 l
0.55 0 l
0.55 0 l
0.55 0 l
0.56 0 l
0.55 0 l
0.55 0 l
0.55 0 l
0.55 0 l
0.55 0 l
0.56 0 l
0.55 0 l
0.55 0 l
0.55 0 l
0.55 0 l
0.56 0 l
0.55 0 l
0.55 0 l
0.55 0 l
0.55 0 l
0.55 0 l
0.56 0 l
0.55 0 l
0.55 0 l
0.55 0 l
0.55 0 l
0.56 0 l
0.55 0 l
0.55 0 l
0.55 0 l
0.55 0 l
0.55 0 l
0.56 0 l
0.55 0 l
0.55 0 l
0.55 0 l
0.55 0 l
0.56 0 l
0.55 0 l
0.55 0 l
0.55 0 l
0.55 0 l
0.55 0 l
0.56 0 l
0.55 0 l
0.55 0 l
0.55 0 l
0.55 0 l
0.56 0 l
0.55 0 l
0.55 0 l
0.55 0 l
0.55 0 l
0.55 0 l
0.56 0 l
0.55 0 l
0.55 0 l
0.55 0 l
0.55 0 l
0.55 0 l
0.56 0 l
0.55 0 l
0.55 0 l
0.55 0 l
0.55 0 l
0.56 0 l
0.55 0 l
0.55 0 l
0.55 0 l
0.55 0 l
0.55 0 l
0.56 0 l
0.55 0 l
0.55 0 l
0.55 0 l
0.55 0 l
0.56 0 l
0.55 0 l
205.44 39.15 lineto
0.55 0 l
0.55 0 l
0.55 0 l
0.56 0 l
0.55 0 l
0.55 0 l
0.55 0 l
0.55 0 l
0.56 0 l
0.55 0 l
0.55 0 l
0.55 0 l
0.55 0 l
0.55 0 l
0.56 0 l
0.55 0 l
0.55 0 l
0.55 0 l
0.55 0 l
0.56 0 l
0.55 0 l
0.55 0 l
0.55 0 l
0.55 0 l
0.55 0 l
0.56 0 l
0.55 0 l
0.55 0 l
0.55 0 l
0.55 0 l
0.56 0 l
0.55 0 l
0.55 0 l
0.55 0 l
0.55 0 l
0.55 0 l
0.56 0 l
0.55 0 l
0.55 0 l
0.55 0 l
0.55 0 l
0.56 0 l
0.55 0 l
0.55 0 l
0.55 0 l
0.55 0 l
0.55 0 l
0.56 0 l
0.55 0 l
0.55 0 l
0.55 0 l
0.55 0 l
0.56 0 l
0.55 0 l
0.55 0 l
0.55 0 l
0.55 0 l
0.55 0 l
0.56 0 l
0.55 0 l
0.55 0 l
0.55 0 l
0.55 0 l
0.56 0 l
0.55 0 l
0.55 0 l
0.55 0 l
0.55 0 l
0.55 0 l
0.56 0 l
0.55 0 l
0.55 0 l
0.55 0 l
0.55 0 l
0.56 0 l
0.55 0 l
0.55 0 l
0.55 0 l
0.55 0 l
0.55 0 l
0.56 0 l
0.55 0 l
0.55 0 l
0.55 0 l
0.55 0 l
0.55 0 l
0.56 0 l
0.55 0 l
0.55 0 l
0.55 0 l
0.55 0 l
0.56 0 l
0.55 0 l
0.55 0 l
0.55 0 l
0.55 0 l
0.55 0 l
0.56 0 l
0.55 0 l
o
0.4941 0.7529 0.9333 srgb
np
39.90 39.15 m
0.55 7.68 l
0.55 7.12 l
0.55 6.58 l
0.55 6.07 l
0.56 5.60 l
0.55 5.14 l
0.55 4.73 l
0.55 4.32 l
0.55 3.94 l
0.55 3.59 l
0.56 3.25 l
0.55 2.94 l
0.55 2.65 l
0.55 2.36 l
0.55 2.11 l
0.56 1.86 l
0.55 1.62 l
0.55 1.42 l
0.55 1.21 l
0.55 1.02 l
0.55 0.85 l
0.56 0.68 l
0.55 0.53 l
0.55 0.39 l
0.55 0.25 l
0.55 0.12 l
0.56 0.01 l
0.55 -0.09 l
0.55 -0.20 l
0.55 -0.28 l
0.55 -0.37 l
0.55 -0.45 l
0.56 -0.52 l
0.55 -0.59 l
0.55 -0.65 l
0.55 -0.70 l
0.55 -0.75 l
0.56 -0.80 l
0.55 -0.84 l
0.55 -0.88 l
0.55 -0.91 l
0.55 -0.93 l
0.55 -0.97 l
0.56 -0.99 l
0.55 -1.00 l
0.55 -1.03 l
0.55 -1.04 l
0.55 -1.05 l
0.55 -1.06 l
0.56 -1.07 l
0.55 -1.07 l
0.55 -1.08 l
0.55 -1.08 l
0.55 -1.08 l
0.56 -1.07 l
0.55 -1.08 l
0.55 -1.07 l
0.55 -1.07 l
0.55 -1.06 l
0.55 -1.05 l
0.56 -1.05 l
0.55 -1.03 l
0.55 -1.03 l
0.55 -1.02 l
0.55 -1.00 l
0.56 -1.00 l
0.55 -0.98 l
0.55 -0.97 l
0.55 -0.96 l
0.55 -0.94 l
0.55 -0.93 l
0.56 -0.91 l
0.55 -0.91 l
0.55 -0.88 l
0.55 -0.88 l
0.55 -0.85 l
0.56 -0.85 l
0.55 -0.83 l
0.55 -0.81 l
0.55 -0.80 l
0.55 -0.78 l
0.55 -0.77 l
0.56 -0.76 l
0.55 -0.73 l
0.55 -0.73 l
0.55 -0.71 l
0.55 -0.69 l
0.56 -0.68 l
0.55 -0.67 l
0.55 -0.65 l
0.55 -0.64 l
0.55 -0.63 l
0.55 -0.61 l
0.56 -0.59 l
0.55 -0.59 l
0.55 -0.57 l
0.55 -0.55 l
0.55 -0.55 l
0.56 -0.53 l
95.08 57.73 lineto
0.55 -0.50 l
0.55 -0.50 l
0.55 -0.48 l
0.55 -0.47 l
0.56 -0.46 l
0.55 -0.45 l
0.55 -0.44 l
0.55 -0.42 l
0.55 -0.42 l
0.56 -0.40 l
0.55 -0.40 l
0.55 -0.38 l
0.55 -0.38 l
0.55 -0.36 l
0.55 -0.36 l
0.56 -0.35 l
0.55 -0.34 l
0.55 -0.32 l
0.55 -0.32 l
0.55 -0.32 l
0.56 -0.30 l
0.55 -0.30 l
0.55 -0.28 l
0.55 -0.28 l
0.55 -0.28 l
0.55 -0.26 l
0.56 -0.26 l
0.55 -0.25 l
0.55 -0.24 l
0.55 -0.24 l
0.55 -0.23 l
0.56 -0.22 l
0.55 -0.22 l
0.55 -0.21 l
0.55 -0.21 l
0.55 -0.20 l
0.55 -0.20 l
0.56 -0.18 l
0.55 -0.19 l
0.55 -0.18 l
0.55 -0.17 l
0.55 -0.17 l
0.56 -0.16 l
0.55 -0.16 l
0.55 -0.16 l
0.55 -0.15 l
0.55 -0.14 l
0.55 -0.14 l
0.56 -0.14 l
0.55 -0.14 l
0.55 -0.13 l
0.55 -0.12 l
0.55 -0.12 l
0.56 -0.12 l
0.55 -0.12 l
0.55 -0.11 l
0.55 -0.11 l
0.55 -0.10 l
0.55 -0.10 l
0.56 -0.10 l
0.55 -0.10 l
0.55 -0.09 l
0.55 -0.09 l
0.55 -0.09 l
0.55 -0.09 l
0.56 -0.08 l
0.55 -0.08 l
0.55 -0.08 l
0.55 -0.07 l
0.55 -0.08 l
0.56 -0.07 l
0.55 -0.07 l
0.55 -0.06 l
0.55 -0.07 l
0.55 -0.06 l
0.55 -0.06 l
0.56 -0.06 l
0.55 -0.06 l
0.55 -0.05 l
0.55 -0.06 l
0.55 -0.05 l
0.56 -0.05 l
0.55 -0.05 l
0.55 -0.05 l
0.55 -0.04 l
0.55 -0.05 l
0.55 -0.04 l
0.56 -0.04 l
0.55 -0.04 l
0.55 -0.04 l
0.55 -0.04 l
0.55 -0.04 l
0.56 -0.03 l
0.55 -0.04 l
0.55 -0.03 l
0.55 -0.03 l
0.55 -0.04 l
0.55 -0.03 l
0.56 -0.03 l
150.26 40.02 lineto
0.55 -0.03 l
0.55 -0.03 l
0.55 -0.03 l
0.56 -0.02 l
0.55 -0.02 l
0.55 -0.03 l
0.55 -0.02 l
0.55 -0.02 l
0.55 -0.03 l
0.56 -0.02 l
0.55 -0.02 l
0.55 -0.02 l
0.55 -0.01 l
0.55 -0.02 l
0.56 -0.02 l
0.55 -0.02 l
0.55 -0.01 l
0.55 -0.02 l
0.55 -0.02 l
0.55 -0.01 l
0.56 -0.02 l
0.55 -0.01 l
0.55 -0.01 l
0.55 -0.02 l
0.55 -0.01 l
0.56 -0.01 l
0.55 -0.01 l
0.55 -0.02 l
0.55 -0.01 l
0.55 -0.01 l
0.55 -0.01 l
0.56 -0.01 l
0.55 -0.01 l
0.55 -0.01 l
0.55 -0.01 l
0.55 -0.01 l
0.56 -0.01 l
0.55 0 l
0.55 -0.01 l
0.55 -0.01 l
0.55 -0.01 l
0.55 0 l
0.56 -0.01 l
0.55 -0.01 l
0.55 0 l
0.55 -0.01 l
0.55 -0.01 l
0.56 0 l
0.55 -0.01 l
0.55 -0.01 l
0.55 0 l
0.55 -0.01 l
0.55 0 l
0.56 -0.01 l
0.55 0 l
0.55 -0.01 l
0.55 0 l
0.55 0 l
0.56 -0.01 l
0.55 0 l
0.55 -0.01 l
0.55 0 l
0.55 0 l
0.55 -0.01 l
0.56 0 l
0.55 0 l
0.55 -0.01 l
0.55 0 l
0.55 0 l
0.56 -0.01 l
0.55 0 l
0.55 0 l
0.55 0 l
0.55 -0.01 l
0.55 0 l
0.56 0 l
0.55 0 l
0.55 -0.01 l
0.55 0 l
0.55 0 l
0.55 0 l
0.56 0 l
0.55 -0.01 l
0.55 0 l
0.55 0 l
0.55 0 l
0.56 0 l
0.55 0 l
0.55 -0.01 l
0.55 0 l
0.55 0 l
0.55 0 l
0.56 0 l
0.55 0 l
0.55 0 l
0.55 -0.01 l
0.55 0 l
0.56 0 l
0.55 0 l
205.44 39.18 lineto
0.55 0 l
0.55 0 l
0.55 0 l
0.56 0 l
0.55 0 l
0.55 -0.01 l
0.55 0 l
0.55 0 l
0.56 0 l
0.55 0 l
0.55 0 l
0.55 0 l
0.55 0 l
0.55 0 l
0.56 0 l
0.55 0 l
0.55 0 l
0.55 0 l
0.55 0 l
0.56 -0.01 l
0.55 0 l
0.55 0 l
0.55 0 l
0.55 0 l
0.55 0 l
0.56 0 l
0.55 0 l
0.55 0 l
0.55 0 l
0.55 0 l
0.56 0 l
0.55 0 l
0.55 0 l
0.55 0 l
0.55 0 l
0.55 0 l
0.56 0 l
0.55 0 l
0.55 0 l
0.55 0 l
0.55 0 l
0.56 0 l
0.55 0 l
0.55 0 l
0.55 0 l
0.55 0 l
0.55 0 l
0.56 0 l
0.55 0 l
0.55 0 l
0.55 -0.01 l
0.55 0 l
0.56 0 l
0.55 0 l
0.55 0 l
0.55 0 l
0.55 0 l
0.55 0 l
0.56 0 l
0.55 0 l
0.55 0 l
0.55 0 l
0.55 0 l
0.56 0 l
0.55 0 l
0.55 0 l
0.55 0 l
0.55 0 l
0.55 0 l
0.56 0 l
0.55 0 l
0.55 0 l
0.55 0 l
0.55 0 l
0.56 0 l
0.55 0 l
0.55 0 l
0.55 0 l
0.55 0 l
0.55 0 l
0.56 0 l
0.55 0 l
0.55 0 l
0.55 0 l
0.55 0 l
0.55 0 l
0.56 0 l
0.55 0 l
0.55 0 l
0.55 0 l
0.55 0 l
0.56 0 l
0.55 0 l
0.55 0 l
0.55 0 l
0.55 0 l
0.55 0 l
0.56 0 l
0.55 0 l
o
0.3608 0.6745 0.9333 srgb
np
39.90 39.15 m
0.55 1.96 l
0.55 1.88 l
0.55 1.81 l
0.55 1.75 l
0.56 1.68 l
0.55 1.61 l
0.55 1.55 l
0.55 1.49 l
0.55 1.42 l
0.55 1.37 l
0.56 1.32 l
0.55 1.26 l
0.55 1.20 l
0.55 1.16 l
0.55 1.10 l
0.56 1.06 l
0.55 1.01 l
0.55 0.96 l
0.55 0.92 l
0.55 0.87 l
0.55 0.84 l
0.56 0.79 l
0.55 0.76 l
0.55 0.71 l
0.55 0.68 l
0.55 0.64 l
0.56 0.61 l
0.55 0.58 l
0.55 0.54 l
0.55 0.51 l
0.55 0.48 l
0.55 0.45 l
0.56 0.42 l
0.55 0.39 l
0.55 0.37 l
0.55 0.34 l
0.55 0.31 l
0.56 0.30 l
0.55 0.26 l
0.55 0.25 l
0.55 0.22 l
0.55 0.20 l
0.55 0.18 l
0.56 0.16 l
0.55 0.14 l
0.55 0.13 l
0.55 0.10 l
0.55 0.09 l
0.55 0.07 l
0.56 0.05 l
0.55 0.04 l
0.55 0.03 l
0.55 0.01 l
0.55 -0.01 l
0.56 -0.02 l
0.55 -0.03 l
0.55 -0.04 l
0.55 -0.05 l
0.55 -0.07 l
0.55 -0.08 l
0.56 -0.08 l
0.55 -0.10 l
0.55 -0.11 l
0.55 -0.12 l
0.55 -0.12 l
0.56 -0.14 l
0.55 -0.14 l
0.55 -0.15 l
0.55 -0.16 l
0.55 -0.16 l
0.55 -0.18 l
0.56 -0.18 l
0.55 -0.18 l
0.55 -0.19 l
0.55 -0.20 l
0.55 -0.20 l
0.56 -0.21 l
0.55 -0.21 l
0.55 -0.22 l
0.55 -0.22 l
0.55 -0.22 l
0.55 -0.23 l
0.56 -0.24 l
0.55 -0.23 l
0.55 -0.24 l
0.55 -0.24 l
0.55 -0.25 l
0.56 -0.25 l
0.55 -0.25 l
0.55 -0.25 l
0.55 -0.26 l
0.55 -0.25 l
0.55 -0.26 l
0.56 -0.26 l
0.55 -0.27 l
0.55 -0.26 l
0.55 -0.26 l
0.55 -0.27 l
0.56 -0.27 l
95.08 69.59 lineto
0.55 -0.27 l
0.55 -0.27 l
0.55 -0.27 l
0.55 -0.27 l
0.56 -0.27 l
0.55 -0.27 l
0.55 -0.27 l
0.55 -0.27 l
0.55 -0.27 l
0.56 -0.27 l
0.55 -0.27 l
0.55 -0.26 l
0.55 -0.27 l
0.55 -0.27 l
0.55 -0.27 l
0.56 -0.26 l
0.55 -0.27 l
0.55 -0.26 l
0.55 -0.27 l
0.55 -0.26 l
0.56 -0.26 l
0.55 -0.26 l
0.55 -0.26 l
0.55 -0.26 l
0.55 -0.26 l
0.55 -0.26 l
0.56 -0.25 l
0.55 -0.25 l
0.55 -0.26 l
0.55 -0.25 l
0.55 -0.25 l
0.56 -0.24 l
0.55 -0.25 l
0.55 -0.24 l
0.55 -0.25 l
0.55 -0.24 l
0.55 -0.24 l
0.56 -0.24 l
0.55 -0.23 l
0.55 -0.24 l
0.55 -0.23 l
0.55 -0.23 l
0.56 -0.23 l
0.55 -0.23 l
0.55 -0.23 l
0.55 -0.22 l
0.55 -0.23 l
0.55 -0.22 l
0.56 -0.22 l
0.55 -0.21 l
0.55 -0.22 l
0.55 -0.21 l
0.55 -0.21 l
0.56 -0.21 l
0.55 -0.21 l
0.55 -0.21 l
0.55 -0.20 l
0.55 -0.21 l
0.55 -0.20 l
0.56 -0.19 l
0.55 -0.20 l
0.55 -0.20 l
0.55 -0.19 l
0.55 -0.19 l
0.55 -0.19 l
0.56 -0.19 l
0.55 -0.18 l
0.55 -0.19 l
0.55 -0.18 l
0.55 -0.18 l
0.56 -0.18 l
0.55 -0.17 l
0.55 -0.18 l
0.55 -0.17 l
0.55 -0.17 l
0.55 -0.17 l
0.56 -0.17 l
0.55 -0.17 l
0.55 -0.16 l
0.55 -0.16 l
0.55 -0.16 l
0.56 -0.16 l
0.55 -0.16 l
0.55 -0.15 l
0.55 -0.16 l
0.55 -0.15 l
0.55 -0.15 l
0.56 -0.15 l
0.55 -0.14 l
0.55 -0.15 l
0.55 -0.14 l
0.55 -0.14 l
0.56 -0.14 l
0.55 -0.14 l
0.55 -0.14 l
0.55 -0.13 l
0.55 -0.14 l
0.55 -0.13 l
0.56 -0.13 l
150.26 48.44 lineto
0.55 -0.13 l
0.55 -0.12 l
0.55 -0.13 l
0.56 -0.12 l
0.55 -0.12 l
0.55 -0.12 l
0.55 -0.12 l
0.55 -0.12 l
0.55 -0.11 l
0.56 -0.12 l
0.55 -0.11 l
0.55 -0.11 l
0.55 -0.11 l
0.55 -0.11 l
0.56 -0.11 l
0.55 -0.10 l
0.55 -0.11 l
0.55 -0.10 l
0.55 -0.10 l
0.55 -0.10 l
0.56 -0.10 l
0.55 -0.10 l
0.55 -0.10 l
0.55 -0.09 l
0.55 -0.10 l
0.56 -0.09 l
0.55 -0.09 l
0.55 -0.09 l
0.55 -0.09 l
0.55 -0.09 l
0.55 -0.09 l
0.56 -0.08 l
0.55 -0.09 l
0.55 -0.08 l
0.55 -0.09 l
0.55 -0.08 l
0.56 -0.08 l
0.55 -0.08 l
0.55 -0.08 l
0.55 -0.07 l
0.55 -0.08 l
0.55 -0.08 l
0.56 -0.07 l
0.55 -0.07 l
0.55 -0.08 l
0.55 -0.07 l
0.55 -0.07 l
0.56 -0.07 l
0.55 -0.07 l
0.55 -0.06 l
0.55 -0.07 l
0.55 -0.07 l
0.55 -0.06 l
0.56 -0.06 l
0.55 -0.07 l
0.55 -0.06 l
0.55 -0.06 l
0.55 -0.06 l
0.56 -0.06 l
0.55 -0.06 l
0.55 -0.06 l
0.55 -0.06 l
0.55 -0.05 l
0.55 -0.06 l
0.56 -0.05 l
0.55 -0.06 l
0.55 -0.05 l
0.55 -0.05 l
0.55 -0.05 l
0.56 -0.06 l
0.55 -0.05 l
0.55 -0.05 l
0.55 -0.04 l
0.55 -0.05 l
0.55 -0.05 l
0.56 -0.05 l
0.55 -0.04 l
0.55 -0.05 l
0.55 -0.04 l
0.55 -0.05 l
0.55 -0.04 l
0.56 -0.05 l
0.55 -0.04 l
0.55 -0.04 l
0.55 -0.04 l
0.55 -0.04 l
0.56 -0.04 l
0.55 -0.04 l
0.55 -0.04 l
0.55 -0.04 l
0.55 -0.04 l
0.55 -0.03 l
0.56 -0.04 l
0.55 -0.04 l
0.55 -0.03 l
0.55 -0.04 l
0.55 -0.03 l
0.56 -0.04 l
0.55 -0.03 l
205.44 41.28 lineto
0.55 -0.04 l
0.55 -0.03 l
0.55 -0.03 l
0.56 -0.03 l
0.55 -0.03 l
0.55 -0.03 l
0.55 -0.03 l
0.55 -0.03 l
0.56 -0.03 l
0.55 -0.03 l
0.55 -0.03 l
0.55 -0.02 l
0.55 -0.03 l
0.55 -0.03 l
0.56 -0.03 l
0.55 -0.02 l
0.55 -0.03 l
0.55 -0.02 l
0.55 -0.03 l
0.56 -0.02 l
0.55 -0.03 l
0.55 -0.02 l
0.55 -0.02 l
0.55 -0.03 l
0.55 -0.02 l
0.56 -0.02 l
0.55 -0.02 l
0.55 -0.03 l
0.55 -0.02 l
0.55 -0.02 l
0.56 -0.02 l
0.55 -0.02 l
0.55 -0.02 l
0.55 -0.02 l
0.55 -0.02 l
0.55 -0.02 l
0.56 -0.02 l
0.55 -0.02 l
0.55 -0.02 l
0.55 -0.01 l
0.55 -0.02 l
0.56 -0.02 l
0.55 -0.02 l
0.55 -0.01 l
0.55 -0.02 l
0.55 -0.02 l
0.55 -0.01 l
0.56 -0.02 l
0.55 -0.02 l
0.55 -0.01 l
0.55 -0.02 l
0.55 -0.01 l
0.56 -0.02 l
0.55 -0.01 l
0.55 -0.02 l
0.55 -0.01 l
0.55 -0.01 l
0.55 -0.02 l
0.56 -0.01 l
0.55 -0.01 l
0.55 -0.02 l
0.55 -0.01 l
0.55 -0.01 l
0.56 -0.02 l
0.55 -0.01 l
0.55 -0.01 l
0.55 -0.01 l
0.55 -0.01 l
0.55 -0.02 l
0.56 -0.01 l
0.55 -0.01 l
0.55 -0.01 l
0.55 -0.01 l
0.55 -0.01 l
0.56 -0.01 l
0.55 -0.01 l
0.55 -0.01 l
0.55 -0.01 l
0.55 -0.01 l
0.55 -0.01 l
0.56 -0.01 l
0.55 -0.01 l
0.55 -0.01 l
0.55 -0.01 l
0.55 -0.01 l
0.55 -0.01 l
0.56 -0.01 l
0.55 0 l
0.55 -0.01 l
0.55 -0.01 l
0.55 -0.01 l
0.56 -0.01 l
0.55 -0.01 l
0.55 0 l
0.55 -0.01 l
0.55 -0.01 l
0.55 -0.01 l
0.56 0 l
0.55 -0.01 l
o
0 0.9608 1 srgb
np
39.90 39.15 m
0.55 0.87 l
0.55 0.86 l
0.55 0.83 l
0.55 0.81 l
0.56 0.79 l
0.55 0.77 l
0.55 0.75 l
0.55 0.73 l
0.55 0.72 l
0.55 0.69 l
0.56 0.67 l
0.55 0.66 l
0.55 0.64 l
0.55 0.62 l
0.55 0.61 l
0.56 0.58 l
0.55 0.58 l
0.55 0.55 l
0.55 0.54 l
0.55 0.53 l
0.55 0.50 l
0.56 0.50 l
0.55 0.48 l
0.55 0.47 l
0.55 0.45 l
0.55 0.44 l
0.56 0.42 l
0.55 0.41 l
0.55 0.40 l
0.55 0.39 l
0.55 0.37 l
0.55 0.36 l
0.56 0.35 l
0.55 0.34 l
0.55 0.33 l
0.55 0.31 l
0.55 0.31 l
0.56 0.29 l
0.55 0.28 l
0.55 0.27 l
0.55 0.27 l
0.55 0.25 l
0.55 0.24 l
0.56 0.24 l
0.55 0.22 l
0.55 0.22 l
0.55 0.20 l
0.55 0.20 l
0.55 0.19 l
0.56 0.18 l
0.55 0.17 l
0.55 0.17 l
0.55 0.16 l
0.55 0.15 l
0.56 0.14 l
0.55 0.13 l
0.55 0.13 l
0.55 0.12 l
0.55 0.11 l
0.55 0.11 l
0.56 0.10 l
0.55 0.10 l
0.55 0.08 l
0.55 0.09 l
0.55 0.07 l
0.56 0.07 l
0.55 0.06 l
0.55 0.06 l
0.55 0.06 l
0.55 0.04 l
0.55 0.05 l
0.56 0.03 l
0.55 0.04 l
0.55 0.03 l
0.55 0.02 l
0.55 0.02 l
0.56 0.01 l
0.55 0.01 l
0.55 0.01 l
0.55 0 l
0.55 -0.01 l
0.55 0 l
0.56 -0.01 l
0.55 -0.02 l
0.55 -0.02 l
0.55 -0.02 l
0.55 -0.02 l
0.56 -0.03 l
0.55 -0.03 l
0.55 -0.04 l
0.55 -0.04 l
0.55 -0.04 l
0.55 -0.04 l
0.56 -0.05 l
0.55 -0.05 l
0.55 -0.05 l
0.55 -0.06 l
0.55 -0.05 l
0.56 -0.06 l
95.08 64.46 lineto
0.55 -0.06 l
0.55 -0.07 l
0.55 -0.07 l
0.55 -0.07 l
0.56 -0.08 l
0.55 -0.07 l
0.55 -0.08 l
0.55 -0.08 l
0.55 -0.08 l
0.56 -0.09 l
0.55 -0.08 l
0.55 -0.09 l
0.55 -0.09 l
0.55 -0.09 l
0.55 -0.09 l
0.56 -0.09 l
0.55 -0.10 l
0.55 -0.09 l
0.55 -0.10 l
0.55 -0.10 l
0.56 -0.10 l
0.55 -0.10 l
0.55 -0.10 l
0.55 -0.11 l
0.55 -0.10 l
0.55 -0.10 l
0.56 -0.11 l
0.55 -0.11 l
0.55 -0.11 l
0.55 -0.11 l
0.55 -0.11 l
0.56 -0.11 l
0.55 -0.11 l
0.55 -0.11 l
0.55 -0.11 l
0.55 -0.11 l
0.55 -0.12 l
0.56 -0.11 l
0.55 -0.12 l
0.55 -0.11 l
0.55 -0.12 l
0.55 -0.12 l
0.56 -0.11 l
0.55 -0.12 l
0.55 -0.12 l
0.55 -0.11 l
0.55 -0.12 l
0.55 -0.12 l
0.56 -0.12 l
0.55 -0.12 l
0.55 -0.12 l
0.55 -0.12 l
0.55 -0.12 l
0.56 -0.12 l
0.55 -0.12 l
0.55 -0.12 l
0.55 -0.12 l
0.55 -0.12 l
0.55 -0.12 l
0.56 -0.12 l
0.55 -0.12 l
0.55 -0.12 l
0.55 -0.12 l
0.55 -0.11 l
0.55 -0.12 l
0.56 -0.12 l
0.55 -0.12 l
0.55 -0.12 l
0.55 -0.12 l
0.55 -0.12 l
0.56 -0.12 l
0.55 -0.12 l
0.55 -0.12 l
0.55 -0.12 l
0.55 -0.11 l
0.55 -0.12 l
0.56 -0.12 l
0.55 -0.12 l
0.55 -0.11 l
0.55 -0.12 l
0.55 -0.12 l
0.56 -0.11 l
0.55 -0.12 l
0.55 -0.11 l
0.55 -0.12 l
0.55 -0.11 l
0.55 -0.12 l
0.56 -0.11 l
0.55 -0.12 l
0.55 -0.11 l
0.55 -0.11 l
0.55 -0.12 l
0.56 -0.11 l
0.55 -0.11 l
0.55 -0.11 l
0.55 -0.11 l
0.55 -0.11 l
0.55 -0.11 l
0.56 -0.11 l
150.26 53.61 lineto
0.55 -0.11 l
0.55 -0.11 l
0.55 -0.11 l
0.56 -0.10 l
0.55 -0.11 l
0.55 -0.11 l
0.55 -0.10 l
0.55 -0.11 l
0.55 -0.10 l
0.56 -0.11 l
0.55 -0.10 l
0.55 -0.10 l
0.55 -0.11 l
0.55 -0.10 l
0.56 -0.10 l
0.55 -0.10 l
0.55 -0.10 l
0.55 -0.10 l
0.55 -0.10 l
0.55 -0.10 l
0.56 -0.10 l
0.55 -0.10 l
0.55 -0.10 l
0.55 -0.09 l
0.55 -0.10 l
0.56 -0.09 l
0.55 -0.10 l
0.55 -0.09 l
0.55 -0.10 l
0.55 -0.09 l
0.55 -0.10 l
0.56 -0.09 l
0.55 -0.09 l
0.55 -0.09 l
0.55 -0.09 l
0.55 -0.09 l
0.56 -0.09 l
0.55 -0.09 l
0.55 -0.09 l
0.55 -0.09 l
0.55 -0.09 l
0.55 -0.08 l
0.56 -0.09 l
0.55 -0.09 l
0.55 -0.08 l
0.55 -0.09 l
0.55 -0.08 l
0.56 -0.09 l
0.55 -0.08 l
0.55 -0.08 l
0.55 -0.08 l
0.55 -0.09 l
0.55 -0.08 l
0.56 -0.08 l
0.55 -0.08 l
0.55 -0.08 l
0.55 -0.07 l
0.55 -0.08 l
0.56 -0.08 l
0.55 -0.08 l
0.55 -0.07 l
0.55 -0.08 l
0.55 -0.08 l
0.55 -0.07 l
0.56 -0.08 l
0.55 -0.07 l
0.55 -0.07 l
0.55 -0.08 l
0.55 -0.07 l
0.56 -0.07 l
0.55 -0.07 l
0.55 -0.07 l
0.55 -0.07 l
0.55 -0.07 l
0.55 -0.07 l
0.56 -0.07 l
0.55 -0.07 l
0.55 -0.07 l
0.55 -0.07 l
0.55 -0.06 l
0.55 -0.07 l
0.56 -0.06 l
0.55 -0.07 l
0.55 -0.06 l
0.55 -0.07 l
0.55 -0.06 l
0.56 -0.07 l
0.55 -0.06 l
0.55 -0.06 l
0.55 -0.06 l
0.55 -0.06 l
0.55 -0.07 l
0.56 -0.06 l
0.55 -0.06 l
0.55 -0.06 l
0.55 -0.05 l
0.55 -0.06 l
0.56 -0.06 l
0.55 -0.06 l
205.44 45.34 lineto
0.55 -0.05 l
0.55 -0.06 l
0.55 -0.05 l
0.56 -0.06 l
0.55 -0.06 l
0.55 -0.05 l
0.55 -0.05 l
0.55 -0.06 l
0.56 -0.05 l
0.55 -0.05 l
0.55 -0.06 l
0.55 -0.05 l
0.55 -0.05 l
0.55 -0.05 l
0.56 -0.05 l
0.55 -0.05 l
0.55 -0.05 l
0.55 -0.05 l
0.55 -0.05 l
0.56 -0.05 l
0.55 -0.05 l
0.55 -0.04 l
0.55 -0.05 l
0.55 -0.05 l
0.55 -0.04 l
0.56 -0.05 l
0.55 -0.05 l
0.55 -0.04 l
0.55 -0.05 l
0.55 -0.04 l
0.56 -0.05 l
0.55 -0.04 l
0.55 -0.04 l
0.55 -0.05 l
0.55 -0.04 l
0.55 -0.04 l
0.56 -0.04 l
0.55 -0.05 l
0.55 -0.04 l
0.55 -0.04 l
0.55 -0.04 l
0.56 -0.04 l
0.55 -0.04 l
0.55 -0.04 l
0.55 -0.04 l
0.55 -0.04 l
0.55 -0.03 l
0.56 -0.04 l
0.55 -0.04 l
0.55 -0.04 l
0.55 -0.04 l
0.55 -0.03 l
0.56 -0.04 l
0.55 -0.03 l
0.55 -0.04 l
0.55 -0.04 l
0.55 -0.03 l
0.55 -0.04 l
0.56 -0.03 l
0.55 -0.04 l
0.55 -0.03 l
0.55 -0.03 l
0.55 -0.04 l
0.56 -0.03 l
0.55 -0.03 l
0.55 -0.04 l
0.55 -0.03 l
0.55 -0.03 l
0.55 -0.03 l
0.56 -0.03 l
0.55 -0.03 l
0.55 -0.03 l
0.55 -0.04 l
0.55 -0.03 l
0.56 -0.03 l
0.55 -0.02 l
0.55 -0.03 l
0.55 -0.03 l
0.55 -0.03 l
0.55 -0.03 l
0.56 -0.03 l
0.55 -0.03 l
0.55 -0.03 l
0.55 -0.02 l
0.55 -0.03 l
0.55 -0.03 l
0.56 -0.02 l
0.55 -0.03 l
0.55 -0.03 l
0.55 -0.02 l
0.55 -0.03 l
0.56 -0.02 l
0.55 -0.03 l
0.55 -0.03 l
0.55 -0.02 l
0.55 -0.02 l
0.55 -0.03 l
0.56 -0.02 l
0.55 -0.03 l
o
/Font5 findfont 11 s
0 0 0 srgb
108.68 144.22 (y) 0 0 t
/Font5 findfont 14 s
116.23 144.22 (\() 0 0 t
/Font1 findfont 11 s
120.89 144.22 (t) 0 0 t
/Font5 findfont 14 s
123.95 144.22 (\)) 0 0 t
/Font5 findfont 11 s
131.16 144.22 (=) 0 0 t
/Font1 findfont 11 s
141.96 153.67 (t) 0 0 t
139.74 134.08 (t) 0 0 t
/Font1 findfont 8 s
142.80 131.10 (p) 0 0 t
142.80 138.68 (2) 0 0 t
0.75 setlinewidth
[] 0 setdash
1 setlinecap
10.00 setmiterlimit
np
139.74 147.00 m
7.51 0 l
o
/Font1 findfont 11 s
151.95 144.30 (e) 0 0 t
/Font5 findfont 8 s
158.07 149.77 (-) 0 0 t
/Font1 findfont 8 s
162.46 149.77 (t) 0 0 t
np
165.73 148.76 m
2.09 7.76 l
o
168.87 149.77 (t) 0 0 t
/Font1 findfont 6 s
171.09 148.30 (p) 0 0 t
0.00 0.00 339.00 208.50 cl
0.00 0.00 339.00 208.50 cl
0.00 0.00 339.00 208.50 cl
0.00 0.00 339.00 208.50 cl
0.00 0.00 339.00 208.50 cl
0.00 0.00 339.00 208.50 cl
/Font1 findfont 9 s
0.3020 0.3020 0.3020 srgb
34.96 35.92 (0) 1 0 t
34.96 78.35 (200) 1 0 t
34.96 120.79 (400) 1 0 t
34.96 163.22 (600) 1 0 t
0.00 0.00 339.00 208.50 cl
0.00 0.00 339.00 208.50 cl
0.2000 0.2000 0.2000 srgb
1.07 setlinewidth
[] 0 setdash
0 setlinecap
1 setlinejoin
10.00 setmiterlimit
np
37.16 39.15 m
2.74 0 l
o
np
37.16 81.58 m
2.74 0 l
o
np
37.16 124.02 m
2.74 0 l
o
np
37.16 166.45 m
2.74 0 l
o
0.00 0.00 339.00 208.50 cl
0.00 0.00 339.00 208.50 cl
0.00 0.00 339.00 208.50 cl
0.00 0.00 339.00 208.50 cl
0.00 0.00 339.00 208.50 cl
0.00 0.00 339.00 208.50 cl
0.00 0.00 339.00 208.50 cl
0.00 0.00 339.00 208.50 cl
0.2000 0.2000 0.2000 srgb
1.07 setlinewidth
[] 0 setdash
0 setlinecap
1 setlinejoin
10.00 setmiterlimit
np
39.90 28.61 m
0 2.74 l
o
np
113.29 28.61 m
0 2.74 l
o
np
186.68 28.61 m
0 2.74 l
o
np
260.07 28.61 m
0 2.74 l
o
0.00 0.00 339.00 208.50 cl
0.00 0.00 339.00 208.50 cl
/Font1 findfont 9 s
0.3020 0.3020 0.3020 srgb
39.90 19.95 (0.000) .5 0 t
113.29 19.95 (0.005) .5 0 t
186.68 19.95 (0.010) .5 0 t
260.07 19.95 (0.015) .5 0 t
0.00 0.00 339.00 208.50 cl
0.00 0.00 339.00 208.50 cl
0.00 0.00 339.00 208.50 cl
0.00 0.00 339.00 208.50 cl
/Font1 findfont 11 s
0 0 0 srgb
149.98 7.67 (time [s]) .5 0 t
0.00 0.00 339.00 208.50 cl
0.00 0.00 339.00 208.50 cl
/Font1 findfont 11 s
0 0 0 srgb
15.57 117.18 (Intensity) .5 90 t
0.00 0.00 339.00 208.50 cl
0.00 0.00 339.00 208.50 cl
0.00 0.00 339.00 208.50 cl
0.00 0.00 339.00 208.50 cl
/bg { 1 1 1 srgb } def
268.57 69.78 56.44 94.81 r p2
0.00 0.00 339.00 208.50 cl
0.00 0.00 339.00 208.50 cl
/Font1 findfont 11 s
0 0 0 srgb
272.82 152.06 (t) 0 0 t
/Font1 findfont 8 s
275.88 150.05 (p) 0 0 t
0.00 0.00 339.00 208.50 cl
0.00 0.00 339.00 208.50 cl
/bg { 0.9490 0.9490 0.9490 srgb } def
1 1 1 srgb
1.07 setlinewidth
[] 0 setdash
1 setlinecap
1 setlinejoin
10.00 setmiterlimit
272.82 125.87 17.28 17.28 r p3
0.00 0.00 339.00 208.50 cl
0.00 0.00 339.00 208.50 cl
1 0.3882 0.2784 srgb
1.07 setlinewidth
[] 0 setdash
0 setlinecap
1 setlinejoin
10.00 setmiterlimit
np
274.55 134.51 m
13.83 0 l
o
0.00 0.00 339.00 208.50 cl
0.00 0.00 339.00 208.50 cl
1 0.3882 0.2784 srgb
1.07 setlinewidth
[] 0 setdash
0 setlinecap
1 setlinejoin
10.00 setmiterlimit
np
274.55 134.51 m
13.83 0 l
o
0.00 0.00 339.00 208.50 cl
0.00 0.00 339.00 208.50 cl
1 0.3882 0.2784 srgb
1.07 setlinewidth
[] 0 setdash
0 setlinecap
1 setlinejoin
10.00 setmiterlimit
np
274.55 134.51 m
13.83 0 l
o
0.00 0.00 339.00 208.50 cl
0.00 0.00 339.00 208.50 cl
1 0.3882 0.2784 srgb
1.07 setlinewidth
[] 0 setdash
0 setlinecap
1 setlinejoin
10.00 setmiterlimit
np
274.55 134.51 m
13.83 0 l
o
0.00 0.00 339.00 208.50 cl
0.00 0.00 339.00 208.50 cl
/bg { 0.9490 0.9490 0.9490 srgb } def
1 1 1 srgb
1.07 setlinewidth
[] 0 setdash
1 setlinecap
1 setlinejoin
10.00 setmiterlimit
272.82 108.59 17.28 17.28 r p3
0.00 0.00 339.00 208.50 cl
0.00 0.00 339.00 208.50 cl
0.4941 0.7529 0.9333 srgb
1.07 setlinewidth
[] 0 setdash
0 setlinecap
1 setlinejoin
10.00 setmiterlimit
np
274.55 117.23 m
13.83 0 l
o
0.00 0.00 339.00 208.50 cl
0.00 0.00 339.00 208.50 cl
0.4941 0.7529 0.9333 srgb
1.07 setlinewidth
[] 0 setdash
0 setlinecap
1 setlinejoin
10.00 setmiterlimit
np
274.55 117.23 m
13.83 0 l
o
0.00 0.00 339.00 208.50 cl
0.00 0.00 339.00 208.50 cl
0.4941 0.7529 0.9333 srgb
1.07 setlinewidth
[] 0 setdash
0 setlinecap
1 setlinejoin
10.00 setmiterlimit
np
274.55 117.23 m
13.83 0 l
o
0.00 0.00 339.00 208.50 cl
0.00 0.00 339.00 208.50 cl
0.4941 0.7529 0.9333 srgb
1.07 setlinewidth
[] 0 setdash
0 setlinecap
1 setlinejoin
10.00 setmiterlimit
np
274.55 117.23 m
13.83 0 l
o
0.00 0.00 339.00 208.50 cl
0.00 0.00 339.00 208.50 cl
/bg { 0.9490 0.9490 0.9490 srgb } def
1 1 1 srgb
1.07 setlinewidth
[] 0 setdash
1 setlinecap
1 setlinejoin
10.00 setmiterlimit
272.82 91.31 17.28 17.28 r p3
0.00 0.00 339.00 208.50 cl
0.00 0.00 339.00 208.50 cl
0.3608 0.6745 0.9333 srgb
1.07 setlinewidth
[] 0 setdash
0 setlinecap
1 setlinejoin
10.00 setmiterlimit
np
274.55 99.95 m
13.83 0 l
o
0.00 0.00 339.00 208.50 cl
0.00 0.00 339.00 208.50 cl
0.3608 0.6745 0.9333 srgb
1.07 setlinewidth
[] 0 setdash
0 setlinecap
1 setlinejoin
10.00 setmiterlimit
np
274.55 99.95 m
13.83 0 l
o
0.00 0.00 339.00 208.50 cl
0.00 0.00 339.00 208.50 cl
0.3608 0.6745 0.9333 srgb
1.07 setlinewidth
[] 0 setdash
0 setlinecap
1 setlinejoin
10.00 setmiterlimit
np
274.55 99.95 m
13.83 0 l
o
0.00 0.00 339.00 208.50 cl
0.00 0.00 339.00 208.50 cl
0.3608 0.6745 0.9333 srgb
1.07 setlinewidth
[] 0 setdash
0 setlinecap
1 setlinejoin
10.00 setmiterlimit
np
274.55 99.95 m
13.83 0 l
o
0.00 0.00 339.00 208.50 cl
0.00 0.00 339.00 208.50 cl
/bg { 0.9490 0.9490 0.9490 srgb } def
1 1 1 srgb
1.07 setlinewidth
[] 0 setdash
1 setlinecap
1 setlinejoin
10.00 setmiterlimit
272.82 74.03 17.28 17.28 r p3
0.00 0.00 339.00 208.50 cl
0.00 0.00 339.00 208.50 cl
0 0.9608 1 srgb
1.07 setlinewidth
[] 0 setdash
0 setlinecap
1 setlinejoin
10.00 setmiterlimit
np
274.55 82.67 m
13.83 0 l
o
0.00 0.00 339.00 208.50 cl
0.00 0.00 339.00 208.50 cl
0 0.9608 1 srgb
1.07 setlinewidth
[] 0 setdash
0 setlinecap
1 setlinejoin
10.00 setmiterlimit
np
274.55 82.67 m
13.83 0 l
o
0.00 0.00 339.00 208.50 cl
0.00 0.00 339.00 208.50 cl
0 0.9608 1 srgb
1.07 setlinewidth
[] 0 setdash
0 setlinecap
1 setlinejoin
10.00 setmiterlimit
np
274.55 82.67 m
13.83 0 l
o
0.00 0.00 339.00 208.50 cl
0.00 0.00 339.00 208.50 cl
0 0.9608 1 srgb
1.07 setlinewidth
[] 0 setdash
0 setlinecap
1 setlinejoin
10.00 setmiterlimit
np
274.55 82.67 m
13.83 0 l
o
0.00 0.00 339.00 208.50 cl
0.00 0.00 339.00 208.50 cl
/Font1 findfont 9 s
0 0 0 srgb
292.26 131.28 (0.0005) 0 0 t
0.00 0.00 339.00 208.50 cl
0.00 0.00 339.00 208.50 cl
/Font1 findfont 9 s
0 0 0 srgb
292.26 114.00 (0.001) 0 0 t
0.00 0.00 339.00 208.50 cl
0.00 0.00 339.00 208.50 cl
/Font1 findfont 9 s
0 0 0 srgb
292.26 96.72 (0.002) 0 0 t
0.00 0.00 339.00 208.50 cl
0.00 0.00 339.00 208.50 cl
/Font1 findfont 9 s
0 0 0 srgb
292.26 79.44 (0.003) 0 0 t
0.00 0.00 339.00 208.50 cl
0.00 0.00 339.00 208.50 cl
0.00 0.00 339.00 208.50 cl
0.00 0.00 339.00 208.50 cl
0.00 0.00 339.00 208.50 cl
0.00 0.00 339.00 208.50 cl
ep
%%Trailer
%%Pages: 1
%%EOF
