%!PS-Adobe-3.0 EPSF-3.0
%%DocumentNeededResources: font Helvetica
%%+ font Helvetica-Bold
%%+ font Helvetica-Oblique
%%+ font Helvetica-BoldOblique
%%+ font Symbol
%%Title: R Graphics Output
%%Creator: R Software
%%Pages: (atend)
%%BoundingBox: 0 0 366 223
%%EndComments
%%BeginProlog
/bp  { gs sRGB gs } def
% begin .ps.prolog
/gs  { gsave } bind def
/gr  { grestore } bind def
/ep  { showpage gr gr } bind def
/m   { moveto } bind def
/l  { rlineto } bind def
/np  { newpath } bind def
/cp  { closepath } bind def
/f   { fill } bind def
/o   { stroke } bind def
/c   { newpath 0 360 arc } bind def
/r   { 4 2 roll moveto 1 copy 3 -1 roll exch 0 exch rlineto 0 rlineto -1 mul 0 exch rlineto closepath } bind def
/p1  { stroke } bind def
/p2  { gsave bg fill grestore newpath } bind def
/p3  { gsave bg fill grestore stroke } bind def
/p6  { gsave bg eofill grestore newpath } bind def
/p7  { gsave bg eofill grestore stroke } bind def
/t   { 5 -2 roll moveto gsave rotate
       1 index stringwidth pop
       mul neg 0 rmoveto show grestore } bind def
/ta  { 4 -2 roll moveto gsave rotate show } bind def
/tb  { 2 -1 roll 0 rmoveto show } bind def
/cl  { grestore gsave newpath 3 index 3 index moveto 1 index
       4 -1 roll lineto  exch 1 index lineto lineto
       closepath clip newpath } bind def
/rgb { setrgbcolor } bind def
/s   { scalefont setfont } bind def
% end   .ps.prolog
/sRGB { [ /CIEBasedABC
          << /DecodeLMN
               [ { dup 0.03928 le
                        {12.92321 div}
                        {0.055 add 1.055 div 2.4 exp }
                     ifelse
                 } bind dup dup
               ]
             /MatrixLMN [0.412457 0.212673 0.019334
                         0.357576 0.715152 0.119192
                         0.180437 0.072175 0.950301]
             /WhitePoint [0.9505 1.0 1.0890]
           >>
         ] setcolorspace } bind def
/srgb { setcolor } bind def
% begin encoding
/WinAnsiEncoding [
 /.notdef /.notdef /.notdef /.notdef /.notdef /.notdef /.notdef /.notdef
 /.notdef /.notdef /.notdef /.notdef /.notdef /.notdef /.notdef /.notdef
 /.notdef /.notdef /.notdef /.notdef /.notdef /.notdef /.notdef /.notdef
 /.notdef /.notdef /.notdef /.notdef /.notdef /.notdef /.notdef /.notdef
 /space /exclam /quotedbl /numbersign /dollar /percent /ampersand /quoteright
 /parenleft /parenright /asterisk /plus /comma /minus /period /slash
 /zero /one /two /three /four /five /six /seven
 /eight /nine /colon /semicolon /less /equal /greater /question
 /at /A /B /C /D /E /F /G
 /H /I /J /K /L /M /N /O
 /P /Q /R /S /T /U /V /W
 /X /Y /Z /bracketleft /backslash /bracketright /asciicircum /underscore
 /grave /a /b /c /d /e /f /g
 /h /i /j /k /l /m /n /o
 /p /q /r /s /t /u /v /w
 /x /y /z /braceleft /bar /braceright /asciitilde /.notdef
 /Euro /.notdef /quotesinglbase /florin /quotedblbase /ellipsis /dagger /daggerdbl
 /circumflex /perthousand /Scaron /guilsinglleft /OE /.notdef /Zcaron /.notdef
 /.notdef /quoteleft /quoteright /quotedblleft /quotedblright /bullet /endash /emdash
 /tilde /trademark /scaron /guilsinglright /oe /.notdef /zcaron /Ydieresis
 /space /exclamdown /cent /sterling /currency /yen /brokenbar /section
 /dieresis /copyright /ordfeminine /guillemotleft /logicalnot /hyphen /registered /macron
 /degree /plusminus /twosuperior /threesuperior /acute /mu /paragraph /periodcentered
 /cedilla /onesuperior /ordmasculine /guillemotright /onequarter /onehalf /threequarters /questiondown
 /Agrave /Aacute /Acircumflex /Atilde /Adieresis /Aring /AE /Ccedilla
 /Egrave /Eacute /Ecircumflex /Edieresis /Igrave /Iacute /Icircumflex /Idieresis
 /Eth /Ntilde /Ograve /Oacute /Ocircumflex /Otilde /Odieresis /multiply
 /Oslash /Ugrave /Uacute /Ucircumflex /Udieresis /Yacute /Thorn /germandbls
 /agrave /aacute /acircumflex /atilde /adieresis /aring /ae /ccedilla
 /egrave /eacute /ecircumflex /edieresis /igrave /iacute /icircumflex /idieresis
 /eth /ntilde /ograve /oacute /ocircumflex /otilde /odieresis /divide
 /oslash /ugrave /uacute /ucircumflex /udieresis /yacute /thorn /ydieresis
]
 def
% end encoding
%%IncludeResource: font Helvetica
/Helvetica findfont
dup length dict begin
  {1 index /FID ne {def} {pop pop} ifelse} forall
  /Encoding WinAnsiEncoding def
  currentdict
  end
/Font1 exch definefont pop
%%IncludeResource: font Helvetica-Bold
/Helvetica-Bold findfont
dup length dict begin
  {1 index /FID ne {def} {pop pop} ifelse} forall
  /Encoding WinAnsiEncoding def
  currentdict
  end
/Font2 exch definefont pop
%%IncludeResource: font Helvetica-Oblique
/Helvetica-Oblique findfont
dup length dict begin
  {1 index /FID ne {def} {pop pop} ifelse} forall
  /Encoding WinAnsiEncoding def
  currentdict
  end
/Font3 exch definefont pop
%%IncludeResource: font Helvetica-BoldOblique
/Helvetica-BoldOblique findfont
dup length dict begin
  {1 index /FID ne {def} {pop pop} ifelse} forall
  /Encoding WinAnsiEncoding def
  currentdict
  end
/Font4 exch definefont pop
%%IncludeResource: font Symbol
/Symbol findfont
dup length dict begin
  {1 index /FID ne {def} {pop pop} ifelse} forall
  currentdict
  end
/Font5 exch definefont pop
%%EndProlog
%%Page: 1 1
bp
0.00 0.00 366.00 222.75 cl
0.00 0.00 366.00 222.75 cl
0.00 0.00 366.00 222.75 cl
0.00 0.00 366.00 222.75 cl
0.00 0.00 366.00 222.75 cl
0.00 0.00 366.00 222.75 cl
0.00 0.00 366.00 222.75 cl
0.00 0.00 366.00 222.75 cl
0.00 0.00 366.00 222.75 cl
/bg { 1 1 1 srgb } def
1 1 1 srgb
1.07 setlinewidth
[] 0 setdash
1 setlinecap
1 setlinejoin
10.00 setmiterlimit
0.00 0.00 366.00 222.75 r p3
0.00 0.00 366.00 222.75 cl
0.00 0.00 366.00 222.75 cl
0.00 0.00 366.00 222.75 cl
37.39 31.35 287.07 217.27 cl
/bg { 0.9216 0.9216 0.9216 srgb } def
37.39 31.35 249.67 185.92 r p2
1 1 1 srgb
0.53 setlinewidth
[] 0 setdash
0 setlinecap
1 setlinejoin
10.00 setmiterlimit
np
37.39 62.72 m
249.68 0 l
o
np
37.39 108.56 m
249.68 0 l
o
np
37.39 154.40 m
249.68 0 l
o
np
37.39 200.24 m
249.68 0 l
o
np
79.01 31.35 m
0 185.92 l
o
np
125.24 31.35 m
0 185.92 l
o
np
171.48 31.35 m
0 185.92 l
o
np
217.71 31.35 m
0 185.92 l
o
np
263.95 31.35 m
0 185.92 l
o
1.07 setlinewidth
[] 0 setdash
np
37.39 39.80 m
249.68 0 l
o
np
37.39 85.64 m
249.68 0 l
o
np
37.39 131.48 m
249.68 0 l
o
np
37.39 177.32 m
249.68 0 l
o
np
55.89 31.35 m
0 185.92 l
o
np
102.12 31.35 m
0 185.92 l
o
np
148.36 31.35 m
0 185.92 l
o
np
194.60 31.35 m
0 185.92 l
o
np
240.83 31.35 m
0 185.92 l
o
np
287.07 31.35 m
0 185.92 l
o
0.5647 0.9333 0.5647 srgb
1.00 setmiterlimit
np
37.39 39.80 m
2.53 0 l
2.52 0 l
2.52 0 l
2.52 0 l
2.52 0 l
2.53 0 l
2.52 0 l
2.52 25.79 l
2.52 106.84 l
2.52 31.50 l
2.53 4.45 l
2.52 0.44 l
2.52 -0.01 l
2.52 -0.05 l
2.52 -0.05 l
2.53 -0.06 l
2.52 -0.05 l
2.52 -0.05 l
2.52 -0.06 l
2.52 -0.05 l
2.53 -0.05 l
2.52 -0.06 l
2.52 -0.05 l
2.52 -0.06 l
2.52 -0.05 l
2.53 -0.05 l
2.52 -0.06 l
2.52 -0.05 l
2.52 -0.05 l
2.52 -0.06 l
2.53 -0.05 l
2.52 -0.06 l
2.52 -0.05 l
2.52 -0.05 l
2.52 -0.06 l
2.52 -0.05 l
2.53 -0.05 l
2.52 -0.06 l
2.52 -0.05 l
2.52 -0.05 l
2.52 -0.06 l
2.53 -0.05 l
2.52 -0.05 l
2.52 -0.06 l
2.52 -0.05 l
2.52 -0.05 l
2.53 -0.06 l
2.52 -0.05 l
2.52 -0.05 l
2.52 -0.06 l
2.52 -0.05 l
2.53 -0.05 l
2.52 -0.06 l
2.52 -0.05 l
2.52 -0.05 l
2.52 -0.06 l
2.53 -0.05 l
2.52 -0.05 l
2.52 -0.06 l
2.52 -0.05 l
2.52 -0.05 l
2.53 -0.06 l
2.52 -0.05 l
2.52 -0.05 l
2.52 -0.05 l
2.52 -0.06 l
2.53 -0.05 l
2.52 -0.05 l
2.52 -0.06 l
2.52 -0.05 l
2.52 -0.05 l
2.53 -0.06 l
2.52 -0.05 l
2.52 -0.05 l
2.52 -0.05 l
2.52 -0.06 l
2.53 -0.05 l
2.52 -0.05 l
2.52 -0.06 l
2.52 -0.05 l
2.52 -0.05 l
2.53 -0.05 l
2.52 -0.06 l
2.52 -0.05 l
2.52 -0.05 l
2.52 -0.06 l
2.52 -0.05 l
2.53 -0.05 l
2.52 -0.05 l
2.52 -0.06 l
2.52 -0.05 l
2.52 -0.05 l
2.53 -0.05 l
2.52 -0.06 l
2.52 -0.05 l
2.52 -0.05 l
2.52 -0.06 l
2.53 -0.05 l
2.52 -0.05 l
o
0.8039 0.7451 0.4392 srgb
np
37.39 39.80 m
2.53 0 l
2.52 0 l
2.52 0 l
2.52 0 l
2.52 0 l
2.53 0 l
2.52 0 l
2.52 0.47 l
2.52 6.62 l
2.52 12.89 l
2.53 15.95 l
2.52 16.84 l
2.52 16.38 l
2.52 15.18 l
2.52 13.62 l
2.53 11.93 l
2.52 10.28 l
2.52 8.72 l
2.52 7.33 l
2.52 6.09 l
2.53 5.03 l
2.52 4.13 l
2.52 3.36 l
2.52 2.72 l
2.52 2.20 l
2.53 1.76 l
2.52 1.41 l
2.52 1.12 l
2.52 0.88 l
2.52 0.69 l
2.53 0.55 l
2.52 0.42 l
2.52 0.32 l
2.52 0.25 l
2.52 0.18 l
2.52 0.13 l
2.53 0.09 l
2.52 0.07 l
2.52 0.03 l
2.52 0.02 l
2.52 0 l
2.53 -0.01 l
2.52 -0.01 l
2.52 -0.03 l
2.52 -0.03 l
2.52 -0.04 l
2.53 -0.04 l
2.52 -0.04 l
2.52 -0.05 l
2.52 -0.05 l
2.52 -0.05 l
2.53 -0.04 l
2.52 -0.06 l
2.52 -0.05 l
2.52 -0.05 l
2.52 -0.05 l
2.53 -0.05 l
2.52 -0.05 l
2.52 -0.06 l
2.52 -0.05 l
2.52 -0.05 l
2.53 -0.06 l
2.52 -0.05 l
2.52 -0.05 l
2.52 -0.05 l
2.52 -0.06 l
2.53 -0.05 l
2.52 -0.05 l
2.52 -0.06 l
2.52 -0.05 l
2.52 -0.05 l
2.53 -0.06 l
2.52 -0.05 l
2.52 -0.05 l
2.52 -0.05 l
2.52 -0.06 l
2.53 -0.05 l
2.52 -0.05 l
2.52 -0.06 l
2.52 -0.05 l
2.52 -0.05 l
2.53 -0.06 l
2.52 -0.05 l
2.52 -0.05 l
2.52 -0.05 l
2.52 -0.06 l
2.52 -0.05 l
2.53 -0.05 l
2.52 -0.06 l
2.52 -0.05 l
2.52 -0.05 l
2.52 -0.05 l
2.53 -0.06 l
2.52 -0.05 l
2.52 -0.05 l
2.52 -0.05 l
2.52 -0.06 l
2.53 -0.05 l
2.52 -0.05 l
o
0.5608 0.7373 0.5608 srgb
np
37.39 39.80 m
2.53 0 l
2.52 0 l
2.52 0 l
2.52 0 l
2.52 0 l
2.53 0 l
2.52 0 l
2.52 0.12 l
2.52 1.86 l
2.52 4.08 l
2.53 5.75 l
2.52 6.94 l
2.52 7.72 l
2.52 8.19 l
2.52 8.42 l
2.53 8.46 l
2.52 8.34 l
2.52 8.12 l
2.52 7.82 l
2.52 7.46 l
2.53 7.06 l
2.52 6.65 l
2.52 6.23 l
2.52 5.80 l
2.52 5.38 l
2.53 4.97 l
2.52 4.58 l
2.52 4.20 l
2.52 3.86 l
2.52 3.51 l
2.53 3.21 l
2.52 2.92 l
2.52 2.65 l
2.52 2.40 l
2.52 2.17 l
2.52 1.96 l
2.53 1.77 l
2.52 1.59 l
2.52 1.43 l
2.52 1.28 l
2.52 1.15 l
2.53 1.03 l
2.52 0.92 l
2.52 0.81 l
2.52 0.73 l
2.52 0.65 l
2.53 0.58 l
2.52 0.50 l
2.52 0.45 l
2.52 0.40 l
2.52 0.35 l
2.53 0.30 l
2.52 0.27 l
2.52 0.23 l
2.52 0.20 l
2.52 0.18 l
2.53 0.15 l
2.52 0.12 l
2.52 0.11 l
2.52 0.09 l
2.52 0.07 l
2.53 0.06 l
2.52 0.05 l
2.52 0.03 l
2.52 0.03 l
2.52 0.02 l
2.53 0.01 l
2.52 0 l
2.52 -0.01 l
2.52 -0.01 l
2.52 -0.01 l
2.53 -0.02 l
2.52 -0.02 l
2.52 -0.03 l
2.52 -0.03 l
2.52 -0.03 l
2.53 -0.03 l
2.52 -0.04 l
2.52 -0.04 l
2.52 -0.04 l
2.52 -0.04 l
2.53 -0.04 l
2.52 -0.05 l
2.52 -0.04 l
2.52 -0.05 l
2.52 -0.05 l
2.52 -0.04 l
2.53 -0.05 l
2.52 -0.05 l
2.52 -0.05 l
2.52 -0.05 l
2.52 -0.05 l
2.53 -0.05 l
2.52 -0.05 l
2.52 -0.05 l
2.52 -0.05 l
2.52 -0.05 l
2.53 -0.05 l
2.52 -0.05 l
o
0.5294 0.8078 0.9804 srgb
np
37.39 39.80 m
2.53 0 l
2.52 0 l
2.52 0 l
2.52 0 l
2.52 0 l
2.53 0 l
2.52 0 l
2.52 0.05 l
2.52 0.86 l
2.52 1.97 l
2.53 2.89 l
2.52 3.64 l
2.52 4.24 l
2.52 4.71 l
2.52 5.07 l
2.53 5.32 l
2.52 5.49 l
2.52 5.60 l
2.52 5.64 l
2.52 5.63 l
2.53 5.58 l
2.52 5.50 l
2.52 5.39 l
2.52 5.25 l
2.52 5.10 l
2.53 4.94 l
2.52 4.76 l
2.52 4.58 l
2.52 4.39 l
2.52 4.20 l
2.53 4.01 l
2.52 3.82 l
2.52 3.63 l
2.52 3.45 l
2.52 3.27 l
2.52 3.10 l
2.53 2.92 l
2.52 2.76 l
2.52 2.61 l
2.52 2.45 l
2.52 2.30 l
2.53 2.17 l
2.52 2.04 l
2.52 1.90 l
2.52 1.79 l
2.52 1.67 l
2.53 1.57 l
2.52 1.46 l
2.52 1.37 l
2.52 1.27 l
2.52 1.19 l
2.53 1.11 l
2.52 1.03 l
2.52 0.96 l
2.52 0.89 l
2.52 0.82 l
2.53 0.77 l
2.52 0.71 l
2.52 0.66 l
2.52 0.61 l
2.52 0.57 l
2.53 0.52 l
2.52 0.48 l
2.52 0.44 l
2.52 0.41 l
2.52 0.38 l
2.53 0.34 l
2.52 0.32 l
2.52 0.29 l
2.52 0.26 l
2.52 0.25 l
2.53 0.22 l
2.52 0.20 l
2.52 0.18 l
2.52 0.17 l
2.52 0.15 l
2.53 0.13 l
2.52 0.12 l
2.52 0.11 l
2.52 0.10 l
2.52 0.08 l
2.53 0.08 l
2.52 0.06 l
2.52 0.06 l
2.52 0.05 l
2.52 0.04 l
2.52 0.03 l
2.53 0.03 l
2.52 0.02 l
2.52 0.02 l
2.52 0.01 l
2.52 0 l
2.53 0 l
2.52 0 l
2.52 -0.01 l
2.52 -0.01 l
2.52 -0.01 l
2.53 -0.02 l
2.52 -0.02 l
o
0.9137 0.5882 0.4784 srgb
np
37.39 39.80 m
2.53 0 l
2.52 0 l
2.52 0 l
2.52 0 l
2.52 0 l
2.53 0 l
2.52 0 l
2.52 0.03 l
2.52 0.49 l
2.52 1.15 l
2.53 1.73 l
2.52 2.23 l
2.52 2.65 l
2.52 3.02 l
2.52 3.31 l
2.53 3.56 l
2.52 3.76 l
2.52 3.92 l
2.52 4.05 l
2.52 4.12 l
2.53 4.19 l
2.52 4.22 l
2.52 4.23 l
2.52 4.22 l
2.52 4.19 l
2.53 4.15 l
2.52 4.10 l
2.52 4.02 l
2.52 3.96 l
2.52 3.86 l
2.53 3.78 l
2.52 3.69 l
2.52 3.58 l
2.52 3.49 l
2.52 3.38 l
2.52 3.27 l
2.53 3.17 l
2.52 3.05 l
2.52 2.95 l
2.52 2.85 l
2.52 2.74 l
2.53 2.63 l
2.52 2.53 l
2.52 2.44 l
2.52 2.33 l
2.52 2.23 l
2.53 2.15 l
2.52 2.05 l
2.52 1.96 l
2.52 1.87 l
2.52 1.79 l
2.53 1.71 l
2.52 1.63 l
2.52 1.56 l
2.52 1.48 l
2.52 1.41 l
2.53 1.34 l
2.52 1.28 l
2.52 1.22 l
2.52 1.15 l
2.52 1.10 l
2.53 1.04 l
2.52 0.99 l
2.52 0.94 l
2.52 0.89 l
2.52 0.84 l
2.53 0.80 l
2.52 0.75 l
2.52 0.72 l
2.52 0.67 l
2.52 0.64 l
2.53 0.61 l
2.52 0.57 l
2.52 0.53 l
2.52 0.51 l
2.52 0.48 l
2.53 0.45 l
2.52 0.43 l
2.52 0.39 l
2.52 0.38 l
2.52 0.35 l
2.53 0.33 l
2.52 0.31 l
2.52 0.30 l
2.52 0.27 l
2.52 0.25 l
2.52 0.24 l
2.53 0.23 l
2.52 0.20 l
2.52 0.20 l
2.52 0.18 l
2.52 0.17 l
2.53 0.15 l
2.52 0.15 l
2.52 0.13 l
2.52 0.12 l
2.52 0.12 l
2.53 0.10 l
2.52 0.10 l
o
0.5647 0.9333 0.5647 srgb
0.21 setlinewidth
[ 0.21 0.64 0.85 0.64] 0 setdash
10.00 setmiterlimit
np
56.81 31.35 m
0 185.92 l
o
0.8039 0.7451 0.4392 srgb
np
65.14 31.35 m
0 185.92 l
o
0.5608 0.7373 0.5608 srgb
np
74.38 31.35 m
0 185.92 l
o
0.5294 0.8078 0.9804 srgb
np
83.63 31.35 m
0 185.92 l
o
0.9137 0.5882 0.4784 srgb
np
92.88 31.35 m
0 185.92 l
o
/Font3 findfont 11 s
0 0 0 srgb
202.34 174.38 (R) 0 0 t
/Font1 findfont 8 s
211.47 172.37 (1) 0 0 t
/Font5 findfont 11 s
218.46 174.38 (=) 0 0 t
/Font1 findfont 11 s
227.05 174.38 (0.5) 0 0 t
/Font3 findfont 11 s
206.93 159.18 (R) 0 0 t
/Font1 findfont 8 s
216.05 157.16 (0) 0 0 t
/Font5 findfont 11 s
223.05 159.18 (=) 0 0 t
/Font1 findfont 11 s
231.63 159.18 (0) 0 0 t
/Font3 findfont 11 s
201.57 143.90 (r) 0 0 t
/Font1 findfont 8 s
206.12 141.89 (1) 0 0 t
/Font5 findfont 11 s
213.11 143.90 (=) 0 0 t
/Font1 findfont 11 s
221.70 143.90 (0.95) 0 0 t
/Font3 findfont 11 s
209.22 128.70 (r) 0 0 t
/Font1 findfont 8 s
213.77 126.68 (0) 0 0 t
/Font5 findfont 11 s
220.76 128.70 (=) 0 0 t
/Font1 findfont 11 s
229.34 128.70 (0) 0 0 t
/Font3 findfont 11 s
188.86 112.25 (L) 0 0 t
0.75 setlinewidth
[] 0 setdash
1 setlinecap
np
197.60 110.86 m
2.88 10.68 l
o
201.92 112.25 (R) 0 0 t
/Font5 findfont 11 s
213.59 112.25 (=) 0 0 t
/Font1 findfont 11 s
222.17 112.25 (0.0157) 0 0 t
/Font3 findfont 11 s
196.77 97.08 (H) 0 0 t
/Font5 findfont 11 s
208.44 97.08 (=) 0 0 t
/Font1 findfont 11 s
217.02 97.08 (5e-04) 0 0 t
0.00 0.00 366.00 222.75 cl
0.00 0.00 366.00 222.75 cl
0.00 0.00 366.00 222.75 cl
0.00 0.00 366.00 222.75 cl
0.00 0.00 366.00 222.75 cl
0.00 0.00 366.00 222.75 cl
/Font1 findfont 9 s
0.3020 0.3020 0.3020 srgb
32.46 36.57 (0.0) 1 0 t
32.46 82.41 (0.3) 1 0 t
32.46 128.25 (0.6) 1 0 t
32.46 174.09 (0.9) 1 0 t
0.00 0.00 366.00 222.75 cl
0.00 0.00 366.00 222.75 cl
0.2000 0.2000 0.2000 srgb
1.07 setlinewidth
[] 0 setdash
0 setlinecap
1 setlinejoin
10.00 setmiterlimit
np
34.65 39.80 m
2.74 0 l
o
np
34.65 85.64 m
2.74 0 l
o
np
34.65 131.48 m
2.74 0 l
o
np
34.65 177.32 m
2.74 0 l
o
0.00 0.00 366.00 222.75 cl
0.00 0.00 366.00 222.75 cl
0.00 0.00 366.00 222.75 cl
0.00 0.00 366.00 222.75 cl
0.00 0.00 366.00 222.75 cl
0.00 0.00 366.00 222.75 cl
0.00 0.00 366.00 222.75 cl
0.00 0.00 366.00 222.75 cl
0.2000 0.2000 0.2000 srgb
1.07 setlinewidth
[] 0 setdash
0 setlinecap
1 setlinejoin
10.00 setmiterlimit
np
55.89 28.61 m
0 2.74 l
o
np
102.12 28.61 m
0 2.74 l
o
np
148.36 28.61 m
0 2.74 l
o
np
194.60 28.61 m
0 2.74 l
o
np
240.83 28.61 m
0 2.74 l
o
np
287.07 28.61 m
0 2.74 l
o
0.00 0.00 366.00 222.75 cl
0.00 0.00 366.00 222.75 cl
/Font1 findfont 9 s
0.3020 0.3020 0.3020 srgb
55.89 19.95 (0.0000) .5 0 t
102.12 19.95 (0.0005) .5 0 t
148.36 19.95 (0.0010) .5 0 t
194.60 19.95 (0.0015) .5 0 t
240.83 19.95 (0.0020) .5 0 t
287.07 19.95 (0.0025) .5 0 t
0.00 0.00 366.00 222.75 cl
0.00 0.00 366.00 222.75 cl
0.00 0.00 366.00 222.75 cl
0.00 0.00 366.00 222.75 cl
/Font1 findfont 11 s
0 0 0 srgb
162.23 7.67 (time) .5 0 t
0.00 0.00 366.00 222.75 cl
0.00 0.00 366.00 222.75 cl
/Font1 findfont 11 s
0 0 0 srgb
15.57 124.31 (V) .5 90 t
0.00 0.00 366.00 222.75 cl
0.00 0.00 366.00 222.75 cl
0.00 0.00 366.00 222.75 cl
0.00 0.00 366.00 222.75 cl
/bg { 1 1 1 srgb } def
295.57 68.27 56.44 112.09 r p2
0.00 0.00 366.00 222.75 cl
0.00 0.00 366.00 222.75 cl
/Font5 findfont 11 s
0 0 0 srgb
299.82 167.82 ( ) 0 0 t
302.57 167.82 ( ) 0 0 t
/Font3 findfont 11 s
305.32 167.82 (t) 0 0 t
/Font3 findfont 8 s
309.49 165.81 (p) 0 0 t
0.00 0.00 366.00 222.75 cl
0.00 0.00 366.00 222.75 cl
/bg { 0.9490 0.9490 0.9490 srgb } def
1 1 1 srgb
1.07 setlinewidth
[] 0 setdash
1 setlinecap
1 setlinejoin
10.00 setmiterlimit
299.82 141.64 17.28 17.28 r p3
0.00 0.00 366.00 222.75 cl
0.00 0.00 366.00 222.75 cl
0.5647 0.9333 0.5647 srgb
1.07 setlinewidth
[] 0 setdash
0 setlinecap
1 setlinejoin
10.00 setmiterlimit
np
301.55 150.28 m
13.83 0 l
o
0.00 0.00 366.00 222.75 cl
0.00 0.00 366.00 222.75 cl
0.5647 0.9333 0.5647 srgb
1.07 setlinewidth
[] 0 setdash
0 setlinecap
1 setlinejoin
10.00 setmiterlimit
np
301.55 150.28 m
13.83 0 l
o
0.00 0.00 366.00 222.75 cl
0.00 0.00 366.00 222.75 cl
0.5647 0.9333 0.5647 srgb
1.07 setlinewidth
[] 0 setdash
0 setlinecap
1 setlinejoin
10.00 setmiterlimit
np
301.55 150.28 m
13.83 0 l
o
0.00 0.00 366.00 222.75 cl
0.00 0.00 366.00 222.75 cl
0.5647 0.9333 0.5647 srgb
1.07 setlinewidth
[] 0 setdash
0 setlinecap
1 setlinejoin
10.00 setmiterlimit
np
301.55 150.28 m
13.83 0 l
o
0.00 0.00 366.00 222.75 cl
0.00 0.00 366.00 222.75 cl
0.5647 0.9333 0.5647 srgb
1.07 setlinewidth
[] 0 setdash
0 setlinecap
1 setlinejoin
10.00 setmiterlimit
np
301.55 150.28 m
13.83 0 l
o
0.00 0.00 366.00 222.75 cl
0.00 0.00 366.00 222.75 cl
/bg { 0.9490 0.9490 0.9490 srgb } def
1 1 1 srgb
1.07 setlinewidth
[] 0 setdash
1 setlinecap
1 setlinejoin
10.00 setmiterlimit
299.82 124.36 17.28 17.28 r p3
0.00 0.00 366.00 222.75 cl
0.00 0.00 366.00 222.75 cl
0.8039 0.7451 0.4392 srgb
1.07 setlinewidth
[] 0 setdash
0 setlinecap
1 setlinejoin
10.00 setmiterlimit
np
301.55 133.00 m
13.83 0 l
o
0.00 0.00 366.00 222.75 cl
0.00 0.00 366.00 222.75 cl
0.8039 0.7451 0.4392 srgb
1.07 setlinewidth
[] 0 setdash
0 setlinecap
1 setlinejoin
10.00 setmiterlimit
np
301.55 133.00 m
13.83 0 l
o
0.00 0.00 366.00 222.75 cl
0.00 0.00 366.00 222.75 cl
0.8039 0.7451 0.4392 srgb
1.07 setlinewidth
[] 0 setdash
0 setlinecap
1 setlinejoin
10.00 setmiterlimit
np
301.55 133.00 m
13.83 0 l
o
0.00 0.00 366.00 222.75 cl
0.00 0.00 366.00 222.75 cl
0.8039 0.7451 0.4392 srgb
1.07 setlinewidth
[] 0 setdash
0 setlinecap
1 setlinejoin
10.00 setmiterlimit
np
301.55 133.00 m
13.83 0 l
o
0.00 0.00 366.00 222.75 cl
0.00 0.00 366.00 222.75 cl
0.8039 0.7451 0.4392 srgb
1.07 setlinewidth
[] 0 setdash
0 setlinecap
1 setlinejoin
10.00 setmiterlimit
np
301.55 133.00 m
13.83 0 l
o
0.00 0.00 366.00 222.75 cl
0.00 0.00 366.00 222.75 cl
/bg { 0.9490 0.9490 0.9490 srgb } def
1 1 1 srgb
1.07 setlinewidth
[] 0 setdash
1 setlinecap
1 setlinejoin
10.00 setmiterlimit
299.82 107.08 17.28 17.28 r p3
0.00 0.00 366.00 222.75 cl
0.00 0.00 366.00 222.75 cl
0.5608 0.7373 0.5608 srgb
1.07 setlinewidth
[] 0 setdash
0 setlinecap
1 setlinejoin
10.00 setmiterlimit
np
301.55 115.72 m
13.83 0 l
o
0.00 0.00 366.00 222.75 cl
0.00 0.00 366.00 222.75 cl
0.5608 0.7373 0.5608 srgb
1.07 setlinewidth
[] 0 setdash
0 setlinecap
1 setlinejoin
10.00 setmiterlimit
np
301.55 115.72 m
13.83 0 l
o
0.00 0.00 366.00 222.75 cl
0.00 0.00 366.00 222.75 cl
0.5608 0.7373 0.5608 srgb
1.07 setlinewidth
[] 0 setdash
0 setlinecap
1 setlinejoin
10.00 setmiterlimit
np
301.55 115.72 m
13.83 0 l
o
0.00 0.00 366.00 222.75 cl
0.00 0.00 366.00 222.75 cl
0.5608 0.7373 0.5608 srgb
1.07 setlinewidth
[] 0 setdash
0 setlinecap
1 setlinejoin
10.00 setmiterlimit
np
301.55 115.72 m
13.83 0 l
o
0.00 0.00 366.00 222.75 cl
0.00 0.00 366.00 222.75 cl
0.5608 0.7373 0.5608 srgb
1.07 setlinewidth
[] 0 setdash
0 setlinecap
1 setlinejoin
10.00 setmiterlimit
np
301.55 115.72 m
13.83 0 l
o
0.00 0.00 366.00 222.75 cl
0.00 0.00 366.00 222.75 cl
/bg { 0.9490 0.9490 0.9490 srgb } def
1 1 1 srgb
1.07 setlinewidth
[] 0 setdash
1 setlinecap
1 setlinejoin
10.00 setmiterlimit
299.82 89.80 17.28 17.28 r p3
0.00 0.00 366.00 222.75 cl
0.00 0.00 366.00 222.75 cl
0.5294 0.8078 0.9804 srgb
1.07 setlinewidth
[] 0 setdash
0 setlinecap
1 setlinejoin
10.00 setmiterlimit
np
301.55 98.44 m
13.83 0 l
o
0.00 0.00 366.00 222.75 cl
0.00 0.00 366.00 222.75 cl
0.5294 0.8078 0.9804 srgb
1.07 setlinewidth
[] 0 setdash
0 setlinecap
1 setlinejoin
10.00 setmiterlimit
np
301.55 98.44 m
13.83 0 l
o
0.00 0.00 366.00 222.75 cl
0.00 0.00 366.00 222.75 cl
0.5294 0.8078 0.9804 srgb
1.07 setlinewidth
[] 0 setdash
0 setlinecap
1 setlinejoin
10.00 setmiterlimit
np
301.55 98.44 m
13.83 0 l
o
0.00 0.00 366.00 222.75 cl
0.00 0.00 366.00 222.75 cl
0.5294 0.8078 0.9804 srgb
1.07 setlinewidth
[] 0 setdash
0 setlinecap
1 setlinejoin
10.00 setmiterlimit
np
301.55 98.44 m
13.83 0 l
o
0.00 0.00 366.00 222.75 cl
0.00 0.00 366.00 222.75 cl
0.5294 0.8078 0.9804 srgb
1.07 setlinewidth
[] 0 setdash
0 setlinecap
1 setlinejoin
10.00 setmiterlimit
np
301.55 98.44 m
13.83 0 l
o
0.00 0.00 366.00 222.75 cl
0.00 0.00 366.00 222.75 cl
/bg { 0.9490 0.9490 0.9490 srgb } def
1 1 1 srgb
1.07 setlinewidth
[] 0 setdash
1 setlinecap
1 setlinejoin
10.00 setmiterlimit
299.82 72.52 17.28 17.28 r p3
0.00 0.00 366.00 222.75 cl
0.00 0.00 366.00 222.75 cl
0.9137 0.5882 0.4784 srgb
1.07 setlinewidth
[] 0 setdash
0 setlinecap
1 setlinejoin
10.00 setmiterlimit
np
301.55 81.16 m
13.83 0 l
o
0.00 0.00 366.00 222.75 cl
0.00 0.00 366.00 222.75 cl
0.9137 0.5882 0.4784 srgb
1.07 setlinewidth
[] 0 setdash
0 setlinecap
1 setlinejoin
10.00 setmiterlimit
np
301.55 81.16 m
13.83 0 l
o
0.00 0.00 366.00 222.75 cl
0.00 0.00 366.00 222.75 cl
0.9137 0.5882 0.4784 srgb
1.07 setlinewidth
[] 0 setdash
0 setlinecap
1 setlinejoin
10.00 setmiterlimit
np
301.55 81.16 m
13.83 0 l
o
0.00 0.00 366.00 222.75 cl
0.00 0.00 366.00 222.75 cl
0.9137 0.5882 0.4784 srgb
1.07 setlinewidth
[] 0 setdash
0 setlinecap
1 setlinejoin
10.00 setmiterlimit
np
301.55 81.16 m
13.83 0 l
o
0.00 0.00 366.00 222.75 cl
0.00 0.00 366.00 222.75 cl
0.9137 0.5882 0.4784 srgb
1.07 setlinewidth
[] 0 setdash
0 setlinecap
1 setlinejoin
10.00 setmiterlimit
np
301.55 81.16 m
13.83 0 l
o
0.00 0.00 366.00 222.75 cl
0.00 0.00 366.00 222.75 cl
/Font1 findfont 9 s
0 0 0 srgb
319.26 147.05 (0) 0 0 t
0.00 0.00 366.00 222.75 cl
0.00 0.00 366.00 222.75 cl
/Font1 findfont 9 s
0 0 0 srgb
319.26 129.77 (0.0001) 0 0 t
0.00 0.00 366.00 222.75 cl
0.00 0.00 366.00 222.75 cl
/Font1 findfont 9 s
0 0 0 srgb
319.26 112.49 (0.0002) 0 0 t
0.00 0.00 366.00 222.75 cl
0.00 0.00 366.00 222.75 cl
/Font1 findfont 9 s
0 0 0 srgb
319.26 95.21 (0.0003) 0 0 t
0.00 0.00 366.00 222.75 cl
0.00 0.00 366.00 222.75 cl
/Font1 findfont 9 s
0 0 0 srgb
319.26 77.93 (0.0004) 0 0 t
0.00 0.00 366.00 222.75 cl
0.00 0.00 366.00 222.75 cl
0.00 0.00 366.00 222.75 cl
0.00 0.00 366.00 222.75 cl
0.00 0.00 366.00 222.75 cl
0.00 0.00 366.00 222.75 cl
ep
%%Trailer
%%Pages: 1
%%EOF
