%!PS-Adobe-3.0 EPSF-3.0
%%DocumentNeededResources: font Helvetica
%%+ font Helvetica-Bold
%%+ font Helvetica-Oblique
%%+ font Helvetica-BoldOblique
%%+ font Symbol
%%Title: R Graphics Output
%%Creator: R Software
%%Pages: (atend)
%%BoundingBox: 0 0 300 270
%%EndComments
%%BeginProlog
/bp  { gs sRGB gs } def
% begin .ps.prolog
/gs  { gsave } bind def
/gr  { grestore } bind def
/ep  { showpage gr gr } bind def
/m   { moveto } bind def
/l  { rlineto } bind def
/np  { newpath } bind def
/cp  { closepath } bind def
/f   { fill } bind def
/o   { stroke } bind def
/c   { newpath 0 360 arc } bind def
/r   { 4 2 roll moveto 1 copy 3 -1 roll exch 0 exch rlineto 0 rlineto -1 mul 0 exch rlineto closepath } bind def
/p1  { stroke } bind def
/p2  { gsave bg fill grestore newpath } bind def
/p3  { gsave bg fill grestore stroke } bind def
/p6  { gsave bg eofill grestore newpath } bind def
/p7  { gsave bg eofill grestore stroke } bind def
/t   { 5 -2 roll moveto gsave rotate
       1 index stringwidth pop
       mul neg 0 rmoveto show grestore } bind def
/ta  { 4 -2 roll moveto gsave rotate show } bind def
/tb  { 2 -1 roll 0 rmoveto show } bind def
/cl  { grestore gsave newpath 3 index 3 index moveto 1 index
       4 -1 roll lineto  exch 1 index lineto lineto
       closepath clip newpath } bind def
/rgb { setrgbcolor } bind def
/s   { scalefont setfont } bind def
% end   .ps.prolog
/sRGB { [ /CIEBasedABC
          << /DecodeLMN
               [ { dup 0.03928 le
                        {12.92321 div}
                        {0.055 add 1.055 div 2.4 exp }
                     ifelse
                 } bind dup dup
               ]
             /MatrixLMN [0.412457 0.212673 0.019334
                         0.357576 0.715152 0.119192
                         0.180437 0.072175 0.950301]
             /WhitePoint [0.9505 1.0 1.0890]
           >>
         ] setcolorspace } bind def
/srgb { setcolor } bind def
% begin encoding
/WinAnsiEncoding [
 /.notdef /.notdef /.notdef /.notdef /.notdef /.notdef /.notdef /.notdef
 /.notdef /.notdef /.notdef /.notdef /.notdef /.notdef /.notdef /.notdef
 /.notdef /.notdef /.notdef /.notdef /.notdef /.notdef /.notdef /.notdef
 /.notdef /.notdef /.notdef /.notdef /.notdef /.notdef /.notdef /.notdef
 /space /exclam /quotedbl /numbersign /dollar /percent /ampersand /quoteright
 /parenleft /parenright /asterisk /plus /comma /minus /period /slash
 /zero /one /two /three /four /five /six /seven
 /eight /nine /colon /semicolon /less /equal /greater /question
 /at /A /B /C /D /E /F /G
 /H /I /J /K /L /M /N /O
 /P /Q /R /S /T /U /V /W
 /X /Y /Z /bracketleft /backslash /bracketright /asciicircum /underscore
 /grave /a /b /c /d /e /f /g
 /h /i /j /k /l /m /n /o
 /p /q /r /s /t /u /v /w
 /x /y /z /braceleft /bar /braceright /asciitilde /.notdef
 /Euro /.notdef /quotesinglbase /florin /quotedblbase /ellipsis /dagger /daggerdbl
 /circumflex /perthousand /Scaron /guilsinglleft /OE /.notdef /Zcaron /.notdef
 /.notdef /quoteleft /quoteright /quotedblleft /quotedblright /bullet /endash /emdash
 /tilde /trademark /scaron /guilsinglright /oe /.notdef /zcaron /Ydieresis
 /space /exclamdown /cent /sterling /currency /yen /brokenbar /section
 /dieresis /copyright /ordfeminine /guillemotleft /logicalnot /hyphen /registered /macron
 /degree /plusminus /twosuperior /threesuperior /acute /mu /paragraph /periodcentered
 /cedilla /onesuperior /ordmasculine /guillemotright /onequarter /onehalf /threequarters /questiondown
 /Agrave /Aacute /Acircumflex /Atilde /Adieresis /Aring /AE /Ccedilla
 /Egrave /Eacute /Ecircumflex /Edieresis /Igrave /Iacute /Icircumflex /Idieresis
 /Eth /Ntilde /Ograve /Oacute /Ocircumflex /Otilde /Odieresis /multiply
 /Oslash /Ugrave /Uacute /Ucircumflex /Udieresis /Yacute /Thorn /germandbls
 /agrave /aacute /acircumflex /atilde /adieresis /aring /ae /ccedilla
 /egrave /eacute /ecircumflex /edieresis /igrave /iacute /icircumflex /idieresis
 /eth /ntilde /ograve /oacute /ocircumflex /otilde /odieresis /divide
 /oslash /ugrave /uacute /ucircumflex /udieresis /yacute /thorn /ydieresis
]
 def
% end encoding
%%IncludeResource: font Helvetica
/Helvetica findfont
dup length dict begin
  {1 index /FID ne {def} {pop pop} ifelse} forall
  /Encoding WinAnsiEncoding def
  currentdict
  end
/Font1 exch definefont pop
%%IncludeResource: font Helvetica-Bold
/Helvetica-Bold findfont
dup length dict begin
  {1 index /FID ne {def} {pop pop} ifelse} forall
  /Encoding WinAnsiEncoding def
  currentdict
  end
/Font2 exch definefont pop
%%IncludeResource: font Helvetica-Oblique
/Helvetica-Oblique findfont
dup length dict begin
  {1 index /FID ne {def} {pop pop} ifelse} forall
  /Encoding WinAnsiEncoding def
  currentdict
  end
/Font3 exch definefont pop
%%IncludeResource: font Helvetica-BoldOblique
/Helvetica-BoldOblique findfont
dup length dict begin
  {1 index /FID ne {def} {pop pop} ifelse} forall
  /Encoding WinAnsiEncoding def
  currentdict
  end
/Font4 exch definefont pop
%%IncludeResource: font Symbol
/Symbol findfont
dup length dict begin
  {1 index /FID ne {def} {pop pop} ifelse} forall
  currentdict
  end
/Font5 exch definefont pop
%%EndProlog
%%Page: 1 1
bp
0.00 0.00 300.00 270.00 cl
0.00 0.00 300.00 270.00 cl
0.00 0.00 300.00 270.00 cl
0.00 0.00 300.00 270.00 cl
0.00 0.00 300.00 270.00 cl
0.00 0.00 300.00 270.00 cl
0.00 0.00 300.00 270.00 cl
0.00 0.00 300.00 270.00 cl
0.00 0.00 300.00 270.00 cl
/bg { 1 1 1 srgb } def
1 1 1 srgb
1.07 setlinewidth
[] 0 setdash
1 setlinecap
1 setlinejoin
10.00 setmiterlimit
-0.00 0.00 300.00 270.00 r p3
0.00 0.00 300.00 270.00 cl
0.00 0.00 300.00 270.00 cl
0.00 0.00 300.00 270.00 cl
48.61 31.35 230.07 264.52 cl
/bg { 0.9216 0.9216 0.9216 srgb } def
48.61 31.35 181.46 233.17 r p2
1 1 1 srgb
0.53 setlinewidth
[] 0 setdash
0 setlinecap
1 setlinejoin
10.00 setmiterlimit
np
48.61 72.19 m
181.46 0 l
o
np
48.61 125.96 m
181.46 0 l
o
np
48.61 179.72 m
181.46 0 l
o
np
48.61 233.49 m
181.46 0 l
o
np
88.58 31.35 m
0 233.17 l
o
np
152.03 31.35 m
0 233.17 l
o
np
215.48 31.35 m
0 233.17 l
o
1.07 setlinewidth
[] 0 setdash
np
48.61 45.31 m
181.46 0 l
o
np
48.61 99.07 m
181.46 0 l
o
np
48.61 152.84 m
181.46 0 l
o
np
48.61 206.61 m
181.46 0 l
o
np
48.61 260.37 m
181.46 0 l
o
np
56.86 31.35 m
0 233.17 l
o
np
120.31 31.35 m
0 233.17 l
o
np
183.75 31.35 m
0 233.17 l
o
0.8039 0.5216 0 srgb
1.00 setmiterlimit
np
70.73 41.95 m
8.79 61.81 l
10.31 63.08 l
5.77 34.06 l
0.74 3.78 l
0.73 3.79 l
2.46 13.87 l
3.62 16.40 l
1.60 7.57 l
2.46 7.57 l
o
0.5608 0.7373 0.5608 srgb
np
135.57 41.95 m
19.36 61.81 l
21.65 63.08 l
13.34 34.06 l
2.01 3.78 l
2.00 3.79 l
5.82 13.87 l
8.17 16.40 l
3.76 7.57 l
5.85 7.57 l
o
0.5294 0.8078 0.9804 srgb
np
71.26 41.95 m
10.10 61.81 l
11.50 63.08 l
7.29 34.06 l
0.66 3.78 l
1.14 3.79 l
3.67 13.87 l
4.37 16.40 l
2.10 7.57 l
3.08 7.57 l
o
0 1 0 srgb
0.21 setlinewidth
[ 0.85 0.85] 0 setdash
10.00 setmiterlimit
np
48.61 253.92 m
181.46 0 l
o
/Font1 findfont 11 s
0 0 0 srgb
52.73 245.86 (0.1388) 0 0 t
0.00 0.00 300.00 270.00 cl
0.00 0.00 300.00 270.00 cl
0.00 0.00 300.00 270.00 cl
0.00 0.00 300.00 270.00 cl
0.00 0.00 300.00 270.00 cl
0.00 0.00 300.00 270.00 cl
/Font1 findfont 9 s
0.3020 0.3020 0.3020 srgb
43.68 42.08 (0.10) 1 0 t
43.68 95.84 (0.11) 1 0 t
43.68 149.61 (0.12) 1 0 t
43.68 203.38 (0.13) 1 0 t
43.68 257.14 (0.14) 1 0 t
0.00 0.00 300.00 270.00 cl
0.00 0.00 300.00 270.00 cl
0.2000 0.2000 0.2000 srgb
1.07 setlinewidth
[] 0 setdash
0 setlinecap
1 setlinejoin
10.00 setmiterlimit
np
45.87 45.31 m
2.74 0 l
o
np
45.87 99.07 m
2.74 0 l
o
np
45.87 152.84 m
2.74 0 l
o
np
45.87 206.61 m
2.74 0 l
o
np
45.87 260.37 m
2.74 0 l
o
0.00 0.00 300.00 270.00 cl
0.00 0.00 300.00 270.00 cl
0.00 0.00 300.00 270.00 cl
0.00 0.00 300.00 270.00 cl
0.00 0.00 300.00 270.00 cl
0.00 0.00 300.00 270.00 cl
0.00 0.00 300.00 270.00 cl
0.00 0.00 300.00 270.00 cl
0.2000 0.2000 0.2000 srgb
1.07 setlinewidth
[] 0 setdash
0 setlinecap
1 setlinejoin
10.00 setmiterlimit
np
56.86 28.61 m
0 2.74 l
o
np
120.31 28.61 m
0 2.74 l
o
np
183.75 28.61 m
0 2.74 l
o
0.00 0.00 300.00 270.00 cl
0.00 0.00 300.00 270.00 cl
/Font1 findfont 9 s
0.3020 0.3020 0.3020 srgb
56.86 19.95 (1.5) .5 0 t
120.31 19.95 (2.0) .5 0 t
183.75 19.95 (2.5) .5 0 t
0.00 0.00 300.00 270.00 cl
0.00 0.00 300.00 270.00 cl
0.00 0.00 300.00 270.00 cl
0.00 0.00 300.00 270.00 cl
/Font1 findfont 11 s
0 0 0 srgb
139.34 7.67 (Time Ratio) .5 0 t
0.00 0.00 300.00 270.00 cl
0.00 0.00 300.00 270.00 cl
/Font1 findfont 11 s
0 0 0 srgb
18.76 128.65 (a) 0 90 t
18.76 134.76 (t) 0 90 t
/Font1 findfont 8 s
20.77 137.82 (1) 0 90 t
0.75 setlinewidth
[] 0 setdash
1 setlinecap
1 setlinejoin
10.00 setmiterlimit
np
21.78 143.32 m
-7.76 2.09 l
o
20.77 146.45 (2) 0 90 t
np
20.15 152.34 m
-10.68 2.88 l
o
/Font1 findfont 11 s
18.76 156.65 (L) 0 90 t
/Font1 findfont 8 s
13.30 162.77 (2) 0 90 t
0.00 0.00 300.00 270.00 cl
0.00 0.00 300.00 270.00 cl
0.00 0.00 300.00 270.00 cl
0.00 0.00 300.00 270.00 cl
/bg { 1 1 1 srgb } def
238.57 111.10 47.44 73.66 r p2
0.00 0.00 300.00 270.00 cl
0.00 0.00 300.00 270.00 cl
0.00 0.00 300.00 270.00 cl
0.00 0.00 300.00 270.00 cl
/bg { 0.9490 0.9490 0.9490 srgb } def
1 1 1 srgb
1.07 setlinewidth
[] 0 setdash
1 setlinecap
1 setlinejoin
10.00 setmiterlimit
242.82 149.91 17.28 17.28 r p3
0.00 0.00 300.00 270.00 cl
0.00 0.00 300.00 270.00 cl
0.8039 0.5216 0 srgb
1.07 setlinewidth
[] 0 setdash
0 setlinecap
1 setlinejoin
10.00 setmiterlimit
np
244.55 158.55 m
13.83 0 l
o
0.00 0.00 300.00 270.00 cl
0.00 0.00 300.00 270.00 cl
0.8039 0.5216 0 srgb
1.07 setlinewidth
[] 0 setdash
0 setlinecap
1 setlinejoin
10.00 setmiterlimit
np
244.55 158.55 m
13.83 0 l
o
0.00 0.00 300.00 270.00 cl
0.00 0.00 300.00 270.00 cl
0.8039 0.5216 0 srgb
1.07 setlinewidth
[] 0 setdash
0 setlinecap
1 setlinejoin
10.00 setmiterlimit
np
244.55 158.55 m
13.83 0 l
o
0.00 0.00 300.00 270.00 cl
0.00 0.00 300.00 270.00 cl
/bg { 0.9490 0.9490 0.9490 srgb } def
1 1 1 srgb
1.07 setlinewidth
[] 0 setdash
1 setlinecap
1 setlinejoin
10.00 setmiterlimit
242.82 132.63 17.28 17.28 r p3
0.00 0.00 300.00 270.00 cl
0.00 0.00 300.00 270.00 cl
0.5608 0.7373 0.5608 srgb
1.07 setlinewidth
[] 0 setdash
0 setlinecap
1 setlinejoin
10.00 setmiterlimit
np
244.55 141.27 m
13.83 0 l
o
0.00 0.00 300.00 270.00 cl
0.00 0.00 300.00 270.00 cl
0.5608 0.7373 0.5608 srgb
1.07 setlinewidth
[] 0 setdash
0 setlinecap
1 setlinejoin
10.00 setmiterlimit
np
244.55 141.27 m
13.83 0 l
o
0.00 0.00 300.00 270.00 cl
0.00 0.00 300.00 270.00 cl
0.5608 0.7373 0.5608 srgb
1.07 setlinewidth
[] 0 setdash
0 setlinecap
1 setlinejoin
10.00 setmiterlimit
np
244.55 141.27 m
13.83 0 l
o
0.00 0.00 300.00 270.00 cl
0.00 0.00 300.00 270.00 cl
/bg { 0.9490 0.9490 0.9490 srgb } def
1 1 1 srgb
1.07 setlinewidth
[] 0 setdash
1 setlinecap
1 setlinejoin
10.00 setmiterlimit
242.82 115.35 17.28 17.28 r p3
0.00 0.00 300.00 270.00 cl
0.00 0.00 300.00 270.00 cl
0.5294 0.8078 0.9804 srgb
1.07 setlinewidth
[] 0 setdash
0 setlinecap
1 setlinejoin
10.00 setmiterlimit
np
244.55 123.99 m
13.83 0 l
o
0.00 0.00 300.00 270.00 cl
0.00 0.00 300.00 270.00 cl
0.5294 0.8078 0.9804 srgb
1.07 setlinewidth
[] 0 setdash
0 setlinecap
1 setlinejoin
10.00 setmiterlimit
np
244.55 123.99 m
13.83 0 l
o
0.00 0.00 300.00 270.00 cl
0.00 0.00 300.00 270.00 cl
0.5294 0.8078 0.9804 srgb
1.07 setlinewidth
[] 0 setdash
0 setlinecap
1 setlinejoin
10.00 setmiterlimit
np
244.55 123.99 m
13.83 0 l
o
0.00 0.00 300.00 270.00 cl
0.00 0.00 300.00 270.00 cl
/Font1 findfont 9 s
0 0 0 srgb
262.26 155.32 (t .7.3) 0 0 t
0.00 0.00 300.00 270.00 cl
0.00 0.00 300.00 270.00 cl
/Font1 findfont 9 s
0 0 0 srgb
262.26 138.04 (t .8.2) 0 0 t
0.00 0.00 300.00 270.00 cl
0.00 0.00 300.00 270.00 cl
/Font1 findfont 9 s
0 0 0 srgb
262.26 120.76 (t .8.4) 0 0 t
0.00 0.00 300.00 270.00 cl
0.00 0.00 300.00 270.00 cl
0.00 0.00 300.00 270.00 cl
0.00 0.00 300.00 270.00 cl
0.00 0.00 300.00 270.00 cl
0.00 0.00 300.00 270.00 cl
ep
%%Trailer
%%Pages: 1
%%EOF
