%!PS-Adobe-3.0 EPSF-3.0
%%DocumentNeededResources: font Helvetica
%%+ font Helvetica-Bold
%%+ font Helvetica-Oblique
%%+ font Helvetica-BoldOblique
%%+ font Symbol
%%Title: R Graphics Output
%%Creator: R Software
%%Pages: (atend)
%%BoundingBox: 0 0 300 225
%%EndComments
%%BeginProlog
/bp  { gs sRGB gs } def
% begin .ps.prolog
/gs  { gsave } bind def
/gr  { grestore } bind def
/ep  { showpage gr gr } bind def
/m   { moveto } bind def
/l  { rlineto } bind def
/np  { newpath } bind def
/cp  { closepath } bind def
/f   { fill } bind def
/o   { stroke } bind def
/c   { newpath 0 360 arc } bind def
/r   { 4 2 roll moveto 1 copy 3 -1 roll exch 0 exch rlineto 0 rlineto -1 mul 0 exch rlineto closepath } bind def
/p1  { stroke } bind def
/p2  { gsave bg fill grestore newpath } bind def
/p3  { gsave bg fill grestore stroke } bind def
/p6  { gsave bg eofill grestore newpath } bind def
/p7  { gsave bg eofill grestore stroke } bind def
/t   { 5 -2 roll moveto gsave rotate
       1 index stringwidth pop
       mul neg 0 rmoveto show grestore } bind def
/ta  { 4 -2 roll moveto gsave rotate show } bind def
/tb  { 2 -1 roll 0 rmoveto show } bind def
/cl  { grestore gsave newpath 3 index 3 index moveto 1 index
       4 -1 roll lineto  exch 1 index lineto lineto
       closepath clip newpath } bind def
/rgb { setrgbcolor } bind def
/s   { scalefont setfont } bind def
% end   .ps.prolog
/sRGB { [ /CIEBasedABC
          << /DecodeLMN
               [ { dup 0.03928 le
                        {12.92321 div}
                        {0.055 add 1.055 div 2.4 exp }
                     ifelse
                 } bind dup dup
               ]
             /MatrixLMN [0.412457 0.212673 0.019334
                         0.357576 0.715152 0.119192
                         0.180437 0.072175 0.950301]
             /WhitePoint [0.9505 1.0 1.0890]
           >>
         ] setcolorspace } bind def
/srgb { setcolor } bind def
% begin encoding
/WinAnsiEncoding [
 /.notdef /.notdef /.notdef /.notdef /.notdef /.notdef /.notdef /.notdef
 /.notdef /.notdef /.notdef /.notdef /.notdef /.notdef /.notdef /.notdef
 /.notdef /.notdef /.notdef /.notdef /.notdef /.notdef /.notdef /.notdef
 /.notdef /.notdef /.notdef /.notdef /.notdef /.notdef /.notdef /.notdef
 /space /exclam /quotedbl /numbersign /dollar /percent /ampersand /quoteright
 /parenleft /parenright /asterisk /plus /comma /minus /period /slash
 /zero /one /two /three /four /five /six /seven
 /eight /nine /colon /semicolon /less /equal /greater /question
 /at /A /B /C /D /E /F /G
 /H /I /J /K /L /M /N /O
 /P /Q /R /S /T /U /V /W
 /X /Y /Z /bracketleft /backslash /bracketright /asciicircum /underscore
 /grave /a /b /c /d /e /f /g
 /h /i /j /k /l /m /n /o
 /p /q /r /s /t /u /v /w
 /x /y /z /braceleft /bar /braceright /asciitilde /.notdef
 /Euro /.notdef /quotesinglbase /florin /quotedblbase /ellipsis /dagger /daggerdbl
 /circumflex /perthousand /Scaron /guilsinglleft /OE /.notdef /Zcaron /.notdef
 /.notdef /quoteleft /quoteright /quotedblleft /quotedblright /bullet /endash /emdash
 /tilde /trademark /scaron /guilsinglright /oe /.notdef /zcaron /Ydieresis
 /space /exclamdown /cent /sterling /currency /yen /brokenbar /section
 /dieresis /copyright /ordfeminine /guillemotleft /logicalnot /hyphen /registered /macron
 /degree /plusminus /twosuperior /threesuperior /acute /mu /paragraph /periodcentered
 /cedilla /onesuperior /ordmasculine /guillemotright /onequarter /onehalf /threequarters /questiondown
 /Agrave /Aacute /Acircumflex /Atilde /Adieresis /Aring /AE /Ccedilla
 /Egrave /Eacute /Ecircumflex /Edieresis /Igrave /Iacute /Icircumflex /Idieresis
 /Eth /Ntilde /Ograve /Oacute /Ocircumflex /Otilde /Odieresis /multiply
 /Oslash /Ugrave /Uacute /Ucircumflex /Udieresis /Yacute /Thorn /germandbls
 /agrave /aacute /acircumflex /atilde /adieresis /aring /ae /ccedilla
 /egrave /eacute /ecircumflex /edieresis /igrave /iacute /icircumflex /idieresis
 /eth /ntilde /ograve /oacute /ocircumflex /otilde /odieresis /divide
 /oslash /ugrave /uacute /ucircumflex /udieresis /yacute /thorn /ydieresis
]
 def
% end encoding
%%IncludeResource: font Helvetica
/Helvetica findfont
dup length dict begin
  {1 index /FID ne {def} {pop pop} ifelse} forall
  /Encoding WinAnsiEncoding def
  currentdict
  end
/Font1 exch definefont pop
%%IncludeResource: font Helvetica-Bold
/Helvetica-Bold findfont
dup length dict begin
  {1 index /FID ne {def} {pop pop} ifelse} forall
  /Encoding WinAnsiEncoding def
  currentdict
  end
/Font2 exch definefont pop
%%IncludeResource: font Helvetica-Oblique
/Helvetica-Oblique findfont
dup length dict begin
  {1 index /FID ne {def} {pop pop} ifelse} forall
  /Encoding WinAnsiEncoding def
  currentdict
  end
/Font3 exch definefont pop
%%IncludeResource: font Helvetica-BoldOblique
/Helvetica-BoldOblique findfont
dup length dict begin
  {1 index /FID ne {def} {pop pop} ifelse} forall
  /Encoding WinAnsiEncoding def
  currentdict
  end
/Font4 exch definefont pop
%%IncludeResource: font Symbol
/Symbol findfont
dup length dict begin
  {1 index /FID ne {def} {pop pop} ifelse} forall
  currentdict
  end
/Font5 exch definefont pop
%%EndProlog
%%Page: 1 1
bp
0.00 0.00 300.00 225.00 cl
0.00 0.00 300.00 225.00 cl
0.00 0.00 300.00 225.00 cl
0.00 0.00 300.00 225.00 cl
0.00 0.00 300.00 225.00 cl
0.00 0.00 300.00 225.00 cl
0.00 0.00 300.00 225.00 cl
0.00 0.00 300.00 225.00 cl
0.00 0.00 300.00 225.00 cl
/bg { 1 1 1 srgb } def
1 1 1 srgb
1.07 setlinewidth
[] 0 setdash
1 setlinecap
1 setlinejoin
10.00 setmiterlimit
0.00 0.00 300.00 225.00 r p3
0.00 0.00 300.00 225.00 cl
0.00 0.00 300.00 225.00 cl
0.00 0.00 300.00 225.00 cl
43.02 31.35 218.82 219.52 cl
/bg { 0.9216 0.9216 0.9216 srgb } def
43.02 31.35 175.80 188.17 r p2
1 1 1 srgb
0.53 setlinewidth
[] 0 setdash
0 setlinecap
1 setlinejoin
10.00 setmiterlimit
np
43.02 64.31 m
175.80 0 l
o
np
43.02 107.70 m
175.80 0 l
o
np
43.02 151.09 m
175.80 0 l
o
np
43.02 194.48 m
175.80 0 l
o
np
81.75 31.35 m
0 188.17 l
o
np
143.21 31.35 m
0 188.17 l
o
np
204.68 31.35 m
0 188.17 l
o
1.07 setlinewidth
[] 0 setdash
np
43.02 42.61 m
175.80 0 l
o
np
43.02 86.00 m
175.80 0 l
o
np
43.02 129.39 m
175.80 0 l
o
np
43.02 172.78 m
175.80 0 l
o
np
43.02 216.17 m
175.80 0 l
o
np
51.01 31.35 m
0 188.17 l
o
np
112.48 31.35 m
0 188.17 l
o
np
173.95 31.35 m
0 188.17 l
o
0.8039 0.5216 0 srgb
1.00 setmiterlimit
np
64.45 39.90 m
8.52 49.89 l
9.98 50.90 l
5.60 27.49 l
0.71 3.05 l
0.71 3.05 l
2.38 11.20 l
3.51 13.24 l
1.55 6.11 l
2.38 6.11 l
o
0.5294 0.8078 0.9804 srgb
np
64.97 39.90 m
9.78 49.89 l
11.14 50.90 l
7.06 27.49 l
0.64 3.05 l
1.10 3.05 l
3.57 11.20 l
4.23 13.24 l
2.03 6.11 l
2.99 6.11 l
o
0.5608 0.7373 0.5608 srgb
np
127.27 39.90 m
18.76 49.89 l
20.97 50.90 l
12.92 27.49 l
1.95 3.05 l
1.93 3.05 l
5.65 11.20 l
7.91 13.24 l
3.65 6.11 l
5.66 6.11 l
o
0 1 0 srgb
0.21 setlinewidth
[ 0.21 0.64] 0 setdash
10.00 setmiterlimit
np
43.02 210.97 m
175.80 0 l
o
/Font1 findfont 11 s
0 0 0 srgb
46.49 199.39 (0.1388) 0 0 t
0.00 0.00 300.00 225.00 cl
0.00 0.00 300.00 225.00 cl
0.00 0.00 300.00 225.00 cl
0.00 0.00 300.00 225.00 cl
0.00 0.00 300.00 225.00 cl
0.00 0.00 300.00 225.00 cl
/Font1 findfont 9 s
0.3020 0.3020 0.3020 srgb
38.09 39.38 (0.10) 1 0 t
38.09 82.77 (0.11) 1 0 t
38.09 126.16 (0.12) 1 0 t
38.09 169.55 (0.13) 1 0 t
38.09 212.94 (0.14) 1 0 t
0.00 0.00 300.00 225.00 cl
0.00 0.00 300.00 225.00 cl
0.2000 0.2000 0.2000 srgb
1.07 setlinewidth
[] 0 setdash
0 setlinecap
1 setlinejoin
10.00 setmiterlimit
np
40.28 42.61 m
2.74 0 l
o
np
40.28 86.00 m
2.74 0 l
o
np
40.28 129.39 m
2.74 0 l
o
np
40.28 172.78 m
2.74 0 l
o
np
40.28 216.17 m
2.74 0 l
o
0.00 0.00 300.00 225.00 cl
0.00 0.00 300.00 225.00 cl
0.00 0.00 300.00 225.00 cl
0.00 0.00 300.00 225.00 cl
0.00 0.00 300.00 225.00 cl
0.00 0.00 300.00 225.00 cl
0.00 0.00 300.00 225.00 cl
0.00 0.00 300.00 225.00 cl
0.2000 0.2000 0.2000 srgb
1.07 setlinewidth
[] 0 setdash
0 setlinecap
1 setlinejoin
10.00 setmiterlimit
np
51.01 28.61 m
0 2.74 l
o
np
112.48 28.61 m
0 2.74 l
o
np
173.95 28.61 m
0 2.74 l
o
0.00 0.00 300.00 225.00 cl
0.00 0.00 300.00 225.00 cl
/Font1 findfont 9 s
0.3020 0.3020 0.3020 srgb
51.01 19.95 (1.5) .5 0 t
112.48 19.95 (2.0) .5 0 t
173.95 19.95 (2.5) .5 0 t
0.00 0.00 300.00 225.00 cl
0.00 0.00 300.00 225.00 cl
0.00 0.00 300.00 225.00 cl
0.00 0.00 300.00 225.00 cl
/Font1 findfont 11 s
0 0 0 srgb
130.92 7.67 (Time Ratio) .5 0 t
0.00 0.00 300.00 225.00 cl
0.00 0.00 300.00 225.00 cl
/Font5 findfont 11 s
0 0 0 srgb
13.17 115.12 (w) 0 90 t
/Font1 findfont 8 s
15.18 122.67 (1) 0 90 t
0.75 setlinewidth
[] 0 setdash
1 setlinecap
1 setlinejoin
10.00 setmiterlimit
np
16.19 128.16 m
-7.76 2.09 l
o
15.18 131.30 (2) 0 90 t
0.00 0.00 300.00 225.00 cl
0.00 0.00 300.00 225.00 cl
0.00 0.00 300.00 225.00 cl
0.00 0.00 300.00 225.00 cl
/bg { 1 1 1 srgb } def
227.32 88.60 58.69 73.66 r p2
0.00 0.00 300.00 225.00 cl
0.00 0.00 300.00 225.00 cl
0.00 0.00 300.00 225.00 cl
0.00 0.00 300.00 225.00 cl
/bg { 0.9490 0.9490 0.9490 srgb } def
1 1 1 srgb
1.07 setlinewidth
[] 0 setdash
1 setlinecap
1 setlinejoin
10.00 setmiterlimit
231.57 127.41 17.28 17.28 r p3
0.00 0.00 300.00 225.00 cl
0.00 0.00 300.00 225.00 cl
0.8039 0.5216 0 srgb
1.07 setlinewidth
[] 0 setdash
0 setlinecap
1 setlinejoin
10.00 setmiterlimit
np
233.30 136.05 m
13.83 0 l
o
0.00 0.00 300.00 225.00 cl
0.00 0.00 300.00 225.00 cl
0.8039 0.5216 0 srgb
1.07 setlinewidth
[] 0 setdash
0 setlinecap
1 setlinejoin
10.00 setmiterlimit
np
233.30 136.05 m
13.83 0 l
o
0.00 0.00 300.00 225.00 cl
0.00 0.00 300.00 225.00 cl
0.8039 0.5216 0 srgb
1.07 setlinewidth
[] 0 setdash
0 setlinecap
1 setlinejoin
10.00 setmiterlimit
np
233.30 136.05 m
13.83 0 l
o
0.00 0.00 300.00 225.00 cl
0.00 0.00 300.00 225.00 cl
/bg { 0.9490 0.9490 0.9490 srgb } def
1 1 1 srgb
1.07 setlinewidth
[] 0 setdash
1 setlinecap
1 setlinejoin
10.00 setmiterlimit
231.57 110.13 17.28 17.28 r p3
0.00 0.00 300.00 225.00 cl
0.00 0.00 300.00 225.00 cl
0.5294 0.8078 0.9804 srgb
1.07 setlinewidth
[] 0 setdash
0 setlinecap
1 setlinejoin
10.00 setmiterlimit
np
233.30 118.77 m
13.83 0 l
o
0.00 0.00 300.00 225.00 cl
0.00 0.00 300.00 225.00 cl
0.5294 0.8078 0.9804 srgb
1.07 setlinewidth
[] 0 setdash
0 setlinecap
1 setlinejoin
10.00 setmiterlimit
np
233.30 118.77 m
13.83 0 l
o
0.00 0.00 300.00 225.00 cl
0.00 0.00 300.00 225.00 cl
0.5294 0.8078 0.9804 srgb
1.07 setlinewidth
[] 0 setdash
0 setlinecap
1 setlinejoin
10.00 setmiterlimit
np
233.30 118.77 m
13.83 0 l
o
0.00 0.00 300.00 225.00 cl
0.00 0.00 300.00 225.00 cl
/bg { 0.9490 0.9490 0.9490 srgb } def
1 1 1 srgb
1.07 setlinewidth
[] 0 setdash
1 setlinecap
1 setlinejoin
10.00 setmiterlimit
231.57 92.85 17.28 17.28 r p3
0.00 0.00 300.00 225.00 cl
0.00 0.00 300.00 225.00 cl
0.5608 0.7373 0.5608 srgb
1.07 setlinewidth
[] 0 setdash
0 setlinecap
1 setlinejoin
10.00 setmiterlimit
np
233.30 101.49 m
13.83 0 l
o
0.00 0.00 300.00 225.00 cl
0.00 0.00 300.00 225.00 cl
0.5608 0.7373 0.5608 srgb
1.07 setlinewidth
[] 0 setdash
0 setlinecap
1 setlinejoin
10.00 setmiterlimit
np
233.30 101.49 m
13.83 0 l
o
0.00 0.00 300.00 225.00 cl
0.00 0.00 300.00 225.00 cl
0.5608 0.7373 0.5608 srgb
1.07 setlinewidth
[] 0 setdash
0 setlinecap
1 setlinejoin
10.00 setmiterlimit
np
233.30 101.49 m
13.83 0 l
o
0.00 0.00 300.00 225.00 cl
0.00 0.00 300.00 225.00 cl
/Font1 findfont 9 s
0 0 0 srgb
251.01 132.82 (t .7 / t .3) 0 0 t
0.00 0.00 300.00 225.00 cl
0.00 0.00 300.00 225.00 cl
/Font1 findfont 9 s
0 0 0 srgb
251.01 115.54 (t .8 / t .4) 0 0 t
0.00 0.00 300.00 225.00 cl
0.00 0.00 300.00 225.00 cl
/Font1 findfont 9 s
0 0 0 srgb
251.01 98.26 (t .8 / t .2) 0 0 t
0.00 0.00 300.00 225.00 cl
0.00 0.00 300.00 225.00 cl
0.00 0.00 300.00 225.00 cl
0.00 0.00 300.00 225.00 cl
0.00 0.00 300.00 225.00 cl
0.00 0.00 300.00 225.00 cl
ep
%%Trailer
%%Pages: 1
%%EOF
