%!PS-Adobe-3.0 EPSF-3.0
%%DocumentNeededResources: font Helvetica
%%+ font Helvetica-Bold
%%+ font Helvetica-Oblique
%%+ font Helvetica-BoldOblique
%%+ font Symbol
%%Title: R Graphics Output
%%Creator: R Software
%%Pages: (atend)
%%BoundingBox: 0 0 300 300
%%EndComments
%%BeginProlog
/bp  { gs sRGB gs } def
% begin .ps.prolog
/gs  { gsave } bind def
/gr  { grestore } bind def
/ep  { showpage gr gr } bind def
/m   { moveto } bind def
/l  { rlineto } bind def
/np  { newpath } bind def
/cp  { closepath } bind def
/f   { fill } bind def
/o   { stroke } bind def
/c   { newpath 0 360 arc } bind def
/r   { 4 2 roll moveto 1 copy 3 -1 roll exch 0 exch rlineto 0 rlineto -1 mul 0 exch rlineto closepath } bind def
/p1  { stroke } bind def
/p2  { gsave bg fill grestore newpath } bind def
/p3  { gsave bg fill grestore stroke } bind def
/p6  { gsave bg eofill grestore newpath } bind def
/p7  { gsave bg eofill grestore stroke } bind def
/t   { 5 -2 roll moveto gsave rotate
       1 index stringwidth pop
       mul neg 0 rmoveto show grestore } bind def
/ta  { 4 -2 roll moveto gsave rotate show } bind def
/tb  { 2 -1 roll 0 rmoveto show } bind def
/cl  { grestore gsave newpath 3 index 3 index moveto 1 index
       4 -1 roll lineto  exch 1 index lineto lineto
       closepath clip newpath } bind def
/rgb { setrgbcolor } bind def
/s   { scalefont setfont } bind def
% end   .ps.prolog
/sRGB { [ /CIEBasedABC
          << /DecodeLMN
               [ { dup 0.03928 le
                        {12.92321 div}
                        {0.055 add 1.055 div 2.4 exp }
                     ifelse
                 } bind dup dup
               ]
             /MatrixLMN [0.412457 0.212673 0.019334
                         0.357576 0.715152 0.119192
                         0.180437 0.072175 0.950301]
             /WhitePoint [0.9505 1.0 1.0890]
           >>
         ] setcolorspace } bind def
/srgb { setcolor } bind def
% begin encoding
/WinAnsiEncoding [
 /.notdef /.notdef /.notdef /.notdef /.notdef /.notdef /.notdef /.notdef
 /.notdef /.notdef /.notdef /.notdef /.notdef /.notdef /.notdef /.notdef
 /.notdef /.notdef /.notdef /.notdef /.notdef /.notdef /.notdef /.notdef
 /.notdef /.notdef /.notdef /.notdef /.notdef /.notdef /.notdef /.notdef
 /space /exclam /quotedbl /numbersign /dollar /percent /ampersand /quoteright
 /parenleft /parenright /asterisk /plus /comma /minus /period /slash
 /zero /one /two /three /four /five /six /seven
 /eight /nine /colon /semicolon /less /equal /greater /question
 /at /A /B /C /D /E /F /G
 /H /I /J /K /L /M /N /O
 /P /Q /R /S /T /U /V /W
 /X /Y /Z /bracketleft /backslash /bracketright /asciicircum /underscore
 /grave /a /b /c /d /e /f /g
 /h /i /j /k /l /m /n /o
 /p /q /r /s /t /u /v /w
 /x /y /z /braceleft /bar /braceright /asciitilde /.notdef
 /Euro /.notdef /quotesinglbase /florin /quotedblbase /ellipsis /dagger /daggerdbl
 /circumflex /perthousand /Scaron /guilsinglleft /OE /.notdef /Zcaron /.notdef
 /.notdef /quoteleft /quoteright /quotedblleft /quotedblright /bullet /endash /emdash
 /tilde /trademark /scaron /guilsinglright /oe /.notdef /zcaron /Ydieresis
 /space /exclamdown /cent /sterling /currency /yen /brokenbar /section
 /dieresis /copyright /ordfeminine /guillemotleft /logicalnot /hyphen /registered /macron
 /degree /plusminus /twosuperior /threesuperior /acute /mu /paragraph /periodcentered
 /cedilla /onesuperior /ordmasculine /guillemotright /onequarter /onehalf /threequarters /questiondown
 /Agrave /Aacute /Acircumflex /Atilde /Adieresis /Aring /AE /Ccedilla
 /Egrave /Eacute /Ecircumflex /Edieresis /Igrave /Iacute /Icircumflex /Idieresis
 /Eth /Ntilde /Ograve /Oacute /Ocircumflex /Otilde /Odieresis /multiply
 /Oslash /Ugrave /Uacute /Ucircumflex /Udieresis /Yacute /Thorn /germandbls
 /agrave /aacute /acircumflex /atilde /adieresis /aring /ae /ccedilla
 /egrave /eacute /ecircumflex /edieresis /igrave /iacute /icircumflex /idieresis
 /eth /ntilde /ograve /oacute /ocircumflex /otilde /odieresis /divide
 /oslash /ugrave /uacute /ucircumflex /udieresis /yacute /thorn /ydieresis
]
 def
% end encoding
%%IncludeResource: font Helvetica
/Helvetica findfont
dup length dict begin
  {1 index /FID ne {def} {pop pop} ifelse} forall
  /Encoding WinAnsiEncoding def
  currentdict
  end
/Font1 exch definefont pop
%%IncludeResource: font Helvetica-Bold
/Helvetica-Bold findfont
dup length dict begin
  {1 index /FID ne {def} {pop pop} ifelse} forall
  /Encoding WinAnsiEncoding def
  currentdict
  end
/Font2 exch definefont pop
%%IncludeResource: font Helvetica-Oblique
/Helvetica-Oblique findfont
dup length dict begin
  {1 index /FID ne {def} {pop pop} ifelse} forall
  /Encoding WinAnsiEncoding def
  currentdict
  end
/Font3 exch definefont pop
%%IncludeResource: font Helvetica-BoldOblique
/Helvetica-BoldOblique findfont
dup length dict begin
  {1 index /FID ne {def} {pop pop} ifelse} forall
  /Encoding WinAnsiEncoding def
  currentdict
  end
/Font4 exch definefont pop
%%IncludeResource: font Symbol
/Symbol findfont
dup length dict begin
  {1 index /FID ne {def} {pop pop} ifelse} forall
  currentdict
  end
/Font5 exch definefont pop
%%EndProlog
%%Page: 1 1
bp
0.00 0.00 300.00 300.00 cl
0.00 0.00 300.00 300.00 cl
0.00 0.00 300.00 300.00 cl
0.00 0.00 300.00 300.00 cl
0.00 0.00 300.00 300.00 cl
0.00 0.00 300.00 300.00 cl
0.00 0.00 300.00 300.00 cl
0.00 0.00 300.00 300.00 cl
0.00 0.00 300.00 300.00 cl
/bg { 1 1 1 srgb } def
1 1 1 srgb
1.07 setlinewidth
[] 0 setdash
1 setlinecap
1 setlinejoin
10.00 setmiterlimit
-0.00 0.00 300.00 300.00 r p3
0.00 0.00 300.00 300.00 cl
0.00 0.00 300.00 300.00 cl
0.00 0.00 300.00 300.00 cl
29.89 31.35 224.82 294.52 cl
/bg { 0.9216 0.9216 0.9216 srgb } def
29.89 31.35 194.93 263.17 r p2
1 1 1 srgb
0.53 setlinewidth
[] 0 setdash
0 setlinecap
1 setlinejoin
10.00 setmiterlimit
np
29.89 77.49 m
194.93 0 l
o
np
29.89 145.84 m
194.93 0 l
o
np
29.89 214.20 m
194.93 0 l
o
np
29.89 282.56 m
194.93 0 l
o
np
68.04 31.35 m
0 263.17 l
o
np
127.21 31.35 m
0 263.17 l
o
np
186.37 31.35 m
0 263.17 l
o
1.07 setlinewidth
[] 0 setdash
np
29.89 43.31 m
194.93 0 l
o
np
29.89 111.67 m
194.93 0 l
o
np
29.89 180.02 m
194.93 0 l
o
np
29.89 248.38 m
194.93 0 l
o
np
38.45 31.35 m
0 263.17 l
o
np
97.62 31.35 m
0 263.17 l
o
np
156.79 31.35 m
0 263.17 l
o
np
215.96 31.35 m
0 263.17 l
o
0.5608 0.7373 0.5608 srgb
1.00 setmiterlimit
np
38.75 43.31 m
0.35 0 l
0.36 0 l
0.35 0 l
0.36 0 l
0.35 0 l
0.36 0 l
0.35 0 l
0.36 0 l
0.35 0 l
0.36 0 l
0.36 0 l
0.35 0 l
0.36 0 l
0.35 0 l
0.36 0 l
0.35 0 l
0.36 0 l
0.35 0 l
0.36 0 l
0.35 0 l
0.36 0 l
0.35 0 l
0.36 0 l
0.35 0 l
0.36 0 l
0.35 0 l
0.36 0 l
0.35 0 l
0.36 0 l
0.35 0 l
0.36 0 l
0.35 0 l
0.36 0 l
0.35 0.01 l
0.36 0 l
0.35 0 l
0.36 0.01 l
0.35 0 l
0.36 0.01 l
0.35 0.01 l
0.36 0.01 l
0.35 0.01 l
0.36 0.02 l
0.35 0.01 l
0.36 0.02 l
0.35 0.03 l
0.36 0.02 l
0.36 0.03 l
0.35 0.04 l
0.36 0.04 l
0.35 0.04 l
0.36 0.04 l
0.35 0.06 l
0.36 0.05 l
0.35 0.07 l
0.36 0.06 l
0.35 0.08 l
0.36 0.08 l
0.35 0.08 l
0.36 0.09 l
0.35 0.10 l
0.36 0.11 l
0.35 0.11 l
0.36 0.12 l
0.35 0.12 l
0.36 0.13 l
0.35 0.14 l
0.36 0.15 l
0.35 0.15 l
0.36 0.16 l
0.35 0.17 l
0.36 0.18 l
0.35 0.18 l
0.36 0.19 l
0.35 0.20 l
0.36 0.20 l
0.35 0.21 l
0.36 0.22 l
0.35 0.23 l
0.36 0.23 l
0.35 0.24 l
0.36 0.25 l
0.35 0.25 l
0.36 0.26 l
0.35 0.27 l
0.36 0.27 l
0.36 0.28 l
0.35 0.28 l
0.36 0.29 l
0.35 0.30 l
0.36 0.30 l
0.35 0.31 l
0.36 0.31 l
0.35 0.32 l
0.36 0.32 l
0.35 0.33 l
0.36 0.33 l
0.35 0.34 l
0.36 0.34 l
74.26 53.47 lineto
0.36 0.35 l
0.35 0.35 l
0.36 0.36 l
0.35 0.37 l
0.36 0.36 l
0.35 0.37 l
0.36 0.37 l
0.35 0.38 l
0.36 0.38 l
0.35 0.38 l
0.36 0.38 l
0.35 0.39 l
0.36 0.39 l
0.35 0.39 l
0.36 0.39 l
0.35 0.40 l
0.36 0.40 l
0.35 0.40 l
0.36 0.40 l
0.35 0.40 l
0.36 0.40 l
0.35 0.41 l
0.36 0.40 l
0.35 0.41 l
0.36 0.41 l
0.36 0.41 l
0.35 0.41 l
0.36 0.40 l
0.35 0.41 l
0.36 0.42 l
0.35 0.41 l
0.36 0.41 l
0.35 0.41 l
0.36 0.41 l
0.35 0.41 l
0.36 0.41 l
0.35 0.41 l
0.36 0.41 l
0.35 0.41 l
0.36 0.41 l
0.35 0.40 l
0.36 0.41 l
0.35 0.41 l
0.36 0.40 l
0.35 0.41 l
0.36 0.40 l
0.35 0.40 l
0.36 0.40 l
0.35 0.40 l
0.36 0.40 l
0.35 0.40 l
0.36 0.39 l
0.35 0.40 l
0.36 0.39 l
0.35 0.39 l
0.36 0.39 l
0.35 0.39 l
0.36 0.39 l
0.35 0.38 l
0.36 0.38 l
0.35 0.38 l
0.36 0.38 l
0.35 0.38 l
0.36 0.38 l
0.36 0.37 l
0.35 0.37 l
0.36 0.37 l
0.35 0.37 l
0.36 0.36 l
0.35 0.37 l
0.36 0.36 l
0.35 0.36 l
0.36 0.35 l
0.35 0.36 l
0.36 0.35 l
0.35 0.35 l
0.36 0.35 l
0.35 0.34 l
0.36 0.35 l
0.35 0.34 l
0.36 0.34 l
0.35 0.33 l
0.36 0.34 l
0.35 0.33 l
0.36 0.33 l
0.35 0.32 l
0.36 0.33 l
0.35 0.32 l
0.36 0.32 l
0.35 0.31 l
0.36 0.32 l
0.35 0.31 l
0.36 0.31 l
0.35 0.31 l
0.36 0.30 l
0.35 0.31 l
0.36 0.29 l
0.35 0.30 l
0.36 0.30 l
109.77 90.74 lineto
0.36 0.29 l
0.35 0.29 l
0.36 0.28 l
0.36 0.28 l
0.35 0.28 l
0.36 0.28 l
0.35 0.28 l
0.36 0.27 l
0.35 0.27 l
0.36 0.27 l
0.35 0.26 l
0.36 0.26 l
0.35 0.27 l
0.36 0.25 l
0.35 0.26 l
0.36 0.25 l
0.35 0.25 l
0.36 0.25 l
0.35 0.25 l
0.36 0.24 l
0.35 0.24 l
0.36 0.24 l
0.35 0.24 l
0.36 0.23 l
0.35 0.23 l
0.36 0.23 l
0.35 0.23 l
0.36 0.22 l
0.35 0.22 l
0.36 0.22 l
0.35 0.22 l
0.36 0.22 l
0.35 0.21 l
0.36 0.21 l
0.35 0.21 l
0.36 0.20 l
0.35 0.21 l
0.36 0.20 l
0.35 0.20 l
0.36 0.20 l
0.36 0.19 l
0.35 0.20 l
0.36 0.19 l
0.35 0.18 l
0.36 0.19 l
0.35 0.18 l
0.36 0.19 l
0.35 0.18 l
0.36 0.17 l
0.35 0.18 l
0.36 0.17 l
0.35 0.18 l
0.36 0.17 l
0.35 0.16 l
0.36 0.17 l
0.35 0.16 l
0.36 0.16 l
0.35 0.16 l
0.36 0.16 l
0.35 0.16 l
0.36 0.15 l
0.35 0.15 l
0.36 0.15 l
0.35 0.15 l
0.36 0.14 l
0.35 0.15 l
0.36 0.14 l
0.35 0.14 l
0.36 0.14 l
0.35 0.13 l
0.36 0.14 l
0.35 0.13 l
0.36 0.13 l
0.35 0.13 l
0.36 0.13 l
0.35 0.12 l
0.36 0.13 l
0.35 0.12 l
0.36 0.12 l
0.36 0.12 l
0.35 0.12 l
0.36 0.11 l
0.35 0.11 l
0.36 0.12 l
0.35 0.11 l
0.36 0.10 l
0.35 0.11 l
0.36 0.11 l
0.35 0.10 l
0.36 0.10 l
0.35 0.10 l
0.36 0.10 l
0.35 0.10 l
0.36 0.09 l
0.35 0.10 l
0.36 0.09 l
0.35 0.09 l
0.36 0.09 l
0.35 0.09 l
145.29 108.68 lineto
0.35 0.09 l
0.36 0.08 l
0.35 0.08 l
0.36 0.08 l
0.35 0.08 l
0.36 0.08 l
0.35 0.08 l
0.36 0.07 l
0.35 0.08 l
0.36 0.07 l
0.35 0.07 l
0.36 0.07 l
0.35 0.07 l
0.36 0.06 l
0.35 0.07 l
0.36 0.06 l
0.35 0.06 l
0.36 0.07 l
0.36 0.06 l
0.35 0.05 l
0.36 0.06 l
0.35 0.06 l
0.36 0.05 l
0.35 0.06 l
0.36 0.05 l
0.35 0.05 l
0.36 0.05 l
0.35 0.05 l
0.36 0.05 l
0.35 0.04 l
0.36 0.05 l
0.35 0.04 l
0.36 0.05 l
0.35 0.04 l
0.36 0.04 l
0.35 0.04 l
0.36 0.04 l
0.35 0.04 l
0.36 0.03 l
0.35 0.04 l
0.36 0.03 l
0.35 0.04 l
0.36 0.03 l
0.35 0.03 l
0.36 0.03 l
0.35 0.03 l
0.36 0.03 l
0.35 0.02 l
0.36 0.03 l
0.35 0.02 l
0.36 0.03 l
0.35 0.02 l
0.36 0.02 l
0.35 0.02 l
0.36 0.03 l
0.35 0.01 l
0.36 0.02 l
0.36 0.02 l
0.35 0.02 l
0.36 0.01 l
0.35 0.02 l
0.36 0.01 l
0.35 0.01 l
0.36 0.02 l
0.35 0.01 l
0.36 0.01 l
0.35 0.01 l
0.36 0 l
0.35 0.01 l
0.36 0.01 l
0.35 0.01 l
0.36 0 l
0.35 0.01 l
0.36 0 l
0.35 0 l
0.36 0 l
0.35 0.01 l
0.36 0 l
0.35 0 l
0.36 -0.01 l
0.35 0 l
0.36 0 l
0.35 0 l
0.36 -0.01 l
0.35 0 l
0.36 -0.01 l
0.35 0 l
0.36 -0.01 l
0.35 -0.01 l
0.36 -0.01 l
0.35 -0.01 l
0.36 0 l
0.35 -0.01 l
0.36 -0.02 l
0.36 -0.01 l
0.35 -0.01 l
0.36 -0.01 l
0.35 -0.02 l
0.36 -0.01 l
180.80 111.49 lineto
0.36 -0.01 l
0.35 -0.02 l
0.36 -0.01 l
0.35 -0.02 l
0.36 -0.02 l
0.35 -0.02 l
0.36 -0.02 l
0.35 -0.02 l
0.36 -0.02 l
0.35 -0.02 l
0.36 -0.02 l
0.35 -0.02 l
0.36 -0.02 l
0.35 -0.03 l
0.36 -0.02 l
0.35 -0.02 l
0.36 -0.03 l
0.35 -0.02 l
0.36 -0.03 l
0.35 -0.03 l
0.36 -0.02 l
0.35 -0.03 l
0.36 -0.03 l
0.35 -0.03 l
0.36 -0.03 l
0.35 -0.02 l
0.36 -0.03 l
0.35 -0.04 l
0.36 -0.03 l
0.35 -0.03 l
0.36 -0.03 l
0.35 -0.03 l
0.36 -0.03 l
0.36 -0.04 l
0.35 -0.03 l
0.36 -0.03 l
0.35 -0.04 l
0.36 -0.03 l
0.35 -0.04 l
0.36 -0.03 l
0.35 -0.04 l
0.36 -0.04 l
0.35 -0.03 l
0.36 -0.04 l
0.35 -0.04 l
0.36 -0.04 l
0.35 -0.04 l
0.36 -0.04 l
0.35 -0.03 l
0.36 -0.04 l
0.35 -0.04 l
0.36 -0.04 l
0.35 -0.05 l
0.36 -0.04 l
0.35 -0.04 l
0.36 -0.04 l
0.35 -0.04 l
0.36 -0.05 l
0.35 -0.04 l
0.36 -0.04 l
0.35 -0.05 l
0.36 -0.04 l
0.35 -0.04 l
0.36 -0.05 l
0.35 -0.04 l
0.36 -0.05 l
0.35 -0.05 l
0.36 -0.04 l
0.35 -0.05 l
0.36 -0.04 l
0.35 -0.05 l
0.36 -0.05 l
0.36 -0.05 l
0.35 -0.04 l
0.36 -0.05 l
0.35 -0.05 l
0.36 -0.05 l
0.35 -0.05 l
0.36 -0.05 l
0.35 -0.05 l
0.36 -0.05 l
0.35 -0.05 l
0.36 -0.05 l
0.35 -0.05 l
0.36 -0.05 l
0.35 -0.05 l
0.36 -0.05 l
0.35 -0.05 l
0.36 -0.06 l
0.35 -0.05 l
0.36 -0.05 l
0.35 -0.05 l
0.36 -0.06 l
0.35 -0.05 l
0.36 -0.05 l
0.35 -0.06 l
0.36 -0.05 l
0.35 -0.05 l
0.36 -0.06 l
o
1 0.3882 0.2784 srgb
np
38.75 43.31 m
0.35 0 l
0.36 0 l
0.35 0 l
0.36 0 l
0.35 0 l
0.36 0 l
0.35 0 l
0.36 0 l
0.35 0 l
0.36 0 l
0.36 0 l
0.35 0 l
0.36 0 l
0.35 0 l
0.36 0 l
0.35 0 l
0.36 0 l
0.35 0 l
0.36 0 l
0.35 0 l
0.36 0 l
0.35 0 l
0.36 0 l
0.35 0 l
0.36 0 l
0.35 0.01 l
0.36 0 l
0.35 0.01 l
0.36 0.01 l
0.35 0.02 l
0.36 0.02 l
0.35 0.03 l
0.36 0.03 l
0.35 0.05 l
0.36 0.06 l
0.35 0.08 l
0.36 0.09 l
0.35 0.12 l
0.36 0.14 l
0.35 0.16 l
0.36 0.19 l
0.35 0.22 l
0.36 0.25 l
0.35 0.29 l
0.36 0.32 l
0.35 0.37 l
0.36 0.41 l
0.36 0.45 l
0.35 0.50 l
0.36 0.54 l
0.35 0.60 l
0.36 0.64 l
0.35 0.70 l
0.36 0.74 l
0.35 0.80 l
0.36 0.86 l
0.35 0.90 l
0.36 0.96 l
0.35 1.02 l
0.36 1.06 l
0.35 1.12 l
0.36 1.17 l
0.35 1.22 l
0.36 1.28 l
0.35 1.32 l
0.36 1.37 l
0.35 1.41 l
0.36 1.46 l
0.35 1.51 l
0.36 1.55 l
0.35 1.59 l
0.36 1.63 l
0.35 1.66 l
0.36 1.71 l
0.35 1.73 l
0.36 1.77 l
0.35 1.80 l
0.36 1.83 l
0.35 1.86 l
0.36 1.88 l
0.35 1.91 l
0.36 1.93 l
0.35 1.95 l
0.36 1.96 l
0.35 1.99 l
0.36 1.99 l
0.36 2.02 l
0.35 2.02 l
0.36 2.03 l
0.35 2.05 l
0.36 2.05 l
0.35 2.05 l
0.36 2.06 l
0.35 2.06 l
0.36 2.06 l
0.35 2.07 l
0.36 2.06 l
0.35 2.06 l
0.36 2.05 l
74.26 127.25 lineto
0.36 2.05 l
0.35 2.03 l
0.36 2.03 l
0.35 2.02 l
0.36 2.01 l
0.35 2.00 l
0.36 1.99 l
0.35 1.97 l
0.36 1.97 l
0.35 1.94 l
0.36 1.94 l
0.35 1.91 l
0.36 1.90 l
0.35 1.89 l
0.36 1.86 l
0.35 1.85 l
0.36 1.83 l
0.35 1.82 l
0.36 1.79 l
0.35 1.77 l
0.36 1.76 l
0.35 1.73 l
0.36 1.71 l
0.35 1.69 l
0.36 1.68 l
0.36 1.64 l
0.35 1.63 l
0.36 1.61 l
0.35 1.58 l
0.36 1.56 l
0.35 1.54 l
0.36 1.52 l
0.35 1.49 l
0.36 1.47 l
0.35 1.45 l
0.36 1.43 l
0.35 1.40 l
0.36 1.38 l
0.35 1.36 l
0.36 1.34 l
0.35 1.31 l
0.36 1.29 l
0.35 1.27 l
0.36 1.24 l
0.35 1.22 l
0.36 1.20 l
0.35 1.18 l
0.36 1.15 l
0.35 1.14 l
0.36 1.11 l
0.35 1.08 l
0.36 1.07 l
0.35 1.05 l
0.36 1.02 l
0.35 1.00 l
0.36 0.98 l
0.35 0.96 l
0.36 0.94 l
0.35 0.92 l
0.36 0.90 l
0.35 0.87 l
0.36 0.86 l
0.35 0.84 l
0.36 0.81 l
0.36 0.80 l
0.35 0.78 l
0.36 0.76 l
0.35 0.74 l
0.36 0.72 l
0.35 0.70 l
0.36 0.68 l
0.35 0.67 l
0.36 0.64 l
0.35 0.63 l
0.36 0.61 l
0.35 0.60 l
0.36 0.57 l
0.35 0.56 l
0.36 0.54 l
0.35 0.53 l
0.36 0.51 l
0.35 0.49 l
0.36 0.48 l
0.35 0.46 l
0.36 0.45 l
0.35 0.42 l
0.36 0.42 l
0.35 0.40 l
0.36 0.38 l
0.35 0.37 l
0.36 0.36 l
0.35 0.34 l
0.36 0.33 l
0.35 0.31 l
0.36 0.30 l
0.35 0.29 l
0.36 0.27 l
0.35 0.26 l
0.36 0.25 l
109.77 240.05 lineto
0.36 0.22 l
0.35 0.21 l
0.36 0.20 l
0.36 0.18 l
0.35 0.18 l
0.36 0.16 l
0.35 0.15 l
0.36 0.14 l
0.35 0.13 l
0.36 0.11 l
0.35 0.11 l
0.36 0.10 l
0.35 0.08 l
0.36 0.08 l
0.35 0.06 l
0.36 0.06 l
0.35 0.04 l
0.36 0.04 l
0.35 0.02 l
0.36 0.02 l
0.35 0.01 l
0.36 0 l
0.35 -0.01 l
0.36 -0.02 l
0.35 -0.03 l
0.36 -0.03 l
0.35 -0.05 l
0.36 -0.05 l
0.35 -0.06 l
0.36 -0.07 l
0.35 -0.07 l
0.36 -0.09 l
0.35 -0.09 l
0.36 -0.09 l
0.35 -0.11 l
0.36 -0.11 l
0.35 -0.12 l
0.36 -0.13 l
0.35 -0.13 l
0.36 -0.14 l
0.36 -0.14 l
0.35 -0.15 l
0.36 -0.16 l
0.35 -0.17 l
0.36 -0.16 l
0.35 -0.18 l
0.36 -0.18 l
0.35 -0.19 l
0.36 -0.19 l
0.35 -0.20 l
0.36 -0.20 l
0.35 -0.21 l
0.36 -0.22 l
0.35 -0.21 l
0.36 -0.23 l
0.35 -0.23 l
0.36 -0.23 l
0.35 -0.24 l
0.36 -0.24 l
0.35 -0.25 l
0.36 -0.25 l
0.35 -0.25 l
0.36 -0.26 l
0.35 -0.27 l
0.36 -0.27 l
0.35 -0.27 l
0.36 -0.27 l
0.35 -0.28 l
0.36 -0.29 l
0.35 -0.28 l
0.36 -0.29 l
0.35 -0.30 l
0.36 -0.29 l
0.35 -0.30 l
0.36 -0.31 l
0.35 -0.31 l
0.36 -0.31 l
0.35 -0.31 l
0.36 -0.31 l
0.36 -0.32 l
0.35 -0.32 l
0.36 -0.33 l
0.35 -0.33 l
0.36 -0.33 l
0.35 -0.33 l
0.36 -0.33 l
0.35 -0.34 l
0.36 -0.34 l
0.35 -0.34 l
0.36 -0.34 l
0.35 -0.35 l
0.36 -0.35 l
0.35 -0.35 l
0.36 -0.35 l
0.35 -0.36 l
0.36 -0.35 l
0.35 -0.36 l
0.36 -0.36 l
0.35 -0.36 l
145.29 224.34 lineto
0.35 -0.36 l
0.36 -0.37 l
0.35 -0.37 l
0.36 -0.37 l
0.35 -0.37 l
0.36 -0.37 l
0.35 -0.38 l
0.36 -0.38 l
0.35 -0.37 l
0.36 -0.38 l
0.35 -0.38 l
0.36 -0.38 l
0.35 -0.38 l
0.36 -0.39 l
0.35 -0.38 l
0.36 -0.39 l
0.35 -0.38 l
0.36 -0.39 l
0.36 -0.39 l
0.35 -0.39 l
0.36 -0.39 l
0.35 -0.39 l
0.36 -0.39 l
0.35 -0.39 l
0.36 -0.40 l
0.35 -0.39 l
0.36 -0.39 l
0.35 -0.40 l
0.36 -0.39 l
0.35 -0.40 l
0.36 -0.40 l
0.35 -0.40 l
0.36 -0.39 l
0.35 -0.40 l
0.36 -0.40 l
0.35 -0.40 l
0.36 -0.40 l
0.35 -0.40 l
0.36 -0.40 l
0.35 -0.40 l
0.36 -0.40 l
0.35 -0.40 l
0.36 -0.40 l
0.35 -0.40 l
0.36 -0.40 l
0.35 -0.41 l
0.36 -0.40 l
0.35 -0.40 l
0.36 -0.40 l
0.35 -0.40 l
0.36 -0.41 l
0.35 -0.40 l
0.36 -0.40 l
0.35 -0.40 l
0.36 -0.40 l
0.35 -0.41 l
0.36 -0.40 l
0.36 -0.40 l
0.35 -0.40 l
0.36 -0.40 l
0.35 -0.41 l
0.36 -0.40 l
0.35 -0.40 l
0.36 -0.40 l
0.35 -0.40 l
0.36 -0.40 l
0.35 -0.40 l
0.36 -0.40 l
0.35 -0.40 l
0.36 -0.40 l
0.35 -0.40 l
0.36 -0.40 l
0.35 -0.40 l
0.36 -0.39 l
0.35 -0.40 l
0.36 -0.40 l
0.35 -0.40 l
0.36 -0.39 l
0.35 -0.40 l
0.36 -0.40 l
0.35 -0.39 l
0.36 -0.40 l
0.35 -0.39 l
0.36 -0.40 l
0.35 -0.39 l
0.36 -0.39 l
0.35 -0.39 l
0.36 -0.40 l
0.35 -0.39 l
0.36 -0.39 l
0.35 -0.39 l
0.36 -0.39 l
0.35 -0.39 l
0.36 -0.39 l
0.36 -0.39 l
0.35 -0.38 l
0.36 -0.39 l
0.35 -0.39 l
0.36 -0.38 l
180.80 185.02 lineto
0.36 -0.38 l
0.35 -0.39 l
0.36 -0.38 l
0.35 -0.39 l
0.36 -0.38 l
0.35 -0.38 l
0.36 -0.38 l
0.35 -0.38 l
0.36 -0.38 l
0.35 -0.38 l
0.36 -0.38 l
0.35 -0.37 l
0.36 -0.38 l
0.35 -0.38 l
0.36 -0.37 l
0.35 -0.38 l
0.36 -0.37 l
0.35 -0.37 l
0.36 -0.38 l
0.35 -0.37 l
0.36 -0.37 l
0.35 -0.37 l
0.36 -0.37 l
0.35 -0.37 l
0.36 -0.37 l
0.35 -0.36 l
0.36 -0.37 l
0.35 -0.36 l
0.36 -0.37 l
0.35 -0.36 l
0.36 -0.37 l
0.35 -0.36 l
0.36 -0.36 l
0.36 -0.36 l
0.35 -0.36 l
0.36 -0.36 l
0.35 -0.36 l
0.36 -0.36 l
0.35 -0.36 l
0.36 -0.35 l
0.35 -0.36 l
0.36 -0.35 l
0.35 -0.35 l
0.36 -0.36 l
0.35 -0.35 l
0.36 -0.35 l
0.35 -0.35 l
0.36 -0.35 l
0.35 -0.35 l
0.36 -0.35 l
0.35 -0.34 l
0.36 -0.35 l
0.35 -0.35 l
0.36 -0.34 l
0.35 -0.34 l
0.36 -0.35 l
0.35 -0.34 l
0.36 -0.34 l
0.35 -0.34 l
0.36 -0.34 l
0.35 -0.34 l
0.36 -0.34 l
0.35 -0.33 l
0.36 -0.34 l
0.35 -0.33 l
0.36 -0.34 l
0.35 -0.33 l
0.36 -0.33 l
0.35 -0.34 l
0.36 -0.33 l
0.35 -0.33 l
0.36 -0.33 l
0.36 -0.32 l
0.35 -0.33 l
0.36 -0.33 l
0.35 -0.32 l
0.36 -0.33 l
0.35 -0.32 l
0.36 -0.33 l
0.35 -0.32 l
0.36 -0.32 l
0.35 -0.32 l
0.36 -0.32 l
0.35 -0.32 l
0.36 -0.32 l
0.35 -0.31 l
0.36 -0.32 l
0.35 -0.31 l
0.36 -0.32 l
0.35 -0.31 l
0.36 -0.32 l
0.35 -0.31 l
0.36 -0.31 l
0.35 -0.31 l
0.36 -0.31 l
0.35 -0.31 l
0.36 -0.30 l
0.35 -0.31 l
0.36 -0.31 l
o
/Font1 findfont 11 s
0 0 0 srgb
100.45 143.89 (m) 0 0 t
/Font5 findfont 8 s
109.62 141.88 (-) 0 0 t
/Font1 findfont 8 s
114.01 141.88 (1) 0 0 t
/Font1 findfont 11 s
102.65 58.52 (m) 0 0 t
/Font1 findfont 8 s
111.81 56.51 (0) 0 0 t
/Font1 findfont 11 s
113.22 278.61 (Biot n) 0 ta
-0.110 (umber = 0.5) tb gr
0.00 0.00 300.00 300.00 cl
0.00 0.00 300.00 300.00 cl
0.00 0.00 300.00 300.00 cl
0.00 0.00 300.00 300.00 cl
0.00 0.00 300.00 300.00 cl
0.00 0.00 300.00 300.00 cl
/Font1 findfont 9 s
0.3020 0.3020 0.3020 srgb
24.96 40.08 (0) 1 0 t
24.96 108.43 (1) 1 0 t
24.96 176.79 (2) 1 0 t
24.96 245.15 (3) 1 0 t
0.00 0.00 300.00 300.00 cl
0.00 0.00 300.00 300.00 cl
0.2000 0.2000 0.2000 srgb
1.07 setlinewidth
[] 0 setdash
0 setlinecap
1 setlinejoin
10.00 setmiterlimit
np
27.15 43.31 m
2.74 0 l
o
np
27.15 111.67 m
2.74 0 l
o
np
27.15 180.02 m
2.74 0 l
o
np
27.15 248.38 m
2.74 0 l
o
0.00 0.00 300.00 300.00 cl
0.00 0.00 300.00 300.00 cl
0.00 0.00 300.00 300.00 cl
0.00 0.00 300.00 300.00 cl
0.00 0.00 300.00 300.00 cl
0.00 0.00 300.00 300.00 cl
0.00 0.00 300.00 300.00 cl
0.00 0.00 300.00 300.00 cl
0.2000 0.2000 0.2000 srgb
1.07 setlinewidth
[] 0 setdash
0 setlinecap
1 setlinejoin
10.00 setmiterlimit
np
38.45 28.61 m
0 2.74 l
o
np
97.62 28.61 m
0 2.74 l
o
np
156.79 28.61 m
0 2.74 l
o
np
215.96 28.61 m
0 2.74 l
o
0.00 0.00 300.00 300.00 cl
0.00 0.00 300.00 300.00 cl
/Font1 findfont 9 s
0.3020 0.3020 0.3020 srgb
38.45 19.95 (0.0) .5 0 t
97.62 19.95 (0.2) .5 0 t
156.79 19.95 (0.4) .5 0 t
215.96 19.95 (0.6) .5 0 t
0.00 0.00 300.00 300.00 cl
0.00 0.00 300.00 300.00 cl
0.00 0.00 300.00 300.00 cl
0.00 0.00 300.00 300.00 cl
/Font1 findfont 11 s
0 0 0 srgb
127.35 7.67 (time) .5 0 t
0.00 0.00 300.00 300.00 cl
0.00 0.00 300.00 300.00 cl
/Font1 findfont 11 s
0 0 0 srgb
15.57 162.93 (V) .5 90 t
0.00 0.00 300.00 300.00 cl
0.00 0.00 300.00 300.00 cl
0.00 0.00 300.00 300.00 cl
0.00 0.00 300.00 300.00 cl
/bg { 1 1 1 srgb } def
233.32 134.74 52.69 56.38 r p2
0.00 0.00 300.00 300.00 cl
0.00 0.00 300.00 300.00 cl
/Font1 findfont 11 s
0 0 0 srgb
237.57 178.42 (Function) 0 0 t
0.00 0.00 300.00 300.00 cl
0.00 0.00 300.00 300.00 cl
/bg { 0.9490 0.9490 0.9490 srgb } def
1 1 1 srgb
1.07 setlinewidth
[] 0 setdash
1 setlinecap
1 setlinejoin
10.00 setmiterlimit
237.57 156.27 17.28 17.28 r p3
0.00 0.00 300.00 300.00 cl
0.00 0.00 300.00 300.00 cl
1 0.3882 0.2784 srgb
1.07 setlinewidth
[] 0 setdash
0 setlinecap
1 setlinejoin
10.00 setmiterlimit
np
239.30 164.91 m
13.83 0 l
o
0.00 0.00 300.00 300.00 cl
0.00 0.00 300.00 300.00 cl
/bg { 0.9490 0.9490 0.9490 srgb } def
1 1 1 srgb
1.07 setlinewidth
[] 0 setdash
1 setlinecap
1 setlinejoin
10.00 setmiterlimit
237.57 138.99 17.28 17.28 r p3
0.00 0.00 300.00 300.00 cl
0.00 0.00 300.00 300.00 cl
0.5608 0.7373 0.5608 srgb
1.07 setlinewidth
[] 0 setdash
0 setlinecap
1 setlinejoin
10.00 setmiterlimit
np
239.30 147.63 m
13.83 0 l
o
0.00 0.00 300.00 300.00 cl
0.00 0.00 300.00 300.00 cl
/Font1 findfont 14 s
0 0 0 srgb
257.01 159.89 (f\(t\)/t) 0 0 t
0.00 0.00 300.00 300.00 cl
0.00 0.00 300.00 300.00 cl
/Font1 findfont 14 s
0 0 0 srgb
257.01 142.61 (f\(t\)) 0 0 t
0.00 0.00 300.00 300.00 cl
0.00 0.00 300.00 300.00 cl
0.00 0.00 300.00 300.00 cl
0.00 0.00 300.00 300.00 cl
0.00 0.00 300.00 300.00 cl
0.00 0.00 300.00 300.00 cl
ep
%%Trailer
%%Pages: 1
%%EOF
