%!PS-Adobe-3.0 EPSF-3.0
%%DocumentNeededResources: font Helvetica
%%+ font Helvetica-Bold
%%+ font Helvetica-Oblique
%%+ font Helvetica-BoldOblique
%%+ font Symbol
%%Title: R Graphics Output
%%Creator: R Software
%%Pages: (atend)
%%BoundingBox: 0 0 225 150
%%EndComments
%%BeginProlog
/bp  { gs sRGB gs } def
% begin .ps.prolog
/gs  { gsave } bind def
/gr  { grestore } bind def
/ep  { showpage gr gr } bind def
/m   { moveto } bind def
/l  { rlineto } bind def
/np  { newpath } bind def
/cp  { closepath } bind def
/f   { fill } bind def
/o   { stroke } bind def
/c   { newpath 0 360 arc } bind def
/r   { 4 2 roll moveto 1 copy 3 -1 roll exch 0 exch rlineto 0 rlineto -1 mul 0 exch rlineto closepath } bind def
/p1  { stroke } bind def
/p2  { gsave bg fill grestore newpath } bind def
/p3  { gsave bg fill grestore stroke } bind def
/p6  { gsave bg eofill grestore newpath } bind def
/p7  { gsave bg eofill grestore stroke } bind def
/t   { 5 -2 roll moveto gsave rotate
       1 index stringwidth pop
       mul neg 0 rmoveto show grestore } bind def
/ta  { 4 -2 roll moveto gsave rotate show } bind def
/tb  { 2 -1 roll 0 rmoveto show } bind def
/cl  { grestore gsave newpath 3 index 3 index moveto 1 index
       4 -1 roll lineto  exch 1 index lineto lineto
       closepath clip newpath } bind def
/rgb { setrgbcolor } bind def
/s   { scalefont setfont } bind def
% end   .ps.prolog
/sRGB { [ /CIEBasedABC
          << /DecodeLMN
               [ { dup 0.03928 le
                        {12.92321 div}
                        {0.055 add 1.055 div 2.4 exp }
                     ifelse
                 } bind dup dup
               ]
             /MatrixLMN [0.412457 0.212673 0.019334
                         0.357576 0.715152 0.119192
                         0.180437 0.072175 0.950301]
             /WhitePoint [0.9505 1.0 1.0890]
           >>
         ] setcolorspace } bind def
/srgb { setcolor } bind def
% begin encoding
/WinAnsiEncoding [
 /.notdef /.notdef /.notdef /.notdef /.notdef /.notdef /.notdef /.notdef
 /.notdef /.notdef /.notdef /.notdef /.notdef /.notdef /.notdef /.notdef
 /.notdef /.notdef /.notdef /.notdef /.notdef /.notdef /.notdef /.notdef
 /.notdef /.notdef /.notdef /.notdef /.notdef /.notdef /.notdef /.notdef
 /space /exclam /quotedbl /numbersign /dollar /percent /ampersand /quoteright
 /parenleft /parenright /asterisk /plus /comma /minus /period /slash
 /zero /one /two /three /four /five /six /seven
 /eight /nine /colon /semicolon /less /equal /greater /question
 /at /A /B /C /D /E /F /G
 /H /I /J /K /L /M /N /O
 /P /Q /R /S /T /U /V /W
 /X /Y /Z /bracketleft /backslash /bracketright /asciicircum /underscore
 /grave /a /b /c /d /e /f /g
 /h /i /j /k /l /m /n /o
 /p /q /r /s /t /u /v /w
 /x /y /z /braceleft /bar /braceright /asciitilde /.notdef
 /Euro /.notdef /quotesinglbase /florin /quotedblbase /ellipsis /dagger /daggerdbl
 /circumflex /perthousand /Scaron /guilsinglleft /OE /.notdef /Zcaron /.notdef
 /.notdef /quoteleft /quoteright /quotedblleft /quotedblright /bullet /endash /emdash
 /tilde /trademark /scaron /guilsinglright /oe /.notdef /zcaron /Ydieresis
 /space /exclamdown /cent /sterling /currency /yen /brokenbar /section
 /dieresis /copyright /ordfeminine /guillemotleft /logicalnot /hyphen /registered /macron
 /degree /plusminus /twosuperior /threesuperior /acute /mu /paragraph /periodcentered
 /cedilla /onesuperior /ordmasculine /guillemotright /onequarter /onehalf /threequarters /questiondown
 /Agrave /Aacute /Acircumflex /Atilde /Adieresis /Aring /AE /Ccedilla
 /Egrave /Eacute /Ecircumflex /Edieresis /Igrave /Iacute /Icircumflex /Idieresis
 /Eth /Ntilde /Ograve /Oacute /Ocircumflex /Otilde /Odieresis /multiply
 /Oslash /Ugrave /Uacute /Ucircumflex /Udieresis /Yacute /Thorn /germandbls
 /agrave /aacute /acircumflex /atilde /adieresis /aring /ae /ccedilla
 /egrave /eacute /ecircumflex /edieresis /igrave /iacute /icircumflex /idieresis
 /eth /ntilde /ograve /oacute /ocircumflex /otilde /odieresis /divide
 /oslash /ugrave /uacute /ucircumflex /udieresis /yacute /thorn /ydieresis
]
 def
% end encoding
%%IncludeResource: font Helvetica
/Helvetica findfont
dup length dict begin
  {1 index /FID ne {def} {pop pop} ifelse} forall
  /Encoding WinAnsiEncoding def
  currentdict
  end
/Font1 exch definefont pop
%%IncludeResource: font Helvetica-Bold
/Helvetica-Bold findfont
dup length dict begin
  {1 index /FID ne {def} {pop pop} ifelse} forall
  /Encoding WinAnsiEncoding def
  currentdict
  end
/Font2 exch definefont pop
%%IncludeResource: font Helvetica-Oblique
/Helvetica-Oblique findfont
dup length dict begin
  {1 index /FID ne {def} {pop pop} ifelse} forall
  /Encoding WinAnsiEncoding def
  currentdict
  end
/Font3 exch definefont pop
%%IncludeResource: font Helvetica-BoldOblique
/Helvetica-BoldOblique findfont
dup length dict begin
  {1 index /FID ne {def} {pop pop} ifelse} forall
  /Encoding WinAnsiEncoding def
  currentdict
  end
/Font4 exch definefont pop
%%IncludeResource: font Symbol
/Symbol findfont
dup length dict begin
  {1 index /FID ne {def} {pop pop} ifelse} forall
  currentdict
  end
/Font5 exch definefont pop
%%EndProlog
%%Page: 1 1
bp
0.00 0.00 225.00 150.00 cl
0.00 0.00 225.00 150.00 cl
0.00 0.00 225.00 150.00 cl
0.00 0.00 225.00 150.00 cl
0.00 0.00 225.00 150.00 cl
0.00 0.00 225.00 150.00 cl
0.00 0.00 225.00 150.00 cl
0.00 0.00 225.00 150.00 cl
0.00 0.00 225.00 150.00 cl
/bg { 1 1 1 srgb } def
1 1 1 srgb
1.07 setlinewidth
[] 0 setdash
1 setlinecap
1 setlinejoin
10.00 setmiterlimit
0.00 0.00 225.00 150.00 r p3
0.00 0.00 225.00 150.00 cl
0.00 0.00 225.00 150.00 cl
0.00 0.00 225.00 150.00 cl
43.02 31.35 219.52 144.52 cl
/bg { 0.9216 0.9216 0.9216 srgb } def
43.02 31.35 176.50 113.17 r p2
1 1 1 srgb
0.53 setlinewidth
[] 0 setdash
0 setlinecap
1 setlinejoin
10.00 setmiterlimit
np
43.02 32.50 m
176.50 0 l
o
np
43.02 52.36 m
176.50 0 l
o
np
43.02 72.22 m
176.50 0 l
o
np
43.02 92.08 m
176.50 0 l
o
np
43.02 111.95 m
176.50 0 l
o
np
43.02 131.81 m
176.50 0 l
o
np
71.10 31.35 m
0 113.17 l
o
np
111.21 31.35 m
0 113.17 l
o
np
151.33 31.35 m
0 113.17 l
o
np
191.44 31.35 m
0 113.17 l
o
1.07 setlinewidth
[] 0 setdash
np
43.02 42.43 m
176.50 0 l
o
np
43.02 62.29 m
176.50 0 l
o
np
43.02 82.15 m
176.50 0 l
o
np
43.02 102.02 m
176.50 0 l
o
np
43.02 121.88 m
176.50 0 l
o
np
43.02 141.74 m
176.50 0 l
o
np
51.04 31.35 m
0 113.17 l
o
np
91.15 31.35 m
0 113.17 l
o
np
131.27 31.35 m
0 113.17 l
o
np
171.38 31.35 m
0 113.17 l
o
np
211.50 31.35 m
0 113.17 l
o
0.9725 0.4627 0.4275 srgb
1.00 setmiterlimit
np
51.05 139.38 m
0.79 -3.03 l
1.63 -4.73 l
1.63 -3.89 l
1.63 -3.34 l
1.63 -3.06 l
1.63 -3.06 l
1.63 -2.50 l
1.62 -2.78 l
1.63 -2.23 l
1.63 -2.23 l
1.63 -2.22 l
1.63 -1.95 l
1.63 -1.94 l
1.63 -1.95 l
1.63 -1.67 l
1.63 -1.67 l
1.63 -1.67 l
1.63 -1.67 l
1.63 -1.67 l
1.62 -1.39 l
1.63 -1.39 l
1.63 -1.39 l
1.63 -1.39 l
1.63 -1.11 l
1.63 -1.39 l
1.63 -1.12 l
1.63 -1.39 l
1.63 -1.11 l
1.63 -1.11 l
1.63 -1.11 l
1.63 -1.12 l
1.62 -0.83 l
1.63 -1.11 l
1.63 -1.12 l
1.63 -0.83 l
1.63 -1.11 l
1.63 -0.84 l
1.63 -0.83 l
1.63 -0.84 l
1.63 -0.83 l
1.63 -1.12 l
1.63 -0.83 l
1.63 -0.56 l
1.62 -0.83 l
1.63 -0.83 l
1.63 -0.84 l
1.63 -0.83 l
1.63 -0.56 l
1.63 -0.83 l
1.63 -0.56 l
1.63 -0.84 l
1.63 -0.55 l
1.63 -0.84 l
1.63 -0.55 l
1.63 -0.84 l
1.62 -0.55 l
1.63 -0.56 l
1.63 -0.56 l
1.63 -0.55 l
1.63 -0.84 l
1.63 -0.55 l
1.63 -0.56 l
1.63 -0.56 l
1.63 -0.55 l
1.63 -0.56 l
1.63 -0.55 l
1.62 -0.56 l
1.63 -0.56 l
1.63 -0.55 l
1.63 -0.28 l
1.63 -0.56 l
1.63 -0.55 l
1.63 -0.56 l
1.63 -0.28 l
1.63 -0.56 l
1.63 -0.55 l
1.63 -0.56 l
1.63 -0.28 l
1.62 -0.55 l
1.63 -0.28 l
1.63 -0.56 l
1.63 -0.55 l
1.63 -0.28 l
1.63 -0.56 l
1.63 -0.28 l
1.63 -0.55 l
1.63 -0.28 l
1.63 -0.56 l
1.63 -0.28 l
1.63 -0.27 l
1.62 -0.56 l
1.63 -0.28 l
1.63 -0.55 l
1.63 -0.28 l
1.63 -0.28 l
1.63 -0.56 l
1.63 -0.27 l
1.63 -0.28 l
1.63 -0.56 l
o
0.00 0.00 225.00 150.00 cl
0.00 0.00 225.00 150.00 cl
0.00 0.00 225.00 150.00 cl
0.00 0.00 225.00 150.00 cl
0.00 0.00 225.00 150.00 cl
0.00 0.00 225.00 150.00 cl
/Font1 findfont 9 s
0.3020 0.3020 0.3020 srgb
38.09 39.20 (0.09) 1 0 t
38.09 59.06 (0.10) 1 0 t
38.09 78.92 (0.11) 1 0 t
38.09 98.78 (0.12) 1 0 t
38.09 118.65 (0.13) 1 0 t
38.09 138.51 (0.14) 1 0 t
0.00 0.00 225.00 150.00 cl
0.00 0.00 225.00 150.00 cl
0.2000 0.2000 0.2000 srgb
1.07 setlinewidth
[] 0 setdash
0 setlinecap
1 setlinejoin
10.00 setmiterlimit
np
40.28 42.43 m
2.74 0 l
o
np
40.28 62.29 m
2.74 0 l
o
np
40.28 82.15 m
2.74 0 l
o
np
40.28 102.02 m
2.74 0 l
o
np
40.28 121.88 m
2.74 0 l
o
np
40.28 141.74 m
2.74 0 l
o
0.00 0.00 225.00 150.00 cl
0.00 0.00 225.00 150.00 cl
0.00 0.00 225.00 150.00 cl
0.00 0.00 225.00 150.00 cl
0.00 0.00 225.00 150.00 cl
0.00 0.00 225.00 150.00 cl
0.00 0.00 225.00 150.00 cl
0.00 0.00 225.00 150.00 cl
0.2000 0.2000 0.2000 srgb
1.07 setlinewidth
[] 0 setdash
0 setlinecap
1 setlinejoin
10.00 setmiterlimit
np
51.04 28.61 m
0 2.74 l
o
np
91.15 28.61 m
0 2.74 l
o
np
131.27 28.61 m
0 2.74 l
o
np
171.38 28.61 m
0 2.74 l
o
np
211.50 28.61 m
0 2.74 l
o
0.00 0.00 225.00 150.00 cl
0.00 0.00 225.00 150.00 cl
/Font1 findfont 9 s
0.3020 0.3020 0.3020 srgb
51.04 19.95 (0.0) .5 0 t
91.15 19.95 (0.5) .5 0 t
131.27 19.95 (1.0) .5 0 t
171.38 19.95 (1.5) .5 0 t
211.50 19.95 (2.0) .5 0 t
0.00 0.00 225.00 150.00 cl
0.00 0.00 225.00 150.00 cl
0.00 0.00 225.00 150.00 cl
0.00 0.00 225.00 150.00 cl
/Font1 findfont 11 s
0 0 0 srgb
127.60 7.67 (B) 0 0 t
0.00 0.00 225.00 150.00 cl
0.00 0.00 225.00 150.00 cl
/Font5 findfont 11 s
0 0 0 srgb
13.17 77.62 (w) 0 90 t
/Font1 findfont 8 s
15.18 85.17 (1) 0 90 t
0.75 setlinewidth
[] 0 setdash
1 setlinecap
1 setlinejoin
10.00 setmiterlimit
np
16.19 90.66 m
-7.76 2.09 l
o
15.18 93.80 (2) 0 90 t
0.00 0.00 225.00 150.00 cl
0.00 0.00 225.00 150.00 cl
0.00 0.00 225.00 150.00 cl
0.00 0.00 225.00 150.00 cl
ep
%%Trailer
%%Pages: 1
%%EOF
