%!PS-Adobe-3.0 EPSF-3.0
%%DocumentNeededResources: font Helvetica
%%+ font Helvetica-Bold
%%+ font Helvetica-Oblique
%%+ font Helvetica-BoldOblique
%%+ font Symbol
%%Title: R Graphics Output
%%Creator: R Software
%%Pages: (atend)
%%BoundingBox: 0 0 300 300
%%EndComments
%%BeginProlog
/bp  { gs sRGB gs } def
% begin .ps.prolog
/gs  { gsave } bind def
/gr  { grestore } bind def
/ep  { showpage gr gr } bind def
/m   { moveto } bind def
/l  { rlineto } bind def
/np  { newpath } bind def
/cp  { closepath } bind def
/f   { fill } bind def
/o   { stroke } bind def
/c   { newpath 0 360 arc } bind def
/r   { 4 2 roll moveto 1 copy 3 -1 roll exch 0 exch rlineto 0 rlineto -1 mul 0 exch rlineto closepath } bind def
/p1  { stroke } bind def
/p2  { gsave bg fill grestore newpath } bind def
/p3  { gsave bg fill grestore stroke } bind def
/p6  { gsave bg eofill grestore newpath } bind def
/p7  { gsave bg eofill grestore stroke } bind def
/t   { 5 -2 roll moveto gsave rotate
       1 index stringwidth pop
       mul neg 0 rmoveto show grestore } bind def
/ta  { 4 -2 roll moveto gsave rotate show } bind def
/tb  { 2 -1 roll 0 rmoveto show } bind def
/cl  { grestore gsave newpath 3 index 3 index moveto 1 index
       4 -1 roll lineto  exch 1 index lineto lineto
       closepath clip newpath } bind def
/rgb { setrgbcolor } bind def
/s   { scalefont setfont } bind def
% end   .ps.prolog
/sRGB { [ /CIEBasedABC
          << /DecodeLMN
               [ { dup 0.03928 le
                        {12.92321 div}
                        {0.055 add 1.055 div 2.4 exp }
                     ifelse
                 } bind dup dup
               ]
             /MatrixLMN [0.412457 0.212673 0.019334
                         0.357576 0.715152 0.119192
                         0.180437 0.072175 0.950301]
             /WhitePoint [0.9505 1.0 1.0890]
           >>
         ] setcolorspace } bind def
/srgb { setcolor } bind def
% begin encoding
/WinAnsiEncoding [
 /.notdef /.notdef /.notdef /.notdef /.notdef /.notdef /.notdef /.notdef
 /.notdef /.notdef /.notdef /.notdef /.notdef /.notdef /.notdef /.notdef
 /.notdef /.notdef /.notdef /.notdef /.notdef /.notdef /.notdef /.notdef
 /.notdef /.notdef /.notdef /.notdef /.notdef /.notdef /.notdef /.notdef
 /space /exclam /quotedbl /numbersign /dollar /percent /ampersand /quoteright
 /parenleft /parenright /asterisk /plus /comma /minus /period /slash
 /zero /one /two /three /four /five /six /seven
 /eight /nine /colon /semicolon /less /equal /greater /question
 /at /A /B /C /D /E /F /G
 /H /I /J /K /L /M /N /O
 /P /Q /R /S /T /U /V /W
 /X /Y /Z /bracketleft /backslash /bracketright /asciicircum /underscore
 /grave /a /b /c /d /e /f /g
 /h /i /j /k /l /m /n /o
 /p /q /r /s /t /u /v /w
 /x /y /z /braceleft /bar /braceright /asciitilde /.notdef
 /Euro /.notdef /quotesinglbase /florin /quotedblbase /ellipsis /dagger /daggerdbl
 /circumflex /perthousand /Scaron /guilsinglleft /OE /.notdef /Zcaron /.notdef
 /.notdef /quoteleft /quoteright /quotedblleft /quotedblright /bullet /endash /emdash
 /tilde /trademark /scaron /guilsinglright /oe /.notdef /zcaron /Ydieresis
 /space /exclamdown /cent /sterling /currency /yen /brokenbar /section
 /dieresis /copyright /ordfeminine /guillemotleft /logicalnot /hyphen /registered /macron
 /degree /plusminus /twosuperior /threesuperior /acute /mu /paragraph /periodcentered
 /cedilla /onesuperior /ordmasculine /guillemotright /onequarter /onehalf /threequarters /questiondown
 /Agrave /Aacute /Acircumflex /Atilde /Adieresis /Aring /AE /Ccedilla
 /Egrave /Eacute /Ecircumflex /Edieresis /Igrave /Iacute /Icircumflex /Idieresis
 /Eth /Ntilde /Ograve /Oacute /Ocircumflex /Otilde /Odieresis /multiply
 /Oslash /Ugrave /Uacute /Ucircumflex /Udieresis /Yacute /Thorn /germandbls
 /agrave /aacute /acircumflex /atilde /adieresis /aring /ae /ccedilla
 /egrave /eacute /ecircumflex /edieresis /igrave /iacute /icircumflex /idieresis
 /eth /ntilde /ograve /oacute /ocircumflex /otilde /odieresis /divide
 /oslash /ugrave /uacute /ucircumflex /udieresis /yacute /thorn /ydieresis
]
 def
% end encoding
%%IncludeResource: font Helvetica
/Helvetica findfont
dup length dict begin
  {1 index /FID ne {def} {pop pop} ifelse} forall
  /Encoding WinAnsiEncoding def
  currentdict
  end
/Font1 exch definefont pop
%%IncludeResource: font Helvetica-Bold
/Helvetica-Bold findfont
dup length dict begin
  {1 index /FID ne {def} {pop pop} ifelse} forall
  /Encoding WinAnsiEncoding def
  currentdict
  end
/Font2 exch definefont pop
%%IncludeResource: font Helvetica-Oblique
/Helvetica-Oblique findfont
dup length dict begin
  {1 index /FID ne {def} {pop pop} ifelse} forall
  /Encoding WinAnsiEncoding def
  currentdict
  end
/Font3 exch definefont pop
%%IncludeResource: font Helvetica-BoldOblique
/Helvetica-BoldOblique findfont
dup length dict begin
  {1 index /FID ne {def} {pop pop} ifelse} forall
  /Encoding WinAnsiEncoding def
  currentdict
  end
/Font4 exch definefont pop
%%IncludeResource: font Symbol
/Symbol findfont
dup length dict begin
  {1 index /FID ne {def} {pop pop} ifelse} forall
  currentdict
  end
/Font5 exch definefont pop
%%EndProlog
%%Page: 1 1
bp
0.00 0.00 300.00 300.00 cl
0.00 0.00 300.00 300.00 cl
0.00 0.00 300.00 300.00 cl
0.00 0.00 300.00 300.00 cl
0.00 0.00 300.00 300.00 cl
0.00 0.00 300.00 300.00 cl
0.00 0.00 300.00 300.00 cl
0.00 0.00 300.00 300.00 cl
0.00 0.00 300.00 300.00 cl
/bg { 1 1 1 srgb } def
1 1 1 srgb
1.07 setlinewidth
[] 0 setdash
1 setlinecap
1 setlinejoin
10.00 setmiterlimit
0.00 0.00 300.00 300.00 r p3
0.00 0.00 300.00 300.00 cl
0.00 0.00 300.00 300.00 cl
0.00 0.00 300.00 300.00 cl
39.41 31.35 294.52 294.52 cl
/bg { 0.9216 0.9216 0.9216 srgb } def
39.41 31.35 255.11 263.17 r p2
1 1 1 srgb
0.53 setlinewidth
[] 0 setdash
0 setlinecap
1 setlinejoin
10.00 setmiterlimit
np
39.41 59.50 m
255.11 0 l
o
np
39.41 123.23 m
255.11 0 l
o
np
39.41 186.96 m
255.11 0 l
o
np
39.41 250.69 m
255.11 0 l
o
np
79.98 31.35 m
0 263.17 l
o
np
137.97 31.35 m
0 263.17 l
o
np
195.95 31.35 m
0 263.17 l
o
np
253.93 31.35 m
0 263.17 l
o
1.07 setlinewidth
[] 0 setdash
np
39.41 91.37 m
255.11 0 l
o
np
39.41 155.10 m
255.11 0 l
o
np
39.41 218.83 m
255.11 0 l
o
np
39.41 282.56 m
255.11 0 l
o
np
50.99 31.35 m
0 263.17 l
o
np
108.98 31.35 m
0 263.17 l
o
np
166.96 31.35 m
0 263.17 l
o
np
224.94 31.35 m
0 263.17 l
o
np
282.92 31.35 m
0 263.17 l
o
0 0 1 srgb
1.00 setmiterlimit
np
51.00 282.56 m
1.15 -6.09 l
2.36 -9.88 l
2.35 -8.62 l
2.36 -7.83 l
2.35 -7.24 l
2.36 -6.76 l
2.35 -6.36 l
2.36 -6.01 l
2.35 -5.70 l
2.36 -5.43 l
2.35 -5.18 l
2.36 -4.95 l
2.35 -4.75 l
2.35 -4.55 l
2.36 -4.38 l
2.35 -4.21 l
2.36 -4.06 l
2.35 -3.91 l
2.36 -3.78 l
2.35 -3.65 l
2.36 -3.54 l
2.35 -3.42 l
2.36 -3.31 l
2.35 -3.21 l
2.36 -3.11 l
2.35 -3.02 l
2.36 -2.94 l
2.35 -2.85 l
2.36 -2.77 l
2.35 -2.69 l
2.36 -2.62 l
2.35 -2.55 l
2.36 -2.49 l
2.35 -2.42 l
2.36 -2.36 l
2.35 -2.30 l
2.36 -2.25 l
2.35 -2.19 l
2.36 -2.13 l
2.35 -2.09 l
2.35 -2.04 l
2.36 -1.99 l
2.35 -1.94 l
2.36 -1.90 l
2.35 -1.86 l
2.36 -1.82 l
2.35 -1.78 l
2.36 -1.74 l
2.35 -1.70 l
2.36 -1.67 l
2.35 -1.63 l
2.36 -1.60 l
2.35 -1.56 l
2.36 -1.54 l
2.35 -1.50 l
2.36 -1.48 l
2.35 -1.44 l
2.36 -1.42 l
2.35 -1.39 l
2.36 -1.36 l
2.35 -1.34 l
2.36 -1.31 l
2.35 -1.29 l
2.36 -1.26 l
2.35 -1.24 l
2.36 -1.22 l
2.35 -1.20 l
2.36 -1.17 l
2.35 -1.16 l
2.35 -1.13 l
2.36 -1.12 l
2.35 -1.09 l
2.36 -1.08 l
2.35 -1.06 l
2.36 -1.04 l
2.35 -1.02 l
2.36 -1.01 l
2.35 -0.99 l
2.36 -0.97 l
2.35 -0.96 l
2.36 -0.94 l
2.35 -0.93 l
2.36 -0.91 l
2.35 -0.90 l
2.36 -0.89 l
2.35 -0.87 l
2.36 -0.85 l
2.35 -0.85 l
2.36 -0.83 l
2.35 -0.82 l
2.36 -0.80 l
2.35 -0.80 l
2.36 -0.78 l
2.35 -0.77 l
2.36 -0.76 l
2.35 -0.75 l
2.36 -0.74 l
2.35 -0.72 l
2.35 -0.72 l
o
0.00 0.00 300.00 300.00 cl
0.00 0.00 300.00 300.00 cl
0.00 0.00 300.00 300.00 cl
0.00 0.00 300.00 300.00 cl
0.00 0.00 300.00 300.00 cl
0.00 0.00 300.00 300.00 cl
/Font1 findfont 9 s
0.3020 0.3020 0.3020 srgb
34.48 88.14 (0.4) 1 0 t
34.48 151.87 (0.6) 1 0 t
34.48 215.60 (0.8) 1 0 t
34.48 279.33 (1.0) 1 0 t
0.00 0.00 300.00 300.00 cl
0.00 0.00 300.00 300.00 cl
0.2000 0.2000 0.2000 srgb
1.07 setlinewidth
[] 0 setdash
0 setlinecap
1 setlinejoin
10.00 setmiterlimit
np
36.67 91.37 m
2.74 0 l
o
np
36.67 155.10 m
2.74 0 l
o
np
36.67 218.83 m
2.74 0 l
o
np
36.67 282.56 m
2.74 0 l
o
0.00 0.00 300.00 300.00 cl
0.00 0.00 300.00 300.00 cl
0.00 0.00 300.00 300.00 cl
0.00 0.00 300.00 300.00 cl
0.00 0.00 300.00 300.00 cl
0.00 0.00 300.00 300.00 cl
0.00 0.00 300.00 300.00 cl
0.00 0.00 300.00 300.00 cl
0.2000 0.2000 0.2000 srgb
1.07 setlinewidth
[] 0 setdash
0 setlinecap
1 setlinejoin
10.00 setmiterlimit
np
50.99 28.61 m
0 2.74 l
o
np
108.98 28.61 m
0 2.74 l
o
np
166.96 28.61 m
0 2.74 l
o
np
224.94 28.61 m
0 2.74 l
o
np
282.92 28.61 m
0 2.74 l
o
0.00 0.00 300.00 300.00 cl
0.00 0.00 300.00 300.00 cl
/Font1 findfont 9 s
0.3020 0.3020 0.3020 srgb
50.99 19.95 (0.0) .5 0 t
108.98 19.95 (0.5) .5 0 t
166.96 19.95 (1.0) .5 0 t
224.94 19.95 (1.5) .5 0 t
282.92 19.95 (2.0) .5 0 t
0.00 0.00 300.00 300.00 cl
0.00 0.00 300.00 300.00 cl
0.00 0.00 300.00 300.00 cl
0.00 0.00 300.00 300.00 cl
/Font1 findfont 11 s
0 0 0 srgb
163.30 7.67 (B) 0 0 t
0.00 0.00 300.00 300.00 cl
0.00 0.00 300.00 300.00 cl
/Font1 findfont 11 s
0 0 0 srgb
15.57 155.93 (V) 0 90 t
/Font1 findfont 8 s
17.58 163.27 (m) 0 90 t
0.00 0.00 300.00 300.00 cl
0.00 0.00 300.00 300.00 cl
0.00 0.00 300.00 300.00 cl
0.00 0.00 300.00 300.00 cl
ep
%%Trailer
%%Pages: 1
%%EOF
