%!PS-Adobe-3.0 EPSF-3.0
%%DocumentNeededResources: font Helvetica
%%+ font Helvetica-Bold
%%+ font Helvetica-Oblique
%%+ font Helvetica-BoldOblique
%%+ font Symbol
%%Title: R Graphics Output
%%Creator: R Software
%%Pages: (atend)
%%BoundingBox: 0 0 225 225
%%EndComments
%%BeginProlog
/bp  { gs sRGB gs } def
% begin .ps.prolog
/gs  { gsave } bind def
/gr  { grestore } bind def
/ep  { showpage gr gr } bind def
/m   { moveto } bind def
/l  { rlineto } bind def
/np  { newpath } bind def
/cp  { closepath } bind def
/f   { fill } bind def
/o   { stroke } bind def
/c   { newpath 0 360 arc } bind def
/r   { 4 2 roll moveto 1 copy 3 -1 roll exch 0 exch rlineto 0 rlineto -1 mul 0 exch rlineto closepath } bind def
/p1  { stroke } bind def
/p2  { gsave bg fill grestore newpath } bind def
/p3  { gsave bg fill grestore stroke } bind def
/p6  { gsave bg eofill grestore newpath } bind def
/p7  { gsave bg eofill grestore stroke } bind def
/t   { 5 -2 roll moveto gsave rotate
       1 index stringwidth pop
       mul neg 0 rmoveto show grestore } bind def
/ta  { 4 -2 roll moveto gsave rotate show } bind def
/tb  { 2 -1 roll 0 rmoveto show } bind def
/cl  { grestore gsave newpath 3 index 3 index moveto 1 index
       4 -1 roll lineto  exch 1 index lineto lineto
       closepath clip newpath } bind def
/rgb { setrgbcolor } bind def
/s   { scalefont setfont } bind def
% end   .ps.prolog
/sRGB { [ /CIEBasedABC
          << /DecodeLMN
               [ { dup 0.03928 le
                        {12.92321 div}
                        {0.055 add 1.055 div 2.4 exp }
                     ifelse
                 } bind dup dup
               ]
             /MatrixLMN [0.412457 0.212673 0.019334
                         0.357576 0.715152 0.119192
                         0.180437 0.072175 0.950301]
             /WhitePoint [0.9505 1.0 1.0890]
           >>
         ] setcolorspace } bind def
/srgb { setcolor } bind def
% begin encoding
/WinAnsiEncoding [
 /.notdef /.notdef /.notdef /.notdef /.notdef /.notdef /.notdef /.notdef
 /.notdef /.notdef /.notdef /.notdef /.notdef /.notdef /.notdef /.notdef
 /.notdef /.notdef /.notdef /.notdef /.notdef /.notdef /.notdef /.notdef
 /.notdef /.notdef /.notdef /.notdef /.notdef /.notdef /.notdef /.notdef
 /space /exclam /quotedbl /numbersign /dollar /percent /ampersand /quoteright
 /parenleft /parenright /asterisk /plus /comma /minus /period /slash
 /zero /one /two /three /four /five /six /seven
 /eight /nine /colon /semicolon /less /equal /greater /question
 /at /A /B /C /D /E /F /G
 /H /I /J /K /L /M /N /O
 /P /Q /R /S /T /U /V /W
 /X /Y /Z /bracketleft /backslash /bracketright /asciicircum /underscore
 /grave /a /b /c /d /e /f /g
 /h /i /j /k /l /m /n /o
 /p /q /r /s /t /u /v /w
 /x /y /z /braceleft /bar /braceright /asciitilde /.notdef
 /Euro /.notdef /quotesinglbase /florin /quotedblbase /ellipsis /dagger /daggerdbl
 /circumflex /perthousand /Scaron /guilsinglleft /OE /.notdef /Zcaron /.notdef
 /.notdef /quoteleft /quoteright /quotedblleft /quotedblright /bullet /endash /emdash
 /tilde /trademark /scaron /guilsinglright /oe /.notdef /zcaron /Ydieresis
 /space /exclamdown /cent /sterling /currency /yen /brokenbar /section
 /dieresis /copyright /ordfeminine /guillemotleft /logicalnot /hyphen /registered /macron
 /degree /plusminus /twosuperior /threesuperior /acute /mu /paragraph /periodcentered
 /cedilla /onesuperior /ordmasculine /guillemotright /onequarter /onehalf /threequarters /questiondown
 /Agrave /Aacute /Acircumflex /Atilde /Adieresis /Aring /AE /Ccedilla
 /Egrave /Eacute /Ecircumflex /Edieresis /Igrave /Iacute /Icircumflex /Idieresis
 /Eth /Ntilde /Ograve /Oacute /Ocircumflex /Otilde /Odieresis /multiply
 /Oslash /Ugrave /Uacute /Ucircumflex /Udieresis /Yacute /Thorn /germandbls
 /agrave /aacute /acircumflex /atilde /adieresis /aring /ae /ccedilla
 /egrave /eacute /ecircumflex /edieresis /igrave /iacute /icircumflex /idieresis
 /eth /ntilde /ograve /oacute /ocircumflex /otilde /odieresis /divide
 /oslash /ugrave /uacute /ucircumflex /udieresis /yacute /thorn /ydieresis
]
 def
% end encoding
%%IncludeResource: font Helvetica
/Helvetica findfont
dup length dict begin
  {1 index /FID ne {def} {pop pop} ifelse} forall
  /Encoding WinAnsiEncoding def
  currentdict
  end
/Font1 exch definefont pop
%%IncludeResource: font Helvetica-Bold
/Helvetica-Bold findfont
dup length dict begin
  {1 index /FID ne {def} {pop pop} ifelse} forall
  /Encoding WinAnsiEncoding def
  currentdict
  end
/Font2 exch definefont pop
%%IncludeResource: font Helvetica-Oblique
/Helvetica-Oblique findfont
dup length dict begin
  {1 index /FID ne {def} {pop pop} ifelse} forall
  /Encoding WinAnsiEncoding def
  currentdict
  end
/Font3 exch definefont pop
%%IncludeResource: font Helvetica-BoldOblique
/Helvetica-BoldOblique findfont
dup length dict begin
  {1 index /FID ne {def} {pop pop} ifelse} forall
  /Encoding WinAnsiEncoding def
  currentdict
  end
/Font4 exch definefont pop
%%IncludeResource: font Symbol
/Symbol findfont
dup length dict begin
  {1 index /FID ne {def} {pop pop} ifelse} forall
  currentdict
  end
/Font5 exch definefont pop
%%EndProlog
%%Page: 1 1
bp
0.00 0.00 225.00 225.00 cl
0.00 0.00 225.00 225.00 cl
0.00 0.00 225.00 225.00 cl
0.00 0.00 225.00 225.00 cl
0.00 0.00 225.00 225.00 cl
0.00 0.00 225.00 225.00 cl
0.00 0.00 225.00 225.00 cl
0.00 0.00 225.00 225.00 cl
0.00 0.00 225.00 225.00 cl
/bg { 1 1 1 srgb } def
1 1 1 srgb
1.07 setlinewidth
[] 0 setdash
1 setlinecap
1 setlinejoin
10.00 setmiterlimit
0.00 0.00 225.00 225.00 r p3
0.00 0.00 225.00 225.00 cl
0.00 0.00 225.00 225.00 cl
0.00 0.00 225.00 225.00 cl
39.41 31.35 219.52 219.52 cl
/bg { 0.9216 0.9216 0.9216 srgb } def
39.41 31.35 180.11 188.17 r p2
1 1 1 srgb
0.53 setlinewidth
[] 0 setdash
0 setlinecap
1 setlinejoin
10.00 setmiterlimit
np
39.41 51.48 m
180.11 0 l
o
np
39.41 97.05 m
180.11 0 l
o
np
39.41 142.62 m
180.11 0 l
o
np
39.41 188.18 m
180.11 0 l
o
np
68.05 31.35 m
0 188.17 l
o
np
108.99 31.35 m
0 188.17 l
o
np
149.93 31.35 m
0 188.17 l
o
np
190.87 31.35 m
0 188.17 l
o
1.07 setlinewidth
[] 0 setdash
np
39.41 74.26 m
180.11 0 l
o
np
39.41 119.83 m
180.11 0 l
o
np
39.41 165.40 m
180.11 0 l
o
np
39.41 210.97 m
180.11 0 l
o
np
47.59 31.35 m
0 188.17 l
o
np
88.52 31.35 m
0 188.17 l
o
np
129.46 31.35 m
0 188.17 l
o
np
170.40 31.35 m
0 188.17 l
o
np
211.33 31.35 m
0 188.17 l
o
0 0 1 srgb
1.00 setmiterlimit
np
47.59 210.97 m
0.82 -4.35 l
1.66 -7.07 l
1.66 -6.16 l
1.66 -5.60 l
1.67 -5.18 l
1.66 -4.83 l
1.66 -4.55 l
1.66 -4.30 l
1.67 -4.07 l
1.66 -3.89 l
1.66 -3.70 l
1.66 -3.54 l
1.67 -3.39 l
1.66 -3.26 l
1.66 -3.13 l
1.66 -3.01 l
1.67 -2.90 l
1.66 -2.80 l
1.66 -2.70 l
1.66 -2.61 l
1.67 -2.53 l
1.66 -2.45 l
1.66 -2.36 l
1.66 -2.30 l
1.67 -2.22 l
1.66 -2.16 l
1.66 -2.10 l
1.66 -2.04 l
1.67 -1.98 l
1.66 -1.93 l
1.66 -1.87 l
1.66 -1.83 l
1.67 -1.77 l
1.66 -1.74 l
1.66 -1.68 l
1.66 -1.65 l
1.67 -1.60 l
1.66 -1.57 l
1.66 -1.53 l
1.66 -1.49 l
1.67 -1.45 l
1.66 -1.43 l
1.66 -1.39 l
1.66 -1.36 l
1.67 -1.33 l
1.66 -1.30 l
1.66 -1.27 l
1.66 -1.24 l
1.67 -1.22 l
1.66 -1.19 l
1.66 -1.17 l
1.66 -1.14 l
1.67 -1.12 l
1.66 -1.10 l
1.66 -1.07 l
1.66 -1.06 l
1.67 -1.03 l
1.66 -1.01 l
1.66 -1.00 l
1.66 -0.97 l
1.67 -0.96 l
1.66 -0.94 l
1.66 -0.92 l
1.66 -0.90 l
1.67 -0.89 l
1.66 -0.87 l
1.66 -0.86 l
1.67 -0.84 l
1.66 -0.82 l
1.66 -0.81 l
1.66 -0.80 l
1.67 -0.78 l
1.66 -0.77 l
1.66 -0.76 l
1.66 -0.74 l
1.67 -0.74 l
1.66 -0.72 l
1.66 -0.70 l
1.66 -0.70 l
1.67 -0.68 l
1.66 -0.68 l
1.66 -0.66 l
1.66 -0.65 l
1.67 -0.65 l
1.66 -0.63 l
1.66 -0.62 l
1.66 -0.61 l
1.67 -0.61 l
1.66 -0.59 l
1.66 -0.59 l
1.66 -0.57 l
1.67 -0.57 l
1.66 -0.56 l
1.66 -0.55 l
1.66 -0.55 l
1.67 -0.53 l
1.66 -0.53 l
1.66 -0.52 l
1.66 -0.51 l
o
0.00 0.00 225.00 225.00 cl
0.00 0.00 225.00 225.00 cl
0.00 0.00 225.00 225.00 cl
0.00 0.00 225.00 225.00 cl
0.00 0.00 225.00 225.00 cl
0.00 0.00 225.00 225.00 cl
/Font1 findfont 9 s
0.3020 0.3020 0.3020 srgb
34.48 71.03 (0.4) 1 0 t
34.48 116.60 (0.6) 1 0 t
34.48 162.17 (0.8) 1 0 t
34.48 207.74 (1.0) 1 0 t
0.00 0.00 225.00 225.00 cl
0.00 0.00 225.00 225.00 cl
0.2000 0.2000 0.2000 srgb
1.07 setlinewidth
[] 0 setdash
0 setlinecap
1 setlinejoin
10.00 setmiterlimit
np
36.67 74.26 m
2.74 0 l
o
np
36.67 119.83 m
2.74 0 l
o
np
36.67 165.40 m
2.74 0 l
o
np
36.67 210.97 m
2.74 0 l
o
0.00 0.00 225.00 225.00 cl
0.00 0.00 225.00 225.00 cl
0.00 0.00 225.00 225.00 cl
0.00 0.00 225.00 225.00 cl
0.00 0.00 225.00 225.00 cl
0.00 0.00 225.00 225.00 cl
0.00 0.00 225.00 225.00 cl
0.00 0.00 225.00 225.00 cl
0.2000 0.2000 0.2000 srgb
1.07 setlinewidth
[] 0 setdash
0 setlinecap
1 setlinejoin
10.00 setmiterlimit
np
47.59 28.61 m
0 2.74 l
o
np
88.52 28.61 m
0 2.74 l
o
np
129.46 28.61 m
0 2.74 l
o
np
170.40 28.61 m
0 2.74 l
o
np
211.33 28.61 m
0 2.74 l
o
0.00 0.00 225.00 225.00 cl
0.00 0.00 225.00 225.00 cl
/Font1 findfont 9 s
0.3020 0.3020 0.3020 srgb
47.59 19.95 (0.0) .5 0 t
88.52 19.95 (0.5) .5 0 t
129.46 19.95 (1.0) .5 0 t
170.40 19.95 (1.5) .5 0 t
211.33 19.95 (2.0) .5 0 t
0.00 0.00 225.00 225.00 cl
0.00 0.00 225.00 225.00 cl
0.00 0.00 225.00 225.00 cl
0.00 0.00 225.00 225.00 cl
/Font1 findfont 11 s
0 0 0 srgb
125.80 7.67 (B) 0 0 t
0.00 0.00 225.00 225.00 cl
0.00 0.00 225.00 225.00 cl
/Font1 findfont 11 s
0 0 0 srgb
15.57 118.43 (V) 0 90 t
/Font1 findfont 8 s
17.58 125.77 (m) 0 90 t
0.00 0.00 225.00 225.00 cl
0.00 0.00 225.00 225.00 cl
0.00 0.00 225.00 225.00 cl
0.00 0.00 225.00 225.00 cl
ep
%%Trailer
%%Pages: 1
%%EOF
