%!PS-Adobe-3.0 EPSF-3.0
%%DocumentNeededResources: font Helvetica
%%+ font Helvetica-Bold
%%+ font Helvetica-Oblique
%%+ font Helvetica-BoldOblique
%%+ font Symbol
%%Title: R Graphics Output
%%Creator: R Software
%%Pages: (atend)
%%BoundingBox: 0 0 334 250
%%EndComments
%%BeginProlog
/bp  { gs sRGB gs } def
% begin .ps.prolog
/gs  { gsave } bind def
/gr  { grestore } bind def
/ep  { showpage gr gr } bind def
/m   { moveto } bind def
/l  { rlineto } bind def
/np  { newpath } bind def
/cp  { closepath } bind def
/f   { fill } bind def
/o   { stroke } bind def
/c   { newpath 0 360 arc } bind def
/r   { 4 2 roll moveto 1 copy 3 -1 roll exch 0 exch rlineto 0 rlineto -1 mul 0 exch rlineto closepath } bind def
/p1  { stroke } bind def
/p2  { gsave bg fill grestore newpath } bind def
/p3  { gsave bg fill grestore stroke } bind def
/p6  { gsave bg eofill grestore newpath } bind def
/p7  { gsave bg eofill grestore stroke } bind def
/t   { 5 -2 roll moveto gsave rotate
       1 index stringwidth pop
       mul neg 0 rmoveto show grestore } bind def
/ta  { 4 -2 roll moveto gsave rotate show } bind def
/tb  { 2 -1 roll 0 rmoveto show } bind def
/cl  { grestore gsave newpath 3 index 3 index moveto 1 index
       4 -1 roll lineto  exch 1 index lineto lineto
       closepath clip newpath } bind def
/rgb { setrgbcolor } bind def
/s   { scalefont setfont } bind def
% end   .ps.prolog
/sRGB { [ /CIEBasedABC
          << /DecodeLMN
               [ { dup 0.03928 le
                        {12.92321 div}
                        {0.055 add 1.055 div 2.4 exp }
                     ifelse
                 } bind dup dup
               ]
             /MatrixLMN [0.412457 0.212673 0.019334
                         0.357576 0.715152 0.119192
                         0.180437 0.072175 0.950301]
             /WhitePoint [0.9505 1.0 1.0890]
           >>
         ] setcolorspace } bind def
/srgb { setcolor } bind def
% begin encoding
/WinAnsiEncoding [
 /.notdef /.notdef /.notdef /.notdef /.notdef /.notdef /.notdef /.notdef
 /.notdef /.notdef /.notdef /.notdef /.notdef /.notdef /.notdef /.notdef
 /.notdef /.notdef /.notdef /.notdef /.notdef /.notdef /.notdef /.notdef
 /.notdef /.notdef /.notdef /.notdef /.notdef /.notdef /.notdef /.notdef
 /space /exclam /quotedbl /numbersign /dollar /percent /ampersand /quoteright
 /parenleft /parenright /asterisk /plus /comma /minus /period /slash
 /zero /one /two /three /four /five /six /seven
 /eight /nine /colon /semicolon /less /equal /greater /question
 /at /A /B /C /D /E /F /G
 /H /I /J /K /L /M /N /O
 /P /Q /R /S /T /U /V /W
 /X /Y /Z /bracketleft /backslash /bracketright /asciicircum /underscore
 /grave /a /b /c /d /e /f /g
 /h /i /j /k /l /m /n /o
 /p /q /r /s /t /u /v /w
 /x /y /z /braceleft /bar /braceright /asciitilde /.notdef
 /Euro /.notdef /quotesinglbase /florin /quotedblbase /ellipsis /dagger /daggerdbl
 /circumflex /perthousand /Scaron /guilsinglleft /OE /.notdef /Zcaron /.notdef
 /.notdef /quoteleft /quoteright /quotedblleft /quotedblright /bullet /endash /emdash
 /tilde /trademark /scaron /guilsinglright /oe /.notdef /zcaron /Ydieresis
 /space /exclamdown /cent /sterling /currency /yen /brokenbar /section
 /dieresis /copyright /ordfeminine /guillemotleft /logicalnot /hyphen /registered /macron
 /degree /plusminus /twosuperior /threesuperior /acute /mu /paragraph /periodcentered
 /cedilla /onesuperior /ordmasculine /guillemotright /onequarter /onehalf /threequarters /questiondown
 /Agrave /Aacute /Acircumflex /Atilde /Adieresis /Aring /AE /Ccedilla
 /Egrave /Eacute /Ecircumflex /Edieresis /Igrave /Iacute /Icircumflex /Idieresis
 /Eth /Ntilde /Ograve /Oacute /Ocircumflex /Otilde /Odieresis /multiply
 /Oslash /Ugrave /Uacute /Ucircumflex /Udieresis /Yacute /Thorn /germandbls
 /agrave /aacute /acircumflex /atilde /adieresis /aring /ae /ccedilla
 /egrave /eacute /ecircumflex /edieresis /igrave /iacute /icircumflex /idieresis
 /eth /ntilde /ograve /oacute /ocircumflex /otilde /odieresis /divide
 /oslash /ugrave /uacute /ucircumflex /udieresis /yacute /thorn /ydieresis
]
 def
% end encoding
%%IncludeResource: font Helvetica
/Helvetica findfont
dup length dict begin
  {1 index /FID ne {def} {pop pop} ifelse} forall
  /Encoding WinAnsiEncoding def
  currentdict
  end
/Font1 exch definefont pop
%%IncludeResource: font Helvetica-Bold
/Helvetica-Bold findfont
dup length dict begin
  {1 index /FID ne {def} {pop pop} ifelse} forall
  /Encoding WinAnsiEncoding def
  currentdict
  end
/Font2 exch definefont pop
%%IncludeResource: font Helvetica-Oblique
/Helvetica-Oblique findfont
dup length dict begin
  {1 index /FID ne {def} {pop pop} ifelse} forall
  /Encoding WinAnsiEncoding def
  currentdict
  end
/Font3 exch definefont pop
%%IncludeResource: font Helvetica-BoldOblique
/Helvetica-BoldOblique findfont
dup length dict begin
  {1 index /FID ne {def} {pop pop} ifelse} forall
  /Encoding WinAnsiEncoding def
  currentdict
  end
/Font4 exch definefont pop
%%IncludeResource: font Symbol
/Symbol findfont
dup length dict begin
  {1 index /FID ne {def} {pop pop} ifelse} forall
  currentdict
  end
/Font5 exch definefont pop
%%EndProlog
%%Page: 1 1
bp
0.00 0.00 333.75 249.75 cl
0.00 0.00 333.75 249.75 cl
0.00 0.00 333.75 249.75 cl
0.00 0.00 333.75 249.75 cl
0.00 0.00 333.75 249.75 cl
0.00 0.00 333.75 249.75 cl
0.00 0.00 333.75 249.75 cl
0.00 0.00 333.75 249.75 cl
0.00 0.00 333.75 249.75 cl
/bg { 1 1 1 srgb } def
1 1 1 srgb
1.07 setlinewidth
[] 0 setdash
1 setlinecap
1 setlinejoin
10.00 setmiterlimit
0.00 0.00 333.75 249.75 r p3
0.00 0.00 333.75 249.75 cl
0.00 0.00 333.75 249.75 cl
0.00 0.00 333.75 249.75 cl
40.80 31.35 328.27 244.27 cl
/bg { 0.9216 0.9216 0.9216 srgb } def
40.80 31.35 287.47 212.92 r p2
1 1 1 srgb
0.53 setlinewidth
[] 0 setdash
0 setlinecap
1 setlinejoin
10.00 setmiterlimit
np
40.80 54.13 m
287.47 0 l
o
np
40.80 105.69 m
287.47 0 l
o
np
40.80 157.25 m
287.47 0 l
o
np
40.80 208.81 m
287.47 0 l
o
np
86.52 31.35 m
0 212.92 l
o
np
151.86 31.35 m
0 212.92 l
o
np
217.20 31.35 m
0 212.92 l
o
np
282.53 31.35 m
0 212.92 l
o
1.07 setlinewidth
[] 0 setdash
np
40.80 79.91 m
287.47 0 l
o
np
40.80 131.47 m
287.47 0 l
o
np
40.80 183.03 m
287.47 0 l
o
np
40.80 234.59 m
287.47 0 l
o
np
53.85 31.35 m
0 212.92 l
o
np
119.19 31.35 m
0 212.92 l
o
np
184.53 31.35 m
0 212.92 l
o
np
249.87 31.35 m
0 212.92 l
o
np
315.20 31.35 m
0 212.92 l
o
0 0 1 srgb
1.00 setmiterlimit
np
53.86 234.59 m
1.30 -4.92 l
2.65 -8.00 l
2.65 -6.97 l
2.66 -6.33 l
2.65 -5.86 l
2.65 -5.47 l
2.66 -5.15 l
2.65 -4.86 l
2.66 -4.61 l
2.65 -4.40 l
2.65 -4.19 l
2.66 -4.00 l
2.65 -3.84 l
2.65 -3.69 l
2.66 -3.54 l
2.65 -3.41 l
2.65 -3.28 l
2.66 -3.17 l
2.65 -3.05 l
2.65 -2.96 l
2.66 -2.86 l
2.65 -2.76 l
2.66 -2.68 l
2.65 -2.60 l
2.65 -2.52 l
2.66 -2.44 l
2.65 -2.38 l
2.65 -2.30 l
2.66 -2.24 l
2.65 -2.18 l
2.65 -2.13 l
2.66 -2.06 l
2.65 -2.01 l
2.65 -1.96 l
2.66 -1.91 l
2.65 -1.86 l
2.65 -1.82 l
2.66 -1.77 l
2.65 -1.73 l
2.66 -1.68 l
2.65 -1.65 l
2.65 -1.61 l
2.66 -1.58 l
2.65 -1.53 l
2.65 -1.51 l
2.66 -1.47 l
2.65 -1.44 l
2.65 -1.41 l
2.66 -1.37 l
2.65 -1.35 l
2.65 -1.32 l
2.66 -1.30 l
2.65 -1.26 l
2.65 -1.24 l
2.66 -1.22 l
2.65 -1.19 l
2.66 -1.17 l
2.65 -1.15 l
2.65 -1.12 l
2.66 -1.11 l
2.65 -1.08 l
2.65 -1.06 l
2.66 -1.04 l
2.65 -1.02 l
2.65 -1.01 l
2.66 -0.98 l
2.65 -0.97 l
2.65 -0.95 l
2.66 -0.94 l
2.65 -0.92 l
2.65 -0.90 l
2.66 -0.88 l
2.65 -0.88 l
2.66 -0.85 l
2.65 -0.84 l
2.65 -0.83 l
2.66 -0.82 l
2.65 -0.80 l
2.65 -0.78 l
2.66 -0.78 l
2.65 -0.76 l
2.65 -0.75 l
2.66 -0.74 l
2.65 -0.73 l
2.65 -0.71 l
2.66 -0.71 l
2.65 -0.69 l
2.65 -0.68 l
2.66 -0.68 l
2.65 -0.66 l
2.66 -0.65 l
2.65 -0.64 l
2.65 -0.64 l
2.66 -0.62 l
2.65 -0.61 l
2.65 -0.61 l
2.66 -0.60 l
2.65 -0.59 l
2.65 -0.58 l
o
0.00 0.00 333.75 249.75 cl
0.00 0.00 333.75 249.75 cl
0.00 0.00 333.75 249.75 cl
0.00 0.00 333.75 249.75 cl
0.00 0.00 333.75 249.75 cl
0.00 0.00 333.75 249.75 cl
/Font1 findfont 9 s
0.3020 0.3020 0.3020 srgb
35.87 76.68 (0.4) 1 0 t
35.87 128.24 (0.6) 1 0 t
35.87 179.80 (0.8) 1 0 t
35.87 231.36 (1.0) 1 0 t
0.00 0.00 333.75 249.75 cl
0.00 0.00 333.75 249.75 cl
0.2000 0.2000 0.2000 srgb
1.07 setlinewidth
[] 0 setdash
0 setlinecap
1 setlinejoin
10.00 setmiterlimit
np
38.06 79.91 m
2.74 0 l
o
np
38.06 131.47 m
2.74 0 l
o
np
38.06 183.03 m
2.74 0 l
o
np
38.06 234.59 m
2.74 0 l
o
0.00 0.00 333.75 249.75 cl
0.00 0.00 333.75 249.75 cl
0.00 0.00 333.75 249.75 cl
0.00 0.00 333.75 249.75 cl
0.00 0.00 333.75 249.75 cl
0.00 0.00 333.75 249.75 cl
0.00 0.00 333.75 249.75 cl
0.00 0.00 333.75 249.75 cl
0.2000 0.2000 0.2000 srgb
1.07 setlinewidth
[] 0 setdash
0 setlinecap
1 setlinejoin
10.00 setmiterlimit
np
53.85 28.61 m
0 2.74 l
o
np
119.19 28.61 m
0 2.74 l
o
np
184.53 28.61 m
0 2.74 l
o
np
249.87 28.61 m
0 2.74 l
o
np
315.20 28.61 m
0 2.74 l
o
0.00 0.00 333.75 249.75 cl
0.00 0.00 333.75 249.75 cl
/Font1 findfont 9 s
0.3020 0.3020 0.3020 srgb
53.85 19.95 (0.0) .5 0 t
119.19 19.95 (0.5) .5 0 t
184.53 19.95 (1.0) .5 0 t
249.87 19.95 (1.5) .5 0 t
315.20 19.95 (2.0) .5 0 t
0.00 0.00 333.75 249.75 cl
0.00 0.00 333.75 249.75 cl
0.00 0.00 333.75 249.75 cl
0.00 0.00 333.75 249.75 cl
/Font1 findfont 11 s
0 0 0 srgb
180.87 7.67 (B) 0 0 t
0.00 0.00 333.75 249.75 cl
0.00 0.00 333.75 249.75 cl
/Font1 findfont 11 s
0 0 0 srgb
16.96 124.26 (V) 0 90 t
0.75 setlinewidth
[] 0 setdash
1 setlinecap
1 setlinejoin
10.00 setmiterlimit
np
18.35 133.04 m
-10.68 2.87 l
o
16.96 137.35 (V) 0 90 t
/Font1 findfont 8 s
18.97 144.69 (m) 0 90 t
0.00 0.00 333.75 249.75 cl
0.00 0.00 333.75 249.75 cl
0.00 0.00 333.75 249.75 cl
0.00 0.00 333.75 249.75 cl
ep
%%Trailer
%%Pages: 1
%%EOF
