%!PS-Adobe-3.0 EPSF-3.0
%%Title: ODR_OLS_SS93_res.eps
%%Creator: matplotlib version 1.5.1, http://matplotlib.org/
%%CreationDate: Wed Sep 21 17:31:47 2016
%%Orientation: portrait
%%BoundingBox: 90 216 522 576
%%EndComments
%%BeginProlog
/mpldict 8 dict def
mpldict begin
/m { moveto } bind def
/l { lineto } bind def
/r { rlineto } bind def
/c { curveto } bind def
/cl { closepath } bind def
/box {
m
1 index 0 r
0 exch r
neg 0 r
cl
} bind def
/clipbox {
box
clip
newpath
} bind def
%!PS-Adobe-3.0 Resource-Font
%%Title: Bitstream Vera Sans
%%Copyright: Copyright (c) 2003 by Bitstream, Inc. All Rights Reserved.
%%Creator: Converted from TrueType to type 3 by PPR
25 dict begin
/_d{bind def}bind def
/_m{moveto}_d
/_l{lineto}_d
/_cl{closepath eofill}_d
/_c{curveto}_d
/_sc{7 -1 roll{setcachedevice}{pop pop pop pop pop pop}ifelse}_d
/_e{exec}_d
/FontName /BitstreamVeraSans-Roman def
/PaintType 0 def
/FontMatrix[.001 0 0 .001 0 0]def
/FontBBox[-183 -236 1287 928]def
/FontType 3 def
/Encoding [ /space /parenleft /parenright /period /zero /one /two /three /five /a /d /e /i /l /m /r /s /t /u /minus ] def
/FontInfo 10 dict dup begin
/FamilyName (Bitstream Vera Sans) def
/FullName (Bitstream Vera Sans) def
/Notice (Copyright (c) 2003 by Bitstream, Inc. All Rights Reserved. Bitstream Vera is a trademark of Bitstream, Inc.) def
/Weight (Roman) def
/Version (Release 1.10) def
/ItalicAngle 0.0 def
/isFixedPitch false def
/UnderlinePosition -213 def
/UnderlineThickness 143 def
end readonly def
/CharStrings 20 dict dup begin
/space{318 0 0 0 0 0 _sc
}_d
/parenleft{390 0 86 -131 310 759 _sc
310 759 _m
266 683 234 609 213 536 _c
191 463 181 389 181 314 _c
181 238 191 164 213 91 _c
234 17 266 -56 310 -131 _c
232 -131 _l
183 -54 146 20 122 94 _c
98 168 86 241 86 314 _c
86 386 98 459 122 533 _c
146 607 182 682 232 759 _c
310 759 _l
_cl}_d
/parenright{390 0 80 -131 304 759 _sc
80 759 _m
158 759 _l
206 682 243 607 267 533 _c
291 459 304 386 304 314 _c
304 241 291 168 267 94 _c
243 20 206 -54 158 -131 _c
80 -131 _l
123 -56 155 17 177 91 _c
198 164 209 238 209 314 _c
209 389 198 463 177 536 _c
155 609 123 683 80 759 _c
_cl}_d
/period{318 0 107 0 210 124 _sc
107 124 _m
210 124 _l
210 0 _l
107 0 _l
107 124 _l
_cl}_d
/zero{636 0 66 -13 570 742 _sc
318 664 _m
267 664 229 639 203 589 _c
177 539 165 464 165 364 _c
165 264 177 189 203 139 _c
229 89 267 64 318 64 _c
369 64 407 89 433 139 _c
458 189 471 264 471 364 _c
471 464 458 539 433 589 _c
407 639 369 664 318 664 _c
318 742 _m
399 742 461 709 505 645 _c
548 580 570 486 570 364 _c
570 241 548 147 505 83 _c
461 19 399 -13 318 -13 _c
236 -13 173 19 130 83 _c
87 147 66 241 66 364 _c
66 486 87 580 130 645 _c
173 709 236 742 318 742 _c
_cl}_d
/one{636 0 110 0 544 729 _sc
124 83 _m
285 83 _l
285 639 _l
110 604 _l
110 694 _l
284 729 _l
383 729 _l
383 83 _l
544 83 _l
544 0 _l
124 0 _l
124 83 _l
_cl}_d
/two{{636 0 73 0 536 742 _sc
192 83 _m
536 83 _l
536 0 _l
73 0 _l
73 83 _l
110 121 161 173 226 239 _c
290 304 331 346 348 365 _c
380 400 402 430 414 455 _c
426 479 433 504 433 528 _c
433 566 419 598 392 622 _c
365 646 330 659 286 659 _c
255 659 222 653 188 643 _c
154 632 117 616 78 594 _c
78 694 _l
118 710 155 722 189 730 _c
223 738 255 742 284 742 _c
}_e{359 742 419 723 464 685 _c
509 647 532 597 532 534 _c
532 504 526 475 515 449 _c
504 422 484 390 454 354 _c
446 344 420 317 376 272 _c
332 227 271 164 192 83 _c
_cl}_e}_d
/three{{636 0 76 -13 556 742 _sc
406 393 _m
453 383 490 362 516 330 _c
542 298 556 258 556 212 _c
556 140 531 84 482 45 _c
432 6 362 -13 271 -13 _c
240 -13 208 -10 176 -4 _c
144 1 110 10 76 22 _c
76 117 _l
103 101 133 89 166 81 _c
198 73 232 69 268 69 _c
330 69 377 81 409 105 _c
441 129 458 165 458 212 _c
458 254 443 288 413 312 _c
383 336 341 349 287 349 _c
}_e{202 349 _l
202 430 _l
291 430 _l
339 430 376 439 402 459 _c
428 478 441 506 441 543 _c
441 580 427 609 401 629 _c
374 649 336 659 287 659 _c
260 659 231 656 200 650 _c
169 644 135 635 98 623 _c
98 711 _l
135 721 170 729 203 734 _c
235 739 266 742 296 742 _c
370 742 429 725 473 691 _c
517 657 539 611 539 553 _c
539 513 527 479 504 451 _c
481 423 448 403 406 393 _c
_cl}_e}_d
/five{{636 0 77 -13 549 729 _sc
108 729 _m
495 729 _l
495 646 _l
198 646 _l
198 467 _l
212 472 227 476 241 478 _c
255 480 270 482 284 482 _c
365 482 429 459 477 415 _c
525 370 549 310 549 234 _c
549 155 524 94 475 51 _c
426 8 357 -13 269 -13 _c
238 -13 207 -10 175 -6 _c
143 -1 111 6 77 17 _c
77 116 _l
106 100 136 88 168 80 _c
199 72 232 69 267 69 _c
}_e{323 69 368 83 401 113 _c
433 143 450 183 450 234 _c
450 284 433 324 401 354 _c
368 384 323 399 267 399 _c
241 399 214 396 188 390 _c
162 384 135 375 108 363 _c
108 729 _l
_cl}_e}_d
/a{{613 0 60 -13 522 560 _sc
343 275 _m
270 275 220 266 192 250 _c
164 233 150 205 150 165 _c
150 133 160 107 181 89 _c
202 70 231 61 267 61 _c
317 61 357 78 387 114 _c
417 149 432 196 432 255 _c
432 275 _l
343 275 _l
522 312 _m
522 0 _l
432 0 _l
432 83 _l
411 49 385 25 355 10 _c
325 -5 287 -13 243 -13 _c
187 -13 142 2 109 33 _c
76 64 60 106 60 159 _c
}_e{60 220 80 266 122 298 _c
163 329 224 345 306 345 _c
432 345 _l
432 354 _l
432 395 418 427 391 450 _c
364 472 326 484 277 484 _c
245 484 215 480 185 472 _c
155 464 127 453 100 439 _c
100 522 _l
132 534 164 544 195 550 _c
226 556 256 560 286 560 _c
365 560 424 539 463 498 _c
502 457 522 395 522 312 _c
_cl}_e}_d
/d{{635 0 55 -13 544 760 _sc
454 464 _m
454 760 _l
544 760 _l
544 0 _l
454 0 _l
454 82 _l
435 49 411 25 382 10 _c
353 -5 319 -13 279 -13 _c
213 -13 159 13 117 65 _c
75 117 55 187 55 273 _c
55 359 75 428 117 481 _c
159 533 213 560 279 560 _c
319 560 353 552 382 536 _c
411 520 435 496 454 464 _c
148 273 _m
148 207 161 155 188 117 _c
215 79 253 61 301 61 _c
}_e{348 61 385 79 413 117 _c
440 155 454 207 454 273 _c
454 339 440 390 413 428 _c
385 466 348 485 301 485 _c
253 485 215 466 188 428 _c
161 390 148 339 148 273 _c
_cl}_e}_d
/e{{615 0 55 -13 562 560 _sc
562 296 _m
562 252 _l
149 252 _l
153 190 171 142 205 110 _c
238 78 284 62 344 62 _c
378 62 412 66 444 74 _c
476 82 509 95 541 113 _c
541 28 _l
509 14 476 3 442 -3 _c
408 -9 373 -13 339 -13 _c
251 -13 182 12 131 62 _c
80 112 55 181 55 268 _c
55 357 79 428 127 481 _c
175 533 241 560 323 560 _c
397 560 455 536 498 489 _c
}_e{540 441 562 377 562 296 _c
472 322 _m
471 371 457 410 431 440 _c
404 469 368 484 324 484 _c
274 484 234 469 204 441 _c
174 413 156 373 152 322 _c
472 322 _l
_cl}_e}_d
/i{278 0 94 0 184 760 _sc
94 547 _m
184 547 _l
184 0 _l
94 0 _l
94 547 _l
94 760 _m
184 760 _l
184 646 _l
94 646 _l
94 760 _l
_cl}_d
/l{278 0 94 0 184 760 _sc
94 760 _m
184 760 _l
184 0 _l
94 0 _l
94 760 _l
_cl}_d
/m{{974 0 91 0 889 560 _sc
520 442 _m
542 482 569 511 600 531 _c
631 550 668 560 711 560 _c
767 560 811 540 842 500 _c
873 460 889 403 889 330 _c
889 0 _l
799 0 _l
799 327 _l
799 379 789 418 771 444 _c
752 469 724 482 686 482 _c
639 482 602 466 575 435 _c
548 404 535 362 535 309 _c
535 0 _l
445 0 _l
445 327 _l
445 379 435 418 417 444 _c
398 469 369 482 331 482 _c
}_e{285 482 248 466 221 435 _c
194 404 181 362 181 309 _c
181 0 _l
91 0 _l
91 547 _l
181 547 _l
181 462 _l
201 495 226 520 255 536 _c
283 552 317 560 357 560 _c
397 560 430 550 458 530 _c
486 510 506 480 520 442 _c
_cl}_e}_d
/r{411 0 91 0 411 560 _sc
411 463 _m
401 469 390 473 378 476 _c
366 478 353 480 339 480 _c
288 480 249 463 222 430 _c
194 397 181 350 181 288 _c
181 0 _l
91 0 _l
91 547 _l
181 547 _l
181 462 _l
199 495 224 520 254 536 _c
284 552 321 560 365 560 _c
371 560 378 559 386 559 _c
393 558 401 557 411 555 _c
411 463 _l
_cl}_d
/s{{521 0 54 -13 472 560 _sc
443 531 _m
443 446 _l
417 458 391 468 364 475 _c
336 481 308 485 279 485 _c
234 485 200 478 178 464 _c
156 450 145 430 145 403 _c
145 382 153 366 169 354 _c
185 342 217 330 265 320 _c
296 313 _l
360 299 405 279 432 255 _c
458 230 472 195 472 151 _c
472 100 452 60 412 31 _c
372 1 316 -13 246 -13 _c
216 -13 186 -10 154 -5 _c
}_e{122 0 89 8 54 20 _c
54 113 _l
87 95 120 82 152 74 _c
184 65 216 61 248 61 _c
290 61 323 68 346 82 _c
368 96 380 117 380 144 _c
380 168 371 187 355 200 _c
339 213 303 226 247 238 _c
216 245 _l
160 257 119 275 95 299 _c
70 323 58 356 58 399 _c
58 450 76 490 112 518 _c
148 546 200 560 268 560 _c
301 560 332 557 362 552 _c
391 547 418 540 443 531 _c
}_e{_cl}_e}_d
/t{392 0 27 0 368 702 _sc
183 702 _m
183 547 _l
368 547 _l
368 477 _l
183 477 _l
183 180 _l
183 135 189 106 201 94 _c
213 81 238 75 276 75 _c
368 75 _l
368 0 _l
276 0 _l
206 0 158 13 132 39 _c
106 65 93 112 93 180 _c
93 477 _l
27 477 _l
27 547 _l
93 547 _l
93 702 _l
183 702 _l
_cl}_d
/u{634 0 85 -13 543 547 _sc
85 216 _m
85 547 _l
175 547 _l
175 219 _l
175 167 185 129 205 103 _c
225 77 255 64 296 64 _c
344 64 383 79 411 110 _c
439 141 453 183 453 237 _c
453 547 _l
543 547 _l
543 0 _l
453 0 _l
453 84 _l
431 50 405 26 377 10 _c
348 -5 315 -13 277 -13 _c
214 -13 166 6 134 45 _c
101 83 85 140 85 216 _c
_cl}_d
/minus{838 0 106 272 732 355 _sc
106 355 _m
732 355 _l
732 272 _l
106 272 _l
106 355 _l
_cl}_d
end readonly def

/BuildGlyph
 {exch begin
 CharStrings exch
 2 copy known not{pop /.notdef}if
 true 3 1 roll get exec
 end}_d

/BuildChar {
 1 index /Encoding get exch get
 1 index /BuildGlyph get exec
}_d

FontName currentdict end definefont pop
end
%%EndProlog
mpldict begin
90 216 translate
432 360 0 0 clipbox
100000 setmiterlimit
gsave
0 0 m
432 0 l
432 360 l
0 360 l
cl
1.000 setgray
fill
grestore
gsave
54 45 m
388.8 45 l
388.8 324 l
54 324 l
cl
0.898 setgray
fill
grestore
1.400 setlinewidth
1 setlinejoin
2 setlinecap
[] 0 setdash
1.000 setgray
gsave
334.8 279 54 45 clipbox
54 45 m
54 324 l
stroke
grestore
0 setlinecap
0.498 setgray
gsave
/o {
gsave
newpath
translate
1.4 setlinewidth
1 setlinejoin
0 setlinecap
0 0 m
0 -5 l

gsave
0.498 setgray
fill
grestore
stroke
grestore
} bind def
54 45 o
grestore
/BitstreamVeraSans-Roman findfont
10.000 scalefont
setfont
gsave
46.046875 31.406250 translate
0.000000 rotate
0.000000 0.000000 m /zero glyphshow
6.362305 0.000000 m /period glyphshow
9.541016 0.000000 m /zero glyphshow
grestore
2 setlinecap
1.000 setgray
gsave
334.8 279 54 45 clipbox
109.8 45 m
109.8 324 l
stroke
grestore
0 setlinecap
0.498 setgray
gsave
/o {
gsave
newpath
translate
1.4 setlinewidth
1 setlinejoin
0 setlinecap
0 0 m
0 -5 l

gsave
0.498 setgray
fill
grestore
stroke
grestore
} bind def
109.8 45 o
grestore
gsave
101.846875 31.406250 translate
0.000000 rotate
0.000000 0.000000 m /zero glyphshow
6.362305 0.000000 m /period glyphshow
9.541016 0.000000 m /five glyphshow
grestore
2 setlinecap
1.000 setgray
gsave
334.8 279 54 45 clipbox
165.6 45 m
165.6 324 l
stroke
grestore
0 setlinecap
0.498 setgray
gsave
/o {
gsave
newpath
translate
1.4 setlinewidth
1 setlinejoin
0 setlinecap
0 0 m
0 -5 l

gsave
0.498 setgray
fill
grestore
stroke
grestore
} bind def
165.6 45 o
grestore
gsave
157.646875 31.406250 translate
0.000000 rotate
0.000000 0.000000 m /one glyphshow
6.362305 0.000000 m /period glyphshow
9.541016 0.000000 m /zero glyphshow
grestore
2 setlinecap
1.000 setgray
gsave
334.8 279 54 45 clipbox
221.4 45 m
221.4 324 l
stroke
grestore
0 setlinecap
0.498 setgray
gsave
/o {
gsave
newpath
translate
1.4 setlinewidth
1 setlinejoin
0 setlinecap
0 0 m
0 -5 l

gsave
0.498 setgray
fill
grestore
stroke
grestore
} bind def
221.4 45 o
grestore
gsave
213.446875 31.406250 translate
0.000000 rotate
0.000000 0.000000 m /one glyphshow
6.362305 0.000000 m /period glyphshow
9.541016 0.000000 m /five glyphshow
grestore
2 setlinecap
1.000 setgray
gsave
334.8 279 54 45 clipbox
277.2 45 m
277.2 324 l
stroke
grestore
0 setlinecap
0.498 setgray
gsave
/o {
gsave
newpath
translate
1.4 setlinewidth
1 setlinejoin
0 setlinecap
0 0 m
0 -5 l

gsave
0.498 setgray
fill
grestore
stroke
grestore
} bind def
277.2 45 o
grestore
gsave
269.246875 31.406250 translate
0.000000 rotate
0.000000 0.000000 m /two glyphshow
6.362305 0.000000 m /period glyphshow
9.541016 0.000000 m /zero glyphshow
grestore
2 setlinecap
1.000 setgray
gsave
334.8 279 54 45 clipbox
333 45 m
333 324 l
stroke
grestore
0 setlinecap
0.498 setgray
gsave
/o {
gsave
newpath
translate
1.4 setlinewidth
1 setlinejoin
0 setlinecap
0 0 m
0 -5 l

gsave
0.498 setgray
fill
grestore
stroke
grestore
} bind def
333 45 o
grestore
gsave
325.046875 31.406250 translate
0.000000 rotate
0.000000 0.000000 m /two glyphshow
6.362305 0.000000 m /period glyphshow
9.541016 0.000000 m /five glyphshow
grestore
2 setlinecap
1.000 setgray
gsave
334.8 279 54 45 clipbox
388.8 45 m
388.8 324 l
stroke
grestore
0 setlinecap
0.498 setgray
gsave
/o {
gsave
newpath
translate
1.4 setlinewidth
1 setlinejoin
0 setlinecap
0 0 m
0 -5 l

gsave
0.498 setgray
fill
grestore
stroke
grestore
} bind def
388.8 45 o
grestore
gsave
380.846875 31.406250 translate
0.000000 rotate
0.000000 0.000000 m /three glyphshow
6.362305 0.000000 m /period glyphshow
9.541016 0.000000 m /zero glyphshow
grestore
0.700 setlinewidth
2 setlinecap
0.949 setgray
gsave
334.8 279 54 45 clipbox
81.9 45 m
81.9 324 l
stroke
grestore
0.500 setlinewidth
0 setlinecap
0.498 setgray
gsave
/o {
gsave
newpath
translate
0.5 setlinewidth
1 setlinejoin
0 setlinecap
0 0 m
0 0 l

gsave
0.498 setgray
fill
grestore
stroke
grestore
} bind def
81.9 45 o
grestore
0.700 setlinewidth
2 setlinecap
0.949 setgray
gsave
334.8 279 54 45 clipbox
137.7 45 m
137.7 324 l
stroke
grestore
0.500 setlinewidth
0 setlinecap
0.498 setgray
gsave
/o {
gsave
newpath
translate
0.5 setlinewidth
1 setlinejoin
0 setlinecap
0 0 m
0 0 l

gsave
0.498 setgray
fill
grestore
stroke
grestore
} bind def
137.7 45 o
grestore
0.700 setlinewidth
2 setlinecap
0.949 setgray
gsave
334.8 279 54 45 clipbox
193.5 45 m
193.5 324 l
stroke
grestore
0.500 setlinewidth
0 setlinecap
0.498 setgray
gsave
/o {
gsave
newpath
translate
0.5 setlinewidth
1 setlinejoin
0 setlinecap
0 0 m
0 0 l

gsave
0.498 setgray
fill
grestore
stroke
grestore
} bind def
193.5 45 o
grestore
0.700 setlinewidth
2 setlinecap
0.949 setgray
gsave
334.8 279 54 45 clipbox
249.3 45 m
249.3 324 l
stroke
grestore
0.500 setlinewidth
0 setlinecap
0.498 setgray
gsave
/o {
gsave
newpath
translate
0.5 setlinewidth
1 setlinejoin
0 setlinecap
0 0 m
0 0 l

gsave
0.498 setgray
fill
grestore
stroke
grestore
} bind def
249.3 45 o
grestore
0.700 setlinewidth
2 setlinecap
0.949 setgray
gsave
334.8 279 54 45 clipbox
305.1 45 m
305.1 324 l
stroke
grestore
0.500 setlinewidth
0 setlinecap
0.498 setgray
gsave
/o {
gsave
newpath
translate
0.5 setlinewidth
1 setlinejoin
0 setlinecap
0 0 m
0 0 l

gsave
0.498 setgray
fill
grestore
stroke
grestore
} bind def
305.1 45 o
grestore
0.700 setlinewidth
2 setlinecap
0.949 setgray
gsave
334.8 279 54 45 clipbox
360.9 45 m
360.9 324 l
stroke
grestore
0.500 setlinewidth
0 setlinecap
0.498 setgray
gsave
/o {
gsave
newpath
translate
0.5 setlinewidth
1 setlinejoin
0 setlinecap
0 0 m
0 0 l

gsave
0.498 setgray
fill
grestore
stroke
grestore
} bind def
360.9 45 o
grestore
1.400 setlinewidth
2 setlinecap
1.000 setgray
gsave
334.8 279 54 45 clipbox
54 45 m
388.8 45 l
stroke
grestore
0 setlinecap
0.498 setgray
gsave
/o {
gsave
newpath
translate
1.4 setlinewidth
1 setlinejoin
0 setlinecap
0 0 m
-5 0 l

gsave
0.498 setgray
fill
grestore
stroke
grestore
} bind def
54 45 o
grestore
gsave
11.000000 42.242188 translate
0.000000 rotate
0.000000 0.000000 m /minus glyphshow
8.378906 0.000000 m /zero glyphshow
14.741211 0.000000 m /period glyphshow
17.919922 0.000000 m /zero glyphshow
24.282227 0.000000 m /one glyphshow
30.644531 0.000000 m /five glyphshow
grestore
2 setlinecap
1.000 setgray
gsave
334.8 279 54 45 clipbox
54 91.5 m
388.8 91.5 l
stroke
grestore
0 setlinecap
0.498 setgray
gsave
/o {
gsave
newpath
translate
1.4 setlinewidth
1 setlinejoin
0 setlinecap
0 0 m
-5 0 l

gsave
0.498 setgray
fill
grestore
stroke
grestore
} bind def
54 91.5 o
grestore
gsave
11.000000 88.742188 translate
0.000000 rotate
0.000000 0.000000 m /minus glyphshow
8.378906 0.000000 m /zero glyphshow
14.741211 0.000000 m /period glyphshow
17.919922 0.000000 m /zero glyphshow
24.282227 0.000000 m /one glyphshow
30.644531 0.000000 m /zero glyphshow
grestore
2 setlinecap
1.000 setgray
gsave
334.8 279 54 45 clipbox
54 138 m
388.8 138 l
stroke
grestore
0 setlinecap
0.498 setgray
gsave
/o {
gsave
newpath
translate
1.4 setlinewidth
1 setlinejoin
0 setlinecap
0 0 m
-5 0 l

gsave
0.498 setgray
fill
grestore
stroke
grestore
} bind def
54 138 o
grestore
gsave
11.000000 135.242188 translate
0.000000 rotate
0.000000 0.000000 m /minus glyphshow
8.378906 0.000000 m /zero glyphshow
14.741211 0.000000 m /period glyphshow
17.919922 0.000000 m /zero glyphshow
24.282227 0.000000 m /zero glyphshow
30.644531 0.000000 m /five glyphshow
grestore
2 setlinecap
1.000 setgray
gsave
334.8 279 54 45 clipbox
54 184.5 m
388.8 184.5 l
stroke
grestore
0 setlinecap
0.498 setgray
gsave
/o {
gsave
newpath
translate
1.4 setlinewidth
1 setlinejoin
0 setlinecap
0 0 m
-5 0 l

gsave
0.498 setgray
fill
grestore
stroke
grestore
} bind def
54 184.5 o
grestore
gsave
19.375000 181.742188 translate
0.000000 rotate
0.000000 0.000000 m /zero glyphshow
6.362305 0.000000 m /period glyphshow
9.541016 0.000000 m /zero glyphshow
15.903320 0.000000 m /zero glyphshow
22.265625 0.000000 m /zero glyphshow
grestore
2 setlinecap
1.000 setgray
gsave
334.8 279 54 45 clipbox
54 231 m
388.8 231 l
stroke
grestore
0 setlinecap
0.498 setgray
gsave
/o {
gsave
newpath
translate
1.4 setlinewidth
1 setlinejoin
0 setlinecap
0 0 m
-5 0 l

gsave
0.498 setgray
fill
grestore
stroke
grestore
} bind def
54 231 o
grestore
gsave
19.375000 228.242188 translate
0.000000 rotate
0.000000 0.000000 m /zero glyphshow
6.362305 0.000000 m /period glyphshow
9.541016 0.000000 m /zero glyphshow
15.903320 0.000000 m /zero glyphshow
22.265625 0.000000 m /five glyphshow
grestore
2 setlinecap
1.000 setgray
gsave
334.8 279 54 45 clipbox
54 277.5 m
388.8 277.5 l
stroke
grestore
0 setlinecap
0.498 setgray
gsave
/o {
gsave
newpath
translate
1.4 setlinewidth
1 setlinejoin
0 setlinecap
0 0 m
-5 0 l

gsave
0.498 setgray
fill
grestore
stroke
grestore
} bind def
54 277.5 o
grestore
gsave
19.375000 274.742188 translate
0.000000 rotate
0.000000 0.000000 m /zero glyphshow
6.362305 0.000000 m /period glyphshow
9.541016 0.000000 m /zero glyphshow
15.903320 0.000000 m /one glyphshow
22.265625 0.000000 m /zero glyphshow
grestore
2 setlinecap
1.000 setgray
gsave
334.8 279 54 45 clipbox
54 324 m
388.8 324 l
stroke
grestore
0 setlinecap
0.498 setgray
gsave
/o {
gsave
newpath
translate
1.4 setlinewidth
1 setlinejoin
0 setlinecap
0 0 m
-5 0 l

gsave
0.498 setgray
fill
grestore
stroke
grestore
} bind def
54 324 o
grestore
gsave
19.375000 321.242188 translate
0.000000 rotate
0.000000 0.000000 m /zero glyphshow
6.362305 0.000000 m /period glyphshow
9.541016 0.000000 m /zero glyphshow
15.903320 0.000000 m /one glyphshow
22.265625 0.000000 m /five glyphshow
grestore
0.700 setlinewidth
2 setlinecap
0.949 setgray
gsave
334.8 279 54 45 clipbox
54 68.25 m
388.8 68.25 l
stroke
grestore
0.500 setlinewidth
0 setlinecap
0.498 setgray
gsave
/o {
gsave
newpath
translate
0.5 setlinewidth
1 setlinejoin
0 setlinecap
0 0 m
0 0 l

gsave
0.498 setgray
fill
grestore
stroke
grestore
} bind def
54 68.25 o
grestore
0.700 setlinewidth
2 setlinecap
0.949 setgray
gsave
334.8 279 54 45 clipbox
54 114.75 m
388.8 114.75 l
stroke
grestore
0.500 setlinewidth
0 setlinecap
0.498 setgray
gsave
/o {
gsave
newpath
translate
0.5 setlinewidth
1 setlinejoin
0 setlinecap
0 0 m
0 0 l

gsave
0.498 setgray
fill
grestore
stroke
grestore
} bind def
54 114.75 o
grestore
0.700 setlinewidth
2 setlinecap
0.949 setgray
gsave
334.8 279 54 45 clipbox
54 161.25 m
388.8 161.25 l
stroke
grestore
0.500 setlinewidth
0 setlinecap
0.498 setgray
gsave
/o {
gsave
newpath
translate
0.5 setlinewidth
1 setlinejoin
0 setlinecap
0 0 m
0 0 l

gsave
0.498 setgray
fill
grestore
stroke
grestore
} bind def
54 161.25 o
grestore
0.700 setlinewidth
2 setlinecap
0.949 setgray
gsave
334.8 279 54 45 clipbox
54 207.75 m
388.8 207.75 l
stroke
grestore
0.500 setlinewidth
0 setlinecap
0.498 setgray
gsave
/o {
gsave
newpath
translate
0.5 setlinewidth
1 setlinejoin
0 setlinecap
0 0 m
0 0 l

gsave
0.498 setgray
fill
grestore
stroke
grestore
} bind def
54 207.75 o
grestore
0.700 setlinewidth
2 setlinecap
0.949 setgray
gsave
334.8 279 54 45 clipbox
54 254.25 m
388.8 254.25 l
stroke
grestore
0.500 setlinewidth
0 setlinecap
0.498 setgray
gsave
/o {
gsave
newpath
translate
0.5 setlinewidth
1 setlinejoin
0 setlinecap
0 0 m
0 0 l

gsave
0.498 setgray
fill
grestore
stroke
grestore
} bind def
54 254.25 o
grestore
0.700 setlinewidth
2 setlinecap
0.949 setgray
gsave
334.8 279 54 45 clipbox
54 300.75 m
388.8 300.75 l
stroke
grestore
0.500 setlinewidth
0 setlinecap
0.498 setgray
gsave
/o {
gsave
newpath
translate
0.5 setlinewidth
1 setlinejoin
0 setlinecap
0 0 m
0 0 l

gsave
0.498 setgray
fill
grestore
stroke
grestore
} bind def
54 300.75 o
grestore
/p0_0 {
newpath
translate
0 -1 m
0.265203 -1 0.51958 -0.894634 0.707107 -0.707107 c
0.894634 -0.51958 1 -0.265203 1 0 c
1 0.265203 0.894634 0.51958 0.707107 0.707107 c
0.51958 0.894634 0.265203 1 0 1 c
-0.265203 1 -0.51958 0.894634 -0.707107 0.707107 c
-0.894634 0.51958 -1 0.265203 -1 0 c
-1 -0.265203 -0.894634 -0.51958 -0.707107 -0.707107 c
-0.51958 -0.894634 -0.265203 -1 0 -1 c
cl

} bind def
gsave
334.8 279 54 45 clipbox
55.488 259.285 p0_0
0.000 0.749 1.000 setrgbcolor
fill
grestore
gsave
334.8 279 54 45 clipbox
56.232 139.289 p0_0
0.000 0.749 1.000 setrgbcolor
fill
grestore
gsave
334.8 279 54 45 clipbox
56.976 91.675 p0_0
0.000 0.749 1.000 setrgbcolor
fill
grestore
gsave
334.8 279 54 45 clipbox
57.72 156.176 p0_0
0.000 0.749 1.000 setrgbcolor
fill
grestore
gsave
334.8 279 54 45 clipbox
58.464 217.262 p0_0
0.000 0.749 1.000 setrgbcolor
fill
grestore
gsave
334.8 279 54 45 clipbox
59.208 213.704 p0_0
0.000 0.749 1.000 setrgbcolor
fill
grestore
gsave
334.8 279 54 45 clipbox
59.952 256.474 p0_0
0.000 0.749 1.000 setrgbcolor
fill
grestore
gsave
334.8 279 54 45 clipbox
60.696 192.966 p0_0
0.000 0.749 1.000 setrgbcolor
fill
grestore
gsave
334.8 279 54 45 clipbox
61.44 237.099 p0_0
0.000 0.749 1.000 setrgbcolor
fill
grestore
gsave
334.8 279 54 45 clipbox
62.184 234.466 p0_0
0.000 0.749 1.000 setrgbcolor
fill
grestore
gsave
334.8 279 54 45 clipbox
62.928 229.66 p0_0
0.000 0.749 1.000 setrgbcolor
fill
grestore
gsave
334.8 279 54 45 clipbox
63.672 227.911 p0_0
0.000 0.749 1.000 setrgbcolor
fill
grestore
gsave
334.8 279 54 45 clipbox
64.416 149.537 p0_0
0.000 0.749 1.000 setrgbcolor
fill
grestore
gsave
334.8 279 54 45 clipbox
65.16 202.551 p0_0
0.000 0.749 1.000 setrgbcolor
fill
grestore
gsave
334.8 279 54 45 clipbox
65.904 161.385 p0_0
0.000 0.749 1.000 setrgbcolor
fill
grestore
gsave
334.8 279 54 45 clipbox
66.648 199.764 p0_0
0.000 0.749 1.000 setrgbcolor
fill
grestore
gsave
334.8 279 54 45 clipbox
67.392 176.301 p0_0
0.000 0.749 1.000 setrgbcolor
fill
grestore
gsave
334.8 279 54 45 clipbox
68.136 134.584 p0_0
0.000 0.749 1.000 setrgbcolor
fill
grestore
gsave
334.8 279 54 45 clipbox
68.88 141.547 p0_0
0.000 0.749 1.000 setrgbcolor
fill
grestore
gsave
334.8 279 54 45 clipbox
69.624 176.93 p0_0
0.000 0.749 1.000 setrgbcolor
fill
grestore
gsave
334.8 279 54 45 clipbox
70.368 167.365 p0_0
0.000 0.749 1.000 setrgbcolor
fill
grestore
gsave
334.8 279 54 45 clipbox
71.112 159.478 p0_0
0.000 0.749 1.000 setrgbcolor
fill
grestore
gsave
334.8 279 54 45 clipbox
71.856 115.497 p0_0
0.000 0.749 1.000 setrgbcolor
fill
grestore
gsave
334.8 279 54 45 clipbox
72.6 160.115 p0_0
0.000 0.749 1.000 setrgbcolor
fill
grestore
gsave
334.8 279 54 45 clipbox
73.344 166.088 p0_0
0.000 0.749 1.000 setrgbcolor
fill
grestore
gsave
334.8 279 54 45 clipbox
74.088 174.149 p0_0
0.000 0.749 1.000 setrgbcolor
fill
grestore
gsave
334.8 279 54 45 clipbox
74.832 165.996 p0_0
0.000 0.749 1.000 setrgbcolor
fill
grestore
gsave
334.8 279 54 45 clipbox
75.576 118.072 p0_0
0.000 0.749 1.000 setrgbcolor
fill
grestore
gsave
334.8 279 54 45 clipbox
76.32 154.836 p0_0
0.000 0.749 1.000 setrgbcolor
fill
grestore
gsave
334.8 279 54 45 clipbox
77.064 191.086 p0_0
0.000 0.749 1.000 setrgbcolor
fill
grestore
gsave
334.8 279 54 45 clipbox
77.808 170.335 p0_0
0.000 0.749 1.000 setrgbcolor
fill
grestore
gsave
334.8 279 54 45 clipbox
78.552 215.171 p0_0
0.000 0.749 1.000 setrgbcolor
fill
grestore
gsave
334.8 279 54 45 clipbox
79.296 124.914 p0_0
0.000 0.749 1.000 setrgbcolor
fill
grestore
gsave
334.8 279 54 45 clipbox
80.04 184.427 p0_0
0.000 0.749 1.000 setrgbcolor
fill
grestore
gsave
334.8 279 54 45 clipbox
80.784 187.751 p0_0
0.000 0.749 1.000 setrgbcolor
fill
grestore
gsave
334.8 279 54 45 clipbox
81.528 218.65 p0_0
0.000 0.749 1.000 setrgbcolor
fill
grestore
gsave
334.8 279 54 45 clipbox
82.272 207.757 p0_0
0.000 0.749 1.000 setrgbcolor
fill
grestore
gsave
334.8 279 54 45 clipbox
83.016 139.754 p0_0
0.000 0.749 1.000 setrgbcolor
fill
grestore
gsave
334.8 279 54 45 clipbox
83.76 200.995 p0_0
0.000 0.749 1.000 setrgbcolor
fill
grestore
gsave
334.8 279 54 45 clipbox
84.504 208.977 p0_0
0.000 0.749 1.000 setrgbcolor
fill
grestore
gsave
334.8 279 54 45 clipbox
85.248 213.999 p0_0
0.000 0.749 1.000 setrgbcolor
fill
grestore
gsave
334.8 279 54 45 clipbox
85.992 186.999 p0_0
0.000 0.749 1.000 setrgbcolor
fill
grestore
gsave
334.8 279 54 45 clipbox
86.736 158.602 p0_0
0.000 0.749 1.000 setrgbcolor
fill
grestore
gsave
334.8 279 54 45 clipbox
87.48 193.55 p0_0
0.000 0.749 1.000 setrgbcolor
fill
grestore
gsave
334.8 279 54 45 clipbox
88.224 214.737 p0_0
0.000 0.749 1.000 setrgbcolor
fill
grestore
gsave
334.8 279 54 45 clipbox
88.968 218.908 p0_0
0.000 0.749 1.000 setrgbcolor
fill
grestore
gsave
334.8 279 54 45 clipbox
89.712 208.52 p0_0
0.000 0.749 1.000 setrgbcolor
fill
grestore
gsave
334.8 279 54 45 clipbox
90.456 171.908 p0_0
0.000 0.749 1.000 setrgbcolor
fill
grestore
gsave
334.8 279 54 45 clipbox
91.2 213.786 p0_0
0.000 0.749 1.000 setrgbcolor
fill
grestore
gsave
334.8 279 54 45 clipbox
91.944 237.396 p0_0
0.000 0.749 1.000 setrgbcolor
fill
grestore
gsave
334.8 279 54 45 clipbox
92.688 194.271 p0_0
0.000 0.749 1.000 setrgbcolor
fill
grestore
gsave
334.8 279 54 45 clipbox
93.432 240.308 p0_0
0.000 0.749 1.000 setrgbcolor
fill
grestore
gsave
334.8 279 54 45 clipbox
94.176 159.632 p0_0
0.000 0.749 1.000 setrgbcolor
fill
grestore
gsave
334.8 279 54 45 clipbox
94.92 216.028 p0_0
0.000 0.749 1.000 setrgbcolor
fill
grestore
gsave
334.8 279 54 45 clipbox
95.664 205.017 p0_0
0.000 0.749 1.000 setrgbcolor
fill
grestore
gsave
334.8 279 54 45 clipbox
96.408 222.97 p0_0
0.000 0.749 1.000 setrgbcolor
fill
grestore
gsave
334.8 279 54 45 clipbox
97.152 196.003 p0_0
0.000 0.749 1.000 setrgbcolor
fill
grestore
gsave
334.8 279 54 45 clipbox
97.896 189.285 p0_0
0.000 0.749 1.000 setrgbcolor
fill
grestore
gsave
334.8 279 54 45 clipbox
98.64 233.962 p0_0
0.000 0.749 1.000 setrgbcolor
fill
grestore
gsave
334.8 279 54 45 clipbox
99.384 219.279 p0_0
0.000 0.749 1.000 setrgbcolor
fill
grestore
gsave
334.8 279 54 45 clipbox
100.128 224.628 p0_0
0.000 0.749 1.000 setrgbcolor
fill
grestore
gsave
334.8 279 54 45 clipbox
100.872 221.578 p0_0
0.000 0.749 1.000 setrgbcolor
fill
grestore
gsave
334.8 279 54 45 clipbox
101.616 195.896 p0_0
0.000 0.749 1.000 setrgbcolor
fill
grestore
gsave
334.8 279 54 45 clipbox
102.36 209.965 p0_0
0.000 0.749 1.000 setrgbcolor
fill
grestore
gsave
334.8 279 54 45 clipbox
103.104 243.902 p0_0
0.000 0.749 1.000 setrgbcolor
fill
grestore
gsave
334.8 279 54 45 clipbox
103.848 223.866 p0_0
0.000 0.749 1.000 setrgbcolor
fill
grestore
gsave
334.8 279 54 45 clipbox
104.592 234.978 p0_0
0.000 0.749 1.000 setrgbcolor
fill
grestore
gsave
334.8 279 54 45 clipbox
105.336 223.299 p0_0
0.000 0.749 1.000 setrgbcolor
fill
grestore
gsave
334.8 279 54 45 clipbox
106.08 225.691 p0_0
0.000 0.749 1.000 setrgbcolor
fill
grestore
gsave
334.8 279 54 45 clipbox
106.824 244.986 p0_0
0.000 0.749 1.000 setrgbcolor
fill
grestore
gsave
334.8 279 54 45 clipbox
107.568 224.401 p0_0
0.000 0.749 1.000 setrgbcolor
fill
grestore
gsave
334.8 279 54 45 clipbox
108.312 232.043 p0_0
0.000 0.749 1.000 setrgbcolor
fill
grestore
gsave
334.8 279 54 45 clipbox
109.056 185.593 p0_0
0.000 0.749 1.000 setrgbcolor
fill
grestore
gsave
334.8 279 54 45 clipbox
109.8 221.266 p0_0
0.000 0.749 1.000 setrgbcolor
fill
grestore
gsave
334.8 279 54 45 clipbox
110.544 222.709 p0_0
0.000 0.749 1.000 setrgbcolor
fill
grestore
gsave
334.8 279 54 45 clipbox
111.288 201.249 p0_0
0.000 0.749 1.000 setrgbcolor
fill
grestore
gsave
334.8 279 54 45 clipbox
112.032 230.684 p0_0
0.000 0.749 1.000 setrgbcolor
fill
grestore
gsave
334.8 279 54 45 clipbox
112.776 177.627 p0_0
0.000 0.749 1.000 setrgbcolor
fill
grestore
gsave
334.8 279 54 45 clipbox
113.52 243.556 p0_0
0.000 0.749 1.000 setrgbcolor
fill
grestore
gsave
334.8 279 54 45 clipbox
114.264 198.609 p0_0
0.000 0.749 1.000 setrgbcolor
fill
grestore
gsave
334.8 279 54 45 clipbox
115.008 230.092 p0_0
0.000 0.749 1.000 setrgbcolor
fill
grestore
gsave
334.8 279 54 45 clipbox
115.752 230.14 p0_0
0.000 0.749 1.000 setrgbcolor
fill
grestore
gsave
334.8 279 54 45 clipbox
116.496 176.076 p0_0
0.000 0.749 1.000 setrgbcolor
fill
grestore
gsave
334.8 279 54 45 clipbox
117.24 212.617 p0_0
0.000 0.749 1.000 setrgbcolor
fill
grestore
gsave
334.8 279 54 45 clipbox
117.984 220.588 p0_0
0.000 0.749 1.000 setrgbcolor
fill
grestore
gsave
334.8 279 54 45 clipbox
118.728 228.354 p0_0
0.000 0.749 1.000 setrgbcolor
fill
grestore
gsave
334.8 279 54 45 clipbox
119.472 233.086 p0_0
0.000 0.749 1.000 setrgbcolor
fill
grestore
gsave
334.8 279 54 45 clipbox
120.216 214.908 p0_0
0.000 0.749 1.000 setrgbcolor
fill
grestore
gsave
334.8 279 54 45 clipbox
120.96 202.221 p0_0
0.000 0.749 1.000 setrgbcolor
fill
grestore
gsave
334.8 279 54 45 clipbox
121.704 251.782 p0_0
0.000 0.749 1.000 setrgbcolor
fill
grestore
gsave
334.8 279 54 45 clipbox
122.448 216 p0_0
0.000 0.749 1.000 setrgbcolor
fill
grestore
gsave
334.8 279 54 45 clipbox
123.192 214.099 p0_0
0.000 0.749 1.000 setrgbcolor
fill
grestore
gsave
334.8 279 54 45 clipbox
123.936 206.331 p0_0
0.000 0.749 1.000 setrgbcolor
fill
grestore
gsave
334.8 279 54 45 clipbox
124.68 226.762 p0_0
0.000 0.749 1.000 setrgbcolor
fill
grestore
gsave
334.8 279 54 45 clipbox
125.424 241.342 p0_0
0.000 0.749 1.000 setrgbcolor
fill
grestore
gsave
334.8 279 54 45 clipbox
126.168 213.171 p0_0
0.000 0.749 1.000 setrgbcolor
fill
grestore
gsave
334.8 279 54 45 clipbox
126.912 230.234 p0_0
0.000 0.749 1.000 setrgbcolor
fill
grestore
gsave
334.8 279 54 45 clipbox
127.656 179.006 p0_0
0.000 0.749 1.000 setrgbcolor
fill
grestore
gsave
334.8 279 54 45 clipbox
128.4 224.115 p0_0
0.000 0.749 1.000 setrgbcolor
fill
grestore
gsave
334.8 279 54 45 clipbox
129.144 212.288 p0_0
0.000 0.749 1.000 setrgbcolor
fill
grestore
gsave
334.8 279 54 45 clipbox
129.888 217.328 p0_0
0.000 0.749 1.000 setrgbcolor
fill
grestore
gsave
334.8 279 54 45 clipbox
130.632 225.044 p0_0
0.000 0.749 1.000 setrgbcolor
fill
grestore
gsave
334.8 279 54 45 clipbox
131.376 187.196 p0_0
0.000 0.749 1.000 setrgbcolor
fill
grestore
gsave
334.8 279 54 45 clipbox
132.12 237.174 p0_0
0.000 0.749 1.000 setrgbcolor
fill
grestore
gsave
334.8 279 54 45 clipbox
132.864 190.501 p0_0
0.000 0.749 1.000 setrgbcolor
fill
grestore
gsave
334.8 279 54 45 clipbox
133.608 208.953 p0_0
0.000 0.749 1.000 setrgbcolor
fill
grestore
gsave
334.8 279 54 45 clipbox
134.352 193.202 p0_0
0.000 0.749 1.000 setrgbcolor
fill
grestore
gsave
334.8 279 54 45 clipbox
135.096 168.787 p0_0
0.000 0.749 1.000 setrgbcolor
fill
grestore
gsave
334.8 279 54 45 clipbox
135.84 200.993 p0_0
0.000 0.749 1.000 setrgbcolor
fill
grestore
gsave
334.8 279 54 45 clipbox
136.584 210.351 p0_0
0.000 0.749 1.000 setrgbcolor
fill
grestore
gsave
334.8 279 54 45 clipbox
137.328 211.061 p0_0
0.000 0.749 1.000 setrgbcolor
fill
grestore
gsave
334.8 279 54 45 clipbox
138.072 214.469 p0_0
0.000 0.749 1.000 setrgbcolor
fill
grestore
gsave
334.8 279 54 45 clipbox
138.816 169.498 p0_0
0.000 0.749 1.000 setrgbcolor
fill
grestore
gsave
334.8 279 54 45 clipbox
139.56 209.546 p0_0
0.000 0.749 1.000 setrgbcolor
fill
grestore
gsave
334.8 279 54 45 clipbox
140.304 206.886 p0_0
0.000 0.749 1.000 setrgbcolor
fill
grestore
gsave
334.8 279 54 45 clipbox
141.048 204.093 p0_0
0.000 0.749 1.000 setrgbcolor
fill
grestore
gsave
334.8 279 54 45 clipbox
141.792 229.568 p0_0
0.000 0.749 1.000 setrgbcolor
fill
grestore
gsave
334.8 279 54 45 clipbox
142.536 175.448 p0_0
0.000 0.749 1.000 setrgbcolor
fill
grestore
gsave
334.8 279 54 45 clipbox
143.28 212.025 p0_0
0.000 0.749 1.000 setrgbcolor
fill
grestore
gsave
334.8 279 54 45 clipbox
144.024 205.907 p0_0
0.000 0.749 1.000 setrgbcolor
fill
grestore
gsave
334.8 279 54 45 clipbox
144.768 230.899 p0_0
0.000 0.749 1.000 setrgbcolor
fill
grestore
gsave
334.8 279 54 45 clipbox
145.512 190.492 p0_0
0.000 0.749 1.000 setrgbcolor
fill
grestore
gsave
334.8 279 54 45 clipbox
146.256 184.038 p0_0
0.000 0.749 1.000 setrgbcolor
fill
grestore
gsave
334.8 279 54 45 clipbox
147 225.718 p0_0
0.000 0.749 1.000 setrgbcolor
fill
grestore
gsave
334.8 279 54 45 clipbox
147.744 213.361 p0_0
0.000 0.749 1.000 setrgbcolor
fill
grestore
gsave
334.8 279 54 45 clipbox
148.488 212.25 p0_0
0.000 0.749 1.000 setrgbcolor
fill
grestore
gsave
334.8 279 54 45 clipbox
149.232 205.349 p0_0
0.000 0.749 1.000 setrgbcolor
fill
grestore
gsave
334.8 279 54 45 clipbox
149.976 218.219 p0_0
0.000 0.749 1.000 setrgbcolor
fill
grestore
gsave
334.8 279 54 45 clipbox
150.72 188.411 p0_0
0.000 0.749 1.000 setrgbcolor
fill
grestore
gsave
334.8 279 54 45 clipbox
151.464 201.074 p0_0
0.000 0.749 1.000 setrgbcolor
fill
grestore
gsave
334.8 279 54 45 clipbox
152.208 202.285 p0_0
0.000 0.749 1.000 setrgbcolor
fill
grestore
gsave
334.8 279 54 45 clipbox
152.952 214.753 p0_0
0.000 0.749 1.000 setrgbcolor
fill
grestore
gsave
334.8 279 54 45 clipbox
153.696 153.325 p0_0
0.000 0.749 1.000 setrgbcolor
fill
grestore
gsave
334.8 279 54 45 clipbox
154.44 219.531 p0_0
0.000 0.749 1.000 setrgbcolor
fill
grestore
gsave
334.8 279 54 45 clipbox
155.184 186.301 p0_0
0.000 0.749 1.000 setrgbcolor
fill
grestore
gsave
334.8 279 54 45 clipbox
155.928 195.542 p0_0
0.000 0.749 1.000 setrgbcolor
fill
grestore
gsave
334.8 279 54 45 clipbox
156.672 207.539 p0_0
0.000 0.749 1.000 setrgbcolor
fill
grestore
gsave
334.8 279 54 45 clipbox
157.416 165.516 p0_0
0.000 0.749 1.000 setrgbcolor
fill
grestore
gsave
334.8 279 54 45 clipbox
158.16 211.39 p0_0
0.000 0.749 1.000 setrgbcolor
fill
grestore
gsave
334.8 279 54 45 clipbox
158.904 191.901 p0_0
0.000 0.749 1.000 setrgbcolor
fill
grestore
gsave
334.8 279 54 45 clipbox
159.648 183.683 p0_0
0.000 0.749 1.000 setrgbcolor
fill
grestore
gsave
334.8 279 54 45 clipbox
160.392 175.367 p0_0
0.000 0.749 1.000 setrgbcolor
fill
grestore
gsave
334.8 279 54 45 clipbox
161.136 158.471 p0_0
0.000 0.749 1.000 setrgbcolor
fill
grestore
gsave
334.8 279 54 45 clipbox
161.88 192.567 p0_0
0.000 0.749 1.000 setrgbcolor
fill
grestore
gsave
334.8 279 54 45 clipbox
162.624 186.851 p0_0
0.000 0.749 1.000 setrgbcolor
fill
grestore
gsave
334.8 279 54 45 clipbox
163.368 203.758 p0_0
0.000 0.749 1.000 setrgbcolor
fill
grestore
gsave
334.8 279 54 45 clipbox
164.112 195.039 p0_0
0.000 0.749 1.000 setrgbcolor
fill
grestore
gsave
334.8 279 54 45 clipbox
164.856 189.085 p0_0
0.000 0.749 1.000 setrgbcolor
fill
grestore
gsave
334.8 279 54 45 clipbox
165.6 200.086 p0_0
0.000 0.749 1.000 setrgbcolor
fill
grestore
gsave
334.8 279 54 45 clipbox
166.344 191.146 p0_0
0.000 0.749 1.000 setrgbcolor
fill
grestore
gsave
334.8 279 54 45 clipbox
167.088 219.013 p0_0
0.000 0.749 1.000 setrgbcolor
fill
grestore
gsave
334.8 279 54 45 clipbox
167.832 195.733 p0_0
0.000 0.749 1.000 setrgbcolor
fill
grestore
gsave
334.8 279 54 45 clipbox
168.576 192.245 p0_0
0.000 0.749 1.000 setrgbcolor
fill
grestore
gsave
334.8 279 54 45 clipbox
169.32 214.23 p0_0
0.000 0.749 1.000 setrgbcolor
fill
grestore
gsave
334.8 279 54 45 clipbox
170.064 193.562 p0_0
0.000 0.749 1.000 setrgbcolor
fill
grestore
gsave
334.8 279 54 45 clipbox
170.808 189.862 p0_0
0.000 0.749 1.000 setrgbcolor
fill
grestore
gsave
334.8 279 54 45 clipbox
171.552 203.119 p0_0
0.000 0.749 1.000 setrgbcolor
fill
grestore
gsave
334.8 279 54 45 clipbox
172.296 165.225 p0_0
0.000 0.749 1.000 setrgbcolor
fill
grestore
gsave
334.8 279 54 45 clipbox
173.04 186.868 p0_0
0.000 0.749 1.000 setrgbcolor
fill
grestore
gsave
334.8 279 54 45 clipbox
173.784 168.704 p0_0
0.000 0.749 1.000 setrgbcolor
fill
grestore
gsave
334.8 279 54 45 clipbox
174.528 187.37 p0_0
0.000 0.749 1.000 setrgbcolor
fill
grestore
gsave
334.8 279 54 45 clipbox
175.272 208.817 p0_0
0.000 0.749 1.000 setrgbcolor
fill
grestore
gsave
334.8 279 54 45 clipbox
176.016 173.431 p0_0
0.000 0.749 1.000 setrgbcolor
fill
grestore
gsave
334.8 279 54 45 clipbox
176.76 180.55 p0_0
0.000 0.749 1.000 setrgbcolor
fill
grestore
gsave
334.8 279 54 45 clipbox
177.504 150.724 p0_0
0.000 0.749 1.000 setrgbcolor
fill
grestore
gsave
334.8 279 54 45 clipbox
178.248 200.294 p0_0
0.000 0.749 1.000 setrgbcolor
fill
grestore
gsave
334.8 279 54 45 clipbox
178.992 187.364 p0_0
0.000 0.749 1.000 setrgbcolor
fill
grestore
gsave
334.8 279 54 45 clipbox
179.736 188.577 p0_0
0.000 0.749 1.000 setrgbcolor
fill
grestore
gsave
334.8 279 54 45 clipbox
180.48 169.854 p0_0
0.000 0.749 1.000 setrgbcolor
fill
grestore
gsave
334.8 279 54 45 clipbox
181.224 187.968 p0_0
0.000 0.749 1.000 setrgbcolor
fill
grestore
gsave
334.8 279 54 45 clipbox
181.968 197.515 p0_0
0.000 0.749 1.000 setrgbcolor
fill
grestore
gsave
334.8 279 54 45 clipbox
182.712 181.456 p0_0
0.000 0.749 1.000 setrgbcolor
fill
grestore
gsave
334.8 279 54 45 clipbox
183.456 173.861 p0_0
0.000 0.749 1.000 setrgbcolor
fill
grestore
gsave
334.8 279 54 45 clipbox
184.2 154.856 p0_0
0.000 0.749 1.000 setrgbcolor
fill
grestore
gsave
334.8 279 54 45 clipbox
184.944 198.235 p0_0
0.000 0.749 1.000 setrgbcolor
fill
grestore
gsave
334.8 279 54 45 clipbox
185.688 173.448 p0_0
0.000 0.749 1.000 setrgbcolor
fill
grestore
gsave
334.8 279 54 45 clipbox
186.432 185.501 p0_0
0.000 0.749 1.000 setrgbcolor
fill
grestore
gsave
334.8 279 54 45 clipbox
187.176 163.442 p0_0
0.000 0.749 1.000 setrgbcolor
fill
grestore
gsave
334.8 279 54 45 clipbox
187.92 189.573 p0_0
0.000 0.749 1.000 setrgbcolor
fill
grestore
gsave
334.8 279 54 45 clipbox
188.664 175.931 p0_0
0.000 0.749 1.000 setrgbcolor
fill
grestore
gsave
334.8 279 54 45 clipbox
189.408 204.803 p0_0
0.000 0.749 1.000 setrgbcolor
fill
grestore
gsave
334.8 279 54 45 clipbox
190.152 196.733 p0_0
0.000 0.749 1.000 setrgbcolor
fill
grestore
gsave
334.8 279 54 45 clipbox
190.896 174.422 p0_0
0.000 0.749 1.000 setrgbcolor
fill
grestore
gsave
334.8 279 54 45 clipbox
191.64 191.789 p0_0
0.000 0.749 1.000 setrgbcolor
fill
grestore
gsave
334.8 279 54 45 clipbox
192.384 180.735 p0_0
0.000 0.749 1.000 setrgbcolor
fill
grestore
gsave
334.8 279 54 45 clipbox
193.128 200.844 p0_0
0.000 0.749 1.000 setrgbcolor
fill
grestore
gsave
334.8 279 54 45 clipbox
193.872 169.819 p0_0
0.000 0.749 1.000 setrgbcolor
fill
grestore
gsave
334.8 279 54 45 clipbox
194.616 209.708 p0_0
0.000 0.749 1.000 setrgbcolor
fill
grestore
gsave
334.8 279 54 45 clipbox
195.36 164.409 p0_0
0.000 0.749 1.000 setrgbcolor
fill
grestore
gsave
334.8 279 54 45 clipbox
196.104 184.33 p0_0
0.000 0.749 1.000 setrgbcolor
fill
grestore
gsave
334.8 279 54 45 clipbox
196.848 161.641 p0_0
0.000 0.749 1.000 setrgbcolor
fill
grestore
gsave
334.8 279 54 45 clipbox
197.592 153.099 p0_0
0.000 0.749 1.000 setrgbcolor
fill
grestore
gsave
334.8 279 54 45 clipbox
198.336 153.021 p0_0
0.000 0.749 1.000 setrgbcolor
fill
grestore
gsave
334.8 279 54 45 clipbox
199.08 169.938 p0_0
0.000 0.749 1.000 setrgbcolor
fill
grestore
gsave
334.8 279 54 45 clipbox
199.824 178.284 p0_0
0.000 0.749 1.000 setrgbcolor
fill
grestore
gsave
334.8 279 54 45 clipbox
200.568 175.239 p0_0
0.000 0.749 1.000 setrgbcolor
fill
grestore
gsave
334.8 279 54 45 clipbox
201.312 180.672 p0_0
0.000 0.749 1.000 setrgbcolor
fill
grestore
gsave
334.8 279 54 45 clipbox
202.056 177.545 p0_0
0.000 0.749 1.000 setrgbcolor
fill
grestore
gsave
334.8 279 54 45 clipbox
202.8 194.249 p0_0
0.000 0.749 1.000 setrgbcolor
fill
grestore
gsave
334.8 279 54 45 clipbox
203.544 182.521 p0_0
0.000 0.749 1.000 setrgbcolor
fill
grestore
gsave
334.8 279 54 45 clipbox
204.288 165.08 p0_0
0.000 0.749 1.000 setrgbcolor
fill
grestore
gsave
334.8 279 54 45 clipbox
205.032 198.691 p0_0
0.000 0.749 1.000 setrgbcolor
fill
grestore
gsave
334.8 279 54 45 clipbox
205.776 155.622 p0_0
0.000 0.749 1.000 setrgbcolor
fill
grestore
gsave
334.8 279 54 45 clipbox
206.52 186.32 p0_0
0.000 0.749 1.000 setrgbcolor
fill
grestore
gsave
334.8 279 54 45 clipbox
207.264 160.2 p0_0
0.000 0.749 1.000 setrgbcolor
fill
grestore
gsave
334.8 279 54 45 clipbox
208.008 199.33 p0_0
0.000 0.749 1.000 setrgbcolor
fill
grestore
gsave
334.8 279 54 45 clipbox
208.752 190.174 p0_0
0.000 0.749 1.000 setrgbcolor
fill
grestore
gsave
334.8 279 54 45 clipbox
209.496 180.979 p0_0
0.000 0.749 1.000 setrgbcolor
fill
grestore
gsave
334.8 279 54 45 clipbox
210.24 174.585 p0_0
0.000 0.749 1.000 setrgbcolor
fill
grestore
gsave
334.8 279 54 45 clipbox
210.984 182.346 p0_0
0.000 0.749 1.000 setrgbcolor
fill
grestore
gsave
334.8 279 54 45 clipbox
211.728 192.905 p0_0
0.000 0.749 1.000 setrgbcolor
fill
grestore
gsave
334.8 279 54 45 clipbox
212.472 166.528 p0_0
0.000 0.749 1.000 setrgbcolor
fill
grestore
gsave
334.8 279 54 45 clipbox
213.216 188.374 p0_0
0.000 0.749 1.000 setrgbcolor
fill
grestore
gsave
334.8 279 54 45 clipbox
213.96 170.443 p0_0
0.000 0.749 1.000 setrgbcolor
fill
grestore
gsave
334.8 279 54 45 clipbox
214.704 195.055 p0_0
0.000 0.749 1.000 setrgbcolor
fill
grestore
gsave
334.8 279 54 45 clipbox
215.448 165.712 p0_0
0.000 0.749 1.000 setrgbcolor
fill
grestore
gsave
334.8 279 54 45 clipbox
216.192 178.899 p0_0
0.000 0.749 1.000 setrgbcolor
fill
grestore
gsave
334.8 279 54 45 clipbox
216.936 169.352 p0_0
0.000 0.749 1.000 setrgbcolor
fill
grestore
gsave
334.8 279 54 45 clipbox
217.68 142.735 p0_0
0.000 0.749 1.000 setrgbcolor
fill
grestore
gsave
334.8 279 54 45 clipbox
218.424 175.696 p0_0
0.000 0.749 1.000 setrgbcolor
fill
grestore
gsave
334.8 279 54 45 clipbox
219.168 168.888 p0_0
0.000 0.749 1.000 setrgbcolor
fill
grestore
gsave
334.8 279 54 45 clipbox
219.912 159.201 p0_0
0.000 0.749 1.000 setrgbcolor
fill
grestore
gsave
334.8 279 54 45 clipbox
220.656 172.201 p0_0
0.000 0.749 1.000 setrgbcolor
fill
grestore
gsave
334.8 279 54 45 clipbox
221.4 156.778 p0_0
0.000 0.749 1.000 setrgbcolor
fill
grestore
gsave
334.8 279 54 45 clipbox
222.144 161.198 p0_0
0.000 0.749 1.000 setrgbcolor
fill
grestore
gsave
334.8 279 54 45 clipbox
222.888 157.067 p0_0
0.000 0.749 1.000 setrgbcolor
fill
grestore
gsave
334.8 279 54 45 clipbox
223.632 172.771 p0_0
0.000 0.749 1.000 setrgbcolor
fill
grestore
gsave
334.8 279 54 45 clipbox
224.376 162.908 p0_0
0.000 0.749 1.000 setrgbcolor
fill
grestore
gsave
334.8 279 54 45 clipbox
225.12 181.387 p0_0
0.000 0.749 1.000 setrgbcolor
fill
grestore
gsave
334.8 279 54 45 clipbox
225.864 171.464 p0_0
0.000 0.749 1.000 setrgbcolor
fill
grestore
gsave
334.8 279 54 45 clipbox
226.608 170.022 p0_0
0.000 0.749 1.000 setrgbcolor
fill
grestore
gsave
334.8 279 54 45 clipbox
227.352 143.011 p0_0
0.000 0.749 1.000 setrgbcolor
fill
grestore
gsave
334.8 279 54 45 clipbox
228.096 169.894 p0_0
0.000 0.749 1.000 setrgbcolor
fill
grestore
gsave
334.8 279 54 45 clipbox
228.84 159.855 p0_0
0.000 0.749 1.000 setrgbcolor
fill
grestore
gsave
334.8 279 54 45 clipbox
229.584 181.007 p0_0
0.000 0.749 1.000 setrgbcolor
fill
grestore
gsave
334.8 279 54 45 clipbox
230.328 162.394 p0_0
0.000 0.749 1.000 setrgbcolor
fill
grestore
gsave
334.8 279 54 45 clipbox
231.072 157.946 p0_0
0.000 0.749 1.000 setrgbcolor
fill
grestore
gsave
334.8 279 54 45 clipbox
231.816 193.207 p0_0
0.000 0.749 1.000 setrgbcolor
fill
grestore
gsave
334.8 279 54 45 clipbox
232.56 174.512 p0_0
0.000 0.749 1.000 setrgbcolor
fill
grestore
gsave
334.8 279 54 45 clipbox
233.304 164.309 p0_0
0.000 0.749 1.000 setrgbcolor
fill
grestore
gsave
334.8 279 54 45 clipbox
234.048 159.752 p0_0
0.000 0.749 1.000 setrgbcolor
fill
grestore
gsave
334.8 279 54 45 clipbox
234.792 183.553 p0_0
0.000 0.749 1.000 setrgbcolor
fill
grestore
gsave
334.8 279 54 45 clipbox
235.536 184.618 p0_0
0.000 0.749 1.000 setrgbcolor
fill
grestore
gsave
334.8 279 54 45 clipbox
236.28 197.011 p0_0
0.000 0.749 1.000 setrgbcolor
fill
grestore
gsave
334.8 279 54 45 clipbox
237.024 138.43 p0_0
0.000 0.749 1.000 setrgbcolor
fill
grestore
gsave
334.8 279 54 45 clipbox
237.768 159.293 p0_0
0.000 0.749 1.000 setrgbcolor
fill
grestore
gsave
334.8 279 54 45 clipbox
238.512 146.064 p0_0
0.000 0.749 1.000 setrgbcolor
fill
grestore
gsave
334.8 279 54 45 clipbox
239.256 166.877 p0_0
0.000 0.749 1.000 setrgbcolor
fill
grestore
gsave
334.8 279 54 45 clipbox
240 130.898 p0_0
0.000 0.749 1.000 setrgbcolor
fill
grestore
gsave
334.8 279 54 45 clipbox
240.744 157.335 p0_0
0.000 0.749 1.000 setrgbcolor
fill
grestore
gsave
334.8 279 54 45 clipbox
241.488 172.403 p0_0
0.000 0.749 1.000 setrgbcolor
fill
grestore
gsave
334.8 279 54 45 clipbox
242.232 119.324 p0_0
0.000 0.749 1.000 setrgbcolor
fill
grestore
gsave
334.8 279 54 45 clipbox
242.976 157.045 p0_0
0.000 0.749 1.000 setrgbcolor
fill
grestore
gsave
334.8 279 54 45 clipbox
243.72 149.332 p0_0
0.000 0.749 1.000 setrgbcolor
fill
grestore
gsave
334.8 279 54 45 clipbox
244.464 135.914 p0_0
0.000 0.749 1.000 setrgbcolor
fill
grestore
gsave
334.8 279 54 45 clipbox
245.208 142.345 p0_0
0.000 0.749 1.000 setrgbcolor
fill
grestore
gsave
334.8 279 54 45 clipbox
245.952 145.919 p0_0
0.000 0.749 1.000 setrgbcolor
fill
grestore
gsave
334.8 279 54 45 clipbox
246.696 149.462 p0_0
0.000 0.749 1.000 setrgbcolor
fill
grestore
gsave
334.8 279 54 45 clipbox
247.44 127.443 p0_0
0.000 0.749 1.000 setrgbcolor
fill
grestore
gsave
334.8 279 54 45 clipbox
248.184 173.526 p0_0
0.000 0.749 1.000 setrgbcolor
fill
grestore
gsave
334.8 279 54 45 clipbox
248.928 140.11 p0_0
0.000 0.749 1.000 setrgbcolor
fill
grestore
gsave
334.8 279 54 45 clipbox
249.672 171.948 p0_0
0.000 0.749 1.000 setrgbcolor
fill
grestore
gsave
334.8 279 54 45 clipbox
250.416 175.391 p0_0
0.000 0.749 1.000 setrgbcolor
fill
grestore
gsave
334.8 279 54 45 clipbox
251.16 170.295 p0_0
0.000 0.749 1.000 setrgbcolor
fill
grestore
gsave
334.8 279 54 45 clipbox
251.904 139.639 p0_0
0.000 0.749 1.000 setrgbcolor
fill
grestore
gsave
334.8 279 54 45 clipbox
252.648 177.067 p0_0
0.000 0.749 1.000 setrgbcolor
fill
grestore
gsave
334.8 279 54 45 clipbox
253.392 188.947 p0_0
0.000 0.749 1.000 setrgbcolor
fill
grestore
gsave
334.8 279 54 45 clipbox
254.136 144.028 p0_0
0.000 0.749 1.000 setrgbcolor
fill
grestore
gsave
334.8 279 54 45 clipbox
254.88 192.76 p0_0
0.000 0.749 1.000 setrgbcolor
fill
grestore
gsave
334.8 279 54 45 clipbox
255.624 153.486 p0_0
0.000 0.749 1.000 setrgbcolor
fill
grestore
gsave
334.8 279 54 45 clipbox
256.368 173.784 p0_0
0.000 0.749 1.000 setrgbcolor
fill
grestore
gsave
334.8 279 54 45 clipbox
257.112 191.238 p0_0
0.000 0.749 1.000 setrgbcolor
fill
grestore
gsave
334.8 279 54 45 clipbox
257.856 174.606 p0_0
0.000 0.749 1.000 setrgbcolor
fill
grestore
gsave
334.8 279 54 45 clipbox
258.6 143.771 p0_0
0.000 0.749 1.000 setrgbcolor
fill
grestore
gsave
334.8 279 54 45 clipbox
259.344 155.485 p0_0
0.000 0.749 1.000 setrgbcolor
fill
grestore
gsave
334.8 279 54 45 clipbox
260.088 167.18 p0_0
0.000 0.749 1.000 setrgbcolor
fill
grestore
gsave
334.8 279 54 45 clipbox
260.832 141.962 p0_0
0.000 0.749 1.000 setrgbcolor
fill
grestore
gsave
334.8 279 54 45 clipbox
261.576 153.621 p0_0
0.000 0.749 1.000 setrgbcolor
fill
grestore
gsave
334.8 279 54 45 clipbox
262.32 145.396 p0_0
0.000 0.749 1.000 setrgbcolor
fill
grestore
gsave
334.8 279 54 45 clipbox
263.064 157.017 p0_0
0.000 0.749 1.000 setrgbcolor
fill
grestore
gsave
334.8 279 54 45 clipbox
263.808 148.756 p0_0
0.000 0.749 1.000 setrgbcolor
fill
grestore
gsave
334.8 279 54 45 clipbox
264.552 177.38 p0_0
0.000 0.749 1.000 setrgbcolor
fill
grestore
gsave
334.8 279 54 45 clipbox
265.296 140.7 p0_0
0.000 0.749 1.000 setrgbcolor
fill
grestore
gsave
334.8 279 54 45 clipbox
266.04 160.77 p0_0
0.000 0.749 1.000 setrgbcolor
fill
grestore
gsave
334.8 279 54 45 clipbox
266.784 158.113 p0_0
0.000 0.749 1.000 setrgbcolor
fill
grestore
gsave
334.8 279 54 45 clipbox
267.528 158.274 p0_0
0.000 0.749 1.000 setrgbcolor
fill
grestore
gsave
334.8 279 54 45 clipbox
268.272 181.129 p0_0
0.000 0.749 1.000 setrgbcolor
fill
grestore
gsave
334.8 279 54 45 clipbox
269.016 147.211 p0_0
0.000 0.749 1.000 setrgbcolor
fill
grestore
gsave
334.8 279 54 45 clipbox
269.76 161.513 p0_0
0.000 0.749 1.000 setrgbcolor
fill
grestore
gsave
334.8 279 54 45 clipbox
270.504 138.908 p0_0
0.000 0.749 1.000 setrgbcolor
fill
grestore
gsave
334.8 279 54 45 clipbox
271.248 156.015 p0_0
0.000 0.749 1.000 setrgbcolor
fill
grestore
gsave
334.8 279 54 45 clipbox
271.992 167.442 p0_0
0.000 0.749 1.000 setrgbcolor
fill
grestore
gsave
334.8 279 54 45 clipbox
272.736 164.653 p0_0
0.000 0.749 1.000 setrgbcolor
fill
grestore
gsave
334.8 279 54 45 clipbox
273.48 159.011 p0_0
0.000 0.749 1.000 setrgbcolor
fill
grestore
gsave
334.8 279 54 45 clipbox
274.224 144.844 p0_0
0.000 0.749 1.000 setrgbcolor
fill
grestore
gsave
334.8 279 54 45 clipbox
274.968 150.517 p0_0
0.000 0.749 1.000 setrgbcolor
fill
grestore
gsave
334.8 279 54 45 clipbox
275.712 150.511 p0_0
0.000 0.749 1.000 setrgbcolor
fill
grestore
gsave
334.8 279 54 45 clipbox
276.456 193.055 p0_0
0.000 0.749 1.000 setrgbcolor
fill
grestore
gsave
334.8 279 54 45 clipbox
277.2 170.309 p0_0
0.000 0.749 1.000 setrgbcolor
fill
grestore
gsave
334.8 279 54 45 clipbox
277.944 158.903 p0_0
0.000 0.749 1.000 setrgbcolor
fill
grestore
gsave
334.8 279 54 45 clipbox
278.688 153.153 p0_0
0.000 0.749 1.000 setrgbcolor
fill
grestore
gsave
334.8 279 54 45 clipbox
279.432 170.101 p0_0
0.000 0.749 1.000 setrgbcolor
fill
grestore
gsave
334.8 279 54 45 clipbox
280.176 155.805 p0_0
0.000 0.749 1.000 setrgbcolor
fill
grestore
gsave
334.8 279 54 45 clipbox
280.92 175.559 p0_0
0.000 0.749 1.000 setrgbcolor
fill
grestore
gsave
334.8 279 54 45 clipbox
281.664 141.37 p0_0
0.000 0.749 1.000 setrgbcolor
fill
grestore
gsave
334.8 279 54 45 clipbox
282.408 144.068 p0_0
0.000 0.749 1.000 setrgbcolor
fill
grestore
gsave
334.8 279 54 45 clipbox
283.152 172.29 p0_0
0.000 0.749 1.000 setrgbcolor
fill
grestore
gsave
334.8 279 54 45 clipbox
283.896 140.904 p0_0
0.000 0.749 1.000 setrgbcolor
fill
grestore
gsave
334.8 279 54 45 clipbox
284.64 132.206 p0_0
0.000 0.749 1.000 setrgbcolor
fill
grestore
gsave
334.8 279 54 45 clipbox
285.384 129.165 p0_0
0.000 0.749 1.000 setrgbcolor
fill
grestore
gsave
334.8 279 54 45 clipbox
286.128 163.006 p0_0
0.000 0.749 1.000 setrgbcolor
fill
grestore
gsave
334.8 279 54 45 clipbox
286.872 142.921 p0_0
0.000 0.749 1.000 setrgbcolor
fill
grestore
gsave
334.8 279 54 45 clipbox
287.616 171.061 p0_0
0.000 0.749 1.000 setrgbcolor
fill
grestore
gsave
334.8 279 54 45 clipbox
288.36 170.805 p0_0
0.000 0.749 1.000 setrgbcolor
fill
grestore
gsave
334.8 279 54 45 clipbox
289.104 139.325 p0_0
0.000 0.749 1.000 setrgbcolor
fill
grestore
gsave
334.8 279 54 45 clipbox
289.848 170.262 p0_0
0.000 0.749 1.000 setrgbcolor
fill
grestore
gsave
334.8 279 54 45 clipbox
290.592 150.112 p0_0
0.000 0.749 1.000 setrgbcolor
fill
grestore
gsave
334.8 279 54 45 clipbox
291.336 163.996 p0_0
0.000 0.749 1.000 setrgbcolor
fill
grestore
gsave
334.8 279 54 45 clipbox
292.08 152.329 p0_0
0.000 0.749 1.000 setrgbcolor
fill
grestore
gsave
334.8 279 54 45 clipbox
292.824 174.707 p0_0
0.000 0.749 1.000 setrgbcolor
fill
grestore
gsave
334.8 279 54 45 clipbox
293.568 140.306 p0_0
0.000 0.749 1.000 setrgbcolor
fill
grestore
gsave
334.8 279 54 45 clipbox
294.312 145.63 p0_0
0.000 0.749 1.000 setrgbcolor
fill
grestore
gsave
334.8 279 54 45 clipbox
295.056 173.644 p0_0
0.000 0.749 1.000 setrgbcolor
fill
grestore
gsave
334.8 279 54 45 clipbox
295.8 139.206 p0_0
0.000 0.749 1.000 setrgbcolor
fill
grestore
gsave
334.8 279 54 45 clipbox
296.544 178.55 p0_0
0.000 0.749 1.000 setrgbcolor
fill
grestore
gsave
334.8 279 54 45 clipbox
297.288 152.608 p0_0
0.000 0.749 1.000 setrgbcolor
fill
grestore
gsave
334.8 279 54 45 clipbox
298.032 177.738 p0_0
0.000 0.749 1.000 setrgbcolor
fill
grestore
gsave
334.8 279 54 45 clipbox
298.776 171.635 p0_0
0.000 0.749 1.000 setrgbcolor
fill
grestore
gsave
334.8 279 54 45 clipbox
299.52 159.849 p0_0
0.000 0.749 1.000 setrgbcolor
fill
grestore
gsave
334.8 279 54 45 clipbox
300.264 119.668 p0_0
0.000 0.749 1.000 setrgbcolor
fill
grestore
gsave
334.8 279 54 45 clipbox
301.008 144.751 p0_0
0.000 0.749 1.000 setrgbcolor
fill
grestore
gsave
334.8 279 54 45 clipbox
301.752 181.179 p0_0
0.000 0.749 1.000 setrgbcolor
fill
grestore
gsave
334.8 279 54 45 clipbox
302.496 155.156 p0_0
0.000 0.749 1.000 setrgbcolor
fill
grestore
gsave
334.8 279 54 45 clipbox
303.24 146.148 p0_0
0.000 0.749 1.000 setrgbcolor
fill
grestore
gsave
334.8 279 54 45 clipbox
303.984 120.103 p0_0
0.000 0.749 1.000 setrgbcolor
fill
grestore
gsave
334.8 279 54 45 clipbox
304.728 156.478 p0_0
0.000 0.749 1.000 setrgbcolor
fill
grestore
gsave
334.8 279 54 45 clipbox
305.472 153.121 p0_0
0.000 0.749 1.000 setrgbcolor
fill
grestore
gsave
334.8 279 54 45 clipbox
306.216 161.1 p0_0
0.000 0.749 1.000 setrgbcolor
fill
grestore
gsave
334.8 279 54 45 clipbox
306.96 160.549 p0_0
0.000 0.749 1.000 setrgbcolor
fill
grestore
gsave
334.8 279 54 45 clipbox
307.704 151.478 p0_0
0.000 0.749 1.000 setrgbcolor
fill
grestore
gsave
334.8 279 54 45 clipbox
308.448 165.108 p0_0
0.000 0.749 1.000 setrgbcolor
fill
grestore
gsave
334.8 279 54 45 clipbox
309.192 144.661 p0_0
0.000 0.749 1.000 setrgbcolor
fill
grestore
gsave
334.8 279 54 45 clipbox
309.936 161.096 p0_0
0.000 0.749 1.000 setrgbcolor
fill
grestore
gsave
334.8 279 54 45 clipbox
310.68 137.793 p0_0
0.000 0.749 1.000 setrgbcolor
fill
grestore
gsave
334.8 279 54 45 clipbox
311.424 168.41 p0_0
0.000 0.749 1.000 setrgbcolor
fill
grestore
gsave
334.8 279 54 45 clipbox
312.168 162.114 p0_0
0.000 0.749 1.000 setrgbcolor
fill
grestore
gsave
334.8 279 54 45 clipbox
312.912 170.001 p0_0
0.000 0.749 1.000 setrgbcolor
fill
grestore
gsave
334.8 279 54 45 clipbox
313.656 152.33 p0_0
0.000 0.749 1.000 setrgbcolor
fill
grestore
gsave
334.8 279 54 45 clipbox
314.4 163.033 p0_0
0.000 0.749 1.000 setrgbcolor
fill
grestore
gsave
334.8 279 54 45 clipbox
315.144 142.516 p0_0
0.000 0.749 1.000 setrgbcolor
fill
grestore
gsave
334.8 279 54 45 clipbox
315.888 175.902 p0_0
0.000 0.749 1.000 setrgbcolor
fill
grestore
gsave
334.8 279 54 45 clipbox
316.632 186.575 p0_0
0.000 0.749 1.000 setrgbcolor
fill
grestore
gsave
334.8 279 54 45 clipbox
317.376 174.539 p0_0
0.000 0.749 1.000 setrgbcolor
fill
grestore
gsave
334.8 279 54 45 clipbox
318.12 176.686 p0_0
0.000 0.749 1.000 setrgbcolor
fill
grestore
gsave
334.8 279 54 45 clipbox
318.864 136.247 p0_0
0.000 0.749 1.000 setrgbcolor
fill
grestore
gsave
334.8 279 54 45 clipbox
319.608 183.777 p0_0
0.000 0.749 1.000 setrgbcolor
fill
grestore
gsave
334.8 279 54 45 clipbox
320.352 134.811 p0_0
0.000 0.749 1.000 setrgbcolor
fill
grestore
gsave
334.8 279 54 45 clipbox
321.096 179.486 p0_0
0.000 0.749 1.000 setrgbcolor
fill
grestore
gsave
334.8 279 54 45 clipbox
321.84 144.684 p0_0
0.000 0.749 1.000 setrgbcolor
fill
grestore
gsave
334.8 279 54 45 clipbox
322.584 158.131 p0_0
0.000 0.749 1.000 setrgbcolor
fill
grestore
gsave
334.8 279 54 45 clipbox
323.328 154.531 p0_0
0.000 0.749 1.000 setrgbcolor
fill
grestore
gsave
334.8 279 54 45 clipbox
324.072 173.633 p0_0
0.000 0.749 1.000 setrgbcolor
fill
grestore
gsave
334.8 279 54 45 clipbox
324.816 178.535 p0_0
0.000 0.749 1.000 setrgbcolor
fill
grestore
gsave
334.8 279 54 45 clipbox
325.56 155.044 p0_0
0.000 0.749 1.000 setrgbcolor
fill
grestore
gsave
334.8 279 54 45 clipbox
326.304 159.929 p0_0
0.000 0.749 1.000 setrgbcolor
fill
grestore
gsave
334.8 279 54 45 clipbox
327.048 142.095 p0_0
0.000 0.749 1.000 setrgbcolor
fill
grestore
gsave
334.8 279 54 45 clipbox
327.792 166.826 p0_0
0.000 0.749 1.000 setrgbcolor
fill
grestore
gsave
334.8 279 54 45 clipbox
328.536 166.003 p0_0
0.000 0.749 1.000 setrgbcolor
fill
grestore
gsave
334.8 279 54 45 clipbox
329.28 148.153 p0_0
0.000 0.749 1.000 setrgbcolor
fill
grestore
gsave
334.8 279 54 45 clipbox
330.024 167.186 p0_0
0.000 0.749 1.000 setrgbcolor
fill
grestore
gsave
334.8 279 54 45 clipbox
330.768 163.502 p0_0
0.000 0.749 1.000 setrgbcolor
fill
grestore
gsave
334.8 279 54 45 clipbox
331.512 171.165 p0_0
0.000 0.749 1.000 setrgbcolor
fill
grestore
gsave
334.8 279 54 45 clipbox
332.256 161.791 p0_0
0.000 0.749 1.000 setrgbcolor
fill
grestore
gsave
334.8 279 54 45 clipbox
333 155.246 p0_0
0.000 0.749 1.000 setrgbcolor
fill
grestore
gsave
334.8 279 54 45 clipbox
333.744 157.212 p0_0
0.000 0.749 1.000 setrgbcolor
fill
grestore
gsave
334.8 279 54 45 clipbox
334.488 147.814 p0_0
0.000 0.749 1.000 setrgbcolor
fill
grestore
gsave
334.8 279 54 45 clipbox
335.232 138.409 p0_0
0.000 0.749 1.000 setrgbcolor
fill
grestore
gsave
334.8 279 54 45 clipbox
335.976 188.591 p0_0
0.000 0.749 1.000 setrgbcolor
fill
grestore
gsave
334.8 279 54 45 clipbox
336.72 167.814 p0_0
0.000 0.749 1.000 setrgbcolor
fill
grestore
gsave
334.8 279 54 45 clipbox
337.464 164.068 p0_0
0.000 0.749 1.000 setrgbcolor
fill
grestore
gsave
334.8 279 54 45 clipbox
338.208 180.17 p0_0
0.000 0.749 1.000 setrgbcolor
fill
grestore
gsave
334.8 279 54 45 clipbox
338.952 162.217 p0_0
0.000 0.749 1.000 setrgbcolor
fill
grestore
gsave
334.8 279 54 45 clipbox
339.696 192.496 p0_0
0.000 0.749 1.000 setrgbcolor
fill
grestore
gsave
334.8 279 54 45 clipbox
340.44 157.49 p0_0
0.000 0.749 1.000 setrgbcolor
fill
grestore
gsave
334.8 279 54 45 clipbox
341.184 187.763 p0_0
0.000 0.749 1.000 setrgbcolor
fill
grestore
gsave
334.8 279 54 45 clipbox
341.928 169.771 p0_0
0.000 0.749 1.000 setrgbcolor
fill
grestore
gsave
334.8 279 54 45 clipbox
342.672 163.128 p0_0
0.000 0.749 1.000 setrgbcolor
fill
grestore
gsave
334.8 279 54 45 clipbox
343.416 179.187 p0_0
0.000 0.749 1.000 setrgbcolor
fill
grestore
gsave
334.8 279 54 45 clipbox
344.16 172.529 p0_0
0.000 0.749 1.000 setrgbcolor
fill
grestore
gsave
334.8 279 54 45 clipbox
344.904 137.48 p0_0
0.000 0.749 1.000 setrgbcolor
fill
grestore
gsave
334.8 279 54 45 clipbox
345.648 176.219 p0_0
0.000 0.749 1.000 setrgbcolor
fill
grestore
gsave
334.8 279 54 45 clipbox
346.392 163.867 p0_0
0.000 0.749 1.000 setrgbcolor
fill
grestore
gsave
334.8 279 54 45 clipbox
347.136 185.565 p0_0
0.000 0.749 1.000 setrgbcolor
fill
grestore
gsave
334.8 279 54 45 clipbox
347.88 170.361 p0_0
0.000 0.749 1.000 setrgbcolor
fill
grestore
gsave
334.8 279 54 45 clipbox
348.624 152.306 p0_0
0.000 0.749 1.000 setrgbcolor
fill
grestore
gsave
334.8 279 54 45 clipbox
349.368 182.493 p0_0
0.000 0.749 1.000 setrgbcolor
fill
grestore
gsave
334.8 279 54 45 clipbox
350.112 161.596 p0_0
0.000 0.749 1.000 setrgbcolor
fill
grestore
gsave
334.8 279 54 45 clipbox
350.856 191.769 p0_0
0.000 0.749 1.000 setrgbcolor
fill
grestore
gsave
334.8 279 54 45 clipbox
351.6 153.823 p0_0
0.000 0.749 1.000 setrgbcolor
fill
grestore
gsave
334.8 279 54 45 clipbox
352.344 161.28 p0_0
0.000 0.749 1.000 setrgbcolor
fill
grestore
gsave
334.8 279 54 45 clipbox
353.088 151.704 p0_0
0.000 0.749 1.000 setrgbcolor
fill
grestore
gsave
334.8 279 54 45 clipbox
353.832 159.15 p0_0
0.000 0.749 1.000 setrgbcolor
fill
grestore
gsave
334.8 279 54 45 clipbox
354.576 197.808 p0_0
0.000 0.749 1.000 setrgbcolor
fill
grestore
gsave
334.8 279 54 45 clipbox
355.32 165.511 p0_0
0.000 0.749 1.000 setrgbcolor
fill
grestore
gsave
334.8 279 54 45 clipbox
356.064 172.937 p0_0
0.000 0.749 1.000 setrgbcolor
fill
grestore
gsave
334.8 279 54 45 clipbox
356.808 174.674 p0_0
0.000 0.749 1.000 setrgbcolor
fill
grestore
gsave
334.8 279 54 45 clipbox
357.552 193.442 p0_0
0.000 0.749 1.000 setrgbcolor
fill
grestore
gsave
334.8 279 54 45 clipbox
358.296 198.013 p0_0
0.000 0.749 1.000 setrgbcolor
fill
grestore
gsave
334.8 279 54 45 clipbox
359.04 199.731 p0_0
0.000 0.749 1.000 setrgbcolor
fill
grestore
gsave
334.8 279 54 45 clipbox
359.784 167.397 p0_0
0.000 0.749 1.000 setrgbcolor
fill
grestore
gsave
334.8 279 54 45 clipbox
360.528 166.267 p0_0
0.000 0.749 1.000 setrgbcolor
fill
grestore
gsave
334.8 279 54 45 clipbox
361.272 207.714 p0_0
0.000 0.749 1.000 setrgbcolor
fill
grestore
gsave
334.8 279 54 45 clipbox
362.016 183.871 p0_0
0.000 0.749 1.000 setrgbcolor
fill
grestore
gsave
334.8 279 54 45 clipbox
362.76 188.396 p0_0
0.000 0.749 1.000 setrgbcolor
fill
grestore
gsave
334.8 279 54 45 clipbox
363.504 158.867 p0_0
0.000 0.749 1.000 setrgbcolor
fill
grestore
gsave
334.8 279 54 45 clipbox
364.248 183.254 p0_0
0.000 0.749 1.000 setrgbcolor
fill
grestore
gsave
334.8 279 54 45 clipbox
364.992 176.415 p0_0
0.000 0.749 1.000 setrgbcolor
fill
grestore
gsave
334.8 279 54 45 clipbox
365.736 183.761 p0_0
0.000 0.749 1.000 setrgbcolor
fill
grestore
gsave
334.8 279 54 45 clipbox
366.48 151.373 p0_0
0.000 0.749 1.000 setrgbcolor
fill
grestore
gsave
334.8 279 54 45 clipbox
367.224 172.9 p0_0
0.000 0.749 1.000 setrgbcolor
fill
grestore
gsave
334.8 279 54 45 clipbox
367.968 174.546 p0_0
0.000 0.749 1.000 setrgbcolor
fill
grestore
gsave
334.8 279 54 45 clipbox
368.712 170.525 p0_0
0.000 0.749 1.000 setrgbcolor
fill
grestore
gsave
334.8 279 54 45 clipbox
369.456 231.765 p0_0
0.000 0.749 1.000 setrgbcolor
fill
grestore
gsave
334.8 279 54 45 clipbox
370.2 151.098 p0_0
0.000 0.749 1.000 setrgbcolor
fill
grestore
gsave
334.8 279 54 45 clipbox
370.944 206.654 p0_0
0.000 0.749 1.000 setrgbcolor
fill
grestore
gsave
334.8 279 54 45 clipbox
371.688 182.736 p0_0
0.000 0.749 1.000 setrgbcolor
fill
grestore
gsave
334.8 279 54 45 clipbox
372.432 150.292 p0_0
0.000 0.749 1.000 setrgbcolor
fill
grestore
gsave
334.8 279 54 45 clipbox
373.176 197.321 p0_0
0.000 0.749 1.000 setrgbcolor
fill
grestore
gsave
334.8 279 54 45 clipbox
373.92 156.358 p0_0
0.000 0.749 1.000 setrgbcolor
fill
grestore
gsave
334.8 279 54 45 clipbox
374.664 166.474 p0_0
0.000 0.749 1.000 setrgbcolor
fill
grestore
gsave
334.8 279 54 45 clipbox
375.408 156.72 p0_0
0.000 0.749 1.000 setrgbcolor
fill
grestore
gsave
334.8 279 54 45 clipbox
376.152 186.69 p0_0
0.000 0.749 1.000 setrgbcolor
fill
grestore
gsave
334.8 279 54 45 clipbox
376.896 188.28 p0_0
0.000 0.749 1.000 setrgbcolor
fill
grestore
gsave
334.8 279 54 45 clipbox
377.64 187.02 p0_0
0.000 0.749 1.000 setrgbcolor
fill
grestore
gsave
334.8 279 54 45 clipbox
378.384 191.436 p0_0
0.000 0.749 1.000 setrgbcolor
fill
grestore
gsave
334.8 279 54 45 clipbox
379.128 161.79 p0_0
0.000 0.749 1.000 setrgbcolor
fill
grestore
gsave
334.8 279 54 45 clipbox
379.872 200.253 p0_0
0.000 0.749 1.000 setrgbcolor
fill
grestore
gsave
334.8 279 54 45 clipbox
380.616 181.944 p0_0
0.000 0.749 1.000 setrgbcolor
fill
grestore
gsave
334.8 279 54 45 clipbox
381.36 194.858 p0_0
0.000 0.749 1.000 setrgbcolor
fill
grestore
gsave
334.8 279 54 45 clipbox
382.104 165.183 p0_0
0.000 0.749 1.000 setrgbcolor
fill
grestore
gsave
334.8 279 54 45 clipbox
382.848 195.116 p0_0
0.000 0.749 1.000 setrgbcolor
fill
grestore
gsave
334.8 279 54 45 clipbox
383.592 185.304 p0_0
0.000 0.749 1.000 setrgbcolor
fill
grestore
gsave
334.8 279 54 45 clipbox
384.336 209.545 p0_0
0.000 0.749 1.000 setrgbcolor
fill
grestore
gsave
334.8 279 54 45 clipbox
385.08 159.985 p0_0
0.000 0.749 1.000 setrgbcolor
fill
grestore
gsave
334.8 279 54 45 clipbox
385.824 170.023 p0_0
0.000 0.749 1.000 setrgbcolor
fill
grestore
gsave
334.8 279 54 45 clipbox
386.568 182.903 p0_0
0.000 0.749 1.000 setrgbcolor
fill
grestore
gsave
334.8 279 54 45 clipbox
387.312 187.259 p0_0
0.000 0.749 1.000 setrgbcolor
fill
grestore
gsave
334.8 279 54 45 clipbox
388.056 200.119 p0_0
0.000 0.749 1.000 setrgbcolor
fill
grestore
gsave
334.8 279 54 45 clipbox
388.8 181.755 p0_0
0.000 0.749 1.000 setrgbcolor
fill
grestore
gsave
334.8 279 54 45 clipbox
389.544 180.423 p0_0
0.000 0.749 1.000 setrgbcolor
fill
grestore
gsave
334.8 279 54 45 clipbox
390.288 167.731 p0_0
0.000 0.749 1.000 setrgbcolor
fill
grestore
gsave
334.8 279 54 45 clipbox
391.032 197.601 p0_0
0.000 0.749 1.000 setrgbcolor
fill
grestore
gsave
334.8 279 54 45 clipbox
391.776 173.545 p0_0
0.000 0.749 1.000 setrgbcolor
fill
grestore
gsave
334.8 279 54 45 clipbox
392.52 177.866 p0_0
0.000 0.749 1.000 setrgbcolor
fill
grestore
gsave
334.8 279 54 45 clipbox
393.264 142.445 p0_0
0.000 0.749 1.000 setrgbcolor
fill
grestore
gsave
334.8 279 54 45 clipbox
394.008 172.306 p0_0
0.000 0.749 1.000 setrgbcolor
fill
grestore
gsave
334.8 279 54 45 clipbox
394.752 185.123 p0_0
0.000 0.749 1.000 setrgbcolor
fill
grestore
gsave
334.8 279 54 45 clipbox
395.496 189.427 p0_0
0.000 0.749 1.000 setrgbcolor
fill
grestore
gsave
334.8 279 54 45 clipbox
396.24 168.18 p0_0
0.000 0.749 1.000 setrgbcolor
fill
grestore
gsave
334.8 279 54 45 clipbox
396.984 152.609 p0_0
0.000 0.749 1.000 setrgbcolor
fill
grestore
gsave
334.8 279 54 45 clipbox
397.728 199.466 p0_0
0.000 0.749 1.000 setrgbcolor
fill
grestore
gsave
334.8 279 54 45 clipbox
398.472 215.107 p0_0
0.000 0.749 1.000 setrgbcolor
fill
grestore
gsave
334.8 279 54 45 clipbox
399.216 205.196 p0_0
0.000 0.749 1.000 setrgbcolor
fill
grestore
gsave
334.8 279 54 45 clipbox
399.96 175.407 p0_0
0.000 0.749 1.000 setrgbcolor
fill
grestore
gsave
334.8 279 54 45 clipbox
400.704 159.815 p0_0
0.000 0.749 1.000 setrgbcolor
fill
grestore
gsave
334.8 279 54 45 clipbox
401.448 175.429 p0_0
0.000 0.749 1.000 setrgbcolor
fill
grestore
gsave
334.8 279 54 45 clipbox
402.192 188.211 p0_0
0.000 0.749 1.000 setrgbcolor
fill
grestore
gsave
334.8 279 54 45 clipbox
402.936 226.528 p0_0
0.000 0.749 1.000 setrgbcolor
fill
grestore
gsave
334.8 279 54 45 clipbox
403.68 174.015 p0_0
0.000 0.749 1.000 setrgbcolor
fill
grestore
gsave
334.8 279 54 45 clipbox
404.424 186.775 p0_0
0.000 0.749 1.000 setrgbcolor
fill
grestore
gsave
334.8 279 54 45 clipbox
405.168 171.157 p0_0
0.000 0.749 1.000 setrgbcolor
fill
grestore
gsave
334.8 279 54 45 clipbox
405.912 192.427 p0_0
0.000 0.749 1.000 setrgbcolor
fill
grestore
gsave
334.8 279 54 45 clipbox
406.656 182.473 p0_0
0.000 0.749 1.000 setrgbcolor
fill
grestore
gsave
334.8 279 54 45 clipbox
407.4 149.805 p0_0
0.000 0.749 1.000 setrgbcolor
fill
grestore
gsave
334.8 279 54 45 clipbox
408.144 193.772 p0_0
0.000 0.749 1.000 setrgbcolor
fill
grestore
gsave
334.8 279 54 45 clipbox
408.888 189.479 p0_0
0.000 0.749 1.000 setrgbcolor
fill
grestore
gsave
334.8 279 54 45 clipbox
409.632 199.373 p0_0
0.000 0.749 1.000 setrgbcolor
fill
grestore
gsave
334.8 279 54 45 clipbox
410.376 189.398 p0_0
0.000 0.749 1.000 setrgbcolor
fill
grestore
gsave
334.8 279 54 45 clipbox
411.12 173.746 p0_0
0.000 0.749 1.000 setrgbcolor
fill
grestore
gsave
334.8 279 54 45 clipbox
411.864 163.763 p0_0
0.000 0.749 1.000 setrgbcolor
fill
grestore
gsave
334.8 279 54 45 clipbox
412.608 184.986 p0_0
0.000 0.749 1.000 setrgbcolor
fill
grestore
gsave
334.8 279 54 45 clipbox
413.352 169.322 p0_0
0.000 0.749 1.000 setrgbcolor
fill
grestore
gsave
334.8 279 54 45 clipbox
414.096 196.221 p0_0
0.000 0.749 1.000 setrgbcolor
fill
grestore
gsave
334.8 279 54 45 clipbox
414.84 169.192 p0_0
0.000 0.749 1.000 setrgbcolor
fill
grestore
gsave
334.8 279 54 45 clipbox
415.584 173.381 p0_0
0.000 0.749 1.000 setrgbcolor
fill
grestore
gsave
334.8 279 54 45 clipbox
416.328 188.912 p0_0
0.000 0.749 1.000 setrgbcolor
fill
grestore
gsave
334.8 279 54 45 clipbox
417.072 173.227 p0_0
0.000 0.749 1.000 setrgbcolor
fill
grestore
gsave
334.8 279 54 45 clipbox
417.816 205.788 p0_0
0.000 0.749 1.000 setrgbcolor
fill
grestore
gsave
334.8 279 54 45 clipbox
418.56 181.577 p0_0
0.000 0.749 1.000 setrgbcolor
fill
grestore
gsave
334.8 279 54 45 clipbox
419.304 174.39 p0_0
0.000 0.749 1.000 setrgbcolor
fill
grestore
gsave
334.8 279 54 45 clipbox
420.048 189.901 p0_0
0.000 0.749 1.000 setrgbcolor
fill
grestore
gsave
334.8 279 54 45 clipbox
420.792 191.226 p0_0
0.000 0.749 1.000 setrgbcolor
fill
grestore
gsave
334.8 279 54 45 clipbox
421.536 189.7 p0_0
0.000 0.749 1.000 setrgbcolor
fill
grestore
gsave
334.8 279 54 45 clipbox
422.28 182.508 p0_0
0.000 0.749 1.000 setrgbcolor
fill
grestore
gsave
334.8 279 54 45 clipbox
423.024 161.111 p0_0
0.000 0.749 1.000 setrgbcolor
fill
grestore
gsave
334.8 279 54 45 clipbox
423.768 187.957 p0_0
0.000 0.749 1.000 setrgbcolor
fill
grestore
gsave
334.8 279 54 45 clipbox
424.512 200.609 p0_0
0.000 0.749 1.000 setrgbcolor
fill
grestore
gsave
334.8 279 54 45 clipbox
425.256 176.364 p0_0
0.000 0.749 1.000 setrgbcolor
fill
grestore
gsave
334.8 279 54 45 clipbox
426 191.853 p0_0
0.000 0.749 1.000 setrgbcolor
fill
grestore
gsave
334.8 279 54 45 clipbox
426.744 178.955 p0_0
0.000 0.749 1.000 setrgbcolor
fill
grestore
gsave
334.8 279 54 45 clipbox
427.488 200.111 p0_0
0.000 0.749 1.000 setrgbcolor
fill
grestore
gsave
334.8 279 54 45 clipbox
428.232 190.042 p0_0
0.000 0.749 1.000 setrgbcolor
fill
grestore
gsave
334.8 279 54 45 clipbox
428.976 225.372 p0_0
0.000 0.749 1.000 setrgbcolor
fill
grestore
gsave
334.8 279 54 45 clipbox
429.72 167.048 p0_0
0.000 0.749 1.000 setrgbcolor
fill
grestore
gsave
334.8 279 54 45 clipbox
430.464 182.515 p0_0
0.000 0.749 1.000 setrgbcolor
fill
grestore
gsave
334.8 279 54 45 clipbox
431.208 192.297 p0_0
0.000 0.749 1.000 setrgbcolor
fill
grestore
gsave
334.8 279 54 45 clipbox
431.952 187.884 p0_0
0.000 0.749 1.000 setrgbcolor
fill
grestore
gsave
334.8 279 54 45 clipbox
432.696 209.013 p0_0
0.000 0.749 1.000 setrgbcolor
fill
grestore
gsave
334.8 279 54 45 clipbox
433.44 173.381 p0_0
0.000 0.749 1.000 setrgbcolor
fill
grestore
gsave
334.8 279 54 45 clipbox
434.184 183.149 p0_0
0.000 0.749 1.000 setrgbcolor
fill
grestore
gsave
334.8 279 54 45 clipbox
434.928 190.075 p0_0
0.000 0.749 1.000 setrgbcolor
fill
grestore
gsave
334.8 279 54 45 clipbox
435.672 211.191 p0_0
0.000 0.749 1.000 setrgbcolor
fill
grestore
gsave
334.8 279 54 45 clipbox
436.416 206.756 p0_0
0.000 0.749 1.000 setrgbcolor
fill
grestore
gsave
334.8 279 54 45 clipbox
437.16 188.124 p0_0
0.000 0.749 1.000 setrgbcolor
fill
grestore
gsave
334.8 279 54 45 clipbox
437.904 197.883 p0_0
0.000 0.749 1.000 setrgbcolor
fill
grestore
gsave
334.8 279 54 45 clipbox
438.648 184.919 p0_0
0.000 0.749 1.000 setrgbcolor
fill
grestore
gsave
334.8 279 54 45 clipbox
439.392 220.208 p0_0
0.000 0.749 1.000 setrgbcolor
fill
grestore
gsave
334.8 279 54 45 clipbox
440.136 218.601 p0_0
0.000 0.749 1.000 setrgbcolor
fill
grestore
gsave
334.8 279 54 45 clipbox
440.88 171.57 p0_0
0.000 0.749 1.000 setrgbcolor
fill
grestore
gsave
334.8 279 54 45 clipbox
441.624 192.657 p0_0
0.000 0.749 1.000 setrgbcolor
fill
grestore
gsave
334.8 279 54 45 clipbox
442.368 188.194 p0_0
0.000 0.749 1.000 setrgbcolor
fill
grestore
gsave
334.8 279 54 45 clipbox
443.112 195.083 p0_0
0.000 0.749 1.000 setrgbcolor
fill
grestore
gsave
334.8 279 54 45 clipbox
443.856 196.295 p0_0
0.000 0.749 1.000 setrgbcolor
fill
grestore
gsave
334.8 279 54 45 clipbox
444.6 200.341 p0_0
0.000 0.749 1.000 setrgbcolor
fill
grestore
gsave
334.8 279 54 45 clipbox
445.344 175.999 p0_0
0.000 0.749 1.000 setrgbcolor
fill
grestore
gsave
334.8 279 54 45 clipbox
446.088 225.449 p0_0
0.000 0.749 1.000 setrgbcolor
fill
grestore
gsave
334.8 279 54 45 clipbox
446.832 209.611 p0_0
0.000 0.749 1.000 setrgbcolor
fill
grestore
gsave
334.8 279 54 45 clipbox
447.576 193.779 p0_0
0.000 0.749 1.000 setrgbcolor
fill
grestore
gsave
334.8 279 54 45 clipbox
448.32 197.807 p0_0
0.000 0.749 1.000 setrgbcolor
fill
grestore
gsave
334.8 279 54 45 clipbox
449.064 204.669 p0_0
0.000 0.749 1.000 setrgbcolor
fill
grestore
gsave
334.8 279 54 45 clipbox
449.808 171.789 p0_0
0.000 0.749 1.000 setrgbcolor
fill
grestore
gsave
334.8 279 54 45 clipbox
450.552 184.316 p0_0
0.000 0.749 1.000 setrgbcolor
fill
grestore
gsave
334.8 279 54 45 clipbox
451.296 222.389 p0_0
0.000 0.749 1.000 setrgbcolor
fill
grestore
gsave
334.8 279 54 45 clipbox
452.04 183.835 p0_0
0.000 0.749 1.000 setrgbcolor
fill
grestore
gsave
334.8 279 54 45 clipbox
452.784 196.353 p0_0
0.000 0.749 1.000 setrgbcolor
fill
grestore
gsave
334.8 279 54 45 clipbox
453.528 174.812 p0_0
0.000 0.749 1.000 setrgbcolor
fill
grestore
gsave
334.8 279 54 45 clipbox
454.272 204.362 p0_0
0.000 0.749 1.000 setrgbcolor
fill
grestore
gsave
334.8 279 54 45 clipbox
455.016 236.735 p0_0
0.000 0.749 1.000 setrgbcolor
fill
grestore
gsave
334.8 279 54 45 clipbox
455.76 200.993 p0_0
0.000 0.749 1.000 setrgbcolor
fill
grestore
gsave
334.8 279 54 45 clipbox
456.504 170.929 p0_0
0.000 0.749 1.000 setrgbcolor
fill
grestore
gsave
334.8 279 54 45 clipbox
457.248 203.302 p0_0
0.000 0.749 1.000 setrgbcolor
fill
grestore
gsave
334.8 279 54 45 clipbox
457.992 204.443 p0_0
0.000 0.749 1.000 setrgbcolor
fill
grestore
gsave
334.8 279 54 45 clipbox
458.736 211.263 p0_0
0.000 0.749 1.000 setrgbcolor
fill
grestore
gsave
334.8 279 54 45 clipbox
459.48 218.079 p0_0
0.000 0.749 1.000 setrgbcolor
fill
grestore
gsave
334.8 279 54 45 clipbox
460.224 179.49 p0_0
0.000 0.749 1.000 setrgbcolor
fill
grestore
gsave
334.8 279 54 45 clipbox
460.968 217.521 p0_0
0.000 0.749 1.000 setrgbcolor
fill
grestore
gsave
334.8 279 54 45 clipbox
461.712 181.752 p0_0
0.000 0.749 1.000 setrgbcolor
fill
grestore
gsave
334.8 279 54 45 clipbox
462.456 248.16 p0_0
0.000 0.749 1.000 setrgbcolor
fill
grestore
gsave
334.8 279 54 45 clipbox
463.2 209.55 p0_0
0.000 0.749 1.000 setrgbcolor
fill
grestore
gsave
334.8 279 54 45 clipbox
463.944 193.636 p0_0
0.000 0.749 1.000 setrgbcolor
fill
grestore
gsave
334.8 279 54 45 clipbox
464.688 217.46 p0_0
0.000 0.749 1.000 setrgbcolor
fill
grestore
gsave
334.8 279 54 45 clipbox
465.432 207.224 p0_0
0.000 0.749 1.000 setrgbcolor
fill
grestore
gsave
334.8 279 54 45 clipbox
466.176 248.077 p0_0
0.000 0.749 1.000 setrgbcolor
fill
grestore
gsave
334.8 279 54 45 clipbox
466.92 209.452 p0_0
0.000 0.749 1.000 setrgbcolor
fill
grestore
gsave
334.8 279 54 45 clipbox
467.664 196.36 p0_0
0.000 0.749 1.000 setrgbcolor
fill
grestore
gsave
334.8 279 54 45 clipbox
468.408 197.466 p0_0
0.000 0.749 1.000 setrgbcolor
fill
grestore
gsave
334.8 279 54 45 clipbox
469.152 209.916 p0_0
0.000 0.749 1.000 setrgbcolor
fill
grestore
gsave
334.8 279 54 45 clipbox
469.896 219.536 p0_0
0.000 0.749 1.000 setrgbcolor
fill
grestore
gsave
334.8 279 54 45 clipbox
470.64 203.595 p0_0
0.000 0.749 1.000 setrgbcolor
fill
grestore
gsave
334.8 279 54 45 clipbox
471.384 193.334 p0_0
0.000 0.749 1.000 setrgbcolor
fill
grestore
gsave
334.8 279 54 45 clipbox
472.128 211.454 p0_0
0.000 0.749 1.000 setrgbcolor
fill
grestore
gsave
334.8 279 54 45 clipbox
472.872 195.504 p0_0
0.000 0.749 1.000 setrgbcolor
fill
grestore
gsave
334.8 279 54 45 clipbox
473.616 250.512 p0_0
0.000 0.749 1.000 setrgbcolor
fill
grestore
gsave
334.8 279 54 45 clipbox
474.36 217.538 p0_0
0.000 0.749 1.000 setrgbcolor
fill
grestore
gsave
334.8 279 54 45 clipbox
475.104 212.934 p0_0
0.000 0.749 1.000 setrgbcolor
fill
grestore
gsave
334.8 279 54 45 clipbox
475.848 211.175 p0_0
0.000 0.749 1.000 setrgbcolor
fill
grestore
gsave
334.8 279 54 45 clipbox
476.592 195.211 p0_0
0.000 0.749 1.000 setrgbcolor
fill
grestore
gsave
334.8 279 54 45 clipbox
477.336 250.203 p0_0
0.000 0.749 1.000 setrgbcolor
fill
grestore
gsave
334.8 279 54 45 clipbox
478.08 222.887 p0_0
0.000 0.749 1.000 setrgbcolor
fill
grestore
gsave
334.8 279 54 45 clipbox
478.824 198.405 p0_0
0.000 0.749 1.000 setrgbcolor
fill
grestore
gsave
334.8 279 54 45 clipbox
479.568 233.523 p0_0
0.000 0.749 1.000 setrgbcolor
fill
grestore
gsave
334.8 279 54 45 clipbox
480.312 214.708 p0_0
0.000 0.749 1.000 setrgbcolor
fill
grestore
gsave
334.8 279 54 45 clipbox
481.056 266.85 p0_0
0.000 0.749 1.000 setrgbcolor
fill
grestore
gsave
334.8 279 54 45 clipbox
481.8 213.981 p0_0
0.000 0.749 1.000 setrgbcolor
fill
grestore
gsave
334.8 279 54 45 clipbox
482.544 209.349 p0_0
0.000 0.749 1.000 setrgbcolor
fill
grestore
gsave
334.8 279 54 45 clipbox
483.288 213.234 p0_0
0.000 0.749 1.000 setrgbcolor
fill
grestore
gsave
334.8 279 54 45 clipbox
484.032 242.652 p0_0
0.000 0.749 1.000 setrgbcolor
fill
grestore
gsave
334.8 279 54 45 clipbox
484.776 263.559 p0_0
0.000 0.749 1.000 setrgbcolor
fill
grestore
gsave
334.8 279 54 45 clipbox
485.52 222.023 p0_0
0.000 0.749 1.000 setrgbcolor
fill
grestore
gsave
334.8 279 54 45 clipbox
486.264 214.539 p0_0
0.000 0.749 1.000 setrgbcolor
fill
grestore
gsave
334.8 279 54 45 clipbox
487.008 224.082 p0_0
0.000 0.749 1.000 setrgbcolor
fill
grestore
gsave
334.8 279 54 45 clipbox
487.752 242.141 p0_0
0.000 0.749 1.000 setrgbcolor
fill
grestore
gsave
334.8 279 54 45 clipbox
488.496 231.813 p0_0
0.000 0.749 1.000 setrgbcolor
fill
grestore
gsave
334.8 279 54 45 clipbox
489.24 252.703 p0_0
0.000 0.749 1.000 setrgbcolor
fill
grestore
gsave
334.8 279 54 45 clipbox
489.984 188.439 p0_0
0.000 0.749 1.000 setrgbcolor
fill
grestore
gsave
334.8 279 54 45 clipbox
490.728 257.571 p0_0
0.000 0.749 1.000 setrgbcolor
fill
grestore
gsave
334.8 279 54 45 clipbox
491.472 230.204 p0_0
0.000 0.749 1.000 setrgbcolor
fill
grestore
gsave
334.8 279 54 45 clipbox
492.216 251.083 p0_0
0.000 0.749 1.000 setrgbcolor
fill
grestore
gsave
334.8 279 54 45 clipbox
492.96 226.546 p0_0
0.000 0.749 1.000 setrgbcolor
fill
grestore
gsave
334.8 279 54 45 clipbox
493.704 210.526 p0_0
0.000 0.749 1.000 setrgbcolor
fill
grestore
gsave
334.8 279 54 45 clipbox
494.448 222.877 p0_0
0.000 0.749 1.000 setrgbcolor
fill
grestore
gsave
334.8 279 54 45 clipbox
495.192 201.168 p0_0
0.000 0.749 1.000 setrgbcolor
fill
grestore
gsave
334.8 279 54 45 clipbox
495.936 261.772 p0_0
0.000 0.749 1.000 setrgbcolor
fill
grestore
gsave
334.8 279 54 45 clipbox
496.68 214.512 p0_0
0.000 0.749 1.000 setrgbcolor
fill
grestore
gsave
334.8 279 54 45 clipbox
497.424 212.669 p0_0
0.000 0.749 1.000 setrgbcolor
fill
grestore
gsave
334.8 279 54 45 clipbox
498.168 219.334 p0_0
0.000 0.749 1.000 setrgbcolor
fill
grestore
gsave
334.8 279 54 45 clipbox
498.912 203.285 p0_0
0.000 0.749 1.000 setrgbcolor
fill
grestore
gsave
334.8 279 54 45 clipbox
499.656 232.654 p0_0
0.000 0.749 1.000 setrgbcolor
fill
grestore
1.000 setlinewidth
2 setlinecap
1.000 0.388 0.278 setrgbcolor
gsave
334.8 279 54 45 clipbox
54 240.894892 m
388.8 240.894892 l
stroke
grestore
gsave
334.8 279 54 45 clipbox
54 128.105108 m
388.8 128.105108 l
stroke
grestore
1.000 0.843 0.000 setrgbcolor
gsave
334.8 279 54 45 clipbox
54 184.5 m
388.8 184.5 l
stroke
grestore
gsave
54 324 m
388.8 324 l
grestore
gsave
388.8 45 m
388.8 324 l
grestore
gsave
54 45 m
54 324 l
grestore
gsave
54 45 m
388.8 45 l
grestore
0.000 setgray
/BitstreamVeraSans-Roman findfont
12.000 scalefont
setfont
gsave
192.726562 18.000000 translate
0.000000 rotate
0.000000 0.000000 m /t glyphshow
4.705078 0.000000 m /i glyphshow
8.039062 0.000000 m /m glyphshow
19.728516 0.000000 m /e glyphshow
27.111328 0.000000 m /space glyphshow
30.925781 0.000000 m /parenleft glyphshow
35.607422 0.000000 m /s glyphshow
41.859375 0.000000 m /parenright glyphshow
grestore
gsave
24.912500 135.046875 translate
90.000000 rotate
0.000000 0.000000 m /r glyphshow
4.933594 0.000000 m /e glyphshow
12.316406 0.000000 m /s glyphshow
18.568359 0.000000 m /i glyphshow
21.902344 0.000000 m /d glyphshow
29.519531 0.000000 m /u glyphshow
37.125000 0.000000 m /a glyphshow
44.478516 0.000000 m /l glyphshow
47.812500 0.000000 m /s glyphshow
grestore

end
showpage
