%!PS-Adobe-3.0 EPSF-3.0
%%Title: ODR_OLS_SS93_resexp.eps
%%Creator: matplotlib version 1.5.1, http://matplotlib.org/
%%CreationDate: Thu Sep 22 13:11:38 2016
%%Orientation: portrait
%%BoundingBox: 90 216 522 576
%%EndComments
%%BeginProlog
/mpldict 8 dict def
mpldict begin
/m { moveto } bind def
/l { lineto } bind def
/r { rlineto } bind def
/c { curveto } bind def
/cl { closepath } bind def
/box {
m
1 index 0 r
0 exch r
neg 0 r
cl
} bind def
/clipbox {
box
clip
newpath
} bind def
%!PS-Adobe-3.0 Resource-Font
%%Title: Bitstream Vera Sans
%%Copyright: Copyright (c) 2003 by Bitstream, Inc. All Rights Reserved.
%%Creator: Converted from TrueType to type 3 by PPR
25 dict begin
/_d{bind def}bind def
/_m{moveto}_d
/_l{lineto}_d
/_cl{closepath eofill}_d
/_c{curveto}_d
/_sc{7 -1 roll{setcachedevice}{pop pop pop pop pop pop}ifelse}_d
/_e{exec}_d
/FontName /BitstreamVeraSans-Roman def
/PaintType 0 def
/FontMatrix[.001 0 0 .001 0 0]def
/FontBBox[-183 -236 1287 928]def
/FontType 3 def
/Encoding [ /space /parenleft /parenright /period /zero /one /two /three /five /a /d /e /i /l /m /r /s /t /u /minus ] def
/FontInfo 10 dict dup begin
/FamilyName (Bitstream Vera Sans) def
/FullName (Bitstream Vera Sans) def
/Notice (Copyright (c) 2003 by Bitstream, Inc. All Rights Reserved. Bitstream Vera is a trademark of Bitstream, Inc.) def
/Weight (Roman) def
/Version (Release 1.10) def
/ItalicAngle 0.0 def
/isFixedPitch false def
/UnderlinePosition -213 def
/UnderlineThickness 143 def
end readonly def
/CharStrings 20 dict dup begin
/space{318 0 0 0 0 0 _sc
}_d
/parenleft{390 0 86 -131 310 759 _sc
310 759 _m
266 683 234 609 213 536 _c
191 463 181 389 181 314 _c
181 238 191 164 213 91 _c
234 17 266 -56 310 -131 _c
232 -131 _l
183 -54 146 20 122 94 _c
98 168 86 241 86 314 _c
86 386 98 459 122 533 _c
146 607 182 682 232 759 _c
310 759 _l
_cl}_d
/parenright{390 0 80 -131 304 759 _sc
80 759 _m
158 759 _l
206 682 243 607 267 533 _c
291 459 304 386 304 314 _c
304 241 291 168 267 94 _c
243 20 206 -54 158 -131 _c
80 -131 _l
123 -56 155 17 177 91 _c
198 164 209 238 209 314 _c
209 389 198 463 177 536 _c
155 609 123 683 80 759 _c
_cl}_d
/period{318 0 107 0 210 124 _sc
107 124 _m
210 124 _l
210 0 _l
107 0 _l
107 124 _l
_cl}_d
/zero{636 0 66 -13 570 742 _sc
318 664 _m
267 664 229 639 203 589 _c
177 539 165 464 165 364 _c
165 264 177 189 203 139 _c
229 89 267 64 318 64 _c
369 64 407 89 433 139 _c
458 189 471 264 471 364 _c
471 464 458 539 433 589 _c
407 639 369 664 318 664 _c
318 742 _m
399 742 461 709 505 645 _c
548 580 570 486 570 364 _c
570 241 548 147 505 83 _c
461 19 399 -13 318 -13 _c
236 -13 173 19 130 83 _c
87 147 66 241 66 364 _c
66 486 87 580 130 645 _c
173 709 236 742 318 742 _c
_cl}_d
/one{636 0 110 0 544 729 _sc
124 83 _m
285 83 _l
285 639 _l
110 604 _l
110 694 _l
284 729 _l
383 729 _l
383 83 _l
544 83 _l
544 0 _l
124 0 _l
124 83 _l
_cl}_d
/two{{636 0 73 0 536 742 _sc
192 83 _m
536 83 _l
536 0 _l
73 0 _l
73 83 _l
110 121 161 173 226 239 _c
290 304 331 346 348 365 _c
380 400 402 430 414 455 _c
426 479 433 504 433 528 _c
433 566 419 598 392 622 _c
365 646 330 659 286 659 _c
255 659 222 653 188 643 _c
154 632 117 616 78 594 _c
78 694 _l
118 710 155 722 189 730 _c
223 738 255 742 284 742 _c
}_e{359 742 419 723 464 685 _c
509 647 532 597 532 534 _c
532 504 526 475 515 449 _c
504 422 484 390 454 354 _c
446 344 420 317 376 272 _c
332 227 271 164 192 83 _c
_cl}_e}_d
/three{{636 0 76 -13 556 742 _sc
406 393 _m
453 383 490 362 516 330 _c
542 298 556 258 556 212 _c
556 140 531 84 482 45 _c
432 6 362 -13 271 -13 _c
240 -13 208 -10 176 -4 _c
144 1 110 10 76 22 _c
76 117 _l
103 101 133 89 166 81 _c
198 73 232 69 268 69 _c
330 69 377 81 409 105 _c
441 129 458 165 458 212 _c
458 254 443 288 413 312 _c
383 336 341 349 287 349 _c
}_e{202 349 _l
202 430 _l
291 430 _l
339 430 376 439 402 459 _c
428 478 441 506 441 543 _c
441 580 427 609 401 629 _c
374 649 336 659 287 659 _c
260 659 231 656 200 650 _c
169 644 135 635 98 623 _c
98 711 _l
135 721 170 729 203 734 _c
235 739 266 742 296 742 _c
370 742 429 725 473 691 _c
517 657 539 611 539 553 _c
539 513 527 479 504 451 _c
481 423 448 403 406 393 _c
_cl}_e}_d
/five{{636 0 77 -13 549 729 _sc
108 729 _m
495 729 _l
495 646 _l
198 646 _l
198 467 _l
212 472 227 476 241 478 _c
255 480 270 482 284 482 _c
365 482 429 459 477 415 _c
525 370 549 310 549 234 _c
549 155 524 94 475 51 _c
426 8 357 -13 269 -13 _c
238 -13 207 -10 175 -6 _c
143 -1 111 6 77 17 _c
77 116 _l
106 100 136 88 168 80 _c
199 72 232 69 267 69 _c
}_e{323 69 368 83 401 113 _c
433 143 450 183 450 234 _c
450 284 433 324 401 354 _c
368 384 323 399 267 399 _c
241 399 214 396 188 390 _c
162 384 135 375 108 363 _c
108 729 _l
_cl}_e}_d
/a{{613 0 60 -13 522 560 _sc
343 275 _m
270 275 220 266 192 250 _c
164 233 150 205 150 165 _c
150 133 160 107 181 89 _c
202 70 231 61 267 61 _c
317 61 357 78 387 114 _c
417 149 432 196 432 255 _c
432 275 _l
343 275 _l
522 312 _m
522 0 _l
432 0 _l
432 83 _l
411 49 385 25 355 10 _c
325 -5 287 -13 243 -13 _c
187 -13 142 2 109 33 _c
76 64 60 106 60 159 _c
}_e{60 220 80 266 122 298 _c
163 329 224 345 306 345 _c
432 345 _l
432 354 _l
432 395 418 427 391 450 _c
364 472 326 484 277 484 _c
245 484 215 480 185 472 _c
155 464 127 453 100 439 _c
100 522 _l
132 534 164 544 195 550 _c
226 556 256 560 286 560 _c
365 560 424 539 463 498 _c
502 457 522 395 522 312 _c
_cl}_e}_d
/d{{635 0 55 -13 544 760 _sc
454 464 _m
454 760 _l
544 760 _l
544 0 _l
454 0 _l
454 82 _l
435 49 411 25 382 10 _c
353 -5 319 -13 279 -13 _c
213 -13 159 13 117 65 _c
75 117 55 187 55 273 _c
55 359 75 428 117 481 _c
159 533 213 560 279 560 _c
319 560 353 552 382 536 _c
411 520 435 496 454 464 _c
148 273 _m
148 207 161 155 188 117 _c
215 79 253 61 301 61 _c
}_e{348 61 385 79 413 117 _c
440 155 454 207 454 273 _c
454 339 440 390 413 428 _c
385 466 348 485 301 485 _c
253 485 215 466 188 428 _c
161 390 148 339 148 273 _c
_cl}_e}_d
/e{{615 0 55 -13 562 560 _sc
562 296 _m
562 252 _l
149 252 _l
153 190 171 142 205 110 _c
238 78 284 62 344 62 _c
378 62 412 66 444 74 _c
476 82 509 95 541 113 _c
541 28 _l
509 14 476 3 442 -3 _c
408 -9 373 -13 339 -13 _c
251 -13 182 12 131 62 _c
80 112 55 181 55 268 _c
55 357 79 428 127 481 _c
175 533 241 560 323 560 _c
397 560 455 536 498 489 _c
}_e{540 441 562 377 562 296 _c
472 322 _m
471 371 457 410 431 440 _c
404 469 368 484 324 484 _c
274 484 234 469 204 441 _c
174 413 156 373 152 322 _c
472 322 _l
_cl}_e}_d
/i{278 0 94 0 184 760 _sc
94 547 _m
184 547 _l
184 0 _l
94 0 _l
94 547 _l
94 760 _m
184 760 _l
184 646 _l
94 646 _l
94 760 _l
_cl}_d
/l{278 0 94 0 184 760 _sc
94 760 _m
184 760 _l
184 0 _l
94 0 _l
94 760 _l
_cl}_d
/m{{974 0 91 0 889 560 _sc
520 442 _m
542 482 569 511 600 531 _c
631 550 668 560 711 560 _c
767 560 811 540 842 500 _c
873 460 889 403 889 330 _c
889 0 _l
799 0 _l
799 327 _l
799 379 789 418 771 444 _c
752 469 724 482 686 482 _c
639 482 602 466 575 435 _c
548 404 535 362 535 309 _c
535 0 _l
445 0 _l
445 327 _l
445 379 435 418 417 444 _c
398 469 369 482 331 482 _c
}_e{285 482 248 466 221 435 _c
194 404 181 362 181 309 _c
181 0 _l
91 0 _l
91 547 _l
181 547 _l
181 462 _l
201 495 226 520 255 536 _c
283 552 317 560 357 560 _c
397 560 430 550 458 530 _c
486 510 506 480 520 442 _c
_cl}_e}_d
/r{411 0 91 0 411 560 _sc
411 463 _m
401 469 390 473 378 476 _c
366 478 353 480 339 480 _c
288 480 249 463 222 430 _c
194 397 181 350 181 288 _c
181 0 _l
91 0 _l
91 547 _l
181 547 _l
181 462 _l
199 495 224 520 254 536 _c
284 552 321 560 365 560 _c
371 560 378 559 386 559 _c
393 558 401 557 411 555 _c
411 463 _l
_cl}_d
/s{{521 0 54 -13 472 560 _sc
443 531 _m
443 446 _l
417 458 391 468 364 475 _c
336 481 308 485 279 485 _c
234 485 200 478 178 464 _c
156 450 145 430 145 403 _c
145 382 153 366 169 354 _c
185 342 217 330 265 320 _c
296 313 _l
360 299 405 279 432 255 _c
458 230 472 195 472 151 _c
472 100 452 60 412 31 _c
372 1 316 -13 246 -13 _c
216 -13 186 -10 154 -5 _c
}_e{122 0 89 8 54 20 _c
54 113 _l
87 95 120 82 152 74 _c
184 65 216 61 248 61 _c
290 61 323 68 346 82 _c
368 96 380 117 380 144 _c
380 168 371 187 355 200 _c
339 213 303 226 247 238 _c
216 245 _l
160 257 119 275 95 299 _c
70 323 58 356 58 399 _c
58 450 76 490 112 518 _c
148 546 200 560 268 560 _c
301 560 332 557 362 552 _c
391 547 418 540 443 531 _c
}_e{_cl}_e}_d
/t{392 0 27 0 368 702 _sc
183 702 _m
183 547 _l
368 547 _l
368 477 _l
183 477 _l
183 180 _l
183 135 189 106 201 94 _c
213 81 238 75 276 75 _c
368 75 _l
368 0 _l
276 0 _l
206 0 158 13 132 39 _c
106 65 93 112 93 180 _c
93 477 _l
27 477 _l
27 547 _l
93 547 _l
93 702 _l
183 702 _l
_cl}_d
/u{634 0 85 -13 543 547 _sc
85 216 _m
85 547 _l
175 547 _l
175 219 _l
175 167 185 129 205 103 _c
225 77 255 64 296 64 _c
344 64 383 79 411 110 _c
439 141 453 183 453 237 _c
453 547 _l
543 547 _l
543 0 _l
453 0 _l
453 84 _l
431 50 405 26 377 10 _c
348 -5 315 -13 277 -13 _c
214 -13 166 6 134 45 _c
101 83 85 140 85 216 _c
_cl}_d
/minus{838 0 106 272 732 355 _sc
106 355 _m
732 355 _l
732 272 _l
106 272 _l
106 355 _l
_cl}_d
end readonly def

/BuildGlyph
 {exch begin
 CharStrings exch
 2 copy known not{pop /.notdef}if
 true 3 1 roll get exec
 end}_d

/BuildChar {
 1 index /Encoding get exch get
 1 index /BuildGlyph get exec
}_d

FontName currentdict end definefont pop
end
%%EndProlog
mpldict begin
90 216 translate
432 360 0 0 clipbox
100000 setmiterlimit
gsave
0 0 m
432 0 l
432 360 l
0 360 l
cl
1.000 setgray
fill
grestore
gsave
54 45 m
388.8 45 l
388.8 324 l
54 324 l
cl
0.898 setgray
fill
grestore
1.400 setlinewidth
1 setlinejoin
2 setlinecap
[] 0 setdash
1.000 setgray
gsave
334.8 279 54 45 clipbox
54 45 m
54 324 l
stroke
grestore
0 setlinecap
0.498 setgray
gsave
/o {
gsave
newpath
translate
1.4 setlinewidth
1 setlinejoin
0 setlinecap
0 0 m
0 -5 l

gsave
0.498 setgray
fill
grestore
stroke
grestore
} bind def
54 45 o
grestore
/BitstreamVeraSans-Roman findfont
10.000 scalefont
setfont
gsave
46.046875 31.406250 translate
0.000000 rotate
0.000000 0.000000 m /zero glyphshow
6.362305 0.000000 m /period glyphshow
9.541016 0.000000 m /zero glyphshow
grestore
2 setlinecap
1.000 setgray
gsave
334.8 279 54 45 clipbox
109.8 45 m
109.8 324 l
stroke
grestore
0 setlinecap
0.498 setgray
gsave
/o {
gsave
newpath
translate
1.4 setlinewidth
1 setlinejoin
0 setlinecap
0 0 m
0 -5 l

gsave
0.498 setgray
fill
grestore
stroke
grestore
} bind def
109.8 45 o
grestore
gsave
101.846875 31.406250 translate
0.000000 rotate
0.000000 0.000000 m /zero glyphshow
6.362305 0.000000 m /period glyphshow
9.541016 0.000000 m /five glyphshow
grestore
2 setlinecap
1.000 setgray
gsave
334.8 279 54 45 clipbox
165.6 45 m
165.6 324 l
stroke
grestore
0 setlinecap
0.498 setgray
gsave
/o {
gsave
newpath
translate
1.4 setlinewidth
1 setlinejoin
0 setlinecap
0 0 m
0 -5 l

gsave
0.498 setgray
fill
grestore
stroke
grestore
} bind def
165.6 45 o
grestore
gsave
157.646875 31.406250 translate
0.000000 rotate
0.000000 0.000000 m /one glyphshow
6.362305 0.000000 m /period glyphshow
9.541016 0.000000 m /zero glyphshow
grestore
2 setlinecap
1.000 setgray
gsave
334.8 279 54 45 clipbox
221.4 45 m
221.4 324 l
stroke
grestore
0 setlinecap
0.498 setgray
gsave
/o {
gsave
newpath
translate
1.4 setlinewidth
1 setlinejoin
0 setlinecap
0 0 m
0 -5 l

gsave
0.498 setgray
fill
grestore
stroke
grestore
} bind def
221.4 45 o
grestore
gsave
213.446875 31.406250 translate
0.000000 rotate
0.000000 0.000000 m /one glyphshow
6.362305 0.000000 m /period glyphshow
9.541016 0.000000 m /five glyphshow
grestore
2 setlinecap
1.000 setgray
gsave
334.8 279 54 45 clipbox
277.2 45 m
277.2 324 l
stroke
grestore
0 setlinecap
0.498 setgray
gsave
/o {
gsave
newpath
translate
1.4 setlinewidth
1 setlinejoin
0 setlinecap
0 0 m
0 -5 l

gsave
0.498 setgray
fill
grestore
stroke
grestore
} bind def
277.2 45 o
grestore
gsave
269.246875 31.406250 translate
0.000000 rotate
0.000000 0.000000 m /two glyphshow
6.362305 0.000000 m /period glyphshow
9.541016 0.000000 m /zero glyphshow
grestore
2 setlinecap
1.000 setgray
gsave
334.8 279 54 45 clipbox
333 45 m
333 324 l
stroke
grestore
0 setlinecap
0.498 setgray
gsave
/o {
gsave
newpath
translate
1.4 setlinewidth
1 setlinejoin
0 setlinecap
0 0 m
0 -5 l

gsave
0.498 setgray
fill
grestore
stroke
grestore
} bind def
333 45 o
grestore
gsave
325.046875 31.406250 translate
0.000000 rotate
0.000000 0.000000 m /two glyphshow
6.362305 0.000000 m /period glyphshow
9.541016 0.000000 m /five glyphshow
grestore
2 setlinecap
1.000 setgray
gsave
334.8 279 54 45 clipbox
388.8 45 m
388.8 324 l
stroke
grestore
0 setlinecap
0.498 setgray
gsave
/o {
gsave
newpath
translate
1.4 setlinewidth
1 setlinejoin
0 setlinecap
0 0 m
0 -5 l

gsave
0.498 setgray
fill
grestore
stroke
grestore
} bind def
388.8 45 o
grestore
gsave
380.846875 31.406250 translate
0.000000 rotate
0.000000 0.000000 m /three glyphshow
6.362305 0.000000 m /period glyphshow
9.541016 0.000000 m /zero glyphshow
grestore
0.700 setlinewidth
2 setlinecap
0.949 setgray
gsave
334.8 279 54 45 clipbox
81.9 45 m
81.9 324 l
stroke
grestore
0.500 setlinewidth
0 setlinecap
0.498 setgray
gsave
/o {
gsave
newpath
translate
0.5 setlinewidth
1 setlinejoin
0 setlinecap
0 0 m
0 0 l

gsave
0.498 setgray
fill
grestore
stroke
grestore
} bind def
81.9 45 o
grestore
0.700 setlinewidth
2 setlinecap
0.949 setgray
gsave
334.8 279 54 45 clipbox
137.7 45 m
137.7 324 l
stroke
grestore
0.500 setlinewidth
0 setlinecap
0.498 setgray
gsave
/o {
gsave
newpath
translate
0.5 setlinewidth
1 setlinejoin
0 setlinecap
0 0 m
0 0 l

gsave
0.498 setgray
fill
grestore
stroke
grestore
} bind def
137.7 45 o
grestore
0.700 setlinewidth
2 setlinecap
0.949 setgray
gsave
334.8 279 54 45 clipbox
193.5 45 m
193.5 324 l
stroke
grestore
0.500 setlinewidth
0 setlinecap
0.498 setgray
gsave
/o {
gsave
newpath
translate
0.5 setlinewidth
1 setlinejoin
0 setlinecap
0 0 m
0 0 l

gsave
0.498 setgray
fill
grestore
stroke
grestore
} bind def
193.5 45 o
grestore
0.700 setlinewidth
2 setlinecap
0.949 setgray
gsave
334.8 279 54 45 clipbox
249.3 45 m
249.3 324 l
stroke
grestore
0.500 setlinewidth
0 setlinecap
0.498 setgray
gsave
/o {
gsave
newpath
translate
0.5 setlinewidth
1 setlinejoin
0 setlinecap
0 0 m
0 0 l

gsave
0.498 setgray
fill
grestore
stroke
grestore
} bind def
249.3 45 o
grestore
0.700 setlinewidth
2 setlinecap
0.949 setgray
gsave
334.8 279 54 45 clipbox
305.1 45 m
305.1 324 l
stroke
grestore
0.500 setlinewidth
0 setlinecap
0.498 setgray
gsave
/o {
gsave
newpath
translate
0.5 setlinewidth
1 setlinejoin
0 setlinecap
0 0 m
0 0 l

gsave
0.498 setgray
fill
grestore
stroke
grestore
} bind def
305.1 45 o
grestore
0.700 setlinewidth
2 setlinecap
0.949 setgray
gsave
334.8 279 54 45 clipbox
360.9 45 m
360.9 324 l
stroke
grestore
0.500 setlinewidth
0 setlinecap
0.498 setgray
gsave
/o {
gsave
newpath
translate
0.5 setlinewidth
1 setlinejoin
0 setlinecap
0 0 m
0 0 l

gsave
0.498 setgray
fill
grestore
stroke
grestore
} bind def
360.9 45 o
grestore
1.400 setlinewidth
2 setlinecap
1.000 setgray
gsave
334.8 279 54 45 clipbox
54 45 m
388.8 45 l
stroke
grestore
0 setlinecap
0.498 setgray
gsave
/o {
gsave
newpath
translate
1.4 setlinewidth
1 setlinejoin
0 setlinecap
0 0 m
-5 0 l

gsave
0.498 setgray
fill
grestore
stroke
grestore
} bind def
54 45 o
grestore
gsave
11.000000 42.242188 translate
0.000000 rotate
0.000000 0.000000 m /minus glyphshow
8.378906 0.000000 m /zero glyphshow
14.741211 0.000000 m /period glyphshow
17.919922 0.000000 m /zero glyphshow
24.282227 0.000000 m /one glyphshow
30.644531 0.000000 m /five glyphshow
grestore
2 setlinecap
1.000 setgray
gsave
334.8 279 54 45 clipbox
54 84.857143 m
388.8 84.857143 l
stroke
grestore
0 setlinecap
0.498 setgray
gsave
/o {
gsave
newpath
translate
1.4 setlinewidth
1 setlinejoin
0 setlinecap
0 0 m
-5 0 l

gsave
0.498 setgray
fill
grestore
stroke
grestore
} bind def
54 84.8571 o
grestore
gsave
11.000000 82.099330 translate
0.000000 rotate
0.000000 0.000000 m /minus glyphshow
8.378906 0.000000 m /zero glyphshow
14.741211 0.000000 m /period glyphshow
17.919922 0.000000 m /zero glyphshow
24.282227 0.000000 m /one glyphshow
30.644531 0.000000 m /zero glyphshow
grestore
2 setlinecap
1.000 setgray
gsave
334.8 279 54 45 clipbox
54 124.714286 m
388.8 124.714286 l
stroke
grestore
0 setlinecap
0.498 setgray
gsave
/o {
gsave
newpath
translate
1.4 setlinewidth
1 setlinejoin
0 setlinecap
0 0 m
-5 0 l

gsave
0.498 setgray
fill
grestore
stroke
grestore
} bind def
54 124.714 o
grestore
gsave
11.000000 121.956473 translate
0.000000 rotate
0.000000 0.000000 m /minus glyphshow
8.378906 0.000000 m /zero glyphshow
14.741211 0.000000 m /period glyphshow
17.919922 0.000000 m /zero glyphshow
24.282227 0.000000 m /zero glyphshow
30.644531 0.000000 m /five glyphshow
grestore
2 setlinecap
1.000 setgray
gsave
334.8 279 54 45 clipbox
54 164.571429 m
388.8 164.571429 l
stroke
grestore
0 setlinecap
0.498 setgray
gsave
/o {
gsave
newpath
translate
1.4 setlinewidth
1 setlinejoin
0 setlinecap
0 0 m
-5 0 l

gsave
0.498 setgray
fill
grestore
stroke
grestore
} bind def
54 164.571 o
grestore
gsave
19.375000 161.813616 translate
0.000000 rotate
0.000000 0.000000 m /zero glyphshow
6.362305 0.000000 m /period glyphshow
9.541016 0.000000 m /zero glyphshow
15.903320 0.000000 m /zero glyphshow
22.265625 0.000000 m /zero glyphshow
grestore
2 setlinecap
1.000 setgray
gsave
334.8 279 54 45 clipbox
54 204.428571 m
388.8 204.428571 l
stroke
grestore
0 setlinecap
0.498 setgray
gsave
/o {
gsave
newpath
translate
1.4 setlinewidth
1 setlinejoin
0 setlinecap
0 0 m
-5 0 l

gsave
0.498 setgray
fill
grestore
stroke
grestore
} bind def
54 204.429 o
grestore
gsave
19.375000 201.670759 translate
0.000000 rotate
0.000000 0.000000 m /zero glyphshow
6.362305 0.000000 m /period glyphshow
9.541016 0.000000 m /zero glyphshow
15.903320 0.000000 m /zero glyphshow
22.265625 0.000000 m /five glyphshow
grestore
2 setlinecap
1.000 setgray
gsave
334.8 279 54 45 clipbox
54 244.285714 m
388.8 244.285714 l
stroke
grestore
0 setlinecap
0.498 setgray
gsave
/o {
gsave
newpath
translate
1.4 setlinewidth
1 setlinejoin
0 setlinecap
0 0 m
-5 0 l

gsave
0.498 setgray
fill
grestore
stroke
grestore
} bind def
54 244.286 o
grestore
gsave
19.375000 241.527902 translate
0.000000 rotate
0.000000 0.000000 m /zero glyphshow
6.362305 0.000000 m /period glyphshow
9.541016 0.000000 m /zero glyphshow
15.903320 0.000000 m /one glyphshow
22.265625 0.000000 m /zero glyphshow
grestore
2 setlinecap
1.000 setgray
gsave
334.8 279 54 45 clipbox
54 284.142857 m
388.8 284.142857 l
stroke
grestore
0 setlinecap
0.498 setgray
gsave
/o {
gsave
newpath
translate
1.4 setlinewidth
1 setlinejoin
0 setlinecap
0 0 m
-5 0 l

gsave
0.498 setgray
fill
grestore
stroke
grestore
} bind def
54 284.143 o
grestore
gsave
19.375000 281.385045 translate
0.000000 rotate
0.000000 0.000000 m /zero glyphshow
6.362305 0.000000 m /period glyphshow
9.541016 0.000000 m /zero glyphshow
15.903320 0.000000 m /one glyphshow
22.265625 0.000000 m /five glyphshow
grestore
2 setlinecap
1.000 setgray
gsave
334.8 279 54 45 clipbox
54 324 m
388.8 324 l
stroke
grestore
0 setlinecap
0.498 setgray
gsave
/o {
gsave
newpath
translate
1.4 setlinewidth
1 setlinejoin
0 setlinecap
0 0 m
-5 0 l

gsave
0.498 setgray
fill
grestore
stroke
grestore
} bind def
54 324 o
grestore
gsave
19.375000 321.242188 translate
0.000000 rotate
0.000000 0.000000 m /zero glyphshow
6.362305 0.000000 m /period glyphshow
9.541016 0.000000 m /zero glyphshow
15.903320 0.000000 m /two glyphshow
22.265625 0.000000 m /zero glyphshow
grestore
0.700 setlinewidth
2 setlinecap
0.949 setgray
gsave
334.8 279 54 45 clipbox
54 64.928571 m
388.8 64.928571 l
stroke
grestore
0.500 setlinewidth
0 setlinecap
0.498 setgray
gsave
/o {
gsave
newpath
translate
0.5 setlinewidth
1 setlinejoin
0 setlinecap
0 0 m
0 0 l

gsave
0.498 setgray
fill
grestore
stroke
grestore
} bind def
54 64.9286 o
grestore
0.700 setlinewidth
2 setlinecap
0.949 setgray
gsave
334.8 279 54 45 clipbox
54 104.785714 m
388.8 104.785714 l
stroke
grestore
0.500 setlinewidth
0 setlinecap
0.498 setgray
gsave
/o {
gsave
newpath
translate
0.5 setlinewidth
1 setlinejoin
0 setlinecap
0 0 m
0 0 l

gsave
0.498 setgray
fill
grestore
stroke
grestore
} bind def
54 104.786 o
grestore
0.700 setlinewidth
2 setlinecap
0.949 setgray
gsave
334.8 279 54 45 clipbox
54 144.642857 m
388.8 144.642857 l
stroke
grestore
0.500 setlinewidth
0 setlinecap
0.498 setgray
gsave
/o {
gsave
newpath
translate
0.5 setlinewidth
1 setlinejoin
0 setlinecap
0 0 m
0 0 l

gsave
0.498 setgray
fill
grestore
stroke
grestore
} bind def
54 144.643 o
grestore
0.700 setlinewidth
2 setlinecap
0.949 setgray
gsave
334.8 279 54 45 clipbox
54 184.5 m
388.8 184.5 l
stroke
grestore
0.500 setlinewidth
0 setlinecap
0.498 setgray
gsave
/o {
gsave
newpath
translate
0.5 setlinewidth
1 setlinejoin
0 setlinecap
0 0 m
0 0 l

gsave
0.498 setgray
fill
grestore
stroke
grestore
} bind def
54 184.5 o
grestore
0.700 setlinewidth
2 setlinecap
0.949 setgray
gsave
334.8 279 54 45 clipbox
54 224.357143 m
388.8 224.357143 l
stroke
grestore
0.500 setlinewidth
0 setlinecap
0.498 setgray
gsave
/o {
gsave
newpath
translate
0.5 setlinewidth
1 setlinejoin
0 setlinecap
0 0 m
0 0 l

gsave
0.498 setgray
fill
grestore
stroke
grestore
} bind def
54 224.357 o
grestore
0.700 setlinewidth
2 setlinecap
0.949 setgray
gsave
334.8 279 54 45 clipbox
54 264.214286 m
388.8 264.214286 l
stroke
grestore
0.500 setlinewidth
0 setlinecap
0.498 setgray
gsave
/o {
gsave
newpath
translate
0.5 setlinewidth
1 setlinejoin
0 setlinecap
0 0 m
0 0 l

gsave
0.498 setgray
fill
grestore
stroke
grestore
} bind def
54 264.214 o
grestore
0.700 setlinewidth
2 setlinecap
0.949 setgray
gsave
334.8 279 54 45 clipbox
54 304.071429 m
388.8 304.071429 l
stroke
grestore
0.500 setlinewidth
0 setlinecap
0.498 setgray
gsave
/o {
gsave
newpath
translate
0.5 setlinewidth
1 setlinejoin
0 setlinecap
0 0 m
0 0 l

gsave
0.498 setgray
fill
grestore
stroke
grestore
} bind def
54 304.071 o
grestore
/p0_0 {
newpath
translate
0 -1 m
0.265203 -1 0.51958 -0.894634 0.707107 -0.707107 c
0.894634 -0.51958 1 -0.265203 1 0 c
1 0.265203 0.894634 0.51958 0.707107 0.707107 c
0.51958 0.894634 0.265203 1 0 1 c
-0.265203 1 -0.51958 0.894634 -0.707107 0.707107 c
-0.894634 0.51958 -1 0.265203 -1 0 c
-1 -0.265203 -0.894634 -0.51958 -0.707107 -0.707107 c
-0.51958 -0.894634 -0.265203 -1 0 -1 c
cl

} bind def
gsave
334.8 279 54 45 clipbox
55.488 287.449 p0_0
0.000 0.749 1.000 setrgbcolor
fill
grestore
gsave
334.8 279 54 45 clipbox
56.232 170.798 p0_0
0.000 0.749 1.000 setrgbcolor
fill
grestore
gsave
334.8 279 54 45 clipbox
56.976 99.4506 p0_0
0.000 0.749 1.000 setrgbcolor
fill
grestore
gsave
334.8 279 54 45 clipbox
57.72 125.804 p0_0
0.000 0.749 1.000 setrgbcolor
fill
grestore
gsave
334.8 279 54 45 clipbox
58.464 160.893 p0_0
0.000 0.749 1.000 setrgbcolor
fill
grestore
gsave
334.8 279 54 45 clipbox
59.208 151.872 p0_0
0.000 0.749 1.000 setrgbcolor
fill
grestore
gsave
334.8 279 54 45 clipbox
59.952 190.164 p0_0
0.000 0.749 1.000 setrgbcolor
fill
grestore
gsave
334.8 279 54 45 clipbox
60.696 141.476 p0_0
0.000 0.749 1.000 setrgbcolor
fill
grestore
gsave
334.8 279 54 45 clipbox
61.44 186.743 p0_0
0.000 0.749 1.000 setrgbcolor
fill
grestore
gsave
334.8 279 54 45 clipbox
62.184 192.158 p0_0
0.000 0.749 1.000 setrgbcolor
fill
grestore
gsave
334.8 279 54 45 clipbox
62.928 195.16 p0_0
0.000 0.749 1.000 setrgbcolor
fill
grestore
gsave
334.8 279 54 45 clipbox
63.672 199.87 p0_0
0.000 0.749 1.000 setrgbcolor
fill
grestore
gsave
334.8 279 54 45 clipbox
64.416 137.873 p0_0
0.000 0.749 1.000 setrgbcolor
fill
grestore
gsave
334.8 279 54 45 clipbox
65.16 187.483 p0_0
0.000 0.749 1.000 setrgbcolor
fill
grestore
gsave
334.8 279 54 45 clipbox
65.904 155.44 p0_0
0.000 0.749 1.000 setrgbcolor
fill
grestore
gsave
334.8 279 54 45 clipbox
66.648 190.761 p0_0
0.000 0.749 1.000 setrgbcolor
fill
grestore
gsave
334.8 279 54 45 clipbox
67.392 172.375 p0_0
0.000 0.749 1.000 setrgbcolor
fill
grestore
gsave
334.8 279 54 45 clipbox
68.136 137.756 p0_0
0.000 0.749 1.000 setrgbcolor
fill
grestore
gsave
334.8 279 54 45 clipbox
68.88 144.378 p0_0
0.000 0.749 1.000 setrgbcolor
fill
grestore
gsave
334.8 279 54 45 clipbox
69.624 174.967 p0_0
0.000 0.749 1.000 setrgbcolor
fill
grestore
gsave
334.8 279 54 45 clipbox
70.368 166.713 p0_0
0.000 0.749 1.000 setrgbcolor
fill
grestore
gsave
334.8 279 54 45 clipbox
71.112 159.648 p0_0
0.000 0.749 1.000 setrgbcolor
fill
grestore
gsave
334.8 279 54 45 clipbox
71.856 121.452 p0_0
0.000 0.749 1.000 setrgbcolor
fill
grestore
gsave
334.8 279 54 45 clipbox
72.6 159.052 p0_0
0.000 0.749 1.000 setrgbcolor
fill
grestore
gsave
334.8 279 54 45 clipbox
73.344 163.421 p0_0
0.000 0.749 1.000 setrgbcolor
fill
grestore
gsave
334.8 279 54 45 clipbox
74.088 169.506 p0_0
0.000 0.749 1.000 setrgbcolor
fill
grestore
gsave
334.8 279 54 45 clipbox
74.832 161.644 p0_0
0.000 0.749 1.000 setrgbcolor
fill
grestore
gsave
334.8 279 54 45 clipbox
75.576 119.666 p0_0
0.000 0.749 1.000 setrgbcolor
fill
grestore
gsave
334.8 279 54 45 clipbox
76.32 150.267 p0_0
0.000 0.749 1.000 setrgbcolor
fill
grestore
gsave
334.8 279 54 45 clipbox
77.064 180.432 p0_0
0.000 0.749 1.000 setrgbcolor
fill
grestore
gsave
334.8 279 54 45 clipbox
77.808 161.754 p0_0
0.000 0.749 1.000 setrgbcolor
fill
grestore
gsave
334.8 279 54 45 clipbox
78.552 199.315 p0_0
0.000 0.749 1.000 setrgbcolor
fill
grestore
gsave
334.8 279 54 45 clipbox
79.296 121.112 p0_0
0.000 0.749 1.000 setrgbcolor
fill
grestore
gsave
334.8 279 54 45 clipbox
80.04 171.317 p0_0
0.000 0.749 1.000 setrgbcolor
fill
grestore
gsave
334.8 279 54 45 clipbox
80.784 173.396 p0_0
0.000 0.749 1.000 setrgbcolor
fill
grestore
gsave
334.8 279 54 45 clipbox
81.528 199.15 p0_0
0.000 0.749 1.000 setrgbcolor
fill
grestore
gsave
334.8 279 54 45 clipbox
82.272 189.122 p0_0
0.000 0.749 1.000 setrgbcolor
fill
grestore
gsave
334.8 279 54 45 clipbox
83.016 130.183 p0_0
0.000 0.749 1.000 setrgbcolor
fill
grestore
gsave
334.8 279 54 45 clipbox
83.76 182.066 p0_0
0.000 0.749 1.000 setrgbcolor
fill
grestore
gsave
334.8 279 54 45 clipbox
84.504 188.337 p0_0
0.000 0.749 1.000 setrgbcolor
fill
grestore
gsave
334.8 279 54 45 clipbox
85.248 192.11 p0_0
0.000 0.749 1.000 setrgbcolor
fill
grestore
gsave
334.8 279 54 45 clipbox
85.992 168.473 p0_0
0.000 0.749 1.000 setrgbcolor
fill
grestore
gsave
334.8 279 54 45 clipbox
86.736 143.674 p0_0
0.000 0.749 1.000 setrgbcolor
fill
grestore
gsave
334.8 279 54 45 clipbox
87.48 173.206 p0_0
0.000 0.749 1.000 setrgbcolor
fill
grestore
gsave
334.8 279 54 45 clipbox
88.224 190.976 p0_0
0.000 0.749 1.000 setrgbcolor
fill
grestore
gsave
334.8 279 54 45 clipbox
88.968 194.19 p0_0
0.000 0.749 1.000 setrgbcolor
fill
grestore
gsave
334.8 279 54 45 clipbox
89.712 184.956 p0_0
0.000 0.749 1.000 setrgbcolor
fill
grestore
gsave
334.8 279 54 45 clipbox
90.456 153.271 p0_0
0.000 0.749 1.000 setrgbcolor
fill
grestore
gsave
334.8 279 54 45 clipbox
91.2 188.889 p0_0
0.000 0.749 1.000 setrgbcolor
fill
grestore
gsave
334.8 279 54 45 clipbox
91.944 208.874 p0_0
0.000 0.749 1.000 setrgbcolor
fill
grestore
gsave
334.8 279 54 45 clipbox
92.688 171.679 p0_0
0.000 0.749 1.000 setrgbcolor
fill
grestore
gsave
334.8 279 54 45 clipbox
93.432 210.929 p0_0
0.000 0.749 1.000 setrgbcolor
fill
grestore
gsave
334.8 279 54 45 clipbox
94.176 141.588 p0_0
0.000 0.749 1.000 setrgbcolor
fill
grestore
gsave
334.8 279 54 45 clipbox
94.92 189.756 p0_0
0.000 0.749 1.000 setrgbcolor
fill
grestore
gsave
334.8 279 54 45 clipbox
95.664 180.163 p0_0
0.000 0.749 1.000 setrgbcolor
fill
grestore
gsave
334.8 279 54 45 clipbox
96.408 195.412 p0_0
0.000 0.749 1.000 setrgbcolor
fill
grestore
gsave
334.8 279 54 45 clipbox
97.152 172.172 p0_0
0.000 0.749 1.000 setrgbcolor
fill
grestore
gsave
334.8 279 54 45 clipbox
97.896 166.302 p0_0
0.000 0.749 1.000 setrgbcolor
fill
grestore
gsave
334.8 279 54 45 clipbox
98.64 204.497 p0_0
0.000 0.749 1.000 setrgbcolor
fill
grestore
gsave
334.8 279 54 45 clipbox
99.384 191.823 p0_0
0.000 0.749 1.000 setrgbcolor
fill
grestore
gsave
334.8 279 54 45 clipbox
100.128 196.33 p0_0
0.000 0.749 1.000 setrgbcolor
fill
grestore
gsave
334.8 279 54 45 clipbox
100.872 193.647 p0_0
0.000 0.749 1.000 setrgbcolor
fill
grestore
gsave
334.8 279 54 45 clipbox
101.616 171.573 p0_0
0.000 0.749 1.000 setrgbcolor
fill
grestore
gsave
334.8 279 54 45 clipbox
102.36 183.58 p0_0
0.000 0.749 1.000 setrgbcolor
fill
grestore
gsave
334.8 279 54 45 clipbox
103.104 212.624 p0_0
0.000 0.749 1.000 setrgbcolor
fill
grestore
gsave
334.8 279 54 45 clipbox
103.848 195.413 p0_0
0.000 0.749 1.000 setrgbcolor
fill
grestore
gsave
334.8 279 54 45 clipbox
104.592 204.905 p0_0
0.000 0.749 1.000 setrgbcolor
fill
grestore
gsave
334.8 279 54 45 clipbox
105.336 194.869 p0_0
0.000 0.749 1.000 setrgbcolor
fill
grestore
gsave
334.8 279 54 45 clipbox
106.08 196.897 p0_0
0.000 0.749 1.000 setrgbcolor
fill
grestore
gsave
334.8 279 54 45 clipbox
106.824 213.419 p0_0
0.000 0.749 1.000 setrgbcolor
fill
grestore
gsave
334.8 279 54 45 clipbox
107.568 195.762 p0_0
0.000 0.749 1.000 setrgbcolor
fill
grestore
gsave
334.8 279 54 45 clipbox
108.312 202.303 p0_0
0.000 0.749 1.000 setrgbcolor
fill
grestore
gsave
334.8 279 54 45 clipbox
109.056 162.483 p0_0
0.000 0.749 1.000 setrgbcolor
fill
grestore
gsave
334.8 279 54 45 clipbox
109.8 193.058 p0_0
0.000 0.749 1.000 setrgbcolor
fill
grestore
gsave
334.8 279 54 45 clipbox
110.544 194.295 p0_0
0.000 0.749 1.000 setrgbcolor
fill
grestore
gsave
334.8 279 54 45 clipbox
111.288 175.904 p0_0
0.000 0.749 1.000 setrgbcolor
fill
grestore
gsave
334.8 279 54 45 clipbox
112.032 201.14 p0_0
0.000 0.749 1.000 setrgbcolor
fill
grestore
gsave
334.8 279 54 45 clipbox
112.776 155.67 p0_0
0.000 0.749 1.000 setrgbcolor
fill
grestore
gsave
334.8 279 54 45 clipbox
113.52 212.19 p0_0
0.000 0.749 1.000 setrgbcolor
fill
grestore
gsave
334.8 279 54 45 clipbox
114.264 173.675 p0_0
0.000 0.749 1.000 setrgbcolor
fill
grestore
gsave
334.8 279 54 45 clipbox
115.008 200.673 p0_0
0.000 0.749 1.000 setrgbcolor
fill
grestore
gsave
334.8 279 54 45 clipbox
115.752 200.728 p0_0
0.000 0.749 1.000 setrgbcolor
fill
grestore
gsave
334.8 279 54 45 clipbox
116.496 154.404 p0_0
0.000 0.749 1.000 setrgbcolor
fill
grestore
gsave
334.8 279 54 45 clipbox
117.24 185.741 p0_0
0.000 0.749 1.000 setrgbcolor
fill
grestore
gsave
334.8 279 54 45 clipbox
117.984 192.591 p0_0
0.000 0.749 1.000 setrgbcolor
fill
grestore
gsave
334.8 279 54 45 clipbox
118.728 199.266 p0_0
0.000 0.749 1.000 setrgbcolor
fill
grestore
gsave
334.8 279 54 45 clipbox
119.472 203.341 p0_0
0.000 0.749 1.000 setrgbcolor
fill
grestore
gsave
334.8 279 54 45 clipbox
120.216 187.779 p0_0
0.000 0.749 1.000 setrgbcolor
fill
grestore
gsave
334.8 279 54 45 clipbox
120.96 176.925 p0_0
0.000 0.749 1.000 setrgbcolor
fill
grestore
gsave
334.8 279 54 45 clipbox
121.704 219.428 p0_0
0.000 0.749 1.000 setrgbcolor
fill
grestore
gsave
334.8 279 54 45 clipbox
122.448 188.779 p0_0
0.000 0.749 1.000 setrgbcolor
fill
grestore
gsave
334.8 279 54 45 clipbox
123.192 187.171 p0_0
0.000 0.749 1.000 setrgbcolor
fill
grestore
gsave
334.8 279 54 45 clipbox
123.936 180.536 p0_0
0.000 0.749 1.000 setrgbcolor
fill
grestore
gsave
334.8 279 54 45 clipbox
124.68 198.07 p0_0
0.000 0.749 1.000 setrgbcolor
fill
grestore
gsave
334.8 279 54 45 clipbox
125.424 210.591 p0_0
0.000 0.749 1.000 setrgbcolor
fill
grestore
gsave
334.8 279 54 45 clipbox
126.168 186.467 p0_0
0.000 0.749 1.000 setrgbcolor
fill
grestore
gsave
334.8 279 54 45 clipbox
126.912 201.116 p0_0
0.000 0.749 1.000 setrgbcolor
fill
grestore
gsave
334.8 279 54 45 clipbox
127.656 157.23 p0_0
0.000 0.749 1.000 setrgbcolor
fill
grestore
gsave
334.8 279 54 45 clipbox
128.4 195.919 p0_0
0.000 0.749 1.000 setrgbcolor
fill
grestore
gsave
334.8 279 54 45 clipbox
129.144 185.805 p0_0
0.000 0.749 1.000 setrgbcolor
fill
grestore
gsave
334.8 279 54 45 clipbox
129.888 190.149 p0_0
0.000 0.749 1.000 setrgbcolor
fill
grestore
gsave
334.8 279 54 45 clipbox
130.632 196.787 p0_0
0.000 0.749 1.000 setrgbcolor
fill
grestore
gsave
334.8 279 54 45 clipbox
131.376 164.37 p0_0
0.000 0.749 1.000 setrgbcolor
fill
grestore
gsave
334.8 279 54 45 clipbox
132.12 207.232 p0_0
0.000 0.749 1.000 setrgbcolor
fill
grestore
gsave
334.8 279 54 45 clipbox
132.864 167.252 p0_0
0.000 0.749 1.000 setrgbcolor
fill
grestore
gsave
334.8 279 54 45 clipbox
133.608 183.091 p0_0
0.000 0.749 1.000 setrgbcolor
fill
grestore
gsave
334.8 279 54 45 clipbox
134.352 169.615 p0_0
0.000 0.749 1.000 setrgbcolor
fill
grestore
gsave
334.8 279 54 45 clipbox
135.096 148.711 p0_0
0.000 0.749 1.000 setrgbcolor
fill
grestore
gsave
334.8 279 54 45 clipbox
135.84 176.341 p0_0
0.000 0.749 1.000 setrgbcolor
fill
grestore
gsave
334.8 279 54 45 clipbox
136.584 184.386 p0_0
0.000 0.749 1.000 setrgbcolor
fill
grestore
gsave
334.8 279 54 45 clipbox
137.328 185.019 p0_0
0.000 0.749 1.000 setrgbcolor
fill
grestore
gsave
334.8 279 54 45 clipbox
138.072 187.964 p0_0
0.000 0.749 1.000 setrgbcolor
fill
grestore
gsave
334.8 279 54 45 clipbox
138.816 149.44 p0_0
0.000 0.749 1.000 setrgbcolor
fill
grestore
gsave
334.8 279 54 45 clipbox
139.56 183.791 p0_0
0.000 0.749 1.000 setrgbcolor
fill
grestore
gsave
334.8 279 54 45 clipbox
140.304 181.535 p0_0
0.000 0.749 1.000 setrgbcolor
fill
grestore
gsave
334.8 279 54 45 clipbox
141.048 179.164 p0_0
0.000 0.749 1.000 setrgbcolor
fill
grestore
gsave
334.8 279 54 45 clipbox
141.792 201.023 p0_0
0.000 0.749 1.000 setrgbcolor
fill
grestore
gsave
334.8 279 54 45 clipbox
142.536 154.658 p0_0
0.000 0.749 1.000 setrgbcolor
fill
grestore
gsave
334.8 279 54 45 clipbox
143.28 186.033 p0_0
0.000 0.749 1.000 setrgbcolor
fill
grestore
gsave
334.8 279 54 45 clipbox
144.024 180.812 p0_0
0.000 0.749 1.000 setrgbcolor
fill
grestore
gsave
334.8 279 54 45 clipbox
144.768 202.257 p0_0
0.000 0.749 1.000 setrgbcolor
fill
grestore
gsave
334.8 279 54 45 clipbox
145.512 167.645 p0_0
0.000 0.749 1.000 setrgbcolor
fill
grestore
gsave
334.8 279 54 45 clipbox
146.256 162.136 p0_0
0.000 0.749 1.000 setrgbcolor
fill
grestore
gsave
334.8 279 54 45 clipbox
147 197.884 p0_0
0.000 0.749 1.000 setrgbcolor
fill
grestore
gsave
334.8 279 54 45 clipbox
147.744 187.315 p0_0
0.000 0.749 1.000 setrgbcolor
fill
grestore
gsave
334.8 279 54 45 clipbox
148.488 186.385 p0_0
0.000 0.749 1.000 setrgbcolor
fill
grestore
gsave
334.8 279 54 45 clipbox
149.232 180.492 p0_0
0.000 0.749 1.000 setrgbcolor
fill
grestore
gsave
334.8 279 54 45 clipbox
149.976 191.546 p0_0
0.000 0.749 1.000 setrgbcolor
fill
grestore
gsave
334.8 279 54 45 clipbox
150.72 166.018 p0_0
0.000 0.749 1.000 setrgbcolor
fill
grestore
gsave
334.8 279 54 45 clipbox
151.464 176.895 p0_0
0.000 0.749 1.000 setrgbcolor
fill
grestore
gsave
334.8 279 54 45 clipbox
152.208 177.954 p0_0
0.000 0.749 1.000 setrgbcolor
fill
grestore
gsave
334.8 279 54 45 clipbox
152.952 188.662 p0_0
0.000 0.749 1.000 setrgbcolor
fill
grestore
gsave
334.8 279 54 45 clipbox
153.696 136.032 p0_0
0.000 0.749 1.000 setrgbcolor
fill
grestore
gsave
334.8 279 54 45 clipbox
154.44 192.802 p0_0
0.000 0.749 1.000 setrgbcolor
fill
grestore
gsave
334.8 279 54 45 clipbox
155.184 164.339 p0_0
0.000 0.749 1.000 setrgbcolor
fill
grestore
gsave
334.8 279 54 45 clipbox
155.928 172.281 p0_0
0.000 0.749 1.000 setrgbcolor
fill
grestore
gsave
334.8 279 54 45 clipbox
156.672 182.586 p0_0
0.000 0.749 1.000 setrgbcolor
fill
grestore
gsave
334.8 279 54 45 clipbox
157.416 146.587 p0_0
0.000 0.749 1.000 setrgbcolor
fill
grestore
gsave
334.8 279 54 45 clipbox
158.16 185.928 p0_0
0.000 0.749 1.000 setrgbcolor
fill
grestore
gsave
334.8 279 54 45 clipbox
158.904 169.245 p0_0
0.000 0.749 1.000 setrgbcolor
fill
grestore
gsave
334.8 279 54 45 clipbox
159.648 162.221 p0_0
0.000 0.749 1.000 setrgbcolor
fill
grestore
gsave
334.8 279 54 45 clipbox
160.392 155.114 p0_0
0.000 0.749 1.000 setrgbcolor
fill
grestore
gsave
334.8 279 54 45 clipbox
161.136 140.651 p0_0
0.000 0.749 1.000 setrgbcolor
fill
grestore
gsave
334.8 279 54 45 clipbox
161.88 169.897 p0_0
0.000 0.749 1.000 setrgbcolor
fill
grestore
gsave
334.8 279 54 45 clipbox
162.624 165.017 p0_0
0.000 0.749 1.000 setrgbcolor
fill
grestore
gsave
334.8 279 54 45 clipbox
163.368 179.529 p0_0
0.000 0.749 1.000 setrgbcolor
fill
grestore
gsave
334.8 279 54 45 clipbox
164.112 172.075 p0_0
0.000 0.749 1.000 setrgbcolor
fill
grestore
gsave
334.8 279 54 45 clipbox
164.856 166.992 p0_0
0.000 0.749 1.000 setrgbcolor
fill
grestore
gsave
334.8 279 54 45 clipbox
165.6 176.441 p0_0
0.000 0.749 1.000 setrgbcolor
fill
grestore
gsave
334.8 279 54 45 clipbox
166.344 168.798 p0_0
0.000 0.749 1.000 setrgbcolor
fill
grestore
gsave
334.8 279 54 45 clipbox
167.088 192.703 p0_0
0.000 0.749 1.000 setrgbcolor
fill
grestore
gsave
334.8 279 54 45 clipbox
167.832 172.768 p0_0
0.000 0.749 1.000 setrgbcolor
fill
grestore
gsave
334.8 279 54 45 clipbox
168.576 169.797 p0_0
0.000 0.749 1.000 setrgbcolor
fill
grestore
gsave
334.8 279 54 45 clipbox
169.32 188.661 p0_0
0.000 0.749 1.000 setrgbcolor
fill
grestore
gsave
334.8 279 54 45 clipbox
170.064 170.964 p0_0
0.000 0.749 1.000 setrgbcolor
fill
grestore
gsave
334.8 279 54 45 clipbox
170.808 167.811 p0_0
0.000 0.749 1.000 setrgbcolor
fill
grestore
gsave
334.8 279 54 45 clipbox
171.552 179.193 p0_0
0.000 0.749 1.000 setrgbcolor
fill
grestore
gsave
334.8 279 54 45 clipbox
172.296 146.732 p0_0
0.000 0.749 1.000 setrgbcolor
fill
grestore
gsave
334.8 279 54 45 clipbox
173.04 165.301 p0_0
0.000 0.749 1.000 setrgbcolor
fill
grestore
gsave
334.8 279 54 45 clipbox
173.784 149.751 p0_0
0.000 0.749 1.000 setrgbcolor
fill
grestore
gsave
334.8 279 54 45 clipbox
174.528 165.768 p0_0
0.000 0.749 1.000 setrgbcolor
fill
grestore
gsave
334.8 279 54 45 clipbox
175.272 184.169 p0_0
0.000 0.749 1.000 setrgbcolor
fill
grestore
gsave
334.8 279 54 45 clipbox
176.016 153.856 p0_0
0.000 0.749 1.000 setrgbcolor
fill
grestore
gsave
334.8 279 54 45 clipbox
176.76 159.977 p0_0
0.000 0.749 1.000 setrgbcolor
fill
grestore
gsave
334.8 279 54 45 clipbox
177.504 134.429 p0_0
0.000 0.749 1.000 setrgbcolor
fill
grestore
gsave
334.8 279 54 45 clipbox
178.248 176.935 p0_0
0.000 0.749 1.000 setrgbcolor
fill
grestore
gsave
334.8 279 54 45 clipbox
178.992 165.87 p0_0
0.000 0.749 1.000 setrgbcolor
fill
grestore
gsave
334.8 279 54 45 clipbox
179.736 166.927 p0_0
0.000 0.749 1.000 setrgbcolor
fill
grestore
gsave
334.8 279 54 45 clipbox
180.48 150.896 p0_0
0.000 0.749 1.000 setrgbcolor
fill
grestore
gsave
334.8 279 54 45 clipbox
181.224 166.439 p0_0
0.000 0.749 1.000 setrgbcolor
fill
grestore
gsave
334.8 279 54 45 clipbox
181.968 174.639 p0_0
0.000 0.749 1.000 setrgbcolor
fill
grestore
gsave
334.8 279 54 45 clipbox
182.712 160.892 p0_0
0.000 0.749 1.000 setrgbcolor
fill
grestore
gsave
334.8 279 54 45 clipbox
183.456 154.399 p0_0
0.000 0.749 1.000 setrgbcolor
fill
grestore
gsave
334.8 279 54 45 clipbox
184.2 138.126 p0_0
0.000 0.749 1.000 setrgbcolor
fill
grestore
gsave
334.8 279 54 45 clipbox
184.944 175.324 p0_0
0.000 0.749 1.000 setrgbcolor
fill
grestore
gsave
334.8 279 54 45 clipbox
185.688 154.095 p0_0
0.000 0.749 1.000 setrgbcolor
fill
grestore
gsave
334.8 279 54 45 clipbox
186.432 164.442 p0_0
0.000 0.749 1.000 setrgbcolor
fill
grestore
gsave
334.8 279 54 45 clipbox
187.176 145.551 p0_0
0.000 0.749 1.000 setrgbcolor
fill
grestore
gsave
334.8 279 54 45 clipbox
187.92 167.965 p0_0
0.000 0.749 1.000 setrgbcolor
fill
grestore
gsave
334.8 279 54 45 clipbox
188.664 156.288 p0_0
0.000 0.749 1.000 setrgbcolor
fill
grestore
gsave
334.8 279 54 45 clipbox
189.408 181.051 p0_0
0.000 0.749 1.000 setrgbcolor
fill
grestore
gsave
334.8 279 54 45 clipbox
190.152 174.15 p0_0
0.000 0.749 1.000 setrgbcolor
fill
grestore
gsave
334.8 279 54 45 clipbox
190.896 155.042 p0_0
0.000 0.749 1.000 setrgbcolor
fill
grestore
gsave
334.8 279 54 45 clipbox
191.64 169.944 p0_0
0.000 0.749 1.000 setrgbcolor
fill
grestore
gsave
334.8 279 54 45 clipbox
192.384 160.485 p0_0
0.000 0.749 1.000 setrgbcolor
fill
grestore
gsave
334.8 279 54 45 clipbox
193.128 177.737 p0_0
0.000 0.749 1.000 setrgbcolor
fill
grestore
gsave
334.8 279 54 45 clipbox
193.872 151.159 p0_0
0.000 0.749 1.000 setrgbcolor
fill
grestore
gsave
334.8 279 54 45 clipbox
194.616 185.365 p0_0
0.000 0.749 1.000 setrgbcolor
fill
grestore
gsave
334.8 279 54 45 clipbox
195.36 146.552 p0_0
0.000 0.749 1.000 setrgbcolor
fill
grestore
gsave
334.8 279 54 45 clipbox
196.104 163.642 p0_0
0.000 0.749 1.000 setrgbcolor
fill
grestore
gsave
334.8 279 54 45 clipbox
196.848 144.209 p0_0
0.000 0.749 1.000 setrgbcolor
fill
grestore
gsave
334.8 279 54 45 clipbox
197.592 136.903 p0_0
0.000 0.749 1.000 setrgbcolor
fill
grestore
gsave
334.8 279 54 45 clipbox
198.336 136.85 p0_0
0.000 0.749 1.000 setrgbcolor
fill
grestore
gsave
334.8 279 54 45 clipbox
199.08 151.365 p0_0
0.000 0.749 1.000 setrgbcolor
fill
grestore
gsave
334.8 279 54 45 clipbox
199.824 158.533 p0_0
0.000 0.749 1.000 setrgbcolor
fill
grestore
gsave
334.8 279 54 45 clipbox
200.568 155.938 p0_0
0.000 0.749 1.000 setrgbcolor
fill
grestore
gsave
334.8 279 54 45 clipbox
201.312 160.61 p0_0
0.000 0.749 1.000 setrgbcolor
fill
grestore
gsave
334.8 279 54 45 clipbox
202.056 157.943 p0_0
0.000 0.749 1.000 setrgbcolor
fill
grestore
gsave
334.8 279 54 45 clipbox
202.8 172.275 p0_0
0.000 0.749 1.000 setrgbcolor
fill
grestore
gsave
334.8 279 54 45 clipbox
203.544 162.237 p0_0
0.000 0.749 1.000 setrgbcolor
fill
grestore
gsave
334.8 279 54 45 clipbox
204.288 147.3 p0_0
0.000 0.749 1.000 setrgbcolor
fill
grestore
gsave
334.8 279 54 45 clipbox
205.032 176.124 p0_0
0.000 0.749 1.000 setrgbcolor
fill
grestore
gsave
334.8 279 54 45 clipbox
205.776 139.222 p0_0
0.000 0.749 1.000 setrgbcolor
fill
grestore
gsave
334.8 279 54 45 clipbox
206.52 165.547 p0_0
0.000 0.749 1.000 setrgbcolor
fill
grestore
gsave
334.8 279 54 45 clipbox
207.264 143.173 p0_0
0.000 0.749 1.000 setrgbcolor
fill
grestore
gsave
334.8 279 54 45 clipbox
208.008 176.726 p0_0
0.000 0.749 1.000 setrgbcolor
fill
grestore
gsave
334.8 279 54 45 clipbox
208.752 168.891 p0_0
0.000 0.749 1.000 setrgbcolor
fill
grestore
gsave
334.8 279 54 45 clipbox
209.496 161.023 p0_0
0.000 0.749 1.000 setrgbcolor
fill
grestore
gsave
334.8 279 54 45 clipbox
210.24 155.555 p0_0
0.000 0.749 1.000 setrgbcolor
fill
grestore
gsave
334.8 279 54 45 clipbox
210.984 162.22 p0_0
0.000 0.749 1.000 setrgbcolor
fill
grestore
gsave
334.8 279 54 45 clipbox
211.728 171.284 p0_0
0.000 0.749 1.000 setrgbcolor
fill
grestore
gsave
334.8 279 54 45 clipbox
212.472 148.688 p0_0
0.000 0.749 1.000 setrgbcolor
fill
grestore
gsave
334.8 279 54 45 clipbox
213.216 167.425 p0_0
0.000 0.749 1.000 setrgbcolor
fill
grestore
gsave
334.8 279 54 45 clipbox
213.96 152.069 p0_0
0.000 0.749 1.000 setrgbcolor
fill
grestore
gsave
334.8 279 54 45 clipbox
214.704 173.177 p0_0
0.000 0.749 1.000 setrgbcolor
fill
grestore
gsave
334.8 279 54 45 clipbox
215.448 148.038 p0_0
0.000 0.749 1.000 setrgbcolor
fill
grestore
gsave
334.8 279 54 45 clipbox
216.192 159.353 p0_0
0.000 0.749 1.000 setrgbcolor
fill
grestore
gsave
334.8 279 54 45 clipbox
216.936 151.183 p0_0
0.000 0.749 1.000 setrgbcolor
fill
grestore
gsave
334.8 279 54 45 clipbox
217.68 128.38 p0_0
0.000 0.749 1.000 setrgbcolor
fill
grestore
gsave
334.8 279 54 45 clipbox
218.424 156.645 p0_0
0.000 0.749 1.000 setrgbcolor
fill
grestore
gsave
334.8 279 54 45 clipbox
219.168 150.82 p0_0
0.000 0.749 1.000 setrgbcolor
fill
grestore
gsave
334.8 279 54 45 clipbox
219.912 142.529 p0_0
0.000 0.749 1.000 setrgbcolor
fill
grestore
gsave
334.8 279 54 45 clipbox
220.656 153.684 p0_0
0.000 0.749 1.000 setrgbcolor
fill
grestore
gsave
334.8 279 54 45 clipbox
221.4 140.476 p0_0
0.000 0.749 1.000 setrgbcolor
fill
grestore
gsave
334.8 279 54 45 clipbox
222.144 144.276 p0_0
0.000 0.749 1.000 setrgbcolor
fill
grestore
gsave
334.8 279 54 45 clipbox
222.888 140.746 p0_0
0.000 0.749 1.000 setrgbcolor
fill
grestore
gsave
334.8 279 54 45 clipbox
223.632 154.218 p0_0
0.000 0.749 1.000 setrgbcolor
fill
grestore
gsave
334.8 279 54 45 clipbox
224.376 145.775 p0_0
0.000 0.749 1.000 setrgbcolor
fill
grestore
gsave
334.8 279 54 45 clipbox
225.12 161.625 p0_0
0.000 0.749 1.000 setrgbcolor
fill
grestore
gsave
334.8 279 54 45 clipbox
225.864 153.131 p0_0
0.000 0.749 1.000 setrgbcolor
fill
grestore
gsave
334.8 279 54 45 clipbox
226.608 151.905 p0_0
0.000 0.749 1.000 setrgbcolor
fill
grestore
gsave
334.8 279 54 45 clipbox
227.352 128.764 p0_0
0.000 0.749 1.000 setrgbcolor
fill
grestore
gsave
334.8 279 54 45 clipbox
228.096 151.817 p0_0
0.000 0.749 1.000 setrgbcolor
fill
grestore
gsave
334.8 279 54 45 clipbox
228.84 143.223 p0_0
0.000 0.749 1.000 setrgbcolor
fill
grestore
gsave
334.8 279 54 45 clipbox
229.584 161.364 p0_0
0.000 0.749 1.000 setrgbcolor
fill
grestore
gsave
334.8 279 54 45 clipbox
230.328 145.42 p0_0
0.000 0.749 1.000 setrgbcolor
fill
grestore
gsave
334.8 279 54 45 clipbox
231.072 141.617 p0_0
0.000 0.749 1.000 setrgbcolor
fill
grestore
gsave
334.8 279 54 45 clipbox
231.816 171.852 p0_0
0.000 0.749 1.000 setrgbcolor
fill
grestore
gsave
334.8 279 54 45 clipbox
232.56 155.837 p0_0
0.000 0.749 1.000 setrgbcolor
fill
grestore
gsave
334.8 279 54 45 clipbox
233.304 147.102 p0_0
0.000 0.749 1.000 setrgbcolor
fill
grestore
gsave
334.8 279 54 45 clipbox
234.048 143.206 p0_0
0.000 0.749 1.000 setrgbcolor
fill
grestore
gsave
334.8 279 54 45 clipbox
234.792 163.616 p0_0
0.000 0.749 1.000 setrgbcolor
fill
grestore
gsave
334.8 279 54 45 clipbox
235.536 164.539 p0_0
0.000 0.749 1.000 setrgbcolor
fill
grestore
gsave
334.8 279 54 45 clipbox
236.28 175.171 p0_0
0.000 0.749 1.000 setrgbcolor
fill
grestore
gsave
334.8 279 54 45 clipbox
237.024 124.968 p0_0
0.000 0.749 1.000 setrgbcolor
fill
grestore
gsave
334.8 279 54 45 clipbox
237.768 142.86 p0_0
0.000 0.749 1.000 setrgbcolor
fill
grestore
gsave
334.8 279 54 45 clipbox
238.512 131.53 p0_0
0.000 0.749 1.000 setrgbcolor
fill
grestore
gsave
334.8 279 54 45 clipbox
239.256 149.379 p0_0
0.000 0.749 1.000 setrgbcolor
fill
grestore
gsave
334.8 279 54 45 clipbox
240 118.55 p0_0
0.000 0.749 1.000 setrgbcolor
fill
grestore
gsave
334.8 279 54 45 clipbox
240.744 141.218 p0_0
0.000 0.749 1.000 setrgbcolor
fill
grestore
gsave
334.8 279 54 45 clipbox
241.488 154.143 p0_0
0.000 0.749 1.000 setrgbcolor
fill
grestore
gsave
334.8 279 54 45 clipbox
242.232 108.656 p0_0
0.000 0.749 1.000 setrgbcolor
fill
grestore
gsave
334.8 279 54 45 clipbox
242.976 140.996 p0_0
0.000 0.749 1.000 setrgbcolor
fill
grestore
gsave
334.8 279 54 45 clipbox
243.72 134.394 p0_0
0.000 0.749 1.000 setrgbcolor
fill
grestore
gsave
334.8 279 54 45 clipbox
244.464 122.901 p0_0
0.000 0.749 1.000 setrgbcolor
fill
grestore
gsave
334.8 279 54 45 clipbox
245.208 128.422 p0_0
0.000 0.749 1.000 setrgbcolor
fill
grestore
gsave
334.8 279 54 45 clipbox
245.952 131.494 p0_0
0.000 0.749 1.000 setrgbcolor
fill
grestore
gsave
334.8 279 54 45 clipbox
246.696 134.539 p0_0
0.000 0.749 1.000 setrgbcolor
fill
grestore
gsave
334.8 279 54 45 clipbox
247.44 115.674 p0_0
0.000 0.749 1.000 setrgbcolor
fill
grestore
gsave
334.8 279 54 45 clipbox
248.184 155.182 p0_0
0.000 0.749 1.000 setrgbcolor
fill
grestore
gsave
334.8 279 54 45 clipbox
248.928 126.547 p0_0
0.000 0.749 1.000 setrgbcolor
fill
grestore
gsave
334.8 279 54 45 clipbox
249.672 153.845 p0_0
0.000 0.749 1.000 setrgbcolor
fill
grestore
gsave
334.8 279 54 45 clipbox
250.416 156.804 p0_0
0.000 0.749 1.000 setrgbcolor
fill
grestore
gsave
334.8 279 54 45 clipbox
251.16 152.444 p0_0
0.000 0.749 1.000 setrgbcolor
fill
grestore
gsave
334.8 279 54 45 clipbox
251.904 126.175 p0_0
0.000 0.749 1.000 setrgbcolor
fill
grestore
gsave
334.8 279 54 45 clipbox
252.648 158.264 p0_0
0.000 0.749 1.000 setrgbcolor
fill
grestore
gsave
334.8 279 54 45 clipbox
253.392 168.454 p0_0
0.000 0.749 1.000 setrgbcolor
fill
grestore
gsave
334.8 279 54 45 clipbox
254.136 129.959 p0_0
0.000 0.749 1.000 setrgbcolor
fill
grestore
gsave
334.8 279 54 45 clipbox
254.88 171.737 p0_0
0.000 0.749 1.000 setrgbcolor
fill
grestore
gsave
334.8 279 54 45 clipbox
255.624 138.08 p0_0
0.000 0.749 1.000 setrgbcolor
fill
grestore
gsave
334.8 279 54 45 clipbox
256.368 155.486 p0_0
0.000 0.749 1.000 setrgbcolor
fill
grestore
gsave
334.8 279 54 45 clipbox
257.112 170.454 p0_0
0.000 0.749 1.000 setrgbcolor
fill
grestore
gsave
334.8 279 54 45 clipbox
257.856 156.205 p0_0
0.000 0.749 1.000 setrgbcolor
fill
grestore
gsave
334.8 279 54 45 clipbox
258.6 129.782 p0_0
0.000 0.749 1.000 setrgbcolor
fill
grestore
gsave
334.8 279 54 45 clipbox
259.344 139.829 p0_0
0.000 0.749 1.000 setrgbcolor
fill
grestore
gsave
334.8 279 54 45 clipbox
260.088 149.86 p0_0
0.000 0.749 1.000 setrgbcolor
fill
grestore
gsave
334.8 279 54 45 clipbox
260.832 128.252 p0_0
0.000 0.749 1.000 setrgbcolor
fill
grestore
gsave
334.8 279 54 45 clipbox
261.576 138.251 p0_0
0.000 0.749 1.000 setrgbcolor
fill
grestore
gsave
334.8 279 54 45 clipbox
262.32 131.207 p0_0
0.000 0.749 1.000 setrgbcolor
fill
grestore
gsave
334.8 279 54 45 clipbox
263.064 141.174 p0_0
0.000 0.749 1.000 setrgbcolor
fill
grestore
gsave
334.8 279 54 45 clipbox
263.808 134.1 p0_0
0.000 0.749 1.000 setrgbcolor
fill
grestore
gsave
334.8 279 54 45 clipbox
264.552 158.641 p0_0
0.000 0.749 1.000 setrgbcolor
fill
grestore
gsave
334.8 279 54 45 clipbox
265.296 127.207 p0_0
0.000 0.749 1.000 setrgbcolor
fill
grestore
gsave
334.8 279 54 45 clipbox
266.04 144.416 p0_0
0.000 0.749 1.000 setrgbcolor
fill
grestore
gsave
334.8 279 54 45 clipbox
266.784 142.144 p0_0
0.000 0.749 1.000 setrgbcolor
fill
grestore
gsave
334.8 279 54 45 clipbox
267.528 142.288 p0_0
0.000 0.749 1.000 setrgbcolor
fill
grestore
gsave
334.8 279 54 45 clipbox
268.272 161.885 p0_0
0.000 0.749 1.000 setrgbcolor
fill
grestore
gsave
334.8 279 54 45 clipbox
269.016 132.817 p0_0
0.000 0.749 1.000 setrgbcolor
fill
grestore
gsave
334.8 279 54 45 clipbox
269.76 145.082 p0_0
0.000 0.749 1.000 setrgbcolor
fill
grestore
gsave
334.8 279 54 45 clipbox
270.504 125.712 p0_0
0.000 0.749 1.000 setrgbcolor
fill
grestore
gsave
334.8 279 54 45 clipbox
271.248 140.381 p0_0
0.000 0.749 1.000 setrgbcolor
fill
grestore
gsave
334.8 279 54 45 clipbox
271.992 150.18 p0_0
0.000 0.749 1.000 setrgbcolor
fill
grestore
gsave
334.8 279 54 45 clipbox
272.736 147.795 p0_0
0.000 0.749 1.000 setrgbcolor
fill
grestore
gsave
334.8 279 54 45 clipbox
273.48 142.965 p0_0
0.000 0.749 1.000 setrgbcolor
fill
grestore
gsave
334.8 279 54 45 clipbox
274.224 130.826 p0_0
0.000 0.749 1.000 setrgbcolor
fill
grestore
gsave
334.8 279 54 45 clipbox
274.968 135.694 p0_0
0.000 0.749 1.000 setrgbcolor
fill
grestore
gsave
334.8 279 54 45 clipbox
275.712 135.694 p0_0
0.000 0.749 1.000 setrgbcolor
fill
grestore
gsave
334.8 279 54 45 clipbox
276.456 172.165 p0_0
0.000 0.749 1.000 setrgbcolor
fill
grestore
gsave
334.8 279 54 45 clipbox
277.2 152.673 p0_0
0.000 0.749 1.000 setrgbcolor
fill
grestore
gsave
334.8 279 54 45 clipbox
277.944 142.901 p0_0
0.000 0.749 1.000 setrgbcolor
fill
grestore
gsave
334.8 279 54 45 clipbox
278.688 137.978 p0_0
0.000 0.749 1.000 setrgbcolor
fill
grestore
gsave
334.8 279 54 45 clipbox
279.432 152.509 p0_0
0.000 0.749 1.000 setrgbcolor
fill
grestore
gsave
334.8 279 54 45 clipbox
280.176 140.26 p0_0
0.000 0.749 1.000 setrgbcolor
fill
grestore
gsave
334.8 279 54 45 clipbox
280.92 157.197 p0_0
0.000 0.749 1.000 setrgbcolor
fill
grestore
gsave
334.8 279 54 45 clipbox
281.664 127.896 p0_0
0.000 0.749 1.000 setrgbcolor
fill
grestore
gsave
334.8 279 54 45 clipbox
282.408 130.213 p0_0
0.000 0.749 1.000 setrgbcolor
fill
grestore
gsave
334.8 279 54 45 clipbox
283.152 154.407 p0_0
0.000 0.749 1.000 setrgbcolor
fill
grestore
gsave
334.8 279 54 45 clipbox
283.896 127.509 p0_0
0.000 0.749 1.000 setrgbcolor
fill
grestore
gsave
334.8 279 54 45 clipbox
284.64 120.058 p0_0
0.000 0.749 1.000 setrgbcolor
fill
grestore
gsave
334.8 279 54 45 clipbox
285.384 117.456 p0_0
0.000 0.749 1.000 setrgbcolor
fill
grestore
gsave
334.8 279 54 45 clipbox
286.128 146.466 p0_0
0.000 0.749 1.000 setrgbcolor
fill
grestore
gsave
334.8 279 54 45 clipbox
286.872 129.254 p0_0
0.000 0.749 1.000 setrgbcolor
fill
grestore
gsave
334.8 279 54 45 clipbox
287.616 153.378 p0_0
0.000 0.749 1.000 setrgbcolor
fill
grestore
gsave
334.8 279 54 45 clipbox
288.36 153.162 p0_0
0.000 0.749 1.000 setrgbcolor
fill
grestore
gsave
334.8 279 54 45 clipbox
289.104 126.183 p0_0
0.000 0.749 1.000 setrgbcolor
fill
grestore
gsave
334.8 279 54 45 clipbox
289.848 152.705 p0_0
0.000 0.749 1.000 setrgbcolor
fill
grestore
gsave
334.8 279 54 45 clipbox
290.592 135.437 p0_0
0.000 0.749 1.000 setrgbcolor
fill
grestore
gsave
334.8 279 54 45 clipbox
291.336 147.341 p0_0
0.000 0.749 1.000 setrgbcolor
fill
grestore
gsave
334.8 279 54 45 clipbox
292.08 137.344 p0_0
0.000 0.749 1.000 setrgbcolor
fill
grestore
gsave
334.8 279 54 45 clipbox
292.824 156.528 p0_0
0.000 0.749 1.000 setrgbcolor
fill
grestore
gsave
334.8 279 54 45 clipbox
293.568 127.045 p0_0
0.000 0.749 1.000 setrgbcolor
fill
grestore
gsave
334.8 279 54 45 clipbox
294.312 131.611 p0_0
0.000 0.749 1.000 setrgbcolor
fill
grestore
gsave
334.8 279 54 45 clipbox
295.056 155.627 p0_0
0.000 0.749 1.000 setrgbcolor
fill
grestore
gsave
334.8 279 54 45 clipbox
295.8 126.111 p0_0
0.000 0.749 1.000 setrgbcolor
fill
grestore
gsave
334.8 279 54 45 clipbox
296.544 159.838 p0_0
0.000 0.749 1.000 setrgbcolor
fill
grestore
gsave
334.8 279 54 45 clipbox
297.288 137.604 p0_0
0.000 0.749 1.000 setrgbcolor
fill
grestore
gsave
334.8 279 54 45 clipbox
298.032 159.147 p0_0
0.000 0.749 1.000 setrgbcolor
fill
grestore
gsave
334.8 279 54 45 clipbox
298.776 153.919 p0_0
0.000 0.749 1.000 setrgbcolor
fill
grestore
gsave
334.8 279 54 45 clipbox
299.52 143.82 p0_0
0.000 0.749 1.000 setrgbcolor
fill
grestore
gsave
334.8 279 54 45 clipbox
300.264 109.381 p0_0
0.000 0.749 1.000 setrgbcolor
fill
grestore
gsave
334.8 279 54 45 clipbox
301.008 130.883 p0_0
0.000 0.749 1.000 setrgbcolor
fill
grestore
gsave
334.8 279 54 45 clipbox
301.752 162.11 p0_0
0.000 0.749 1.000 setrgbcolor
fill
grestore
gsave
334.8 279 54 45 clipbox
302.496 139.807 p0_0
0.000 0.749 1.000 setrgbcolor
fill
grestore
gsave
334.8 279 54 45 clipbox
303.24 132.089 p0_0
0.000 0.749 1.000 setrgbcolor
fill
grestore
gsave
334.8 279 54 45 clipbox
303.984 109.767 p0_0
0.000 0.749 1.000 setrgbcolor
fill
grestore
gsave
334.8 279 54 45 clipbox
304.728 140.948 p0_0
0.000 0.749 1.000 setrgbcolor
fill
grestore
gsave
334.8 279 54 45 clipbox
305.472 138.072 p0_0
0.000 0.749 1.000 setrgbcolor
fill
grestore
gsave
334.8 279 54 45 clipbox
306.216 144.914 p0_0
0.000 0.749 1.000 setrgbcolor
fill
grestore
gsave
334.8 279 54 45 clipbox
306.96 144.444 p0_0
0.000 0.749 1.000 setrgbcolor
fill
grestore
gsave
334.8 279 54 45 clipbox
307.704 136.67 p0_0
0.000 0.749 1.000 setrgbcolor
fill
grestore
gsave
334.8 279 54 45 clipbox
308.448 148.355 p0_0
0.000 0.749 1.000 setrgbcolor
fill
grestore
gsave
334.8 279 54 45 clipbox
309.192 130.832 p0_0
0.000 0.749 1.000 setrgbcolor
fill
grestore
gsave
334.8 279 54 45 clipbox
309.936 144.921 p0_0
0.000 0.749 1.000 setrgbcolor
fill
grestore
gsave
334.8 279 54 45 clipbox
310.68 124.948 p0_0
0.000 0.749 1.000 setrgbcolor
fill
grestore
gsave
334.8 279 54 45 clipbox
311.424 151.193 p0_0
0.000 0.749 1.000 setrgbcolor
fill
grestore
gsave
334.8 279 54 45 clipbox
312.168 145.798 p0_0
0.000 0.749 1.000 setrgbcolor
fill
grestore
gsave
334.8 279 54 45 clipbox
312.912 152.56 p0_0
0.000 0.749 1.000 setrgbcolor
fill
grestore
gsave
334.8 279 54 45 clipbox
313.656 137.416 p0_0
0.000 0.749 1.000 setrgbcolor
fill
grestore
gsave
334.8 279 54 45 clipbox
314.4 146.591 p0_0
0.000 0.749 1.000 setrgbcolor
fill
grestore
gsave
334.8 279 54 45 clipbox
315.144 129.006 p0_0
0.000 0.749 1.000 setrgbcolor
fill
grestore
gsave
334.8 279 54 45 clipbox
315.888 157.624 p0_0
0.000 0.749 1.000 setrgbcolor
fill
grestore
gsave
334.8 279 54 45 clipbox
316.632 166.774 p0_0
0.000 0.749 1.000 setrgbcolor
fill
grestore
gsave
334.8 279 54 45 clipbox
317.376 156.459 p0_0
0.000 0.749 1.000 setrgbcolor
fill
grestore
gsave
334.8 279 54 45 clipbox
318.12 158.3 p0_0
0.000 0.749 1.000 setrgbcolor
fill
grestore
gsave
334.8 279 54 45 clipbox
318.864 123.639 p0_0
0.000 0.749 1.000 setrgbcolor
fill
grestore
gsave
334.8 279 54 45 clipbox
319.608 164.381 p0_0
0.000 0.749 1.000 setrgbcolor
fill
grestore
gsave
334.8 279 54 45 clipbox
320.352 122.411 p0_0
0.000 0.749 1.000 setrgbcolor
fill
grestore
gsave
334.8 279 54 45 clipbox
321.096 160.704 p0_0
0.000 0.749 1.000 setrgbcolor
fill
grestore
gsave
334.8 279 54 45 clipbox
321.84 130.875 p0_0
0.000 0.749 1.000 setrgbcolor
fill
grestore
gsave
334.8 279 54 45 clipbox
322.584 142.403 p0_0
0.000 0.749 1.000 setrgbcolor
fill
grestore
gsave
334.8 279 54 45 clipbox
323.328 139.317 p0_0
0.000 0.749 1.000 setrgbcolor
fill
grestore
gsave
334.8 279 54 45 clipbox
324.072 155.692 p0_0
0.000 0.749 1.000 setrgbcolor
fill
grestore
gsave
334.8 279 54 45 clipbox
324.816 159.894 p0_0
0.000 0.749 1.000 setrgbcolor
fill
grestore
gsave
334.8 279 54 45 clipbox
325.56 139.759 p0_0
0.000 0.749 1.000 setrgbcolor
fill
grestore
gsave
334.8 279 54 45 clipbox
326.304 143.947 p0_0
0.000 0.749 1.000 setrgbcolor
fill
grestore
gsave
334.8 279 54 45 clipbox
327.048 128.661 p0_0
0.000 0.749 1.000 setrgbcolor
fill
grestore
gsave
334.8 279 54 45 clipbox
327.792 149.86 p0_0
0.000 0.749 1.000 setrgbcolor
fill
grestore
gsave
334.8 279 54 45 clipbox
328.536 149.155 p0_0
0.000 0.749 1.000 setrgbcolor
fill
grestore
gsave
334.8 279 54 45 clipbox
329.28 133.856 p0_0
0.000 0.749 1.000 setrgbcolor
fill
grestore
gsave
334.8 279 54 45 clipbox
330.024 150.171 p0_0
0.000 0.749 1.000 setrgbcolor
fill
grestore
gsave
334.8 279 54 45 clipbox
330.768 147.013 p0_0
0.000 0.749 1.000 setrgbcolor
fill
grestore
gsave
334.8 279 54 45 clipbox
331.512 153.582 p0_0
0.000 0.749 1.000 setrgbcolor
fill
grestore
gsave
334.8 279 54 45 clipbox
332.256 145.547 p0_0
0.000 0.749 1.000 setrgbcolor
fill
grestore
gsave
334.8 279 54 45 clipbox
333 139.937 p0_0
0.000 0.749 1.000 setrgbcolor
fill
grestore
gsave
334.8 279 54 45 clipbox
333.744 141.623 p0_0
0.000 0.749 1.000 setrgbcolor
fill
grestore
gsave
334.8 279 54 45 clipbox
334.488 133.567 p0_0
0.000 0.749 1.000 setrgbcolor
fill
grestore
gsave
334.8 279 54 45 clipbox
335.232 125.506 p0_0
0.000 0.749 1.000 setrgbcolor
fill
grestore
gsave
334.8 279 54 45 clipbox
335.976 168.519 p0_0
0.000 0.749 1.000 setrgbcolor
fill
grestore
gsave
334.8 279 54 45 clipbox
336.72 150.71 p0_0
0.000 0.749 1.000 setrgbcolor
fill
grestore
gsave
334.8 279 54 45 clipbox
337.464 147.499 p0_0
0.000 0.749 1.000 setrgbcolor
fill
grestore
gsave
334.8 279 54 45 clipbox
338.208 161.301 p0_0
0.000 0.749 1.000 setrgbcolor
fill
grestore
gsave
334.8 279 54 45 clipbox
338.952 145.912 p0_0
0.000 0.749 1.000 setrgbcolor
fill
grestore
gsave
334.8 279 54 45 clipbox
339.696 171.865 p0_0
0.000 0.749 1.000 setrgbcolor
fill
grestore
gsave
334.8 279 54 45 clipbox
340.44 141.861 p0_0
0.000 0.749 1.000 setrgbcolor
fill
grestore
gsave
334.8 279 54 45 clipbox
341.184 167.808 p0_0
0.000 0.749 1.000 setrgbcolor
fill
grestore
gsave
334.8 279 54 45 clipbox
341.928 152.387 p0_0
0.000 0.749 1.000 setrgbcolor
fill
grestore
gsave
334.8 279 54 45 clipbox
342.672 146.692 p0_0
0.000 0.749 1.000 setrgbcolor
fill
grestore
gsave
334.8 279 54 45 clipbox
343.416 160.456 p0_0
0.000 0.749 1.000 setrgbcolor
fill
grestore
gsave
334.8 279 54 45 clipbox
344.16 154.749 p0_0
0.000 0.749 1.000 setrgbcolor
fill
grestore
gsave
334.8 279 54 45 clipbox
344.904 124.707 p0_0
0.000 0.749 1.000 setrgbcolor
fill
grestore
gsave
334.8 279 54 45 clipbox
345.648 157.911 p0_0
0.000 0.749 1.000 setrgbcolor
fill
grestore
gsave
334.8 279 54 45 clipbox
346.392 147.323 p0_0
0.000 0.749 1.000 setrgbcolor
fill
grestore
gsave
334.8 279 54 45 clipbox
347.136 165.921 p0_0
0.000 0.749 1.000 setrgbcolor
fill
grestore
gsave
334.8 279 54 45 clipbox
347.88 152.888 p0_0
0.000 0.749 1.000 setrgbcolor
fill
grestore
gsave
334.8 279 54 45 clipbox
348.624 137.412 p0_0
0.000 0.749 1.000 setrgbcolor
fill
grestore
gsave
334.8 279 54 45 clipbox
349.368 163.286 p0_0
0.000 0.749 1.000 setrgbcolor
fill
grestore
gsave
334.8 279 54 45 clipbox
350.112 145.373 p0_0
0.000 0.749 1.000 setrgbcolor
fill
grestore
gsave
334.8 279 54 45 clipbox
350.856 171.235 p0_0
0.000 0.749 1.000 setrgbcolor
fill
grestore
gsave
334.8 279 54 45 clipbox
351.6 138.709 p0_0
0.000 0.749 1.000 setrgbcolor
fill
grestore
gsave
334.8 279 54 45 clipbox
352.344 145.1 p0_0
0.000 0.749 1.000 setrgbcolor
fill
grestore
gsave
334.8 279 54 45 clipbox
353.088 136.891 p0_0
0.000 0.749 1.000 setrgbcolor
fill
grestore
gsave
334.8 279 54 45 clipbox
353.832 143.272 p0_0
0.000 0.749 1.000 setrgbcolor
fill
grestore
gsave
334.8 279 54 45 clipbox
354.576 176.406 p0_0
0.000 0.749 1.000 setrgbcolor
fill
grestore
gsave
334.8 279 54 45 clipbox
355.32 148.722 p0_0
0.000 0.749 1.000 setrgbcolor
fill
grestore
gsave
334.8 279 54 45 clipbox
356.064 155.087 p0_0
0.000 0.749 1.000 setrgbcolor
fill
grestore
gsave
334.8 279 54 45 clipbox
356.808 156.574 p0_0
0.000 0.749 1.000 setrgbcolor
fill
grestore
gsave
334.8 279 54 45 clipbox
357.552 172.66 p0_0
0.000 0.749 1.000 setrgbcolor
fill
grestore
gsave
334.8 279 54 45 clipbox
358.296 176.577 p0_0
0.000 0.749 1.000 setrgbcolor
fill
grestore
gsave
334.8 279 54 45 clipbox
359.04 178.048 p0_0
0.000 0.749 1.000 setrgbcolor
fill
grestore
gsave
334.8 279 54 45 clipbox
359.784 150.332 p0_0
0.000 0.749 1.000 setrgbcolor
fill
grestore
gsave
334.8 279 54 45 clipbox
360.528 149.362 p0_0
0.000 0.749 1.000 setrgbcolor
fill
grestore
gsave
334.8 279 54 45 clipbox
361.272 184.887 p0_0
0.000 0.749 1.000 setrgbcolor
fill
grestore
gsave
334.8 279 54 45 clipbox
362.016 164.449 p0_0
0.000 0.749 1.000 setrgbcolor
fill
grestore
gsave
334.8 279 54 45 clipbox
362.76 168.326 p0_0
0.000 0.749 1.000 setrgbcolor
fill
grestore
gsave
334.8 279 54 45 clipbox
363.504 143.014 p0_0
0.000 0.749 1.000 setrgbcolor
fill
grestore
gsave
334.8 279 54 45 clipbox
364.248 163.916 p0_0
0.000 0.749 1.000 setrgbcolor
fill
grestore
gsave
334.8 279 54 45 clipbox
364.992 158.052 p0_0
0.000 0.749 1.000 setrgbcolor
fill
grestore
gsave
334.8 279 54 45 clipbox
365.736 164.347 p0_0
0.000 0.749 1.000 setrgbcolor
fill
grestore
gsave
334.8 279 54 45 clipbox
366.48 136.584 p0_0
0.000 0.749 1.000 setrgbcolor
fill
grestore
gsave
334.8 279 54 45 clipbox
367.224 155.035 p0_0
0.000 0.749 1.000 setrgbcolor
fill
grestore
gsave
334.8 279 54 45 clipbox
367.968 156.444 p0_0
0.000 0.749 1.000 setrgbcolor
fill
grestore
gsave
334.8 279 54 45 clipbox
368.712 152.996 p0_0
0.000 0.749 1.000 setrgbcolor
fill
grestore
gsave
334.8 279 54 45 clipbox
369.456 205.485 p0_0
0.000 0.749 1.000 setrgbcolor
fill
grestore
gsave
334.8 279 54 45 clipbox
370.2 136.341 p0_0
0.000 0.749 1.000 setrgbcolor
fill
grestore
gsave
334.8 279 54 45 clipbox
370.944 183.958 p0_0
0.000 0.749 1.000 setrgbcolor
fill
grestore
gsave
334.8 279 54 45 clipbox
371.688 163.455 p0_0
0.000 0.749 1.000 setrgbcolor
fill
grestore
gsave
334.8 279 54 45 clipbox
372.432 135.644 p0_0
0.000 0.749 1.000 setrgbcolor
fill
grestore
gsave
334.8 279 54 45 clipbox
373.176 175.954 p0_0
0.000 0.749 1.000 setrgbcolor
fill
grestore
gsave
334.8 279 54 45 clipbox
373.92 140.841 p0_0
0.000 0.749 1.000 setrgbcolor
fill
grestore
gsave
334.8 279 54 45 clipbox
374.664 149.509 p0_0
0.000 0.749 1.000 setrgbcolor
fill
grestore
gsave
334.8 279 54 45 clipbox
375.408 141.147 p0_0
0.000 0.749 1.000 setrgbcolor
fill
grestore
gsave
334.8 279 54 45 clipbox
376.152 166.834 p0_0
0.000 0.749 1.000 setrgbcolor
fill
grestore
gsave
334.8 279 54 45 clipbox
376.896 168.194 p0_0
0.000 0.749 1.000 setrgbcolor
fill
grestore
gsave
334.8 279 54 45 clipbox
377.64 167.112 p0_0
0.000 0.749 1.000 setrgbcolor
fill
grestore
gsave
334.8 279 54 45 clipbox
378.384 170.896 p0_0
0.000 0.749 1.000 setrgbcolor
fill
grestore
gsave
334.8 279 54 45 clipbox
379.128 145.483 p0_0
0.000 0.749 1.000 setrgbcolor
fill
grestore
gsave
334.8 279 54 45 clipbox
379.872 178.449 p0_0
0.000 0.749 1.000 setrgbcolor
fill
grestore
gsave
334.8 279 54 45 clipbox
380.616 162.753 p0_0
0.000 0.749 1.000 setrgbcolor
fill
grestore
gsave
334.8 279 54 45 clipbox
381.36 173.82 p0_0
0.000 0.749 1.000 setrgbcolor
fill
grestore
gsave
334.8 279 54 45 clipbox
382.104 148.382 p0_0
0.000 0.749 1.000 setrgbcolor
fill
grestore
gsave
334.8 279 54 45 clipbox
382.848 174.037 p0_0
0.000 0.749 1.000 setrgbcolor
fill
grestore
gsave
334.8 279 54 45 clipbox
383.592 165.625 p0_0
0.000 0.749 1.000 setrgbcolor
fill
grestore
gsave
334.8 279 54 45 clipbox
384.336 186.4 p0_0
0.000 0.749 1.000 setrgbcolor
fill
grestore
gsave
334.8 279 54 45 clipbox
385.08 143.918 p0_0
0.000 0.749 1.000 setrgbcolor
fill
grestore
gsave
334.8 279 54 45 clipbox
385.824 152.52 p0_0
0.000 0.749 1.000 setrgbcolor
fill
grestore
gsave
334.8 279 54 45 clipbox
386.568 163.557 p0_0
0.000 0.749 1.000 setrgbcolor
fill
grestore
gsave
334.8 279 54 45 clipbox
387.312 167.289 p0_0
0.000 0.749 1.000 setrgbcolor
fill
grestore
gsave
334.8 279 54 45 clipbox
388.056 178.309 p0_0
0.000 0.749 1.000 setrgbcolor
fill
grestore
gsave
334.8 279 54 45 clipbox
388.8 162.566 p0_0
0.000 0.749 1.000 setrgbcolor
fill
grestore
gsave
334.8 279 54 45 clipbox
389.544 161.423 p0_0
0.000 0.749 1.000 setrgbcolor
fill
grestore
gsave
334.8 279 54 45 clipbox
390.288 150.541 p0_0
0.000 0.749 1.000 setrgbcolor
fill
grestore
gsave
334.8 279 54 45 clipbox
391.032 176.141 p0_0
0.000 0.749 1.000 setrgbcolor
fill
grestore
gsave
334.8 279 54 45 clipbox
391.776 155.519 p0_0
0.000 0.749 1.000 setrgbcolor
fill
grestore
gsave
334.8 279 54 45 clipbox
392.52 159.221 p0_0
0.000 0.749 1.000 setrgbcolor
fill
grestore
gsave
334.8 279 54 45 clipbox
393.264 128.858 p0_0
0.000 0.749 1.000 setrgbcolor
fill
grestore
gsave
334.8 279 54 45 clipbox
394.008 154.45 p0_0
0.000 0.749 1.000 setrgbcolor
fill
grestore
gsave
334.8 279 54 45 clipbox
394.752 165.434 p0_0
0.000 0.749 1.000 setrgbcolor
fill
grestore
gsave
334.8 279 54 45 clipbox
395.496 169.12 p0_0
0.000 0.749 1.000 setrgbcolor
fill
grestore
gsave
334.8 279 54 45 clipbox
396.24 150.906 p0_0
0.000 0.749 1.000 setrgbcolor
fill
grestore
gsave
334.8 279 54 45 clipbox
396.984 137.557 p0_0
0.000 0.749 1.000 setrgbcolor
fill
grestore
gsave
334.8 279 54 45 clipbox
397.728 177.717 p0_0
0.000 0.749 1.000 setrgbcolor
fill
grestore
gsave
334.8 279 54 45 clipbox
398.472 191.121 p0_0
0.000 0.749 1.000 setrgbcolor
fill
grestore
gsave
334.8 279 54 45 clipbox
399.216 182.623 p0_0
0.000 0.749 1.000 setrgbcolor
fill
grestore
gsave
334.8 279 54 45 clipbox
399.96 157.087 p0_0
0.000 0.749 1.000 setrgbcolor
fill
grestore
gsave
334.8 279 54 45 clipbox
400.704 143.72 p0_0
0.000 0.749 1.000 setrgbcolor
fill
grestore
gsave
334.8 279 54 45 clipbox
401.448 157.1 p0_0
0.000 0.749 1.000 setrgbcolor
fill
grestore
gsave
334.8 279 54 45 clipbox
402.192 168.054 p0_0
0.000 0.749 1.000 setrgbcolor
fill
grestore
gsave
334.8 279 54 45 clipbox
402.936 200.894 p0_0
0.000 0.749 1.000 setrgbcolor
fill
grestore
gsave
334.8 279 54 45 clipbox
403.68 155.88 p0_0
0.000 0.749 1.000 setrgbcolor
fill
grestore
gsave
334.8 279 54 45 clipbox
404.424 166.814 p0_0
0.000 0.749 1.000 setrgbcolor
fill
grestore
gsave
334.8 279 54 45 clipbox
405.168 153.425 p0_0
0.000 0.749 1.000 setrgbcolor
fill
grestore
gsave
334.8 279 54 45 clipbox
405.912 171.653 p0_0
0.000 0.749 1.000 setrgbcolor
fill
grestore
gsave
334.8 279 54 45 clipbox
406.656 163.118 p0_0
0.000 0.749 1.000 setrgbcolor
fill
grestore
gsave
334.8 279 54 45 clipbox
407.4 135.114 p0_0
0.000 0.749 1.000 setrgbcolor
fill
grestore
gsave
334.8 279 54 45 clipbox
408.144 172.797 p0_0
0.000 0.749 1.000 setrgbcolor
fill
grestore
gsave
334.8 279 54 45 clipbox
408.888 169.115 p0_0
0.000 0.749 1.000 setrgbcolor
fill
grestore
gsave
334.8 279 54 45 clipbox
409.632 177.593 p0_0
0.000 0.749 1.000 setrgbcolor
fill
grestore
gsave
334.8 279 54 45 clipbox
410.376 169.039 p0_0
0.000 0.749 1.000 setrgbcolor
fill
grestore
gsave
334.8 279 54 45 clipbox
411.12 155.62 p0_0
0.000 0.749 1.000 setrgbcolor
fill
grestore
gsave
334.8 279 54 45 clipbox
411.864 147.061 p0_0
0.000 0.749 1.000 setrgbcolor
fill
grestore
gsave
334.8 279 54 45 clipbox
412.608 165.249 p0_0
0.000 0.749 1.000 setrgbcolor
fill
grestore
gsave
334.8 279 54 45 clipbox
413.352 151.82 p0_0
0.000 0.749 1.000 setrgbcolor
fill
grestore
gsave
334.8 279 54 45 clipbox
414.096 174.872 p0_0
0.000 0.749 1.000 setrgbcolor
fill
grestore
gsave
334.8 279 54 45 clipbox
414.84 151.702 p0_0
0.000 0.749 1.000 setrgbcolor
fill
grestore
gsave
334.8 279 54 45 clipbox
415.584 155.289 p0_0
0.000 0.749 1.000 setrgbcolor
fill
grestore
gsave
334.8 279 54 45 clipbox
416.328 168.598 p0_0
0.000 0.749 1.000 setrgbcolor
fill
grestore
gsave
334.8 279 54 45 clipbox
417.072 155.151 p0_0
0.000 0.749 1.000 setrgbcolor
fill
grestore
gsave
334.8 279 54 45 clipbox
417.816 183.057 p0_0
0.000 0.749 1.000 setrgbcolor
fill
grestore
gsave
334.8 279 54 45 clipbox
418.56 162.302 p0_0
0.000 0.749 1.000 setrgbcolor
fill
grestore
gsave
334.8 279 54 45 clipbox
419.304 156.138 p0_0
0.000 0.749 1.000 setrgbcolor
fill
grestore
gsave
334.8 279 54 45 clipbox
420.048 169.43 p0_0
0.000 0.749 1.000 setrgbcolor
fill
grestore
gsave
334.8 279 54 45 clipbox
420.792 170.563 p0_0
0.000 0.749 1.000 setrgbcolor
fill
grestore
gsave
334.8 279 54 45 clipbox
421.536 169.252 p0_0
0.000 0.749 1.000 setrgbcolor
fill
grestore
gsave
334.8 279 54 45 clipbox
422.28 163.084 p0_0
0.000 0.749 1.000 setrgbcolor
fill
grestore
gsave
334.8 279 54 45 clipbox
423.024 144.74 p0_0
0.000 0.749 1.000 setrgbcolor
fill
grestore
gsave
334.8 279 54 45 clipbox
423.768 167.748 p0_0
0.000 0.749 1.000 setrgbcolor
fill
grestore
gsave
334.8 279 54 45 clipbox
424.512 178.589 p0_0
0.000 0.749 1.000 setrgbcolor
fill
grestore
gsave
334.8 279 54 45 clipbox
425.256 157.804 p0_0
0.000 0.749 1.000 setrgbcolor
fill
grestore
gsave
334.8 279 54 45 clipbox
426 171.077 p0_0
0.000 0.749 1.000 setrgbcolor
fill
grestore
gsave
334.8 279 54 45 clipbox
426.744 160.019 p0_0
0.000 0.749 1.000 setrgbcolor
fill
grestore
gsave
334.8 279 54 45 clipbox
427.488 178.149 p0_0
0.000 0.749 1.000 setrgbcolor
fill
grestore
gsave
334.8 279 54 45 clipbox
428.232 169.515 p0_0
0.000 0.749 1.000 setrgbcolor
fill
grestore
gsave
334.8 279 54 45 clipbox
428.976 199.795 p0_0
0.000 0.749 1.000 setrgbcolor
fill
grestore
gsave
334.8 279 54 45 clipbox
429.72 149.8 p0_0
0.000 0.749 1.000 setrgbcolor
fill
grestore
gsave
334.8 279 54 45 clipbox
430.464 163.054 p0_0
0.000 0.749 1.000 setrgbcolor
fill
grestore
gsave
334.8 279 54 45 clipbox
431.208 171.435 p0_0
0.000 0.749 1.000 setrgbcolor
fill
grestore
gsave
334.8 279 54 45 clipbox
431.952 167.648 p0_0
0.000 0.749 1.000 setrgbcolor
fill
grestore
gsave
334.8 279 54 45 clipbox
432.696 185.755 p0_0
0.000 0.749 1.000 setrgbcolor
fill
grestore
gsave
334.8 279 54 45 clipbox
433.44 155.211 p0_0
0.000 0.749 1.000 setrgbcolor
fill
grestore
gsave
334.8 279 54 45 clipbox
434.184 163.579 p0_0
0.000 0.749 1.000 setrgbcolor
fill
grestore
gsave
334.8 279 54 45 clipbox
434.928 169.513 p0_0
0.000 0.749 1.000 setrgbcolor
fill
grestore
gsave
334.8 279 54 45 clipbox
435.672 187.609 p0_0
0.000 0.749 1.000 setrgbcolor
fill
grestore
gsave
334.8 279 54 45 clipbox
436.416 183.804 p0_0
0.000 0.749 1.000 setrgbcolor
fill
grestore
gsave
334.8 279 54 45 clipbox
437.16 167.831 p0_0
0.000 0.749 1.000 setrgbcolor
fill
grestore
gsave
334.8 279 54 45 clipbox
437.904 176.192 p0_0
0.000 0.749 1.000 setrgbcolor
fill
grestore
gsave
334.8 279 54 45 clipbox
438.648 165.076 p0_0
0.000 0.749 1.000 setrgbcolor
fill
grestore
gsave
334.8 279 54 45 clipbox
439.392 195.32 p0_0
0.000 0.749 1.000 setrgbcolor
fill
grestore
gsave
334.8 279 54 45 clipbox
440.136 193.94 p0_0
0.000 0.749 1.000 setrgbcolor
fill
grestore
gsave
334.8 279 54 45 clipbox
440.88 153.624 p0_0
0.000 0.749 1.000 setrgbcolor
fill
grestore
gsave
334.8 279 54 45 clipbox
441.624 171.694 p0_0
0.000 0.749 1.000 setrgbcolor
fill
grestore
gsave
334.8 279 54 45 clipbox
442.368 167.866 p0_0
0.000 0.749 1.000 setrgbcolor
fill
grestore
gsave
334.8 279 54 45 clipbox
443.112 173.767 p0_0
0.000 0.749 1.000 setrgbcolor
fill
grestore
gsave
334.8 279 54 45 clipbox
443.856 174.802 p0_0
0.000 0.749 1.000 setrgbcolor
fill
grestore
gsave
334.8 279 54 45 clipbox
444.6 178.266 p0_0
0.000 0.749 1.000 setrgbcolor
fill
grestore
gsave
334.8 279 54 45 clipbox
445.344 157.399 p0_0
0.000 0.749 1.000 setrgbcolor
fill
grestore
gsave
334.8 279 54 45 clipbox
446.088 199.781 p0_0
0.000 0.749 1.000 setrgbcolor
fill
grestore
gsave
334.8 279 54 45 clipbox
446.832 186.202 p0_0
0.000 0.749 1.000 setrgbcolor
fill
grestore
gsave
334.8 279 54 45 clipbox
447.576 172.627 p0_0
0.000 0.749 1.000 setrgbcolor
fill
grestore
gsave
334.8 279 54 45 clipbox
448.32 176.076 p0_0
0.000 0.749 1.000 setrgbcolor
fill
grestore
gsave
334.8 279 54 45 clipbox
449.064 181.955 p0_0
0.000 0.749 1.000 setrgbcolor
fill
grestore
gsave
334.8 279 54 45 clipbox
449.808 153.768 p0_0
0.000 0.749 1.000 setrgbcolor
fill
grestore
gsave
334.8 279 54 45 clipbox
450.552 164.503 p0_0
0.000 0.749 1.000 setrgbcolor
fill
grestore
gsave
334.8 279 54 45 clipbox
451.296 197.132 p0_0
0.000 0.749 1.000 setrgbcolor
fill
grestore
gsave
334.8 279 54 45 clipbox
452.04 164.083 p0_0
0.000 0.749 1.000 setrgbcolor
fill
grestore
gsave
334.8 279 54 45 clipbox
452.784 174.809 p0_0
0.000 0.749 1.000 setrgbcolor
fill
grestore
gsave
334.8 279 54 45 clipbox
453.528 156.341 p0_0
0.000 0.749 1.000 setrgbcolor
fill
grestore
gsave
334.8 279 54 45 clipbox
454.272 181.666 p0_0
0.000 0.749 1.000 setrgbcolor
fill
grestore
gsave
334.8 279 54 45 clipbox
455.016 209.411 p0_0
0.000 0.749 1.000 setrgbcolor
fill
grestore
gsave
334.8 279 54 45 clipbox
455.76 178.771 p0_0
0.000 0.749 1.000 setrgbcolor
fill
grestore
gsave
334.8 279 54 45 clipbox
456.504 152.998 p0_0
0.000 0.749 1.000 setrgbcolor
fill
grestore
gsave
334.8 279 54 45 clipbox
457.248 180.743 p0_0
0.000 0.749 1.000 setrgbcolor
fill
grestore
gsave
334.8 279 54 45 clipbox
457.992 181.717 p0_0
0.000 0.749 1.000 setrgbcolor
fill
grestore
gsave
334.8 279 54 45 clipbox
458.736 187.559 p0_0
0.000 0.749 1.000 setrgbcolor
fill
grestore
gsave
334.8 279 54 45 clipbox
459.48 193.398 p0_0
0.000 0.749 1.000 setrgbcolor
fill
grestore
gsave
334.8 279 54 45 clipbox
460.224 160.318 p0_0
0.000 0.749 1.000 setrgbcolor
fill
grestore
gsave
334.8 279 54 45 clipbox
460.968 192.912 p0_0
0.000 0.749 1.000 setrgbcolor
fill
grestore
gsave
334.8 279 54 45 clipbox
461.712 162.249 p0_0
0.000 0.749 1.000 setrgbcolor
fill
grestore
gsave
334.8 279 54 45 clipbox
462.456 219.167 p0_0
0.000 0.749 1.000 setrgbcolor
fill
grestore
gsave
334.8 279 54 45 clipbox
463.2 186.068 p0_0
0.000 0.749 1.000 setrgbcolor
fill
grestore
gsave
334.8 279 54 45 clipbox
463.944 172.424 p0_0
0.000 0.749 1.000 setrgbcolor
fill
grestore
gsave
334.8 279 54 45 clipbox
464.688 192.841 p0_0
0.000 0.749 1.000 setrgbcolor
fill
grestore
gsave
334.8 279 54 45 clipbox
465.432 184.063 p0_0
0.000 0.749 1.000 setrgbcolor
fill
grestore
gsave
334.8 279 54 45 clipbox
466.176 219.077 p0_0
0.000 0.749 1.000 setrgbcolor
fill
grestore
gsave
334.8 279 54 45 clipbox
466.92 185.965 p0_0
0.000 0.749 1.000 setrgbcolor
fill
grestore
gsave
334.8 279 54 45 clipbox
467.664 174.74 p0_0
0.000 0.749 1.000 setrgbcolor
fill
grestore
gsave
334.8 279 54 45 clipbox
468.408 175.684 p0_0
0.000 0.749 1.000 setrgbcolor
fill
grestore
gsave
334.8 279 54 45 clipbox
469.152 186.352 p0_0
0.000 0.749 1.000 setrgbcolor
fill
grestore
gsave
334.8 279 54 45 clipbox
469.896 194.593 p0_0
0.000 0.749 1.000 setrgbcolor
fill
grestore
gsave
334.8 279 54 45 clipbox
470.64 180.926 p0_0
0.000 0.749 1.000 setrgbcolor
fill
grestore
gsave
334.8 279 54 45 clipbox
471.384 172.127 p0_0
0.000 0.749 1.000 setrgbcolor
fill
grestore
gsave
334.8 279 54 45 clipbox
472.128 187.655 p0_0
0.000 0.749 1.000 setrgbcolor
fill
grestore
gsave
334.8 279 54 45 clipbox
472.872 173.98 p0_0
0.000 0.749 1.000 setrgbcolor
fill
grestore
gsave
334.8 279 54 45 clipbox
473.616 221.125 p0_0
0.000 0.749 1.000 setrgbcolor
fill
grestore
gsave
334.8 279 54 45 clipbox
474.36 192.858 p0_0
0.000 0.749 1.000 setrgbcolor
fill
grestore
gsave
334.8 279 54 45 clipbox
475.104 188.909 p0_0
0.000 0.749 1.000 setrgbcolor
fill
grestore
gsave
334.8 279 54 45 clipbox
475.848 187.397 p0_0
0.000 0.749 1.000 setrgbcolor
fill
grestore
gsave
334.8 279 54 45 clipbox
476.592 173.71 p0_0
0.000 0.749 1.000 setrgbcolor
fill
grestore
gsave
334.8 279 54 45 clipbox
477.336 220.841 p0_0
0.000 0.749 1.000 setrgbcolor
fill
grestore
gsave
334.8 279 54 45 clipbox
478.08 197.424 p0_0
0.000 0.749 1.000 setrgbcolor
fill
grestore
gsave
334.8 279 54 45 clipbox
478.824 176.436 p0_0
0.000 0.749 1.000 setrgbcolor
fill
grestore
gsave
334.8 279 54 45 clipbox
479.568 206.533 p0_0
0.000 0.749 1.000 setrgbcolor
fill
grestore
gsave
334.8 279 54 45 clipbox
480.312 190.402 p0_0
0.000 0.749 1.000 setrgbcolor
fill
grestore
gsave
334.8 279 54 45 clipbox
481.056 235.091 p0_0
0.000 0.749 1.000 setrgbcolor
fill
grestore
gsave
334.8 279 54 45 clipbox
481.8 189.771 p0_0
0.000 0.749 1.000 setrgbcolor
fill
grestore
gsave
334.8 279 54 45 clipbox
482.544 185.797 p0_0
0.000 0.749 1.000 setrgbcolor
fill
grestore
gsave
334.8 279 54 45 clipbox
483.288 189.123 p0_0
0.000 0.749 1.000 setrgbcolor
fill
grestore
gsave
334.8 279 54 45 clipbox
484.032 214.335 p0_0
0.000 0.749 1.000 setrgbcolor
fill
grestore
gsave
334.8 279 54 45 clipbox
484.776 232.251 p0_0
0.000 0.749 1.000 setrgbcolor
fill
grestore
gsave
334.8 279 54 45 clipbox
485.52 196.645 p0_0
0.000 0.749 1.000 setrgbcolor
fill
grestore
gsave
334.8 279 54 45 clipbox
486.264 190.226 p0_0
0.000 0.749 1.000 setrgbcolor
fill
grestore
gsave
334.8 279 54 45 clipbox
487.008 198.402 p0_0
0.000 0.749 1.000 setrgbcolor
fill
grestore
gsave
334.8 279 54 45 clipbox
487.752 213.878 p0_0
0.000 0.749 1.000 setrgbcolor
fill
grestore
gsave
334.8 279 54 45 clipbox
488.496 205.021 p0_0
0.000 0.749 1.000 setrgbcolor
fill
grestore
gsave
334.8 279 54 45 clipbox
489.24 222.923 p0_0
0.000 0.749 1.000 setrgbcolor
fill
grestore
gsave
334.8 279 54 45 clipbox
489.984 167.835 p0_0
0.000 0.749 1.000 setrgbcolor
fill
grestore
gsave
334.8 279 54 45 clipbox
490.728 227.087 p0_0
0.000 0.749 1.000 setrgbcolor
fill
grestore
gsave
334.8 279 54 45 clipbox
491.472 203.626 p0_0
0.000 0.749 1.000 setrgbcolor
fill
grestore
gsave
334.8 279 54 45 clipbox
492.216 221.518 p0_0
0.000 0.749 1.000 setrgbcolor
fill
grestore
gsave
334.8 279 54 45 clipbox
492.96 200.483 p0_0
0.000 0.749 1.000 setrgbcolor
fill
grestore
gsave
334.8 279 54 45 clipbox
493.704 186.747 p0_0
0.000 0.749 1.000 setrgbcolor
fill
grestore
gsave
334.8 279 54 45 clipbox
494.448 197.33 p0_0
0.000 0.749 1.000 setrgbcolor
fill
grestore
gsave
334.8 279 54 45 clipbox
495.192 178.719 p0_0
0.000 0.749 1.000 setrgbcolor
fill
grestore
gsave
334.8 279 54 45 clipbox
495.936 230.661 p0_0
0.000 0.749 1.000 setrgbcolor
fill
grestore
gsave
334.8 279 54 45 clipbox
496.68 190.148 p0_0
0.000 0.749 1.000 setrgbcolor
fill
grestore
gsave
334.8 279 54 45 clipbox
497.424 188.565 p0_0
0.000 0.749 1.000 setrgbcolor
fill
grestore
gsave
334.8 279 54 45 clipbox
498.168 194.274 p0_0
0.000 0.749 1.000 setrgbcolor
fill
grestore
gsave
334.8 279 54 45 clipbox
498.912 180.514 p0_0
0.000 0.749 1.000 setrgbcolor
fill
grestore
gsave
334.8 279 54 45 clipbox
499.656 205.683 p0_0
0.000 0.749 1.000 setrgbcolor
fill
grestore
1.000 setlinewidth
2 setlinecap
1.000 0.388 0.278 setrgbcolor
gsave
334.8 279 54 45 clipbox
54 211.7577 m
388.8 211.7577 l
stroke
grestore
gsave
334.8 279 54 45 clipbox
54 117.385157 m
388.8 117.385157 l
stroke
grestore
1.000 0.843 0.000 setrgbcolor
gsave
334.8 279 54 45 clipbox
54 164.571429 m
388.8 164.571429 l
stroke
grestore
gsave
54 324 m
388.8 324 l
grestore
gsave
54 45 m
54 324 l
grestore
gsave
54 45 m
388.8 45 l
grestore
gsave
388.8 45 m
388.8 324 l
grestore
0.000 setgray
/BitstreamVeraSans-Roman findfont
12.000 scalefont
setfont
gsave
192.726562 18.000000 translate
0.000000 rotate
0.000000 0.000000 m /t glyphshow
4.705078 0.000000 m /i glyphshow
8.039062 0.000000 m /m glyphshow
19.728516 0.000000 m /e glyphshow
27.111328 0.000000 m /space glyphshow
30.925781 0.000000 m /parenleft glyphshow
35.607422 0.000000 m /s glyphshow
41.859375 0.000000 m /parenright glyphshow
grestore
gsave
24.912500 135.046875 translate
90.000000 rotate
0.000000 0.000000 m /r glyphshow
4.933594 0.000000 m /e glyphshow
12.316406 0.000000 m /s glyphshow
18.568359 0.000000 m /i glyphshow
21.902344 0.000000 m /d glyphshow
29.519531 0.000000 m /u glyphshow
37.125000 0.000000 m /a glyphshow
44.478516 0.000000 m /l glyphshow
47.812500 0.000000 m /s glyphshow
grestore

end
showpage
