 ******************************************************* 
 * ODRPACK VERSION 2.01 OF 06-19-92 (DOUBLE PRECISION) * 
 ******************************************************* 


 *** INITIAL SUMMARY FOR FIT BY METHOD OF OLS ***

 --- PROBLEM SIZE:
            N =   598          (NUMBER WITH NONZERO WEIGHT =   598)
           NQ =     1
            M =     1
           NP =     4          (NUMBER UNFIXED =     4)

 --- CONTROL VALUES:
          JOB = 00002
              = ABCDE, WHERE
                       A=0 ==> FIT IS NOT A RESTART.
                       B=0 ==> DELTAS ARE FIXED AT ZERO SINCE E=2.
                       C=0 ==> COVARIANCE MATRIX WILL BE COMPUTED USING
                               DERIVATIVES RE-EVALUATED AT THE SOLUTION.
                       D=0 ==> DERIVATIVES ARE ESTIMATED BY FORWARD DIFFERENCES.
                       E=2 ==> METHOD IS EXPLICIT OLS.
       NDIGIT =    14          (ESTIMATED BY ODRPACK)
       TAUFAC =     1.00D+00

 --- STOPPING CRITERIA:
        SSTOL =     1.49D-08   (SUM OF SQUARES STOPPING TOLERANCE)
       PARTOL =     3.67D-11   (PARAMETER STOPPING TOLERANCE)
        MAXIT =    50          (MAXIMUM NUMBER OF ITERATIONS)

 --- INITIAL WEIGHTED SUM OF SQUARES        =                    1.20670849D+01

 --- FUNCTION PARAMETER SUMMARY:

       INDEX         BETA(K)    FIXED           SCALE    DERIVATIVE
                                                          STEP SIZE
         (K)                  (IFIXB)          (SCLB)        (STPB)

           1  1.00000000D+00       NO  1.00000000D+00   1.00000D-09
           2  2.50000000D+00       NO  4.00000000D-01   1.00000D-09
           3  4.00000000D-02       NO  2.50000000D+01   1.00000D-09
           4  2.00000000D-02       NO  5.00000000D+01   1.00000D-09

 --- EXPLANATORY VARIABLE SUMMARY:

       INDEX      X(I,J)
       (I,J)            

         1,1   1.333D-02
         N,1   3.993D+00

 --- RESPONSE VARIABLE AND EPSILON ERROR WEIGHT SUMMARY:

       INDEX      Y(I,L)      WEIGHT
       (I,L)                    (WE)

         1,1   9.918D-01   1.000D+00
         N,1   3.102D+00   1.000D+00

 *** ITERATION REPORTS FOR FIT BY METHOD OF OLS ***


         CUM.                 ACT. REL.   PRED. REL.
  IT.  NO. FN     WEIGHTED   SUM-OF-SQS   SUM-OF-SQS              G-N      BETA -------------->
 NUM.   EVALS   SUM-OF-SQS    REDUCTION    REDUCTION  TAU/PNORM  STEP     INDEX           VALUE
 ----  ------  -----------  -----------  -----------  ---------  ----     -----           -----

    1      10  1.14622D-01   9.9050D-01   9.9951D-01  3.512D-01   YES   1 TO  3  9.82055753D-01  2.59476740D+00  4.29780226D-02
                                                                              4  1.35102468D-02
    2      15  5.24738D-03   9.5422D-01   9.5405D-01  3.861D-02   YES   1 TO  3  9.75987074D-01  2.60254242D+00  4.30495839D-02
                                                                              4  1.42396092D-02
    3      20  5.24718D-03   3.8654D-05   3.8642D-05  1.484D-04   YES   1 TO  3  9.76054652D-01  2.60251584D+00  4.30480685D-02
                                                                              4  1.42419975D-02
    4      25  5.24718D-03   3.2551D-11   3.1607D-11  5.917D-08   YES   1 TO  3  9.76054660D-01  2.60251585D+00  4.30480699D-02
                                                                              4  1.42419984D-02

 *** FINAL SUMMARY FOR FIT BY METHOD OF OLS ***

 --- STOPPING CONDITIONS:
         INFO =     1 ==> SUM OF SQUARES CONVERGENCE.
        NITER =     4          (NUMBER OF ITERATIONS)
         NFEV =    29          (NUMBER OF FUNCTION EVALUATIONS)
        IRANK =     0          (RANK DEFICIENCY)
        RCOND =     2.31D-02   (INVERSE CONDITION NUMBER)
        ISTOP =     0          (RETURNED BY USER FROM SUBROUTINE FCN)

 --- FINAL WEIGHTED SUMS OF SQUARES       =                     5.24717844D-03

 --- RESIDUAL STANDARD DEVIATION          =                     2.97214295D-03
         DEGREES OF FREEDOM               =  594

 --- ESTIMATED BETA(J), J = 1, ..., NP:

                     BETA      S.D. BETA    ---- 95%  CONFIDENCE INTERVAL ----

       1   9.76054660D-01     1.3797D-03     9.73344902D-01 TO  9.78764417D-01
       2   2.60251585D+00     1.3387D-03     2.59988670D+00 TO  2.60514501D+00
       3   4.30480699D-02     2.3442D-05     4.30020315D-02 TO  4.30941083D-02
       4   1.42419984D-02     2.2018D-05     1.41987565D-02 TO  1.42852404D-02

 --- ESTIMATED EPSILON(I,  1), I = 1, ..., N:

           INDEX           VALUE -------------->

       1 TO    4 -1.54146914D-02 -7.81104525D-04  8.16927808D-03  4.86331344D-03
       5 TO    8  4.61420336D-04  1.59313297D-03 -3.21050070D-03  2.89729609D-03
       9 TO   12 -2.78139281D-03 -3.46065730D-03 -3.83730101D-03 -4.42812492D-03
      13 TO   16  3.34922966D-03 -2.87425081D-03  1.14549965D-03 -3.28544402D-03
      17 TO   20 -9.78921489D-04  3.36394170D-03  2.53317305D-03 -1.30411718D-03
      21 TO   24 -2.68594969D-04  6.17660697D-04  5.40926143D-03  6.92345582D-04
      25 TO   28  1.44265910D-04 -6.19054576D-04  3.67271173D-04  5.63335565D-03
      29 TO   32  1.79440510D-03 -1.98969028D-03  3.53430520D-04 -4.35854685D-03
      33 TO   36  5.45188571D-03 -8.46170900D-04 -1.10706665D-03 -4.33782743D-03
      37 TO   40 -3.07987906D-03  4.31390189D-03 -2.19468637D-03 -2.98132770D-03
      41 TO   44 -3.45462849D-03 -4.89396873D-04  2.62151941D-03 -1.08316014D-03
      45 TO   48 -3.31235491D-03 -3.71561539D-03 -2.55716309D-03  1.41761390D-03
      49 TO   52 -3.05061793D-03 -5.55761146D-03 -8.91575093D-04 -5.81548235D-03
      53 TO   56  2.88316789D-03 -3.15939896D-03 -1.95589579D-03 -3.86891807D-03
      57 TO   60 -9.53527837D-04 -2.17145922D-04 -5.00860995D-03 -3.41867332D-03
      61 TO   64 -3.98404202D-03 -3.64749795D-03 -8.78367979D-04 -2.38464671D-03
      65 TO   68 -6.02815236D-03 -3.86900237D-03 -5.05978224D-03 -3.80071168D-03
      69 TO   72 -4.05515073D-03 -6.12778742D-03 -3.91279968D-03 -4.73340672D-03
      73 TO   76  2.61942294D-04 -3.57357955D-03 -3.72878283D-03 -1.42163926D-03
      77 TO   80 -4.58740965D-03  1.11669106D-03 -5.97366513D-03 -1.14202358D-03
      81 TO   84 -4.52887342D-03 -4.53578318D-03  1.27552041D-03 -2.65563549D-03
      85 TO   88 -3.51497966D-03 -4.35234917D-03 -4.86353801D-03 -2.91137964D-03
      89 TO   92 -1.54977306D-03 -6.88159020D-03 -3.03673107D-03 -2.83512376D-03
      93 TO   96 -2.00268859D-03 -4.20236604D-03 -5.77309142D-03 -2.74681335D-03
      97 TO  100 -4.58449512D-03  9.20935079D-04 -3.93248618D-03 -2.66373321D-03
     101 TO  104 -3.20871793D-03 -4.04140968D-03  2.52139875D-05 -5.35173708D-03
     105 TO  108 -3.36232294D-04 -2.32324754D-03 -6.32648064D-04  1.98960026D-03
     109 TO  112 -1.47647374D-03 -2.48570892D-03 -2.56506548D-03 -2.93450813D-03
     113 TO  116  1.89815107D-03 -2.41104129D-03 -2.12804254D-03 -1.83063829D-03
     117 TO  120 -4.57277464D-03  1.24359875D-03 -2.69227803D-03 -2.03734372D-03
     121 TO  124 -4.72754036D-03 -3.85603187D-04  3.05536215D-04 -4.17905689D-03
     125 TO  128 -2.85309420D-03 -2.73650053D-03 -1.99720373D-03 -3.38389321D-03
     129 TO  132 -1.81487463D-04 -1.54590796D-03 -1.67882303D-03 -3.02214538D-03
     133 TO  136  3.58020938D-03 -3.54140721D-03  2.90974195D-05 -9.67187011D-04
     137 TO  140 -2.25989027D-03  2.25608502D-03 -2.67916665D-03 -5.86257413D-04
     141 TO  144  2.94914372D-04  1.18644754D-03  3.00074652D-03 -6.68083210D-04
     145 TO  148 -5.59389581D-05 -1.87640069D-03 -9.41359514D-04 -3.03709301D-04
     149 TO  152 -1.48901531D-03 -5.30165638D-04 -3.52905110D-03 -1.02822308D-03
     153 TO  156 -6.55567026D-04 -3.02197104D-03 -8.01973441D-04 -4.06457313D-04
     157 TO  160 -1.83430839D-03  2.23794737D-03 -9.15710591D-05  1.85925267D-03
     161 TO  164 -1.50095696D-04 -2.45849541D-03  1.34417171D-03  5.76402482D-04
     165 TO  168  3.78131920D-03 -1.55095835D-03 -1.62922863D-04 -2.95450704D-04
     169 TO  172  1.71557930D-03 -2.34315607D-04 -1.26301062D-03  4.61616622D-04
     173 TO  176  1.27609283D-03  3.31754378D-03 -1.34890713D-03  1.31427579D-03
     177 TO  180  1.62191555D-05  2.38604723D-03 -4.25695706D-04  1.03911763D-03
     181 TO  184 -2.06738774D-03 -1.20165939D-03  1.19543054D-03 -6.73992297D-04
     185 TO  188  5.12632298D-04 -1.65156733D-03  1.68253496D-03 -2.60849318D-03
     189 TO  192  2.26047696D-03  1.16571942D-04  2.55436652D-03  3.47098969D-03
     193 TO  196  3.47756835D-03  1.65668406D-03  7.57466003D-04  1.08304137D-03
     197 TO  200  4.96998193D-04  8.31465826D-04 -9.66428357D-04  2.92909909D-04
     201 TO  204  2.16661007D-03 -1.44920037D-03  3.18007883D-03 -1.22422849D-04
     205 TO  208  2.68442219D-03 -1.52478009D-03 -5.41900203D-04  4.45189471D-04
     209 TO  212  1.13110041D-03  2.94962042D-04 -8.42098007D-04  1.99253703D-03
     213 TO  216 -3.58003508D-04  1.56840797D-03 -1.07960668D-03  2.07408176D-03
     217 TO  220  6.54600820D-04  1.67957724D-03  4.54014011D-03  9.94416845D-04
     221 TO  224  1.72503891D-03  2.76513522D-03  1.36583309D-03  3.02276850D-03
     225 TO  228  2.54607019D-03  2.98886533D-03  1.29879427D-03  2.35798556D-03
     229 TO  232  3.69566199D-04  1.43518077D-03  1.58895758D-03  4.49202347D-03
     233 TO  236  1.60002708D-03  2.67809651D-03  4.02358384D-04  2.40246529D-03
     237 TO  240  2.87954506D-03 -9.13275845D-04  1.09565892D-03  2.19147697D-03
     241 TO  244  2.68030452D-03  1.19801601D-04  4.09555826D-06 -1.32968760D-03
     245 TO  248  4.96811569D-03  2.72363250D-03  4.14498864D-03  1.90585106D-03
     249 TO  252  5.77334659D-03  2.92960080D-03  1.30828394D-03  7.01452259D-03
     253 TO  256  2.95744205D-03  3.78571580D-03  5.22747013D-03  4.53483012D-03
     257 TO  260  4.14947232D-03  3.76752276D-03  6.13410627D-03  1.17790240D-03
     261 TO  264  4.77003691D-03  1.34563437D-03  9.74377247D-04  1.52139100D-03
     265 TO  268  4.81679999D-03  7.91289465D-04 -4.87015381D-04  4.34200956D-03
     269 TO  272 -8.98947745D-04  3.32323763D-03  1.13968954D-03 -7.37901401D-04
     273 TO  276  1.04958945D-03  4.36428570D-03  3.10388051D-03  1.84549827D-03
     277 TO  280  4.55626233D-03  3.30186833D-03  4.18544038D-03  2.93510160D-03
     281 TO  284  3.82255002D-03  7.43909481D-04  4.68730286D-03  2.52843053D-03
     285 TO  288  2.81341604D-03  2.79538205D-03  3.37031169D-04  3.98348670D-03
     289 TO  292  2.44487105D-03  4.87488902D-03  3.03466365D-03  1.80531712D-03
     293 TO  296  2.10455636D-03  2.71050414D-03  4.23328239D-03  3.62260012D-03
     297 TO  300  3.62257985D-03 -9.52656718D-04  1.49260140D-03  2.71847649D-03
     301 TO  304  3.33609001D-03  1.51315491D-03  3.04979321D-03  9.25126143D-04
     305 TO  308  4.60086854D-03  4.31014218D-03  1.27506808D-03  4.64936289D-03
     309 TO  312  5.58414816D-03  5.91054466D-03  2.27127084D-03  4.43044799D-03
     313 TO  316  1.40419669D-03  1.43123710D-03  4.81569028D-03  1.48867658D-03
     317 TO  320  3.65491784D-03  2.16153491D-03  3.41564790D-03  1.00898030D-03
     321 TO  324  4.70765271D-03  4.13478504D-03  1.12210237D-03  4.82472507D-03
     325 TO  328  5.93772841D-04  3.38297230D-03  6.80443592D-04  1.33630622D-03
     329 TO  332  2.60328829D-03  6.92350974D-03  4.22608985D-03  3.08758210D-04
     333 TO  336  3.10663451D-03  4.07483786D-03  6.87509923D-03  2.96353813D-03
     337 TO  340  3.32427345D-03  2.46603756D-03  2.52494973D-03  3.50012867D-03
     341 TO  344  2.03430810D-03  4.23260707D-03  2.46514409D-03  4.97065419D-03
     345 TO  348  1.67825623D-03  2.35506851D-03  1.50682734D-03  3.40665137D-03
     349 TO  352  2.25565872D-03  4.46158693D-03  8.71554446D-04 -2.76320798D-04
     353 TO  356  1.01769995D-03  7.86734943D-04  5.13490192D-03  2.39408005D-05
     357 TO  360  5.28896966D-03  4.85106029D-04  4.22709100D-03  2.78104243D-03
     361 TO  364  3.16807769D-03  1.11393898D-03  5.86743961D-04  3.11260982D-03
     365 TO  368  2.58727985D-03  4.50487152D-03  1.84550185D-03  1.93391518D-03
     369 TO  372  3.85322881D-03  1.80655956D-03  2.20265281D-03  1.37862568D-03
     373 TO  376  2.38659482D-03  3.09030662D-03  2.87887801D-03  3.88942547D-03
     377 TO  380  4.90069636D-03 -4.95192553D-04  1.73887503D-03  2.14164744D-03
     381 TO  384  4.10241253D-04  2.34077260D-03 -9.15009238D-04  2.84901212D-03
     385 TO  388 -4.06047349D-04  1.52856254D-03  2.24295799D-03  5.16254830D-04
     389 TO  392  1.23220412D-03  5.00092190D-03  8.35523827D-04  2.16376183D-03
     393 TO  396 -1.69248201D-04  1.46560920D-03  3.40708683D-03  1.61300398D-04
     397 TO  400  2.40836522D-03 -8.35965085D-04  3.24442503D-03  2.44265071D-03
     401 TO  404  3.47246640D-03  2.67198747D-03 -1.48467107D-03  1.98824598D-03
     405 TO  408  1.18985386D-03  1.00326739D-03 -1.01475742D-03 -1.50610553D-03
     409 TO  412 -1.69066225D-03  1.78632918D-03  1.90798365D-03 -2.54858431D-03
     413 TO  416  1.53827864D-05 -4.71000325D-04  2.70438074D-03  8.22841899D-05
     417 TO  420  8.17824601D-04  2.81162037D-05  3.51091792D-03  1.19634416D-03
     421 TO  424  1.01950902D-03  1.45217210D-03 -5.13255234D-03  3.54144963D-03
     425 TO  428 -2.43206168D-03  1.40027815D-04  3.62883191D-03 -1.42788844D-03
     429 TO  432  2.97698071D-03  1.88955301D-03  2.93859006D-03 -2.83794348D-04
     433 TO  436 -4.54486708D-04 -3.18724793D-04 -7.93394945D-04  2.39461619D-03
     437 TO  440 -1.74092854D-03  2.28084375D-04 -1.16023185D-03  2.03088623D-03
     441 TO  444 -1.18744801D-03 -1.32121500D-04 -2.73837019D-03  2.59091913D-03
     445 TO  448  1.51185939D-03  1.27215243D-04 -3.40900253D-04 -1.72337431D-03
     449 TO  452  2.51558292D-04  3.95010473D-04  1.76009489D-03 -1.45142270D-03
     453 TO  456  1.13557051D-03  6.71187016D-04  4.48019315D-03  1.26970154D-03
     457 TO  460 -1.08175413D-04 -5.70670866D-04  1.71432769D-03  3.38893250D-03
     461 TO  464 -1.64908906D-03 -3.33062461D-03 -2.26456205D-03  9.38866529D-04
     465 TO  468  2.61577336D-03  9.37270397D-04 -4.36873924D-04 -4.55654752D-03
     469 TO  472  1.09036145D-03 -2.81378097D-04  1.39834579D-03 -8.88355175D-04
     473 TO  476  1.82288410D-04  3.69538837D-03 -1.03194373D-03 -5.69937992D-04
     477 TO  480 -1.63348273D-03 -5.60466504D-04  1.12288105D-03  2.19667149D-03
     481 TO  484 -8.49838716D-05  1.59968579D-03 -1.29220810D-03  1.61444563D-03
     485 TO  488  1.16441829D-03 -5.05178852D-04  1.18176526D-03 -2.31897762D-03
     489 TO  492  2.84703655D-04  1.05792001D-03 -6.09556378D-04 -7.51614472D-04
     493 TO  496 -5.87143482D-04  1.86629215D-04  2.48781451D-03 -3.98476917D-04
     497 TO  500 -1.75847203D-03  8.48939949D-04 -8.16130446D-04  5.71090260D-04
     501 TO  504 -1.70328729D-03 -6.20152694D-04 -4.41873205D-03  1.85308515D-03
     505 TO  508  1.90409187D-04 -8.60985631D-04 -3.85988924D-04 -2.65749053D-03
     509 TO  512  1.17428426D-03  1.24445693D-04 -6.19896185D-04 -2.88996628D-03
     513 TO  516 -2.41265445D-03 -4.08850790D-04 -1.45777981D-03 -6.33314915D-05
     517 TO  520 -3.85739605D-03 -3.68419762D-03  1.37337370D-03 -8.93572435D-04
     521 TO  524 -4.13259762D-04 -1.15357853D-03 -1.28341918D-03 -1.71800508D-03
     525 TO  528  8.99773384D-04 -4.41697434D-03 -2.71347127D-03 -1.01060788D-03
     529 TO  532 -1.44327487D-03 -2.18069487D-03  1.35524150D-03  8.64343142D-06
     533 TO  536 -4.08471135D-03  6.12864108D-05 -1.28425421D-03  1.03244487D-03
     537 TO  540 -2.14450721D-03 -5.62500151D-03 -1.78125958D-03  1.45182758D-03
     541 TO  544 -2.02863119D-03 -2.15085711D-03 -2.88374129D-03 -3.61617500D-03
     545 TO  548  5.33620853D-04 -3.55524493D-03  2.91336233D-04 -6.84885620D-03
     549 TO  552 -2.69671356D-03 -9.85127381D-04 -3.54631787D-03 -2.44517648D-03
     553 TO  556 -6.83759487D-03 -2.68379290D-03 -1.27566216D-03 -1.39409440D-03
     557 TO  560 -2.73230918D-03 -3.76619820D-03 -2.05165332D-03 -9.47893787D-04
     561 TO  564 -2.89581141D-03 -1.18029817D-03 -7.09457300D-03 -3.54852782D-03
     565 TO  568 -3.05305473D-03 -2.86337234D-03 -1.14637269D-03 -7.05894801D-03
     569 TO  572 -4.12131659D-03 -1.48837057D-03 -5.26400232D-03 -3.24042979D-03
     573 TO  576 -8.84654528D-03 -3.16124123D-03 -2.66273532D-03 -3.07991994D-03
     577 TO  580 -6.24268766D-03 -8.49025585D-03 -4.02351703D-03 -3.21836387D-03
     581 TO  584 -4.24401344D-03 -6.18535837D-03 -5.07429145D-03 -7.32002947D-03
     585 TO  588 -4.09465152D-04 -7.84249142D-03 -4.89932474D-03 -7.14385798D-03
     589 TO  592 -4.50498415D-03 -2.78191945D-03 -4.10955685D-03 -1.77478947D-03
     593 TO  596 -8.29083323D-03 -3.20858120D-03 -3.00992663D-03 -3.72608514D-03
     597 TO  598 -1.99994992D-03 -5.15741434D-03
