%!PS-Adobe-3.0 EPSF-3.0
%%Title: SS93_res_hist.eps
%%Creator: matplotlib version 1.5.1, http://matplotlib.org/
%%CreationDate: Wed Sep 21 17:28:37 2016
%%Orientation: portrait
%%BoundingBox: 18 108 594 684
%%EndComments
%%BeginProlog
/mpldict 8 dict def
mpldict begin
/m { moveto } bind def
/l { lineto } bind def
/r { rlineto } bind def
/c { curveto } bind def
/cl { closepath } bind def
/box {
m
1 index 0 r
0 exch r
neg 0 r
cl
} bind def
/clipbox {
box
clip
newpath
} bind def
%!PS-Adobe-3.0 Resource-Font
%%Title: Bitstream Vera Sans
%%Copyright: Copyright (c) 2003 by Bitstream, Inc. All Rights Reserved.
%%Creator: Converted from TrueType to type 3 by PPR
25 dict begin
/_d{bind def}bind def
/_m{moveto}_d
/_l{lineto}_d
/_cl{closepath eofill}_d
/_c{curveto}_d
/_sc{7 -1 roll{setcachedevice}{pop pop pop pop pop pop}ifelse}_d
/_e{exec}_d
/FontName /BitstreamVeraSans-Roman def
/PaintType 0 def
/FontMatrix[.001 0 0 .001 0 0]def
/FontBBox[-183 -236 1287 928]def
/FontType 3 def
/Encoding [ /period /zero /one /two /three /four /five /six /a /d /e /i /l /r /s /u /minus ] def
/FontInfo 10 dict dup begin
/FamilyName (Bitstream Vera Sans) def
/FullName (Bitstream Vera Sans) def
/Notice (Copyright (c) 2003 by Bitstream, Inc. All Rights Reserved. Bitstream Vera is a trademark of Bitstream, Inc.) def
/Weight (Roman) def
/Version (Release 1.10) def
/ItalicAngle 0.0 def
/isFixedPitch false def
/UnderlinePosition -213 def
/UnderlineThickness 143 def
end readonly def
/CharStrings 17 dict dup begin
/period{318 0 107 0 210 124 _sc
107 124 _m
210 124 _l
210 0 _l
107 0 _l
107 124 _l
_cl}_d
/zero{636 0 66 -13 570 742 _sc
318 664 _m
267 664 229 639 203 589 _c
177 539 165 464 165 364 _c
165 264 177 189 203 139 _c
229 89 267 64 318 64 _c
369 64 407 89 433 139 _c
458 189 471 264 471 364 _c
471 464 458 539 433 589 _c
407 639 369 664 318 664 _c
318 742 _m
399 742 461 709 505 645 _c
548 580 570 486 570 364 _c
570 241 548 147 505 83 _c
461 19 399 -13 318 -13 _c
236 -13 173 19 130 83 _c
87 147 66 241 66 364 _c
66 486 87 580 130 645 _c
173 709 236 742 318 742 _c
_cl}_d
/one{636 0 110 0 544 729 _sc
124 83 _m
285 83 _l
285 639 _l
110 604 _l
110 694 _l
284 729 _l
383 729 _l
383 83 _l
544 83 _l
544 0 _l
124 0 _l
124 83 _l
_cl}_d
/two{{636 0 73 0 536 742 _sc
192 83 _m
536 83 _l
536 0 _l
73 0 _l
73 83 _l
110 121 161 173 226 239 _c
290 304 331 346 348 365 _c
380 400 402 430 414 455 _c
426 479 433 504 433 528 _c
433 566 419 598 392 622 _c
365 646 330 659 286 659 _c
255 659 222 653 188 643 _c
154 632 117 616 78 594 _c
78 694 _l
118 710 155 722 189 730 _c
223 738 255 742 284 742 _c
}_e{359 742 419 723 464 685 _c
509 647 532 597 532 534 _c
532 504 526 475 515 449 _c
504 422 484 390 454 354 _c
446 344 420 317 376 272 _c
332 227 271 164 192 83 _c
_cl}_e}_d
/three{{636 0 76 -13 556 742 _sc
406 393 _m
453 383 490 362 516 330 _c
542 298 556 258 556 212 _c
556 140 531 84 482 45 _c
432 6 362 -13 271 -13 _c
240 -13 208 -10 176 -4 _c
144 1 110 10 76 22 _c
76 117 _l
103 101 133 89 166 81 _c
198 73 232 69 268 69 _c
330 69 377 81 409 105 _c
441 129 458 165 458 212 _c
458 254 443 288 413 312 _c
383 336 341 349 287 349 _c
}_e{202 349 _l
202 430 _l
291 430 _l
339 430 376 439 402 459 _c
428 478 441 506 441 543 _c
441 580 427 609 401 629 _c
374 649 336 659 287 659 _c
260 659 231 656 200 650 _c
169 644 135 635 98 623 _c
98 711 _l
135 721 170 729 203 734 _c
235 739 266 742 296 742 _c
370 742 429 725 473 691 _c
517 657 539 611 539 553 _c
539 513 527 479 504 451 _c
481 423 448 403 406 393 _c
_cl}_e}_d
/four{636 0 49 0 580 729 _sc
378 643 _m
129 254 _l
378 254 _l
378 643 _l
352 729 _m
476 729 _l
476 254 _l
580 254 _l
580 172 _l
476 172 _l
476 0 _l
378 0 _l
378 172 _l
49 172 _l
49 267 _l
352 729 _l
_cl}_d
/five{{636 0 77 -13 549 729 _sc
108 729 _m
495 729 _l
495 646 _l
198 646 _l
198 467 _l
212 472 227 476 241 478 _c
255 480 270 482 284 482 _c
365 482 429 459 477 415 _c
525 370 549 310 549 234 _c
549 155 524 94 475 51 _c
426 8 357 -13 269 -13 _c
238 -13 207 -10 175 -6 _c
143 -1 111 6 77 17 _c
77 116 _l
106 100 136 88 168 80 _c
199 72 232 69 267 69 _c
}_e{323 69 368 83 401 113 _c
433 143 450 183 450 234 _c
450 284 433 324 401 354 _c
368 384 323 399 267 399 _c
241 399 214 396 188 390 _c
162 384 135 375 108 363 _c
108 729 _l
_cl}_e}_d
/six{{636 0 70 -13 573 742 _sc
330 404 _m
286 404 251 388 225 358 _c
199 328 186 286 186 234 _c
186 181 199 139 225 109 _c
251 79 286 64 330 64 _c
374 64 409 79 435 109 _c
461 139 474 181 474 234 _c
474 286 461 328 435 358 _c
409 388 374 404 330 404 _c
526 713 _m
526 623 _l
501 635 476 644 451 650 _c
425 656 400 659 376 659 _c
310 659 260 637 226 593 _c
}_e{192 549 172 482 168 394 _c
187 422 211 444 240 459 _c
269 474 301 482 336 482 _c
409 482 467 459 509 415 _c
551 371 573 310 573 234 _c
573 159 550 99 506 54 _c
462 9 403 -13 330 -13 _c
246 -13 181 19 137 83 _c
92 147 70 241 70 364 _c
70 479 97 571 152 639 _c
206 707 280 742 372 742 _c
396 742 421 739 447 735 _c
472 730 498 723 526 713 _c
_cl}_e}_d
/a{{613 0 60 -13 522 560 _sc
343 275 _m
270 275 220 266 192 250 _c
164 233 150 205 150 165 _c
150 133 160 107 181 89 _c
202 70 231 61 267 61 _c
317 61 357 78 387 114 _c
417 149 432 196 432 255 _c
432 275 _l
343 275 _l
522 312 _m
522 0 _l
432 0 _l
432 83 _l
411 49 385 25 355 10 _c
325 -5 287 -13 243 -13 _c
187 -13 142 2 109 33 _c
76 64 60 106 60 159 _c
}_e{60 220 80 266 122 298 _c
163 329 224 345 306 345 _c
432 345 _l
432 354 _l
432 395 418 427 391 450 _c
364 472 326 484 277 484 _c
245 484 215 480 185 472 _c
155 464 127 453 100 439 _c
100 522 _l
132 534 164 544 195 550 _c
226 556 256 560 286 560 _c
365 560 424 539 463 498 _c
502 457 522 395 522 312 _c
_cl}_e}_d
/d{{635 0 55 -13 544 760 _sc
454 464 _m
454 760 _l
544 760 _l
544 0 _l
454 0 _l
454 82 _l
435 49 411 25 382 10 _c
353 -5 319 -13 279 -13 _c
213 -13 159 13 117 65 _c
75 117 55 187 55 273 _c
55 359 75 428 117 481 _c
159 533 213 560 279 560 _c
319 560 353 552 382 536 _c
411 520 435 496 454 464 _c
148 273 _m
148 207 161 155 188 117 _c
215 79 253 61 301 61 _c
}_e{348 61 385 79 413 117 _c
440 155 454 207 454 273 _c
454 339 440 390 413 428 _c
385 466 348 485 301 485 _c
253 485 215 466 188 428 _c
161 390 148 339 148 273 _c
_cl}_e}_d
/e{{615 0 55 -13 562 560 _sc
562 296 _m
562 252 _l
149 252 _l
153 190 171 142 205 110 _c
238 78 284 62 344 62 _c
378 62 412 66 444 74 _c
476 82 509 95 541 113 _c
541 28 _l
509 14 476 3 442 -3 _c
408 -9 373 -13 339 -13 _c
251 -13 182 12 131 62 _c
80 112 55 181 55 268 _c
55 357 79 428 127 481 _c
175 533 241 560 323 560 _c
397 560 455 536 498 489 _c
}_e{540 441 562 377 562 296 _c
472 322 _m
471 371 457 410 431 440 _c
404 469 368 484 324 484 _c
274 484 234 469 204 441 _c
174 413 156 373 152 322 _c
472 322 _l
_cl}_e}_d
/i{278 0 94 0 184 760 _sc
94 547 _m
184 547 _l
184 0 _l
94 0 _l
94 547 _l
94 760 _m
184 760 _l
184 646 _l
94 646 _l
94 760 _l
_cl}_d
/l{278 0 94 0 184 760 _sc
94 760 _m
184 760 _l
184 0 _l
94 0 _l
94 760 _l
_cl}_d
/r{411 0 91 0 411 560 _sc
411 463 _m
401 469 390 473 378 476 _c
366 478 353 480 339 480 _c
288 480 249 463 222 430 _c
194 397 181 350 181 288 _c
181 0 _l
91 0 _l
91 547 _l
181 547 _l
181 462 _l
199 495 224 520 254 536 _c
284 552 321 560 365 560 _c
371 560 378 559 386 559 _c
393 558 401 557 411 555 _c
411 463 _l
_cl}_d
/s{{521 0 54 -13 472 560 _sc
443 531 _m
443 446 _l
417 458 391 468 364 475 _c
336 481 308 485 279 485 _c
234 485 200 478 178 464 _c
156 450 145 430 145 403 _c
145 382 153 366 169 354 _c
185 342 217 330 265 320 _c
296 313 _l
360 299 405 279 432 255 _c
458 230 472 195 472 151 _c
472 100 452 60 412 31 _c
372 1 316 -13 246 -13 _c
216 -13 186 -10 154 -5 _c
}_e{122 0 89 8 54 20 _c
54 113 _l
87 95 120 82 152 74 _c
184 65 216 61 248 61 _c
290 61 323 68 346 82 _c
368 96 380 117 380 144 _c
380 168 371 187 355 200 _c
339 213 303 226 247 238 _c
216 245 _l
160 257 119 275 95 299 _c
70 323 58 356 58 399 _c
58 450 76 490 112 518 _c
148 546 200 560 268 560 _c
301 560 332 557 362 552 _c
391 547 418 540 443 531 _c
}_e{_cl}_e}_d
/u{634 0 85 -13 543 547 _sc
85 216 _m
85 547 _l
175 547 _l
175 219 _l
175 167 185 129 205 103 _c
225 77 255 64 296 64 _c
344 64 383 79 411 110 _c
439 141 453 183 453 237 _c
453 547 _l
543 547 _l
543 0 _l
453 0 _l
453 84 _l
431 50 405 26 377 10 _c
348 -5 315 -13 277 -13 _c
214 -13 166 6 134 45 _c
101 83 85 140 85 216 _c
_cl}_d
/minus{838 0 106 272 732 355 _sc
106 355 _m
732 355 _l
732 272 _l
106 272 _l
106 355 _l
_cl}_d
end readonly def

/BuildGlyph
 {exch begin
 CharStrings exch
 2 copy known not{pop /.notdef}if
 true 3 1 roll get exec
 end}_d

/BuildChar {
 1 index /Encoding get exch get
 1 index /BuildGlyph get exec
}_d

FontName currentdict end definefont pop
end
%%EndProlog
mpldict begin
18 108 translate
576 576 0 0 clipbox
100000 setmiterlimit
gsave
0 0 m
576 0 l
576 576 l
0 576 l
cl
1.000 setgray
fill
grestore
gsave
72 72 m
518.4 72 l
518.4 518.4 l
72 518.4 l
cl
0.898 setgray
fill
grestore
1.400 setlinewidth
1 setlinejoin
2 setlinecap
[] 0 setdash
1.000 setgray
gsave
446.4 446.4 72 72 clipbox
109.2 72 m
109.2 518.4 l
stroke
grestore
0 setlinecap
0.498 setgray
gsave
/o {
gsave
newpath
translate
1.4 setlinewidth
1 setlinejoin
0 setlinecap
0 0 m
0 -5 l

gsave
0.498 setgray
fill
grestore
stroke
grestore
} bind def
109.2 72 o
grestore
/BitstreamVeraSans-Roman findfont
10.000 scalefont
setfont
gsave
90.700000 58.406250 translate
0.000000 rotate
0.000000 0.000000 m /minus glyphshow
8.378906 0.000000 m /zero glyphshow
14.741211 0.000000 m /period glyphshow
17.919922 0.000000 m /zero glyphshow
24.282227 0.000000 m /one glyphshow
30.644531 0.000000 m /zero glyphshow
grestore
2 setlinecap
1.000 setgray
gsave
446.4 446.4 72 72 clipbox
202.2 72 m
202.2 518.4 l
stroke
grestore
0 setlinecap
0.498 setgray
gsave
/o {
gsave
newpath
translate
1.4 setlinewidth
1 setlinejoin
0 setlinecap
0 0 m
0 -5 l

gsave
0.498 setgray
fill
grestore
stroke
grestore
} bind def
202.2 72 o
grestore
gsave
183.700000 58.406250 translate
0.000000 rotate
0.000000 0.000000 m /minus glyphshow
8.378906 0.000000 m /zero glyphshow
14.741211 0.000000 m /period glyphshow
17.919922 0.000000 m /zero glyphshow
24.282227 0.000000 m /zero glyphshow
30.644531 0.000000 m /five glyphshow
grestore
2 setlinecap
1.000 setgray
gsave
446.4 446.4 72 72 clipbox
295.2 72 m
295.2 518.4 l
stroke
grestore
0 setlinecap
0.498 setgray
gsave
/o {
gsave
newpath
translate
1.4 setlinewidth
1 setlinejoin
0 setlinecap
0 0 m
0 -5 l

gsave
0.498 setgray
fill
grestore
stroke
grestore
} bind def
295.2 72 o
grestore
gsave
280.887500 58.406250 translate
0.000000 rotate
0.000000 0.000000 m /zero glyphshow
6.362305 0.000000 m /period glyphshow
9.541016 0.000000 m /zero glyphshow
15.903320 0.000000 m /zero glyphshow
22.265625 0.000000 m /zero glyphshow
grestore
2 setlinecap
1.000 setgray
gsave
446.4 446.4 72 72 clipbox
388.2 72 m
388.2 518.4 l
stroke
grestore
0 setlinecap
0.498 setgray
gsave
/o {
gsave
newpath
translate
1.4 setlinewidth
1 setlinejoin
0 setlinecap
0 0 m
0 -5 l

gsave
0.498 setgray
fill
grestore
stroke
grestore
} bind def
388.2 72 o
grestore
gsave
373.887500 58.406250 translate
0.000000 rotate
0.000000 0.000000 m /zero glyphshow
6.362305 0.000000 m /period glyphshow
9.541016 0.000000 m /zero glyphshow
15.903320 0.000000 m /zero glyphshow
22.265625 0.000000 m /five glyphshow
grestore
2 setlinecap
1.000 setgray
gsave
446.4 446.4 72 72 clipbox
481.2 72 m
481.2 518.4 l
stroke
grestore
0 setlinecap
0.498 setgray
gsave
/o {
gsave
newpath
translate
1.4 setlinewidth
1 setlinejoin
0 setlinecap
0 0 m
0 -5 l

gsave
0.498 setgray
fill
grestore
stroke
grestore
} bind def
481.2 72 o
grestore
gsave
466.887500 58.406250 translate
0.000000 rotate
0.000000 0.000000 m /zero glyphshow
6.362305 0.000000 m /period glyphshow
9.541016 0.000000 m /zero glyphshow
15.903320 0.000000 m /one glyphshow
22.265625 0.000000 m /zero glyphshow
grestore
0.700 setlinewidth
2 setlinecap
0.949 setgray
gsave
446.4 446.4 72 72 clipbox
155.7 72 m
155.7 518.4 l
stroke
grestore
0.500 setlinewidth
0 setlinecap
0.498 setgray
gsave
/o {
gsave
newpath
translate
0.5 setlinewidth
1 setlinejoin
0 setlinecap
0 0 m
0 0 l

gsave
0.498 setgray
fill
grestore
stroke
grestore
} bind def
155.7 72 o
grestore
0.700 setlinewidth
2 setlinecap
0.949 setgray
gsave
446.4 446.4 72 72 clipbox
248.7 72 m
248.7 518.4 l
stroke
grestore
0.500 setlinewidth
0 setlinecap
0.498 setgray
gsave
/o {
gsave
newpath
translate
0.5 setlinewidth
1 setlinejoin
0 setlinecap
0 0 m
0 0 l

gsave
0.498 setgray
fill
grestore
stroke
grestore
} bind def
248.7 72 o
grestore
0.700 setlinewidth
2 setlinecap
0.949 setgray
gsave
446.4 446.4 72 72 clipbox
341.7 72 m
341.7 518.4 l
stroke
grestore
0.500 setlinewidth
0 setlinecap
0.498 setgray
gsave
/o {
gsave
newpath
translate
0.5 setlinewidth
1 setlinejoin
0 setlinecap
0 0 m
0 0 l

gsave
0.498 setgray
fill
grestore
stroke
grestore
} bind def
341.7 72 o
grestore
0.700 setlinewidth
2 setlinecap
0.949 setgray
gsave
446.4 446.4 72 72 clipbox
434.7 72 m
434.7 518.4 l
stroke
grestore
0.500 setlinewidth
0 setlinecap
0.498 setgray
gsave
/o {
gsave
newpath
translate
0.5 setlinewidth
1 setlinejoin
0 setlinecap
0 0 m
0 0 l

gsave
0.498 setgray
fill
grestore
stroke
grestore
} bind def
434.7 72 o
grestore
1.400 setlinewidth
2 setlinecap
1.000 setgray
gsave
446.4 446.4 72 72 clipbox
72 72 m
518.4 72 l
stroke
grestore
0 setlinecap
0.498 setgray
gsave
/o {
gsave
newpath
translate
1.4 setlinewidth
1 setlinejoin
0 setlinecap
0 0 m
-5 0 l

gsave
0.498 setgray
fill
grestore
stroke
grestore
} bind def
72 72 o
grestore
gsave
59.640625 69.242188 translate
0.000000 rotate
0.000000 0.000000 m /zero glyphshow
grestore
2 setlinecap
1.000 setgray
gsave
446.4 446.4 72 72 clipbox
72 146.4 m
518.4 146.4 l
stroke
grestore
0 setlinecap
0.498 setgray
gsave
/o {
gsave
newpath
translate
1.4 setlinewidth
1 setlinejoin
0 setlinecap
0 0 m
-5 0 l

gsave
0.498 setgray
fill
grestore
stroke
grestore
} bind def
72 146.4 o
grestore
gsave
53.281250 143.642187 translate
0.000000 rotate
0.000000 0.000000 m /one glyphshow
6.362305 0.000000 m /zero glyphshow
grestore
2 setlinecap
1.000 setgray
gsave
446.4 446.4 72 72 clipbox
72 220.8 m
518.4 220.8 l
stroke
grestore
0 setlinecap
0.498 setgray
gsave
/o {
gsave
newpath
translate
1.4 setlinewidth
1 setlinejoin
0 setlinecap
0 0 m
-5 0 l

gsave
0.498 setgray
fill
grestore
stroke
grestore
} bind def
72 220.8 o
grestore
gsave
53.281250 218.042187 translate
0.000000 rotate
0.000000 0.000000 m /two glyphshow
6.362305 0.000000 m /zero glyphshow
grestore
2 setlinecap
1.000 setgray
gsave
446.4 446.4 72 72 clipbox
72 295.2 m
518.4 295.2 l
stroke
grestore
0 setlinecap
0.498 setgray
gsave
/o {
gsave
newpath
translate
1.4 setlinewidth
1 setlinejoin
0 setlinecap
0 0 m
-5 0 l

gsave
0.498 setgray
fill
grestore
stroke
grestore
} bind def
72 295.2 o
grestore
gsave
53.281250 292.442187 translate
0.000000 rotate
0.000000 0.000000 m /three glyphshow
6.362305 0.000000 m /zero glyphshow
grestore
2 setlinecap
1.000 setgray
gsave
446.4 446.4 72 72 clipbox
72 369.6 m
518.4 369.6 l
stroke
grestore
0 setlinecap
0.498 setgray
gsave
/o {
gsave
newpath
translate
1.4 setlinewidth
1 setlinejoin
0 setlinecap
0 0 m
-5 0 l

gsave
0.498 setgray
fill
grestore
stroke
grestore
} bind def
72 369.6 o
grestore
gsave
53.281250 366.842187 translate
0.000000 rotate
0.000000 0.000000 m /four glyphshow
6.362305 0.000000 m /zero glyphshow
grestore
2 setlinecap
1.000 setgray
gsave
446.4 446.4 72 72 clipbox
72 444 m
518.4 444 l
stroke
grestore
0 setlinecap
0.498 setgray
gsave
/o {
gsave
newpath
translate
1.4 setlinewidth
1 setlinejoin
0 setlinecap
0 0 m
-5 0 l

gsave
0.498 setgray
fill
grestore
stroke
grestore
} bind def
72 444 o
grestore
gsave
53.281250 441.242188 translate
0.000000 rotate
0.000000 0.000000 m /five glyphshow
6.362305 0.000000 m /zero glyphshow
grestore
2 setlinecap
1.000 setgray
gsave
446.4 446.4 72 72 clipbox
72 518.4 m
518.4 518.4 l
stroke
grestore
0 setlinecap
0.498 setgray
gsave
/o {
gsave
newpath
translate
1.4 setlinewidth
1 setlinejoin
0 setlinecap
0 0 m
-5 0 l

gsave
0.498 setgray
fill
grestore
stroke
grestore
} bind def
72 518.4 o
grestore
gsave
53.281250 515.642187 translate
0.000000 rotate
0.000000 0.000000 m /six glyphshow
6.362305 0.000000 m /zero glyphshow
grestore
0.700 setlinewidth
2 setlinecap
0.949 setgray
gsave
446.4 446.4 72 72 clipbox
72 109.2 m
518.4 109.2 l
stroke
grestore
0.500 setlinewidth
0 setlinecap
0.498 setgray
gsave
/o {
gsave
newpath
translate
0.5 setlinewidth
1 setlinejoin
0 setlinecap
0 0 m
0 0 l

gsave
0.498 setgray
fill
grestore
stroke
grestore
} bind def
72 109.2 o
grestore
0.700 setlinewidth
2 setlinecap
0.949 setgray
gsave
446.4 446.4 72 72 clipbox
72 183.6 m
518.4 183.6 l
stroke
grestore
0.500 setlinewidth
0 setlinecap
0.498 setgray
gsave
/o {
gsave
newpath
translate
0.5 setlinewidth
1 setlinejoin
0 setlinecap
0 0 m
0 0 l

gsave
0.498 setgray
fill
grestore
stroke
grestore
} bind def
72 183.6 o
grestore
0.700 setlinewidth
2 setlinecap
0.949 setgray
gsave
446.4 446.4 72 72 clipbox
72 258 m
518.4 258 l
stroke
grestore
0.500 setlinewidth
0 setlinecap
0.498 setgray
gsave
/o {
gsave
newpath
translate
0.5 setlinewidth
1 setlinejoin
0 setlinecap
0 0 m
0 0 l

gsave
0.498 setgray
fill
grestore
stroke
grestore
} bind def
72 258 o
grestore
0.700 setlinewidth
2 setlinecap
0.949 setgray
gsave
446.4 446.4 72 72 clipbox
72 332.4 m
518.4 332.4 l
stroke
grestore
0.500 setlinewidth
0 setlinecap
0.498 setgray
gsave
/o {
gsave
newpath
translate
0.5 setlinewidth
1 setlinejoin
0 setlinecap
0 0 m
0 0 l

gsave
0.498 setgray
fill
grestore
stroke
grestore
} bind def
72 332.4 o
grestore
0.700 setlinewidth
2 setlinecap
0.949 setgray
gsave
446.4 446.4 72 72 clipbox
72 406.8 m
518.4 406.8 l
stroke
grestore
0.500 setlinewidth
0 setlinecap
0.498 setgray
gsave
/o {
gsave
newpath
translate
0.5 setlinewidth
1 setlinejoin
0 setlinecap
0 0 m
0 0 l

gsave
0.498 setgray
fill
grestore
stroke
grestore
} bind def
72 406.8 o
grestore
0.700 setlinewidth
2 setlinecap
0.949 setgray
gsave
446.4 446.4 72 72 clipbox
72 481.2 m
518.4 481.2 l
stroke
grestore
0.500 setlinewidth
0 setlinecap
0.498 setgray
gsave
/o {
gsave
newpath
translate
0.5 setlinewidth
1 setlinejoin
0 setlinecap
0 0 m
0 0 l

gsave
0.498 setgray
fill
grestore
stroke
grestore
} bind def
72 481.2 o
grestore
1.000 setlinewidth
0 setlinejoin
0.000 0.749 1.000 setrgbcolor
gsave
446.4 446.4 72 72 clipbox
109.549987 72 m
121.228308 72 l
121.228308 79.44 l
109.549987 79.44 l
cl
gsave
0.200 setgray
fill
grestore
stroke
grestore
gsave
446.4 446.4 72 72 clipbox
121.228308 72 m
132.906629 72 l
132.906629 72 l
121.228308 72 l
cl
gsave
0.200 setgray
fill
grestore
stroke
grestore
gsave
446.4 446.4 72 72 clipbox
132.906629 72 m
144.584949 72 l
144.584949 72 l
132.906629 72 l
cl
gsave
0.200 setgray
fill
grestore
stroke
grestore
gsave
446.4 446.4 72 72 clipbox
144.584949 72 m
156.26327 72 l
156.26327 72 l
144.584949 72 l
cl
gsave
0.200 setgray
fill
grestore
stroke
grestore
gsave
446.4 446.4 72 72 clipbox
156.26327 72 m
167.941591 72 l
167.941591 109.2 l
156.26327 109.2 l
cl
gsave
0.200 setgray
fill
grestore
stroke
grestore
gsave
446.4 446.4 72 72 clipbox
167.941591 72 m
179.619912 72 l
179.619912 79.44 l
167.941591 79.44 l
cl
gsave
0.200 setgray
fill
grestore
stroke
grestore
gsave
446.4 446.4 72 72 clipbox
179.619912 72 m
191.298233 72 l
191.298233 101.76 l
179.619912 101.76 l
cl
gsave
0.200 setgray
fill
grestore
stroke
grestore
gsave
446.4 446.4 72 72 clipbox
191.298233 72 m
202.976554 72 l
202.976554 116.64 l
191.298233 116.64 l
cl
gsave
0.200 setgray
fill
grestore
stroke
grestore
gsave
446.4 446.4 72 72 clipbox
202.976554 72 m
214.654874 72 l
214.654874 258 l
202.976554 258 l
cl
gsave
0.200 setgray
fill
grestore
stroke
grestore
gsave
446.4 446.4 72 72 clipbox
214.654874 72 m
226.333195 72 l
226.333195 198.48 l
214.654874 198.48 l
cl
gsave
0.200 setgray
fill
grestore
stroke
grestore
gsave
446.4 446.4 72 72 clipbox
226.333195 72 m
238.011516 72 l
238.011516 302.64 l
226.333195 302.64 l
cl
gsave
0.200 setgray
fill
grestore
stroke
grestore
gsave
446.4 446.4 72 72 clipbox
238.011516 72 m
249.689837 72 l
249.689837 406.8 l
238.011516 406.8 l
cl
gsave
0.200 setgray
fill
grestore
stroke
grestore
gsave
446.4 446.4 72 72 clipbox
249.689837 72 m
261.368158 72 l
261.368158 362.16 l
249.689837 362.16 l
cl
gsave
0.200 setgray
fill
grestore
stroke
grestore
gsave
446.4 446.4 72 72 clipbox
261.368158 72 m
273.046478 72 l
273.046478 436.56 l
261.368158 436.56 l
cl
gsave
0.200 setgray
fill
grestore
stroke
grestore
gsave
446.4 446.4 72 72 clipbox
273.046478 72 m
284.724799 72 l
284.724799 458.88 l
273.046478 458.88 l
cl
gsave
0.200 setgray
fill
grestore
stroke
grestore
gsave
446.4 446.4 72 72 clipbox
284.724799 72 m
296.40312 72 l
296.40312 369.6 l
284.724799 369.6 l
cl
gsave
0.200 setgray
fill
grestore
stroke
grestore
gsave
446.4 446.4 72 72 clipbox
296.40312 72 m
308.081441 72 l
308.081441 436.56 l
296.40312 436.56 l
cl
gsave
0.200 setgray
fill
grestore
stroke
grestore
gsave
446.4 446.4 72 72 clipbox
308.081441 72 m
319.759762 72 l
319.759762 414.24 l
308.081441 414.24 l
cl
gsave
0.200 setgray
fill
grestore
stroke
grestore
gsave
446.4 446.4 72 72 clipbox
319.759762 72 m
331.438083 72 l
331.438083 332.4 l
319.759762 332.4 l
cl
gsave
0.200 setgray
fill
grestore
stroke
grestore
gsave
446.4 446.4 72 72 clipbox
331.438083 72 m
343.116403 72 l
343.116403 243.12 l
331.438083 243.12 l
cl
gsave
0.200 setgray
fill
grestore
stroke
grestore
gsave
446.4 446.4 72 72 clipbox
343.116403 72 m
354.794724 72 l
354.794724 347.28 l
343.116403 347.28 l
cl
gsave
0.200 setgray
fill
grestore
stroke
grestore
gsave
446.4 446.4 72 72 clipbox
354.794724 72 m
366.473045 72 l
366.473045 265.44 l
354.794724 265.44 l
cl
gsave
0.200 setgray
fill
grestore
stroke
grestore
gsave
446.4 446.4 72 72 clipbox
366.473045 72 m
378.151366 72 l
378.151366 228.24 l
366.473045 228.24 l
cl
gsave
0.200 setgray
fill
grestore
stroke
grestore
gsave
446.4 446.4 72 72 clipbox
378.151366 72 m
389.829687 72 l
389.829687 183.6 l
378.151366 183.6 l
cl
gsave
0.200 setgray
fill
grestore
stroke
grestore
gsave
446.4 446.4 72 72 clipbox
389.829687 72 m
401.508007 72 l
401.508007 153.84 l
389.829687 153.84 l
cl
gsave
0.200 setgray
fill
grestore
stroke
grestore
gsave
446.4 446.4 72 72 clipbox
401.508007 72 m
413.186328 72 l
413.186328 101.76 l
401.508007 101.76 l
cl
gsave
0.200 setgray
fill
grestore
stroke
grestore
gsave
446.4 446.4 72 72 clipbox
413.186328 72 m
424.864649 72 l
424.864649 109.2 l
413.186328 109.2 l
cl
gsave
0.200 setgray
fill
grestore
stroke
grestore
gsave
446.4 446.4 72 72 clipbox
424.864649 72 m
436.54297 72 l
436.54297 109.2 l
424.864649 109.2 l
cl
gsave
0.200 setgray
fill
grestore
stroke
grestore
gsave
446.4 446.4 72 72 clipbox
436.54297 72 m
448.221291 72 l
448.221291 94.32 l
436.54297 94.32 l
cl
gsave
0.200 setgray
fill
grestore
stroke
grestore
gsave
446.4 446.4 72 72 clipbox
448.221291 72 m
459.899612 72 l
459.899612 94.32 l
448.221291 94.32 l
cl
gsave
0.200 setgray
fill
grestore
stroke
grestore
gsave
72 518.4 m
518.4 518.4 l
grestore
gsave
518.4 72 m
518.4 518.4 l
grestore
gsave
72 72 m
72 518.4 l
grestore
gsave
72 72 m
518.4 72 l
grestore
0.000 setgray
/BitstreamVeraSans-Roman findfont
12.000 scalefont
setfont
gsave
260.960938 28.800000 translate
0.000000 rotate
0.000000 0.000000 m /r glyphshow
4.933594 0.000000 m /e glyphshow
12.316406 0.000000 m /s glyphshow
18.568359 0.000000 m /i glyphshow
21.902344 0.000000 m /d glyphshow
29.519531 0.000000 m /u glyphshow
37.125000 0.000000 m /a glyphshow
44.478516 0.000000 m /l glyphshow
47.812500 0.000000 m /s glyphshow
grestore

end
showpage
