%!PS-Adobe-3.0 EPSF-3.0
%%Title: SS93_res_histd.eps
%%Creator: matplotlib version 1.5.1, http://matplotlib.org/
%%CreationDate: Thu Aug 18 16:19:24 2016
%%Orientation: portrait
%%BoundingBox: 18 108 594 684
%%EndComments
%%BeginProlog
/mpldict 8 dict def
mpldict begin
/m { moveto } bind def
/l { lineto } bind def
/r { rlineto } bind def
/c { curveto } bind def
/cl { closepath } bind def
/box {
m
1 index 0 r
0 exch r
neg 0 r
cl
} bind def
/clipbox {
box
clip
newpath
} bind def
%!PS-Adobe-3.0 Resource-Font
%%Title: Bitstream Vera Sans
%%Copyright: Copyright (c) 2003 by Bitstream, Inc. All Rights Reserved.
%%Creator: Converted from TrueType to type 3 by PPR
25 dict begin
/_d{bind def}bind def
/_m{moveto}_d
/_l{lineto}_d
/_cl{closepath eofill}_d
/_c{curveto}_d
/_sc{7 -1 roll{setcachedevice}{pop pop pop pop pop pop}ifelse}_d
/_e{exec}_d
/FontName /BitstreamVeraSans-Roman def
/PaintType 0 def
/FontMatrix[.001 0 0 .001 0 0]def
/FontBBox[-183 -236 1287 928]def
/FontType 3 def
/Encoding [ /period /zero /one /two /three /four /five /six /seven /eight /a /d /e /i /l /r /s /u /minus ] def
/FontInfo 10 dict dup begin
/FamilyName (Bitstream Vera Sans) def
/FullName (Bitstream Vera Sans) def
/Notice (Copyright (c) 2003 by Bitstream, Inc. All Rights Reserved. Bitstream Vera is a trademark of Bitstream, Inc.) def
/Weight (Roman) def
/Version (Release 1.10) def
/ItalicAngle 0.0 def
/isFixedPitch false def
/UnderlinePosition -213 def
/UnderlineThickness 143 def
end readonly def
/CharStrings 19 dict dup begin
/period{318 0 107 0 210 124 _sc
107 124 _m
210 124 _l
210 0 _l
107 0 _l
107 124 _l
_cl}_d
/zero{636 0 66 -13 570 742 _sc
318 664 _m
267 664 229 639 203 589 _c
177 539 165 464 165 364 _c
165 264 177 189 203 139 _c
229 89 267 64 318 64 _c
369 64 407 89 433 139 _c
458 189 471 264 471 364 _c
471 464 458 539 433 589 _c
407 639 369 664 318 664 _c
318 742 _m
399 742 461 709 505 645 _c
548 580 570 486 570 364 _c
570 241 548 147 505 83 _c
461 19 399 -13 318 -13 _c
236 -13 173 19 130 83 _c
87 147 66 241 66 364 _c
66 486 87 580 130 645 _c
173 709 236 742 318 742 _c
_cl}_d
/one{636 0 110 0 544 729 _sc
124 83 _m
285 83 _l
285 639 _l
110 604 _l
110 694 _l
284 729 _l
383 729 _l
383 83 _l
544 83 _l
544 0 _l
124 0 _l
124 83 _l
_cl}_d
/two{{636 0 73 0 536 742 _sc
192 83 _m
536 83 _l
536 0 _l
73 0 _l
73 83 _l
110 121 161 173 226 239 _c
290 304 331 346 348 365 _c
380 400 402 430 414 455 _c
426 479 433 504 433 528 _c
433 566 419 598 392 622 _c
365 646 330 659 286 659 _c
255 659 222 653 188 643 _c
154 632 117 616 78 594 _c
78 694 _l
118 710 155 722 189 730 _c
223 738 255 742 284 742 _c
}_e{359 742 419 723 464 685 _c
509 647 532 597 532 534 _c
532 504 526 475 515 449 _c
504 422 484 390 454 354 _c
446 344 420 317 376 272 _c
332 227 271 164 192 83 _c
_cl}_e}_d
/three{{636 0 76 -13 556 742 _sc
406 393 _m
453 383 490 362 516 330 _c
542 298 556 258 556 212 _c
556 140 531 84 482 45 _c
432 6 362 -13 271 -13 _c
240 -13 208 -10 176 -4 _c
144 1 110 10 76 22 _c
76 117 _l
103 101 133 89 166 81 _c
198 73 232 69 268 69 _c
330 69 377 81 409 105 _c
441 129 458 165 458 212 _c
458 254 443 288 413 312 _c
383 336 341 349 287 349 _c
}_e{202 349 _l
202 430 _l
291 430 _l
339 430 376 439 402 459 _c
428 478 441 506 441 543 _c
441 580 427 609 401 629 _c
374 649 336 659 287 659 _c
260 659 231 656 200 650 _c
169 644 135 635 98 623 _c
98 711 _l
135 721 170 729 203 734 _c
235 739 266 742 296 742 _c
370 742 429 725 473 691 _c
517 657 539 611 539 553 _c
539 513 527 479 504 451 _c
481 423 448 403 406 393 _c
_cl}_e}_d
/four{636 0 49 0 580 729 _sc
378 643 _m
129 254 _l
378 254 _l
378 643 _l
352 729 _m
476 729 _l
476 254 _l
580 254 _l
580 172 _l
476 172 _l
476 0 _l
378 0 _l
378 172 _l
49 172 _l
49 267 _l
352 729 _l
_cl}_d
/five{{636 0 77 -13 549 729 _sc
108 729 _m
495 729 _l
495 646 _l
198 646 _l
198 467 _l
212 472 227 476 241 478 _c
255 480 270 482 284 482 _c
365 482 429 459 477 415 _c
525 370 549 310 549 234 _c
549 155 524 94 475 51 _c
426 8 357 -13 269 -13 _c
238 -13 207 -10 175 -6 _c
143 -1 111 6 77 17 _c
77 116 _l
106 100 136 88 168 80 _c
199 72 232 69 267 69 _c
}_e{323 69 368 83 401 113 _c
433 143 450 183 450 234 _c
450 284 433 324 401 354 _c
368 384 323 399 267 399 _c
241 399 214 396 188 390 _c
162 384 135 375 108 363 _c
108 729 _l
_cl}_e}_d
/six{{636 0 70 -13 573 742 _sc
330 404 _m
286 404 251 388 225 358 _c
199 328 186 286 186 234 _c
186 181 199 139 225 109 _c
251 79 286 64 330 64 _c
374 64 409 79 435 109 _c
461 139 474 181 474 234 _c
474 286 461 328 435 358 _c
409 388 374 404 330 404 _c
526 713 _m
526 623 _l
501 635 476 644 451 650 _c
425 656 400 659 376 659 _c
310 659 260 637 226 593 _c
}_e{192 549 172 482 168 394 _c
187 422 211 444 240 459 _c
269 474 301 482 336 482 _c
409 482 467 459 509 415 _c
551 371 573 310 573 234 _c
573 159 550 99 506 54 _c
462 9 403 -13 330 -13 _c
246 -13 181 19 137 83 _c
92 147 70 241 70 364 _c
70 479 97 571 152 639 _c
206 707 280 742 372 742 _c
396 742 421 739 447 735 _c
472 730 498 723 526 713 _c
_cl}_e}_d
/seven{636 0 82 0 551 729 _sc
82 729 _m
551 729 _l
551 687 _l
286 0 _l
183 0 _l
432 646 _l
82 646 _l
82 729 _l
_cl}_d
/eight{{636 0 68 -13 568 742 _sc
318 346 _m
271 346 234 333 207 308 _c
180 283 167 249 167 205 _c
167 161 180 126 207 101 _c
234 76 271 64 318 64 _c
364 64 401 76 428 102 _c
455 127 469 161 469 205 _c
469 249 455 283 429 308 _c
402 333 365 346 318 346 _c
219 388 _m
177 398 144 418 120 447 _c
96 476 85 511 85 553 _c
85 611 105 657 147 691 _c
188 725 245 742 318 742 _c
}_e{390 742 447 725 489 691 _c
530 657 551 611 551 553 _c
551 511 539 476 515 447 _c
491 418 459 398 417 388 _c
464 377 501 355 528 323 _c
554 291 568 251 568 205 _c
568 134 546 80 503 43 _c
459 5 398 -13 318 -13 _c
237 -13 175 5 132 43 _c
89 80 68 134 68 205 _c
68 251 81 291 108 323 _c
134 355 171 377 219 388 _c
183 544 _m
183 506 194 476 218 455 _c
}_e{242 434 275 424 318 424 _c
360 424 393 434 417 455 _c
441 476 453 506 453 544 _c
453 582 441 611 417 632 _c
393 653 360 664 318 664 _c
275 664 242 653 218 632 _c
194 611 183 582 183 544 _c
_cl}_e}_d
/a{{613 0 60 -13 522 560 _sc
343 275 _m
270 275 220 266 192 250 _c
164 233 150 205 150 165 _c
150 133 160 107 181 89 _c
202 70 231 61 267 61 _c
317 61 357 78 387 114 _c
417 149 432 196 432 255 _c
432 275 _l
343 275 _l
522 312 _m
522 0 _l
432 0 _l
432 83 _l
411 49 385 25 355 10 _c
325 -5 287 -13 243 -13 _c
187 -13 142 2 109 33 _c
76 64 60 106 60 159 _c
}_e{60 220 80 266 122 298 _c
163 329 224 345 306 345 _c
432 345 _l
432 354 _l
432 395 418 427 391 450 _c
364 472 326 484 277 484 _c
245 484 215 480 185 472 _c
155 464 127 453 100 439 _c
100 522 _l
132 534 164 544 195 550 _c
226 556 256 560 286 560 _c
365 560 424 539 463 498 _c
502 457 522 395 522 312 _c
_cl}_e}_d
/d{{635 0 55 -13 544 760 _sc
454 464 _m
454 760 _l
544 760 _l
544 0 _l
454 0 _l
454 82 _l
435 49 411 25 382 10 _c
353 -5 319 -13 279 -13 _c
213 -13 159 13 117 65 _c
75 117 55 187 55 273 _c
55 359 75 428 117 481 _c
159 533 213 560 279 560 _c
319 560 353 552 382 536 _c
411 520 435 496 454 464 _c
148 273 _m
148 207 161 155 188 117 _c
215 79 253 61 301 61 _c
}_e{348 61 385 79 413 117 _c
440 155 454 207 454 273 _c
454 339 440 390 413 428 _c
385 466 348 485 301 485 _c
253 485 215 466 188 428 _c
161 390 148 339 148 273 _c
_cl}_e}_d
/e{{615 0 55 -13 562 560 _sc
562 296 _m
562 252 _l
149 252 _l
153 190 171 142 205 110 _c
238 78 284 62 344 62 _c
378 62 412 66 444 74 _c
476 82 509 95 541 113 _c
541 28 _l
509 14 476 3 442 -3 _c
408 -9 373 -13 339 -13 _c
251 -13 182 12 131 62 _c
80 112 55 181 55 268 _c
55 357 79 428 127 481 _c
175 533 241 560 323 560 _c
397 560 455 536 498 489 _c
}_e{540 441 562 377 562 296 _c
472 322 _m
471 371 457 410 431 440 _c
404 469 368 484 324 484 _c
274 484 234 469 204 441 _c
174 413 156 373 152 322 _c
472 322 _l
_cl}_e}_d
/i{278 0 94 0 184 760 _sc
94 547 _m
184 547 _l
184 0 _l
94 0 _l
94 547 _l
94 760 _m
184 760 _l
184 646 _l
94 646 _l
94 760 _l
_cl}_d
/l{278 0 94 0 184 760 _sc
94 760 _m
184 760 _l
184 0 _l
94 0 _l
94 760 _l
_cl}_d
/r{411 0 91 0 411 560 _sc
411 463 _m
401 469 390 473 378 476 _c
366 478 353 480 339 480 _c
288 480 249 463 222 430 _c
194 397 181 350 181 288 _c
181 0 _l
91 0 _l
91 547 _l
181 547 _l
181 462 _l
199 495 224 520 254 536 _c
284 552 321 560 365 560 _c
371 560 378 559 386 559 _c
393 558 401 557 411 555 _c
411 463 _l
_cl}_d
/s{{521 0 54 -13 472 560 _sc
443 531 _m
443 446 _l
417 458 391 468 364 475 _c
336 481 308 485 279 485 _c
234 485 200 478 178 464 _c
156 450 145 430 145 403 _c
145 382 153 366 169 354 _c
185 342 217 330 265 320 _c
296 313 _l
360 299 405 279 432 255 _c
458 230 472 195 472 151 _c
472 100 452 60 412 31 _c
372 1 316 -13 246 -13 _c
216 -13 186 -10 154 -5 _c
}_e{122 0 89 8 54 20 _c
54 113 _l
87 95 120 82 152 74 _c
184 65 216 61 248 61 _c
290 61 323 68 346 82 _c
368 96 380 117 380 144 _c
380 168 371 187 355 200 _c
339 213 303 226 247 238 _c
216 245 _l
160 257 119 275 95 299 _c
70 323 58 356 58 399 _c
58 450 76 490 112 518 _c
148 546 200 560 268 560 _c
301 560 332 557 362 552 _c
391 547 418 540 443 531 _c
}_e{_cl}_e}_d
/u{634 0 85 -13 543 547 _sc
85 216 _m
85 547 _l
175 547 _l
175 219 _l
175 167 185 129 205 103 _c
225 77 255 64 296 64 _c
344 64 383 79 411 110 _c
439 141 453 183 453 237 _c
453 547 _l
543 547 _l
543 0 _l
453 0 _l
453 84 _l
431 50 405 26 377 10 _c
348 -5 315 -13 277 -13 _c
214 -13 166 6 134 45 _c
101 83 85 140 85 216 _c
_cl}_d
/minus{838 0 106 272 732 355 _sc
106 355 _m
732 355 _l
732 272 _l
106 272 _l
106 355 _l
_cl}_d
end readonly def

/BuildGlyph
 {exch begin
 CharStrings exch
 2 copy known not{pop /.notdef}if
 true 3 1 roll get exec
 end}_d

/BuildChar {
 1 index /Encoding get exch get
 1 index /BuildGlyph get exec
}_d

FontName currentdict end definefont pop
end
%%EndProlog
mpldict begin
18 108 translate
576 576 0 0 clipbox
100000 setmiterlimit
gsave
0 0 m
576 0 l
576 576 l
0 576 l
cl
1.000 setgray
fill
grestore
gsave
72 72 m
518.4 72 l
518.4 518.4 l
72 518.4 l
cl
0.898 setgray
fill
grestore
1.400 setlinewidth
1 setlinejoin
2 setlinecap
[] 0 setdash
1.000 setgray
gsave
446.4 446.4 72 72 clipbox
109.2 72 m
109.2 518.4 l
stroke
grestore
0 setlinecap
0.498 setgray
gsave
/o {
gsave
newpath
translate
1.4 setlinewidth
1 setlinejoin
0 setlinecap
0 0 m
0 -5 l

gsave
0.498 setgray
fill
grestore
stroke
grestore
} bind def
109.2 72 o
grestore
/BitstreamVeraSans-Roman findfont
10.000 scalefont
setfont
gsave
90.700000 58.406250 translate
0.000000 rotate
0.000000 0.000000 m /minus glyphshow
8.378906 0.000000 m /zero glyphshow
14.741211 0.000000 m /period glyphshow
17.919922 0.000000 m /zero glyphshow
24.282227 0.000000 m /one glyphshow
30.644531 0.000000 m /zero glyphshow
grestore
2 setlinecap
1.000 setgray
gsave
446.4 446.4 72 72 clipbox
202.2 72 m
202.2 518.4 l
stroke
grestore
0 setlinecap
0.498 setgray
gsave
/o {
gsave
newpath
translate
1.4 setlinewidth
1 setlinejoin
0 setlinecap
0 0 m
0 -5 l

gsave
0.498 setgray
fill
grestore
stroke
grestore
} bind def
202.2 72 o
grestore
gsave
183.700000 58.406250 translate
0.000000 rotate
0.000000 0.000000 m /minus glyphshow
8.378906 0.000000 m /zero glyphshow
14.741211 0.000000 m /period glyphshow
17.919922 0.000000 m /zero glyphshow
24.282227 0.000000 m /zero glyphshow
30.644531 0.000000 m /five glyphshow
grestore
2 setlinecap
1.000 setgray
gsave
446.4 446.4 72 72 clipbox
295.2 72 m
295.2 518.4 l
stroke
grestore
0 setlinecap
0.498 setgray
gsave
/o {
gsave
newpath
translate
1.4 setlinewidth
1 setlinejoin
0 setlinecap
0 0 m
0 -5 l

gsave
0.498 setgray
fill
grestore
stroke
grestore
} bind def
295.2 72 o
grestore
gsave
280.887500 58.406250 translate
0.000000 rotate
0.000000 0.000000 m /zero glyphshow
6.362305 0.000000 m /period glyphshow
9.541016 0.000000 m /zero glyphshow
15.903320 0.000000 m /zero glyphshow
22.265625 0.000000 m /zero glyphshow
grestore
2 setlinecap
1.000 setgray
gsave
446.4 446.4 72 72 clipbox
388.2 72 m
388.2 518.4 l
stroke
grestore
0 setlinecap
0.498 setgray
gsave
/o {
gsave
newpath
translate
1.4 setlinewidth
1 setlinejoin
0 setlinecap
0 0 m
0 -5 l

gsave
0.498 setgray
fill
grestore
stroke
grestore
} bind def
388.2 72 o
grestore
gsave
373.887500 58.406250 translate
0.000000 rotate
0.000000 0.000000 m /zero glyphshow
6.362305 0.000000 m /period glyphshow
9.541016 0.000000 m /zero glyphshow
15.903320 0.000000 m /zero glyphshow
22.265625 0.000000 m /five glyphshow
grestore
2 setlinecap
1.000 setgray
gsave
446.4 446.4 72 72 clipbox
481.2 72 m
481.2 518.4 l
stroke
grestore
0 setlinecap
0.498 setgray
gsave
/o {
gsave
newpath
translate
1.4 setlinewidth
1 setlinejoin
0 setlinecap
0 0 m
0 -5 l

gsave
0.498 setgray
fill
grestore
stroke
grestore
} bind def
481.2 72 o
grestore
gsave
466.887500 58.406250 translate
0.000000 rotate
0.000000 0.000000 m /zero glyphshow
6.362305 0.000000 m /period glyphshow
9.541016 0.000000 m /zero glyphshow
15.903320 0.000000 m /one glyphshow
22.265625 0.000000 m /zero glyphshow
grestore
0.700 setlinewidth
2 setlinecap
0.949 setgray
gsave
446.4 446.4 72 72 clipbox
155.7 72 m
155.7 518.4 l
stroke
grestore
0.500 setlinewidth
0 setlinecap
0.498 setgray
gsave
/o {
gsave
newpath
translate
0.5 setlinewidth
1 setlinejoin
0 setlinecap
0 0 m
0 0 l

gsave
0.498 setgray
fill
grestore
stroke
grestore
} bind def
155.7 72 o
grestore
0.700 setlinewidth
2 setlinecap
0.949 setgray
gsave
446.4 446.4 72 72 clipbox
248.7 72 m
248.7 518.4 l
stroke
grestore
0.500 setlinewidth
0 setlinecap
0.498 setgray
gsave
/o {
gsave
newpath
translate
0.5 setlinewidth
1 setlinejoin
0 setlinecap
0 0 m
0 0 l

gsave
0.498 setgray
fill
grestore
stroke
grestore
} bind def
248.7 72 o
grestore
0.700 setlinewidth
2 setlinecap
0.949 setgray
gsave
446.4 446.4 72 72 clipbox
341.7 72 m
341.7 518.4 l
stroke
grestore
0.500 setlinewidth
0 setlinecap
0.498 setgray
gsave
/o {
gsave
newpath
translate
0.5 setlinewidth
1 setlinejoin
0 setlinecap
0 0 m
0 0 l

gsave
0.498 setgray
fill
grestore
stroke
grestore
} bind def
341.7 72 o
grestore
0.700 setlinewidth
2 setlinecap
0.949 setgray
gsave
446.4 446.4 72 72 clipbox
434.7 72 m
434.7 518.4 l
stroke
grestore
0.500 setlinewidth
0 setlinecap
0.498 setgray
gsave
/o {
gsave
newpath
translate
0.5 setlinewidth
1 setlinejoin
0 setlinecap
0 0 m
0 0 l

gsave
0.498 setgray
fill
grestore
stroke
grestore
} bind def
434.7 72 o
grestore
1.400 setlinewidth
2 setlinecap
1.000 setgray
gsave
446.4 446.4 72 72 clipbox
72 72 m
518.4 72 l
stroke
grestore
0 setlinecap
0.498 setgray
gsave
/o {
gsave
newpath
translate
1.4 setlinewidth
1 setlinejoin
0 setlinecap
0 0 m
-5 0 l

gsave
0.498 setgray
fill
grestore
stroke
grestore
} bind def
72 72 o
grestore
gsave
59.640625 69.242188 translate
0.000000 rotate
0.000000 0.000000 m /zero glyphshow
grestore
2 setlinecap
1.000 setgray
gsave
446.4 446.4 72 72 clipbox
72 127.8 m
518.4 127.8 l
stroke
grestore
0 setlinecap
0.498 setgray
gsave
/o {
gsave
newpath
translate
1.4 setlinewidth
1 setlinejoin
0 setlinecap
0 0 m
-5 0 l

gsave
0.498 setgray
fill
grestore
stroke
grestore
} bind def
72 127.8 o
grestore
gsave
53.281250 125.042187 translate
0.000000 rotate
0.000000 0.000000 m /one glyphshow
6.362305 0.000000 m /zero glyphshow
grestore
2 setlinecap
1.000 setgray
gsave
446.4 446.4 72 72 clipbox
72 183.6 m
518.4 183.6 l
stroke
grestore
0 setlinecap
0.498 setgray
gsave
/o {
gsave
newpath
translate
1.4 setlinewidth
1 setlinejoin
0 setlinecap
0 0 m
-5 0 l

gsave
0.498 setgray
fill
grestore
stroke
grestore
} bind def
72 183.6 o
grestore
gsave
53.281250 180.842187 translate
0.000000 rotate
0.000000 0.000000 m /two glyphshow
6.362305 0.000000 m /zero glyphshow
grestore
2 setlinecap
1.000 setgray
gsave
446.4 446.4 72 72 clipbox
72 239.4 m
518.4 239.4 l
stroke
grestore
0 setlinecap
0.498 setgray
gsave
/o {
gsave
newpath
translate
1.4 setlinewidth
1 setlinejoin
0 setlinecap
0 0 m
-5 0 l

gsave
0.498 setgray
fill
grestore
stroke
grestore
} bind def
72 239.4 o
grestore
gsave
53.281250 236.642188 translate
0.000000 rotate
0.000000 0.000000 m /three glyphshow
6.362305 0.000000 m /zero glyphshow
grestore
2 setlinecap
1.000 setgray
gsave
446.4 446.4 72 72 clipbox
72 295.2 m
518.4 295.2 l
stroke
grestore
0 setlinecap
0.498 setgray
gsave
/o {
gsave
newpath
translate
1.4 setlinewidth
1 setlinejoin
0 setlinecap
0 0 m
-5 0 l

gsave
0.498 setgray
fill
grestore
stroke
grestore
} bind def
72 295.2 o
grestore
gsave
53.281250 292.442187 translate
0.000000 rotate
0.000000 0.000000 m /four glyphshow
6.362305 0.000000 m /zero glyphshow
grestore
2 setlinecap
1.000 setgray
gsave
446.4 446.4 72 72 clipbox
72 351 m
518.4 351 l
stroke
grestore
0 setlinecap
0.498 setgray
gsave
/o {
gsave
newpath
translate
1.4 setlinewidth
1 setlinejoin
0 setlinecap
0 0 m
-5 0 l

gsave
0.498 setgray
fill
grestore
stroke
grestore
} bind def
72 351 o
grestore
gsave
53.281250 348.242188 translate
0.000000 rotate
0.000000 0.000000 m /five glyphshow
6.362305 0.000000 m /zero glyphshow
grestore
2 setlinecap
1.000 setgray
gsave
446.4 446.4 72 72 clipbox
72 406.8 m
518.4 406.8 l
stroke
grestore
0 setlinecap
0.498 setgray
gsave
/o {
gsave
newpath
translate
1.4 setlinewidth
1 setlinejoin
0 setlinecap
0 0 m
-5 0 l

gsave
0.498 setgray
fill
grestore
stroke
grestore
} bind def
72 406.8 o
grestore
gsave
53.281250 404.042188 translate
0.000000 rotate
0.000000 0.000000 m /six glyphshow
6.362305 0.000000 m /zero glyphshow
grestore
2 setlinecap
1.000 setgray
gsave
446.4 446.4 72 72 clipbox
72 462.6 m
518.4 462.6 l
stroke
grestore
0 setlinecap
0.498 setgray
gsave
/o {
gsave
newpath
translate
1.4 setlinewidth
1 setlinejoin
0 setlinecap
0 0 m
-5 0 l

gsave
0.498 setgray
fill
grestore
stroke
grestore
} bind def
72 462.6 o
grestore
gsave
53.281250 459.842188 translate
0.000000 rotate
0.000000 0.000000 m /seven glyphshow
6.362305 0.000000 m /zero glyphshow
grestore
2 setlinecap
1.000 setgray
gsave
446.4 446.4 72 72 clipbox
72 518.4 m
518.4 518.4 l
stroke
grestore
0 setlinecap
0.498 setgray
gsave
/o {
gsave
newpath
translate
1.4 setlinewidth
1 setlinejoin
0 setlinecap
0 0 m
-5 0 l

gsave
0.498 setgray
fill
grestore
stroke
grestore
} bind def
72 518.4 o
grestore
gsave
53.281250 515.642187 translate
0.000000 rotate
0.000000 0.000000 m /eight glyphshow
6.362305 0.000000 m /zero glyphshow
grestore
0.700 setlinewidth
2 setlinecap
0.949 setgray
gsave
446.4 446.4 72 72 clipbox
72 99.9 m
518.4 99.9 l
stroke
grestore
0.500 setlinewidth
0 setlinecap
0.498 setgray
gsave
/o {
gsave
newpath
translate
0.5 setlinewidth
1 setlinejoin
0 setlinecap
0 0 m
0 0 l

gsave
0.498 setgray
fill
grestore
stroke
grestore
} bind def
72 99.9 o
grestore
0.700 setlinewidth
2 setlinecap
0.949 setgray
gsave
446.4 446.4 72 72 clipbox
72 155.7 m
518.4 155.7 l
stroke
grestore
0.500 setlinewidth
0 setlinecap
0.498 setgray
gsave
/o {
gsave
newpath
translate
0.5 setlinewidth
1 setlinejoin
0 setlinecap
0 0 m
0 0 l

gsave
0.498 setgray
fill
grestore
stroke
grestore
} bind def
72 155.7 o
grestore
0.700 setlinewidth
2 setlinecap
0.949 setgray
gsave
446.4 446.4 72 72 clipbox
72 211.5 m
518.4 211.5 l
stroke
grestore
0.500 setlinewidth
0 setlinecap
0.498 setgray
gsave
/o {
gsave
newpath
translate
0.5 setlinewidth
1 setlinejoin
0 setlinecap
0 0 m
0 0 l

gsave
0.498 setgray
fill
grestore
stroke
grestore
} bind def
72 211.5 o
grestore
0.700 setlinewidth
2 setlinecap
0.949 setgray
gsave
446.4 446.4 72 72 clipbox
72 267.3 m
518.4 267.3 l
stroke
grestore
0.500 setlinewidth
0 setlinecap
0.498 setgray
gsave
/o {
gsave
newpath
translate
0.5 setlinewidth
1 setlinejoin
0 setlinecap
0 0 m
0 0 l

gsave
0.498 setgray
fill
grestore
stroke
grestore
} bind def
72 267.3 o
grestore
0.700 setlinewidth
2 setlinecap
0.949 setgray
gsave
446.4 446.4 72 72 clipbox
72 323.1 m
518.4 323.1 l
stroke
grestore
0.500 setlinewidth
0 setlinecap
0.498 setgray
gsave
/o {
gsave
newpath
translate
0.5 setlinewidth
1 setlinejoin
0 setlinecap
0 0 m
0 0 l

gsave
0.498 setgray
fill
grestore
stroke
grestore
} bind def
72 323.1 o
grestore
0.700 setlinewidth
2 setlinecap
0.949 setgray
gsave
446.4 446.4 72 72 clipbox
72 378.9 m
518.4 378.9 l
stroke
grestore
0.500 setlinewidth
0 setlinecap
0.498 setgray
gsave
/o {
gsave
newpath
translate
0.5 setlinewidth
1 setlinejoin
0 setlinecap
0 0 m
0 0 l

gsave
0.498 setgray
fill
grestore
stroke
grestore
} bind def
72 378.9 o
grestore
0.700 setlinewidth
2 setlinecap
0.949 setgray
gsave
446.4 446.4 72 72 clipbox
72 434.7 m
518.4 434.7 l
stroke
grestore
0.500 setlinewidth
0 setlinecap
0.498 setgray
gsave
/o {
gsave
newpath
translate
0.5 setlinewidth
1 setlinejoin
0 setlinecap
0 0 m
0 0 l

gsave
0.498 setgray
fill
grestore
stroke
grestore
} bind def
72 434.7 o
grestore
0.700 setlinewidth
2 setlinecap
0.949 setgray
gsave
446.4 446.4 72 72 clipbox
72 490.5 m
518.4 490.5 l
stroke
grestore
0.500 setlinewidth
0 setlinecap
0.498 setgray
gsave
/o {
gsave
newpath
translate
0.5 setlinewidth
1 setlinejoin
0 setlinecap
0 0 m
0 0 l

gsave
0.498 setgray
fill
grestore
stroke
grestore
} bind def
72 490.5 o
grestore
1.000 setlinewidth
0 setlinejoin
0.000 0.749 1.000 setrgbcolor
gsave
446.4 446.4 72 72 clipbox
132.111832 72 m
148.879411 72 l
148.879411 77.58 l
132.111832 77.58 l
cl
gsave
0.200 setgray
fill
grestore
stroke
grestore
gsave
446.4 446.4 72 72 clipbox
148.879411 72 m
165.646991 72 l
165.646991 77.58 l
148.879411 77.58 l
cl
gsave
0.200 setgray
fill
grestore
stroke
grestore
gsave
446.4 446.4 72 72 clipbox
165.646991 72 m
182.414571 72 l
182.414571 83.16 l
165.646991 83.16 l
cl
gsave
0.200 setgray
fill
grestore
stroke
grestore
gsave
446.4 446.4 72 72 clipbox
182.414571 72 m
199.18215 72 l
199.18215 88.74 l
182.414571 88.74 l
cl
gsave
0.200 setgray
fill
grestore
stroke
grestore
gsave
446.4 446.4 72 72 clipbox
199.18215 72 m
215.94973 72 l
215.94973 127.8 l
199.18215 127.8 l
cl
gsave
0.200 setgray
fill
grestore
stroke
grestore
gsave
446.4 446.4 72 72 clipbox
215.94973 72 m
232.71731 72 l
232.71731 172.44 l
215.94973 172.44 l
cl
gsave
0.200 setgray
fill
grestore
stroke
grestore
gsave
446.4 446.4 72 72 clipbox
232.71731 72 m
249.484889 72 l
249.484889 267.3 l
232.71731 267.3 l
cl
gsave
0.200 setgray
fill
grestore
stroke
grestore
gsave
446.4 446.4 72 72 clipbox
249.484889 72 m
266.252469 72 l
266.252469 345.42 l
249.484889 345.42 l
cl
gsave
0.200 setgray
fill
grestore
stroke
grestore
gsave
446.4 446.4 72 72 clipbox
266.252469 72 m
283.020049 72 l
283.020049 373.32 l
266.252469 373.32 l
cl
gsave
0.200 setgray
fill
grestore
stroke
grestore
gsave
446.4 446.4 72 72 clipbox
283.020049 72 m
299.787629 72 l
299.787629 496.08 l
283.020049 496.08 l
cl
gsave
0.200 setgray
fill
grestore
stroke
grestore
gsave
446.4 446.4 72 72 clipbox
299.787629 72 m
316.555208 72 l
316.555208 395.64 l
299.787629 395.64 l
cl
gsave
0.200 setgray
fill
grestore
stroke
grestore
gsave
446.4 446.4 72 72 clipbox
316.555208 72 m
333.322788 72 l
333.322788 406.8 l
316.555208 406.8 l
cl
gsave
0.200 setgray
fill
grestore
stroke
grestore
gsave
446.4 446.4 72 72 clipbox
333.322788 72 m
350.090368 72 l
350.090368 267.3 l
333.322788 267.3 l
cl
gsave
0.200 setgray
fill
grestore
stroke
grestore
gsave
446.4 446.4 72 72 clipbox
350.090368 72 m
366.857947 72 l
366.857947 194.76 l
350.090368 194.76 l
cl
gsave
0.200 setgray
fill
grestore
stroke
grestore
gsave
446.4 446.4 72 72 clipbox
366.857947 72 m
383.625527 72 l
383.625527 161.28 l
366.857947 161.28 l
cl
gsave
0.200 setgray
fill
grestore
stroke
grestore
gsave
446.4 446.4 72 72 clipbox
383.625527 72 m
400.393107 72 l
400.393107 99.9 l
383.625527 99.9 l
cl
gsave
0.200 setgray
fill
grestore
stroke
grestore
gsave
446.4 446.4 72 72 clipbox
400.393107 72 m
417.160686 72 l
417.160686 77.58 l
400.393107 77.58 l
cl
gsave
0.200 setgray
fill
grestore
stroke
grestore
gsave
446.4 446.4 72 72 clipbox
417.160686 72 m
433.928266 72 l
433.928266 72 l
417.160686 72 l
cl
gsave
0.200 setgray
fill
grestore
stroke
grestore
gsave
446.4 446.4 72 72 clipbox
433.928266 72 m
450.695846 72 l
450.695846 77.58 l
433.928266 77.58 l
cl
gsave
0.200 setgray
fill
grestore
stroke
grestore
gsave
446.4 446.4 72 72 clipbox
450.695846 72 m
467.463426 72 l
467.463426 72 l
450.695846 72 l
cl
gsave
0.200 setgray
fill
grestore
stroke
grestore
gsave
446.4 446.4 72 72 clipbox
467.463426 72 m
484.231005 72 l
484.231005 72 l
467.463426 72 l
cl
gsave
0.200 setgray
fill
grestore
stroke
grestore
gsave
446.4 446.4 72 72 clipbox
484.231005 72 m
500.998585 72 l
500.998585 72 l
484.231005 72 l
cl
gsave
0.200 setgray
fill
grestore
stroke
grestore
gsave
446.4 446.4 72 72 clipbox
500.998585 72 m
517.766165 72 l
517.766165 72 l
500.998585 72 l
cl
gsave
0.200 setgray
fill
grestore
stroke
grestore
gsave
446.4 446.4 72 72 clipbox
517.766165 72 m
534.533744 72 l
534.533744 72 l
517.766165 72 l
cl
gsave
0.200 setgray
fill
grestore
stroke
grestore
gsave
446.4 446.4 72 72 clipbox
534.533744 72 m
551.301324 72 l
551.301324 72 l
534.533744 72 l
cl
gsave
0.200 setgray
fill
grestore
stroke
grestore
gsave
446.4 446.4 72 72 clipbox
551.301324 72 m
568.068904 72 l
568.068904 72 l
551.301324 72 l
cl
gsave
0.200 setgray
fill
grestore
stroke
grestore
gsave
446.4 446.4 72 72 clipbox
568.068904 72 m
584.836483 72 l
584.836483 72 l
568.068904 72 l
cl
gsave
0.200 setgray
fill
grestore
stroke
grestore
gsave
446.4 446.4 72 72 clipbox
584.836483 72 m
601.604063 72 l
601.604063 72 l
584.836483 72 l
cl
gsave
0.200 setgray
fill
grestore
stroke
grestore
gsave
446.4 446.4 72 72 clipbox
601.604063 72 m
618.371643 72 l
618.371643 72 l
601.604063 72 l
cl
gsave
0.200 setgray
fill
grestore
stroke
grestore
gsave
446.4 446.4 72 72 clipbox
618.371643 72 m
635.139223 72 l
635.139223 77.58 l
618.371643 77.58 l
cl
gsave
0.200 setgray
fill
grestore
stroke
grestore
gsave
72 518.4 m
518.4 518.4 l
grestore
gsave
72 72 m
72 518.4 l
grestore
gsave
518.4 72 m
518.4 518.4 l
grestore
gsave
72 72 m
518.4 72 l
grestore
0.000 setgray
/BitstreamVeraSans-Roman findfont
12.000 scalefont
setfont
gsave
260.960938 28.800000 translate
0.000000 rotate
0.000000 0.000000 m /r glyphshow
4.933594 0.000000 m /e glyphshow
12.316406 0.000000 m /s glyphshow
18.568359 0.000000 m /i glyphshow
21.902344 0.000000 m /d glyphshow
29.519531 0.000000 m /u glyphshow
37.125000 0.000000 m /a glyphshow
44.478516 0.000000 m /l glyphshow
47.812500 0.000000 m /s glyphshow
grestore

end
showpage
