%!PS-Adobe-3.0 EPSF-3.0
%%DocumentNeededResources: font Helvetica
%%+ font Helvetica-Bold
%%+ font Helvetica-Oblique
%%+ font Helvetica-BoldOblique
%%+ font Symbol
%%Title: R Graphics Output
%%Creator: R Software
%%Pages: (atend)
%%BoundingBox: 0 0 329 209
%%EndComments
%%BeginProlog
/bp  { gs sRGB gs } def
% begin .ps.prolog
/gs  { gsave } bind def
/gr  { grestore } bind def
/ep  { showpage gr gr } bind def
/m   { moveto } bind def
/l  { rlineto } bind def
/np  { newpath } bind def
/cp  { closepath } bind def
/f   { fill } bind def
/o   { stroke } bind def
/c   { newpath 0 360 arc } bind def
/r   { 4 2 roll moveto 1 copy 3 -1 roll exch 0 exch rlineto 0 rlineto -1 mul 0 exch rlineto closepath } bind def
/p1  { stroke } bind def
/p2  { gsave bg fill grestore newpath } bind def
/p3  { gsave bg fill grestore stroke } bind def
/p6  { gsave bg eofill grestore newpath } bind def
/p7  { gsave bg eofill grestore stroke } bind def
/t   { 5 -2 roll moveto gsave rotate
       1 index stringwidth pop
       mul neg 0 rmoveto show grestore } bind def
/ta  { 4 -2 roll moveto gsave rotate show } bind def
/tb  { 2 -1 roll 0 rmoveto show } bind def
/cl  { grestore gsave newpath 3 index 3 index moveto 1 index
       4 -1 roll lineto  exch 1 index lineto lineto
       closepath clip newpath } bind def
/rgb { setrgbcolor } bind def
/s   { scalefont setfont } bind def
% end   .ps.prolog
/sRGB { [ /CIEBasedABC
          << /DecodeLMN
               [ { dup 0.03928 le
                        {12.92321 div}
                        {0.055 add 1.055 div 2.4 exp }
                     ifelse
                 } bind dup dup
               ]
             /MatrixLMN [0.412457 0.212673 0.019334
                         0.357576 0.715152 0.119192
                         0.180437 0.072175 0.950301]
             /WhitePoint [0.9505 1.0 1.0890]
           >>
         ] setcolorspace } bind def
/srgb { setcolor } bind def
% begin encoding
/WinAnsiEncoding [
 /.notdef /.notdef /.notdef /.notdef /.notdef /.notdef /.notdef /.notdef
 /.notdef /.notdef /.notdef /.notdef /.notdef /.notdef /.notdef /.notdef
 /.notdef /.notdef /.notdef /.notdef /.notdef /.notdef /.notdef /.notdef
 /.notdef /.notdef /.notdef /.notdef /.notdef /.notdef /.notdef /.notdef
 /space /exclam /quotedbl /numbersign /dollar /percent /ampersand /quoteright
 /parenleft /parenright /asterisk /plus /comma /minus /period /slash
 /zero /one /two /three /four /five /six /seven
 /eight /nine /colon /semicolon /less /equal /greater /question
 /at /A /B /C /D /E /F /G
 /H /I /J /K /L /M /N /O
 /P /Q /R /S /T /U /V /W
 /X /Y /Z /bracketleft /backslash /bracketright /asciicircum /underscore
 /grave /a /b /c /d /e /f /g
 /h /i /j /k /l /m /n /o
 /p /q /r /s /t /u /v /w
 /x /y /z /braceleft /bar /braceright /asciitilde /.notdef
 /Euro /.notdef /quotesinglbase /florin /quotedblbase /ellipsis /dagger /daggerdbl
 /circumflex /perthousand /Scaron /guilsinglleft /OE /.notdef /Zcaron /.notdef
 /.notdef /quoteleft /quoteright /quotedblleft /quotedblright /bullet /endash /emdash
 /tilde /trademark /scaron /guilsinglright /oe /.notdef /zcaron /Ydieresis
 /space /exclamdown /cent /sterling /currency /yen /brokenbar /section
 /dieresis /copyright /ordfeminine /guillemotleft /logicalnot /hyphen /registered /macron
 /degree /plusminus /twosuperior /threesuperior /acute /mu /paragraph /periodcentered
 /cedilla /onesuperior /ordmasculine /guillemotright /onequarter /onehalf /threequarters /questiondown
 /Agrave /Aacute /Acircumflex /Atilde /Adieresis /Aring /AE /Ccedilla
 /Egrave /Eacute /Ecircumflex /Edieresis /Igrave /Iacute /Icircumflex /Idieresis
 /Eth /Ntilde /Ograve /Oacute /Ocircumflex /Otilde /Odieresis /multiply
 /Oslash /Ugrave /Uacute /Ucircumflex /Udieresis /Yacute /Thorn /germandbls
 /agrave /aacute /acircumflex /atilde /adieresis /aring /ae /ccedilla
 /egrave /eacute /ecircumflex /edieresis /igrave /iacute /icircumflex /idieresis
 /eth /ntilde /ograve /oacute /ocircumflex /otilde /odieresis /divide
 /oslash /ugrave /uacute /ucircumflex /udieresis /yacute /thorn /ydieresis
]
 def
% end encoding
%%IncludeResource: font Helvetica
/Helvetica findfont
dup length dict begin
  {1 index /FID ne {def} {pop pop} ifelse} forall
  /Encoding WinAnsiEncoding def
  currentdict
  end
/Font1 exch definefont pop
%%IncludeResource: font Helvetica-Bold
/Helvetica-Bold findfont
dup length dict begin
  {1 index /FID ne {def} {pop pop} ifelse} forall
  /Encoding WinAnsiEncoding def
  currentdict
  end
/Font2 exch definefont pop
%%IncludeResource: font Helvetica-Oblique
/Helvetica-Oblique findfont
dup length dict begin
  {1 index /FID ne {def} {pop pop} ifelse} forall
  /Encoding WinAnsiEncoding def
  currentdict
  end
/Font3 exch definefont pop
%%IncludeResource: font Helvetica-BoldOblique
/Helvetica-BoldOblique findfont
dup length dict begin
  {1 index /FID ne {def} {pop pop} ifelse} forall
  /Encoding WinAnsiEncoding def
  currentdict
  end
/Font4 exch definefont pop
%%IncludeResource: font Symbol
/Symbol findfont
dup length dict begin
  {1 index /FID ne {def} {pop pop} ifelse} forall
  currentdict
  end
/Font5 exch definefont pop
%%EndProlog
%%Page: 1 1
bp
0.00 0.00 329.25 209.25 cl
0.00 0.00 329.25 209.25 cl
0.00 0.00 329.25 209.25 cl
0.00 0.00 329.25 209.25 cl
0.00 0.00 329.25 209.25 cl
0.00 0.00 329.25 209.25 cl
0.00 0.00 329.25 209.25 cl
0.00 0.00 329.25 209.25 cl
0.00 0.00 329.25 209.25 cl
/bg { 1 1 1 srgb } def
1 1 1 srgb
1.07 setlinewidth
[] 0 setdash
1 setlinecap
1 setlinejoin
10.00 setmiterlimit
0.00 0.00 329.25 209.25 r p3
0.00 0.00 329.25 209.25 cl
0.00 0.00 329.25 209.25 cl
0.00 0.00 329.25 209.25 cl
42.40 31.35 255.57 203.77 cl
/bg { 0.9216 0.9216 0.9216 srgb } def
42.40 31.35 213.17 172.42 r p2
1 1 1 srgb
0.53 setlinewidth
[] 0 setdash
0 setlinecap
1 setlinejoin
10.00 setmiterlimit
np
42.40 59.19 m
213.17 0 l
o
np
42.40 99.21 m
213.17 0 l
o
np
42.40 139.23 m
213.17 0 l
o
np
42.40 179.24 m
213.17 0 l
o
np
77.50 31.35 m
0 172.42 l
o
np
148.56 31.35 m
0 172.42 l
o
np
219.61 31.35 m
0 172.42 l
o
1.07 setlinewidth
[] 0 setdash
np
42.40 39.18 m
213.17 0 l
o
np
42.40 79.20 m
213.17 0 l
o
np
42.40 119.22 m
213.17 0 l
o
np
42.40 159.23 m
213.17 0 l
o
np
42.40 199.25 m
213.17 0 l
o
np
113.03 31.35 m
0 172.42 l
o
np
184.09 31.35 m
0 172.42 l
o
np
255.14 31.35 m
0 172.42 l
o
0.8039 0.7451 0.4392 srgb
1.07 setlinewidth
[ 1.07 3.20 4.27 3.20] 0 setdash
1.00 setmiterlimit
np
42.40 39.19 m
0.42 -0.01 l
0.43 0 l
0.43 0 l
0.42 0 l
0.43 0.01 l
0.43 0 l
0.42 0.03 l
0.43 0.07 l
0.43 0.14 l
0.42 0.26 l
0.43 0.41 l
0.42 0.59 l
0.43 0.78 l
0.43 1.00 l
0.42 1.22 l
0.43 1.43 l
0.43 1.63 l
0.42 1.83 l
0.43 2.01 l
0.43 2.17 l
0.42 2.31 l
0.43 2.43 l
0.42 2.53 l
0.43 2.62 l
0.43 2.69 l
0.42 2.74 l
0.43 2.78 l
0.43 2.81 l
0.42 2.83 l
0.43 2.83 l
0.42 2.83 l
0.43 2.81 l
0.43 2.80 l
0.42 2.77 l
0.43 2.73 l
0.43 2.71 l
0.42 2.66 l
0.43 2.62 l
0.43 2.58 l
0.42 2.53 l
0.43 2.48 l
0.42 2.43 l
0.43 2.38 l
0.43 2.33 l
0.42 2.27 l
0.43 2.22 l
0.43 2.17 l
0.42 2.12 l
0.43 2.06 l
0.43 2.01 l
0.42 1.96 l
0.43 1.91 l
0.42 1.86 l
0.43 1.81 l
0.43 1.77 l
0.42 1.71 l
0.43 1.67 l
0.43 1.62 l
0.42 1.58 l
0.43 1.53 l
0.43 1.49 l
0.42 1.45 l
0.43 1.41 l
0.42 1.36 l
0.43 1.33 l
0.43 1.29 l
0.42 1.26 l
0.43 1.22 l
0.43 1.18 l
0.42 1.15 l
0.43 1.11 l
0.42 1.09 l
0.43 1.05 l
0.43 1.02 l
0.42 0.99 l
0.43 0.96 l
0.43 0.94 l
0.42 0.90 l
0.43 0.88 l
0.43 0.86 l
0.42 0.83 l
0.43 0.80 l
0.42 0.78 l
0.43 0.76 l
0.43 0.74 l
0.42 0.71 l
0.43 0.69 l
0.43 0.67 l
0.42 0.65 l
0.43 0.64 l
0.43 0.61 l
0.42 0.60 l
0.43 0.57 l
0.42 0.56 l
0.43 0.55 l
0.43 0.52 l
0.42 0.52 l
0.43 0.49 l
0.43 0.48 l
85.03 181.84 lineto
0.43 0.45 l
0.43 0.44 l
0.42 0.43 l
0.43 0.41 l
0.42 0.40 l
0.43 0.39 l
0.43 0.37 l
0.42 0.37 l
0.43 0.35 l
0.43 0.35 l
0.42 0.33 l
0.43 0.32 l
0.42 0.31 l
0.43 0.31 l
0.43 0.29 l
0.42 0.28 l
0.43 0.28 l
0.43 0.27 l
0.42 0.26 l
0.43 0.25 l
0.43 0.24 l
0.42 0.24 l
0.43 0.23 l
0.42 0.22 l
0.43 0.21 l
0.43 0.21 l
0.42 0.20 l
0.43 0.19 l
0.43 0.19 l
0.42 0.19 l
0.43 0.17 l
0.43 0.17 l
0.42 0.17 l
0.43 0.16 l
0.42 0.15 l
0.43 0.15 l
0.43 0.15 l
0.42 0.14 l
0.43 0.14 l
0.43 0.13 l
0.42 0.13 l
0.43 0.12 l
0.43 0.12 l
0.42 0.11 l
0.43 0.11 l
0.42 0.11 l
0.43 0.11 l
0.43 0.10 l
0.42 0.09 l
0.43 0.10 l
0.43 0.09 l
0.42 0.09 l
0.43 0.08 l
0.42 0.08 l
0.43 0.08 l
0.43 0.08 l
0.42 0.07 l
0.43 0.07 l
0.43 0.07 l
0.42 0.06 l
0.43 0.06 l
0.43 0.07 l
0.42 0.05 l
0.43 0.06 l
0.42 0.05 l
0.43 0.06 l
0.43 0.05 l
0.42 0.04 l
0.43 0.05 l
0.43 0.05 l
0.42 0.04 l
0.43 0.04 l
0.43 0.04 l
0.42 0.04 l
0.43 0.03 l
0.42 0.04 l
0.43 0.03 l
0.43 0.03 l
0.42 0.03 l
0.43 0.03 l
0.43 0.03 l
0.42 0.02 l
0.43 0.03 l
0.43 0.02 l
0.42 0.02 l
0.43 0.02 l
0.42 0.02 l
0.43 0.02 l
0.43 0.02 l
0.42 0.02 l
0.43 0.01 l
0.43 0.02 l
0.42 0.01 l
0.43 0.02 l
0.42 0.01 l
0.43 0.01 l
0.43 0.01 l
0.42 0.01 l
0.43 0.01 l
127.67 195.45 lineto
0.42 0.01 l
0.43 0 l
0.43 0.01 l
0.42 0 l
0.43 0.01 l
0.42 0 l
0.43 0.01 l
0.43 0 l
0.42 0 l
0.43 0 l
0.43 0 l
0.42 0 l
0.43 0 l
0.43 0 l
0.42 0 l
0.43 0 l
0.42 0 l
0.43 0 l
0.43 -0.01 l
0.42 0 l
0.43 0 l
0.43 -0.01 l
0.42 0 l
0.43 -0.01 l
0.43 0 l
0.42 -0.01 l
0.43 0 l
0.42 -0.01 l
0.43 0 l
0.43 -0.01 l
0.42 -0.01 l
0.43 -0.01 l
0.43 0 l
0.42 -0.01 l
0.43 -0.01 l
0.42 -0.01 l
0.43 -0.01 l
0.43 -0.01 l
0.42 -0.01 l
0.43 -0.01 l
0.43 -0.01 l
0.42 -0.01 l
0.43 -0.01 l
0.43 -0.01 l
0.42 -0.01 l
0.43 -0.01 l
0.42 -0.01 l
0.43 -0.01 l
0.43 -0.01 l
0.42 -0.01 l
0.43 -0.02 l
0.43 -0.01 l
0.42 -0.01 l
0.43 -0.01 l
0.43 -0.02 l
0.42 -0.01 l
0.43 -0.01 l
0.42 -0.01 l
0.43 -0.02 l
0.43 -0.01 l
0.42 -0.01 l
0.43 -0.02 l
0.43 -0.01 l
0.42 -0.01 l
0.43 -0.02 l
0.43 -0.01 l
0.42 -0.02 l
0.43 -0.01 l
0.42 -0.01 l
0.43 -0.02 l
0.43 -0.01 l
0.42 -0.02 l
0.43 -0.01 l
0.43 -0.02 l
0.42 -0.01 l
0.43 -0.02 l
0.42 -0.01 l
0.43 -0.02 l
0.43 -0.01 l
0.42 -0.02 l
0.43 -0.01 l
0.43 -0.02 l
0.42 -0.01 l
0.43 -0.02 l
0.43 -0.02 l
0.42 -0.01 l
0.43 -0.02 l
0.42 -0.01 l
0.43 -0.02 l
0.43 -0.01 l
0.42 -0.02 l
0.43 -0.02 l
0.43 -0.01 l
0.42 -0.02 l
0.43 -0.01 l
0.43 -0.02 l
0.42 -0.02 l
0.43 -0.01 l
0.42 -0.02 l
170.30 194.50 lineto
0.43 -0.01 l
0.42 -0.02 l
0.43 -0.02 l
0.43 -0.01 l
0.42 -0.02 l
0.43 -0.02 l
0.43 -0.01 l
0.42 -0.02 l
0.43 -0.02 l
0.42 -0.01 l
0.43 -0.02 l
0.43 -0.02 l
0.42 -0.01 l
0.43 -0.02 l
0.43 -0.02 l
0.42 -0.02 l
0.43 -0.01 l
0.42 -0.02 l
0.43 -0.02 l
0.43 -0.01 l
0.42 -0.02 l
0.43 -0.02 l
0.43 -0.02 l
0.42 -0.01 l
0.43 -0.02 l
0.43 -0.02 l
0.42 -0.01 l
0.43 -0.02 l
0.42 -0.02 l
0.43 -0.02 l
0.43 -0.01 l
0.42 -0.02 l
0.43 -0.02 l
0.43 -0.02 l
0.42 -0.01 l
0.43 -0.02 l
0.43 -0.02 l
0.42 -0.02 l
0.43 -0.01 l
0.42 -0.02 l
0.43 -0.02 l
0.43 -0.02 l
0.42 -0.01 l
0.43 -0.02 l
0.43 -0.02 l
0.42 -0.02 l
0.43 -0.01 l
0.43 -0.02 l
0.42 -0.02 l
0.43 -0.02 l
0.42 -0.01 l
0.43 -0.02 l
0.43 -0.02 l
0.42 -0.02 l
0.43 -0.02 l
0.43 -0.01 l
0.42 -0.02 l
0.43 -0.02 l
0.42 -0.02 l
0.43 -0.01 l
0.43 -0.02 l
0.42 -0.02 l
0.43 -0.02 l
0.43 -0.02 l
0.42 -0.01 l
0.43 -0.02 l
0.43 -0.02 l
0.42 -0.02 l
0.43 -0.01 l
0.42 -0.02 l
0.43 -0.02 l
0.43 -0.02 l
0.42 -0.02 l
0.43 -0.01 l
0.43 -0.02 l
0.42 -0.02 l
0.43 -0.02 l
0.43 -0.02 l
0.42 -0.01 l
0.43 -0.02 l
0.42 -0.02 l
0.43 -0.02 l
0.43 -0.02 l
0.42 -0.01 l
0.43 -0.02 l
0.43 -0.02 l
0.42 -0.02 l
0.43 -0.01 l
0.43 -0.02 l
0.42 -0.02 l
0.43 -0.02 l
0.42 -0.02 l
0.43 -0.01 l
0.43 -0.02 l
0.42 -0.02 l
0.43 -0.02 l
0.43 -0.02 l
0.42 -0.01 l
0.43 -0.02 l
212.93 192.75 lineto
0.43 -0.02 l
0.43 -0.02 l
0.42 -0.01 l
0.43 -0.02 l
0.43 -0.02 l
0.42 -0.02 l
0.43 -0.02 l
0.43 -0.01 l
0.42 -0.02 l
0.43 -0.02 l
0.42 -0.02 l
0.43 -0.02 l
0.43 -0.01 l
0.42 -0.02 l
0.43 -0.02 l
0.43 -0.02 l
0.42 -0.02 l
0.43 -0.01 l
0.43 -0.02 l
0.42 -0.02 l
0.43 -0.02 l
0.42 -0.02 l
0.43 -0.01 l
0.43 -0.02 l
0.42 -0.02 l
0.43 -0.02 l
0.43 -0.02 l
0.42 -0.01 l
0.43 -0.02 l
0.43 -0.02 l
0.42 -0.02 l
0.43 -0.02 l
0.42 -0.02 l
0.43 -0.01 l
0.43 -0.02 l
0.42 -0.02 l
0.43 -0.02 l
0.43 -0.02 l
0.42 -0.01 l
0.43 -0.02 l
0.42 -0.02 l
0.43 -0.02 l
0.43 -0.02 l
0.42 -0.01 l
0.43 -0.02 l
0.43 -0.02 l
0.42 -0.02 l
0.43 -0.02 l
0.43 -0.01 l
0.42 -0.02 l
0.43 -0.02 l
0.42 -0.02 l
0.43 -0.02 l
0.43 -0.01 l
0.42 -0.02 l
0.43 -0.02 l
0.43 -0.02 l
0.42 -0.02 l
0.43 -0.01 l
0.43 -0.02 l
0.42 -0.02 l
0.43 -0.02 l
0.42 -0.02 l
0.43 -0.01 l
0.43 -0.02 l
0.42 -0.02 l
0.43 -0.02 l
0.43 -0.02 l
0.42 -0.01 l
0.43 -0.02 l
0.43 -0.02 l
0.42 -0.02 l
0.43 -0.02 l
0.42 -0.01 l
0.43 -0.02 l
0.43 -0.02 l
0.42 -0.02 l
0.43 -0.02 l
0.43 -0.02 l
0.42 -0.01 l
0.43 -0.02 l
0.42 -0.02 l
0.43 -0.02 l
0.43 -0.02 l
0.42 -0.01 l
0.43 -0.02 l
0.43 -0.02 l
0.42 -0.02 l
0.43 -0.02 l
0.43 -0.01 l
0.42 -0.02 l
0.43 -0.02 l
0.42 -0.02 l
0.43 -0.02 l
0.43 -0.01 l
0.42 -0.02 l
0.43 -0.02 l
0.43 -0.02 l
0.42 -0.02 l
255.57 190.95 lineto
o
0.6078 0.8039 0.6078 srgb
1.07 setlinewidth
[] 0 setdash
np
42.40 39.19 m
0.42 -0.01 l
0.43 0 l
0.43 0 l
0.42 0 l
0.43 0.01 l
0.43 0 l
0.42 0.03 l
0.43 0.07 l
0.43 0.14 l
0.42 0.26 l
0.43 0.41 l
0.42 0.59 l
0.43 0.78 l
0.43 1.00 l
0.42 1.22 l
0.43 1.43 l
0.43 1.63 l
0.42 1.83 l
0.43 2.01 l
0.43 2.17 l
0.42 2.31 l
0.43 2.43 l
0.42 2.53 l
0.43 2.62 l
0.43 2.69 l
0.42 2.74 l
0.43 2.78 l
0.43 2.81 l
0.42 2.83 l
0.43 2.83 l
0.42 2.83 l
0.43 2.81 l
0.43 2.80 l
0.42 2.77 l
0.43 2.73 l
0.43 2.71 l
0.42 2.66 l
0.43 2.62 l
0.43 2.58 l
0.42 2.53 l
0.43 2.48 l
0.42 2.43 l
0.43 2.38 l
0.43 2.33 l
0.42 2.27 l
0.43 2.22 l
0.43 2.17 l
0.42 2.12 l
0.43 2.06 l
0.43 2.01 l
0.42 1.96 l
0.43 1.91 l
0.42 1.86 l
0.43 1.81 l
0.43 1.77 l
0.42 1.71 l
0.43 1.67 l
0.43 1.62 l
0.42 1.58 l
0.43 1.53 l
0.43 1.49 l
0.42 1.45 l
0.43 1.41 l
0.42 1.37 l
0.43 1.33 l
0.43 1.29 l
0.42 1.25 l
0.43 1.22 l
0.43 1.19 l
0.42 1.14 l
0.43 1.12 l
0.42 1.08 l
0.43 1.06 l
0.43 1.02 l
0.42 0.99 l
0.43 0.96 l
0.43 0.94 l
0.42 0.91 l
0.43 0.88 l
0.43 0.85 l
0.42 0.83 l
0.43 0.81 l
0.42 0.78 l
0.43 0.76 l
0.43 0.73 l
0.42 0.72 l
0.43 0.69 l
0.43 0.68 l
0.42 0.65 l
0.43 0.63 l
0.43 0.62 l
0.42 0.59 l
0.43 0.58 l
0.42 0.56 l
0.43 0.55 l
0.43 0.53 l
0.42 0.51 l
0.43 0.50 l
0.43 0.48 l
85.03 181.88 lineto
0.43 0.45 l
0.43 0.44 l
0.42 0.43 l
0.43 0.42 l
0.42 0.40 l
0.43 0.39 l
0.43 0.38 l
0.42 0.36 l
0.43 0.36 l
0.43 0.34 l
0.42 0.34 l
0.43 0.32 l
0.42 0.32 l
0.43 0.30 l
0.43 0.30 l
0.42 0.29 l
0.43 0.27 l
0.43 0.27 l
0.42 0.27 l
0.43 0.25 l
0.43 0.25 l
0.42 0.23 l
0.43 0.23 l
0.42 0.23 l
0.43 0.22 l
0.43 0.21 l
0.42 0.20 l
0.43 0.20 l
0.43 0.19 l
0.42 0.18 l
0.43 0.18 l
0.43 0.18 l
0.42 0.17 l
0.43 0.16 l
0.42 0.16 l
0.43 0.15 l
0.43 0.15 l
0.42 0.14 l
0.43 0.14 l
0.43 0.14 l
0.42 0.13 l
0.43 0.12 l
0.43 0.13 l
0.42 0.11 l
0.43 0.12 l
0.42 0.11 l
0.43 0.11 l
0.43 0.10 l
0.42 0.10 l
0.43 0.10 l
0.43 0.09 l
0.42 0.09 l
0.43 0.09 l
0.42 0.09 l
0.43 0.08 l
0.43 0.08 l
0.42 0.07 l
0.43 0.08 l
0.43 0.07 l
0.42 0.07 l
0.43 0.06 l
0.43 0.07 l
0.42 0.06 l
0.43 0.06 l
0.42 0.06 l
0.43 0.05 l
0.43 0.06 l
0.42 0.05 l
0.43 0.05 l
0.43 0.05 l
0.42 0.04 l
0.43 0.05 l
0.43 0.04 l
0.42 0.04 l
0.43 0.04 l
0.42 0.04 l
0.43 0.04 l
0.43 0.03 l
0.42 0.04 l
0.43 0.03 l
0.43 0.03 l
0.42 0.03 l
0.43 0.03 l
0.43 0.03 l
0.42 0.02 l
0.43 0.03 l
0.42 0.02 l
0.43 0.03 l
0.43 0.02 l
0.42 0.02 l
0.43 0.02 l
0.43 0.02 l
0.42 0.02 l
0.43 0.02 l
0.42 0.01 l
0.43 0.02 l
0.43 0.01 l
0.42 0.02 l
0.43 0.01 l
127.67 195.81 lineto
0.42 0.01 l
0.43 0.01 l
0.43 0.01 l
0.42 0.01 l
0.43 0.01 l
0.42 0.01 l
0.43 0.01 l
0.43 0.01 l
0.42 0 l
0.43 0.01 l
0.43 0 l
0.42 0.01 l
0.43 0 l
0.43 0.01 l
0.42 0 l
0.43 0 l
0.42 0.01 l
0.43 0 l
0.43 0 l
0.42 0 l
0.43 0 l
0.43 0 l
0.42 0 l
0.43 0 l
0.43 0 l
0.42 0 l
0.43 0 l
0.42 0 l
0.43 0 l
0.43 -0.01 l
0.42 0 l
0.43 0 l
0.43 -0.01 l
0.42 0 l
0.43 0 l
0.42 -0.01 l
0.43 0 l
0.43 -0.01 l
0.42 0 l
0.43 -0.01 l
0.43 0 l
0.42 -0.01 l
0.43 0 l
0.43 -0.01 l
0.42 0 l
0.43 -0.01 l
0.42 -0.01 l
0.43 0 l
0.43 -0.01 l
0.42 -0.01 l
0.43 -0.01 l
0.43 0 l
0.42 -0.01 l
0.43 -0.01 l
0.43 -0.01 l
0.42 0 l
0.43 -0.01 l
0.42 -0.01 l
0.43 -0.01 l
0.43 -0.01 l
0.42 -0.01 l
0.43 -0.01 l
0.43 0 l
0.42 -0.01 l
0.43 -0.01 l
0.43 -0.01 l
0.42 -0.01 l
0.43 -0.01 l
0.42 -0.01 l
0.43 -0.01 l
0.43 -0.01 l
0.42 -0.01 l
0.43 -0.01 l
0.43 -0.01 l
0.42 -0.01 l
0.43 -0.01 l
0.42 -0.01 l
0.43 -0.01 l
0.43 -0.01 l
0.42 -0.01 l
0.43 -0.01 l
0.43 -0.01 l
0.42 -0.01 l
0.43 -0.02 l
0.43 -0.01 l
0.42 -0.01 l
0.43 -0.01 l
0.42 -0.01 l
0.43 -0.01 l
0.43 -0.01 l
0.42 -0.01 l
0.43 -0.02 l
0.43 -0.01 l
0.42 -0.01 l
0.43 -0.01 l
0.43 -0.01 l
0.42 -0.01 l
0.43 -0.01 l
0.42 -0.02 l
170.30 195.32 lineto
0.43 -0.01 l
0.42 -0.01 l
0.43 -0.01 l
0.43 -0.02 l
0.42 -0.01 l
0.43 -0.01 l
0.43 -0.01 l
0.42 -0.01 l
0.43 -0.02 l
0.42 -0.01 l
0.43 -0.01 l
0.43 -0.01 l
0.42 -0.01 l
0.43 -0.02 l
0.43 -0.01 l
0.42 -0.01 l
0.43 -0.01 l
0.42 -0.02 l
0.43 -0.01 l
0.43 -0.01 l
0.42 -0.01 l
0.43 -0.02 l
0.43 -0.01 l
0.42 -0.01 l
0.43 -0.01 l
0.43 -0.02 l
0.42 -0.01 l
0.43 -0.01 l
0.42 -0.01 l
0.43 -0.02 l
0.43 -0.01 l
0.42 -0.01 l
0.43 -0.01 l
0.43 -0.02 l
0.42 -0.01 l
0.43 -0.01 l
0.43 -0.02 l
0.42 -0.01 l
0.43 -0.01 l
0.42 -0.01 l
0.43 -0.02 l
0.43 -0.01 l
0.42 -0.01 l
0.43 -0.02 l
0.43 -0.01 l
0.42 -0.01 l
0.43 -0.01 l
0.43 -0.02 l
0.42 -0.01 l
0.43 -0.01 l
0.42 -0.02 l
0.43 -0.01 l
0.43 -0.01 l
0.42 -0.02 l
0.43 -0.01 l
0.43 -0.01 l
0.42 -0.01 l
0.43 -0.02 l
0.42 -0.01 l
0.43 -0.01 l
0.43 -0.02 l
0.42 -0.01 l
0.43 -0.01 l
0.43 -0.02 l
0.42 -0.01 l
0.43 -0.01 l
0.43 -0.02 l
0.42 -0.01 l
0.43 -0.01 l
0.42 -0.02 l
0.43 -0.01 l
0.43 -0.01 l
0.42 -0.01 l
0.43 -0.02 l
0.43 -0.01 l
0.42 -0.01 l
0.43 -0.02 l
0.43 -0.01 l
0.42 -0.01 l
0.43 -0.02 l
0.42 -0.01 l
0.43 -0.01 l
0.43 -0.02 l
0.42 -0.01 l
0.43 -0.01 l
0.43 -0.02 l
0.42 -0.01 l
0.43 -0.01 l
0.43 -0.02 l
0.42 -0.01 l
0.43 -0.01 l
0.42 -0.02 l
0.43 -0.01 l
0.43 -0.01 l
0.42 -0.02 l
0.43 -0.01 l
0.43 -0.01 l
0.42 -0.02 l
0.43 -0.01 l
212.93 194.04 lineto
0.43 -0.02 l
0.43 -0.01 l
0.42 -0.01 l
0.43 -0.02 l
0.43 -0.01 l
0.42 -0.01 l
0.43 -0.02 l
0.43 -0.01 l
0.42 -0.01 l
0.43 -0.02 l
0.42 -0.01 l
0.43 -0.01 l
0.43 -0.02 l
0.42 -0.01 l
0.43 -0.01 l
0.43 -0.02 l
0.42 -0.01 l
0.43 -0.01 l
0.43 -0.02 l
0.42 -0.01 l
0.43 -0.01 l
0.42 -0.02 l
0.43 -0.01 l
0.43 -0.02 l
0.42 -0.01 l
0.43 -0.01 l
0.43 -0.02 l
0.42 -0.01 l
0.43 -0.01 l
0.43 -0.02 l
0.42 -0.01 l
0.43 -0.01 l
0.42 -0.02 l
0.43 -0.01 l
0.43 -0.01 l
0.42 -0.02 l
0.43 -0.01 l
0.43 -0.01 l
0.42 -0.02 l
0.43 -0.01 l
0.42 -0.01 l
0.43 -0.02 l
0.43 -0.01 l
0.42 -0.01 l
0.43 -0.02 l
0.43 -0.01 l
0.42 -0.01 l
0.43 -0.02 l
0.43 -0.01 l
0.42 -0.02 l
0.43 -0.01 l
0.42 -0.01 l
0.43 -0.02 l
0.43 -0.01 l
0.42 -0.01 l
0.43 -0.02 l
0.43 -0.01 l
0.42 -0.01 l
0.43 -0.02 l
0.43 -0.01 l
0.42 -0.01 l
0.43 -0.02 l
0.42 -0.01 l
0.43 -0.01 l
0.43 -0.02 l
0.42 -0.01 l
0.43 -0.01 l
0.43 -0.02 l
0.42 -0.01 l
0.43 -0.02 l
0.43 -0.01 l
0.42 -0.01 l
0.43 -0.02 l
0.42 -0.01 l
0.43 -0.01 l
0.43 -0.02 l
0.42 -0.01 l
0.43 -0.01 l
0.43 -0.02 l
0.42 -0.01 l
0.43 -0.01 l
0.42 -0.02 l
0.43 -0.01 l
0.43 -0.01 l
0.42 -0.02 l
0.43 -0.01 l
0.43 -0.02 l
0.42 -0.01 l
0.43 -0.01 l
0.43 -0.02 l
0.42 -0.01 l
0.43 -0.01 l
0.42 -0.02 l
0.43 -0.01 l
0.43 -0.01 l
0.42 -0.02 l
0.43 -0.01 l
0.43 -0.01 l
0.42 -0.02 l
255.57 192.69 lineto
o
0.5294 0.8078 0.9804 srgb
1.07 setlinewidth
[ 1.07 3.20 4.27 3.20] 0 setdash
np
42.40 39.19 m
0.42 -0.01 l
0.43 0 l
0.43 0 l
0.42 0 l
0.43 0.01 l
0.43 0 l
0.42 0.03 l
0.43 0.07 l
0.43 0.14 l
0.42 0.26 l
0.43 0.40 l
0.42 0.58 l
0.43 0.77 l
0.43 0.98 l
0.42 1.19 l
0.43 1.41 l
0.43 1.60 l
0.42 1.79 l
0.43 1.96 l
0.43 2.11 l
0.42 2.24 l
0.43 2.36 l
0.42 2.46 l
0.43 2.53 l
0.43 2.60 l
0.42 2.64 l
0.43 2.68 l
0.43 2.70 l
0.42 2.71 l
0.43 2.70 l
0.42 2.70 l
0.43 2.67 l
0.43 2.66 l
0.42 2.62 l
0.43 2.58 l
0.43 2.55 l
0.42 2.50 l
0.43 2.46 l
0.43 2.40 l
0.42 2.36 l
0.43 2.30 l
0.42 2.25 l
0.43 2.19 l
0.43 2.14 l
0.42 2.08 l
0.43 2.03 l
0.43 1.97 l
0.42 1.92 l
0.43 1.86 l
0.43 1.81 l
0.42 1.75 l
0.43 1.71 l
0.42 1.65 l
0.43 1.60 l
0.43 1.55 l
0.42 1.50 l
0.43 1.45 l
0.43 1.41 l
0.42 1.36 l
0.43 1.32 l
0.43 1.27 l
0.42 1.23 l
0.43 1.19 l
0.42 1.15 l
0.43 1.11 l
0.43 1.07 l
0.42 1.04 l
0.43 1.00 l
0.43 0.96 l
0.42 0.93 l
0.43 0.90 l
0.42 0.86 l
0.43 0.84 l
0.43 0.80 l
0.42 0.77 l
0.43 0.75 l
0.43 0.72 l
0.42 0.69 l
0.43 0.66 l
0.43 0.64 l
0.42 0.61 l
0.43 0.59 l
0.42 0.57 l
0.43 0.55 l
0.43 0.52 l
0.42 0.50 l
0.43 0.48 l
0.43 0.46 l
0.42 0.45 l
0.43 0.42 l
0.43 0.41 l
0.42 0.38 l
0.43 0.38 l
0.42 0.35 l
0.43 0.34 l
0.43 0.32 l
0.42 0.31 l
0.43 0.30 l
0.43 0.28 l
85.03 166.51 lineto
0.43 0.26 l
0.43 0.24 l
0.42 0.23 l
0.43 0.21 l
0.42 0.21 l
0.43 0.19 l
0.43 0.19 l
0.42 0.17 l
0.43 0.16 l
0.43 0.15 l
0.42 0.14 l
0.43 0.14 l
0.42 0.12 l
0.43 0.12 l
0.43 0.11 l
0.42 0.09 l
0.43 0.10 l
0.43 0.08 l
0.42 0.08 l
0.43 0.06 l
0.43 0.07 l
0.42 0.05 l
0.43 0.05 l
0.42 0.04 l
0.43 0.04 l
0.43 0.03 l
0.42 0.02 l
0.43 0.02 l
0.43 0.02 l
0.42 0.01 l
0.43 0 l
0.43 0 l
0.42 -0.01 l
0.43 -0.01 l
0.42 -0.01 l
0.43 -0.02 l
0.43 -0.03 l
0.42 -0.02 l
0.43 -0.04 l
0.43 -0.03 l
0.42 -0.04 l
0.43 -0.04 l
0.43 -0.05 l
0.42 -0.05 l
0.43 -0.05 l
0.42 -0.05 l
0.43 -0.06 l
0.43 -0.06 l
0.42 -0.06 l
0.43 -0.07 l
0.43 -0.07 l
0.42 -0.07 l
0.43 -0.08 l
0.42 -0.07 l
0.43 -0.08 l
0.43 -0.08 l
0.42 -0.08 l
0.43 -0.09 l
0.43 -0.08 l
0.42 -0.09 l
0.43 -0.09 l
0.43 -0.10 l
0.42 -0.09 l
0.43 -0.10 l
0.42 -0.09 l
0.43 -0.10 l
0.43 -0.10 l
0.42 -0.11 l
0.43 -0.10 l
0.43 -0.10 l
0.42 -0.11 l
0.43 -0.11 l
0.43 -0.10 l
0.42 -0.11 l
0.43 -0.11 l
0.42 -0.12 l
0.43 -0.11 l
0.43 -0.11 l
0.42 -0.12 l
0.43 -0.11 l
0.43 -0.12 l
0.42 -0.12 l
0.43 -0.12 l
0.43 -0.12 l
0.42 -0.12 l
0.43 -0.12 l
0.42 -0.12 l
0.43 -0.12 l
0.43 -0.12 l
0.42 -0.13 l
0.43 -0.12 l
0.43 -0.13 l
0.42 -0.12 l
0.43 -0.13 l
0.42 -0.12 l
0.43 -0.13 l
0.43 -0.13 l
0.42 -0.12 l
0.43 -0.13 l
127.67 163.86 lineto
0.42 -0.13 l
0.43 -0.13 l
0.43 -0.13 l
0.42 -0.13 l
0.43 -0.13 l
0.42 -0.13 l
0.43 -0.13 l
0.43 -0.13 l
0.42 -0.13 l
0.43 -0.14 l
0.43 -0.13 l
0.42 -0.13 l
0.43 -0.13 l
0.43 -0.14 l
0.42 -0.13 l
0.43 -0.13 l
0.42 -0.14 l
0.43 -0.13 l
0.43 -0.13 l
0.42 -0.14 l
0.43 -0.13 l
0.43 -0.14 l
0.42 -0.13 l
0.43 -0.14 l
0.43 -0.13 l
0.42 -0.13 l
0.43 -0.14 l
0.42 -0.13 l
0.43 -0.14 l
0.43 -0.13 l
0.42 -0.14 l
0.43 -0.13 l
0.43 -0.14 l
0.42 -0.13 l
0.43 -0.14 l
0.42 -0.13 l
0.43 -0.14 l
0.43 -0.13 l
0.42 -0.14 l
0.43 -0.13 l
0.43 -0.14 l
0.42 -0.14 l
0.43 -0.13 l
0.43 -0.14 l
0.42 -0.13 l
0.43 -0.14 l
0.42 -0.13 l
0.43 -0.14 l
0.43 -0.13 l
0.42 -0.14 l
0.43 -0.13 l
0.43 -0.14 l
0.42 -0.13 l
0.43 -0.14 l
0.43 -0.13 l
0.42 -0.14 l
0.43 -0.13 l
0.42 -0.13 l
0.43 -0.14 l
0.43 -0.13 l
0.42 -0.14 l
0.43 -0.13 l
0.43 -0.14 l
0.42 -0.13 l
0.43 -0.13 l
0.43 -0.14 l
0.42 -0.13 l
0.43 -0.14 l
0.42 -0.13 l
0.43 -0.13 l
0.43 -0.14 l
0.42 -0.13 l
0.43 -0.13 l
0.43 -0.14 l
0.42 -0.13 l
0.43 -0.13 l
0.42 -0.14 l
0.43 -0.13 l
0.43 -0.13 l
0.42 -0.13 l
0.43 -0.14 l
0.43 -0.13 l
0.42 -0.13 l
0.43 -0.13 l
0.43 -0.14 l
0.42 -0.13 l
0.43 -0.13 l
0.42 -0.13 l
0.43 -0.13 l
0.43 -0.13 l
0.42 -0.13 l
0.43 -0.14 l
0.43 -0.13 l
0.42 -0.13 l
0.43 -0.13 l
0.43 -0.13 l
0.42 -0.13 l
0.43 -0.13 l
0.42 -0.13 l
170.30 150.53 lineto
0.43 -0.13 l
0.42 -0.13 l
0.43 -0.13 l
0.43 -0.13 l
0.42 -0.13 l
0.43 -0.13 l
0.43 -0.13 l
0.42 -0.13 l
0.43 -0.13 l
0.42 -0.13 l
0.43 -0.12 l
0.43 -0.13 l
0.42 -0.13 l
0.43 -0.13 l
0.43 -0.13 l
0.42 -0.13 l
0.43 -0.12 l
0.42 -0.13 l
0.43 -0.13 l
0.43 -0.13 l
0.42 -0.12 l
0.43 -0.13 l
0.43 -0.13 l
0.42 -0.13 l
0.43 -0.12 l
0.43 -0.13 l
0.42 -0.13 l
0.43 -0.12 l
0.42 -0.13 l
0.43 -0.12 l
0.43 -0.13 l
0.42 -0.13 l
0.43 -0.12 l
0.43 -0.13 l
0.42 -0.12 l
0.43 -0.13 l
0.43 -0.12 l
0.42 -0.13 l
0.43 -0.12 l
0.42 -0.13 l
0.43 -0.12 l
0.43 -0.13 l
0.42 -0.12 l
0.43 -0.13 l
0.43 -0.12 l
0.42 -0.12 l
0.43 -0.13 l
0.43 -0.12 l
0.42 -0.12 l
0.43 -0.13 l
0.42 -0.12 l
0.43 -0.12 l
0.43 -0.13 l
0.42 -0.12 l
0.43 -0.12 l
0.43 -0.12 l
0.42 -0.13 l
0.43 -0.12 l
0.42 -0.12 l
0.43 -0.12 l
0.43 -0.12 l
0.42 -0.13 l
0.43 -0.12 l
0.43 -0.12 l
0.42 -0.12 l
0.43 -0.12 l
0.43 -0.12 l
0.42 -0.12 l
0.43 -0.12 l
0.42 -0.12 l
0.43 -0.13 l
0.43 -0.12 l
0.42 -0.12 l
0.43 -0.12 l
0.43 -0.12 l
0.42 -0.12 l
0.43 -0.11 l
0.43 -0.12 l
0.42 -0.12 l
0.43 -0.12 l
0.42 -0.12 l
0.43 -0.12 l
0.43 -0.12 l
0.42 -0.12 l
0.43 -0.12 l
0.43 -0.11 l
0.42 -0.12 l
0.43 -0.12 l
0.43 -0.12 l
0.42 -0.12 l
0.43 -0.11 l
0.42 -0.12 l
0.43 -0.12 l
0.43 -0.12 l
0.42 -0.11 l
0.43 -0.12 l
0.43 -0.12 l
0.42 -0.11 l
0.43 -0.12 l
212.93 138.20 lineto
0.43 -0.11 l
0.43 -0.12 l
0.42 -0.12 l
0.43 -0.11 l
0.43 -0.12 l
0.42 -0.11 l
0.43 -0.12 l
0.43 -0.11 l
0.42 -0.12 l
0.43 -0.11 l
0.42 -0.12 l
0.43 -0.11 l
0.43 -0.12 l
0.42 -0.11 l
0.43 -0.12 l
0.43 -0.11 l
0.42 -0.12 l
0.43 -0.11 l
0.43 -0.11 l
0.42 -0.12 l
0.43 -0.11 l
0.42 -0.11 l
0.43 -0.12 l
0.43 -0.11 l
0.42 -0.11 l
0.43 -0.12 l
0.43 -0.11 l
0.42 -0.11 l
0.43 -0.11 l
0.43 -0.12 l
0.42 -0.11 l
0.43 -0.11 l
0.42 -0.11 l
0.43 -0.12 l
0.43 -0.11 l
0.42 -0.11 l
0.43 -0.11 l
0.43 -0.11 l
0.42 -0.11 l
0.43 -0.11 l
0.42 -0.11 l
0.43 -0.12 l
0.43 -0.11 l
0.42 -0.11 l
0.43 -0.11 l
0.43 -0.11 l
0.42 -0.11 l
0.43 -0.11 l
0.43 -0.11 l
0.42 -0.11 l
0.43 -0.11 l
0.42 -0.11 l
0.43 -0.11 l
0.43 -0.11 l
0.42 -0.10 l
0.43 -0.11 l
0.43 -0.11 l
0.42 -0.11 l
0.43 -0.11 l
0.43 -0.11 l
0.42 -0.11 l
0.43 -0.11 l
0.42 -0.10 l
0.43 -0.11 l
0.43 -0.11 l
0.42 -0.11 l
0.43 -0.10 l
0.43 -0.11 l
0.42 -0.11 l
0.43 -0.11 l
0.43 -0.10 l
0.42 -0.11 l
0.43 -0.11 l
0.42 -0.10 l
0.43 -0.11 l
0.43 -0.11 l
0.42 -0.10 l
0.43 -0.11 l
0.43 -0.11 l
0.42 -0.10 l
0.43 -0.11 l
0.42 -0.10 l
0.43 -0.11 l
0.43 -0.11 l
0.42 -0.10 l
0.43 -0.11 l
0.43 -0.10 l
0.42 -0.11 l
0.43 -0.10 l
0.43 -0.11 l
0.42 -0.10 l
0.43 -0.10 l
0.42 -0.11 l
0.43 -0.10 l
0.43 -0.11 l
0.42 -0.10 l
0.43 -0.11 l
0.43 -0.10 l
0.42 -0.10 l
255.57 127.22 lineto
o
1 0.6275 0.4784 srgb
1.07 setlinewidth
[] 0 setdash
np
42.40 39.19 m
0.42 -0.01 l
0.43 0 l
0.43 0 l
0.42 0 l
0.43 0.01 l
0.43 0 l
0.42 0.03 l
0.43 0.07 l
0.43 0.14 l
0.42 0.26 l
0.43 0.40 l
0.42 0.58 l
0.43 0.77 l
0.43 0.98 l
0.42 1.19 l
0.43 1.41 l
0.43 1.60 l
0.42 1.79 l
0.43 1.96 l
0.43 2.11 l
0.42 2.25 l
0.43 2.36 l
0.42 2.46 l
0.43 2.53 l
0.43 2.60 l
0.42 2.65 l
0.43 2.68 l
0.43 2.70 l
0.42 2.72 l
0.43 2.71 l
0.42 2.70 l
0.43 2.68 l
0.43 2.66 l
0.42 2.63 l
0.43 2.60 l
0.43 2.55 l
0.42 2.51 l
0.43 2.47 l
0.43 2.41 l
0.42 2.37 l
0.43 2.31 l
0.42 2.26 l
0.43 2.21 l
0.43 2.15 l
0.42 2.09 l
0.43 2.04 l
0.43 1.99 l
0.42 1.93 l
0.43 1.87 l
0.43 1.83 l
0.42 1.77 l
0.43 1.71 l
0.42 1.67 l
0.43 1.61 l
0.43 1.57 l
0.42 1.51 l
0.43 1.47 l
0.43 1.42 l
0.42 1.38 l
0.43 1.33 l
0.43 1.29 l
0.42 1.24 l
0.43 1.21 l
0.42 1.16 l
0.43 1.13 l
0.43 1.08 l
0.42 1.05 l
0.43 1.01 l
0.43 0.98 l
0.42 0.95 l
0.43 0.91 l
0.42 0.87 l
0.43 0.85 l
0.43 0.82 l
0.42 0.78 l
0.43 0.76 l
0.43 0.73 l
0.42 0.70 l
0.43 0.68 l
0.43 0.65 l
0.42 0.62 l
0.43 0.60 l
0.42 0.58 l
0.43 0.56 l
0.43 0.53 l
0.42 0.51 l
0.43 0.49 l
0.43 0.48 l
0.42 0.45 l
0.43 0.43 l
0.43 0.42 l
0.42 0.40 l
0.43 0.38 l
0.42 0.36 l
0.43 0.35 l
0.43 0.33 l
0.42 0.32 l
0.43 0.30 l
0.43 0.29 l
85.03 167.36 lineto
0.43 0.26 l
0.43 0.25 l
0.42 0.23 l
0.43 0.23 l
0.42 0.21 l
0.43 0.20 l
0.43 0.19 l
0.42 0.18 l
0.43 0.17 l
0.43 0.15 l
0.42 0.15 l
0.43 0.14 l
0.42 0.13 l
0.43 0.12 l
0.43 0.11 l
0.42 0.11 l
0.43 0.09 l
0.43 0.09 l
0.42 0.08 l
0.43 0.07 l
0.43 0.07 l
0.42 0.06 l
0.43 0.05 l
0.42 0.05 l
0.43 0.04 l
0.43 0.03 l
0.42 0.03 l
0.43 0.02 l
0.43 0.02 l
0.42 0.01 l
0.43 0.01 l
0.43 0 l
0.42 0 l
0.43 -0.01 l
0.42 -0.01 l
0.43 -0.02 l
0.43 -0.02 l
0.42 -0.02 l
0.43 -0.03 l
0.43 -0.04 l
0.42 -0.03 l
0.43 -0.04 l
0.43 -0.05 l
0.42 -0.04 l
0.43 -0.05 l
0.42 -0.06 l
0.43 -0.05 l
0.43 -0.06 l
0.42 -0.06 l
0.43 -0.07 l
0.43 -0.07 l
0.42 -0.07 l
0.43 -0.07 l
0.42 -0.07 l
0.43 -0.08 l
0.43 -0.08 l
0.42 -0.08 l
0.43 -0.09 l
0.43 -0.08 l
0.42 -0.09 l
0.43 -0.09 l
0.43 -0.09 l
0.42 -0.09 l
0.43 -0.10 l
0.42 -0.10 l
0.43 -0.09 l
0.43 -0.10 l
0.42 -0.10 l
0.43 -0.11 l
0.43 -0.10 l
0.42 -0.11 l
0.43 -0.10 l
0.43 -0.11 l
0.42 -0.11 l
0.43 -0.11 l
0.42 -0.11 l
0.43 -0.11 l
0.43 -0.12 l
0.42 -0.11 l
0.43 -0.12 l
0.43 -0.12 l
0.42 -0.11 l
0.43 -0.12 l
0.43 -0.12 l
0.42 -0.12 l
0.43 -0.12 l
0.42 -0.12 l
0.43 -0.12 l
0.43 -0.13 l
0.42 -0.12 l
0.43 -0.12 l
0.43 -0.13 l
0.42 -0.12 l
0.43 -0.13 l
0.42 -0.13 l
0.43 -0.12 l
0.43 -0.13 l
0.42 -0.13 l
0.43 -0.13 l
127.67 164.92 lineto
0.42 -0.12 l
0.43 -0.13 l
0.43 -0.13 l
0.42 -0.13 l
0.43 -0.14 l
0.42 -0.13 l
0.43 -0.13 l
0.43 -0.13 l
0.42 -0.13 l
0.43 -0.13 l
0.43 -0.14 l
0.42 -0.13 l
0.43 -0.13 l
0.43 -0.14 l
0.42 -0.13 l
0.43 -0.13 l
0.42 -0.14 l
0.43 -0.13 l
0.43 -0.13 l
0.42 -0.14 l
0.43 -0.13 l
0.43 -0.14 l
0.42 -0.13 l
0.43 -0.14 l
0.43 -0.13 l
0.42 -0.14 l
0.43 -0.13 l
0.42 -0.14 l
0.43 -0.13 l
0.43 -0.14 l
0.42 -0.13 l
0.43 -0.14 l
0.43 -0.13 l
0.42 -0.14 l
0.43 -0.14 l
0.42 -0.13 l
0.43 -0.14 l
0.43 -0.13 l
0.42 -0.14 l
0.43 -0.13 l
0.43 -0.14 l
0.42 -0.14 l
0.43 -0.13 l
0.43 -0.14 l
0.42 -0.13 l
0.43 -0.14 l
0.42 -0.13 l
0.43 -0.14 l
0.43 -0.14 l
0.42 -0.13 l
0.43 -0.14 l
0.43 -0.13 l
0.42 -0.14 l
0.43 -0.13 l
0.43 -0.14 l
0.42 -0.13 l
0.43 -0.14 l
0.42 -0.13 l
0.43 -0.14 l
0.43 -0.13 l
0.42 -0.14 l
0.43 -0.13 l
0.43 -0.14 l
0.42 -0.13 l
0.43 -0.14 l
0.43 -0.13 l
0.42 -0.14 l
0.43 -0.13 l
0.42 -0.14 l
0.43 -0.13 l
0.43 -0.13 l
0.42 -0.14 l
0.43 -0.13 l
0.43 -0.14 l
0.42 -0.13 l
0.43 -0.13 l
0.42 -0.14 l
0.43 -0.13 l
0.43 -0.13 l
0.42 -0.14 l
0.43 -0.13 l
0.43 -0.13 l
0.42 -0.14 l
0.43 -0.13 l
0.43 -0.13 l
0.42 -0.13 l
0.43 -0.14 l
0.42 -0.13 l
0.43 -0.13 l
0.43 -0.13 l
0.42 -0.13 l
0.43 -0.14 l
0.43 -0.13 l
0.42 -0.13 l
0.43 -0.13 l
0.43 -0.13 l
0.42 -0.13 l
0.43 -0.14 l
0.42 -0.13 l
170.30 151.54 lineto
0.43 -0.13 l
0.42 -0.13 l
0.43 -0.13 l
0.43 -0.13 l
0.42 -0.13 l
0.43 -0.13 l
0.43 -0.13 l
0.42 -0.13 l
0.43 -0.13 l
0.42 -0.13 l
0.43 -0.13 l
0.43 -0.13 l
0.42 -0.13 l
0.43 -0.12 l
0.43 -0.13 l
0.42 -0.13 l
0.43 -0.13 l
0.42 -0.13 l
0.43 -0.13 l
0.43 -0.13 l
0.42 -0.12 l
0.43 -0.13 l
0.43 -0.13 l
0.42 -0.13 l
0.43 -0.12 l
0.43 -0.13 l
0.42 -0.13 l
0.43 -0.13 l
0.42 -0.12 l
0.43 -0.13 l
0.43 -0.13 l
0.42 -0.12 l
0.43 -0.13 l
0.43 -0.12 l
0.42 -0.13 l
0.43 -0.13 l
0.43 -0.12 l
0.42 -0.13 l
0.43 -0.12 l
0.42 -0.13 l
0.43 -0.12 l
0.43 -0.13 l
0.42 -0.12 l
0.43 -0.13 l
0.43 -0.12 l
0.42 -0.13 l
0.43 -0.12 l
0.43 -0.13 l
0.42 -0.12 l
0.43 -0.13 l
0.42 -0.12 l
0.43 -0.12 l
0.43 -0.13 l
0.42 -0.12 l
0.43 -0.12 l
0.43 -0.13 l
0.42 -0.12 l
0.43 -0.12 l
0.42 -0.13 l
0.43 -0.12 l
0.43 -0.12 l
0.42 -0.12 l
0.43 -0.12 l
0.43 -0.13 l
0.42 -0.12 l
0.43 -0.12 l
0.43 -0.12 l
0.42 -0.12 l
0.43 -0.12 l
0.42 -0.13 l
0.43 -0.12 l
0.43 -0.12 l
0.42 -0.12 l
0.43 -0.12 l
0.43 -0.12 l
0.42 -0.12 l
0.43 -0.12 l
0.43 -0.12 l
0.42 -0.12 l
0.43 -0.12 l
0.42 -0.12 l
0.43 -0.12 l
0.43 -0.12 l
0.42 -0.12 l
0.43 -0.12 l
0.43 -0.12 l
0.42 -0.11 l
0.43 -0.12 l
0.43 -0.12 l
0.42 -0.12 l
0.43 -0.12 l
0.42 -0.12 l
0.43 -0.12 l
0.43 -0.11 l
0.42 -0.12 l
0.43 -0.12 l
0.43 -0.12 l
0.42 -0.11 l
0.43 -0.12 l
212.93 139.15 lineto
0.43 -0.11 l
0.43 -0.12 l
0.42 -0.12 l
0.43 -0.11 l
0.43 -0.12 l
0.42 -0.12 l
0.43 -0.11 l
0.43 -0.12 l
0.42 -0.11 l
0.43 -0.12 l
0.42 -0.12 l
0.43 -0.11 l
0.43 -0.12 l
0.42 -0.11 l
0.43 -0.12 l
0.43 -0.11 l
0.42 -0.12 l
0.43 -0.11 l
0.43 -0.12 l
0.42 -0.11 l
0.43 -0.11 l
0.42 -0.12 l
0.43 -0.11 l
0.43 -0.12 l
0.42 -0.11 l
0.43 -0.11 l
0.43 -0.12 l
0.42 -0.11 l
0.43 -0.11 l
0.43 -0.12 l
0.42 -0.11 l
0.43 -0.11 l
0.42 -0.11 l
0.43 -0.12 l
0.43 -0.11 l
0.42 -0.11 l
0.43 -0.11 l
0.43 -0.12 l
0.42 -0.11 l
0.43 -0.11 l
0.42 -0.11 l
0.43 -0.11 l
0.43 -0.11 l
0.42 -0.12 l
0.43 -0.11 l
0.43 -0.11 l
0.42 -0.11 l
0.43 -0.11 l
0.43 -0.11 l
0.42 -0.11 l
0.43 -0.11 l
0.42 -0.11 l
0.43 -0.11 l
0.43 -0.11 l
0.42 -0.11 l
0.43 -0.11 l
0.43 -0.11 l
0.42 -0.11 l
0.43 -0.11 l
0.43 -0.11 l
0.42 -0.11 l
0.43 -0.11 l
0.42 -0.10 l
0.43 -0.11 l
0.43 -0.11 l
0.42 -0.11 l
0.43 -0.11 l
0.43 -0.11 l
0.42 -0.10 l
0.43 -0.11 l
0.43 -0.11 l
0.42 -0.11 l
0.43 -0.10 l
0.42 -0.11 l
0.43 -0.11 l
0.43 -0.11 l
0.42 -0.10 l
0.43 -0.11 l
0.43 -0.11 l
0.42 -0.10 l
0.43 -0.11 l
0.42 -0.11 l
0.43 -0.10 l
0.43 -0.11 l
0.42 -0.10 l
0.43 -0.11 l
0.43 -0.11 l
0.42 -0.10 l
0.43 -0.11 l
0.43 -0.10 l
0.42 -0.11 l
0.43 -0.10 l
0.42 -0.11 l
0.43 -0.10 l
0.43 -0.11 l
0.42 -0.10 l
0.43 -0.11 l
0.43 -0.10 l
0.42 -0.11 l
255.57 128.11 lineto
o
1 0.3882 0.2784 srgb
1.07 setlinewidth
[ 1.07 3.20 4.27 3.20] 0 setdash
np
42.40 39.19 m
0.42 -0.01 l
0.43 0 l
0.43 0 l
0.42 0 l
0.43 0.01 l
0.43 0 l
0.42 0.03 l
0.43 0.07 l
0.43 0.14 l
0.42 0.25 l
0.43 0.39 l
0.42 0.57 l
0.43 0.75 l
0.43 0.96 l
0.42 1.15 l
0.43 1.36 l
0.43 1.55 l
0.42 1.72 l
0.43 1.87 l
0.43 2.02 l
0.42 2.14 l
0.43 2.24 l
0.42 2.32 l
0.43 2.39 l
0.43 2.44 l
0.42 2.48 l
0.43 2.50 l
0.43 2.51 l
0.42 2.51 l
0.43 2.49 l
0.42 2.48 l
0.43 2.46 l
0.43 2.42 l
0.42 2.39 l
0.43 2.34 l
0.43 2.30 l
0.42 2.25 l
0.43 2.21 l
0.43 2.14 l
0.42 2.10 l
0.43 2.03 l
0.42 1.99 l
0.43 1.92 l
0.43 1.87 l
0.42 1.81 l
0.43 1.76 l
0.43 1.70 l
0.42 1.64 l
0.43 1.59 l
0.43 1.54 l
0.42 1.48 l
0.43 1.43 l
0.42 1.38 l
0.43 1.33 l
0.43 1.29 l
0.42 1.23 l
0.43 1.19 l
0.43 1.14 l
0.42 1.10 l
0.43 1.06 l
0.43 1.01 l
0.42 0.97 l
0.43 0.94 l
0.42 0.89 l
0.43 0.86 l
0.43 0.82 l
0.42 0.79 l
0.43 0.75 l
0.43 0.72 l
0.42 0.69 l
0.43 0.66 l
0.42 0.63 l
0.43 0.59 l
0.43 0.57 l
0.42 0.55 l
0.43 0.51 l
0.43 0.49 l
0.42 0.47 l
0.43 0.44 l
0.43 0.42 l
0.42 0.40 l
0.43 0.37 l
0.42 0.36 l
0.43 0.33 l
0.43 0.32 l
0.42 0.29 l
0.43 0.28 l
0.43 0.26 l
0.42 0.24 l
0.43 0.22 l
0.43 0.21 l
0.42 0.20 l
0.43 0.18 l
0.42 0.16 l
0.43 0.15 l
0.43 0.14 l
0.42 0.12 l
0.43 0.11 l
0.43 0.10 l
85.03 147.91 lineto
0.43 0.08 l
0.43 0.06 l
0.42 0.06 l
0.43 0.04 l
0.42 0.04 l
0.43 0.02 l
0.43 0.02 l
0.42 0 l
0.43 0 l
0.43 -0.01 l
0.42 -0.02 l
0.43 -0.02 l
0.42 -0.03 l
0.43 -0.04 l
0.43 -0.05 l
0.42 -0.06 l
0.43 -0.06 l
0.43 -0.06 l
0.42 -0.07 l
0.43 -0.08 l
0.43 -0.09 l
0.42 -0.08 l
0.43 -0.10 l
0.42 -0.10 l
0.43 -0.10 l
0.43 -0.11 l
0.42 -0.11 l
0.43 -0.12 l
0.43 -0.12 l
0.42 -0.13 l
0.43 -0.13 l
0.43 -0.13 l
0.42 -0.14 l
0.43 -0.14 l
0.42 -0.14 l
0.43 -0.15 l
0.43 -0.15 l
0.42 -0.15 l
0.43 -0.15 l
0.43 -0.16 l
0.42 -0.16 l
0.43 -0.17 l
0.43 -0.16 l
0.42 -0.17 l
0.43 -0.17 l
0.42 -0.17 l
0.43 -0.18 l
0.43 -0.17 l
0.42 -0.18 l
0.43 -0.18 l
0.43 -0.18 l
0.42 -0.18 l
0.43 -0.19 l
0.42 -0.18 l
0.43 -0.19 l
0.43 -0.19 l
0.42 -0.19 l
0.43 -0.19 l
0.43 -0.19 l
0.42 -0.20 l
0.43 -0.19 l
0.43 -0.20 l
0.42 -0.20 l
0.43 -0.19 l
0.42 -0.20 l
0.43 -0.20 l
0.43 -0.20 l
0.42 -0.20 l
0.43 -0.20 l
0.43 -0.21 l
0.42 -0.20 l
0.43 -0.20 l
0.43 -0.21 l
0.42 -0.20 l
0.43 -0.21 l
0.42 -0.20 l
0.43 -0.21 l
0.43 -0.20 l
0.42 -0.21 l
0.43 -0.21 l
0.43 -0.20 l
0.42 -0.21 l
0.43 -0.21 l
0.43 -0.21 l
0.42 -0.21 l
0.43 -0.20 l
0.42 -0.21 l
0.43 -0.21 l
0.43 -0.21 l
0.42 -0.21 l
0.43 -0.21 l
0.43 -0.21 l
0.42 -0.21 l
0.43 -0.21 l
0.42 -0.21 l
0.43 -0.20 l
0.43 -0.21 l
0.42 -0.21 l
0.43 -0.21 l
127.67 133.43 lineto
0.42 -0.21 l
0.43 -0.21 l
0.43 -0.21 l
0.42 -0.21 l
0.43 -0.20 l
0.42 -0.21 l
0.43 -0.21 l
0.43 -0.21 l
0.42 -0.21 l
0.43 -0.20 l
0.43 -0.21 l
0.42 -0.21 l
0.43 -0.20 l
0.43 -0.21 l
0.42 -0.21 l
0.43 -0.20 l
0.42 -0.21 l
0.43 -0.21 l
0.43 -0.20 l
0.42 -0.21 l
0.43 -0.20 l
0.43 -0.21 l
0.42 -0.20 l
0.43 -0.20 l
0.43 -0.21 l
0.42 -0.20 l
0.43 -0.20 l
0.42 -0.21 l
0.43 -0.20 l
0.43 -0.20 l
0.42 -0.20 l
0.43 -0.21 l
0.43 -0.20 l
0.42 -0.20 l
0.43 -0.20 l
0.42 -0.20 l
0.43 -0.20 l
0.43 -0.20 l
0.42 -0.20 l
0.43 -0.20 l
0.43 -0.19 l
0.42 -0.20 l
0.43 -0.20 l
0.43 -0.20 l
0.42 -0.19 l
0.43 -0.20 l
0.42 -0.20 l
0.43 -0.19 l
0.43 -0.20 l
0.42 -0.19 l
0.43 -0.20 l
0.43 -0.19 l
0.42 -0.20 l
0.43 -0.19 l
0.43 -0.19 l
0.42 -0.20 l
0.43 -0.19 l
0.42 -0.19 l
0.43 -0.19 l
0.43 -0.19 l
0.42 -0.20 l
0.43 -0.19 l
0.43 -0.19 l
0.42 -0.19 l
0.43 -0.19 l
0.43 -0.18 l
0.42 -0.19 l
0.43 -0.19 l
0.42 -0.19 l
0.43 -0.19 l
0.43 -0.18 l
0.42 -0.19 l
0.43 -0.19 l
0.43 -0.18 l
0.42 -0.19 l
0.43 -0.18 l
0.42 -0.19 l
0.43 -0.18 l
0.43 -0.18 l
0.42 -0.19 l
0.43 -0.18 l
0.43 -0.18 l
0.42 -0.18 l
0.43 -0.19 l
0.43 -0.18 l
0.42 -0.18 l
0.43 -0.18 l
0.42 -0.18 l
0.43 -0.18 l
0.43 -0.18 l
0.42 -0.18 l
0.43 -0.18 l
0.43 -0.17 l
0.42 -0.18 l
0.43 -0.18 l
0.43 -0.18 l
0.42 -0.17 l
0.43 -0.18 l
0.42 -0.17 l
170.30 114.02 lineto
0.43 -0.17 l
0.42 -0.18 l
0.43 -0.17 l
0.43 -0.18 l
0.42 -0.17 l
0.43 -0.17 l
0.43 -0.18 l
0.42 -0.17 l
0.43 -0.17 l
0.42 -0.17 l
0.43 -0.17 l
0.43 -0.17 l
0.42 -0.17 l
0.43 -0.17 l
0.43 -0.17 l
0.42 -0.17 l
0.43 -0.17 l
0.42 -0.17 l
0.43 -0.17 l
0.43 -0.16 l
0.42 -0.17 l
0.43 -0.17 l
0.43 -0.16 l
0.42 -0.17 l
0.43 -0.17 l
0.43 -0.16 l
0.42 -0.17 l
0.43 -0.16 l
0.42 -0.16 l
0.43 -0.17 l
0.43 -0.16 l
0.42 -0.16 l
0.43 -0.17 l
0.43 -0.16 l
0.42 -0.16 l
0.43 -0.16 l
0.43 -0.16 l
0.42 -0.16 l
0.43 -0.16 l
0.42 -0.16 l
0.43 -0.16 l
0.43 -0.16 l
0.42 -0.16 l
0.43 -0.16 l
0.43 -0.16 l
0.42 -0.16 l
0.43 -0.15 l
0.43 -0.16 l
0.42 -0.16 l
0.43 -0.15 l
0.42 -0.16 l
0.43 -0.15 l
0.43 -0.16 l
0.42 -0.15 l
0.43 -0.16 l
0.43 -0.15 l
0.42 -0.16 l
0.43 -0.15 l
0.42 -0.15 l
0.43 -0.16 l
0.43 -0.15 l
0.42 -0.15 l
0.43 -0.15 l
0.43 -0.15 l
0.42 -0.15 l
0.43 -0.15 l
0.43 -0.15 l
0.42 -0.15 l
0.43 -0.15 l
0.42 -0.15 l
0.43 -0.15 l
0.43 -0.15 l
0.42 -0.15 l
0.43 -0.15 l
0.43 -0.14 l
0.42 -0.15 l
0.43 -0.15 l
0.43 -0.14 l
0.42 -0.15 l
0.43 -0.15 l
0.42 -0.14 l
0.43 -0.15 l
0.43 -0.14 l
0.42 -0.14 l
0.43 -0.15 l
0.43 -0.14 l
0.42 -0.15 l
0.43 -0.14 l
0.43 -0.14 l
0.42 -0.14 l
0.43 -0.15 l
0.42 -0.14 l
0.43 -0.14 l
0.43 -0.14 l
0.42 -0.14 l
0.43 -0.14 l
0.43 -0.14 l
0.42 -0.14 l
0.43 -0.14 l
212.93 98.38 lineto
0.43 -0.14 l
0.43 -0.14 l
0.42 -0.13 l
0.43 -0.14 l
0.43 -0.14 l
0.42 -0.14 l
0.43 -0.13 l
0.43 -0.14 l
0.42 -0.14 l
0.43 -0.13 l
0.42 -0.14 l
0.43 -0.13 l
0.43 -0.14 l
0.42 -0.13 l
0.43 -0.14 l
0.43 -0.13 l
0.42 -0.13 l
0.43 -0.14 l
0.43 -0.13 l
0.42 -0.13 l
0.43 -0.13 l
0.42 -0.14 l
0.43 -0.13 l
0.43 -0.13 l
0.42 -0.13 l
0.43 -0.13 l
0.43 -0.13 l
0.42 -0.13 l
0.43 -0.13 l
0.43 -0.13 l
0.42 -0.13 l
0.43 -0.13 l
0.42 -0.13 l
0.43 -0.13 l
0.43 -0.13 l
0.42 -0.12 l
0.43 -0.13 l
0.43 -0.13 l
0.42 -0.12 l
0.43 -0.13 l
0.42 -0.13 l
0.43 -0.12 l
0.43 -0.13 l
0.42 -0.12 l
0.43 -0.13 l
0.43 -0.12 l
0.42 -0.13 l
0.43 -0.12 l
0.43 -0.13 l
0.42 -0.12 l
0.43 -0.12 l
0.42 -0.13 l
0.43 -0.12 l
0.43 -0.12 l
0.42 -0.13 l
0.43 -0.12 l
0.43 -0.12 l
0.42 -0.12 l
0.43 -0.12 l
0.43 -0.12 l
0.42 -0.12 l
0.43 -0.12 l
0.42 -0.12 l
0.43 -0.12 l
0.43 -0.12 l
0.42 -0.12 l
0.43 -0.12 l
0.43 -0.12 l
0.42 -0.12 l
0.43 -0.11 l
0.43 -0.12 l
0.42 -0.12 l
0.43 -0.12 l
0.42 -0.11 l
0.43 -0.12 l
0.43 -0.12 l
0.42 -0.11 l
0.43 -0.12 l
0.43 -0.11 l
0.42 -0.12 l
0.43 -0.11 l
0.42 -0.12 l
0.43 -0.11 l
0.43 -0.12 l
0.42 -0.11 l
0.43 -0.11 l
0.43 -0.12 l
0.42 -0.11 l
0.43 -0.11 l
0.43 -0.12 l
0.42 -0.11 l
0.43 -0.11 l
0.42 -0.11 l
0.43 -0.11 l
0.43 -0.12 l
0.42 -0.11 l
0.43 -0.11 l
0.43 -0.11 l
0.42 -0.11 l
255.57 86.00 lineto
o
0.5608 0.7373 0.5608 srgb
1.07 setlinewidth
[] 0 setdash
np
42.40 39.19 m
0.42 -0.01 l
0.43 0 l
0.43 0 l
0.42 0 l
0.43 0.01 l
0.43 0 l
0.42 0.03 l
0.43 0.07 l
0.43 0.14 l
0.42 0.25 l
0.43 0.39 l
0.42 0.57 l
0.43 0.75 l
0.43 0.95 l
0.42 1.15 l
0.43 1.35 l
0.43 1.53 l
0.42 1.71 l
0.43 1.86 l
0.43 1.99 l
0.42 2.11 l
0.43 2.21 l
0.42 2.28 l
0.43 2.35 l
0.43 2.39 l
0.42 2.43 l
0.43 2.43 l
0.43 2.45 l
0.42 2.44 l
0.43 2.42 l
0.42 2.40 l
0.43 2.37 l
0.43 2.33 l
0.42 2.29 l
0.43 2.25 l
0.43 2.19 l
0.42 2.15 l
0.43 2.09 l
0.43 2.03 l
0.42 1.97 l
0.43 1.92 l
0.42 1.86 l
0.43 1.80 l
0.43 1.73 l
0.42 1.68 l
0.43 1.63 l
0.43 1.56 l
0.42 1.51 l
0.43 1.45 l
0.43 1.39 l
0.42 1.34 l
0.43 1.29 l
0.42 1.24 l
0.43 1.19 l
0.43 1.13 l
0.42 1.09 l
0.43 1.04 l
0.43 1.00 l
0.42 0.95 l
0.43 0.91 l
0.43 0.86 l
0.42 0.83 l
0.43 0.78 l
0.42 0.75 l
0.43 0.71 l
0.43 0.68 l
0.42 0.64 l
0.43 0.60 l
0.43 0.58 l
0.42 0.54 l
0.43 0.51 l
0.42 0.48 l
0.43 0.46 l
0.43 0.43 l
0.42 0.40 l
0.43 0.37 l
0.43 0.35 l
0.42 0.32 l
0.43 0.31 l
0.43 0.28 l
0.42 0.25 l
0.43 0.24 l
0.42 0.22 l
0.43 0.20 l
0.43 0.18 l
0.42 0.16 l
0.43 0.14 l
0.43 0.13 l
0.42 0.11 l
0.43 0.10 l
0.43 0.08 l
0.42 0.06 l
0.43 0.05 l
0.42 0.04 l
0.43 0.03 l
0.43 0.01 l
0.42 0 l
0.43 -0.01 l
0.43 -0.02 l
85.03 138.04 lineto
0.43 -0.05 l
0.43 -0.05 l
0.42 -0.06 l
0.43 -0.08 l
0.42 -0.08 l
0.43 -0.09 l
0.43 -0.09 l
0.42 -0.11 l
0.43 -0.11 l
0.43 -0.12 l
0.42 -0.13 l
0.43 -0.13 l
0.42 -0.14 l
0.43 -0.15 l
0.43 -0.15 l
0.42 -0.16 l
0.43 -0.17 l
0.43 -0.17 l
0.42 -0.17 l
0.43 -0.18 l
0.43 -0.18 l
0.42 -0.19 l
0.43 -0.19 l
0.42 -0.20 l
0.43 -0.20 l
0.43 -0.21 l
0.42 -0.20 l
0.43 -0.22 l
0.43 -0.21 l
0.42 -0.22 l
0.43 -0.22 l
0.43 -0.22 l
0.42 -0.23 l
0.43 -0.23 l
0.42 -0.23 l
0.43 -0.23 l
0.43 -0.24 l
0.42 -0.24 l
0.43 -0.24 l
0.43 -0.24 l
0.42 -0.24 l
0.43 -0.25 l
0.43 -0.25 l
0.42 -0.25 l
0.43 -0.25 l
0.42 -0.25 l
0.43 -0.25 l
0.43 -0.26 l
0.42 -0.25 l
0.43 -0.26 l
0.43 -0.26 l
0.42 -0.25 l
0.43 -0.26 l
0.42 -0.26 l
0.43 -0.26 l
0.43 -0.27 l
0.42 -0.26 l
0.43 -0.26 l
0.43 -0.26 l
0.42 -0.27 l
0.43 -0.26 l
0.43 -0.27 l
0.42 -0.26 l
0.43 -0.27 l
0.42 -0.26 l
0.43 -0.27 l
0.43 -0.26 l
0.42 -0.27 l
0.43 -0.26 l
0.43 -0.27 l
0.42 -0.27 l
0.43 -0.26 l
0.43 -0.27 l
0.42 -0.26 l
0.43 -0.27 l
0.42 -0.27 l
0.43 -0.26 l
0.43 -0.27 l
0.42 -0.26 l
0.43 -0.27 l
0.43 -0.26 l
0.42 -0.27 l
0.43 -0.26 l
0.43 -0.26 l
0.42 -0.27 l
0.43 -0.26 l
0.42 -0.26 l
0.43 -0.27 l
0.43 -0.26 l
0.42 -0.26 l
0.43 -0.26 l
0.43 -0.26 l
0.42 -0.26 l
0.43 -0.26 l
0.42 -0.26 l
0.43 -0.26 l
0.43 -0.26 l
0.42 -0.26 l
0.43 -0.25 l
127.67 115.66 lineto
0.42 -0.26 l
0.43 -0.25 l
0.43 -0.26 l
0.42 -0.25 l
0.43 -0.25 l
0.42 -0.26 l
0.43 -0.25 l
0.43 -0.25 l
0.42 -0.25 l
0.43 -0.25 l
0.43 -0.25 l
0.42 -0.25 l
0.43 -0.25 l
0.43 -0.25 l
0.42 -0.25 l
0.43 -0.25 l
0.42 -0.24 l
0.43 -0.25 l
0.43 -0.24 l
0.42 -0.25 l
0.43 -0.24 l
0.43 -0.24 l
0.42 -0.25 l
0.43 -0.24 l
0.43 -0.24 l
0.42 -0.24 l
0.43 -0.24 l
0.42 -0.24 l
0.43 -0.23 l
0.43 -0.24 l
0.42 -0.24 l
0.43 -0.23 l
0.43 -0.24 l
0.42 -0.23 l
0.43 -0.24 l
0.42 -0.23 l
0.43 -0.23 l
0.43 -0.24 l
0.42 -0.23 l
0.43 -0.23 l
0.43 -0.23 l
0.42 -0.22 l
0.43 -0.23 l
0.43 -0.23 l
0.42 -0.23 l
0.43 -0.22 l
0.42 -0.23 l
0.43 -0.22 l
0.43 -0.23 l
0.42 -0.22 l
0.43 -0.22 l
0.43 -0.22 l
0.42 -0.22 l
0.43 -0.23 l
0.43 -0.21 l
0.42 -0.22 l
0.43 -0.22 l
0.42 -0.22 l
0.43 -0.22 l
0.43 -0.21 l
0.42 -0.22 l
0.43 -0.21 l
0.43 -0.22 l
0.42 -0.21 l
0.43 -0.21 l
0.43 -0.21 l
0.42 -0.21 l
0.43 -0.21 l
0.42 -0.21 l
0.43 -0.21 l
0.43 -0.21 l
0.42 -0.21 l
0.43 -0.21 l
0.43 -0.20 l
0.42 -0.21 l
0.43 -0.20 l
0.42 -0.21 l
0.43 -0.20 l
0.43 -0.20 l
0.42 -0.20 l
0.43 -0.21 l
0.43 -0.20 l
0.42 -0.20 l
0.43 -0.20 l
0.43 -0.19 l
0.42 -0.20 l
0.43 -0.20 l
0.42 -0.20 l
0.43 -0.19 l
0.43 -0.20 l
0.42 -0.19 l
0.43 -0.20 l
0.43 -0.19 l
0.42 -0.19 l
0.43 -0.20 l
0.43 -0.19 l
0.42 -0.19 l
0.43 -0.19 l
0.42 -0.19 l
170.30 93.38 lineto
0.43 -0.18 l
0.42 -0.19 l
0.43 -0.19 l
0.43 -0.18 l
0.42 -0.19 l
0.43 -0.18 l
0.43 -0.19 l
0.42 -0.18 l
0.43 -0.19 l
0.42 -0.18 l
0.43 -0.18 l
0.43 -0.18 l
0.42 -0.18 l
0.43 -0.18 l
0.43 -0.18 l
0.42 -0.18 l
0.43 -0.18 l
0.42 -0.18 l
0.43 -0.17 l
0.43 -0.18 l
0.42 -0.17 l
0.43 -0.18 l
0.43 -0.17 l
0.42 -0.18 l
0.43 -0.17 l
0.43 -0.17 l
0.42 -0.18 l
0.43 -0.17 l
0.42 -0.17 l
0.43 -0.17 l
0.43 -0.17 l
0.42 -0.17 l
0.43 -0.16 l
0.43 -0.17 l
0.42 -0.17 l
0.43 -0.17 l
0.43 -0.16 l
0.42 -0.17 l
0.43 -0.16 l
0.42 -0.17 l
0.43 -0.16 l
0.43 -0.17 l
0.42 -0.16 l
0.43 -0.16 l
0.43 -0.16 l
0.42 -0.16 l
0.43 -0.16 l
0.43 -0.16 l
0.42 -0.16 l
0.43 -0.16 l
0.42 -0.16 l
0.43 -0.16 l
0.43 -0.16 l
0.42 -0.15 l
0.43 -0.16 l
0.43 -0.15 l
0.42 -0.16 l
0.43 -0.15 l
0.42 -0.16 l
0.43 -0.15 l
0.43 -0.15 l
0.42 -0.16 l
0.43 -0.15 l
0.43 -0.15 l
0.42 -0.15 l
0.43 -0.15 l
0.43 -0.15 l
0.42 -0.15 l
0.43 -0.15 l
0.42 -0.15 l
0.43 -0.14 l
0.43 -0.15 l
0.42 -0.15 l
0.43 -0.14 l
0.43 -0.15 l
0.42 -0.14 l
0.43 -0.15 l
0.43 -0.14 l
0.42 -0.15 l
0.43 -0.14 l
0.42 -0.14 l
0.43 -0.14 l
0.43 -0.15 l
0.42 -0.14 l
0.43 -0.14 l
0.43 -0.14 l
0.42 -0.14 l
0.43 -0.14 l
0.43 -0.14 l
0.42 -0.13 l
0.43 -0.14 l
0.42 -0.14 l
0.43 -0.14 l
0.43 -0.13 l
0.42 -0.14 l
0.43 -0.13 l
0.43 -0.14 l
0.42 -0.13 l
0.43 -0.14 l
212.93 77.45 lineto
0.43 -0.13 l
0.43 -0.14 l
0.42 -0.13 l
0.43 -0.13 l
0.43 -0.13 l
0.42 -0.13 l
0.43 -0.13 l
0.43 -0.13 l
0.42 -0.13 l
0.43 -0.13 l
0.42 -0.13 l
0.43 -0.13 l
0.43 -0.12 l
0.42 -0.13 l
0.43 -0.13 l
0.43 -0.12 l
0.42 -0.13 l
0.43 -0.13 l
0.43 -0.12 l
0.42 -0.12 l
0.43 -0.13 l
0.42 -0.12 l
0.43 -0.13 l
0.43 -0.12 l
0.42 -0.12 l
0.43 -0.12 l
0.43 -0.12 l
0.42 -0.13 l
0.43 -0.12 l
0.43 -0.12 l
0.42 -0.12 l
0.43 -0.12 l
0.42 -0.11 l
0.43 -0.12 l
0.43 -0.12 l
0.42 -0.12 l
0.43 -0.12 l
0.43 -0.11 l
0.42 -0.12 l
0.43 -0.12 l
0.42 -0.11 l
0.43 -0.12 l
0.43 -0.11 l
0.42 -0.12 l
0.43 -0.11 l
0.43 -0.12 l
0.42 -0.11 l
0.43 -0.11 l
0.43 -0.11 l
0.42 -0.12 l
0.43 -0.11 l
0.42 -0.11 l
0.43 -0.11 l
0.43 -0.11 l
0.42 -0.11 l
0.43 -0.11 l
0.43 -0.11 l
0.42 -0.11 l
0.43 -0.11 l
0.43 -0.11 l
0.42 -0.10 l
0.43 -0.11 l
0.42 -0.11 l
0.43 -0.11 l
0.43 -0.10 l
0.42 -0.11 l
0.43 -0.10 l
0.43 -0.11 l
0.42 -0.10 l
0.43 -0.11 l
0.43 -0.10 l
0.42 -0.11 l
0.43 -0.10 l
0.42 -0.10 l
0.43 -0.11 l
0.43 -0.10 l
0.42 -0.10 l
0.43 -0.10 l
0.43 -0.11 l
0.42 -0.10 l
0.43 -0.10 l
0.42 -0.10 l
0.43 -0.10 l
0.43 -0.10 l
0.42 -0.10 l
0.43 -0.10 l
0.43 -0.09 l
0.42 -0.10 l
0.43 -0.10 l
0.43 -0.10 l
0.42 -0.09 l
0.43 -0.10 l
0.42 -0.10 l
0.43 -0.09 l
0.43 -0.10 l
0.42 -0.10 l
0.43 -0.09 l
0.43 -0.10 l
0.42 -0.09 l
255.57 66.20 lineto
o
0.00 0.00 329.25 209.25 cl
0.00 0.00 329.25 209.25 cl
0.00 0.00 329.25 209.25 cl
0.00 0.00 329.25 209.25 cl
0.00 0.00 329.25 209.25 cl
0.00 0.00 329.25 209.25 cl
/Font1 findfont 9 s
0.3020 0.3020 0.3020 srgb
37.47 35.95 (0.00) 1 0 t
37.47 75.97 (0.25) 1 0 t
37.47 115.99 (0.50) 1 0 t
37.47 156.00 (0.75) 1 0 t
37.47 196.02 (1.00) 1 0 t
0.00 0.00 329.25 209.25 cl
0.00 0.00 329.25 209.25 cl
0.2000 0.2000 0.2000 srgb
1.07 setlinewidth
[] 0 setdash
0 setlinecap
1 setlinejoin
10.00 setmiterlimit
np
39.66 39.18 m
2.74 0 l
o
np
39.66 79.20 m
2.74 0 l
o
np
39.66 119.22 m
2.74 0 l
o
np
39.66 159.23 m
2.74 0 l
o
np
39.66 199.25 m
2.74 0 l
o
0.00 0.00 329.25 209.25 cl
0.00 0.00 329.25 209.25 cl
0.00 0.00 329.25 209.25 cl
0.00 0.00 329.25 209.25 cl
0.00 0.00 329.25 209.25 cl
0.00 0.00 329.25 209.25 cl
0.00 0.00 329.25 209.25 cl
0.00 0.00 329.25 209.25 cl
0.2000 0.2000 0.2000 srgb
1.07 setlinewidth
[] 0 setdash
0 setlinecap
1 setlinejoin
10.00 setmiterlimit
np
113.03 28.61 m
0 2.74 l
o
np
184.09 28.61 m
0 2.74 l
o
np
255.14 28.61 m
0 2.74 l
o
0.00 0.00 329.25 209.25 cl
0.00 0.00 329.25 209.25 cl
/Font1 findfont 9 s
0.3020 0.3020 0.3020 srgb
113.03 19.95 (0.5) .5 0 t
184.09 19.95 (1.0) .5 0 t
255.14 19.95 (1.5) .5 0 t
0.00 0.00 329.25 209.25 cl
0.00 0.00 329.25 209.25 cl
0.00 0.00 329.25 209.25 cl
0.00 0.00 329.25 209.25 cl
/Font1 findfont 11 s
0 0 0 srgb
148.98 7.67 (time) .5 0 t
0.00 0.00 329.25 209.25 cl
0.00 0.00 329.25 209.25 cl
/Font1 findfont 11 s
0 0 0 srgb
15.57 117.56 (V) .5 90 t
0.00 0.00 329.25 209.25 cl
0.00 0.00 329.25 209.25 cl
0.00 0.00 329.25 209.25 cl
0.00 0.00 329.25 209.25 cl
/bg { 1 1 1 srgb } def
264.07 54.81 51.19 125.50 r p2
0.00 0.00 329.25 209.25 cl
0.00 0.00 329.25 209.25 cl
/Font5 findfont 11 s
0 0 0 srgb
268.32 167.61 ( ) 0 0 t
271.07 167.61 ( ) 0 0 t
/Font3 findfont 11 s
273.82 167.61 (H) 0 0 t
0.00 0.00 329.25 209.25 cl
0.00 0.00 329.25 209.25 cl
/bg { 0.9490 0.9490 0.9490 srgb } def
1 1 1 srgb
1.07 setlinewidth
[] 0 setdash
1 setlinecap
1 setlinejoin
10.00 setmiterlimit
268.32 145.46 17.28 17.28 r p3
0.00 0.00 329.25 209.25 cl
0.00 0.00 329.25 209.25 cl
0.8039 0.7451 0.4392 srgb
1.07 setlinewidth
[ 1.07 3.20 4.27 3.20] 0 setdash
0 setlinecap
1 setlinejoin
10.00 setmiterlimit
np
270.05 154.10 m
13.83 0 l
o
0.00 0.00 329.25 209.25 cl
0.00 0.00 329.25 209.25 cl
0.8039 0.7451 0.4392 srgb
1.07 setlinewidth
[ 1.07 3.20 4.27 3.20] 0 setdash
0 setlinecap
1 setlinejoin
10.00 setmiterlimit
np
270.05 154.10 m
13.83 0 l
o
0.00 0.00 329.25 209.25 cl
0.00 0.00 329.25 209.25 cl
0.8039 0.7451 0.4392 srgb
1.07 setlinewidth
[ 1.07 3.20 4.27 3.20] 0 setdash
0 setlinecap
1 setlinejoin
10.00 setmiterlimit
np
270.05 154.10 m
13.83 0 l
o
0.00 0.00 329.25 209.25 cl
0.00 0.00 329.25 209.25 cl
0.8039 0.7451 0.4392 srgb
1.07 setlinewidth
[ 1.07 3.20 4.27 3.20] 0 setdash
0 setlinecap
1 setlinejoin
10.00 setmiterlimit
np
270.05 154.10 m
13.83 0 l
o
0.00 0.00 329.25 209.25 cl
0.00 0.00 329.25 209.25 cl
0.8039 0.7451 0.4392 srgb
1.07 setlinewidth
[ 1.07 3.20 4.27 3.20] 0 setdash
0 setlinecap
1 setlinejoin
10.00 setmiterlimit
np
270.05 154.10 m
13.83 0 l
o
0.00 0.00 329.25 209.25 cl
0.00 0.00 329.25 209.25 cl
0.8039 0.7451 0.4392 srgb
1.07 setlinewidth
[ 1.07 3.20 4.27 3.20] 0 setdash
0 setlinecap
1 setlinejoin
10.00 setmiterlimit
np
270.05 154.10 m
13.83 0 l
o
0.00 0.00 329.25 209.25 cl
0.00 0.00 329.25 209.25 cl
/bg { 0.9490 0.9490 0.9490 srgb } def
1 1 1 srgb
1.07 setlinewidth
[] 0 setdash
1 setlinecap
1 setlinejoin
10.00 setmiterlimit
268.32 128.18 17.28 17.28 r p3
0.00 0.00 329.25 209.25 cl
0.00 0.00 329.25 209.25 cl
0.6078 0.8039 0.6078 srgb
1.07 setlinewidth
[] 0 setdash
0 setlinecap
1 setlinejoin
10.00 setmiterlimit
np
270.05 136.82 m
13.83 0 l
o
0.00 0.00 329.25 209.25 cl
0.00 0.00 329.25 209.25 cl
0.6078 0.8039 0.6078 srgb
1.07 setlinewidth
[] 0 setdash
0 setlinecap
1 setlinejoin
10.00 setmiterlimit
np
270.05 136.82 m
13.83 0 l
o
0.00 0.00 329.25 209.25 cl
0.00 0.00 329.25 209.25 cl
0.6078 0.8039 0.6078 srgb
1.07 setlinewidth
[] 0 setdash
0 setlinecap
1 setlinejoin
10.00 setmiterlimit
np
270.05 136.82 m
13.83 0 l
o
0.00 0.00 329.25 209.25 cl
0.00 0.00 329.25 209.25 cl
0.6078 0.8039 0.6078 srgb
1.07 setlinewidth
[] 0 setdash
0 setlinecap
1 setlinejoin
10.00 setmiterlimit
np
270.05 136.82 m
13.83 0 l
o
0.00 0.00 329.25 209.25 cl
0.00 0.00 329.25 209.25 cl
0.6078 0.8039 0.6078 srgb
1.07 setlinewidth
[] 0 setdash
0 setlinecap
1 setlinejoin
10.00 setmiterlimit
np
270.05 136.82 m
13.83 0 l
o
0.00 0.00 329.25 209.25 cl
0.00 0.00 329.25 209.25 cl
0.6078 0.8039 0.6078 srgb
1.07 setlinewidth
[] 0 setdash
0 setlinecap
1 setlinejoin
10.00 setmiterlimit
np
270.05 136.82 m
13.83 0 l
o
0.00 0.00 329.25 209.25 cl
0.00 0.00 329.25 209.25 cl
/bg { 0.9490 0.9490 0.9490 srgb } def
1 1 1 srgb
1.07 setlinewidth
[] 0 setdash
1 setlinecap
1 setlinejoin
10.00 setmiterlimit
268.32 110.90 17.28 17.28 r p3
0.00 0.00 329.25 209.25 cl
0.00 0.00 329.25 209.25 cl
0.5294 0.8078 0.9804 srgb
1.07 setlinewidth
[ 1.07 3.20 4.27 3.20] 0 setdash
0 setlinecap
1 setlinejoin
10.00 setmiterlimit
np
270.05 119.54 m
13.83 0 l
o
0.00 0.00 329.25 209.25 cl
0.00 0.00 329.25 209.25 cl
0.5294 0.8078 0.9804 srgb
1.07 setlinewidth
[ 1.07 3.20 4.27 3.20] 0 setdash
0 setlinecap
1 setlinejoin
10.00 setmiterlimit
np
270.05 119.54 m
13.83 0 l
o
0.00 0.00 329.25 209.25 cl
0.00 0.00 329.25 209.25 cl
0.5294 0.8078 0.9804 srgb
1.07 setlinewidth
[ 1.07 3.20 4.27 3.20] 0 setdash
0 setlinecap
1 setlinejoin
10.00 setmiterlimit
np
270.05 119.54 m
13.83 0 l
o
0.00 0.00 329.25 209.25 cl
0.00 0.00 329.25 209.25 cl
0.5294 0.8078 0.9804 srgb
1.07 setlinewidth
[ 1.07 3.20 4.27 3.20] 0 setdash
0 setlinecap
1 setlinejoin
10.00 setmiterlimit
np
270.05 119.54 m
13.83 0 l
o
0.00 0.00 329.25 209.25 cl
0.00 0.00 329.25 209.25 cl
0.5294 0.8078 0.9804 srgb
1.07 setlinewidth
[ 1.07 3.20 4.27 3.20] 0 setdash
0 setlinecap
1 setlinejoin
10.00 setmiterlimit
np
270.05 119.54 m
13.83 0 l
o
0.00 0.00 329.25 209.25 cl
0.00 0.00 329.25 209.25 cl
0.5294 0.8078 0.9804 srgb
1.07 setlinewidth
[ 1.07 3.20 4.27 3.20] 0 setdash
0 setlinecap
1 setlinejoin
10.00 setmiterlimit
np
270.05 119.54 m
13.83 0 l
o
0.00 0.00 329.25 209.25 cl
0.00 0.00 329.25 209.25 cl
/bg { 0.9490 0.9490 0.9490 srgb } def
1 1 1 srgb
1.07 setlinewidth
[] 0 setdash
1 setlinecap
1 setlinejoin
10.00 setmiterlimit
268.32 93.62 17.28 17.28 r p3
0.00 0.00 329.25 209.25 cl
0.00 0.00 329.25 209.25 cl
1 0.6275 0.4784 srgb
1.07 setlinewidth
[] 0 setdash
0 setlinecap
1 setlinejoin
10.00 setmiterlimit
np
270.05 102.26 m
13.83 0 l
o
0.00 0.00 329.25 209.25 cl
0.00 0.00 329.25 209.25 cl
1 0.6275 0.4784 srgb
1.07 setlinewidth
[] 0 setdash
0 setlinecap
1 setlinejoin
10.00 setmiterlimit
np
270.05 102.26 m
13.83 0 l
o
0.00 0.00 329.25 209.25 cl
0.00 0.00 329.25 209.25 cl
1 0.6275 0.4784 srgb
1.07 setlinewidth
[] 0 setdash
0 setlinecap
1 setlinejoin
10.00 setmiterlimit
np
270.05 102.26 m
13.83 0 l
o
0.00 0.00 329.25 209.25 cl
0.00 0.00 329.25 209.25 cl
1 0.6275 0.4784 srgb
1.07 setlinewidth
[] 0 setdash
0 setlinecap
1 setlinejoin
10.00 setmiterlimit
np
270.05 102.26 m
13.83 0 l
o
0.00 0.00 329.25 209.25 cl
0.00 0.00 329.25 209.25 cl
1 0.6275 0.4784 srgb
1.07 setlinewidth
[] 0 setdash
0 setlinecap
1 setlinejoin
10.00 setmiterlimit
np
270.05 102.26 m
13.83 0 l
o
0.00 0.00 329.25 209.25 cl
0.00 0.00 329.25 209.25 cl
1 0.6275 0.4784 srgb
1.07 setlinewidth
[] 0 setdash
0 setlinecap
1 setlinejoin
10.00 setmiterlimit
np
270.05 102.26 m
13.83 0 l
o
0.00 0.00 329.25 209.25 cl
0.00 0.00 329.25 209.25 cl
/bg { 0.9490 0.9490 0.9490 srgb } def
1 1 1 srgb
1.07 setlinewidth
[] 0 setdash
1 setlinecap
1 setlinejoin
10.00 setmiterlimit
268.32 76.34 17.28 17.28 r p3
0.00 0.00 329.25 209.25 cl
0.00 0.00 329.25 209.25 cl
1 0.3882 0.2784 srgb
1.07 setlinewidth
[ 1.07 3.20 4.27 3.20] 0 setdash
0 setlinecap
1 setlinejoin
10.00 setmiterlimit
np
270.05 84.98 m
13.83 0 l
o
0.00 0.00 329.25 209.25 cl
0.00 0.00 329.25 209.25 cl
1 0.3882 0.2784 srgb
1.07 setlinewidth
[ 1.07 3.20 4.27 3.20] 0 setdash
0 setlinecap
1 setlinejoin
10.00 setmiterlimit
np
270.05 84.98 m
13.83 0 l
o
0.00 0.00 329.25 209.25 cl
0.00 0.00 329.25 209.25 cl
1 0.3882 0.2784 srgb
1.07 setlinewidth
[ 1.07 3.20 4.27 3.20] 0 setdash
0 setlinecap
1 setlinejoin
10.00 setmiterlimit
np
270.05 84.98 m
13.83 0 l
o
0.00 0.00 329.25 209.25 cl
0.00 0.00 329.25 209.25 cl
1 0.3882 0.2784 srgb
1.07 setlinewidth
[ 1.07 3.20 4.27 3.20] 0 setdash
0 setlinecap
1 setlinejoin
10.00 setmiterlimit
np
270.05 84.98 m
13.83 0 l
o
0.00 0.00 329.25 209.25 cl
0.00 0.00 329.25 209.25 cl
1 0.3882 0.2784 srgb
1.07 setlinewidth
[ 1.07 3.20 4.27 3.20] 0 setdash
0 setlinecap
1 setlinejoin
10.00 setmiterlimit
np
270.05 84.98 m
13.83 0 l
o
0.00 0.00 329.25 209.25 cl
0.00 0.00 329.25 209.25 cl
1 0.3882 0.2784 srgb
1.07 setlinewidth
[ 1.07 3.20 4.27 3.20] 0 setdash
0 setlinecap
1 setlinejoin
10.00 setmiterlimit
np
270.05 84.98 m
13.83 0 l
o
0.00 0.00 329.25 209.25 cl
0.00 0.00 329.25 209.25 cl
/bg { 0.9490 0.9490 0.9490 srgb } def
1 1 1 srgb
1.07 setlinewidth
[] 0 setdash
1 setlinecap
1 setlinejoin
10.00 setmiterlimit
268.32 59.06 17.28 17.28 r p3
0.00 0.00 329.25 209.25 cl
0.00 0.00 329.25 209.25 cl
0.5608 0.7373 0.5608 srgb
1.07 setlinewidth
[] 0 setdash
0 setlinecap
1 setlinejoin
10.00 setmiterlimit
np
270.05 67.70 m
13.83 0 l
o
0.00 0.00 329.25 209.25 cl
0.00 0.00 329.25 209.25 cl
0.5608 0.7373 0.5608 srgb
1.07 setlinewidth
[] 0 setdash
0 setlinecap
1 setlinejoin
10.00 setmiterlimit
np
270.05 67.70 m
13.83 0 l
o
0.00 0.00 329.25 209.25 cl
0.00 0.00 329.25 209.25 cl
0.5608 0.7373 0.5608 srgb
1.07 setlinewidth
[] 0 setdash
0 setlinecap
1 setlinejoin
10.00 setmiterlimit
np
270.05 67.70 m
13.83 0 l
o
0.00 0.00 329.25 209.25 cl
0.00 0.00 329.25 209.25 cl
0.5608 0.7373 0.5608 srgb
1.07 setlinewidth
[] 0 setdash
0 setlinecap
1 setlinejoin
10.00 setmiterlimit
np
270.05 67.70 m
13.83 0 l
o
0.00 0.00 329.25 209.25 cl
0.00 0.00 329.25 209.25 cl
0.5608 0.7373 0.5608 srgb
1.07 setlinewidth
[] 0 setdash
0 setlinecap
1 setlinejoin
10.00 setmiterlimit
np
270.05 67.70 m
13.83 0 l
o
0.00 0.00 329.25 209.25 cl
0.00 0.00 329.25 209.25 cl
0.5608 0.7373 0.5608 srgb
1.07 setlinewidth
[] 0 setdash
0 setlinecap
1 setlinejoin
10.00 setmiterlimit
np
270.05 67.70 m
13.83 0 l
o
0.00 0.00 329.25 209.25 cl
0.00 0.00 329.25 209.25 cl
/Font1 findfont 9 s
0 0 0 srgb
287.76 150.87 (0.01c) 0 0 t
0.00 0.00 329.25 209.25 cl
0.00 0.00 329.25 209.25 cl
/Font1 findfont 9 s
0 0 0 srgb
287.76 133.59 (0.01p) 0 0 t
0.00 0.00 329.25 209.25 cl
0.00 0.00 329.25 209.25 cl
/Font1 findfont 9 s
0 0 0 srgb
287.76 116.31 (0.1c) 0 0 t
0.00 0.00 329.25 209.25 cl
0.00 0.00 329.25 209.25 cl
/Font1 findfont 9 s
0 0 0 srgb
287.76 99.03 (0.1p) 0 0 t
0.00 0.00 329.25 209.25 cl
0.00 0.00 329.25 209.25 cl
/Font1 findfont 9 s
0 0 0 srgb
287.76 81.75 (0.2c) 0 0 t
0.00 0.00 329.25 209.25 cl
0.00 0.00 329.25 209.25 cl
/Font1 findfont 9 s
0 0 0 srgb
287.76 64.47 (0.2p) 0 0 t
0.00 0.00 329.25 209.25 cl
0.00 0.00 329.25 209.25 cl
0.00 0.00 329.25 209.25 cl
0.00 0.00 329.25 209.25 cl
0.00 0.00 329.25 209.25 cl
0.00 0.00 329.25 209.25 cl
ep
%%Trailer
%%Pages: 1
%%EOF
