          0.001            0.1              1
         1e-006              0              0
          0.003 1.102834484e-005 1.103084141e-005
          0.006 9.456159469e-011 9.457209865e-011
          0.009 1.023300384e-011 1.023406897e-011
          0.012 9.183634775e-009 9.183900626e-009
          0.015 5.292141659e-007 5.292217933e-007
          0.018 7.761183231e-006 7.761238727e-006
          0.021 5.219956027e-005 5.219974219e-005
          0.024 0.0002160047402 0.0002160050586
          0.027 0.0006472435138 0.0006472434496
           0.03 0.001548255837  0.00154825237
          0.033 0.003145507684  0.00314548885
          0.036 0.005656004311 0.005655933541
          0.039 0.009261151575 0.009260937596
          0.042  0.01409193606   0.0140913846
          0.045  0.02022446667  0.02022321322
          0.048  0.02768292426  0.02768035035
          0.051  0.03644680462  0.03644194314
          0.054  0.04645998273   0.0464514189
          0.057  0.05763993818  0.05762571336
           0.06  0.06988618185  0.06986370632
          0.063  0.08308742978   0.0830534095
          0.066   0.0971273969  0.09707777729
          0.069   0.1118892706    0.111819199
          0.072   0.1272590179   0.1271628249
          0.075   0.1431277152    0.142998914
          0.078    0.159393089    0.159224391
          0.081   0.1759604405   0.1757437853
          0.084    0.192743102    0.192469699
          0.087   0.2096625473   0.2093229268
           0.09   0.2266482551   0.2262323267
          0.093   0.2436374021   0.2431345177
          0.096    0.260574444   0.2599734642
          0.099   0.2774106313   0.2766999932
          0.102    0.294103491   0.2932712753
          0.105   0.3106162983   0.3096502964
          0.108   0.3269175561   0.3258053342
          0.111    0.342980493   0.3417094539
          0.114   0.3587825871   0.3573400284
          0.117     0.37430512   0.3726782894
           0.12   0.3895327645   0.3877089101
          0.123   0.4044532045   0.4024196221
          0.126   0.4190567885   0.4168008644
          0.129   0.4333362151   0.4308454649
          0.132   0.4472862477   0.4445483517
          0.135   0.4609034588   0.4579062931
          0.138   0.4741859997   0.4709176639
          0.141   0.4871333946   0.4835822362
          0.144   0.4997463565   0.4959009923
          0.147   0.5120266241   0.5078759577
           0.15   0.5239768155   0.5195100536
          0.153   0.5356002999   0.5308069644
          0.156   0.5469010825   0.5417710215
          0.159   0.5578837044      0.5524071
          0.162   0.5685531525   0.5627205277
          0.165   0.5789147819   0.5727170045
          0.168   0.5889742461   0.5824025322
          0.171   0.5987374369    0.591783352
          0.174   0.6082104315   0.6008658906
          0.177   0.6173994455   0.6096567123
           0.18    0.626310793   0.6181624775
          0.183   0.6349508511   0.6263899069
          0.186   0.6433260298   0.6343457498
          0.189   0.6514427449   0.6420367571
          0.192   0.6593073959   0.6494696581
          0.195   0.6669263463   0.6566511402
          0.198   0.6743059067   0.6635878318
          0.201   0.6814523206   0.6702862877
          0.204   0.6883717528   0.6767529768
          0.207    0.695070279   0.6829942721
           0.21   0.7015538776   0.6890164414
          0.213   0.7078284229   0.6948256411
          0.216   0.7138996794     0.70042791
          0.219   0.7197732976   0.7058291652
          0.222   0.7254548106   0.7110351983
          0.225   0.7309496317   0.7160516732
          0.228   0.7362630522   0.7208841242
          0.231    0.741400241   0.7255379551
          0.234   0.7463662435   0.7300184384
          0.237   0.7511659821   0.7343307159
           0.24   0.7558042561   0.7384797986
          0.243    0.760285743    0.742470568
          0.246   0.7646149991   0.7463077772
          0.249   0.7687964611   0.7499960522
          0.252   0.7728344479    0.753539894
          0.255   0.7767331618   0.7569436799
          0.258    0.780496691   0.7602116662
          0.261    0.784129011   0.7633479901
          0.264   0.7876339875   0.7663566716
          0.267    0.791015378   0.7692416168
           0.27   0.7942768342   0.7720066193
          0.273   0.7974219046   0.7746553637
          0.276   0.8004540367    0.777191427
          0.279    0.803376579   0.7796182824
          0.282   0.8061927841   0.7819393006
          0.285   0.8089058105   0.7841577534
          0.288    0.811518725   0.7862768154
          0.291   0.8140345055    0.788299567
          0.294   0.8164560428   0.7902289967
          0.297   0.8187861431   0.7920680038
            0.3   0.8210275304   0.7938194003
          0.303   0.8231828484   0.7954859139
          0.306   0.8252546632   0.7970701899
          0.309   0.8272454649   0.7985747936
          0.312     0.82915767   0.8000022129
          0.315   0.8309936235   0.8013548599
          0.318   0.8327556007   0.8026350735
          0.321   0.8344458096   0.8038451216
          0.324   0.8360663922   0.8049872028
          0.327    0.837619427   0.8060634484
           0.33   0.8391069305   0.8070759251
          0.333   0.8405308591   0.8080266358
          0.336   0.8418931108   0.8089175224
          0.339    0.843195527   0.8097504673
          0.342   0.8444398941   0.8105272948
          0.345   0.8456279449   0.8112497737
          0.348   0.8467613606   0.8119196179
          0.351   0.8478417721   0.8125384891
          0.354   0.8488707615   0.8131079975
          0.357   0.8498498634   0.8136297039
           0.36   0.8507805665    0.814105121
          0.363   0.8516643151   0.8145357148
          0.366   0.8525025099   0.8149229063
          0.369   0.8532965101   0.8152680725
          0.372   0.8540476337   0.8155725479
          0.375   0.8547571595   0.8158376258
          0.378   0.8554263279   0.8160645597
          0.381   0.8560563421   0.8162545643
          0.384   0.8566483694   0.8164088167
          0.387   0.8572035418   0.8165284577
           0.39   0.8577229576   0.8166145928
          0.393   0.8582076823   0.8166682933
          0.396   0.8586587491   0.8166905975
          0.399   0.8590771607   0.8166825114
          0.402   0.8594638893   0.8166450099
          0.405   0.8598198784   0.8165790378
          0.408   0.8601460429   0.8164855107
          0.411   0.8604432705   0.8163653157
          0.414   0.8607124222   0.8162193126
          0.417   0.8609543333   0.8160483344
           0.42    0.861169814   0.8158531884
          0.423   0.8613596504   0.8156346569
          0.426    0.861524605   0.8153934979
          0.429   0.8616654174   0.8151304461
          0.432   0.8617828051   0.8148462132
          0.435   0.8618774642    0.814541489
          0.438   0.8619500701   0.8142169418
          0.441   0.8620012777   0.8138732192
          0.444   0.8620317226   0.8135109489
          0.447   0.8620420212    0.813130739
           0.45   0.8620327717   0.8127331787
          0.453   0.8620045542    0.812318839
          0.456   0.8619579317   0.8118882732
          0.459   0.8618934502   0.8114420173
          0.462   0.8618116396    0.810980591
          0.465   0.8617130138   0.8105044976
          0.468   0.8615980714   0.8100142248
          0.471   0.8614672963   0.8095102452
          0.474   0.8613211578   0.8089930169
          0.477   0.8611601112   0.8084629835
           0.48   0.8609845985   0.8079205751
          0.483   0.8607950482   0.8073662083
          0.486   0.8605918762   0.8068002868
          0.489   0.8603754861   0.8062232017
          0.492   0.8601462694   0.8056353321
          0.495   0.8599046058   0.8050370453
          0.498   0.8596508641    0.804428697
          0.501   0.8593854018   0.8038106322
          0.504   0.8591085659   0.8031831848
          0.507   0.8588206931   0.8025466787
           0.51   0.8585221101   0.8019014274
          0.513    0.858213134   0.8012477348
          0.516   0.8578940723   0.8005858955
          0.519   0.8575652235   0.7999161948
          0.522   0.8572268774   0.7992389091
          0.525   0.8568793148   0.7985543062
          0.528   0.8565228088   0.7978626458
          0.531   0.8561576238   0.7971641792
          0.534   0.8557840168   0.7964591501
          0.537    0.855402237   0.7957477946
           0.54   0.8550125263   0.7950303414
          0.543   0.8546151196   0.7943070121
          0.546   0.8542102445   0.7935780213
          0.549   0.8537981224   0.7928435772
          0.552   0.8533789676   0.7921038813
          0.555   0.8529529887   0.7913591288
          0.558   0.8525203875    0.790609509
          0.561   0.8520813605   0.7898552052
          0.564    0.851636098   0.7890963949
          0.567   0.8511847848   0.7883332503
           0.57   0.8507276004   0.7875659379
          0.573   0.8502647189   0.7867946194
          0.576   0.8497963093   0.7860194512
          0.579   0.8493225358   0.7852405849
          0.582   0.8488435575   0.7844581674
          0.585   0.8483595292   0.7836723409
          0.588    0.847870601   0.7828832433
          0.591   0.8473769184   0.7820910082
          0.594   0.8468786231   0.7812957648
          0.597   0.8463758523   0.7804976386
            0.6   0.8458687394   0.7796967509
          0.603   0.8453574137   0.7788932194
          0.606   0.8448420011    0.778087158
          0.609   0.8443226235   0.7772786772
          0.612   0.8437993994   0.7764678837
          0.615   0.8432724439   0.7756548814
          0.618   0.8427418686   0.7748397703
          0.621    0.842207782   0.7740226479
          0.624   0.8416702896   0.7732036082
          0.627   0.8411294934   0.7723827425
           0.63    0.840585493   0.7715601391
          0.633   0.8400383847   0.7707358836
          0.636   0.8394882623   0.7699100588
          0.639   0.8389352167   0.7690827452
          0.642   0.8383793363   0.7682540204
          0.645   0.8378207069   0.7674239598
          0.648    0.837259412   0.7665926363
          0.651   0.8366955325   0.7657601207
          0.654    0.836129147   0.7649264814
          0.657   0.8355603321   0.7640917846
           0.66   0.8349891618   0.7632560947
          0.663   0.8344157084   0.7624194737
          0.666   0.8338400418   0.7615819819
          0.669   0.8332622302   0.7607436776
          0.672   0.8326823398   0.7599046173
          0.675   0.8321004346   0.7590648558
          0.678   0.8315165773   0.7582244459
          0.681   0.8309308284   0.7573834391
          0.684   0.8303432469   0.7565418849
          0.687   0.8297538901   0.7556998314
           0.69   0.8291628137   0.7548573253
          0.693   0.8285700718   0.7540144117
          0.696    0.827975717   0.7531711342
          0.699   0.8273798004    0.752327535
          0.702   0.8267823717   0.7514836553
          0.705   0.8261834792   0.7506395345
          0.708   0.8255831699   0.7497952111
          0.711   0.8249814893   0.7489507221
          0.714   0.8243784819   0.7481061037
          0.717   0.8237741908   0.7472613906
           0.72   0.8231686579   0.7464166164
          0.723   0.8225619241    0.745571814
          0.726   0.8219540289   0.7447270147
          0.729    0.821345011   0.7438822492
          0.732   0.8207349079   0.7430375472
          0.735    0.820123756   0.7421929371
          0.738   0.8195115909   0.7413484468
          0.741    0.818898447    0.740504103
          0.744   0.8182843579   0.7396599318
          0.747   0.8176693562   0.7388159582
           0.75   0.8170534737   0.7379722066
          0.753   0.8164367414   0.7371287005
          0.756   0.8158191892   0.7362854626
          0.759   0.8152008465    0.735442515
          0.762   0.8145817417   0.7345998789
          0.765   0.8139619025    0.733757575
          0.768   0.8133413558   0.7329156232
          0.771    0.812720128   0.7320740428
          0.774   0.8120982446   0.7312328525
          0.777   0.8114757303   0.7303920702
           0.78   0.8108526095   0.7295517135
          0.783   0.8102289057   0.7287117992
          0.786   0.8096046418   0.7278723436
          0.789   0.8089798401   0.7270333626
          0.792   0.8083545224   0.7261948712
          0.795   0.8077287099   0.7253568844
          0.798   0.8071024232   0.7245194164
          0.801   0.8064756824   0.7236824809
          0.804   0.8058485071   0.7228460913
          0.807   0.8052209162   0.7220102604
           0.81   0.8045929285   0.7211750006
          0.813   0.8039645619   0.7203403241
          0.816   0.8033358341   0.7195062424
          0.819   0.8027067622   0.7186727667
          0.822   0.8020773631   0.7178399079
          0.825   0.8014476529   0.7170076765
          0.828   0.8008176477   0.7161760825
          0.831   0.8001873629   0.7153451357
          0.834   0.7995568135   0.7145148455
          0.837   0.7989260144   0.7136852211
           0.84   0.7982949799   0.7128562713
          0.843    0.797663724   0.7120280044
          0.846   0.7970322602   0.7112004287
          0.849    0.796400602   0.7103735521
          0.852   0.7957687624   0.7095473823
          0.855   0.7951367539   0.7087219264
          0.858    0.794504589   0.7078971918
          0.861   0.7938722796   0.7070731851
          0.864   0.7932398376   0.7062499129
          0.867   0.7926072745   0.7054273817
           0.87   0.7919746013   0.7046055974
          0.873   0.7913418291   0.7037845662
          0.876   0.7907089685   0.7029642935
          0.879   0.7900760299   0.7021447849
          0.882   0.7894430235   0.7013260456
          0.885   0.7888099592   0.7005080807
          0.888   0.7881768467   0.6996908952
          0.891   0.7875436955   0.6988744936
          0.894   0.7869105147   0.6980588805
          0.897   0.7862773135   0.6972440603
            0.9   0.7856441006   0.6964300371
          0.903   0.7850108847    0.695616815
          0.906   0.7843776741   0.6948043977
          0.909   0.7837444771    0.693992789
          0.912   0.7831113017   0.6931819925
          0.915   0.7824781557   0.6923720115
          0.918   0.7818450469   0.6915628493
          0.921   0.7812119827   0.6907545091
          0.924   0.7805789705   0.6899469939
          0.927   0.7799460174   0.6891403065
           0.93   0.7793131305   0.6883344498
          0.933   0.7786803165   0.6875294263
          0.936   0.7780475823   0.6867252385
          0.939   0.7774149343    0.685921889
          0.942   0.7767823789   0.6851193799
          0.945   0.7761499226   0.6843177136
          0.948   0.7755175713    0.683516892
          0.951    0.774885331   0.6827169172
          0.954   0.7742532078   0.6819177912
          0.957   0.7736212072   0.6811195157
           0.96    0.772989335   0.6803220924
          0.963   0.7723575967    0.679525523
          0.966   0.7717259976    0.678729809
          0.969   0.7710945431    0.677934952
          0.972   0.7704632383   0.6771409532
          0.975   0.7698320882   0.6763478141
          0.978   0.7692010979    0.675555536
          0.981   0.7685702722   0.6747641198
          0.984   0.7679396159   0.6739735668
          0.987   0.7673091336   0.6731838781
           0.99   0.7666788299   0.6723950545
          0.993   0.7660487092   0.6716070971
          0.996   0.7654187761   0.6708200066
          0.999   0.7647890347   0.6700337838
          1.002   0.7641594893   0.6692484295
          1.005    0.763530144   0.6684639444
          1.008   0.7629010029   0.6676803291
          1.011   0.7622720699   0.6668975841
          1.014    0.761643349   0.6661157101
          1.017    0.761014844   0.6653347074
           1.02   0.7603865585   0.6645545765
          1.023   0.7597584964   0.6637753179
          1.026   0.7591306611   0.6629969317
          1.029   0.7585030563   0.6622194184
          1.032   0.7578756854   0.6614427782
          1.035   0.7572485518   0.6606670113
          1.038   0.7566216589   0.6598921179
          1.041   0.7559950099   0.6591180981
          1.044    0.755368608   0.6583449521
          1.047   0.7547424565   0.6575726798
           1.05   0.7541165584   0.6568012814
          1.053   0.7534909168   0.6560307569
          1.056   0.7528655346   0.6552611061
          1.059   0.7522404148   0.6544923292
          1.062   0.7516155603   0.6537244259
          1.065   0.7509909739   0.6529573961
          1.068   0.7503666585   0.6521912398
          1.071   0.7497426166   0.6514259567
          1.074   0.7491188511   0.6506615466
          1.077   0.7484953646   0.6498980093
           1.08   0.7478721596   0.6491353446
          1.083   0.7472492387   0.6483735522
          1.086   0.7466266044   0.6476126318
          1.089   0.7460042591   0.6468525831
          1.092   0.7453822054   0.6460934057
          1.095   0.7447604455   0.6453350993
          1.098   0.7441389818   0.6445776634
          1.101   0.7435178166   0.6438210978
          1.104   0.7428969521    0.643065402
          1.107   0.7422763906   0.6423105755
           1.11   0.7416561343   0.6415566179
          1.113   0.7410361853   0.6408035287
          1.116   0.7404165457   0.6400513075
          1.119   0.7397972176   0.6392999536
          1.122    0.739178203   0.6385494667
          1.125   0.7385595039   0.6377998462
          1.128   0.7379411224   0.6370510915
          1.131   0.7373230603   0.6363032021
          1.134   0.7367053196   0.6355561773
          1.137   0.7360879022   0.6348100167
           1.14   0.7354708098   0.6340647196
          1.143   0.7348540444   0.6333202853
          1.146   0.7342376077   0.6325767134
          1.149   0.7336215015    0.631834003
          1.152   0.7330057275   0.6310921537
          1.155   0.7323902875   0.6303511647
          1.158    0.731775183   0.6296110353
          1.161   0.7311604158   0.6288717649
          1.164   0.7305459875   0.6281333529
          1.167   0.7299318997   0.6273957984
           1.17    0.729318154   0.6266591008
          1.173   0.7287047519   0.6259232594
          1.176   0.7280916949   0.6251882735
          1.179   0.7274789846   0.6244541423
          1.182   0.7268666225   0.6237208651
          1.185   0.7262546099   0.6229884412
          1.188   0.7256429485   0.6222568697
          1.191   0.7250316394     0.62152615
          1.194   0.7244206842   0.6207962813
          1.197   0.7238100843   0.6200672628
            1.2   0.7231998409   0.6193390937
          1.203   0.7225899554   0.6186117733
          1.206   0.7219804291   0.6178853007
          1.209   0.7213712634   0.6171596752
          1.212   0.7207624594    0.616434896
          1.215   0.7201540184   0.6157109622
          1.218   0.7195459417    0.614987873
          1.221   0.7189382305   0.6142656277
          1.224    0.718330886   0.6135442254
          1.227   0.7177239093   0.6128236653
           1.23   0.7171173016   0.6121039466
          1.233   0.7165110641   0.6113850684
          1.236   0.7159051979   0.6106670299
          1.239    0.715299704   0.6099498302
          1.242   0.7146945836   0.6092334686
          1.245   0.7140898378   0.6085179441
          1.248   0.7134854676   0.6078032559
          1.251   0.7128814741   0.6070894032
          1.254   0.7122778582   0.6063763852
          1.257    0.711674621   0.6056642008
           1.26   0.7110717636   0.6049528494
          1.263   0.7104692868     0.60424233
          1.266   0.7098671917   0.6035326417
          1.269   0.7092654792   0.6028237838
          1.272   0.7086641502   0.6021157552
          1.275   0.7080632057   0.6014085552
          1.278   0.7074626465   0.6007021829
          1.281   0.7068624737   0.5999966374
          1.284    0.706262688   0.5992919178
          1.287   0.7056632903   0.5985880232
           1.29   0.7050642815   0.5978849528
          1.293   0.7044656625   0.5971827056
          1.296    0.703867434   0.5964812808
          1.299   0.7032695969   0.5957806775
          1.302    0.702672152   0.5950808948
          1.305   0.7020751001   0.5943819319
          1.308   0.7014784419   0.5936837877
          1.311   0.7008821783   0.5929864615
          1.314     0.70028631   0.5922899523
          1.317   0.6996908377   0.5915942593
           1.32   0.6990957623   0.5908993815
          1.323   0.6985010843    0.590205318
          1.326   0.6979068045    0.589512068
          1.329   0.6973129237   0.5888196306
          1.332   0.6967194425   0.5881280048
          1.335   0.6961263616   0.5874371898
          1.338   0.6955336817   0.5867471846
          1.341   0.6949414033   0.5860579884
          1.344   0.6943495273   0.5853696002
          1.347   0.6937580542   0.5846820192
           1.35   0.6931669846   0.5839952444
          1.353   0.6925763192    0.583309275
          1.356   0.6919860586     0.58262411
          1.359   0.6913962033   0.5819397486
          1.362   0.6908067541   0.5812561898
          1.365   0.6902177113   0.5805734327
          1.368   0.6896290757   0.5798914765
          1.371   0.6890408478   0.5792103202
          1.374   0.6884530281   0.5785299629
          1.377   0.6878656172   0.5778504037
           1.38   0.6872786156   0.5771716417
          1.383   0.6866920239   0.5764936761
          1.386   0.6861058425   0.5758165059
          1.389    0.685520072   0.5751401301
          1.392   0.6849347129    0.574464548
          1.395   0.6843497656   0.5737897586
          1.398   0.6837652307    0.573115761
          1.401   0.6831811087   0.5724425542
          1.404   0.6825973999   0.5717701374
          1.407   0.6820141048   0.5710985098
           1.41    0.681431224   0.5704276703
          1.413   0.6808487579   0.5697576181
          1.416   0.6802667068   0.5690883522
          1.419   0.6796850712   0.5684198719
          1.422   0.6791038516   0.5677521761
          1.425   0.6785230484    0.567085264
          1.428   0.6779426619   0.5664191347
          1.431   0.6773626926   0.5657537872
          1.434   0.6767831408   0.5650892208
          1.437   0.6762040069   0.5644254344
           1.44   0.6756252914   0.5637624272
          1.443   0.6750469946   0.5631001982
          1.446   0.6744691168   0.5624387467
          1.449   0.6738916584   0.5617780716
          1.452   0.6733146198   0.5611181721
          1.455   0.6727380013   0.5604590474
          1.458   0.6721618032   0.5598006964
          1.461   0.6715860259   0.5591431183
          1.464   0.6710106697   0.5584863123
          1.467   0.6704357349   0.5578302773
           1.47   0.6698612218   0.5571750126
          1.473   0.6692871308   0.5565205172
          1.476   0.6687134621   0.5558667903
          1.479    0.668140216   0.5552138309
          1.482   0.6675673928   0.5545616382
          1.485   0.6669949928   0.5539102112
          1.488   0.6664230162   0.5532595492
          1.491   0.6658514634   0.5526096511
          1.494   0.6652803346   0.5519605161
          1.497     0.66470963   0.5513121434
            1.5   0.6641393499    0.550664532
          1.503   0.6635694946    0.550017681
