          0.001            0.2            0.5
         1e-006              0              0
          0.003 1.101695744e-005 1.101695747e-005
          0.006 9.434086181e-011 9.434094861e-011
          0.009 1.019736343e-011 1.019710046e-011
          0.012 9.140672646e-009 9.140621443e-009
          0.015 5.260736736e-007 5.26070523e-007
          0.018 7.704599157e-006 7.704695313e-006
          0.021 5.174127511e-005 5.174473594e-005
          0.024 0.0002137549797 0.0002137916085
          0.027 0.0006393470125 0.0006395615593
           0.03 0.001526381566 0.001527243971
          0.033 0.003094582968 0.003097249836
          0.036  0.00555209131 0.005558896318
          0.039 0.009069786807 0.009084795018
          0.042  0.01376711266  0.01379665836
          0.045  0.01970830149  0.01976143929
          0.048  0.02690595091  0.02699477381
          0.051  0.03532877621  0.03546858069
          0.054  0.04491104644  0.04512034669
          0.057  0.05556204712  0.05586245585
           0.06  0.06717462662  0.06759062772
          0.063  0.07963239527  0.08019103671
          0.066  0.09281547327  0.09354600749
          0.069   0.1066048691   0.1075383652
          0.072   0.1208856602   0.1220546082
          0.075   0.1355491793   0.1369871016
          0.078   0.1504944055   0.1522354878
          0.081   0.1656287408   0.1677074901
          0.084   0.1808683252     0.18331926
          0.087   0.1961380165   0.1989953917
           0.09    0.211371134   0.2146687011
          0.093   0.2265090458   0.2302798478
          0.096   0.2415006571   0.2457768564
          0.099   0.2563018439   0.2611145814
          0.102   0.2708748662   0.2762541482
          0.105   0.2851877813   0.2911623921
          0.108   0.2992138737   0.3058113109
          0.111   0.3129311129   0.3201775423
          0.114   0.3263216443   0.3342418721
          0.117   0.3393713175   0.3479887773
           0.12   0.3520692519   0.3614060047
          0.123   0.3644074423    0.374484186
          0.126   0.3763803995   0.3872164884
          0.129   0.3879848284   0.3995982984
          0.132   0.3992193369   0.4116269379
          0.135   0.4100841774   0.4233014091
          0.138   0.4205810155   0.4346221668
          0.141   0.4307127247    0.445590916
          0.144   0.4404832048   0.4562104317
          0.147   0.4498972206   0.4664843989
           0.15   0.4589602608   0.4764172719
          0.153   0.4676784128   0.4860141491
          0.156   0.4760582537    0.495280664
          0.159   0.4841067539   0.5042228882
          0.162    0.491831194    0.512847247
          0.165   0.4992390911   0.5211604454
          0.168   0.5063381358   0.5291694034
          0.171    0.513136137   0.5368811998
          0.174   0.5196409742   0.5443030229
          0.177   0.5258605566   0.5514421285
           0.18   0.5318027881   0.5583058031
          0.183   0.5374755365   0.5649013322
          0.186   0.5428866089   0.5712359735
          0.189   0.5480437292   0.5773169335
          0.192   0.5529545202   0.5831513484
          0.195   0.5576264887   0.5887462668
          0.198   0.5620670126   0.5941086366
          0.201   0.5662833309   0.5992452929
          0.204   0.5702825357   0.6041629491
          0.207   0.5740715654   0.6088681889
           0.21   0.5776572003   0.6133674604
          0.213   0.5810460587   0.6176670712
          0.216   0.5842445947   0.6217731854
          0.219   0.5872590969   0.6256918206
          0.222   0.5900956875   0.6294288469
          0.225   0.5927603228   0.6329899855
          0.228   0.5952587938   0.6363808093
          0.231   0.5975967278   0.6396067427
          0.234   0.5997795899   0.6426730631
          0.237   0.6018126854   0.6455849018
           0.24    0.603701162    0.648347246
          0.243   0.6054500126   0.6509649409
          0.246   0.6070640786   0.6534426916
          0.249   0.6085480524   0.6557850659
          0.252   0.6099064811   0.6579964966
          0.255   0.6111437695   0.6600812847
          0.258   0.6122641838   0.6620436016
          0.261   0.6132718549   0.6638874925
          0.264   0.6141707817   0.6656168795
          0.267    0.614964835    0.667235564
           0.27   0.6156577604   0.6687472302
          0.273   0.6162531825   0.6701554481
          0.276   0.6167546075   0.6714636764
          0.279   0.6171654274   0.6726752654
          0.282   0.6174889226   0.6737934603
          0.285   0.6177282658   0.6748214039
          0.288   0.6178865248   0.6757621396
          0.291   0.6179666661   0.6766186141
          0.294   0.6179715575   0.6773936805
          0.297   0.6179039716   0.6780901008
            0.3   0.6177665883   0.6787105487
          0.303   0.6175619984   0.6792576123
          0.306   0.6172927056   0.6797337966
          0.309   0.6169611298   0.6801415261
          0.312   0.6165696097   0.6804831471
          0.315   0.6161204053   0.6807609303
          0.318   0.6156157004   0.6809770732
          0.321   0.6150576052   0.6811337019
          0.324   0.6144481587    0.681232874
          0.327   0.6137893307   0.6812765802
           0.33   0.6130830247   0.6812667467
          0.333   0.6123310794   0.6812052372
          0.336   0.6115352712   0.6810938546
          0.339   0.6106973162   0.6809343435
          0.342   0.6098188722   0.6807283914
          0.345   0.6089015404    0.680477631
          0.348   0.6079468677   0.6801836417
          0.351   0.6069563481   0.6798479513
          0.354   0.6059314249    0.679472038
          0.357   0.6048734917   0.6790573315
           0.36   0.6037838947   0.6786052148
          0.363   0.6026639342   0.6781170258
          0.366   0.6015148658   0.6775940586
          0.369   0.6003379021   0.6770375648
          0.372   0.5991342141   0.6764487553
          0.375   0.5979049328    0.675828801
          0.378     0.59665115   0.6751788349
          0.381   0.5953739204   0.6744999524
          0.384   0.5940742621   0.6737932132
          0.387   0.5927531583   0.6730596422
           0.39   0.5914115583   0.6723002307
          0.393   0.5900503785   0.6715159374
          0.396    0.588670504   0.6707076895
          0.399    0.587272789   0.6698763838
          0.402   0.5858580583   0.6690228876
          0.405   0.5844271081   0.6681480397
          0.408   0.5829807071   0.6672526512
          0.411   0.5815195972   0.6663375066
          0.414   0.5800444948   0.6654033646
          0.417   0.5785560911   0.6644509588
           0.42   0.5770550533   0.6634809988
          0.423   0.5755420257   0.6624941706
          0.426   0.5740176297   0.6614911378
          0.429   0.5724824652    0.660472542
          0.432   0.5709371113   0.6594390036
          0.435   0.5693821265   0.6583911224
          0.438   0.5678180499   0.6573294788
          0.441   0.5662454019   0.6562546335
          0.444   0.5646646842   0.6551671291
          0.447   0.5630763813     0.65406749
           0.45   0.5614809602   0.6529562233
          0.453   0.5598788717   0.6518338193
          0.456   0.5582705508   0.6507007521
          0.459   0.5566564167   0.6495574801
          0.462   0.5550368741   0.6484044465
          0.465   0.5534123132   0.6472420797
          0.468   0.5517831103   0.6460707939
          0.471   0.5501496285   0.6448909896
          0.474   0.5485122176   0.6437030541
          0.477   0.5468712152   0.6425073614
           0.48   0.5452269467   0.6413042736
          0.483   0.5435797257   0.6400941404
          0.486   0.5419298548   0.6388772998
          0.489   0.5402776255   0.6376540788
          0.492   0.5386233188   0.6364247933
          0.495   0.5369672055   0.6351897486
          0.498   0.5353095467   0.6339492399
          0.501   0.5336505939   0.6327035526
          0.504   0.5319905895   0.6314529623
          0.507   0.5303297669   0.6301977357
           0.51   0.5286683511   0.6289381302
          0.513   0.5270065588   0.6276743947
          0.516   0.5253445986   0.6264067699
          0.519   0.5236826716   0.6251354882
          0.522   0.5220209712   0.6238607743
          0.525   0.5203596839   0.6225828451
          0.528   0.5186989888   0.6213019105
          0.531   0.5170390588   0.6200181732
          0.534     0.51538006   0.6187318289
          0.537   0.5137221522   0.6174430667
           0.54   0.5120654893   0.6161520696
          0.543   0.5104102193   0.6148590141
          0.546   0.5087564846   0.6135640706
          0.549    0.507104422   0.6122674041
          0.552   0.5054541632   0.6109691736
          0.555   0.5038058347   0.6096695328
          0.558   0.5021595582   0.6083686303
          0.561   0.5005154504   0.6070666094
          0.564   0.4988736236   0.6057636086
          0.567   0.4972341858   0.6044597616
           0.57   0.4955972406   0.6031551976
          0.573   0.4939628872   0.6018500412
          0.576   0.4923312213   0.6005444127
          0.579   0.4907023344   0.5992384284
          0.582   0.4890763144   0.5979322006
          0.585   0.4874532456   0.5966258374
          0.588   0.4858332088   0.5953194434
          0.591   0.4842162815   0.5940131194
          0.594   0.4826025379    0.592706963
          0.597   0.4809920492   0.5914010679
            0.6   0.4793848834   0.5900955249
          0.603   0.4777811056   0.5887904214
          0.606   0.4761807784   0.5874858419
          0.609   0.4745839613   0.5861818676
          0.612   0.4729907113   0.5848785772
          0.615    0.471401083   0.5835760464
          0.618   0.4698151284   0.5822743481
          0.621   0.4682328972   0.5809735529
          0.624   0.4666544369   0.5796737286
          0.627   0.4650797926   0.5783749406
           0.63   0.4635090074   0.5770772521
          0.633   0.4619421224   0.5757807239
          0.636   0.4603791766   0.5744854145
          0.639   0.4588202072   0.5731913804
          0.642   0.4572652496   0.5718986761
          0.645   0.4557143372   0.5706073539
          0.648   0.4541675019   0.5693174643
          0.651   0.4526247738   0.5680290558
          0.654   0.4510861815   0.5667421754
          0.657    0.449551752   0.5654568679
           0.66   0.4480215108   0.5641731768
          0.663   0.4464954821   0.5628911438
          0.666   0.4449736885   0.5616108089
          0.669   0.4434561515   0.5603322109
          0.672    0.441942891   0.5590553868
          0.675   0.4404339259   0.5577803724
          0.678   0.4389292739   0.5565072019
          0.681   0.4374289514   0.5552359083
          0.684   0.4359329738   0.5539665233
          0.687   0.4344413553   0.5526990774
           0.69   0.4329541093   0.5514335997
          0.693   0.4314712478   0.5501701183
          0.696   0.4299927822   0.5489086601
          0.699   0.4285187229    0.547649251
          0.702   0.4270490792   0.5463919157
          0.705   0.4255838597    0.545136678
          0.708   0.4241230722   0.5438835606
          0.711   0.4226667236   0.5426325853
          0.714     0.42121482   0.5413837731
          0.717   0.4197673668   0.5401371439
           0.72   0.4183243687   0.5388927168
          0.723   0.4168858298   0.5376505102
          0.726   0.4154517532   0.5364105414
          0.729   0.4140221416   0.5351728273
          0.732   0.4125969972   0.5339373837
          0.735   0.4111763214   0.5327042258
          0.738   0.4097601149   0.5314733683
          0.741   0.4083483782   0.5302448248
          0.744    0.406941111   0.5290186087
          0.747   0.4055383126   0.5277947323
           0.75   0.4041399817   0.5265732077
          0.753   0.4027461167   0.5253540461
          0.756   0.4013567153   0.5241372583
          0.759    0.399971775   0.5229228545
          0.762   0.3985912926   0.5217108444
          0.765   0.3972152648    0.520501237
          0.768   0.3958436877   0.5192940411
          0.771    0.394476557   0.5180892647
          0.774   0.3931138683   0.5168869156
          0.777   0.3917556165   0.5156870009
           0.78   0.3904017964   0.5144895274
          0.783   0.3890524024   0.5132945016
          0.786   0.3877074285   0.5121019293
          0.789   0.3863668686   0.5109118162
          0.792   0.3850307161   0.5097241673
          0.795   0.3836989644   0.5085389876
          0.798   0.3823716063   0.5073562814
          0.801   0.3810486345   0.5061760529
          0.804   0.3797300416   0.5049983059
          0.807   0.3784158197   0.5038230437
           0.81   0.3771059609   0.5026502696
          0.813   0.3758004569   0.5014799864
          0.816   0.3744992994   0.5003121967
          0.819   0.3732024797   0.4991469026
          0.822    0.371909989   0.4979841063
          0.825   0.3706218184   0.4968238095
          0.828   0.3693379587   0.4956660136
          0.831   0.3680584005     0.49451072
          0.834   0.3667831344   0.4933579296
          0.837   0.3655121508   0.4922076432
           0.84   0.3642454399   0.4910598613
          0.843   0.3629829917   0.4899145845
          0.846   0.3617247962   0.4887718127
          0.849   0.3604708433    0.487631546
          0.852   0.3592211227   0.4864937841
          0.855   0.3579756239   0.4853585267
          0.858   0.3567343364    0.484225773
          0.861   0.3554972496   0.4830955224
          0.864   0.3542643529    0.481967774
          0.867   0.3530356353   0.4808425265
           0.87   0.3518110859   0.4797197789
          0.873   0.3505906939   0.4785995297
          0.876   0.3493744481   0.4774817774
          0.879   0.3481623374   0.4763665203
          0.882   0.3469543505   0.4752537566
          0.885   0.3457504763   0.4741434844
          0.888   0.3445507033   0.4730357017
          0.891   0.3433550201   0.4719304062
          0.894   0.3421634153   0.4708275957
          0.897   0.3409758773   0.4697272678
            0.9   0.3397923947     0.46862942
          0.903   0.3386129558   0.4675340496
          0.906   0.3374375488   0.4664411541
          0.909   0.3362661623   0.4653507306
          0.912   0.3350987843   0.4642627761
          0.915   0.3339354031   0.4631772878
          0.918    0.332776007   0.4620942626
          0.921   0.3316205841   0.4610136973
          0.924   0.3304691226   0.4599355887
          0.927   0.3293216105   0.4588599335
           0.93    0.328178036   0.4577867283
          0.933   0.3270383871   0.4567159698
          0.936   0.3259026519   0.4556476544
          0.939   0.3247708185   0.4545817785
          0.942   0.3236428748   0.4535183385
          0.945   0.3225188089   0.4524573307
          0.948   0.3213986088   0.4513987514
          0.951   0.3202822625   0.4503425968
          0.954    0.319169758   0.4492888629
          0.957   0.3180610832    0.448237546
           0.96   0.3169562261    0.447188642
          0.963   0.3158551748    0.446142147
          0.966   0.3147579172   0.4450980568
          0.969   0.3136644412   0.4440563675
          0.972   0.3125747349   0.4430170748
          0.975   0.3114887863   0.4419801747
          0.978   0.3104065833   0.4409456629
          0.981   0.3093281139   0.4399135352
          0.984   0.3082533662   0.4388837872
          0.987   0.3071823281   0.4378564148
           0.99   0.3061149877   0.4368314135
          0.993    0.305051333   0.4358087789
          0.996   0.3039913521   0.4347885068
          0.999   0.3029350329   0.4337705926
          1.002   0.3018823637   0.4327550319
          1.005   0.3008333324   0.4317418203
          1.008   0.2997879272   0.4307309531
          1.011   0.2987461362    0.429722426
          1.014   0.2977079474   0.4287162344
          1.017   0.2966733492   0.4277123736
           1.02   0.2956423296   0.4267108392
          1.023   0.2946148768   0.4257116265
          1.026    0.293590979   0.4247147309
          1.029   0.2925706245   0.4237201478
          1.032   0.2915538015   0.4227278726
          1.035   0.2905404983   0.4217379005
          1.038   0.2895307032   0.4207502269
          1.041   0.2885244044    0.419764847
          1.044   0.2875215904   0.4187817563
          1.047   0.2865222495     0.41780095
           1.05   0.2855263701   0.4168224234
          1.053   0.2845339406   0.4158461717
          1.056   0.2835449494   0.4148721902
          1.059    0.282559385   0.4139004742
          1.062   0.2815772359   0.4129310189
          1.065   0.2805984906   0.4119638195
          1.068   0.2796231376   0.4109988713
          1.071   0.2786511656   0.4100361695
          1.074    0.277682563   0.4090757093
          1.077   0.2767173186   0.4081174859
           1.08    0.275755421   0.4071614946
          1.083   0.2747968589   0.4062077306
          1.086   0.2738416209    0.405256189
          1.089   0.2728896959   0.4043068651
          1.092   0.2719410725    0.403359754
          1.095   0.2709957396    0.402414851
          1.098   0.2700536861   0.4014721513
          1.101   0.2691149007     0.40053165
          1.104   0.2681793724   0.3995933424
          1.107     0.26724709   0.3986572236
           1.11   0.2663180426   0.3977232889
          1.113    0.265392219   0.3967915334
          1.116   0.2644696084   0.3958619524
          1.119   0.2635501997    0.394934541
          1.122    0.262633982   0.3940092945
          1.125   0.2617209444    0.393086208
          1.128   0.2608110761   0.3921652767
          1.131   0.2599043662   0.3912464959
          1.134   0.2590008039   0.3903298608
          1.137   0.2581003784   0.3894153666
           1.14    0.257203079   0.3885030085
          1.143   0.2563088951   0.3875927817
          1.146   0.2554178158   0.3866846814
          1.149   0.2545298306    0.385778703
          1.152   0.2536449288   0.3848748415
          1.155   0.2527630999   0.3839730923
          1.158   0.2518843333   0.3830734505
          1.161   0.2510086185   0.3821759115
          1.164   0.2501359451   0.3812804705
          1.167   0.2492663025   0.3803871227
           1.17   0.2483996803   0.3794958635
          1.173   0.2475360682    0.378606688
          1.176   0.2466754558   0.3777195915
          1.179   0.2458178327   0.3768345694
          1.182   0.2449631888   0.3759516169
          1.185   0.2441115136   0.3750707293
          1.188   0.2432627971   0.3741919019
          1.191   0.2424170289     0.37331513
          1.194    0.241574199   0.3724404089
          1.197   0.2407342972    0.371567734
            1.2   0.2398973134   0.3706971006
          1.203   0.2390632376   0.3698285039
          1.206   0.2382320596   0.3689619394
          1.209   0.2374037696   0.3680974024
          1.212   0.2365783575   0.3672348882
          1.215   0.2357558134   0.3663743922
          1.218   0.2349361275   0.3655159098
          1.221   0.2341192897   0.3646594363
          1.224   0.2333052903   0.3638049672
          1.227   0.2324941196   0.3629524978
           1.23   0.2316857676   0.3621020235
          1.233   0.2308802247   0.3612535397
          1.236   0.2300774811   0.3604070419
          1.239   0.2292775272   0.3595625255
          1.242   0.2284803533   0.3587199859
          1.245   0.2276859499   0.3578794185
          1.248   0.2268943072   0.3570408189
          1.251   0.2261054158   0.3562041823
          1.254   0.2253192662   0.3553695044
          1.257   0.2245358488   0.3545367807
           1.26   0.2237551542   0.3537060064
          1.263    0.222977173   0.3528771773
          1.266   0.2222018958   0.3520502887
          1.269   0.2214293132   0.3512253362
          1.272   0.2206594158   0.3504023153
          1.275   0.2198921945   0.3495812215
          1.278   0.2191276398   0.3487620504
          1.281   0.2183657426   0.3479447975
          1.284   0.2176064937   0.3471294583
          1.287   0.2168498838   0.3463160284
           1.29   0.2160959039   0.3455045035
          1.293   0.2153445448    0.344694879
          1.296   0.2145957975   0.3438871505
          1.299   0.2138496528   0.3430813137
          1.302   0.2131061018   0.3422773642
          1.305   0.2123651354   0.3414752975
          1.308   0.2116267448   0.3406751093
          1.311   0.2108909209   0.3398767952
          1.314   0.2101576549    0.339080351
          1.317   0.2094269379   0.3382857721
           1.32    0.208698761   0.3374930543
          1.323   0.2079731155   0.3367021933
          1.326   0.2072499925   0.3359131847
          1.329   0.2065293834   0.3351260242
          1.332   0.2058112793   0.3343407075
          1.335   0.2050956717   0.3335572304
          1.338   0.2043825517   0.3327755885
          1.341   0.2036719109   0.3319957776
          1.344   0.2029637405   0.3312177933
          1.347   0.2022580321   0.3304416315
           1.35    0.201554777   0.3296672879
          1.353   0.2008539668   0.3288947582
          1.356    0.200155593   0.3281240383
          1.359   0.1994596471   0.3273551239
          1.362   0.1987661206   0.3265880107
          1.365   0.1980750053   0.3258226947
          1.368   0.1973862926   0.3250591715
          1.371   0.1966999744   0.3242974371
          1.374   0.1960160422   0.3235374872
          1.377   0.1953344877   0.3227793177
           1.38   0.1946553028   0.3220229244
          1.383   0.1939784791   0.3212683032
          1.386   0.1933040086   0.3205154499
          1.389   0.1926318829   0.3197643604
          1.392    0.191962094   0.3190150306
          1.395   0.1912946338   0.3182674564
          1.398   0.1906294941   0.3175216337
          1.401    0.189966667   0.3167775584
          1.404   0.1893061443   0.3160352263
          1.407    0.188647918   0.3152946335
           1.41   0.1879919803   0.3145557759
          1.413   0.1873383231   0.3138186494
          1.416   0.1866869385   0.3130832499
          1.419   0.1860378186   0.3123495735
          1.422   0.1853909556   0.3116176161
          1.425   0.1847463416   0.3108873737
          1.428   0.1841039688   0.3101588422
          1.431   0.1834638294   0.3094320178
          1.434   0.1828259157   0.3087068963
          1.437   0.1821902199   0.3079834738
           1.44   0.1815567342   0.3072617464
          1.443   0.1809254512     0.30654171
          1.446    0.180296363   0.3058233607
          1.449    0.179669462   0.3051066946
          1.452   0.1790447407   0.3043917077
          1.455   0.1784221915   0.3036783962
          1.458   0.1778018068    0.302966756
          1.461   0.1771835791   0.3022567833
          1.464   0.1765675009   0.3015484741
          1.467   0.1759535647   0.3008418246
           1.47   0.1753417632    0.300136831
          1.473   0.1747320888   0.2994334892
          1.476   0.1741245342   0.2987317955
          1.479   0.1735190921    0.298031746
          1.482    0.172915755   0.2973333369
          1.485   0.1723145156   0.2966365643
          1.488   0.1717153668   0.2959414243
          1.491   0.1711183011   0.2952479132
          1.494   0.1705233114   0.2945560272
          1.497   0.1699303905   0.2938657624
            1.5   0.1693395311   0.2931771151
          1.503   0.1687507261   0.2924900814
