<?xml version="1.1" encoding="windows-1252"?>
<svg xmlns="http://www.w3.org/2000/svg"
    xmlns:latexdraw="http://latexdraw.sourceforge.net/namespaces/latexdraw"
    version="1.1" baseProfile="full">
    <g>
        <g latexdraw:type="ellipse" id="id23799674" transform="rotate(360.3384596459964) translate(1.5013235908319302 -1.9232842553103353)">
            <ellipse cx="324.8295114737683" cy="255.11086291316963"
                rx="258.9999999999999" ry="99.00000000000001"
                latexdraw:borderPos="outer" stroke-width="2.0"
                stroke="black" fill="none"/>
        </g>
        <g latexdraw:type="ellipse" id="id16741295" transform="rotate(360.3384596459964) translate(0.9696752220145299 -1.924752306044411)">
            <ellipse cx="325.3438523353419" cy="165.11233262806908"
                rx="258.99999999999966" ry="99.00000000000003"
                latexdraw:borderPos="outer" stroke-width="2.0"
                stroke="black" fill="#ff6666"/>
        </g>
        <g latexdraw:type="text" id="id29210717" fill="black"
            latexdraw:position="bl" transform="rotate(356.67878952137926) translate(-6.262863585663467 4.147559923159818)">
            <text x="74.66292215221483" y="105.9396000738592">\Huge $R$</text>
        </g>
        <g latexdraw:type="text" id="id2926148" fill="black"
            latexdraw:position="bl" transform="rotate(361.1808756192178) translate(4.804519225723787 -0.3616699201070048)">
            <text x="15.14525015729042" y="233.2866128177233">\Huge $L$</text>
        </g>
        <g latexdraw:type="text" id="id19574938" fill="black"
            latexdraw:position="bl" transform="rotate(357.03827809492947) translate(-20.86102050722559 16.7245587223548)">
            <text x="333.90221937157486" y="395.1132364619984">\Huge $z$</text>
        </g>
        <g latexdraw:type="joinedLines" id="id24953811">
            <polyline
                points="585.3146241485504,166.59421848040984 584.7829760718828,256.59264819072496 584.7829760718828,256.59264819072496 584.7829760718828,256.59264819072496 "
                stroke-width="2.0" stroke="black" fill="none" latexdraw:rotationAngle="0.0"/>
        </g>
        <g latexdraw:type="joinedLines" id="id32792343">
            <polyline
                points="65.32369693339496,163.5224740374407 64.79204885672641,253.52090374775696 64.79204885672641,253.52090374775696 64.79204885672641,253.52090374775696 "
                stroke-width="2.0" stroke="black" fill="none" latexdraw:rotationAngle="0.0"/>
        </g>
        <g latexdraw:type="text" id="id642750" fill="black"
            latexdraw:position="bl" transform="rotate(900.094223269374) translate(-630.6878388295065 -349.47540810661485)">
            <text x="315.20024075631414" y="174.9969966400672">\Huge 0</text>
        </g>
        <g latexdraw:type="joinedLines" id="id18492431">
            <polyline points="320.0,360.0 320.0,170.0 320.0,170.0 "
                stroke-width="2.0" stroke="black" fill="none"
                stroke-dasharray="8.819444444444445, 5.291666666666667" latexdraw:rotationAngle="0.0"/>
        </g>
        <g latexdraw:type="joinedLines" id="id18764636">
            <polyline points="320.0,350.0 320.0,440.0 "
                stroke-width="2.0" stroke="black"
                latexdraw:rotationAngle="0.0" marker-end="url(#arrow1-18764636)"/>
        </g>
        <g latexdraw:type="joinedLines" id="id26754824">
            <polyline points="320.0,170.0 90.0,120.0 "
                stroke-width="2.0" stroke="black"
                latexdraw:rotationAngle="0.0" marker-end="url(#arrow1-26754824)"/>
        </g>
        <g latexdraw:type="joinedLines" id="id14832435">
            <polyline points="180.0,290.0 100.0,420.0 "
                stroke-width="2.0" stroke="#ff0033"
                latexdraw:rotationAngle="0.0"
                marker-start="url(#arrow0-14832435)" marker-end="url(#arrow1-14832435)"/>
        </g>
        <g latexdraw:type="joinedLines" id="id24241619">
            <polyline points="400.0,280.0 400.0,450.0 "
                stroke-width="2.0" stroke="#ff0033"
                latexdraw:rotationAngle="0.0"
                marker-start="url(#arrow0-24241619)" marker-end="url(#arrow1-24241619)"/>
        </g>
        <g latexdraw:type="joinedLines" id="id5190710">
            <polyline points="390.0,160.0 390.0,10.0 "
                stroke-width="2.0" stroke="#ff0033"
                latexdraw:rotationAngle="0.0"
                marker-start="url(#arrow0-5190710)" marker-end="url(#arrow1-5190710)"/>
        </g>
        <g latexdraw:type="text" id="id3290827" fill="black"
            latexdraw:position="bl" transform="rotate(361.1808756192178) translate(8.429133963888887 -8.64338208369793)">
            <text x="415.14525015729043" y="413.28661281772327">\Huge $H_L$</text>
        </g>
        <g latexdraw:type="text" id="id6313352" fill="black"
            latexdraw:position="bl" transform="rotate(361.7275689486523) translate(3.83406718035161 -12.274576757373353)">
            <text x="405.14525015729043" y="133.28661281772327">\Huge $H_0$</text>
        </g>
        <g latexdraw:type="text" id="id5401323" fill="black"
            latexdraw:position="bl" transform="rotate(361.1808756192178) translate(7.473032233368144 -1.419715004092211)">
            <text x="65.14525015729043" y="363.28661281772327">\Huge $H_r$</text>
        </g>
    </g>
    <defs>
        <marker overflow="visible" orient="auto" id="arrow1-18764636">
            <path
                d="M 0.0 0.0 L -13.052083333333334 4.661458333333334 L -13.052083333333334 0.0 L -13.052083333333334 -4.661458333333334 z "
                latexdraw:arrSizeNum="8.0" fill="black"/>
        </marker>
        <marker overflow="visible" orient="auto" id="arrow1-26754824">
            <path
                d="M 0.0 0.0 L -13.052083333333334 4.661458333333334 L -13.052083333333334 0.0 L -13.052083333333334 -4.661458333333334 z "
                latexdraw:arrSizeNum="8.0" fill="black"/>
        </marker>
        <marker overflow="visible" orient="auto" id="arrow0-14832435">
            <path d="M 0.5 -4.881944444444445 L 0.5 4.881944444444445 "
                latexdraw:tbarSizeNum="8.0" stroke="#ff0033" fill="none" stroke-width="1.0"/>
        </marker>
        <marker overflow="visible" orient="auto" id="arrow1-14832435">
            <path
                d="M 0.0 0.0 L -11.654999999999998 4.1625 L -11.654999999999998 0.0 L -11.654999999999998 -4.1625 z "
                latexdraw:arrSizeNum="2.0" fill="#ff0033"/>
        </marker>
        <marker overflow="visible" orient="auto" id="arrow0-24241619">
            <path
                d="M 0.5 -3.3819444444444446 L 0.5 3.3819444444444446 "
                latexdraw:tbarSizeNum="5.0" stroke="#ff0033" fill="none" stroke-width="1.0"/>
        </marker>
        <marker overflow="visible" orient="auto" id="arrow1-24241619">
            <path
                d="M 0.0 0.0 L -11.654999999999998 4.1625 L -11.654999999999998 0.0 L -11.654999999999998 -4.1625 z "
                latexdraw:arrSizeNum="2.0" fill="#ff0033"/>
        </marker>
        <marker overflow="visible" orient="auto" id="arrow0-5190710">
            <path
                d="M 0.5 -3.3819444444444446 L 0.5 3.3819444444444446 "
                latexdraw:tbarSizeNum="5.0" stroke="#ff0033" fill="none" stroke-width="1.0"/>
        </marker>
        <marker overflow="visible" orient="auto" id="arrow1-5190710">
            <path
                d="M 0.0 0.0 L -11.654999999999998 4.1625 L -11.654999999999998 0.0 L -11.654999999999998 -4.1625 z "
                latexdraw:arrSizeNum="2.0" fill="#ff0033"/>
        </marker>
    </defs>
    <metadata>
        <latexdraw:metadata>
            <latexdraw:latexIncludes/>
            <latexdraw:displayXScale>true</latexdraw:displayXScale>
            <latexdraw:displayYScale>true</latexdraw:displayYScale>
            <latexdraw:unit>CM</latexdraw:unit>
            <latexdraw:zoom>1.0</latexdraw:zoom>
            <latexdraw:magneticGridStyle>CUSTOMISED</latexdraw:magneticGridStyle>
            <latexdraw:gridGap>10</latexdraw:gridGap>
            <latexdraw:magneticGrid>true</latexdraw:magneticGrid>
            <latexdraw:version>3.3.5</latexdraw:version>
            <latexdraw:size>
                <latexdraw:width>1696</latexdraw:width>
                <latexdraw:height>1026</latexdraw:height>
            </latexdraw:size>
            <latexdraw:position>
                <latexdraw:x>-8.0</latexdraw:x>
                <latexdraw:y>-8.0</latexdraw:y>
            </latexdraw:position>
        </latexdraw:metadata>
    </metadata>
</svg>
