%!PS-Adobe-3.0 EPSF-3.0
%%DocumentNeededResources: font Helvetica
%%+ font Helvetica-Bold
%%+ font Helvetica-Oblique
%%+ font Helvetica-BoldOblique
%%+ font Symbol
%%Title: R Graphics Output
%%Creator: R Software
%%Pages: (atend)
%%BoundingBox: 0 0 366 223
%%EndComments
%%BeginProlog
/bp  { gs sRGB gs } def
% begin .ps.prolog
/gs  { gsave } bind def
/gr  { grestore } bind def
/ep  { showpage gr gr } bind def
/m   { moveto } bind def
/l  { rlineto } bind def
/np  { newpath } bind def
/cp  { closepath } bind def
/f   { fill } bind def
/o   { stroke } bind def
/c   { newpath 0 360 arc } bind def
/r   { 4 2 roll moveto 1 copy 3 -1 roll exch 0 exch rlineto 0 rlineto -1 mul 0 exch rlineto closepath } bind def
/p1  { stroke } bind def
/p2  { gsave bg fill grestore newpath } bind def
/p3  { gsave bg fill grestore stroke } bind def
/p6  { gsave bg eofill grestore newpath } bind def
/p7  { gsave bg eofill grestore stroke } bind def
/t   { 5 -2 roll moveto gsave rotate
       1 index stringwidth pop
       mul neg 0 rmoveto show grestore } bind def
/ta  { 4 -2 roll moveto gsave rotate show } bind def
/tb  { 2 -1 roll 0 rmoveto show } bind def
/cl  { grestore gsave newpath 3 index 3 index moveto 1 index
       4 -1 roll lineto  exch 1 index lineto lineto
       closepath clip newpath } bind def
/rgb { setrgbcolor } bind def
/s   { scalefont setfont } bind def
% end   .ps.prolog
/sRGB { [ /CIEBasedABC
          << /DecodeLMN
               [ { dup 0.03928 le
                        {12.92321 div}
                        {0.055 add 1.055 div 2.4 exp }
                     ifelse
                 } bind dup dup
               ]
             /MatrixLMN [0.412457 0.212673 0.019334
                         0.357576 0.715152 0.119192
                         0.180437 0.072175 0.950301]
             /WhitePoint [0.9505 1.0 1.0890]
           >>
         ] setcolorspace } bind def
/srgb { setcolor } bind def
% begin encoding
/WinAnsiEncoding [
 /.notdef /.notdef /.notdef /.notdef /.notdef /.notdef /.notdef /.notdef
 /.notdef /.notdef /.notdef /.notdef /.notdef /.notdef /.notdef /.notdef
 /.notdef /.notdef /.notdef /.notdef /.notdef /.notdef /.notdef /.notdef
 /.notdef /.notdef /.notdef /.notdef /.notdef /.notdef /.notdef /.notdef
 /space /exclam /quotedbl /numbersign /dollar /percent /ampersand /quoteright
 /parenleft /parenright /asterisk /plus /comma /minus /period /slash
 /zero /one /two /three /four /five /six /seven
 /eight /nine /colon /semicolon /less /equal /greater /question
 /at /A /B /C /D /E /F /G
 /H /I /J /K /L /M /N /O
 /P /Q /R /S /T /U /V /W
 /X /Y /Z /bracketleft /backslash /bracketright /asciicircum /underscore
 /grave /a /b /c /d /e /f /g
 /h /i /j /k /l /m /n /o
 /p /q /r /s /t /u /v /w
 /x /y /z /braceleft /bar /braceright /asciitilde /.notdef
 /Euro /.notdef /quotesinglbase /florin /quotedblbase /ellipsis /dagger /daggerdbl
 /circumflex /perthousand /Scaron /guilsinglleft /OE /.notdef /Zcaron /.notdef
 /.notdef /quoteleft /quoteright /quotedblleft /quotedblright /bullet /endash /emdash
 /tilde /trademark /scaron /guilsinglright /oe /.notdef /zcaron /Ydieresis
 /space /exclamdown /cent /sterling /currency /yen /brokenbar /section
 /dieresis /copyright /ordfeminine /guillemotleft /logicalnot /hyphen /registered /macron
 /degree /plusminus /twosuperior /threesuperior /acute /mu /paragraph /periodcentered
 /cedilla /onesuperior /ordmasculine /guillemotright /onequarter /onehalf /threequarters /questiondown
 /Agrave /Aacute /Acircumflex /Atilde /Adieresis /Aring /AE /Ccedilla
 /Egrave /Eacute /Ecircumflex /Edieresis /Igrave /Iacute /Icircumflex /Idieresis
 /Eth /Ntilde /Ograve /Oacute /Ocircumflex /Otilde /Odieresis /multiply
 /Oslash /Ugrave /Uacute /Ucircumflex /Udieresis /Yacute /Thorn /germandbls
 /agrave /aacute /acircumflex /atilde /adieresis /aring /ae /ccedilla
 /egrave /eacute /ecircumflex /edieresis /igrave /iacute /icircumflex /idieresis
 /eth /ntilde /ograve /oacute /ocircumflex /otilde /odieresis /divide
 /oslash /ugrave /uacute /ucircumflex /udieresis /yacute /thorn /ydieresis
]
 def
% end encoding
%%IncludeResource: font Helvetica
/Helvetica findfont
dup length dict begin
  {1 index /FID ne {def} {pop pop} ifelse} forall
  /Encoding WinAnsiEncoding def
  currentdict
  end
/Font1 exch definefont pop
%%IncludeResource: font Helvetica-Bold
/Helvetica-Bold findfont
dup length dict begin
  {1 index /FID ne {def} {pop pop} ifelse} forall
  /Encoding WinAnsiEncoding def
  currentdict
  end
/Font2 exch definefont pop
%%IncludeResource: font Helvetica-Oblique
/Helvetica-Oblique findfont
dup length dict begin
  {1 index /FID ne {def} {pop pop} ifelse} forall
  /Encoding WinAnsiEncoding def
  currentdict
  end
/Font3 exch definefont pop
%%IncludeResource: font Helvetica-BoldOblique
/Helvetica-BoldOblique findfont
dup length dict begin
  {1 index /FID ne {def} {pop pop} ifelse} forall
  /Encoding WinAnsiEncoding def
  currentdict
  end
/Font4 exch definefont pop
%%IncludeResource: font Symbol
/Symbol findfont
dup length dict begin
  {1 index /FID ne {def} {pop pop} ifelse} forall
  currentdict
  end
/Font5 exch definefont pop
%%EndProlog
%%Page: 1 1
bp
0.00 0.00 366.00 222.75 cl
0.00 0.00 366.00 222.75 cl
0.00 0.00 366.00 222.75 cl
0.00 0.00 366.00 222.75 cl
0.00 0.00 366.00 222.75 cl
0.00 0.00 366.00 222.75 cl
0.00 0.00 366.00 222.75 cl
0.00 0.00 366.00 222.75 cl
0.00 0.00 366.00 222.75 cl
/bg { 1 1 1 srgb } def
1 1 1 srgb
1.07 setlinewidth
[] 0 setdash
1 setlinecap
1 setlinejoin
10.00 setmiterlimit
0.00 0.00 366.00 222.75 r p3
0.00 0.00 366.00 222.75 cl
0.00 0.00 366.00 222.75 cl
0.00 0.00 366.00 222.75 cl
37.39 31.35 292.32 217.27 cl
/bg { 0.9216 0.9216 0.9216 srgb } def
37.39 31.35 254.92 185.92 r p2
1 1 1 srgb
0.53 setlinewidth
[] 0 setdash
0 setlinecap
1 setlinejoin
10.00 setmiterlimit
np
37.39 60.66 m
254.93 0 l
o
np
37.39 102.39 m
254.93 0 l
o
np
37.39 144.12 m
254.93 0 l
o
np
37.39 185.84 m
254.93 0 l
o
np
37.39 31.35 m
0 185.92 l
o
np
109.20 31.35 m
0 185.92 l
o
np
181.01 31.35 m
0 185.92 l
o
np
252.82 31.35 m
0 185.92 l
o
1.07 setlinewidth
[] 0 setdash
np
37.39 39.80 m
254.93 0 l
o
np
37.39 81.52 m
254.93 0 l
o
np
37.39 123.25 m
254.93 0 l
o
np
37.39 164.98 m
254.93 0 l
o
np
37.39 206.71 m
254.93 0 l
o
np
73.30 31.35 m
0 185.92 l
o
np
145.11 31.35 m
0 185.92 l
o
np
216.92 31.35 m
0 185.92 l
o
np
288.73 31.35 m
0 185.92 l
o
1 0.3882 0.2784 srgb
1.00 setmiterlimit
np
37.39 39.80 m
0.86 0 l
0.85 0 l
0.85 0 l
0.85 0 l
0.86 0 l
0.85 0 l
0.85 0 l
0.86 0 l
0.85 0 l
0.85 0 l
0.85 0 l
0.86 0 l
0.85 0 l
0.85 0 l
0.85 0 l
0.86 0 l
0.85 0 l
0.85 0 l
0.85 0 l
0.86 0 l
0.85 0 l
0.85 0 l
0.85 0 l
0.86 0 l
0.85 0 l
0.85 0 l
0.85 0 l
0.86 0 l
0.85 0 l
0.85 0 l
0.85 0 l
0.86 0 l
0.85 0 l
0.85 0 l
0.85 0 l
0.86 0 l
0.85 0 l
0.85 0 l
0.86 0 l
0.85 0 l
0.85 0 l
0.85 0 l
0.86 0 l
0.85 0 l
0.85 0 l
0.85 0 l
0.86 0 l
0.85 0 l
0.85 0 l
0.85 0.01 l
0.86 0.02 l
0.85 0.06 l
0.85 0.12 l
0.85 0.21 l
0.86 0.34 l
0.85 0.49 l
0.85 0.65 l
0.85 0.85 l
0.86 1.04 l
0.85 1.24 l
0.85 1.43 l
0.85 1.62 l
0.86 1.80 l
0.85 1.96 l
0.85 2.11 l
0.86 2.25 l
0.85 2.37 l
0.85 2.47 l
0.85 2.56 l
0.86 2.64 l
0.85 2.71 l
0.85 2.75 l
0.85 2.80 l
0.86 2.83 l
0.85 2.85 l
0.85 2.86 l
0.85 2.86 l
0.86 2.87 l
0.85 2.85 l
0.85 2.84 l
0.85 2.82 l
0.86 2.80 l
0.85 2.77 l
0.85 2.73 l
0.85 2.70 l
0.86 2.67 l
0.85 2.62 l
0.85 2.58 l
0.85 2.54 l
0.86 2.50 l
0.85 2.44 l
0.85 2.41 l
0.86 2.35 l
0.85 2.30 l
0.85 2.26 l
0.85 2.21 l
0.86 2.16 l
0.85 2.11 l
0.85 2.06 l
122.65 143.30 lineto
0.86 1.96 l
0.85 1.92 l
0.85 1.87 l
0.85 1.82 l
0.86 1.77 l
0.85 1.73 l
0.85 1.68 l
0.85 1.64 l
0.86 1.60 l
0.85 1.55 l
0.85 1.51 l
0.85 1.46 l
0.86 1.43 l
0.85 1.38 l
0.85 1.35 l
0.85 1.31 l
0.86 1.27 l
0.85 1.23 l
0.85 1.19 l
0.86 1.16 l
0.85 1.13 l
0.85 1.09 l
0.85 1.06 l
0.86 1.02 l
0.85 0.99 l
0.85 0.96 l
0.85 0.94 l
0.86 0.90 l
0.85 0.87 l
0.85 0.84 l
0.85 0.82 l
0.86 0.79 l
0.85 0.76 l
0.85 0.74 l
0.85 0.71 l
0.86 0.69 l
0.85 0.66 l
0.85 0.65 l
0.85 0.61 l
0.86 0.60 l
0.85 0.57 l
0.85 0.56 l
0.85 0.53 l
0.86 0.51 l
0.85 0.50 l
0.85 0.47 l
0.85 0.46 l
0.86 0.44 l
0.85 0.42 l
0.85 0.40 l
0.86 0.39 l
0.85 0.37 l
0.85 0.36 l
0.85 0.34 l
0.86 0.32 l
0.85 0.31 l
0.85 0.30 l
0.85 0.28 l
0.86 0.27 l
0.85 0.26 l
0.85 0.24 l
0.85 0.23 l
0.86 0.22 l
0.85 0.21 l
0.85 0.20 l
0.85 0.18 l
0.86 0.18 l
0.85 0.16 l
0.85 0.15 l
0.85 0.15 l
0.86 0.13 l
0.85 0.12 l
0.85 0.12 l
0.85 0.10 l
0.86 0.10 l
0.85 0.09 l
0.85 0.08 l
0.86 0.07 l
0.85 0.07 l
0.85 0.06 l
0.85 0.05 l
0.86 0.04 l
0.85 0.04 l
0.85 0.02 l
0.85 0.03 l
0.86 0.01 l
0.85 0.01 l
0.85 0.01 l
0.85 -0.01 l
0.86 0 l
0.85 -0.02 l
0.85 -0.02 l
0.85 -0.02 l
0.86 -0.03 l
0.85 -0.03 l
0.85 -0.04 l
0.85 -0.05 l
0.86 -0.05 l
0.85 -0.05 l
207.91 201.71 lineto
0.85 -0.06 l
0.86 -0.06 l
0.85 -0.07 l
0.85 -0.08 l
0.86 -0.07 l
0.85 -0.08 l
0.85 -0.09 l
0.85 -0.09 l
0.86 -0.09 l
0.85 -0.09 l
0.85 -0.10 l
0.85 -0.10 l
0.86 -0.10 l
0.85 -0.11 l
0.85 -0.11 l
0.85 -0.11 l
0.86 -0.12 l
0.85 -0.11 l
0.85 -0.12 l
0.85 -0.13 l
0.86 -0.12 l
0.85 -0.13 l
0.85 -0.13 l
0.85 -0.13 l
0.86 -0.13 l
0.85 -0.14 l
0.85 -0.13 l
0.85 -0.14 l
0.86 -0.14 l
0.85 -0.15 l
0.85 -0.14 l
0.86 -0.15 l
0.85 -0.14 l
0.85 -0.15 l
0.85 -0.15 l
0.86 -0.16 l
0.85 -0.15 l
0.85 -0.16 l
0.85 -0.15 l
0.86 -0.16 l
0.85 -0.16 l
0.85 -0.16 l
0.85 -0.16 l
0.86 -0.16 l
0.85 -0.17 l
0.85 -0.16 l
0.85 -0.17 l
0.86 -0.16 l
0.85 -0.17 l
0.85 -0.17 l
0.85 -0.17 l
0.86 -0.17 l
0.85 -0.17 l
0.85 -0.18 l
0.85 -0.17 l
0.86 -0.17 l
0.85 -0.18 l
0.85 -0.17 l
0.85 -0.18 l
0.86 -0.17 l
0.85 -0.18 l
0.85 -0.18 l
0.86 -0.18 l
0.85 -0.18 l
0.85 -0.18 l
0.85 -0.18 l
0.86 -0.18 l
0.85 -0.18 l
0.85 -0.18 l
0.85 -0.18 l
0.86 -0.18 l
0.85 -0.18 l
0.85 -0.19 l
0.85 -0.18 l
0.86 -0.18 l
0.85 -0.19 l
0.85 -0.18 l
0.85 -0.19 l
0.86 -0.18 l
0.85 -0.19 l
0.85 -0.18 l
0.85 -0.19 l
0.86 -0.18 l
0.85 -0.19 l
0.85 -0.19 l
0.85 -0.18 l
0.86 -0.19 l
0.85 -0.19 l
0.85 -0.18 l
0.86 -0.19 l
0.85 -0.19 l
0.85 -0.19 l
0.85 -0.18 l
0.86 -0.19 l
0.85 -0.19 l
0.85 -0.19 l
0.85 -0.19 l
0.86 -0.18 l
0.85 -0.19 l
o
0.8039 0.7451 0.4392 srgb
np
37.39 39.80 m
0.86 0 l
0.85 0 l
0.85 0 l
0.85 0 l
0.86 0 l
0.85 0 l
0.85 0 l
0.86 0 l
0.85 0 l
0.85 0 l
0.85 0 l
0.86 0 l
0.85 0 l
0.85 0 l
0.85 0 l
0.86 0 l
0.85 0 l
0.85 0 l
0.85 0 l
0.86 0 l
0.85 0 l
0.85 0 l
0.85 0 l
0.86 0 l
0.85 0 l
0.85 0 l
0.85 0 l
0.86 0 l
0.85 0 l
0.85 0 l
0.85 0 l
0.86 0 l
0.85 0 l
0.85 0 l
0.85 0 l
0.86 0 l
0.85 0 l
0.85 0 l
0.86 0 l
0.85 0 l
0.85 0 l
0.85 0 l
0.86 0 l
0.85 0 l
0.85 0 l
0.85 0 l
0.86 0.02 l
0.85 0.07 l
0.85 0.19 l
0.85 0.36 l
0.86 0.56 l
0.85 0.81 l
0.85 1.06 l
0.85 1.30 l
0.86 1.54 l
0.85 1.77 l
0.85 1.96 l
0.85 2.14 l
0.86 2.30 l
0.85 2.44 l
0.85 2.55 l
0.85 2.65 l
0.86 2.73 l
0.85 2.80 l
0.85 2.86 l
0.86 2.89 l
0.85 2.93 l
0.85 2.94 l
0.85 2.95 l
0.86 2.96 l
0.85 2.95 l
0.85 2.93 l
0.85 2.93 l
0.86 2.90 l
0.85 2.87 l
0.85 2.84 l
0.85 2.81 l
0.86 2.77 l
0.85 2.73 l
0.85 2.68 l
0.85 2.65 l
0.86 2.60 l
0.85 2.55 l
0.85 2.50 l
0.85 2.46 l
0.86 2.40 l
0.85 2.36 l
0.85 2.31 l
0.85 2.25 l
0.86 2.21 l
0.85 2.15 l
0.85 2.10 l
0.86 2.06 l
0.85 2.00 l
0.85 1.95 l
0.85 1.91 l
0.86 1.86 l
0.85 1.81 l
0.85 1.76 l
122.65 156.60 lineto
0.86 1.67 l
0.85 1.62 l
0.85 1.58 l
0.85 1.54 l
0.86 1.50 l
0.85 1.45 l
0.85 1.41 l
0.85 1.38 l
0.86 1.33 l
0.85 1.29 l
0.85 1.26 l
0.85 1.21 l
0.86 1.19 l
0.85 1.14 l
0.85 1.11 l
0.85 1.08 l
0.86 1.05 l
0.85 1.01 l
0.85 0.98 l
0.86 0.95 l
0.85 0.92 l
0.85 0.89 l
0.85 0.86 l
0.86 0.83 l
0.85 0.80 l
0.85 0.78 l
0.85 0.75 l
0.86 0.73 l
0.85 0.70 l
0.85 0.68 l
0.85 0.65 l
0.86 0.63 l
0.85 0.61 l
0.85 0.59 l
0.85 0.56 l
0.86 0.55 l
0.85 0.52 l
0.85 0.50 l
0.85 0.49 l
0.86 0.46 l
0.85 0.45 l
0.85 0.43 l
0.85 0.41 l
0.86 0.40 l
0.85 0.38 l
0.85 0.36 l
0.85 0.35 l
0.86 0.33 l
0.85 0.32 l
0.85 0.30 l
0.86 0.29 l
0.85 0.28 l
0.85 0.26 l
0.85 0.25 l
0.86 0.24 l
0.85 0.22 l
0.85 0.21 l
0.85 0.21 l
0.86 0.19 l
0.85 0.17 l
0.85 0.17 l
0.85 0.16 l
0.86 0.15 l
0.85 0.13 l
0.85 0.13 l
0.85 0.12 l
0.86 0.11 l
0.85 0.10 l
0.85 0.09 l
0.85 0.09 l
0.86 0.07 l
0.85 0.07 l
0.85 0.06 l
0.85 0.05 l
0.86 0.05 l
0.85 0.04 l
0.85 0.03 l
0.86 0.02 l
0.85 0.02 l
0.85 0.01 l
0.85 0.01 l
0.86 0 l
0.85 -0.01 l
0.85 -0.01 l
0.85 -0.02 l
0.86 -0.02 l
0.85 -0.03 l
0.85 -0.03 l
0.85 -0.04 l
0.86 -0.04 l
0.85 -0.05 l
0.85 -0.05 l
0.85 -0.06 l
0.86 -0.06 l
0.85 -0.07 l
0.85 -0.07 l
0.85 -0.07 l
0.86 -0.08 l
0.85 -0.08 l
207.91 202.71 lineto
0.85 -0.09 l
0.86 -0.09 l
0.85 -0.09 l
0.85 -0.10 l
0.86 -0.10 l
0.85 -0.11 l
0.85 -0.10 l
0.85 -0.11 l
0.86 -0.11 l
0.85 -0.12 l
0.85 -0.12 l
0.85 -0.12 l
0.86 -0.12 l
0.85 -0.12 l
0.85 -0.13 l
0.85 -0.13 l
0.86 -0.13 l
0.85 -0.14 l
0.85 -0.13 l
0.85 -0.14 l
0.86 -0.14 l
0.85 -0.14 l
0.85 -0.15 l
0.85 -0.14 l
0.86 -0.15 l
0.85 -0.15 l
0.85 -0.15 l
0.85 -0.15 l
0.86 -0.15 l
0.85 -0.16 l
0.85 -0.15 l
0.86 -0.16 l
0.85 -0.16 l
0.85 -0.16 l
0.85 -0.16 l
0.86 -0.16 l
0.85 -0.17 l
0.85 -0.16 l
0.85 -0.17 l
0.86 -0.17 l
0.85 -0.17 l
0.85 -0.16 l
0.85 -0.17 l
0.86 -0.18 l
0.85 -0.17 l
0.85 -0.17 l
0.85 -0.17 l
0.86 -0.18 l
0.85 -0.17 l
0.85 -0.18 l
0.85 -0.18 l
0.86 -0.17 l
0.85 -0.18 l
0.85 -0.18 l
0.85 -0.18 l
0.86 -0.18 l
0.85 -0.18 l
0.85 -0.18 l
0.85 -0.18 l
0.86 -0.18 l
0.85 -0.19 l
0.85 -0.18 l
0.86 -0.18 l
0.85 -0.19 l
0.85 -0.18 l
0.85 -0.18 l
0.86 -0.19 l
0.85 -0.18 l
0.85 -0.19 l
0.85 -0.19 l
0.86 -0.18 l
0.85 -0.19 l
0.85 -0.19 l
0.85 -0.18 l
0.86 -0.19 l
0.85 -0.19 l
0.85 -0.19 l
0.85 -0.18 l
0.86 -0.19 l
0.85 -0.19 l
0.85 -0.19 l
0.85 -0.19 l
0.86 -0.19 l
0.85 -0.18 l
0.85 -0.19 l
0.85 -0.19 l
0.86 -0.19 l
0.85 -0.19 l
0.85 -0.19 l
0.86 -0.19 l
0.85 -0.19 l
0.85 -0.19 l
0.85 -0.19 l
0.86 -0.19 l
0.85 -0.19 l
0.85 -0.19 l
0.85 -0.19 l
0.86 -0.19 l
0.85 -0.19 l
o
0.5608 0.7373 0.5608 srgb
np
37.39 39.80 m
0.86 0 l
0.85 0 l
0.85 0 l
0.85 0 l
0.86 0 l
0.85 0 l
0.85 0 l
0.86 0 l
0.85 0 l
0.85 0 l
0.85 0 l
0.86 0 l
0.85 0 l
0.85 0 l
0.85 0 l
0.86 0 l
0.85 0 l
0.85 0 l
0.85 0 l
0.86 0 l
0.85 0 l
0.85 0 l
0.85 0 l
0.86 0 l
0.85 0 l
0.85 0 l
0.85 0 l
0.86 0 l
0.85 0 l
0.85 0 l
0.85 0 l
0.86 0 l
0.85 0 l
0.85 0 l
0.85 0 l
0.86 0 l
0.85 0 l
0.85 0 l
0.86 0 l
0.85 0 l
0.85 0 l
0.85 0 l
0.86 0 l
0.85 0 l
0.85 0 l
0.85 0.06 l
0.86 0.23 l
0.85 0.52 l
0.85 0.89 l
0.85 1.26 l
0.86 1.63 l
0.85 1.95 l
0.85 2.24 l
0.85 2.46 l
0.86 2.65 l
0.85 2.80 l
0.85 2.92 l
0.85 3.00 l
0.86 3.07 l
0.85 3.12 l
0.85 3.15 l
0.85 3.16 l
0.86 3.17 l
0.85 3.16 l
0.85 3.15 l
0.86 3.13 l
0.85 3.11 l
0.85 3.07 l
0.85 3.04 l
0.86 2.99 l
0.85 2.96 l
0.85 2.91 l
0.85 2.87 l
0.86 2.81 l
0.85 2.77 l
0.85 2.71 l
0.85 2.66 l
0.86 2.61 l
0.85 2.56 l
0.85 2.50 l
0.85 2.44 l
0.86 2.39 l
0.85 2.34 l
0.85 2.28 l
0.85 2.23 l
0.86 2.17 l
0.85 2.13 l
0.85 2.07 l
0.85 2.01 l
0.86 1.97 l
0.85 1.91 l
0.85 1.87 l
0.86 1.81 l
0.85 1.77 l
0.85 1.72 l
0.85 1.67 l
0.86 1.63 l
0.85 1.58 l
0.85 1.54 l
122.65 166.11 lineto
0.86 1.45 l
0.85 1.41 l
0.85 1.37 l
0.85 1.33 l
0.86 1.29 l
0.85 1.25 l
0.85 1.21 l
0.85 1.18 l
0.86 1.14 l
0.85 1.11 l
0.85 1.07 l
0.85 1.04 l
0.86 1.00 l
0.85 0.98 l
0.85 0.94 l
0.85 0.91 l
0.86 0.89 l
0.85 0.85 l
0.85 0.83 l
0.86 0.79 l
0.85 0.78 l
0.85 0.74 l
0.85 0.72 l
0.86 0.70 l
0.85 0.67 l
0.85 0.65 l
0.85 0.62 l
0.86 0.60 l
0.85 0.58 l
0.85 0.56 l
0.85 0.54 l
0.86 0.52 l
0.85 0.49 l
0.85 0.48 l
0.85 0.46 l
0.86 0.45 l
0.85 0.42 l
0.85 0.41 l
0.85 0.39 l
0.86 0.37 l
0.85 0.36 l
0.85 0.34 l
0.85 0.33 l
0.86 0.31 l
0.85 0.30 l
0.85 0.29 l
0.85 0.27 l
0.86 0.25 l
0.85 0.25 l
0.85 0.23 l
0.86 0.22 l
0.85 0.21 l
0.85 0.20 l
0.85 0.18 l
0.86 0.18 l
0.85 0.16 l
0.85 0.15 l
0.85 0.15 l
0.86 0.13 l
0.85 0.12 l
0.85 0.12 l
0.85 0.10 l
0.86 0.10 l
0.85 0.09 l
0.85 0.08 l
0.85 0.07 l
0.86 0.07 l
0.85 0.05 l
0.85 0.05 l
0.85 0.04 l
0.86 0.04 l
0.85 0.03 l
0.85 0.02 l
0.85 0.01 l
0.86 0.01 l
0.85 0 l
0.85 0 l
0.86 -0.01 l
0.85 -0.01 l
0.85 -0.03 l
0.85 -0.02 l
0.86 -0.03 l
0.85 -0.04 l
0.85 -0.04 l
0.85 -0.05 l
0.86 -0.05 l
0.85 -0.05 l
0.85 -0.06 l
0.85 -0.06 l
0.86 -0.07 l
0.85 -0.07 l
0.85 -0.08 l
0.85 -0.08 l
0.86 -0.08 l
0.85 -0.09 l
0.85 -0.09 l
0.85 -0.09 l
0.86 -0.10 l
0.85 -0.10 l
207.91 203.41 lineto
0.85 -0.11 l
0.86 -0.11 l
0.85 -0.11 l
0.85 -0.11 l
0.86 -0.12 l
0.85 -0.12 l
0.85 -0.12 l
0.85 -0.13 l
0.86 -0.12 l
0.85 -0.13 l
0.85 -0.13 l
0.85 -0.14 l
0.86 -0.13 l
0.85 -0.14 l
0.85 -0.14 l
0.85 -0.14 l
0.86 -0.15 l
0.85 -0.14 l
0.85 -0.15 l
0.85 -0.15 l
0.86 -0.15 l
0.85 -0.15 l
0.85 -0.16 l
0.85 -0.15 l
0.86 -0.16 l
0.85 -0.16 l
0.85 -0.16 l
0.85 -0.16 l
0.86 -0.16 l
0.85 -0.16 l
0.85 -0.17 l
0.86 -0.16 l
0.85 -0.17 l
0.85 -0.17 l
0.85 -0.17 l
0.86 -0.17 l
0.85 -0.17 l
0.85 -0.17 l
0.85 -0.17 l
0.86 -0.18 l
0.85 -0.17 l
0.85 -0.18 l
0.85 -0.17 l
0.86 -0.18 l
0.85 -0.18 l
0.85 -0.17 l
0.85 -0.18 l
0.86 -0.18 l
0.85 -0.18 l
0.85 -0.18 l
0.85 -0.19 l
0.86 -0.18 l
0.85 -0.18 l
0.85 -0.18 l
0.85 -0.19 l
0.86 -0.18 l
0.85 -0.19 l
0.85 -0.18 l
0.85 -0.19 l
0.86 -0.18 l
0.85 -0.19 l
0.85 -0.18 l
0.86 -0.19 l
0.85 -0.19 l
0.85 -0.19 l
0.85 -0.18 l
0.86 -0.19 l
0.85 -0.19 l
0.85 -0.19 l
0.85 -0.19 l
0.86 -0.19 l
0.85 -0.19 l
0.85 -0.19 l
0.85 -0.19 l
0.86 -0.19 l
0.85 -0.19 l
0.85 -0.19 l
0.85 -0.19 l
0.86 -0.19 l
0.85 -0.19 l
0.85 -0.19 l
0.85 -0.19 l
0.86 -0.19 l
0.85 -0.19 l
0.85 -0.19 l
0.85 -0.19 l
0.86 -0.19 l
0.85 -0.20 l
0.85 -0.19 l
0.86 -0.19 l
0.85 -0.19 l
0.85 -0.19 l
0.85 -0.19 l
0.86 -0.19 l
0.85 -0.19 l
0.85 -0.20 l
0.85 -0.19 l
0.86 -0.19 l
0.85 -0.19 l
o
0.5294 0.8078 0.9804 srgb
np
37.39 39.80 m
0.86 0 l
0.85 0 l
0.85 0 l
0.85 0 l
0.86 0 l
0.85 0 l
0.85 0 l
0.86 0 l
0.85 0 l
0.85 0 l
0.85 0 l
0.86 0 l
0.85 0 l
0.85 0 l
0.85 0 l
0.86 0 l
0.85 0 l
0.85 0 l
0.85 0 l
0.86 0 l
0.85 0 l
0.85 0 l
0.85 0 l
0.86 0 l
0.85 0 l
0.85 0 l
0.85 0 l
0.86 0 l
0.85 0 l
0.85 0 l
0.85 0 l
0.86 0 l
0.85 0 l
0.85 0 l
0.85 0 l
0.86 0 l
0.85 0 l
0.85 0 l
0.86 0 l
0.85 0 l
0.85 0 l
0.85 0 l
0.86 0 l
0.85 0.01 l
0.85 0.21 l
0.85 0.79 l
0.86 1.54 l
0.85 2.26 l
0.85 2.82 l
0.85 3.23 l
0.86 3.50 l
0.85 3.66 l
0.85 3.76 l
0.85 3.80 l
0.86 3.80 l
0.85 3.79 l
0.85 3.74 l
0.85 3.70 l
0.86 3.64 l
0.85 3.57 l
0.85 3.51 l
0.85 3.44 l
0.86 3.37 l
0.85 3.29 l
0.85 3.22 l
0.86 3.15 l
0.85 3.08 l
0.85 3.00 l
0.85 2.93 l
0.86 2.86 l
0.85 2.79 l
0.85 2.72 l
0.85 2.65 l
0.86 2.58 l
0.85 2.52 l
0.85 2.45 l
0.85 2.38 l
0.86 2.32 l
0.85 2.26 l
0.85 2.20 l
0.85 2.14 l
0.86 2.08 l
0.85 2.03 l
0.85 1.96 l
0.85 1.92 l
0.86 1.85 l
0.85 1.81 l
0.85 1.75 l
0.85 1.71 l
0.86 1.65 l
0.85 1.61 l
0.85 1.56 l
0.86 1.51 l
0.85 1.47 l
0.85 1.42 l
0.85 1.38 l
0.86 1.34 l
0.85 1.30 l
0.85 1.26 l
122.65 177.31 lineto
0.86 1.19 l
0.85 1.14 l
0.85 1.11 l
0.85 1.08 l
0.86 1.04 l
0.85 1.00 l
0.85 0.98 l
0.85 0.94 l
0.86 0.92 l
0.85 0.88 l
0.85 0.85 l
0.85 0.83 l
0.86 0.79 l
0.85 0.77 l
0.85 0.75 l
0.85 0.71 l
0.86 0.70 l
0.85 0.66 l
0.85 0.65 l
0.86 0.62 l
0.85 0.60 l
0.85 0.57 l
0.85 0.56 l
0.86 0.53 l
0.85 0.52 l
0.85 0.49 l
0.85 0.48 l
0.86 0.45 l
0.85 0.44 l
0.85 0.42 l
0.85 0.40 l
0.86 0.39 l
0.85 0.37 l
0.85 0.35 l
0.85 0.34 l
0.86 0.33 l
0.85 0.30 l
0.85 0.30 l
0.85 0.28 l
0.86 0.27 l
0.85 0.25 l
0.85 0.24 l
0.85 0.23 l
0.86 0.21 l
0.85 0.21 l
0.85 0.19 l
0.85 0.18 l
0.86 0.17 l
0.85 0.16 l
0.85 0.15 l
0.86 0.14 l
0.85 0.13 l
0.85 0.12 l
0.85 0.11 l
0.86 0.11 l
0.85 0.09 l
0.85 0.08 l
0.85 0.08 l
0.86 0.07 l
0.85 0.06 l
0.85 0.05 l
0.85 0.05 l
0.86 0.04 l
0.85 0.03 l
0.85 0.02 l
0.85 0.02 l
0.86 0.01 l
0.85 0.01 l
0.85 0 l
0.85 -0.01 l
0.86 -0.01 l
0.85 -0.02 l
0.85 -0.03 l
0.85 -0.02 l
0.86 -0.04 l
0.85 -0.04 l
0.85 -0.04 l
0.86 -0.05 l
0.85 -0.05 l
0.85 -0.06 l
0.85 -0.06 l
0.86 -0.07 l
0.85 -0.07 l
0.85 -0.08 l
0.85 -0.07 l
0.86 -0.09 l
0.85 -0.08 l
0.85 -0.09 l
0.85 -0.09 l
0.86 -0.10 l
0.85 -0.10 l
0.85 -0.10 l
0.85 -0.11 l
0.86 -0.11 l
0.85 -0.11 l
0.85 -0.11 l
0.85 -0.12 l
0.86 -0.12 l
0.85 -0.12 l
207.91 204.22 lineto
0.85 -0.13 l
0.86 -0.13 l
0.85 -0.13 l
0.85 -0.13 l
0.86 -0.14 l
0.85 -0.14 l
0.85 -0.14 l
0.85 -0.14 l
0.86 -0.14 l
0.85 -0.15 l
0.85 -0.15 l
0.85 -0.15 l
0.86 -0.15 l
0.85 -0.15 l
0.85 -0.16 l
0.85 -0.15 l
0.86 -0.16 l
0.85 -0.16 l
0.85 -0.16 l
0.85 -0.16 l
0.86 -0.17 l
0.85 -0.16 l
0.85 -0.17 l
0.85 -0.16 l
0.86 -0.17 l
0.85 -0.17 l
0.85 -0.17 l
0.85 -0.17 l
0.86 -0.17 l
0.85 -0.18 l
0.85 -0.17 l
0.86 -0.18 l
0.85 -0.17 l
0.85 -0.18 l
0.85 -0.18 l
0.86 -0.18 l
0.85 -0.17 l
0.85 -0.18 l
0.85 -0.18 l
0.86 -0.19 l
0.85 -0.18 l
0.85 -0.18 l
0.85 -0.18 l
0.86 -0.19 l
0.85 -0.18 l
0.85 -0.19 l
0.85 -0.18 l
0.86 -0.19 l
0.85 -0.18 l
0.85 -0.19 l
0.85 -0.19 l
0.86 -0.18 l
0.85 -0.19 l
0.85 -0.19 l
0.85 -0.19 l
0.86 -0.19 l
0.85 -0.19 l
0.85 -0.19 l
0.85 -0.19 l
0.86 -0.19 l
0.85 -0.19 l
0.85 -0.19 l
0.86 -0.19 l
0.85 -0.19 l
0.85 -0.19 l
0.85 -0.19 l
0.86 -0.20 l
0.85 -0.19 l
0.85 -0.19 l
0.85 -0.19 l
0.86 -0.19 l
0.85 -0.20 l
0.85 -0.19 l
0.85 -0.19 l
0.86 -0.20 l
0.85 -0.19 l
0.85 -0.19 l
0.85 -0.19 l
0.86 -0.20 l
0.85 -0.19 l
0.85 -0.19 l
0.85 -0.20 l
0.86 -0.19 l
0.85 -0.19 l
0.85 -0.20 l
0.85 -0.19 l
0.86 -0.19 l
0.85 -0.20 l
0.85 -0.19 l
0.86 -0.19 l
0.85 -0.20 l
0.85 -0.19 l
0.85 -0.19 l
0.86 -0.20 l
0.85 -0.19 l
0.85 -0.19 l
0.85 -0.20 l
0.86 -0.19 l
0.85 -0.19 l
o
1 0.6275 0.4784 srgb
np
37.39 39.80 m
0.86 0 l
0.85 0 l
0.85 0 l
0.85 0 l
0.86 0 l
0.85 0 l
0.85 0 l
0.86 0 l
0.85 0 l
0.85 0 l
0.85 0 l
0.86 0 l
0.85 0 l
0.85 0 l
0.85 0 l
0.86 0 l
0.85 0 l
0.85 0 l
0.85 0 l
0.86 0 l
0.85 0 l
0.85 0 l
0.85 0 l
0.86 0 l
0.85 0 l
0.85 0 l
0.85 0 l
0.86 0 l
0.85 0 l
0.85 0 l
0.85 0 l
0.86 0 l
0.85 0 l
0.85 0 l
0.85 0 l
0.86 0 l
0.85 0 l
0.85 0 l
0.86 0 l
0.85 0 l
0.85 0 l
0.85 0 l
0.86 0.01 l
0.85 0.78 l
0.85 2.93 l
0.85 4.63 l
0.86 5.47 l
0.85 5.73 l
0.85 5.70 l
0.85 5.51 l
0.86 5.27 l
0.85 5.03 l
0.85 4.80 l
0.85 4.56 l
0.86 4.37 l
0.85 4.17 l
0.85 4.00 l
0.85 3.84 l
0.86 3.68 l
0.85 3.55 l
0.85 3.42 l
0.85 3.29 l
0.86 3.17 l
0.85 3.06 l
0.85 2.96 l
0.86 2.85 l
0.85 2.76 l
0.85 2.66 l
0.85 2.57 l
0.86 2.49 l
0.85 2.40 l
0.85 2.33 l
0.85 2.25 l
0.86 2.17 l
0.85 2.11 l
0.85 2.03 l
0.85 1.97 l
0.86 1.91 l
0.85 1.84 l
0.85 1.78 l
0.85 1.73 l
0.86 1.67 l
0.85 1.61 l
0.85 1.57 l
0.85 1.51 l
0.86 1.46 l
0.85 1.42 l
0.85 1.37 l
0.85 1.32 l
0.86 1.28 l
0.85 1.24 l
0.85 1.20 l
0.86 1.16 l
0.85 1.12 l
0.85 1.08 l
0.85 1.05 l
0.86 1.01 l
0.85 0.98 l
0.85 0.94 l
122.65 189.48 lineto
0.86 0.88 l
0.85 0.85 l
0.85 0.82 l
0.85 0.80 l
0.86 0.76 l
0.85 0.74 l
0.85 0.71 l
0.85 0.68 l
0.86 0.66 l
0.85 0.64 l
0.85 0.61 l
0.85 0.59 l
0.86 0.57 l
0.85 0.54 l
0.85 0.53 l
0.85 0.50 l
0.86 0.49 l
0.85 0.46 l
0.85 0.45 l
0.86 0.43 l
0.85 0.41 l
0.85 0.39 l
0.85 0.38 l
0.86 0.36 l
0.85 0.34 l
0.85 0.33 l
0.85 0.31 l
0.86 0.30 l
0.85 0.29 l
0.85 0.27 l
0.85 0.26 l
0.86 0.24 l
0.85 0.23 l
0.85 0.22 l
0.85 0.21 l
0.86 0.19 l
0.85 0.19 l
0.85 0.17 l
0.85 0.16 l
0.86 0.15 l
0.85 0.15 l
0.85 0.13 l
0.85 0.12 l
0.86 0.11 l
0.85 0.10 l
0.85 0.10 l
0.85 0.08 l
0.86 0.08 l
0.85 0.07 l
0.85 0.06 l
0.86 0.06 l
0.85 0.04 l
0.85 0.04 l
0.85 0.03 l
0.86 0.03 l
0.85 0.01 l
0.85 0.01 l
0.85 0.01 l
0.86 0 l
0.85 -0.01 l
0.85 -0.01 l
0.85 -0.02 l
0.86 -0.03 l
0.85 -0.03 l
0.85 -0.03 l
0.85 -0.04 l
0.86 -0.05 l
0.85 -0.05 l
0.85 -0.05 l
0.85 -0.06 l
0.86 -0.06 l
0.85 -0.07 l
0.85 -0.07 l
0.85 -0.08 l
0.86 -0.08 l
0.85 -0.08 l
0.85 -0.09 l
0.86 -0.09 l
0.85 -0.09 l
0.85 -0.10 l
0.85 -0.10 l
0.86 -0.11 l
0.85 -0.10 l
0.85 -0.12 l
0.85 -0.11 l
0.86 -0.11 l
0.85 -0.12 l
0.85 -0.13 l
0.85 -0.12 l
0.86 -0.13 l
0.85 -0.13 l
0.85 -0.13 l
0.85 -0.13 l
0.86 -0.14 l
0.85 -0.14 l
0.85 -0.14 l
0.85 -0.14 l
0.86 -0.14 l
0.85 -0.15 l
207.91 205.09 lineto
0.85 -0.15 l
0.86 -0.15 l
0.85 -0.16 l
0.85 -0.15 l
0.86 -0.16 l
0.85 -0.16 l
0.85 -0.16 l
0.85 -0.16 l
0.86 -0.16 l
0.85 -0.17 l
0.85 -0.16 l
0.85 -0.17 l
0.86 -0.17 l
0.85 -0.17 l
0.85 -0.17 l
0.85 -0.17 l
0.86 -0.17 l
0.85 -0.17 l
0.85 -0.18 l
0.85 -0.17 l
0.86 -0.18 l
0.85 -0.18 l
0.85 -0.18 l
0.85 -0.18 l
0.86 -0.18 l
0.85 -0.18 l
0.85 -0.18 l
0.85 -0.18 l
0.86 -0.18 l
0.85 -0.19 l
0.85 -0.18 l
0.86 -0.19 l
0.85 -0.18 l
0.85 -0.19 l
0.85 -0.19 l
0.86 -0.18 l
0.85 -0.19 l
0.85 -0.19 l
0.85 -0.19 l
0.86 -0.19 l
0.85 -0.19 l
0.85 -0.19 l
0.85 -0.19 l
0.86 -0.19 l
0.85 -0.19 l
0.85 -0.19 l
0.85 -0.19 l
0.86 -0.20 l
0.85 -0.19 l
0.85 -0.19 l
0.85 -0.19 l
0.86 -0.20 l
0.85 -0.19 l
0.85 -0.19 l
0.85 -0.20 l
0.86 -0.19 l
0.85 -0.20 l
0.85 -0.19 l
0.85 -0.20 l
0.86 -0.19 l
0.85 -0.20 l
0.85 -0.19 l
0.86 -0.20 l
0.85 -0.19 l
0.85 -0.20 l
0.85 -0.19 l
0.86 -0.20 l
0.85 -0.20 l
0.85 -0.19 l
0.85 -0.20 l
0.86 -0.19 l
0.85 -0.20 l
0.85 -0.20 l
0.85 -0.19 l
0.86 -0.20 l
0.85 -0.19 l
0.85 -0.20 l
0.85 -0.20 l
0.86 -0.19 l
0.85 -0.20 l
0.85 -0.19 l
0.85 -0.20 l
0.86 -0.20 l
0.85 -0.19 l
0.85 -0.20 l
0.85 -0.19 l
0.86 -0.20 l
0.85 -0.19 l
0.85 -0.20 l
0.86 -0.20 l
0.85 -0.19 l
0.85 -0.20 l
0.85 -0.19 l
0.86 -0.20 l
0.85 -0.19 l
0.85 -0.20 l
0.85 -0.19 l
0.86 -0.20 l
0.85 -0.19 l
o
/Font3 findfont 11 s
0 0 0 srgb
232.83 141.23 (R) 0 0 t
/Font1 findfont 8 s
241.95 139.22 (o) 0 0 t
/Font5 findfont 11 s
248.95 141.23 (=) 0 0 t
/Font1 findfont 11 s
257.53 141.23 (0.9) 0 0 t
/Font3 findfont 11 s
234.16 120.31 (R) 0 0 t
/Font1 findfont 8 s
243.29 118.30 (i) 0 0 t
/Font5 findfont 11 s
247.61 120.31 (=) 0 0 t
/Font1 findfont 11 s
256.19 120.31 (0.8) 0 0 t
/Font3 findfont 11 s
234.59 98.63 (m) 0 0 t
/Font5 findfont 11 s
247.18 98.63 (=) 0 0 t
/Font1 findfont 11 s
255.77 98.63 (0.7) 0 0 t
0.00 0.00 366.00 222.75 cl
0.00 0.00 366.00 222.75 cl
0.00 0.00 366.00 222.75 cl
0.00 0.00 366.00 222.75 cl
0.00 0.00 366.00 222.75 cl
0.00 0.00 366.00 222.75 cl
/Font1 findfont 9 s
0.3020 0.3020 0.3020 srgb
32.46 36.57 (0.0) 1 0 t
32.46 78.29 (0.2) 1 0 t
32.46 120.02 (0.4) 1 0 t
32.46 161.75 (0.6) 1 0 t
32.46 203.48 (0.8) 1 0 t
0.00 0.00 366.00 222.75 cl
0.00 0.00 366.00 222.75 cl
0.2000 0.2000 0.2000 srgb
1.07 setlinewidth
[] 0 setdash
0 setlinecap
1 setlinejoin
10.00 setmiterlimit
np
34.65 39.80 m
2.74 0 l
o
np
34.65 81.52 m
2.74 0 l
o
np
34.65 123.25 m
2.74 0 l
o
np
34.65 164.98 m
2.74 0 l
o
np
34.65 206.71 m
2.74 0 l
o
0.00 0.00 366.00 222.75 cl
0.00 0.00 366.00 222.75 cl
0.00 0.00 366.00 222.75 cl
0.00 0.00 366.00 222.75 cl
0.00 0.00 366.00 222.75 cl
0.00 0.00 366.00 222.75 cl
0.00 0.00 366.00 222.75 cl
0.00 0.00 366.00 222.75 cl
0.2000 0.2000 0.2000 srgb
1.07 setlinewidth
[] 0 setdash
0 setlinecap
1 setlinejoin
10.00 setmiterlimit
np
73.30 28.61 m
0 2.74 l
o
np
145.11 28.61 m
0 2.74 l
o
np
216.92 28.61 m
0 2.74 l
o
np
288.73 28.61 m
0 2.74 l
o
0.00 0.00 366.00 222.75 cl
0.00 0.00 366.00 222.75 cl
/Font1 findfont 9 s
0.3020 0.3020 0.3020 srgb
73.30 19.95 (0.0) .5 0 t
145.11 19.95 (0.2) .5 0 t
216.92 19.95 (0.4) .5 0 t
288.73 19.95 (0.6) .5 0 t
0.00 0.00 366.00 222.75 cl
0.00 0.00 366.00 222.75 cl
0.00 0.00 366.00 222.75 cl
0.00 0.00 366.00 222.75 cl
/Font1 findfont 11 s
0 0 0 srgb
158.44 7.67 (F) 0 ta
-0.330 (o) tb gr
0.00 0.00 366.00 222.75 cl
0.00 0.00 366.00 222.75 cl
/Font1 findfont 11 s
0 0 0 srgb
15.57 124.31 (V) .5 90 t
0.00 0.00 366.00 222.75 cl
0.00 0.00 366.00 222.75 cl
0.00 0.00 366.00 222.75 cl
0.00 0.00 366.00 222.75 cl
/bg { 1 1 1 srgb } def
300.82 69.02 51.19 110.59 r p2
0.00 0.00 366.00 222.75 cl
0.00 0.00 366.00 222.75 cl
/Font5 findfont 11 s
0 0 0 srgb
305.07 166.73 ( ) 0 0 t
307.82 166.73 ( ) 0 0 t
/Font3 findfont 11 s
310.57 166.73 (R) 0 0 t
/Font1 findfont 8 s
319.70 164.71 (v) 0 0 t
0.00 0.00 366.00 222.75 cl
0.00 0.00 366.00 222.75 cl
/bg { 0.9490 0.9490 0.9490 srgb } def
1 1 1 srgb
1.07 setlinewidth
[] 0 setdash
1 setlinecap
1 setlinejoin
10.00 setmiterlimit
305.07 142.39 17.28 17.28 r p3
0.00 0.00 366.00 222.75 cl
0.00 0.00 366.00 222.75 cl
1 0.3882 0.2784 srgb
1.07 setlinewidth
[] 0 setdash
0 setlinecap
1 setlinejoin
10.00 setmiterlimit
np
306.80 151.03 m
13.83 0 l
o
0.00 0.00 366.00 222.75 cl
0.00 0.00 366.00 222.75 cl
1 0.3882 0.2784 srgb
1.07 setlinewidth
[] 0 setdash
0 setlinecap
1 setlinejoin
10.00 setmiterlimit
np
306.80 151.03 m
13.83 0 l
o
0.00 0.00 366.00 222.75 cl
0.00 0.00 366.00 222.75 cl
1 0.3882 0.2784 srgb
1.07 setlinewidth
[] 0 setdash
0 setlinecap
1 setlinejoin
10.00 setmiterlimit
np
306.80 151.03 m
13.83 0 l
o
0.00 0.00 366.00 222.75 cl
0.00 0.00 366.00 222.75 cl
1 0.3882 0.2784 srgb
1.07 setlinewidth
[] 0 setdash
0 setlinecap
1 setlinejoin
10.00 setmiterlimit
np
306.80 151.03 m
13.83 0 l
o
0.00 0.00 366.00 222.75 cl
0.00 0.00 366.00 222.75 cl
1 0.3882 0.2784 srgb
1.07 setlinewidth
[] 0 setdash
0 setlinecap
1 setlinejoin
10.00 setmiterlimit
np
306.80 151.03 m
13.83 0 l
o
0.00 0.00 366.00 222.75 cl
0.00 0.00 366.00 222.75 cl
/bg { 0.9490 0.9490 0.9490 srgb } def
1 1 1 srgb
1.07 setlinewidth
[] 0 setdash
1 setlinecap
1 setlinejoin
10.00 setmiterlimit
305.07 125.11 17.28 17.28 r p3
0.00 0.00 366.00 222.75 cl
0.00 0.00 366.00 222.75 cl
0.8039 0.7451 0.4392 srgb
1.07 setlinewidth
[] 0 setdash
0 setlinecap
1 setlinejoin
10.00 setmiterlimit
np
306.80 133.75 m
13.83 0 l
o
0.00 0.00 366.00 222.75 cl
0.00 0.00 366.00 222.75 cl
0.8039 0.7451 0.4392 srgb
1.07 setlinewidth
[] 0 setdash
0 setlinecap
1 setlinejoin
10.00 setmiterlimit
np
306.80 133.75 m
13.83 0 l
o
0.00 0.00 366.00 222.75 cl
0.00 0.00 366.00 222.75 cl
0.8039 0.7451 0.4392 srgb
1.07 setlinewidth
[] 0 setdash
0 setlinecap
1 setlinejoin
10.00 setmiterlimit
np
306.80 133.75 m
13.83 0 l
o
0.00 0.00 366.00 222.75 cl
0.00 0.00 366.00 222.75 cl
0.8039 0.7451 0.4392 srgb
1.07 setlinewidth
[] 0 setdash
0 setlinecap
1 setlinejoin
10.00 setmiterlimit
np
306.80 133.75 m
13.83 0 l
o
0.00 0.00 366.00 222.75 cl
0.00 0.00 366.00 222.75 cl
0.8039 0.7451 0.4392 srgb
1.07 setlinewidth
[] 0 setdash
0 setlinecap
1 setlinejoin
10.00 setmiterlimit
np
306.80 133.75 m
13.83 0 l
o
0.00 0.00 366.00 222.75 cl
0.00 0.00 366.00 222.75 cl
/bg { 0.9490 0.9490 0.9490 srgb } def
1 1 1 srgb
1.07 setlinewidth
[] 0 setdash
1 setlinecap
1 setlinejoin
10.00 setmiterlimit
305.07 107.83 17.28 17.28 r p3
0.00 0.00 366.00 222.75 cl
0.00 0.00 366.00 222.75 cl
0.5608 0.7373 0.5608 srgb
1.07 setlinewidth
[] 0 setdash
0 setlinecap
1 setlinejoin
10.00 setmiterlimit
np
306.80 116.47 m
13.83 0 l
o
0.00 0.00 366.00 222.75 cl
0.00 0.00 366.00 222.75 cl
0.5608 0.7373 0.5608 srgb
1.07 setlinewidth
[] 0 setdash
0 setlinecap
1 setlinejoin
10.00 setmiterlimit
np
306.80 116.47 m
13.83 0 l
o
0.00 0.00 366.00 222.75 cl
0.00 0.00 366.00 222.75 cl
0.5608 0.7373 0.5608 srgb
1.07 setlinewidth
[] 0 setdash
0 setlinecap
1 setlinejoin
10.00 setmiterlimit
np
306.80 116.47 m
13.83 0 l
o
0.00 0.00 366.00 222.75 cl
0.00 0.00 366.00 222.75 cl
0.5608 0.7373 0.5608 srgb
1.07 setlinewidth
[] 0 setdash
0 setlinecap
1 setlinejoin
10.00 setmiterlimit
np
306.80 116.47 m
13.83 0 l
o
0.00 0.00 366.00 222.75 cl
0.00 0.00 366.00 222.75 cl
0.5608 0.7373 0.5608 srgb
1.07 setlinewidth
[] 0 setdash
0 setlinecap
1 setlinejoin
10.00 setmiterlimit
np
306.80 116.47 m
13.83 0 l
o
0.00 0.00 366.00 222.75 cl
0.00 0.00 366.00 222.75 cl
/bg { 0.9490 0.9490 0.9490 srgb } def
1 1 1 srgb
1.07 setlinewidth
[] 0 setdash
1 setlinecap
1 setlinejoin
10.00 setmiterlimit
305.07 90.55 17.28 17.28 r p3
0.00 0.00 366.00 222.75 cl
0.00 0.00 366.00 222.75 cl
0.5294 0.8078 0.9804 srgb
1.07 setlinewidth
[] 0 setdash
0 setlinecap
1 setlinejoin
10.00 setmiterlimit
np
306.80 99.19 m
13.83 0 l
o
0.00 0.00 366.00 222.75 cl
0.00 0.00 366.00 222.75 cl
0.5294 0.8078 0.9804 srgb
1.07 setlinewidth
[] 0 setdash
0 setlinecap
1 setlinejoin
10.00 setmiterlimit
np
306.80 99.19 m
13.83 0 l
o
0.00 0.00 366.00 222.75 cl
0.00 0.00 366.00 222.75 cl
0.5294 0.8078 0.9804 srgb
1.07 setlinewidth
[] 0 setdash
0 setlinecap
1 setlinejoin
10.00 setmiterlimit
np
306.80 99.19 m
13.83 0 l
o
0.00 0.00 366.00 222.75 cl
0.00 0.00 366.00 222.75 cl
0.5294 0.8078 0.9804 srgb
1.07 setlinewidth
[] 0 setdash
0 setlinecap
1 setlinejoin
10.00 setmiterlimit
np
306.80 99.19 m
13.83 0 l
o
0.00 0.00 366.00 222.75 cl
0.00 0.00 366.00 222.75 cl
0.5294 0.8078 0.9804 srgb
1.07 setlinewidth
[] 0 setdash
0 setlinecap
1 setlinejoin
10.00 setmiterlimit
np
306.80 99.19 m
13.83 0 l
o
0.00 0.00 366.00 222.75 cl
0.00 0.00 366.00 222.75 cl
/bg { 0.9490 0.9490 0.9490 srgb } def
1 1 1 srgb
1.07 setlinewidth
[] 0 setdash
1 setlinecap
1 setlinejoin
10.00 setmiterlimit
305.07 73.27 17.28 17.28 r p3
0.00 0.00 366.00 222.75 cl
0.00 0.00 366.00 222.75 cl
1 0.6275 0.4784 srgb
1.07 setlinewidth
[] 0 setdash
0 setlinecap
1 setlinejoin
10.00 setmiterlimit
np
306.80 81.91 m
13.83 0 l
o
0.00 0.00 366.00 222.75 cl
0.00 0.00 366.00 222.75 cl
1 0.6275 0.4784 srgb
1.07 setlinewidth
[] 0 setdash
0 setlinecap
1 setlinejoin
10.00 setmiterlimit
np
306.80 81.91 m
13.83 0 l
o
0.00 0.00 366.00 222.75 cl
0.00 0.00 366.00 222.75 cl
1 0.6275 0.4784 srgb
1.07 setlinewidth
[] 0 setdash
0 setlinecap
1 setlinejoin
10.00 setmiterlimit
np
306.80 81.91 m
13.83 0 l
o
0.00 0.00 366.00 222.75 cl
0.00 0.00 366.00 222.75 cl
1 0.6275 0.4784 srgb
1.07 setlinewidth
[] 0 setdash
0 setlinecap
1 setlinejoin
10.00 setmiterlimit
np
306.80 81.91 m
13.83 0 l
o
0.00 0.00 366.00 222.75 cl
0.00 0.00 366.00 222.75 cl
1 0.6275 0.4784 srgb
1.07 setlinewidth
[] 0 setdash
0 setlinecap
1 setlinejoin
10.00 setmiterlimit
np
306.80 81.91 m
13.83 0 l
o
0.00 0.00 366.00 222.75 cl
0.00 0.00 366.00 222.75 cl
/Font1 findfont 9 s
0 0 0 srgb
324.51 147.80 (0.001) 0 0 t
0.00 0.00 366.00 222.75 cl
0.00 0.00 366.00 222.75 cl
/Font1 findfont 9 s
0 0 0 srgb
324.51 130.52 (0.3) 0 0 t
0.00 0.00 366.00 222.75 cl
0.00 0.00 366.00 222.75 cl
/Font1 findfont 9 s
0 0 0 srgb
324.51 113.24 (0.4) 0 0 t
0.00 0.00 366.00 222.75 cl
0.00 0.00 366.00 222.75 cl
/Font1 findfont 9 s
0 0 0 srgb
324.51 95.96 (0.5) 0 0 t
0.00 0.00 366.00 222.75 cl
0.00 0.00 366.00 222.75 cl
/Font1 findfont 9 s
0 0 0 srgb
324.51 78.68 (0.6) 0 0 t
0.00 0.00 366.00 222.75 cl
0.00 0.00 366.00 222.75 cl
0.00 0.00 366.00 222.75 cl
0.00 0.00 366.00 222.75 cl
0.00 0.00 366.00 222.75 cl
0.00 0.00 366.00 222.75 cl
ep
%%Trailer
%%Pages: 1
%%EOF
