%!PS-Adobe-3.0 EPSF-3.0
%%DocumentNeededResources: font Helvetica
%%+ font Helvetica-Bold
%%+ font Helvetica-Oblique
%%+ font Helvetica-BoldOblique
%%+ font Symbol
%%Title: R Graphics Output
%%Creator: R Software
%%Pages: (atend)
%%BoundingBox: 0 0 366 223
%%EndComments
%%BeginProlog
/bp  { gs sRGB gs } def
% begin .ps.prolog
/gs  { gsave } bind def
/gr  { grestore } bind def
/ep  { showpage gr gr } bind def
/m   { moveto } bind def
/l  { rlineto } bind def
/np  { newpath } bind def
/cp  { closepath } bind def
/f   { fill } bind def
/o   { stroke } bind def
/c   { newpath 0 360 arc } bind def
/r   { 4 2 roll moveto 1 copy 3 -1 roll exch 0 exch rlineto 0 rlineto -1 mul 0 exch rlineto closepath } bind def
/p1  { stroke } bind def
/p2  { gsave bg fill grestore newpath } bind def
/p3  { gsave bg fill grestore stroke } bind def
/p6  { gsave bg eofill grestore newpath } bind def
/p7  { gsave bg eofill grestore stroke } bind def
/t   { 5 -2 roll moveto gsave rotate
       1 index stringwidth pop
       mul neg 0 rmoveto show grestore } bind def
/ta  { 4 -2 roll moveto gsave rotate show } bind def
/tb  { 2 -1 roll 0 rmoveto show } bind def
/cl  { grestore gsave newpath 3 index 3 index moveto 1 index
       4 -1 roll lineto  exch 1 index lineto lineto
       closepath clip newpath } bind def
/rgb { setrgbcolor } bind def
/s   { scalefont setfont } bind def
% end   .ps.prolog
/sRGB { [ /CIEBasedABC
          << /DecodeLMN
               [ { dup 0.03928 le
                        {12.92321 div}
                        {0.055 add 1.055 div 2.4 exp }
                     ifelse
                 } bind dup dup
               ]
             /MatrixLMN [0.412457 0.212673 0.019334
                         0.357576 0.715152 0.119192
                         0.180437 0.072175 0.950301]
             /WhitePoint [0.9505 1.0 1.0890]
           >>
         ] setcolorspace } bind def
/srgb { setcolor } bind def
% begin encoding
/WinAnsiEncoding [
 /.notdef /.notdef /.notdef /.notdef /.notdef /.notdef /.notdef /.notdef
 /.notdef /.notdef /.notdef /.notdef /.notdef /.notdef /.notdef /.notdef
 /.notdef /.notdef /.notdef /.notdef /.notdef /.notdef /.notdef /.notdef
 /.notdef /.notdef /.notdef /.notdef /.notdef /.notdef /.notdef /.notdef
 /space /exclam /quotedbl /numbersign /dollar /percent /ampersand /quoteright
 /parenleft /parenright /asterisk /plus /comma /minus /period /slash
 /zero /one /two /three /four /five /six /seven
 /eight /nine /colon /semicolon /less /equal /greater /question
 /at /A /B /C /D /E /F /G
 /H /I /J /K /L /M /N /O
 /P /Q /R /S /T /U /V /W
 /X /Y /Z /bracketleft /backslash /bracketright /asciicircum /underscore
 /grave /a /b /c /d /e /f /g
 /h /i /j /k /l /m /n /o
 /p /q /r /s /t /u /v /w
 /x /y /z /braceleft /bar /braceright /asciitilde /.notdef
 /Euro /.notdef /quotesinglbase /florin /quotedblbase /ellipsis /dagger /daggerdbl
 /circumflex /perthousand /Scaron /guilsinglleft /OE /.notdef /Zcaron /.notdef
 /.notdef /quoteleft /quoteright /quotedblleft /quotedblright /bullet /endash /emdash
 /tilde /trademark /scaron /guilsinglright /oe /.notdef /zcaron /Ydieresis
 /space /exclamdown /cent /sterling /currency /yen /brokenbar /section
 /dieresis /copyright /ordfeminine /guillemotleft /logicalnot /hyphen /registered /macron
 /degree /plusminus /twosuperior /threesuperior /acute /mu /paragraph /periodcentered
 /cedilla /onesuperior /ordmasculine /guillemotright /onequarter /onehalf /threequarters /questiondown
 /Agrave /Aacute /Acircumflex /Atilde /Adieresis /Aring /AE /Ccedilla
 /Egrave /Eacute /Ecircumflex /Edieresis /Igrave /Iacute /Icircumflex /Idieresis
 /Eth /Ntilde /Ograve /Oacute /Ocircumflex /Otilde /Odieresis /multiply
 /Oslash /Ugrave /Uacute /Ucircumflex /Udieresis /Yacute /Thorn /germandbls
 /agrave /aacute /acircumflex /atilde /adieresis /aring /ae /ccedilla
 /egrave /eacute /ecircumflex /edieresis /igrave /iacute /icircumflex /idieresis
 /eth /ntilde /ograve /oacute /ocircumflex /otilde /odieresis /divide
 /oslash /ugrave /uacute /ucircumflex /udieresis /yacute /thorn /ydieresis
]
 def
% end encoding
%%IncludeResource: font Helvetica
/Helvetica findfont
dup length dict begin
  {1 index /FID ne {def} {pop pop} ifelse} forall
  /Encoding WinAnsiEncoding def
  currentdict
  end
/Font1 exch definefont pop
%%IncludeResource: font Helvetica-Bold
/Helvetica-Bold findfont
dup length dict begin
  {1 index /FID ne {def} {pop pop} ifelse} forall
  /Encoding WinAnsiEncoding def
  currentdict
  end
/Font2 exch definefont pop
%%IncludeResource: font Helvetica-Oblique
/Helvetica-Oblique findfont
dup length dict begin
  {1 index /FID ne {def} {pop pop} ifelse} forall
  /Encoding WinAnsiEncoding def
  currentdict
  end
/Font3 exch definefont pop
%%IncludeResource: font Helvetica-BoldOblique
/Helvetica-BoldOblique findfont
dup length dict begin
  {1 index /FID ne {def} {pop pop} ifelse} forall
  /Encoding WinAnsiEncoding def
  currentdict
  end
/Font4 exch definefont pop
%%IncludeResource: font Symbol
/Symbol findfont
dup length dict begin
  {1 index /FID ne {def} {pop pop} ifelse} forall
  currentdict
  end
/Font5 exch definefont pop
%%EndProlog
%%Page: 1 1
bp
0.00 0.00 366.00 222.75 cl
0.00 0.00 366.00 222.75 cl
0.00 0.00 366.00 222.75 cl
0.00 0.00 366.00 222.75 cl
0.00 0.00 366.00 222.75 cl
0.00 0.00 366.00 222.75 cl
0.00 0.00 366.00 222.75 cl
0.00 0.00 366.00 222.75 cl
0.00 0.00 366.00 222.75 cl
/bg { 1 1 1 srgb } def
1 1 1 srgb
1.07 setlinewidth
[] 0 setdash
1 setlinecap
1 setlinejoin
10.00 setmiterlimit
0.00 0.00 366.00 222.75 r p3
0.00 0.00 366.00 222.75 cl
0.00 0.00 366.00 222.75 cl
0.00 0.00 366.00 222.75 cl
42.40 31.35 297.57 217.27 cl
/bg { 0.9216 0.9216 0.9216 srgb } def
42.40 31.35 255.17 185.92 r p2
1 1 1 srgb
0.53 setlinewidth
[] 0 setdash
0 setlinecap
1 setlinejoin
10.00 setmiterlimit
np
42.40 60.93 m
255.17 0 l
o
np
42.40 103.19 m
255.17 0 l
o
np
42.40 145.45 m
255.17 0 l
o
np
42.40 187.71 m
255.17 0 l
o
np
84.93 31.35 m
0 185.92 l
o
np
145.68 31.35 m
0 185.92 l
o
np
206.44 31.35 m
0 185.92 l
o
np
267.19 31.35 m
0 185.92 l
o
1.07 setlinewidth
[] 0 setdash
np
42.40 39.80 m
255.17 0 l
o
np
42.40 82.06 m
255.17 0 l
o
np
42.40 124.32 m
255.17 0 l
o
np
42.40 166.58 m
255.17 0 l
o
np
42.40 208.84 m
255.17 0 l
o
np
54.55 31.35 m
0 185.92 l
o
np
115.30 31.35 m
0 185.92 l
o
np
176.06 31.35 m
0 185.92 l
o
np
236.81 31.35 m
0 185.92 l
o
np
297.57 31.35 m
0 185.92 l
o
1 0.3882 0.2784 srgb
1.00 setmiterlimit
np
42.40 39.80 m
0.51 0 l
0.51 0 l
0.51 0 l
0.51 0 l
0.52 0 l
0.51 0 l
0.51 0 l
0.51 0 l
0.51 0 l
0.51 0 l
0.51 0 l
0.51 0 l
0.52 0 l
0.51 0 l
0.51 0 l
0.51 0 l
0.51 0 l
0.51 0 l
0.51 0 l
0.52 0 l
0.51 0 l
0.51 0 l
0.51 0 l
0.51 0 l
0.51 0 l
0.51 0.06 l
0.52 0.52 l
0.51 1.42 l
0.51 2.37 l
0.51 3.18 l
0.51 3.77 l
0.51 4.19 l
0.51 4.45 l
0.51 4.63 l
0.52 4.72 l
0.51 4.75 l
0.51 4.75 l
0.51 4.71 l
0.51 4.64 l
0.51 4.56 l
0.51 4.47 l
0.52 4.36 l
0.51 4.24 l
0.51 4.13 l
0.51 4.00 l
0.51 3.87 l
0.51 3.74 l
0.51 3.62 l
0.52 3.49 l
0.51 3.36 l
0.51 3.23 l
0.51 3.12 l
0.51 2.99 l
0.51 2.88 l
0.51 2.76 l
0.51 2.66 l
0.52 2.55 l
0.51 2.44 l
0.51 2.34 l
0.51 2.25 l
0.51 2.15 l
0.51 2.06 l
0.51 1.98 l
0.52 1.89 l
0.51 1.81 l
0.51 1.74 l
0.51 1.66 l
0.51 1.59 l
0.51 1.52 l
0.51 1.46 l
0.52 1.39 l
0.51 1.34 l
0.51 1.27 l
0.51 1.22 l
0.51 1.17 l
0.51 1.12 l
0.51 1.07 l
0.51 1.02 l
0.52 0.98 l
0.51 0.93 l
0.51 0.90 l
0.51 0.85 l
0.51 0.82 l
0.51 0.78 l
0.51 0.75 l
0.52 0.72 l
0.51 0.68 l
0.51 0.66 l
0.51 0.62 l
0.51 0.60 l
0.51 0.57 l
0.51 0.55 l
0.52 0.52 l
0.51 0.50 l
0.51 0.48 l
0.51 0.46 l
0.51 0.44 l
0.51 0.42 l
0.51 0.40 l
93.53 200.49 lineto
0.52 0.36 l
0.51 0.35 l
0.51 0.34 l
0.51 0.32 l
0.51 0.30 l
0.51 0.30 l
0.51 0.28 l
0.52 0.26 l
0.51 0.26 l
0.51 0.24 l
0.51 0.24 l
0.51 0.22 l
0.51 0.21 l
0.51 0.21 l
0.52 0.19 l
0.51 0.19 l
0.51 0.18 l
0.51 0.17 l
0.51 0.16 l
0.51 0.16 l
0.51 0.15 l
0.51 0.14 l
0.52 0.14 l
0.51 0.13 l
0.51 0.12 l
0.51 0.12 l
0.51 0.12 l
0.51 0.10 l
0.51 0.11 l
0.52 0.10 l
0.51 0.09 l
0.51 0.09 l
0.51 0.09 l
0.51 0.09 l
0.51 0.07 l
0.51 0.08 l
0.52 0.07 l
0.51 0.07 l
0.51 0.07 l
0.51 0.06 l
0.51 0.06 l
0.51 0.06 l
0.51 0.06 l
0.51 0.05 l
0.52 0.05 l
0.51 0.05 l
0.51 0.05 l
0.51 0.04 l
0.51 0.04 l
0.51 0.04 l
0.51 0.04 l
0.52 0.04 l
0.51 0.04 l
0.51 0.03 l
0.51 0.03 l
0.51 0.03 l
0.51 0.03 l
0.51 0.03 l
0.52 0.03 l
0.51 0.02 l
0.51 0.03 l
0.51 0.02 l
0.51 0.03 l
0.51 0.02 l
0.51 0.02 l
0.51 0.02 l
0.52 0.02 l
0.51 0.02 l
0.51 0.01 l
0.51 0.02 l
0.51 0.01 l
0.51 0.02 l
0.51 0.01 l
0.52 0.02 l
0.51 0.01 l
0.51 0.01 l
0.51 0.02 l
0.51 0.01 l
0.51 0.01 l
0.51 0.01 l
0.52 0.01 l
0.51 0.01 l
0.51 0.01 l
0.51 0.01 l
0.51 0 l
0.51 0.01 l
0.51 0.01 l
0.51 0.01 l
0.52 0 l
0.51 0.01 l
0.51 0.01 l
0.51 0 l
0.51 0.01 l
0.51 0.01 l
0.51 0 l
0.52 0.01 l
0.51 0 l
0.51 0.01 l
0.51 0 l
144.67 208.73 lineto
0.51 0.01 l
0.51 0 l
0.52 0.01 l
0.51 0 l
0.51 0 l
0.51 0.01 l
0.51 0 l
0.51 0 l
0.51 0 l
0.51 0.01 l
0.52 0 l
0.51 0 l
0.51 0 l
0.51 0.01 l
0.51 0 l
0.51 0 l
0.51 0 l
0.52 0 l
0.51 0.01 l
0.51 0 l
0.51 0 l
0.51 0 l
0.51 0 l
0.51 0 l
0.52 0.01 l
0.51 0 l
0.51 0 l
0.51 0 l
0.51 0 l
0.51 0 l
0.51 0 l
0.51 0 l
0.52 0 l
0.51 0.01 l
0.51 0 l
0.51 0 l
0.51 0 l
0.51 0 l
0.51 0 l
0.52 0 l
0.51 0 l
0.51 0 l
0.51 0 l
0.51 0 l
0.51 0 l
0.51 0 l
0.51 0 l
0.52 0 l
0.51 0 l
0.51 0 l
0.51 0 l
0.51 0.01 l
0.51 0 l
0.51 0 l
0.52 0 l
0.51 0 l
0.51 0 l
0.51 0 l
0.51 0 l
0.51 0 l
0.51 0 l
0.52 0 l
0.51 0 l
0.51 0 l
0.51 0 l
0.51 0 l
0.51 0 l
0.51 0 l
0.51 0 l
0.52 0 l
0.51 0 l
0.51 0 l
0.51 0 l
0.51 0 l
0.51 0 l
0.51 0 l
0.52 0 l
0.51 0 l
0.51 0 l
0.51 0 l
0.51 0 l
0.51 0 l
0.51 0 l
0.52 0 l
0.51 0 l
0.51 0 l
0.51 0 l
0.51 0 l
0.51 0 l
0.51 0 l
0.51 0 l
0.52 0 l
0.51 0 l
0.51 0 l
0.51 0 l
0.51 0 l
0.51 0 l
0.51 0 l
0.52 0 l
195.81 208.82 lineto
0.51 0 l
0.51 0 l
0.51 0 l
0.51 0 l
0.51 0 l
0.52 0 l
0.51 0 l
0.51 0 l
0.51 0 l
0.51 0 l
0.51 0 l
0.51 0 l
0.51 0 l
0.52 0 l
0.51 0 l
0.51 0 l
0.51 0 l
0.51 0 l
0.51 0 l
0.51 0 l
0.52 0 l
0.51 0 l
0.51 0 l
0.51 0 l
0.51 0 l
0.51 0 l
0.51 0 l
0.52 0 l
0.51 0 l
0.51 0 l
0.51 0 l
0.51 0 l
0.51 0 l
0.51 0 l
0.51 0 l
0.52 0 l
0.51 0 l
0.51 0 l
0.51 0 l
0.51 0 l
0.51 0 l
0.51 0 l
0.52 0 l
0.51 0 l
0.51 0 l
0.51 0 l
0.51 0 l
0.51 0 l
0.51 0 l
0.52 0 l
0.51 0 l
0.51 0 l
0.51 0 l
0.51 0 l
0.51 0 l
0.51 0 l
0.51 0 l
0.52 0 l
0.51 0 l
0.51 0 l
0.51 0 l
0.51 0 l
0.51 -0.01 l
0.51 0 l
0.52 0 l
0.51 0 l
0.51 0 l
0.51 0 l
0.51 0 l
0.51 0 l
0.51 0 l
0.52 0 l
0.51 0 l
0.51 0 l
0.51 0 l
0.51 0 l
0.51 0 l
0.51 0 l
0.51 0 l
0.52 0 l
0.51 0 l
0.51 0 l
0.51 0 l
0.51 0 l
0.51 0 l
0.51 0 l
0.52 0 l
0.51 0 l
0.51 0 l
0.51 0 l
0.51 0 l
0.51 0 l
0.51 0 l
0.52 0 l
0.51 0 l
0.51 0 l
0.51 0 l
0.51 0 l
0.51 0 l
246.94 208.81 lineto
0.51 0 l
0.52 0 l
0.51 0 l
0.51 0 l
0.51 0 l
0.51 0 l
0.51 0 l
0.51 0 l
0.52 0 l
0.51 0 l
0.51 0 l
0.51 0 l
0.51 0 l
0.51 0 l
0.51 0 l
0.52 0 l
0.51 0 l
0.51 0 l
0.51 0 l
0.51 0 l
0.51 0 l
0.51 0 l
0.51 0 l
0.52 0 l
0.51 0 l
0.51 0 l
0.51 0 l
0.51 0 l
0.51 0 l
0.51 0 l
0.52 0 l
0.51 0 l
0.51 0 l
0.51 0 l
0.51 0 l
0.51 0 l
0.51 0 l
0.52 0 l
0.51 0 l
0.51 0 l
0.51 0 l
0.51 0 l
0.51 0 l
0.51 0 l
0.51 0 l
0.52 0 l
0.51 0 l
0.51 0 l
0.51 0 l
0.51 0 l
0.51 0 l
0.51 0 l
0.52 0 l
0.51 0 l
0.51 0 l
0.51 0 l
0.51 0 l
0.51 0 l
0.51 0 l
0.52 0 l
0.51 0 l
0.51 0 l
0.51 0 l
0.51 0 l
0.51 0 l
0.51 0 l
0.51 0 l
0.52 0 l
0.51 0 l
0.51 0 l
0.51 0 l
0.51 0 l
0.51 0 l
0.51 0 l
0.52 0 l
0.51 0 l
0.51 0 l
0.51 0 l
0.51 0 l
0.51 0 l
0.51 0 l
0.52 0 l
0.51 0 l
0.51 -0.01 l
0.51 0 l
0.51 0 l
0.51 0 l
0.51 0 l
0.51 0 l
0.52 0 l
0.51 0 l
0.51 0 l
0.51 0 l
0.51 0 l
0.51 0 l
0.51 0 l
0.52 0 l
0.51 0 l
0.51 0 l
o
0.8039 0.7451 0.4392 srgb
np
42.40 39.80 m
0.51 0 l
0.51 0 l
0.51 0 l
0.51 0 l
0.52 0 l
0.51 0 l
0.51 0 l
0.51 0 l
0.51 0 l
0.51 0 l
0.51 0 l
0.51 0 l
0.52 0 l
0.51 0 l
0.51 0 l
0.51 0 l
0.51 0 l
0.51 0 l
0.51 0 l
0.52 0 l
0.51 0 l
0.51 0 l
0.51 0 l
0.51 0 l
0.51 0 l
0.51 0.06 l
0.52 0.52 l
0.51 1.41 l
0.51 2.36 l
0.51 3.16 l
0.51 3.75 l
0.51 4.14 l
0.51 4.42 l
0.51 4.57 l
0.52 4.66 l
0.51 4.68 l
0.51 4.68 l
0.51 4.62 l
0.51 4.56 l
0.51 4.46 l
0.51 4.37 l
0.52 4.25 l
0.51 4.13 l
0.51 4.01 l
0.51 3.88 l
0.51 3.75 l
0.51 3.61 l
0.51 3.49 l
0.52 3.35 l
0.51 3.23 l
0.51 3.09 l
0.51 2.98 l
0.51 2.85 l
0.51 2.73 l
0.51 2.62 l
0.51 2.50 l
0.52 2.40 l
0.51 2.29 l
0.51 2.19 l
0.51 2.09 l
0.51 2.00 l
0.51 1.91 l
0.51 1.82 l
0.52 1.74 l
0.51 1.66 l
0.51 1.58 l
0.51 1.50 l
0.51 1.44 l
0.51 1.37 l
0.51 1.30 l
0.52 1.24 l
0.51 1.18 l
0.51 1.12 l
0.51 1.06 l
0.51 1.02 l
0.51 0.96 l
0.51 0.92 l
0.51 0.87 l
0.52 0.82 l
0.51 0.79 l
0.51 0.74 l
0.51 0.70 l
0.51 0.67 l
0.51 0.64 l
0.51 0.59 l
0.52 0.57 l
0.51 0.54 l
0.51 0.50 l
0.51 0.48 l
0.51 0.46 l
0.51 0.42 l
0.51 0.40 l
0.52 0.38 l
0.51 0.36 l
0.51 0.33 l
0.51 0.32 l
0.51 0.29 l
0.51 0.28 l
0.51 0.26 l
93.53 191.13 lineto
0.52 0.22 l
0.51 0.21 l
0.51 0.20 l
0.51 0.18 l
0.51 0.16 l
0.51 0.16 l
0.51 0.14 l
0.52 0.13 l
0.51 0.12 l
0.51 0.11 l
0.51 0.09 l
0.51 0.09 l
0.51 0.08 l
0.51 0.07 l
0.52 0.06 l
0.51 0.06 l
0.51 0.04 l
0.51 0.04 l
0.51 0.03 l
0.51 0.02 l
0.51 0.02 l
0.51 0.01 l
0.52 0.01 l
0.51 0 l
0.51 -0.01 l
0.51 -0.01 l
0.51 -0.02 l
0.51 -0.02 l
0.51 -0.02 l
0.52 -0.03 l
0.51 -0.03 l
0.51 -0.04 l
0.51 -0.04 l
0.51 -0.05 l
0.51 -0.04 l
0.51 -0.05 l
0.52 -0.06 l
0.51 -0.06 l
0.51 -0.06 l
0.51 -0.06 l
0.51 -0.06 l
0.51 -0.07 l
0.51 -0.07 l
0.51 -0.07 l
0.52 -0.08 l
0.51 -0.07 l
0.51 -0.08 l
0.51 -0.08 l
0.51 -0.08 l
0.51 -0.08 l
0.51 -0.09 l
0.52 -0.08 l
0.51 -0.09 l
0.51 -0.09 l
0.51 -0.09 l
0.51 -0.09 l
0.51 -0.10 l
0.51 -0.09 l
0.52 -0.09 l
0.51 -0.10 l
0.51 -0.10 l
0.51 -0.09 l
0.51 -0.10 l
0.51 -0.10 l
0.51 -0.10 l
0.51 -0.10 l
0.52 -0.11 l
0.51 -0.10 l
0.51 -0.10 l
0.51 -0.11 l
0.51 -0.10 l
0.51 -0.10 l
0.51 -0.11 l
0.52 -0.11 l
0.51 -0.10 l
0.51 -0.11 l
0.51 -0.11 l
0.51 -0.10 l
0.51 -0.11 l
0.51 -0.11 l
0.52 -0.11 l
0.51 -0.11 l
0.51 -0.11 l
0.51 -0.11 l
0.51 -0.10 l
0.51 -0.11 l
0.51 -0.12 l
0.51 -0.11 l
0.52 -0.11 l
0.51 -0.11 l
0.51 -0.11 l
0.51 -0.11 l
0.51 -0.11 l
0.51 -0.11 l
0.51 -0.11 l
0.52 -0.12 l
0.51 -0.11 l
0.51 -0.11 l
0.51 -0.11 l
144.67 186.85 lineto
0.51 -0.12 l
0.51 -0.11 l
0.52 -0.11 l
0.51 -0.11 l
0.51 -0.11 l
0.51 -0.12 l
0.51 -0.11 l
0.51 -0.11 l
0.51 -0.12 l
0.51 -0.11 l
0.52 -0.11 l
0.51 -0.11 l
0.51 -0.12 l
0.51 -0.11 l
0.51 -0.11 l
0.51 -0.11 l
0.51 -0.12 l
0.52 -0.11 l
0.51 -0.11 l
0.51 -0.11 l
0.51 -0.12 l
0.51 -0.11 l
0.51 -0.11 l
0.51 -0.11 l
0.52 -0.12 l
0.51 -0.11 l
0.51 -0.11 l
0.51 -0.11 l
0.51 -0.12 l
0.51 -0.11 l
0.51 -0.11 l
0.51 -0.11 l
0.52 -0.12 l
0.51 -0.11 l
0.51 -0.11 l
0.51 -0.11 l
0.51 -0.11 l
0.51 -0.11 l
0.51 -0.12 l
0.52 -0.11 l
0.51 -0.11 l
0.51 -0.11 l
0.51 -0.11 l
0.51 -0.11 l
0.51 -0.12 l
0.51 -0.11 l
0.51 -0.11 l
0.52 -0.11 l
0.51 -0.11 l
0.51 -0.11 l
0.51 -0.11 l
0.51 -0.11 l
0.51 -0.12 l
0.51 -0.11 l
0.52 -0.11 l
0.51 -0.11 l
0.51 -0.11 l
0.51 -0.11 l
0.51 -0.11 l
0.51 -0.11 l
0.51 -0.11 l
0.52 -0.11 l
0.51 -0.11 l
0.51 -0.11 l
0.51 -0.11 l
0.51 -0.11 l
0.51 -0.11 l
0.51 -0.11 l
0.51 -0.11 l
0.52 -0.11 l
0.51 -0.11 l
0.51 -0.11 l
0.51 -0.11 l
0.51 -0.11 l
0.51 -0.11 l
0.51 -0.10 l
0.52 -0.11 l
0.51 -0.11 l
0.51 -0.11 l
0.51 -0.11 l
0.51 -0.11 l
0.51 -0.11 l
0.51 -0.11 l
0.52 -0.10 l
0.51 -0.11 l
0.51 -0.11 l
0.51 -0.11 l
0.51 -0.11 l
0.51 -0.11 l
0.51 -0.10 l
0.51 -0.11 l
0.52 -0.11 l
0.51 -0.11 l
0.51 -0.10 l
0.51 -0.11 l
0.51 -0.11 l
0.51 -0.11 l
0.51 -0.10 l
0.52 -0.11 l
195.81 175.78 lineto
0.51 -0.11 l
0.51 -0.10 l
0.51 -0.11 l
0.51 -0.11 l
0.51 -0.10 l
0.52 -0.11 l
0.51 -0.11 l
0.51 -0.10 l
0.51 -0.11 l
0.51 -0.11 l
0.51 -0.10 l
0.51 -0.11 l
0.51 -0.10 l
0.52 -0.11 l
0.51 -0.11 l
0.51 -0.10 l
0.51 -0.11 l
0.51 -0.10 l
0.51 -0.11 l
0.51 -0.10 l
0.52 -0.11 l
0.51 -0.10 l
0.51 -0.11 l
0.51 -0.10 l
0.51 -0.11 l
0.51 -0.10 l
0.51 -0.11 l
0.52 -0.10 l
0.51 -0.11 l
0.51 -0.10 l
0.51 -0.11 l
0.51 -0.10 l
0.51 -0.11 l
0.51 -0.10 l
0.51 -0.11 l
0.52 -0.10 l
0.51 -0.10 l
0.51 -0.11 l
0.51 -0.10 l
0.51 -0.11 l
0.51 -0.10 l
0.51 -0.10 l
0.52 -0.11 l
0.51 -0.10 l
0.51 -0.10 l
0.51 -0.11 l
0.51 -0.10 l
0.51 -0.10 l
0.51 -0.11 l
0.52 -0.10 l
0.51 -0.10 l
0.51 -0.11 l
0.51 -0.10 l
0.51 -0.10 l
0.51 -0.10 l
0.51 -0.11 l
0.51 -0.10 l
0.52 -0.10 l
0.51 -0.10 l
0.51 -0.11 l
0.51 -0.10 l
0.51 -0.10 l
0.51 -0.10 l
0.51 -0.10 l
0.52 -0.11 l
0.51 -0.10 l
0.51 -0.10 l
0.51 -0.10 l
0.51 -0.10 l
0.51 -0.10 l
0.51 -0.11 l
0.52 -0.10 l
0.51 -0.10 l
0.51 -0.10 l
0.51 -0.10 l
0.51 -0.10 l
0.51 -0.10 l
0.51 -0.10 l
0.51 -0.10 l
0.52 -0.10 l
0.51 -0.10 l
0.51 -0.10 l
0.51 -0.10 l
0.51 -0.11 l
0.51 -0.10 l
0.51 -0.10 l
0.52 -0.10 l
0.51 -0.10 l
0.51 -0.10 l
0.51 -0.10 l
0.51 -0.10 l
0.51 -0.09 l
0.51 -0.10 l
0.52 -0.10 l
0.51 -0.10 l
0.51 -0.10 l
0.51 -0.10 l
0.51 -0.10 l
0.51 -0.10 l
246.94 165.48 lineto
0.51 -0.10 l
0.52 -0.10 l
0.51 -0.10 l
0.51 -0.09 l
0.51 -0.10 l
0.51 -0.10 l
0.51 -0.10 l
0.51 -0.10 l
0.52 -0.10 l
0.51 -0.10 l
0.51 -0.09 l
0.51 -0.10 l
0.51 -0.10 l
0.51 -0.10 l
0.51 -0.10 l
0.52 -0.09 l
0.51 -0.10 l
0.51 -0.10 l
0.51 -0.10 l
0.51 -0.09 l
0.51 -0.10 l
0.51 -0.10 l
0.51 -0.10 l
0.52 -0.09 l
0.51 -0.10 l
0.51 -0.10 l
0.51 -0.09 l
0.51 -0.10 l
0.51 -0.10 l
0.51 -0.10 l
0.52 -0.09 l
0.51 -0.10 l
0.51 -0.09 l
0.51 -0.10 l
0.51 -0.10 l
0.51 -0.09 l
0.51 -0.10 l
0.52 -0.10 l
0.51 -0.09 l
0.51 -0.10 l
0.51 -0.09 l
0.51 -0.10 l
0.51 -0.10 l
0.51 -0.09 l
0.51 -0.10 l
0.52 -0.09 l
0.51 -0.10 l
0.51 -0.09 l
0.51 -0.10 l
0.51 -0.09 l
0.51 -0.10 l
0.51 -0.09 l
0.52 -0.10 l
0.51 -0.09 l
0.51 -0.10 l
0.51 -0.09 l
0.51 -0.10 l
0.51 -0.09 l
0.51 -0.10 l
0.52 -0.09 l
0.51 -0.10 l
0.51 -0.09 l
0.51 -0.10 l
0.51 -0.09 l
0.51 -0.09 l
0.51 -0.10 l
0.51 -0.09 l
0.52 -0.10 l
0.51 -0.09 l
0.51 -0.09 l
0.51 -0.10 l
0.51 -0.09 l
0.51 -0.09 l
0.51 -0.10 l
0.52 -0.09 l
0.51 -0.09 l
0.51 -0.10 l
0.51 -0.09 l
0.51 -0.09 l
0.51 -0.10 l
0.51 -0.09 l
0.52 -0.09 l
0.51 -0.09 l
0.51 -0.10 l
0.51 -0.09 l
0.51 -0.09 l
0.51 -0.10 l
0.51 -0.09 l
0.51 -0.09 l
0.52 -0.09 l
0.51 -0.09 l
0.51 -0.10 l
0.51 -0.09 l
0.51 -0.09 l
0.51 -0.09 l
0.51 -0.09 l
0.52 -0.10 l
0.51 -0.09 l
0.51 -0.09 l
o
0.5608 0.7373 0.5608 srgb
np
42.40 39.80 m
0.51 0 l
0.51 0 l
0.51 0 l
0.51 0 l
0.52 0 l
0.51 0 l
0.51 0 l
0.51 0 l
0.51 0 l
0.51 0 l
0.51 0 l
0.51 0 l
0.52 0 l
0.51 0 l
0.51 0 l
0.51 0 l
0.51 0 l
0.51 0 l
0.51 0 l
0.52 0 l
0.51 0 l
0.51 0 l
0.51 0 l
0.51 0 l
0.51 0 l
0.51 0.06 l
0.52 0.52 l
0.51 1.40 l
0.51 2.34 l
0.51 3.11 l
0.51 3.69 l
0.51 4.08 l
0.51 4.32 l
0.51 4.47 l
0.52 4.53 l
0.51 4.55 l
0.51 4.52 l
0.51 4.46 l
0.51 4.37 l
0.51 4.28 l
0.51 4.16 l
0.52 4.04 l
0.51 3.91 l
0.51 3.77 l
0.51 3.64 l
0.51 3.50 l
0.51 3.37 l
0.51 3.22 l
0.52 3.09 l
0.51 2.95 l
0.51 2.83 l
0.51 2.69 l
0.51 2.57 l
0.51 2.45 l
0.51 2.33 l
0.51 2.22 l
0.52 2.10 l
0.51 2.00 l
0.51 1.90 l
0.51 1.80 l
0.51 1.70 l
0.51 1.62 l
0.51 1.52 l
0.52 1.45 l
0.51 1.36 l
0.51 1.28 l
0.51 1.22 l
0.51 1.14 l
0.51 1.07 l
0.51 1.01 l
0.52 0.95 l
0.51 0.89 l
0.51 0.83 l
0.51 0.78 l
0.51 0.73 l
0.51 0.68 l
0.51 0.63 l
0.51 0.59 l
0.52 0.55 l
0.51 0.50 l
0.51 0.47 l
0.51 0.43 l
0.51 0.39 l
0.51 0.36 l
0.51 0.33 l
0.52 0.30 l
0.51 0.27 l
0.51 0.24 l
0.51 0.22 l
0.51 0.19 l
0.51 0.16 l
0.51 0.15 l
0.52 0.12 l
0.51 0.10 l
0.51 0.08 l
0.51 0.07 l
0.51 0.04 l
0.51 0.03 l
0.51 0.01 l
93.53 173.50 lineto
0.52 -0.02 l
0.51 -0.04 l
0.51 -0.04 l
0.51 -0.06 l
0.51 -0.07 l
0.51 -0.08 l
0.51 -0.09 l
0.52 -0.11 l
0.51 -0.11 l
0.51 -0.12 l
0.51 -0.13 l
0.51 -0.14 l
0.51 -0.15 l
0.51 -0.16 l
0.52 -0.16 l
0.51 -0.17 l
0.51 -0.17 l
0.51 -0.18 l
0.51 -0.19 l
0.51 -0.19 l
0.51 -0.20 l
0.51 -0.21 l
0.52 -0.20 l
0.51 -0.22 l
0.51 -0.21 l
0.51 -0.22 l
0.51 -0.23 l
0.51 -0.23 l
0.51 -0.23 l
0.52 -0.23 l
0.51 -0.24 l
0.51 -0.24 l
0.51 -0.24 l
0.51 -0.25 l
0.51 -0.25 l
0.51 -0.25 l
0.52 -0.25 l
0.51 -0.25 l
0.51 -0.26 l
0.51 -0.26 l
0.51 -0.26 l
0.51 -0.26 l
0.51 -0.26 l
0.51 -0.26 l
0.52 -0.27 l
0.51 -0.26 l
0.51 -0.27 l
0.51 -0.27 l
0.51 -0.27 l
0.51 -0.27 l
0.51 -0.27 l
0.52 -0.27 l
0.51 -0.27 l
0.51 -0.27 l
0.51 -0.27 l
0.51 -0.28 l
0.51 -0.27 l
0.51 -0.27 l
0.52 -0.28 l
0.51 -0.27 l
0.51 -0.28 l
0.51 -0.27 l
0.51 -0.28 l
0.51 -0.27 l
0.51 -0.27 l
0.51 -0.28 l
0.52 -0.27 l
0.51 -0.28 l
0.51 -0.27 l
0.51 -0.28 l
0.51 -0.27 l
0.51 -0.28 l
0.51 -0.27 l
0.52 -0.28 l
0.51 -0.27 l
0.51 -0.27 l
0.51 -0.28 l
0.51 -0.27 l
0.51 -0.27 l
0.51 -0.27 l
0.52 -0.28 l
0.51 -0.27 l
0.51 -0.27 l
0.51 -0.27 l
0.51 -0.27 l
0.51 -0.27 l
0.51 -0.27 l
0.51 -0.27 l
0.52 -0.27 l
0.51 -0.27 l
0.51 -0.27 l
0.51 -0.27 l
0.51 -0.26 l
0.51 -0.27 l
0.51 -0.27 l
0.52 -0.26 l
0.51 -0.27 l
0.51 -0.26 l
0.51 -0.27 l
144.67 150.23 lineto
0.51 -0.26 l
0.51 -0.27 l
0.52 -0.26 l
0.51 -0.26 l
0.51 -0.26 l
0.51 -0.26 l
0.51 -0.26 l
0.51 -0.26 l
0.51 -0.26 l
0.51 -0.26 l
0.52 -0.26 l
0.51 -0.26 l
0.51 -0.25 l
0.51 -0.26 l
0.51 -0.26 l
0.51 -0.25 l
0.51 -0.26 l
0.52 -0.25 l
0.51 -0.25 l
0.51 -0.26 l
0.51 -0.25 l
0.51 -0.25 l
0.51 -0.25 l
0.51 -0.25 l
0.52 -0.26 l
0.51 -0.24 l
0.51 -0.25 l
0.51 -0.25 l
0.51 -0.25 l
0.51 -0.25 l
0.51 -0.25 l
0.51 -0.24 l
0.52 -0.25 l
0.51 -0.24 l
0.51 -0.25 l
0.51 -0.24 l
0.51 -0.25 l
0.51 -0.24 l
0.51 -0.24 l
0.52 -0.24 l
0.51 -0.24 l
0.51 -0.24 l
0.51 -0.25 l
0.51 -0.23 l
0.51 -0.24 l
0.51 -0.24 l
0.51 -0.24 l
0.52 -0.24 l
0.51 -0.23 l
0.51 -0.24 l
0.51 -0.24 l
0.51 -0.23 l
0.51 -0.24 l
0.51 -0.23 l
0.52 -0.23 l
0.51 -0.24 l
0.51 -0.23 l
0.51 -0.23 l
0.51 -0.23 l
0.51 -0.23 l
0.51 -0.23 l
0.52 -0.23 l
0.51 -0.23 l
0.51 -0.23 l
0.51 -0.23 l
0.51 -0.23 l
0.51 -0.22 l
0.51 -0.23 l
0.51 -0.23 l
0.52 -0.22 l
0.51 -0.23 l
0.51 -0.22 l
0.51 -0.22 l
0.51 -0.23 l
0.51 -0.22 l
0.51 -0.22 l
0.52 -0.22 l
0.51 -0.22 l
0.51 -0.22 l
0.51 -0.22 l
0.51 -0.22 l
0.51 -0.22 l
0.51 -0.22 l
0.52 -0.22 l
0.51 -0.22 l
0.51 -0.21 l
0.51 -0.22 l
0.51 -0.22 l
0.51 -0.21 l
0.51 -0.22 l
0.51 -0.21 l
0.52 -0.21 l
0.51 -0.22 l
0.51 -0.21 l
0.51 -0.21 l
0.51 -0.21 l
0.51 -0.22 l
0.51 -0.21 l
0.52 -0.21 l
195.81 126.60 lineto
0.51 -0.20 l
0.51 -0.21 l
0.51 -0.21 l
0.51 -0.21 l
0.51 -0.21 l
0.52 -0.20 l
0.51 -0.21 l
0.51 -0.20 l
0.51 -0.21 l
0.51 -0.20 l
0.51 -0.21 l
0.51 -0.20 l
0.51 -0.21 l
0.52 -0.20 l
0.51 -0.20 l
0.51 -0.20 l
0.51 -0.20 l
0.51 -0.20 l
0.51 -0.20 l
0.51 -0.20 l
0.52 -0.20 l
0.51 -0.20 l
0.51 -0.20 l
0.51 -0.20 l
0.51 -0.20 l
0.51 -0.19 l
0.51 -0.20 l
0.52 -0.20 l
0.51 -0.19 l
0.51 -0.20 l
0.51 -0.19 l
0.51 -0.19 l
0.51 -0.20 l
0.51 -0.19 l
0.51 -0.19 l
0.52 -0.20 l
0.51 -0.19 l
0.51 -0.19 l
0.51 -0.19 l
0.51 -0.19 l
0.51 -0.19 l
0.51 -0.19 l
0.52 -0.19 l
0.51 -0.19 l
0.51 -0.19 l
0.51 -0.18 l
0.51 -0.19 l
0.51 -0.19 l
0.51 -0.18 l
0.52 -0.19 l
0.51 -0.19 l
0.51 -0.18 l
0.51 -0.18 l
0.51 -0.19 l
0.51 -0.18 l
0.51 -0.19 l
0.51 -0.18 l
0.52 -0.18 l
0.51 -0.18 l
0.51 -0.18 l
0.51 -0.19 l
0.51 -0.18 l
0.51 -0.18 l
0.51 -0.18 l
0.52 -0.17 l
0.51 -0.18 l
0.51 -0.18 l
0.51 -0.18 l
0.51 -0.18 l
0.51 -0.17 l
0.51 -0.18 l
0.52 -0.18 l
0.51 -0.17 l
0.51 -0.18 l
0.51 -0.17 l
0.51 -0.18 l
0.51 -0.17 l
0.51 -0.18 l
0.51 -0.17 l
0.52 -0.17 l
0.51 -0.17 l
0.51 -0.18 l
0.51 -0.17 l
0.51 -0.17 l
0.51 -0.17 l
0.51 -0.17 l
0.52 -0.17 l
0.51 -0.17 l
0.51 -0.17 l
0.51 -0.17 l
0.51 -0.17 l
0.51 -0.16 l
0.51 -0.17 l
0.52 -0.17 l
0.51 -0.17 l
0.51 -0.16 l
0.51 -0.17 l
0.51 -0.16 l
0.51 -0.17 l
246.94 108.00 lineto
0.51 -0.17 l
0.52 -0.16 l
0.51 -0.17 l
0.51 -0.16 l
0.51 -0.16 l
0.51 -0.16 l
0.51 -0.17 l
0.51 -0.16 l
0.52 -0.16 l
0.51 -0.16 l
0.51 -0.16 l
0.51 -0.16 l
0.51 -0.16 l
0.51 -0.16 l
0.51 -0.16 l
0.52 -0.16 l
0.51 -0.15 l
0.51 -0.16 l
0.51 -0.16 l
0.51 -0.16 l
0.51 -0.15 l
0.51 -0.16 l
0.51 -0.16 l
0.52 -0.15 l
0.51 -0.16 l
0.51 -0.15 l
0.51 -0.15 l
0.51 -0.16 l
0.51 -0.15 l
0.51 -0.16 l
0.52 -0.15 l
0.51 -0.15 l
0.51 -0.15 l
0.51 -0.15 l
0.51 -0.16 l
0.51 -0.15 l
0.51 -0.15 l
0.52 -0.15 l
0.51 -0.15 l
0.51 -0.15 l
0.51 -0.15 l
0.51 -0.15 l
0.51 -0.14 l
0.51 -0.15 l
0.51 -0.15 l
0.52 -0.15 l
0.51 -0.14 l
0.51 -0.15 l
0.51 -0.15 l
0.51 -0.14 l
0.51 -0.15 l
0.51 -0.15 l
0.52 -0.14 l
0.51 -0.14 l
0.51 -0.15 l
0.51 -0.14 l
0.51 -0.15 l
0.51 -0.14 l
0.51 -0.14 l
0.52 -0.15 l
0.51 -0.14 l
0.51 -0.14 l
0.51 -0.14 l
0.51 -0.14 l
0.51 -0.14 l
0.51 -0.14 l
0.51 -0.14 l
0.52 -0.14 l
0.51 -0.14 l
0.51 -0.14 l
0.51 -0.14 l
0.51 -0.14 l
0.51 -0.14 l
0.51 -0.13 l
0.52 -0.14 l
0.51 -0.14 l
0.51 -0.14 l
0.51 -0.13 l
0.51 -0.14 l
0.51 -0.13 l
0.51 -0.14 l
0.52 -0.14 l
0.51 -0.13 l
0.51 -0.13 l
0.51 -0.14 l
0.51 -0.13 l
0.51 -0.14 l
0.51 -0.13 l
0.51 -0.13 l
0.52 -0.14 l
0.51 -0.13 l
0.51 -0.13 l
0.51 -0.13 l
0.51 -0.13 l
0.51 -0.13 l
0.51 -0.13 l
0.52 -0.13 l
0.51 -0.13 l
0.51 -0.13 l
o
0.5294 0.8078 0.9804 srgb
np
42.40 39.80 m
0.51 0 l
0.51 0 l
0.51 0 l
0.51 0 l
0.52 0 l
0.51 0 l
0.51 0 l
0.51 0 l
0.51 0 l
0.51 0 l
0.51 0 l
0.51 0 l
0.52 0 l
0.51 0 l
0.51 0 l
0.51 0 l
0.51 0 l
0.51 0 l
0.51 0 l
0.52 0 l
0.51 0 l
0.51 0 l
0.51 0 l
0.51 0 l
0.51 0 l
0.51 0.06 l
0.52 0.51 l
0.51 1.39 l
0.51 2.30 l
0.51 3.06 l
0.51 3.60 l
0.51 3.97 l
0.51 4.19 l
0.51 4.30 l
0.52 4.35 l
0.51 4.34 l
0.51 4.29 l
0.51 4.21 l
0.51 4.11 l
0.51 3.99 l
0.51 3.86 l
0.52 3.73 l
0.51 3.59 l
0.51 3.44 l
0.51 3.29 l
0.51 3.14 l
0.51 3.00 l
0.51 2.85 l
0.52 2.71 l
0.51 2.57 l
0.51 2.43 l
0.51 2.30 l
0.51 2.18 l
0.51 2.04 l
0.51 1.93 l
0.51 1.82 l
0.52 1.70 l
0.51 1.60 l
0.51 1.49 l
0.51 1.40 l
0.51 1.30 l
0.51 1.21 l
0.51 1.13 l
0.52 1.04 l
0.51 0.97 l
0.51 0.89 l
0.51 0.82 l
0.51 0.75 l
0.51 0.69 l
0.51 0.63 l
0.52 0.57 l
0.51 0.51 l
0.51 0.46 l
0.51 0.41 l
0.51 0.36 l
0.51 0.32 l
0.51 0.27 l
0.51 0.23 l
0.52 0.20 l
0.51 0.15 l
0.51 0.13 l
0.51 0.08 l
0.51 0.06 l
0.51 0.03 l
0.51 0 l
0.52 -0.03 l
0.51 -0.05 l
0.51 -0.08 l
0.51 -0.10 l
0.51 -0.12 l
0.51 -0.14 l
0.51 -0.17 l
0.52 -0.18 l
0.51 -0.19 l
0.51 -0.21 l
0.51 -0.23 l
0.51 -0.24 l
0.51 -0.26 l
0.51 -0.27 l
93.53 150.20 lineto
0.52 -0.29 l
0.51 -0.30 l
0.51 -0.32 l
0.51 -0.32 l
0.51 -0.33 l
0.51 -0.34 l
0.51 -0.35 l
0.52 -0.35 l
0.51 -0.36 l
0.51 -0.37 l
0.51 -0.38 l
0.51 -0.37 l
0.51 -0.39 l
0.51 -0.39 l
0.52 -0.39 l
0.51 -0.40 l
0.51 -0.40 l
0.51 -0.41 l
0.51 -0.41 l
0.51 -0.41 l
0.51 -0.41 l
0.51 -0.42 l
0.52 -0.42 l
0.51 -0.42 l
0.51 -0.42 l
0.51 -0.42 l
0.51 -0.43 l
0.51 -0.43 l
0.51 -0.42 l
0.52 -0.43 l
0.51 -0.43 l
0.51 -0.43 l
0.51 -0.43 l
0.51 -0.43 l
0.51 -0.43 l
0.51 -0.44 l
0.52 -0.43 l
0.51 -0.43 l
0.51 -0.43 l
0.51 -0.43 l
0.51 -0.43 l
0.51 -0.43 l
0.51 -0.43 l
0.51 -0.43 l
0.52 -0.43 l
0.51 -0.42 l
0.51 -0.43 l
0.51 -0.43 l
0.51 -0.42 l
0.51 -0.43 l
0.51 -0.42 l
0.52 -0.42 l
0.51 -0.42 l
0.51 -0.42 l
0.51 -0.42 l
0.51 -0.42 l
0.51 -0.41 l
0.51 -0.42 l
0.52 -0.41 l
0.51 -0.41 l
0.51 -0.41 l
0.51 -0.41 l
0.51 -0.41 l
0.51 -0.40 l
0.51 -0.41 l
0.51 -0.40 l
0.52 -0.40 l
0.51 -0.40 l
0.51 -0.40 l
0.51 -0.40 l
0.51 -0.40 l
0.51 -0.39 l
0.51 -0.39 l
0.52 -0.39 l
0.51 -0.39 l
0.51 -0.39 l
0.51 -0.39 l
0.51 -0.38 l
0.51 -0.38 l
0.51 -0.38 l
0.52 -0.38 l
0.51 -0.38 l
0.51 -0.38 l
0.51 -0.37 l
0.51 -0.38 l
0.51 -0.37 l
0.51 -0.37 l
0.51 -0.36 l
0.52 -0.37 l
0.51 -0.37 l
0.51 -0.36 l
0.51 -0.36 l
0.51 -0.36 l
0.51 -0.36 l
0.51 -0.35 l
0.52 -0.36 l
0.51 -0.35 l
0.51 -0.35 l
0.51 -0.35 l
144.67 110.74 lineto
0.51 -0.35 l
0.51 -0.34 l
0.52 -0.35 l
0.51 -0.34 l
0.51 -0.34 l
0.51 -0.34 l
0.51 -0.34 l
0.51 -0.33 l
0.51 -0.33 l
0.51 -0.34 l
0.52 -0.33 l
0.51 -0.33 l
0.51 -0.32 l
0.51 -0.33 l
0.51 -0.32 l
0.51 -0.33 l
0.51 -0.32 l
0.52 -0.32 l
0.51 -0.32 l
0.51 -0.31 l
0.51 -0.32 l
0.51 -0.31 l
0.51 -0.31 l
0.51 -0.32 l
0.52 -0.30 l
0.51 -0.31 l
0.51 -0.31 l
0.51 -0.30 l
0.51 -0.31 l
0.51 -0.30 l
0.51 -0.30 l
0.51 -0.30 l
0.52 -0.30 l
0.51 -0.29 l
0.51 -0.30 l
0.51 -0.29 l
0.51 -0.29 l
0.51 -0.29 l
0.51 -0.29 l
0.52 -0.29 l
0.51 -0.28 l
0.51 -0.29 l
0.51 -0.28 l
0.51 -0.28 l
0.51 -0.28 l
0.51 -0.28 l
0.51 -0.28 l
0.52 -0.28 l
0.51 -0.27 l
0.51 -0.28 l
0.51 -0.27 l
0.51 -0.27 l
0.51 -0.27 l
0.51 -0.27 l
0.52 -0.26 l
0.51 -0.27 l
0.51 -0.26 l
0.51 -0.27 l
0.51 -0.26 l
0.51 -0.26 l
0.51 -0.26 l
0.52 -0.26 l
0.51 -0.25 l
0.51 -0.26 l
0.51 -0.25 l
0.51 -0.26 l
0.51 -0.25 l
0.51 -0.25 l
0.51 -0.25 l
0.52 -0.25 l
0.51 -0.24 l
0.51 -0.25 l
0.51 -0.24 l
0.51 -0.25 l
0.51 -0.24 l
0.51 -0.24 l
0.52 -0.24 l
0.51 -0.24 l
0.51 -0.24 l
0.51 -0.23 l
0.51 -0.24 l
0.51 -0.23 l
0.51 -0.23 l
0.52 -0.24 l
0.51 -0.23 l
0.51 -0.23 l
0.51 -0.22 l
0.51 -0.23 l
0.51 -0.23 l
0.51 -0.22 l
0.51 -0.23 l
0.52 -0.22 l
0.51 -0.22 l
0.51 -0.22 l
0.51 -0.22 l
0.51 -0.22 l
0.51 -0.22 l
0.51 -0.21 l
0.52 -0.22 l
195.81 83.18 lineto
0.51 -0.22 l
0.51 -0.21 l
0.51 -0.21 l
0.51 -0.21 l
0.51 -0.21 l
0.52 -0.20 l
0.51 -0.21 l
0.51 -0.21 l
0.51 -0.20 l
0.51 -0.21 l
0.51 -0.20 l
0.51 -0.20 l
0.51 -0.20 l
0.52 -0.20 l
0.51 -0.20 l
0.51 -0.20 l
0.51 -0.20 l
0.51 -0.19 l
0.51 -0.20 l
0.51 -0.19 l
0.52 -0.19 l
0.51 -0.20 l
0.51 -0.19 l
0.51 -0.19 l
0.51 -0.19 l
0.51 -0.18 l
0.51 -0.19 l
0.52 -0.19 l
0.51 -0.18 l
0.51 -0.19 l
0.51 -0.18 l
0.51 -0.19 l
0.51 -0.18 l
0.51 -0.18 l
0.51 -0.18 l
0.52 -0.18 l
0.51 -0.18 l
0.51 -0.17 l
0.51 -0.18 l
0.51 -0.18 l
0.51 -0.17 l
0.51 -0.18 l
0.52 -0.17 l
0.51 -0.17 l
0.51 -0.17 l
0.51 -0.17 l
0.51 -0.17 l
0.51 -0.17 l
0.51 -0.17 l
0.52 -0.17 l
0.51 -0.17 l
0.51 -0.16 l
0.51 -0.17 l
0.51 -0.16 l
0.51 -0.16 l
0.51 -0.17 l
0.51 -0.16 l
0.52 -0.16 l
0.51 -0.16 l
0.51 -0.16 l
0.51 -0.16 l
0.51 -0.15 l
0.51 -0.16 l
0.51 -0.16 l
0.52 -0.15 l
0.51 -0.16 l
0.51 -0.15 l
0.51 -0.16 l
0.51 -0.15 l
0.51 -0.15 l
0.51 -0.15 l
0.52 -0.15 l
0.51 -0.15 l
0.51 -0.15 l
0.51 -0.15 l
0.51 -0.14 l
0.51 -0.15 l
0.51 -0.15 l
0.51 -0.14 l
0.52 -0.15 l
0.51 -0.14 l
0.51 -0.14 l
0.51 -0.14 l
0.51 -0.15 l
0.51 -0.14 l
0.51 -0.14 l
0.52 -0.14 l
0.51 -0.14 l
0.51 -0.13 l
0.51 -0.14 l
0.51 -0.14 l
0.51 -0.13 l
0.51 -0.14 l
0.52 -0.13 l
0.51 -0.14 l
0.51 -0.13 l
0.51 -0.14 l
0.51 -0.13 l
0.51 -0.13 l
246.94 66.31 lineto
0.51 -0.13 l
0.52 -0.13 l
0.51 -0.13 l
0.51 -0.13 l
0.51 -0.12 l
0.51 -0.13 l
0.51 -0.13 l
0.51 -0.12 l
0.52 -0.13 l
0.51 -0.12 l
0.51 -0.13 l
0.51 -0.12 l
0.51 -0.12 l
0.51 -0.13 l
0.51 -0.12 l
0.52 -0.12 l
0.51 -0.12 l
0.51 -0.12 l
0.51 -0.12 l
0.51 -0.12 l
0.51 -0.11 l
0.51 -0.12 l
0.51 -0.12 l
0.52 -0.11 l
0.51 -0.12 l
0.51 -0.12 l
0.51 -0.11 l
0.51 -0.11 l
0.51 -0.12 l
0.51 -0.11 l
0.52 -0.11 l
0.51 -0.11 l
0.51 -0.12 l
0.51 -0.11 l
0.51 -0.11 l
0.51 -0.11 l
0.51 -0.11 l
0.52 -0.10 l
0.51 -0.11 l
0.51 -0.11 l
0.51 -0.11 l
0.51 -0.10 l
0.51 -0.11 l
0.51 -0.10 l
0.51 -0.11 l
0.52 -0.10 l
0.51 -0.11 l
0.51 -0.10 l
0.51 -0.10 l
0.51 -0.11 l
0.51 -0.10 l
0.51 -0.10 l
0.52 -0.10 l
0.51 -0.10 l
0.51 -0.10 l
0.51 -0.10 l
0.51 -0.10 l
0.51 -0.10 l
0.51 -0.09 l
0.52 -0.10 l
0.51 -0.10 l
0.51 -0.09 l
0.51 -0.10 l
0.51 -0.10 l
0.51 -0.09 l
0.51 -0.10 l
0.51 -0.09 l
0.52 -0.09 l
0.51 -0.10 l
0.51 -0.09 l
0.51 -0.09 l
0.51 -0.09 l
0.51 -0.09 l
0.51 -0.10 l
0.52 -0.09 l
0.51 -0.09 l
0.51 -0.09 l
0.51 -0.08 l
0.51 -0.09 l
0.51 -0.09 l
0.51 -0.09 l
0.52 -0.09 l
0.51 -0.08 l
0.51 -0.09 l
0.51 -0.09 l
0.51 -0.08 l
0.51 -0.09 l
0.51 -0.08 l
0.51 -0.09 l
0.52 -0.08 l
0.51 -0.08 l
0.51 -0.09 l
0.51 -0.08 l
0.51 -0.08 l
0.51 -0.08 l
0.51 -0.09 l
0.52 -0.08 l
0.51 -0.08 l
0.51 -0.08 l
o
/Font3 findfont 11 s
0 0 0 srgb
241.12 189.05 (R) 0 0 t
/Font1 findfont 8 s
250.25 187.04 (o) 0 0 t
/Font5 findfont 11 s
257.24 189.05 (=) 0 0 t
/Font1 findfont 11 s
265.82 189.05 (0.9) 0 0 t
/Font3 findfont 11 s
242.45 172.09 (R) 0 0 t
/Font1 findfont 8 s
251.58 170.08 (i) 0 0 t
/Font5 findfont 11 s
255.90 172.09 (=) 0 0 t
/Font1 findfont 11 s
264.49 172.09 (0.8) 0 0 t
/Font3 findfont 11 s
241.34 138.28 (R) 0 0 t
/Font1 findfont 8 s
250.47 136.27 (v) 0 0 t
/Font5 findfont 11 s
257.01 138.28 (=) 0 0 t
/Font1 findfont 11 s
265.60 138.28 (0.4) 0 0 t
0.00 0.00 366.00 222.75 cl
0.00 0.00 366.00 222.75 cl
0.00 0.00 366.00 222.75 cl
0.00 0.00 366.00 222.75 cl
0.00 0.00 366.00 222.75 cl
0.00 0.00 366.00 222.75 cl
/Font1 findfont 9 s
0.3020 0.3020 0.3020 srgb
37.47 36.57 (0.00) 1 0 t
37.47 78.83 (0.25) 1 0 t
37.47 121.09 (0.50) 1 0 t
37.47 163.35 (0.75) 1 0 t
37.47 205.61 (1.00) 1 0 t
0.00 0.00 366.00 222.75 cl
0.00 0.00 366.00 222.75 cl
0.2000 0.2000 0.2000 srgb
1.07 setlinewidth
[] 0 setdash
0 setlinecap
1 setlinejoin
10.00 setmiterlimit
np
39.66 39.80 m
2.74 0 l
o
np
39.66 82.06 m
2.74 0 l
o
np
39.66 124.32 m
2.74 0 l
o
np
39.66 166.58 m
2.74 0 l
o
np
39.66 208.84 m
2.74 0 l
o
0.00 0.00 366.00 222.75 cl
0.00 0.00 366.00 222.75 cl
0.00 0.00 366.00 222.75 cl
0.00 0.00 366.00 222.75 cl
0.00 0.00 366.00 222.75 cl
0.00 0.00 366.00 222.75 cl
0.00 0.00 366.00 222.75 cl
0.00 0.00 366.00 222.75 cl
0.2000 0.2000 0.2000 srgb
1.07 setlinewidth
[] 0 setdash
0 setlinecap
1 setlinejoin
10.00 setmiterlimit
np
54.55 28.61 m
0 2.74 l
o
np
115.30 28.61 m
0 2.74 l
o
np
176.06 28.61 m
0 2.74 l
o
np
236.81 28.61 m
0 2.74 l
o
np
297.57 28.61 m
0 2.74 l
o
0.00 0.00 366.00 222.75 cl
0.00 0.00 366.00 222.75 cl
/Font1 findfont 9 s
0.3020 0.3020 0.3020 srgb
54.55 19.95 (0.0) .5 0 t
115.30 19.95 (0.5) .5 0 t
176.06 19.95 (1.0) .5 0 t
236.81 19.95 (1.5) .5 0 t
297.57 19.95 (2.0) .5 0 t
0.00 0.00 366.00 222.75 cl
0.00 0.00 366.00 222.75 cl
0.00 0.00 366.00 222.75 cl
0.00 0.00 366.00 222.75 cl
/Font1 findfont 11 s
0 0 0 srgb
163.56 7.67 (F) 0 ta
-0.330 (o) tb gr
0.00 0.00 366.00 222.75 cl
0.00 0.00 366.00 222.75 cl
/Font1 findfont 11 s
0 0 0 srgb
15.57 124.31 (V) .5 90 t
0.00 0.00 366.00 222.75 cl
0.00 0.00 366.00 222.75 cl
0.00 0.00 366.00 222.75 cl
0.00 0.00 366.00 222.75 cl
/bg { 1 1 1 srgb } def
306.07 79.96 45.94 88.69 r p2
0.00 0.00 366.00 222.75 cl
0.00 0.00 366.00 222.75 cl
/Font5 findfont 11 s
0 0 0 srgb
310.32 158.07 ( ) 0 0 t
313.07 158.07 ( ) 0 0 t
/Font3 findfont 11 s
315.82 158.07 (m) 0 0 t
0.00 0.00 366.00 222.75 cl
0.00 0.00 366.00 222.75 cl
/bg { 0.9490 0.9490 0.9490 srgb } def
1 1 1 srgb
1.07 setlinewidth
[] 0 setdash
1 setlinecap
1 setlinejoin
10.00 setmiterlimit
310.32 136.05 17.28 17.28 r p3
0.00 0.00 366.00 222.75 cl
0.00 0.00 366.00 222.75 cl
1 0.3882 0.2784 srgb
1.07 setlinewidth
[] 0 setdash
0 setlinecap
1 setlinejoin
10.00 setmiterlimit
np
312.05 144.69 m
13.83 0 l
o
0.00 0.00 366.00 222.75 cl
0.00 0.00 366.00 222.75 cl
1 0.3882 0.2784 srgb
1.07 setlinewidth
[] 0 setdash
0 setlinecap
1 setlinejoin
10.00 setmiterlimit
np
312.05 144.69 m
13.83 0 l
o
0.00 0.00 366.00 222.75 cl
0.00 0.00 366.00 222.75 cl
1 0.3882 0.2784 srgb
1.07 setlinewidth
[] 0 setdash
0 setlinecap
1 setlinejoin
10.00 setmiterlimit
np
312.05 144.69 m
13.83 0 l
o
0.00 0.00 366.00 222.75 cl
0.00 0.00 366.00 222.75 cl
1 0.3882 0.2784 srgb
1.07 setlinewidth
[] 0 setdash
0 setlinecap
1 setlinejoin
10.00 setmiterlimit
np
312.05 144.69 m
13.83 0 l
o
0.00 0.00 366.00 222.75 cl
0.00 0.00 366.00 222.75 cl
/bg { 0.9490 0.9490 0.9490 srgb } def
1 1 1 srgb
1.07 setlinewidth
[] 0 setdash
1 setlinecap
1 setlinejoin
10.00 setmiterlimit
310.32 118.77 17.28 17.28 r p3
0.00 0.00 366.00 222.75 cl
0.00 0.00 366.00 222.75 cl
0.8039 0.7451 0.4392 srgb
1.07 setlinewidth
[] 0 setdash
0 setlinecap
1 setlinejoin
10.00 setmiterlimit
np
312.05 127.41 m
13.83 0 l
o
0.00 0.00 366.00 222.75 cl
0.00 0.00 366.00 222.75 cl
0.8039 0.7451 0.4392 srgb
1.07 setlinewidth
[] 0 setdash
0 setlinecap
1 setlinejoin
10.00 setmiterlimit
np
312.05 127.41 m
13.83 0 l
o
0.00 0.00 366.00 222.75 cl
0.00 0.00 366.00 222.75 cl
0.8039 0.7451 0.4392 srgb
1.07 setlinewidth
[] 0 setdash
0 setlinecap
1 setlinejoin
10.00 setmiterlimit
np
312.05 127.41 m
13.83 0 l
o
0.00 0.00 366.00 222.75 cl
0.00 0.00 366.00 222.75 cl
0.8039 0.7451 0.4392 srgb
1.07 setlinewidth
[] 0 setdash
0 setlinecap
1 setlinejoin
10.00 setmiterlimit
np
312.05 127.41 m
13.83 0 l
o
0.00 0.00 366.00 222.75 cl
0.00 0.00 366.00 222.75 cl
/bg { 0.9490 0.9490 0.9490 srgb } def
1 1 1 srgb
1.07 setlinewidth
[] 0 setdash
1 setlinecap
1 setlinejoin
10.00 setmiterlimit
310.32 101.49 17.28 17.28 r p3
0.00 0.00 366.00 222.75 cl
0.00 0.00 366.00 222.75 cl
0.5608 0.7373 0.5608 srgb
1.07 setlinewidth
[] 0 setdash
0 setlinecap
1 setlinejoin
10.00 setmiterlimit
np
312.05 110.13 m
13.83 0 l
o
0.00 0.00 366.00 222.75 cl
0.00 0.00 366.00 222.75 cl
0.5608 0.7373 0.5608 srgb
1.07 setlinewidth
[] 0 setdash
0 setlinecap
1 setlinejoin
10.00 setmiterlimit
np
312.05 110.13 m
13.83 0 l
o
0.00 0.00 366.00 222.75 cl
0.00 0.00 366.00 222.75 cl
0.5608 0.7373 0.5608 srgb
1.07 setlinewidth
[] 0 setdash
0 setlinecap
1 setlinejoin
10.00 setmiterlimit
np
312.05 110.13 m
13.83 0 l
o
0.00 0.00 366.00 222.75 cl
0.00 0.00 366.00 222.75 cl
0.5608 0.7373 0.5608 srgb
1.07 setlinewidth
[] 0 setdash
0 setlinecap
1 setlinejoin
10.00 setmiterlimit
np
312.05 110.13 m
13.83 0 l
o
0.00 0.00 366.00 222.75 cl
0.00 0.00 366.00 222.75 cl
/bg { 0.9490 0.9490 0.9490 srgb } def
1 1 1 srgb
1.07 setlinewidth
[] 0 setdash
1 setlinecap
1 setlinejoin
10.00 setmiterlimit
310.32 84.21 17.28 17.28 r p3
0.00 0.00 366.00 222.75 cl
0.00 0.00 366.00 222.75 cl
0.5294 0.8078 0.9804 srgb
1.07 setlinewidth
[] 0 setdash
0 setlinecap
1 setlinejoin
10.00 setmiterlimit
np
312.05 92.85 m
13.83 0 l
o
0.00 0.00 366.00 222.75 cl
0.00 0.00 366.00 222.75 cl
0.5294 0.8078 0.9804 srgb
1.07 setlinewidth
[] 0 setdash
0 setlinecap
1 setlinejoin
10.00 setmiterlimit
np
312.05 92.85 m
13.83 0 l
o
0.00 0.00 366.00 222.75 cl
0.00 0.00 366.00 222.75 cl
0.5294 0.8078 0.9804 srgb
1.07 setlinewidth
[] 0 setdash
0 setlinecap
1 setlinejoin
10.00 setmiterlimit
np
312.05 92.85 m
13.83 0 l
o
0.00 0.00 366.00 222.75 cl
0.00 0.00 366.00 222.75 cl
0.5294 0.8078 0.9804 srgb
1.07 setlinewidth
[] 0 setdash
0 setlinecap
1 setlinejoin
10.00 setmiterlimit
np
312.05 92.85 m
13.83 0 l
o
0.00 0.00 366.00 222.75 cl
0.00 0.00 366.00 222.75 cl
/Font1 findfont 9 s
0 0 0 srgb
329.76 141.46 (0.01) 0 0 t
0.00 0.00 366.00 222.75 cl
0.00 0.00 366.00 222.75 cl
/Font1 findfont 9 s
0 0 0 srgb
329.76 124.18 (0.4) 0 0 t
0.00 0.00 366.00 222.75 cl
0.00 0.00 366.00 222.75 cl
/Font1 findfont 9 s
0 0 0 srgb
329.76 106.90 (0.7) 0 0 t
0.00 0.00 366.00 222.75 cl
0.00 0.00 366.00 222.75 cl
/Font1 findfont 9 s
0 0 0 srgb
329.76 89.62 (1.0) 0 0 t
0.00 0.00 366.00 222.75 cl
0.00 0.00 366.00 222.75 cl
0.00 0.00 366.00 222.75 cl
0.00 0.00 366.00 222.75 cl
0.00 0.00 366.00 222.75 cl
0.00 0.00 366.00 222.75 cl
ep
%%Trailer
%%Pages: 1
%%EOF
