%!PS-Adobe-3.0 EPSF-3.0
%%DocumentNeededResources: font Helvetica
%%+ font Helvetica-Bold
%%+ font Helvetica-Oblique
%%+ font Helvetica-BoldOblique
%%+ font Symbol
%%Title: R Graphics Output
%%Creator: R Software
%%Pages: (atend)
%%BoundingBox: 0 0 413 375
%%EndComments
%%BeginProlog
/bp  { gs sRGB gs } def
% begin .ps.prolog
/gs  { gsave } bind def
/gr  { grestore } bind def
/ep  { showpage gr gr } bind def
/m   { moveto } bind def
/l  { rlineto } bind def
/np  { newpath } bind def
/cp  { closepath } bind def
/f   { fill } bind def
/o   { stroke } bind def
/c   { newpath 0 360 arc } bind def
/r   { 4 2 roll moveto 1 copy 3 -1 roll exch 0 exch rlineto 0 rlineto -1 mul 0 exch rlineto closepath } bind def
/p1  { stroke } bind def
/p2  { gsave bg fill grestore newpath } bind def
/p3  { gsave bg fill grestore stroke } bind def
/p6  { gsave bg eofill grestore newpath } bind def
/p7  { gsave bg eofill grestore stroke } bind def
/t   { 5 -2 roll moveto gsave rotate
       1 index stringwidth pop
       mul neg 0 rmoveto show grestore } bind def
/ta  { 4 -2 roll moveto gsave rotate show } bind def
/tb  { 2 -1 roll 0 rmoveto show } bind def
/cl  { grestore gsave newpath 3 index 3 index moveto 1 index
       4 -1 roll lineto  exch 1 index lineto lineto
       closepath clip newpath } bind def
/rgb { setrgbcolor } bind def
/s   { scalefont setfont } bind def
% end   .ps.prolog
/sRGB { [ /CIEBasedABC
          << /DecodeLMN
               [ { dup 0.03928 le
                        {12.92321 div}
                        {0.055 add 1.055 div 2.4 exp }
                     ifelse
                 } bind dup dup
               ]
             /MatrixLMN [0.412457 0.212673 0.019334
                         0.357576 0.715152 0.119192
                         0.180437 0.072175 0.950301]
             /WhitePoint [0.9505 1.0 1.0890]
           >>
         ] setcolorspace } bind def
/srgb { setcolor } bind def
% begin encoding
/WinAnsiEncoding [
 /.notdef /.notdef /.notdef /.notdef /.notdef /.notdef /.notdef /.notdef
 /.notdef /.notdef /.notdef /.notdef /.notdef /.notdef /.notdef /.notdef
 /.notdef /.notdef /.notdef /.notdef /.notdef /.notdef /.notdef /.notdef
 /.notdef /.notdef /.notdef /.notdef /.notdef /.notdef /.notdef /.notdef
 /space /exclam /quotedbl /numbersign /dollar /percent /ampersand /quoteright
 /parenleft /parenright /asterisk /plus /comma /minus /period /slash
 /zero /one /two /three /four /five /six /seven
 /eight /nine /colon /semicolon /less /equal /greater /question
 /at /A /B /C /D /E /F /G
 /H /I /J /K /L /M /N /O
 /P /Q /R /S /T /U /V /W
 /X /Y /Z /bracketleft /backslash /bracketright /asciicircum /underscore
 /grave /a /b /c /d /e /f /g
 /h /i /j /k /l /m /n /o
 /p /q /r /s /t /u /v /w
 /x /y /z /braceleft /bar /braceright /asciitilde /.notdef
 /Euro /.notdef /quotesinglbase /florin /quotedblbase /ellipsis /dagger /daggerdbl
 /circumflex /perthousand /Scaron /guilsinglleft /OE /.notdef /Zcaron /.notdef
 /.notdef /quoteleft /quoteright /quotedblleft /quotedblright /bullet /endash /emdash
 /tilde /trademark /scaron /guilsinglright /oe /.notdef /zcaron /Ydieresis
 /space /exclamdown /cent /sterling /currency /yen /brokenbar /section
 /dieresis /copyright /ordfeminine /guillemotleft /logicalnot /hyphen /registered /macron
 /degree /plusminus /twosuperior /threesuperior /acute /mu /paragraph /periodcentered
 /cedilla /onesuperior /ordmasculine /guillemotright /onequarter /onehalf /threequarters /questiondown
 /Agrave /Aacute /Acircumflex /Atilde /Adieresis /Aring /AE /Ccedilla
 /Egrave /Eacute /Ecircumflex /Edieresis /Igrave /Iacute /Icircumflex /Idieresis
 /Eth /Ntilde /Ograve /Oacute /Ocircumflex /Otilde /Odieresis /multiply
 /Oslash /Ugrave /Uacute /Ucircumflex /Udieresis /Yacute /Thorn /germandbls
 /agrave /aacute /acircumflex /atilde /adieresis /aring /ae /ccedilla
 /egrave /eacute /ecircumflex /edieresis /igrave /iacute /icircumflex /idieresis
 /eth /ntilde /ograve /oacute /ocircumflex /otilde /odieresis /divide
 /oslash /ugrave /uacute /ucircumflex /udieresis /yacute /thorn /ydieresis
]
 def
% end encoding
%%IncludeResource: font Helvetica
/Helvetica findfont
dup length dict begin
  {1 index /FID ne {def} {pop pop} ifelse} forall
  /Encoding WinAnsiEncoding def
  currentdict
  end
/Font1 exch definefont pop
%%IncludeResource: font Helvetica-Bold
/Helvetica-Bold findfont
dup length dict begin
  {1 index /FID ne {def} {pop pop} ifelse} forall
  /Encoding WinAnsiEncoding def
  currentdict
  end
/Font2 exch definefont pop
%%IncludeResource: font Helvetica-Oblique
/Helvetica-Oblique findfont
dup length dict begin
  {1 index /FID ne {def} {pop pop} ifelse} forall
  /Encoding WinAnsiEncoding def
  currentdict
  end
/Font3 exch definefont pop
%%IncludeResource: font Helvetica-BoldOblique
/Helvetica-BoldOblique findfont
dup length dict begin
  {1 index /FID ne {def} {pop pop} ifelse} forall
  /Encoding WinAnsiEncoding def
  currentdict
  end
/Font4 exch definefont pop
%%IncludeResource: font Symbol
/Symbol findfont
dup length dict begin
  {1 index /FID ne {def} {pop pop} ifelse} forall
  currentdict
  end
/Font5 exch definefont pop
%%EndProlog
%%Page: 1 1
bp
/bg { 1 1 1 srgb } def
0.00 0.00 412.50 375.00 r p2
59.04 73.44 382.26 315.96 cl
59.04 73.44 382.26 315.96 cl
0.6784 0.8471 0.9020 srgb
0.75 setlinewidth
[] 0 setdash
1 setlinecap
1 setlinejoin
10.00 setmiterlimit
71.01 194.70 1.62 c p1
72.18 194.70 1.62 c p1
73.36 194.70 1.62 c p1
74.53 194.70 1.62 c p1
75.71 194.72 1.62 c p1
76.88 194.79 1.62 c p1
78.05 195.01 1.62 c p1
79.23 195.47 1.62 c p1
80.40 196.23 1.62 c p1
81.57 197.34 1.62 c p1
82.75 198.82 1.62 c p1
83.92 200.64 1.62 c p1
85.09 202.78 1.62 c p1
86.27 205.18 1.62 c p1
87.44 207.79 1.62 c p1
88.62 210.58 1.62 c p1
89.79 213.49 1.62 c p1
90.96 216.49 1.62 c p1
92.14 219.54 1.62 c p1
93.31 222.61 1.62 c p1
94.48 225.68 1.62 c p1
95.66 228.73 1.62 c p1
96.83 231.73 1.62 c p1
98.00 234.68 1.62 c p1
99.18 237.57 1.62 c p1
100.35 240.38 1.62 c p1
101.53 243.12 1.62 c p1
102.70 245.77 1.62 c p1
103.87 248.33 1.62 c p1
105.05 250.81 1.62 c p1
106.22 253.20 1.62 c p1
107.39 255.51 1.62 c p1
108.57 257.73 1.62 c p1
109.74 259.86 1.62 c p1
110.91 261.90 1.62 c p1
112.09 263.87 1.62 c p1
113.26 265.75 1.62 c p1
114.44 267.56 1.62 c p1
115.61 269.29 1.62 c p1
116.78 270.95 1.62 c p1
117.96 272.54 1.62 c p1
119.13 274.06 1.62 c p1
120.30 275.52 1.62 c p1
121.48 276.91 1.62 c p1
122.65 278.24 1.62 c p1
123.82 279.52 1.62 c p1
125.00 280.74 1.62 c p1
126.17 281.90 1.62 c p1
127.35 283.02 1.62 c p1
128.52 284.08 1.62 c p1
129.69 285.10 1.62 c p1
130.87 286.08 1.62 c p1
132.04 287.01 1.62 c p1
133.21 287.90 1.62 c p1
134.39 288.75 1.62 c p1
135.56 289.56 1.62 c p1
136.73 290.33 1.62 c p1
137.91 291.08 1.62 c p1
139.08 291.78 1.62 c p1
140.26 292.46 1.62 c p1
141.43 293.11 1.62 c p1
142.60 293.73 1.62 c p1
143.78 294.32 1.62 c p1
144.95 294.88 1.62 c p1
146.12 295.42 1.62 c p1
147.30 295.94 1.62 c p1
148.47 296.43 1.62 c p1
149.64 296.90 1.62 c p1
150.82 297.35 1.62 c p1
151.99 297.78 1.62 c p1
153.17 298.19 1.62 c p1
154.34 298.58 1.62 c p1
155.51 298.96 1.62 c p1
156.69 299.31 1.62 c p1
157.86 299.66 1.62 c p1
159.03 299.98 1.62 c p1
160.21 300.30 1.62 c p1
161.38 300.59 1.62 c p1
162.55 300.88 1.62 c p1
163.73 301.15 1.62 c p1
164.90 301.41 1.62 c p1
166.08 301.66 1.62 c p1
167.25 301.90 1.62 c p1
168.42 302.12 1.62 c p1
169.60 302.34 1.62 c p1
170.77 302.55 1.62 c p1
171.94 302.74 1.62 c p1
173.12 302.93 1.62 c p1
174.29 303.11 1.62 c p1
175.47 303.29 1.62 c p1
176.64 303.45 1.62 c p1
177.81 303.61 1.62 c p1
178.99 303.76 1.62 c p1
180.16 303.90 1.62 c p1
181.33 304.04 1.62 c p1
182.51 304.17 1.62 c p1
183.68 304.30 1.62 c p1
184.85 304.42 1.62 c p1
186.03 304.53 1.62 c p1
187.20 304.64 1.62 c p1
188.38 304.74 1.62 c p1
189.55 304.84 1.62 c p1
190.72 304.94 1.62 c p1
191.90 305.03 1.62 c p1
193.07 305.12 1.62 c p1
194.24 305.20 1.62 c p1
195.42 305.28 1.62 c p1
196.59 305.36 1.62 c p1
197.76 305.43 1.62 c p1
198.94 305.50 1.62 c p1
200.11 305.56 1.62 c p1
201.29 305.63 1.62 c p1
202.46 305.69 1.62 c p1
203.63 305.74 1.62 c p1
204.81 305.80 1.62 c p1
205.98 305.85 1.62 c p1
207.15 305.90 1.62 c p1
208.33 305.95 1.62 c p1
209.50 306.00 1.62 c p1
210.67 306.04 1.62 c p1
211.85 306.08 1.62 c p1
213.02 306.12 1.62 c p1
214.20 306.16 1.62 c p1
215.37 306.20 1.62 c p1
216.54 306.23 1.62 c p1
217.72 306.27 1.62 c p1
218.89 306.30 1.62 c p1
220.06 306.33 1.62 c p1
221.24 306.36 1.62 c p1
222.41 306.38 1.62 c p1
223.58 306.41 1.62 c p1
224.76 306.44 1.62 c p1
225.93 306.46 1.62 c p1
227.11 306.48 1.62 c p1
228.28 306.51 1.62 c p1
229.45 306.53 1.62 c p1
230.63 306.55 1.62 c p1
231.80 306.57 1.62 c p1
232.97 306.58 1.62 c p1
234.15 306.60 1.62 c p1
235.32 306.62 1.62 c p1
236.49 306.64 1.62 c p1
237.67 306.65 1.62 c p1
238.84 306.67 1.62 c p1
240.02 306.68 1.62 c p1
241.19 306.69 1.62 c p1
242.36 306.71 1.62 c p1
243.54 306.72 1.62 c p1
244.71 306.73 1.62 c p1
245.88 306.74 1.62 c p1
247.06 306.75 1.62 c p1
248.23 306.76 1.62 c p1
249.40 306.77 1.62 c p1
250.58 306.78 1.62 c p1
251.75 306.79 1.62 c p1
252.93 306.80 1.62 c p1
254.10 306.81 1.62 c p1
255.27 306.81 1.62 c p1
256.45 306.82 1.62 c p1
257.62 306.83 1.62 c p1
258.79 306.83 1.62 c p1
259.97 306.84 1.62 c p1
261.14 306.85 1.62 c p1
262.31 306.85 1.62 c p1
263.49 306.86 1.62 c p1
264.66 306.86 1.62 c p1
265.84 306.87 1.62 c p1
267.01 306.87 1.62 c p1
268.18 306.88 1.62 c p1
269.36 306.88 1.62 c p1
270.53 306.89 1.62 c p1
271.70 306.89 1.62 c p1
272.88 306.90 1.62 c p1
274.05 306.90 1.62 c p1
275.22 306.90 1.62 c p1
276.40 306.91 1.62 c p1
277.57 306.91 1.62 c p1
278.75 306.91 1.62 c p1
279.92 306.92 1.62 c p1
281.09 306.92 1.62 c p1
282.27 306.92 1.62 c p1
283.44 306.92 1.62 c p1
284.61 306.93 1.62 c p1
285.79 306.93 1.62 c p1
286.96 306.93 1.62 c p1
288.13 306.93 1.62 c p1
289.31 306.94 1.62 c p1
290.48 306.94 1.62 c p1
291.66 306.94 1.62 c p1
292.83 306.94 1.62 c p1
294.00 306.94 1.62 c p1
295.18 306.94 1.62 c p1
296.35 306.95 1.62 c p1
297.52 306.95 1.62 c p1
298.70 306.95 1.62 c p1
299.87 306.95 1.62 c p1
301.04 306.95 1.62 c p1
302.22 306.95 1.62 c p1
303.39 306.95 1.62 c p1
304.57 306.95 1.62 c p1
305.74 306.96 1.62 c p1
306.91 306.96 1.62 c p1
308.09 306.96 1.62 c p1
309.26 306.96 1.62 c p1
310.43 306.96 1.62 c p1
311.61 306.96 1.62 c p1
312.78 306.96 1.62 c p1
313.95 306.96 1.62 c p1
315.13 306.96 1.62 c p1
316.30 306.96 1.62 c p1
317.48 306.96 1.62 c p1
318.65 306.97 1.62 c p1
319.82 306.97 1.62 c p1
321.00 306.97 1.62 c p1
322.17 306.97 1.62 c p1
323.34 306.97 1.62 c p1
324.52 306.97 1.62 c p1
325.69 306.97 1.62 c p1
326.86 306.97 1.62 c p1
328.04 306.97 1.62 c p1
329.21 306.97 1.62 c p1
330.39 306.97 1.62 c p1
331.56 306.97 1.62 c p1
332.73 306.97 1.62 c p1
333.91 306.97 1.62 c p1
335.08 306.97 1.62 c p1
336.25 306.97 1.62 c p1
337.43 306.97 1.62 c p1
338.60 306.97 1.62 c p1
339.77 306.97 1.62 c p1
340.95 306.97 1.62 c p1
342.12 306.97 1.62 c p1
343.30 306.97 1.62 c p1
344.47 306.97 1.62 c p1
345.64 306.97 1.62 c p1
346.82 306.97 1.62 c p1
347.99 306.97 1.62 c p1
349.16 306.97 1.62 c p1
350.34 306.98 1.62 c p1
351.51 306.98 1.62 c p1
352.68 306.98 1.62 c p1
353.86 306.98 1.62 c p1
355.03 306.98 1.62 c p1
356.21 306.98 1.62 c p1
357.38 306.98 1.62 c p1
358.55 306.98 1.62 c p1
359.73 306.98 1.62 c p1
360.90 306.98 1.62 c p1
362.07 306.98 1.62 c p1
363.25 306.98 1.62 c p1
364.42 306.98 1.62 c p1
365.59 306.98 1.62 c p1
366.77 306.98 1.62 c p1
367.94 306.98 1.62 c p1
369.12 306.98 1.62 c p1
370.29 306.98 1.62 c p1
0.00 0.00 412.50 375.00 cl
0 0 0 srgb
0.75 setlinewidth
[] 0 setdash
1 setlinecap
1 setlinejoin
10.00 setmiterlimit
np
69.84 73.44 m
296.93 0 l
o
np
69.84 73.44 m
0 -7.20 l
o
np
129.22 73.44 m
0 -7.20 l
o
np
188.61 73.44 m
0 -7.20 l
o
np
248.00 73.44 m
0 -7.20 l
o
np
307.38 73.44 m
0 -7.20 l
o
np
366.77 73.44 m
0 -7.20 l
o
/Font1 findfont 12 s
69.84 47.52 (0.00) .5 0 t
129.22 47.52 (0.05) .5 0 t
188.61 47.52 (0.10) .5 0 t
248.00 47.52 (0.15) .5 0 t
307.38 47.52 (0.20) .5 0 t
366.77 47.52 (0.25) .5 0 t
np
59.04 82.42 m
0 224.56 l
o
np
59.04 82.42 m
-7.20 0 l
o
np
59.04 138.56 m
-7.20 0 l
o
np
59.04 194.70 m
-7.20 0 l
o
np
59.04 250.84 m
-7.20 0 l
o
np
59.04 306.98 m
-7.20 0 l
o
41.76 82.42 (-1.0) .5 90 t
41.76 138.56 (-0.5) .5 90 t
41.76 194.70 (0.0) .5 90 t
41.76 250.84 (0.5) .5 90 t
41.76 306.98 (1.0) .5 90 t
np
59.04 73.44 m
323.22 0 l
0 242.52 l
-323.22 0 l
0 -242.52 l
o
0.00 0.00 412.50 375.00 cl
/Font1 findfont 12 s
0 0 0 srgb
210.09 21.07 (t) 0 0 t
/Font1 findfont 8 s
213.43 18.88 (i) 0 0 t
/Font1 findfont 12 s
215.20 21.07 ( [s]) 0 0 t
10.76 190.15 (T) 0 90 t
/Font1 findfont 8 s
12.96 197.48 (i) 0 90 t
59.04 73.44 382.26 315.96 cl
1 0.8431 0 srgb
0.75 setlinewidth
[] 0 setdash
1 setlinecap
1 setlinejoin
10.00 setmiterlimit
71.01 109.94 1.62 c p1
72.18 109.38 1.62 c p1
73.36 108.83 1.62 c p1
74.53 108.28 1.62 c p1
75.71 107.75 1.62 c p1
76.88 107.34 1.62 c p1
78.05 107.20 1.62 c p1
79.23 107.51 1.62 c p1
80.40 108.40 1.62 c p1
81.57 109.97 1.62 c p1
82.75 112.22 1.62 c p1
83.92 115.13 1.62 c p1
85.09 118.63 1.62 c p1
86.27 122.63 1.62 c p1
87.44 127.04 1.62 c p1
88.62 131.78 1.62 c p1
89.79 136.76 1.62 c p1
90.96 141.91 1.62 c p1
92.14 147.15 1.62 c p1
93.31 152.43 1.62 c p1
94.48 157.71 1.62 c p1
95.66 162.94 1.62 c p1
96.83 168.09 1.62 c p1
98.00 173.15 1.62 c p1
99.18 178.07 1.62 c p1
100.35 182.86 1.62 c p1
101.53 187.50 1.62 c p1
102.70 191.99 1.62 c p1
103.87 196.31 1.62 c p1
105.05 200.46 1.62 c p1
106.22 204.45 1.62 c p1
107.39 208.28 1.62 c p1
108.57 211.93 1.62 c p1
109.74 215.43 1.62 c p1
110.91 218.76 1.62 c p1
112.09 221.94 1.62 c p1
113.26 224.97 1.62 c p1
114.44 227.85 1.62 c p1
115.61 230.58 1.62 c p1
116.78 233.18 1.62 c p1
117.96 235.65 1.62 c p1
119.13 237.98 1.62 c p1
120.30 240.19 1.62 c p1
121.48 242.28 1.62 c p1
122.65 244.26 1.62 c p1
123.82 246.13 1.62 c p1
125.00 247.89 1.62 c p1
126.17 249.55 1.62 c p1
127.35 251.11 1.62 c p1
128.52 252.58 1.62 c p1
129.69 253.96 1.62 c p1
130.87 255.26 1.62 c p1
132.04 256.47 1.62 c p1
133.21 257.61 1.62 c p1
134.39 258.67 1.62 c p1
135.56 259.66 1.62 c p1
136.73 260.58 1.62 c p1
137.91 261.43 1.62 c p1
139.08 262.22 1.62 c p1
140.26 262.96 1.62 c p1
141.43 263.63 1.62 c p1
142.60 264.25 1.62 c p1
143.78 264.82 1.62 c p1
144.95 265.34 1.62 c p1
146.12 265.81 1.62 c p1
147.30 266.23 1.62 c p1
148.47 266.61 1.62 c p1
149.64 266.95 1.62 c p1
150.82 267.25 1.62 c p1
151.99 267.51 1.62 c p1
153.17 267.74 1.62 c p1
154.34 267.93 1.62 c p1
155.51 268.08 1.62 c p1
156.69 268.21 1.62 c p1
157.86 268.30 1.62 c p1
159.03 268.37 1.62 c p1
160.21 268.41 1.62 c p1
161.38 268.42 1.62 c p1
162.55 268.41 1.62 c p1
163.73 268.37 1.62 c p1
164.90 268.31 1.62 c p1
166.08 268.23 1.62 c p1
167.25 268.12 1.62 c p1
168.42 268.00 1.62 c p1
169.60 267.86 1.62 c p1
170.77 267.69 1.62 c p1
171.94 267.52 1.62 c p1
173.12 267.32 1.62 c p1
174.29 267.11 1.62 c p1
175.47 266.88 1.62 c p1
176.64 266.64 1.62 c p1
177.81 266.38 1.62 c p1
178.99 266.11 1.62 c p1
180.16 265.83 1.62 c p1
181.33 265.54 1.62 c p1
182.51 265.23 1.62 c p1
183.68 264.92 1.62 c p1
184.85 264.59 1.62 c p1
186.03 264.25 1.62 c p1
187.20 263.90 1.62 c p1
188.38 263.55 1.62 c p1
189.55 263.18 1.62 c p1
190.72 262.81 1.62 c p1
191.90 262.43 1.62 c p1
193.07 262.04 1.62 c p1
194.24 261.64 1.62 c p1
195.42 261.24 1.62 c p1
196.59 260.83 1.62 c p1
197.76 260.41 1.62 c p1
198.94 259.99 1.62 c p1
200.11 259.56 1.62 c p1
201.29 259.12 1.62 c p1
202.46 258.68 1.62 c p1
203.63 258.24 1.62 c p1
204.81 257.79 1.62 c p1
205.98 257.33 1.62 c p1
207.15 256.87 1.62 c p1
208.33 256.41 1.62 c p1
209.50 255.94 1.62 c p1
210.67 255.47 1.62 c p1
211.85 255.00 1.62 c p1
213.02 254.52 1.62 c p1
214.20 254.03 1.62 c p1
215.37 253.55 1.62 c p1
216.54 253.06 1.62 c p1
217.72 252.57 1.62 c p1
218.89 252.08 1.62 c p1
220.06 251.58 1.62 c p1
221.24 251.08 1.62 c p1
222.41 250.58 1.62 c p1
223.58 250.07 1.62 c p1
224.76 249.57 1.62 c p1
225.93 249.06 1.62 c p1
227.11 248.55 1.62 c p1
228.28 248.03 1.62 c p1
229.45 247.52 1.62 c p1
230.63 247.00 1.62 c p1
231.80 246.48 1.62 c p1
232.97 245.97 1.62 c p1
234.15 245.44 1.62 c p1
235.32 244.92 1.62 c p1
236.49 244.40 1.62 c p1
237.67 243.87 1.62 c p1
238.84 243.34 1.62 c p1
240.02 242.82 1.62 c p1
241.19 242.29 1.62 c p1
242.36 241.76 1.62 c p1
243.54 241.23 1.62 c p1
244.71 240.69 1.62 c p1
245.88 240.16 1.62 c p1
247.06 239.62 1.62 c p1
248.23 239.09 1.62 c p1
249.40 238.55 1.62 c p1
250.58 238.02 1.62 c p1
251.75 237.48 1.62 c p1
252.93 236.94 1.62 c p1
254.10 236.40 1.62 c p1
255.27 235.86 1.62 c p1
256.45 235.32 1.62 c p1
257.62 234.78 1.62 c p1
258.79 234.24 1.62 c p1
259.97 233.69 1.62 c p1
261.14 233.15 1.62 c p1
262.31 232.61 1.62 c p1
263.49 232.06 1.62 c p1
264.66 231.52 1.62 c p1
265.84 230.97 1.62 c p1
267.01 230.43 1.62 c p1
268.18 229.88 1.62 c p1
269.36 229.34 1.62 c p1
270.53 228.79 1.62 c p1
271.70 228.24 1.62 c p1
272.88 227.69 1.62 c p1
274.05 227.15 1.62 c p1
275.22 226.60 1.62 c p1
276.40 226.05 1.62 c p1
277.57 225.50 1.62 c p1
278.75 224.95 1.62 c p1
279.92 224.40 1.62 c p1
281.09 223.86 1.62 c p1
282.27 223.31 1.62 c p1
283.44 222.76 1.62 c p1
284.61 222.21 1.62 c p1
285.79 221.66 1.62 c p1
286.96 221.11 1.62 c p1
288.13 220.55 1.62 c p1
289.31 220.00 1.62 c p1
290.48 219.45 1.62 c p1
291.66 218.90 1.62 c p1
292.83 218.35 1.62 c p1
294.00 217.80 1.62 c p1
295.18 217.25 1.62 c p1
296.35 216.70 1.62 c p1
297.52 216.14 1.62 c p1
298.70 215.59 1.62 c p1
299.87 215.04 1.62 c p1
301.04 214.49 1.62 c p1
302.22 213.93 1.62 c p1
303.39 213.38 1.62 c p1
304.57 212.83 1.62 c p1
305.74 212.28 1.62 c p1
306.91 211.72 1.62 c p1
308.09 211.17 1.62 c p1
309.26 210.62 1.62 c p1
310.43 210.07 1.62 c p1
311.61 209.51 1.62 c p1
312.78 208.96 1.62 c p1
313.95 208.41 1.62 c p1
315.13 207.85 1.62 c p1
316.30 207.30 1.62 c p1
317.48 206.75 1.62 c p1
318.65 206.19 1.62 c p1
319.82 205.64 1.62 c p1
321.00 205.09 1.62 c p1
322.17 204.53 1.62 c p1
323.34 203.98 1.62 c p1
324.52 203.42 1.62 c p1
325.69 202.87 1.62 c p1
326.86 202.32 1.62 c p1
328.04 201.76 1.62 c p1
329.21 201.21 1.62 c p1
330.39 200.65 1.62 c p1
331.56 200.10 1.62 c p1
332.73 199.55 1.62 c p1
333.91 198.99 1.62 c p1
335.08 198.44 1.62 c p1
336.25 197.88 1.62 c p1
337.43 197.33 1.62 c p1
338.60 196.78 1.62 c p1
339.77 196.22 1.62 c p1
340.95 195.67 1.62 c p1
342.12 195.11 1.62 c p1
343.30 194.56 1.62 c p1
344.47 194.01 1.62 c p1
345.64 193.45 1.62 c p1
346.82 192.90 1.62 c p1
347.99 192.34 1.62 c p1
349.16 191.79 1.62 c p1
350.34 191.23 1.62 c p1
351.51 190.68 1.62 c p1
352.68 190.12 1.62 c p1
353.86 189.57 1.62 c p1
355.03 189.02 1.62 c p1
356.21 188.46 1.62 c p1
357.38 187.91 1.62 c p1
358.55 187.35 1.62 c p1
359.73 186.80 1.62 c p1
360.90 186.24 1.62 c p1
362.07 185.69 1.62 c p1
363.25 185.13 1.62 c p1
364.42 184.58 1.62 c p1
365.59 184.03 1.62 c p1
366.77 183.47 1.62 c p1
367.94 182.92 1.62 c p1
369.12 182.36 1.62 c p1
370.29 181.81 1.62 c p1
0.8275 0.8275 0.8275 srgb
0.75 setlinewidth
[ 0.00 3.00] 0 setdash
np
69.84 73.44 m
0 242.52 l
o
np
129.22 73.44 m
0 242.52 l
o
np
188.61 73.44 m
0 242.52 l
o
np
248.00 73.44 m
0 242.52 l
o
np
307.38 73.44 m
0 242.52 l
o
np
366.77 73.44 m
0 242.52 l
o
np
59.04 82.42 m
323.22 0 l
o
np
59.04 138.56 m
323.22 0 l
o
np
59.04 194.70 m
323.22 0 l
o
np
59.04 250.84 m
323.22 0 l
o
np
59.04 306.98 m
323.22 0 l
o
/bg { 1 1 1 srgb } def
0 0 0 srgb
0.75 setlinewidth
[] 0 setdash
283.63 290.14 68.24 -36.64 r p3
0.6784 0.8471 0.9020 srgb
294.16 277.92 1.62 c p1
1 0.8431 0 srgb
294.16 265.71 1.62 c p1
/Font1 findfont 13 s
0 0 0 srgb
304.70 273.26 (Cur) 0 ta
0.390 (v) tb
-0.325 (e 1) tb gr
304.70 261.04 (Cur) 0 ta
0.390 (v) tb
-0.325 (e 2) tb gr
ep
%%Trailer
%%Pages: 1
%%EOF
