%!PS-Adobe-3.0 EPSF-3.0
%%DocumentNeededResources: font Helvetica
%%+ font Helvetica-Bold
%%+ font Helvetica-Oblique
%%+ font Helvetica-BoldOblique
%%+ font Symbol
%%Title: R Graphics Output
%%Creator: R Software
%%Pages: (atend)
%%BoundingBox: 0 0 300 338
%%EndComments
%%BeginProlog
/bp  { gs sRGB gs } def
% begin .ps.prolog
/gs  { gsave } bind def
/gr  { grestore } bind def
/ep  { showpage gr gr } bind def
/m   { moveto } bind def
/l  { rlineto } bind def
/np  { newpath } bind def
/cp  { closepath } bind def
/f   { fill } bind def
/o   { stroke } bind def
/c   { newpath 0 360 arc } bind def
/r   { 4 2 roll moveto 1 copy 3 -1 roll exch 0 exch rlineto 0 rlineto -1 mul 0 exch rlineto closepath } bind def
/p1  { stroke } bind def
/p2  { gsave bg fill grestore newpath } bind def
/p3  { gsave bg fill grestore stroke } bind def
/p6  { gsave bg eofill grestore newpath } bind def
/p7  { gsave bg eofill grestore stroke } bind def
/t   { 5 -2 roll moveto gsave rotate
       1 index stringwidth pop
       mul neg 0 rmoveto show grestore } bind def
/ta  { 4 -2 roll moveto gsave rotate show } bind def
/tb  { 2 -1 roll 0 rmoveto show } bind def
/cl  { grestore gsave newpath 3 index 3 index moveto 1 index
       4 -1 roll lineto  exch 1 index lineto lineto
       closepath clip newpath } bind def
/rgb { setrgbcolor } bind def
/s   { scalefont setfont } bind def
% end   .ps.prolog
/sRGB { [ /CIEBasedABC
          << /DecodeLMN
               [ { dup 0.03928 le
                        {12.92321 div}
                        {0.055 add 1.055 div 2.4 exp }
                     ifelse
                 } bind dup dup
               ]
             /MatrixLMN [0.412457 0.212673 0.019334
                         0.357576 0.715152 0.119192
                         0.180437 0.072175 0.950301]
             /WhitePoint [0.9505 1.0 1.0890]
           >>
         ] setcolorspace } bind def
/srgb { setcolor } bind def
% begin encoding
/WinAnsiEncoding [
 /.notdef /.notdef /.notdef /.notdef /.notdef /.notdef /.notdef /.notdef
 /.notdef /.notdef /.notdef /.notdef /.notdef /.notdef /.notdef /.notdef
 /.notdef /.notdef /.notdef /.notdef /.notdef /.notdef /.notdef /.notdef
 /.notdef /.notdef /.notdef /.notdef /.notdef /.notdef /.notdef /.notdef
 /space /exclam /quotedbl /numbersign /dollar /percent /ampersand /quoteright
 /parenleft /parenright /asterisk /plus /comma /minus /period /slash
 /zero /one /two /three /four /five /six /seven
 /eight /nine /colon /semicolon /less /equal /greater /question
 /at /A /B /C /D /E /F /G
 /H /I /J /K /L /M /N /O
 /P /Q /R /S /T /U /V /W
 /X /Y /Z /bracketleft /backslash /bracketright /asciicircum /underscore
 /grave /a /b /c /d /e /f /g
 /h /i /j /k /l /m /n /o
 /p /q /r /s /t /u /v /w
 /x /y /z /braceleft /bar /braceright /asciitilde /.notdef
 /Euro /.notdef /quotesinglbase /florin /quotedblbase /ellipsis /dagger /daggerdbl
 /circumflex /perthousand /Scaron /guilsinglleft /OE /.notdef /Zcaron /.notdef
 /.notdef /quoteleft /quoteright /quotedblleft /quotedblright /bullet /endash /emdash
 /tilde /trademark /scaron /guilsinglright /oe /.notdef /zcaron /Ydieresis
 /space /exclamdown /cent /sterling /currency /yen /brokenbar /section
 /dieresis /copyright /ordfeminine /guillemotleft /logicalnot /hyphen /registered /macron
 /degree /plusminus /twosuperior /threesuperior /acute /mu /paragraph /periodcentered
 /cedilla /onesuperior /ordmasculine /guillemotright /onequarter /onehalf /threequarters /questiondown
 /Agrave /Aacute /Acircumflex /Atilde /Adieresis /Aring /AE /Ccedilla
 /Egrave /Eacute /Ecircumflex /Edieresis /Igrave /Iacute /Icircumflex /Idieresis
 /Eth /Ntilde /Ograve /Oacute /Ocircumflex /Otilde /Odieresis /multiply
 /Oslash /Ugrave /Uacute /Ucircumflex /Udieresis /Yacute /Thorn /germandbls
 /agrave /aacute /acircumflex /atilde /adieresis /aring /ae /ccedilla
 /egrave /eacute /ecircumflex /edieresis /igrave /iacute /icircumflex /idieresis
 /eth /ntilde /ograve /oacute /ocircumflex /otilde /odieresis /divide
 /oslash /ugrave /uacute /ucircumflex /udieresis /yacute /thorn /ydieresis
]
 def
% end encoding
%%IncludeResource: font Helvetica
/Helvetica findfont
dup length dict begin
  {1 index /FID ne {def} {pop pop} ifelse} forall
  /Encoding WinAnsiEncoding def
  currentdict
  end
/Font1 exch definefont pop
%%IncludeResource: font Helvetica-Bold
/Helvetica-Bold findfont
dup length dict begin
  {1 index /FID ne {def} {pop pop} ifelse} forall
  /Encoding WinAnsiEncoding def
  currentdict
  end
/Font2 exch definefont pop
%%IncludeResource: font Helvetica-Oblique
/Helvetica-Oblique findfont
dup length dict begin
  {1 index /FID ne {def} {pop pop} ifelse} forall
  /Encoding WinAnsiEncoding def
  currentdict
  end
/Font3 exch definefont pop
%%IncludeResource: font Helvetica-BoldOblique
/Helvetica-BoldOblique findfont
dup length dict begin
  {1 index /FID ne {def} {pop pop} ifelse} forall
  /Encoding WinAnsiEncoding def
  currentdict
  end
/Font4 exch definefont pop
%%IncludeResource: font Symbol
/Symbol findfont
dup length dict begin
  {1 index /FID ne {def} {pop pop} ifelse} forall
  currentdict
  end
/Font5 exch definefont pop
%%EndProlog
%%Page: 1 1
bp
0.00 0.00 300.00 337.50 cl
0.00 0.00 300.00 337.50 cl
0.00 0.00 300.00 337.50 cl
0.00 0.00 300.00 337.50 cl
0.00 0.00 300.00 337.50 cl
0.00 0.00 300.00 337.50 cl
0.00 0.00 300.00 337.50 cl
0.00 0.00 300.00 337.50 cl
0.00 0.00 300.00 337.50 cl
/bg { 1 1 1 srgb } def
1 1 1 srgb
1.07 setlinewidth
[] 0 setdash
1 setlinecap
1 setlinejoin
10.00 setmiterlimit
0.00 0.00 300.00 337.50 r p3
0.00 0.00 300.00 337.50 cl
0.00 0.00 300.00 337.50 cl
0.00 0.00 300.00 337.50 cl
42.40 31.35 294.52 332.02 cl
/bg { 0.9216 0.9216 0.9216 srgb } def
42.40 31.35 252.12 300.67 r p2
1 1 1 srgb
0.53 setlinewidth
[] 0 setdash
0 setlinecap
1 setlinejoin
10.00 setmiterlimit
np
42.40 133.07 m
252.12 0 l
o
np
42.40 270.50 m
252.12 0 l
o
np
82.51 31.35 m
0 300.67 l
o
np
139.81 31.35 m
0 300.67 l
o
np
197.11 31.35 m
0 300.67 l
o
np
254.41 31.35 m
0 300.67 l
o
1.07 setlinewidth
[] 0 setdash
np
42.40 64.36 m
252.12 0 l
o
np
42.40 201.78 m
252.12 0 l
o
np
53.86 31.35 m
0 300.67 l
o
np
111.16 31.35 m
0 300.67 l
o
np
168.46 31.35 m
0 300.67 l
o
np
225.76 31.35 m
0 300.67 l
o
np
283.06 31.35 m
0 300.67 l
o
/bg { 0 0 0 srgb } def
0 0 0 srgb
0.71 setlinewidth
[] 0 setdash
1 setlinecap
53.86 286.98 1.95 c p3
82.51 278.15 1.95 c p3
111.16 258.14 1.95 c p3
139.81 237.06 1.95 c p3
168.46 210.84 1.95 c p3
197.11 186.34 1.95 c p3
225.76 157.86 1.95 c p3
254.41 123.86 1.95 c p3
283.06 77.71 1.95 c p3
/bg { 1 0 0 srgb } def
1 0 0 srgb
53.86 318.35 1.95 c p3
82.51 277.78 1.95 c p3
111.16 227.09 1.95 c p3
139.81 165.71 1.95 c p3
168.46 45.01 1.95 c p3
197.11 55.56 1.95 c p3
225.76 97.78 1.95 c p3
254.41 106.16 1.95 c p3
283.06 101.86 1.95 c p3
0 0 0 srgb
1.07 setlinewidth
[] 0 setdash
np
42.40 9.67 m
2.83 0 l
o
np
42.40 22.99 m
5.67 0 l
o
np
42.40 33.87 m
2.83 0 l
o
np
42.40 43.07 m
2.83 0 l
o
np
42.40 51.04 m
2.83 0 l
o
np
42.40 58.07 m
2.83 0 l
o
np
42.40 64.36 m
8.50 0 l
o
np
42.40 105.73 m
2.83 0 l
o
np
42.40 129.93 m
2.83 0 l
o
np
42.40 147.10 m
2.83 0 l
o
np
42.40 160.41 m
5.67 0 l
o
np
42.40 171.29 m
2.83 0 l
o
np
42.40 180.49 m
2.83 0 l
o
np
42.40 188.46 m
2.83 0 l
o
np
42.40 195.49 m
2.83 0 l
o
np
42.40 201.78 m
8.50 0 l
o
np
42.40 243.15 m
2.83 0 l
o
np
42.40 267.35 m
2.83 0 l
o
np
42.40 284.52 m
2.83 0 l
o
np
42.40 297.84 m
5.67 0 l
o
np
42.40 308.72 m
2.83 0 l
o
np
42.40 317.92 m
2.83 0 l
o
np
42.40 325.89 m
2.83 0 l
o
np
42.40 332.92 m
2.83 0 l
o
0.00 0.00 300.00 337.50 cl
0.00 0.00 300.00 337.50 cl
0.00 0.00 300.00 337.50 cl
0.00 0.00 300.00 337.50 cl
0.00 0.00 300.00 337.50 cl
0.00 0.00 300.00 337.50 cl
/Font1 findfont 9 s
0.3020 0.3020 0.3020 srgb
37.47 61.13 (0.01) 1 0 t
37.47 198.55 (0.10) 1 0 t
0.00 0.00 300.00 337.50 cl
0.00 0.00 300.00 337.50 cl
0.2000 0.2000 0.2000 srgb
1.07 setlinewidth
[] 0 setdash
0 setlinecap
1 setlinejoin
10.00 setmiterlimit
np
39.66 64.36 m
2.74 0 l
o
np
39.66 201.78 m
2.74 0 l
o
0.00 0.00 300.00 337.50 cl
0.00 0.00 300.00 337.50 cl
0.00 0.00 300.00 337.50 cl
0.00 0.00 300.00 337.50 cl
0.00 0.00 300.00 337.50 cl
0.00 0.00 300.00 337.50 cl
0.00 0.00 300.00 337.50 cl
0.00 0.00 300.00 337.50 cl
0.2000 0.2000 0.2000 srgb
1.07 setlinewidth
[] 0 setdash
0 setlinecap
1 setlinejoin
10.00 setmiterlimit
np
53.86 28.61 m
0 2.74 l
o
np
111.16 28.61 m
0 2.74 l
o
np
168.46 28.61 m
0 2.74 l
o
np
225.76 28.61 m
0 2.74 l
o
np
283.06 28.61 m
0 2.74 l
o
0.00 0.00 300.00 337.50 cl
0.00 0.00 300.00 337.50 cl
/Font1 findfont 9 s
0.3020 0.3020 0.3020 srgb
53.86 19.95 (2) .5 0 t
111.16 19.95 (4) .5 0 t
168.46 19.95 (6) .5 0 t
225.76 19.95 (8) .5 0 t
283.06 19.95 (10) .5 0 t
0.00 0.00 300.00 337.50 cl
0.00 0.00 300.00 337.50 cl
0.00 0.00 300.00 337.50 cl
0.00 0.00 300.00 337.50 cl
/Font1 findfont 11 s
0 0 0 srgb
158.68 7.67 (xv) 0 ta
-0.275 (al) tb gr
0.00 0.00 300.00 337.50 cl
0.00 0.00 300.00 337.50 cl
/Font1 findfont 11 s
0 0 0 srgb
15.57 171.90 (yv) 90 ta
-0.275 (al) tb gr
0.00 0.00 300.00 337.50 cl
0.00 0.00 300.00 337.50 cl
0.00 0.00 300.00 337.50 cl
0.00 0.00 300.00 337.50 cl
ep
%%Trailer
%%Pages: 1
%%EOF
