%!PS-Adobe-3.0 EPSF-3.0
%%DocumentNeededResources: font Helvetica
%%+ font Helvetica-Bold
%%+ font Helvetica-Oblique
%%+ font Helvetica-BoldOblique
%%+ font Symbol
%%Title: R Graphics Output
%%Creator: R Software
%%Pages: (atend)
%%BoundingBox: 0 0 442 337
%%EndComments
%%BeginProlog
/bp  { gs sRGB gs } def
% begin .ps.prolog
/gs  { gsave } bind def
/gr  { grestore } bind def
/ep  { showpage gr gr } bind def
/m   { moveto } bind def
/l  { rlineto } bind def
/np  { newpath } bind def
/cp  { closepath } bind def
/f   { fill } bind def
/o   { stroke } bind def
/c   { newpath 0 360 arc } bind def
/r   { 4 2 roll moveto 1 copy 3 -1 roll exch 0 exch rlineto 0 rlineto -1 mul 0 exch rlineto closepath } bind def
/p1  { stroke } bind def
/p2  { gsave bg fill grestore newpath } bind def
/p3  { gsave bg fill grestore stroke } bind def
/p6  { gsave bg eofill grestore newpath } bind def
/p7  { gsave bg eofill grestore stroke } bind def
/t   { 5 -2 roll moveto gsave rotate
       1 index stringwidth pop
       mul neg 0 rmoveto show grestore } bind def
/ta  { 4 -2 roll moveto gsave rotate show } bind def
/tb  { 2 -1 roll 0 rmoveto show } bind def
/cl  { grestore gsave newpath 3 index 3 index moveto 1 index
       4 -1 roll lineto  exch 1 index lineto lineto
       closepath clip newpath } bind def
/rgb { setrgbcolor } bind def
/s   { scalefont setfont } bind def
% end   .ps.prolog
/sRGB { [ /CIEBasedABC
          << /DecodeLMN
               [ { dup 0.03928 le
                        {12.92321 div}
                        {0.055 add 1.055 div 2.4 exp }
                     ifelse
                 } bind dup dup
               ]
             /MatrixLMN [0.412457 0.212673 0.019334
                         0.357576 0.715152 0.119192
                         0.180437 0.072175 0.950301]
             /WhitePoint [0.9505 1.0 1.0890]
           >>
         ] setcolorspace } bind def
/srgb { setcolor } bind def
% begin encoding
/WinAnsiEncoding [
 /.notdef /.notdef /.notdef /.notdef /.notdef /.notdef /.notdef /.notdef
 /.notdef /.notdef /.notdef /.notdef /.notdef /.notdef /.notdef /.notdef
 /.notdef /.notdef /.notdef /.notdef /.notdef /.notdef /.notdef /.notdef
 /.notdef /.notdef /.notdef /.notdef /.notdef /.notdef /.notdef /.notdef
 /space /exclam /quotedbl /numbersign /dollar /percent /ampersand /quoteright
 /parenleft /parenright /asterisk /plus /comma /minus /period /slash
 /zero /one /two /three /four /five /six /seven
 /eight /nine /colon /semicolon /less /equal /greater /question
 /at /A /B /C /D /E /F /G
 /H /I /J /K /L /M /N /O
 /P /Q /R /S /T /U /V /W
 /X /Y /Z /bracketleft /backslash /bracketright /asciicircum /underscore
 /grave /a /b /c /d /e /f /g
 /h /i /j /k /l /m /n /o
 /p /q /r /s /t /u /v /w
 /x /y /z /braceleft /bar /braceright /asciitilde /.notdef
 /Euro /.notdef /quotesinglbase /florin /quotedblbase /ellipsis /dagger /daggerdbl
 /circumflex /perthousand /Scaron /guilsinglleft /OE /.notdef /Zcaron /.notdef
 /.notdef /quoteleft /quoteright /quotedblleft /quotedblright /bullet /endash /emdash
 /tilde /trademark /scaron /guilsinglright /oe /.notdef /zcaron /Ydieresis
 /space /exclamdown /cent /sterling /currency /yen /brokenbar /section
 /dieresis /copyright /ordfeminine /guillemotleft /logicalnot /hyphen /registered /macron
 /degree /plusminus /twosuperior /threesuperior /acute /mu /paragraph /periodcentered
 /cedilla /onesuperior /ordmasculine /guillemotright /onequarter /onehalf /threequarters /questiondown
 /Agrave /Aacute /Acircumflex /Atilde /Adieresis /Aring /AE /Ccedilla
 /Egrave /Eacute /Ecircumflex /Edieresis /Igrave /Iacute /Icircumflex /Idieresis
 /Eth /Ntilde /Ograve /Oacute /Ocircumflex /Otilde /Odieresis /multiply
 /Oslash /Ugrave /Uacute /Ucircumflex /Udieresis /Yacute /Thorn /germandbls
 /agrave /aacute /acircumflex /atilde /adieresis /aring /ae /ccedilla
 /egrave /eacute /ecircumflex /edieresis /igrave /iacute /icircumflex /idieresis
 /eth /ntilde /ograve /oacute /ocircumflex /otilde /odieresis /divide
 /oslash /ugrave /uacute /ucircumflex /udieresis /yacute /thorn /ydieresis
]
 def
% end encoding
%%IncludeResource: font Helvetica
/Helvetica findfont
dup length dict begin
  {1 index /FID ne {def} {pop pop} ifelse} forall
  /Encoding WinAnsiEncoding def
  currentdict
  end
/Font1 exch definefont pop
%%IncludeResource: font Helvetica-Bold
/Helvetica-Bold findfont
dup length dict begin
  {1 index /FID ne {def} {pop pop} ifelse} forall
  /Encoding WinAnsiEncoding def
  currentdict
  end
/Font2 exch definefont pop
%%IncludeResource: font Helvetica-Oblique
/Helvetica-Oblique findfont
dup length dict begin
  {1 index /FID ne {def} {pop pop} ifelse} forall
  /Encoding WinAnsiEncoding def
  currentdict
  end
/Font3 exch definefont pop
%%IncludeResource: font Helvetica-BoldOblique
/Helvetica-BoldOblique findfont
dup length dict begin
  {1 index /FID ne {def} {pop pop} ifelse} forall
  /Encoding WinAnsiEncoding def
  currentdict
  end
/Font4 exch definefont pop
%%IncludeResource: font Symbol
/Symbol findfont
dup length dict begin
  {1 index /FID ne {def} {pop pop} ifelse} forall
  currentdict
  end
/Font5 exch definefont pop
%%EndProlog
%%Page: 1 1
bp
/bg { 1 1 1 srgb } def
0.00 0.00 442.50 336.75 r p2
59.04 73.44 412.26 277.71 cl
59.04 73.44 412.26 277.71 cl
0.6784 0.8471 0.9020 srgb
0.75 setlinewidth
[] 0 setdash
1 setlinecap
1 setlinejoin
10.00 setmiterlimit
72.12 96.77 1.35 c p1
72.76 96.77 1.35 c p1
73.40 96.77 1.35 c p1
74.04 96.77 1.35 c p1
74.68 96.79 1.35 c p1
75.32 96.90 1.35 c p1
75.96 97.20 1.35 c p1
76.60 97.84 1.35 c p1
77.24 98.91 1.35 c p1
77.88 100.48 1.35 c p1
78.52 102.55 1.35 c p1
79.16 105.11 1.35 c p1
79.80 108.11 1.35 c p1
80.44 111.47 1.35 c p1
81.08 115.14 1.35 c p1
81.72 119.06 1.35 c p1
82.36 123.15 1.35 c p1
83.00 127.36 1.35 c p1
83.64 131.64 1.35 c p1
84.28 135.95 1.35 c p1
84.92 140.26 1.35 c p1
85.56 144.54 1.35 c p1
86.20 148.75 1.35 c p1
86.84 152.89 1.35 c p1
87.48 156.95 1.35 c p1
88.12 160.89 1.35 c p1
88.76 164.73 1.35 c p1
89.40 168.46 1.35 c p1
90.04 172.06 1.35 c p1
90.68 175.54 1.35 c p1
91.32 178.90 1.35 c p1
91.96 182.13 1.35 c p1
92.60 185.24 1.35 c p1
93.24 188.23 1.35 c p1
93.88 191.11 1.35 c p1
94.52 193.87 1.35 c p1
95.16 196.51 1.35 c p1
95.80 199.05 1.35 c p1
96.44 201.48 1.35 c p1
97.08 203.81 1.35 c p1
97.72 206.04 1.35 c p1
98.36 208.18 1.35 c p1
99.00 210.22 1.35 c p1
99.64 212.18 1.35 c p1
100.28 214.05 1.35 c p1
100.92 215.84 1.35 c p1
101.56 217.55 1.35 c p1
102.20 219.18 1.35 c p1
102.84 220.75 1.35 c p1
103.48 222.24 1.35 c p1
104.12 223.67 1.35 c p1
104.76 225.04 1.35 c p1
105.40 226.35 1.35 c p1
106.04 227.59 1.35 c p1
106.68 228.79 1.35 c p1
107.32 229.93 1.35 c p1
107.96 231.02 1.35 c p1
108.60 232.06 1.35 c p1
109.24 233.05 1.35 c p1
109.88 234.01 1.35 c p1
110.52 234.91 1.35 c p1
111.16 235.78 1.35 c p1
111.80 236.61 1.35 c p1
112.44 237.40 1.35 c p1
113.08 238.16 1.35 c p1
113.72 238.89 1.35 c p1
114.36 239.58 1.35 c p1
115.00 240.24 1.35 c p1
115.64 240.87 1.35 c p1
116.28 241.47 1.35 c p1
116.92 242.05 1.35 c p1
117.56 242.60 1.35 c p1
118.20 243.12 1.35 c p1
118.84 243.63 1.35 c p1
119.48 244.11 1.35 c p1
120.12 244.56 1.35 c p1
120.76 245.00 1.35 c p1
121.40 245.42 1.35 c p1
122.04 245.82 1.35 c p1
122.68 246.20 1.35 c p1
123.32 246.57 1.35 c p1
123.96 246.92 1.35 c p1
124.60 247.25 1.35 c p1
125.24 247.57 1.35 c p1
125.88 247.87 1.35 c p1
126.52 248.16 1.35 c p1
127.16 248.44 1.35 c p1
127.80 248.71 1.35 c p1
128.44 248.96 1.35 c p1
129.08 249.20 1.35 c p1
129.72 249.43 1.35 c p1
130.36 249.65 1.35 c p1
131.00 249.86 1.35 c p1
131.65 250.07 1.35 c p1
132.29 250.26 1.35 c p1
132.93 250.44 1.35 c p1
133.57 250.62 1.35 c p1
134.21 250.79 1.35 c p1
134.85 250.95 1.35 c p1
135.49 251.10 1.35 c p1
136.13 251.25 1.35 c p1
136.77 251.39 1.35 c p1
137.41 251.52 1.35 c p1
138.05 251.65 1.35 c p1
138.69 251.77 1.35 c p1
139.33 251.89 1.35 c p1
139.97 252.00 1.35 c p1
140.61 252.11 1.35 c p1
141.25 252.21 1.35 c p1
141.89 252.30 1.35 c p1
142.53 252.40 1.35 c p1
143.17 252.49 1.35 c p1
143.81 252.57 1.35 c p1
144.45 252.65 1.35 c p1
145.09 252.73 1.35 c p1
145.73 252.80 1.35 c p1
146.37 252.87 1.35 c p1
147.01 252.94 1.35 c p1
147.65 253.01 1.35 c p1
148.29 253.07 1.35 c p1
148.93 253.13 1.35 c p1
149.57 253.18 1.35 c p1
150.21 253.24 1.35 c p1
150.85 253.29 1.35 c p1
151.49 253.34 1.35 c p1
152.13 253.38 1.35 c p1
152.77 253.43 1.35 c p1
153.41 253.47 1.35 c p1
154.05 253.51 1.35 c p1
154.69 253.55 1.35 c p1
155.33 253.59 1.35 c p1
155.97 253.62 1.35 c p1
156.61 253.66 1.35 c p1
157.25 253.69 1.35 c p1
157.89 253.72 1.35 c p1
158.53 253.75 1.35 c p1
159.17 253.78 1.35 c p1
159.81 253.81 1.35 c p1
160.45 253.83 1.35 c p1
161.09 253.86 1.35 c p1
161.73 253.88 1.35 c p1
162.37 253.90 1.35 c p1
163.01 253.92 1.35 c p1
163.65 253.94 1.35 c p1
164.29 253.96 1.35 c p1
164.93 253.98 1.35 c p1
165.57 254.00 1.35 c p1
166.21 254.02 1.35 c p1
166.85 254.03 1.35 c p1
167.49 254.05 1.35 c p1
168.13 254.06 1.35 c p1
168.77 254.08 1.35 c p1
169.41 254.09 1.35 c p1
170.05 254.11 1.35 c p1
170.69 254.12 1.35 c p1
171.33 254.13 1.35 c p1
171.97 254.14 1.35 c p1
172.61 254.15 1.35 c p1
173.25 254.16 1.35 c p1
173.89 254.17 1.35 c p1
174.53 254.18 1.35 c p1
175.17 254.19 1.35 c p1
175.81 254.20 1.35 c p1
176.45 254.21 1.35 c p1
177.09 254.22 1.35 c p1
177.73 254.22 1.35 c p1
178.37 254.23 1.35 c p1
179.01 254.24 1.35 c p1
179.65 254.24 1.35 c p1
180.29 254.25 1.35 c p1
180.93 254.26 1.35 c p1
181.57 254.26 1.35 c p1
182.21 254.27 1.35 c p1
182.85 254.27 1.35 c p1
183.49 254.28 1.35 c p1
184.13 254.28 1.35 c p1
184.77 254.29 1.35 c p1
185.41 254.29 1.35 c p1
186.05 254.30 1.35 c p1
186.69 254.30 1.35 c p1
187.33 254.30 1.35 c p1
187.97 254.31 1.35 c p1
188.61 254.31 1.35 c p1
189.25 254.31 1.35 c p1
189.89 254.32 1.35 c p1
190.53 254.32 1.35 c p1
191.17 254.32 1.35 c p1
191.81 254.33 1.35 c p1
192.45 254.33 1.35 c p1
193.09 254.33 1.35 c p1
193.73 254.33 1.35 c p1
194.37 254.34 1.35 c p1
195.01 254.34 1.35 c p1
195.65 254.34 1.35 c p1
196.29 254.34 1.35 c p1
196.93 254.34 1.35 c p1
197.57 254.35 1.35 c p1
198.21 254.35 1.35 c p1
198.85 254.35 1.35 c p1
199.49 254.35 1.35 c p1
200.13 254.35 1.35 c p1
200.77 254.35 1.35 c p1
201.41 254.36 1.35 c p1
202.05 254.36 1.35 c p1
202.69 254.36 1.35 c p1
203.33 254.36 1.35 c p1
203.97 254.36 1.35 c p1
204.61 254.36 1.35 c p1
205.25 254.36 1.35 c p1
205.89 254.36 1.35 c p1
206.53 254.36 1.35 c p1
207.17 254.37 1.35 c p1
207.81 254.37 1.35 c p1
208.45 254.37 1.35 c p1
209.09 254.37 1.35 c p1
209.73 254.37 1.35 c p1
210.37 254.37 1.35 c p1
211.01 254.37 1.35 c p1
211.65 254.37 1.35 c p1
212.29 254.37 1.35 c p1
212.93 254.37 1.35 c p1
213.57 254.37 1.35 c p1
214.21 254.37 1.35 c p1
214.85 254.37 1.35 c p1
215.49 254.37 1.35 c p1
216.13 254.37 1.35 c p1
216.77 254.38 1.35 c p1
217.41 254.38 1.35 c p1
218.05 254.38 1.35 c p1
218.69 254.38 1.35 c p1
219.33 254.38 1.35 c p1
219.97 254.38 1.35 c p1
220.61 254.38 1.35 c p1
221.25 254.38 1.35 c p1
221.89 254.38 1.35 c p1
222.53 254.38 1.35 c p1
223.17 254.38 1.35 c p1
223.81 254.38 1.35 c p1
224.45 254.38 1.35 c p1
225.09 254.38 1.35 c p1
225.73 254.38 1.35 c p1
226.37 254.38 1.35 c p1
227.01 254.38 1.35 c p1
227.65 254.38 1.35 c p1
228.29 254.38 1.35 c p1
228.93 254.38 1.35 c p1
229.57 254.38 1.35 c p1
230.21 254.38 1.35 c p1
230.85 254.38 1.35 c p1
231.49 254.38 1.35 c p1
232.13 254.38 1.35 c p1
232.77 254.38 1.35 c p1
233.41 254.38 1.35 c p1
234.05 254.38 1.35 c p1
234.69 254.38 1.35 c p1
235.33 254.38 1.35 c p1
235.97 254.38 1.35 c p1
236.61 254.38 1.35 c p1
237.25 254.38 1.35 c p1
237.89 254.38 1.35 c p1
238.53 254.38 1.35 c p1
239.17 254.38 1.35 c p1
239.81 254.38 1.35 c p1
240.45 254.38 1.35 c p1
241.09 254.38 1.35 c p1
241.73 254.38 1.35 c p1
242.37 254.38 1.35 c p1
243.01 254.38 1.35 c p1
243.65 254.38 1.35 c p1
244.29 254.38 1.35 c p1
244.93 254.38 1.35 c p1
245.57 254.38 1.35 c p1
246.21 254.38 1.35 c p1
246.85 254.38 1.35 c p1
247.49 254.38 1.35 c p1
248.13 254.38 1.35 c p1
248.77 254.38 1.35 c p1
249.41 254.38 1.35 c p1
250.05 254.38 1.35 c p1
250.69 254.38 1.35 c p1
251.33 254.38 1.35 c p1
251.97 254.38 1.35 c p1
252.61 254.38 1.35 c p1
253.25 254.38 1.35 c p1
253.89 254.38 1.35 c p1
254.53 254.38 1.35 c p1
255.17 254.37 1.35 c p1
255.81 254.37 1.35 c p1
256.45 254.37 1.35 c p1
257.09 254.37 1.35 c p1
257.73 254.37 1.35 c p1
258.37 254.37 1.35 c p1
259.01 254.37 1.35 c p1
259.65 254.37 1.35 c p1
260.29 254.37 1.35 c p1
260.93 254.37 1.35 c p1
261.57 254.37 1.35 c p1
262.21 254.37 1.35 c p1
262.85 254.37 1.35 c p1
263.49 254.37 1.35 c p1
264.13 254.37 1.35 c p1
264.77 254.36 1.35 c p1
265.41 254.36 1.35 c p1
266.05 254.36 1.35 c p1
266.69 254.36 1.35 c p1
267.33 254.36 1.35 c p1
267.97 254.36 1.35 c p1
268.61 254.36 1.35 c p1
269.25 254.36 1.35 c p1
269.89 254.36 1.35 c p1
270.53 254.35 1.35 c p1
271.17 254.35 1.35 c p1
271.81 254.35 1.35 c p1
272.45 254.35 1.35 c p1
273.09 254.35 1.35 c p1
273.73 254.35 1.35 c p1
274.37 254.34 1.35 c p1
275.01 254.34 1.35 c p1
275.65 254.34 1.35 c p1
276.29 254.34 1.35 c p1
276.93 254.34 1.35 c p1
277.57 254.33 1.35 c p1
278.21 254.33 1.35 c p1
278.85 254.33 1.35 c p1
279.49 254.33 1.35 c p1
280.13 254.32 1.35 c p1
280.77 254.32 1.35 c p1
281.41 254.32 1.35 c p1
282.05 254.31 1.35 c p1
282.69 254.31 1.35 c p1
283.33 254.31 1.35 c p1
283.97 254.30 1.35 c p1
284.61 254.30 1.35 c p1
285.25 254.30 1.35 c p1
285.89 254.29 1.35 c p1
286.53 254.29 1.35 c p1
287.17 254.28 1.35 c p1
287.81 254.28 1.35 c p1
288.45 254.27 1.35 c p1
289.09 254.27 1.35 c p1
289.73 254.26 1.35 c p1
290.37 254.26 1.35 c p1
291.01 254.25 1.35 c p1
291.65 254.24 1.35 c p1
292.29 254.24 1.35 c p1
292.93 254.23 1.35 c p1
293.57 254.22 1.35 c p1
294.21 254.22 1.35 c p1
294.85 254.21 1.35 c p1
295.49 254.20 1.35 c p1
296.13 254.19 1.35 c p1
296.77 254.18 1.35 c p1
297.41 254.17 1.35 c p1
298.05 254.16 1.35 c p1
298.69 254.15 1.35 c p1
299.33 254.14 1.35 c p1
299.97 254.13 1.35 c p1
300.61 254.12 1.35 c p1
301.25 254.11 1.35 c p1
301.89 254.09 1.35 c p1
302.53 254.08 1.35 c p1
303.17 254.06 1.35 c p1
303.81 254.05 1.35 c p1
304.45 254.03 1.35 c p1
305.09 254.02 1.35 c p1
305.73 254.00 1.35 c p1
306.37 253.98 1.35 c p1
307.01 253.96 1.35 c p1
307.65 253.94 1.35 c p1
308.29 253.92 1.35 c p1
308.93 253.90 1.35 c p1
309.57 253.88 1.35 c p1
310.21 253.86 1.35 c p1
310.85 253.83 1.35 c p1
311.49 253.81 1.35 c p1
312.13 253.78 1.35 c p1
312.77 253.75 1.35 c p1
313.41 253.72 1.35 c p1
314.05 253.69 1.35 c p1
314.69 253.66 1.35 c p1
315.33 253.62 1.35 c p1
315.97 253.59 1.35 c p1
316.61 253.55 1.35 c p1
317.25 253.51 1.35 c p1
317.89 253.47 1.35 c p1
318.53 253.43 1.35 c p1
319.17 253.38 1.35 c p1
319.81 253.34 1.35 c p1
320.45 253.29 1.35 c p1
321.09 253.24 1.35 c p1
321.73 253.18 1.35 c p1
322.37 253.13 1.35 c p1
323.01 253.07 1.35 c p1
323.65 253.01 1.35 c p1
324.29 252.94 1.35 c p1
324.93 252.87 1.35 c p1
325.57 252.80 1.35 c p1
326.21 252.73 1.35 c p1
326.85 252.65 1.35 c p1
327.49 252.57 1.35 c p1
328.13 252.49 1.35 c p1
328.77 252.40 1.35 c p1
329.41 252.30 1.35 c p1
330.05 252.21 1.35 c p1
330.69 252.11 1.35 c p1
331.33 252.00 1.35 c p1
331.97 251.89 1.35 c p1
332.61 251.77 1.35 c p1
333.25 251.65 1.35 c p1
333.89 251.52 1.35 c p1
334.53 251.39 1.35 c p1
335.17 251.25 1.35 c p1
335.81 251.10 1.35 c p1
336.45 250.95 1.35 c p1
337.09 250.79 1.35 c p1
337.73 250.62 1.35 c p1
338.37 250.44 1.35 c p1
339.01 250.26 1.35 c p1
339.65 250.07 1.35 c p1
340.29 249.86 1.35 c p1
340.93 249.65 1.35 c p1
341.57 249.43 1.35 c p1
342.21 249.20 1.35 c p1
342.85 248.96 1.35 c p1
343.49 248.71 1.35 c p1
344.13 248.44 1.35 c p1
344.77 248.16 1.35 c p1
345.42 247.87 1.35 c p1
346.06 247.57 1.35 c p1
346.70 247.25 1.35 c p1
347.34 246.92 1.35 c p1
347.98 246.57 1.35 c p1
348.62 246.20 1.35 c p1
349.26 245.82 1.35 c p1
349.90 245.42 1.35 c p1
350.54 245.00 1.35 c p1
351.18 244.56 1.35 c p1
351.82 244.11 1.35 c p1
352.46 243.63 1.35 c p1
353.10 243.12 1.35 c p1
353.74 242.60 1.35 c p1
354.38 242.05 1.35 c p1
355.02 241.47 1.35 c p1
355.66 240.87 1.35 c p1
356.30 240.24 1.35 c p1
356.94 239.58 1.35 c p1
357.58 238.89 1.35 c p1
358.22 238.16 1.35 c p1
358.86 237.40 1.35 c p1
359.50 236.61 1.35 c p1
360.14 235.78 1.35 c p1
360.78 234.91 1.35 c p1
361.42 234.01 1.35 c p1
362.06 233.05 1.35 c p1
362.70 232.06 1.35 c p1
363.34 231.02 1.35 c p1
363.98 229.93 1.35 c p1
364.62 228.79 1.35 c p1
365.26 227.59 1.35 c p1
365.90 226.35 1.35 c p1
366.54 225.04 1.35 c p1
367.18 223.67 1.35 c p1
367.82 222.24 1.35 c p1
368.46 220.75 1.35 c p1
369.10 219.18 1.35 c p1
369.74 217.55 1.35 c p1
370.38 215.84 1.35 c p1
371.02 214.05 1.35 c p1
371.66 212.18 1.35 c p1
372.30 210.22 1.35 c p1
372.94 208.18 1.35 c p1
373.58 206.04 1.35 c p1
374.22 203.81 1.35 c p1
374.86 201.48 1.35 c p1
375.50 199.05 1.35 c p1
376.14 196.51 1.35 c p1
376.78 193.87 1.35 c p1
377.42 191.11 1.35 c p1
378.06 188.23 1.35 c p1
378.70 185.24 1.35 c p1
379.34 182.13 1.35 c p1
379.98 178.90 1.35 c p1
380.62 175.54 1.35 c p1
381.26 172.06 1.35 c p1
381.90 168.46 1.35 c p1
382.54 164.73 1.35 c p1
383.18 160.89 1.35 c p1
383.82 156.95 1.35 c p1
384.46 152.89 1.35 c p1
385.10 148.75 1.35 c p1
385.74 144.54 1.35 c p1
386.38 140.26 1.35 c p1
387.02 135.95 1.35 c p1
387.66 131.64 1.35 c p1
388.30 127.36 1.35 c p1
388.94 123.15 1.35 c p1
389.58 119.06 1.35 c p1
390.22 115.14 1.35 c p1
390.86 111.47 1.35 c p1
391.50 108.11 1.35 c p1
392.14 105.11 1.35 c p1
392.78 102.55 1.35 c p1
393.42 100.48 1.35 c p1
394.06 98.91 1.35 c p1
394.70 97.84 1.35 c p1
395.34 97.20 1.35 c p1
395.98 96.90 1.35 c p1
396.62 96.79 1.35 c p1
397.26 96.77 1.35 c p1
397.90 96.77 1.35 c p1
398.54 96.77 1.35 c p1
399.18 96.77 1.35 c p1
0.00 0.00 442.50 336.75 cl
0 0 0 srgb
0.75 setlinewidth
[] 0 setdash
1 setlinecap
1 setlinejoin
10.00 setmiterlimit
np
71.48 73.44 m
323.86 0 l
o
np
71.48 73.44 m
0 -7.20 l
o
np
136.25 73.44 m
0 -7.20 l
o
np
201.02 73.44 m
0 -7.20 l
o
np
265.80 73.44 m
0 -7.20 l
o
np
330.57 73.44 m
0 -7.20 l
o
np
395.34 73.44 m
0 -7.20 l
o
/Font1 findfont 12 s
71.48 47.52 (0.0) .5 0 t
136.25 47.52 (0.1) .5 0 t
201.02 47.52 (0.2) .5 0 t
265.80 47.52 (0.3) .5 0 t
330.57 47.52 (0.4) .5 0 t
395.34 47.52 (0.5) .5 0 t
np
59.04 96.77 m
0 157.61 l
o
np
59.04 96.77 m
-7.20 0 l
o
np
59.04 128.29 m
-7.20 0 l
o
np
59.04 159.81 m
-7.20 0 l
o
np
59.04 191.34 m
-7.20 0 l
o
np
59.04 222.86 m
-7.20 0 l
o
np
59.04 254.38 m
-7.20 0 l
o
41.76 96.77 (0.0) .5 90 t
41.76 128.29 (0.2) .5 90 t
41.76 159.81 (0.4) .5 90 t
41.76 191.34 (0.6) .5 90 t
41.76 222.86 (0.8) .5 90 t
41.76 254.38 (1.0) .5 90 t
np
59.04 73.44 m
353.22 0 l
0 204.27 l
-353.22 0 l
0 -204.27 l
o
0.00 0.00 442.50 336.75 cl
/Font1 findfont 12 s
0 0 0 srgb
225.09 21.07 (t) 0 0 t
/Font1 findfont 8 s
228.43 18.88 (i) 0 0 t
/Font1 findfont 12 s
230.20 21.07 ( [s]) 0 0 t
12.96 171.91 (T) 0 90 t
59.04 73.44 412.26 277.71 cl
1 0.8431 0 srgb
0.75 setlinewidth
[] 0 setdash
1 setlinecap
1 setlinejoin
10.00 setmiterlimit
72.12 96.77 1.62 c p1
72.76 96.77 1.62 c p1
73.40 96.77 1.62 c p1
74.04 96.77 1.62 c p1
74.68 96.79 1.62 c p1
75.32 96.90 1.62 c p1
75.96 97.20 1.62 c p1
76.60 97.84 1.62 c p1
77.24 98.91 1.62 c p1
77.88 100.48 1.62 c p1
78.52 102.55 1.62 c p1
79.16 105.11 1.62 c p1
79.80 108.11 1.62 c p1
80.44 111.47 1.62 c p1
81.08 115.14 1.62 c p1
81.72 119.06 1.62 c p1
82.36 123.15 1.62 c p1
83.00 127.36 1.62 c p1
83.64 131.64 1.62 c p1
84.28 135.95 1.62 c p1
84.92 140.26 1.62 c p1
85.56 144.54 1.62 c p1
86.20 148.75 1.62 c p1
86.84 152.89 1.62 c p1
87.48 156.95 1.62 c p1
88.12 160.89 1.62 c p1
88.76 164.73 1.62 c p1
89.40 168.46 1.62 c p1
90.04 172.06 1.62 c p1
90.68 175.54 1.62 c p1
91.32 178.90 1.62 c p1
91.96 182.13 1.62 c p1
92.60 185.24 1.62 c p1
93.24 188.23 1.62 c p1
93.88 191.11 1.62 c p1
94.52 193.87 1.62 c p1
95.16 196.51 1.62 c p1
95.80 199.05 1.62 c p1
96.44 201.48 1.62 c p1
97.08 203.81 1.62 c p1
97.72 206.04 1.62 c p1
98.36 208.18 1.62 c p1
99.00 210.22 1.62 c p1
99.64 212.18 1.62 c p1
100.28 214.05 1.62 c p1
100.92 215.84 1.62 c p1
101.56 217.55 1.62 c p1
102.20 219.18 1.62 c p1
102.84 220.75 1.62 c p1
103.48 222.24 1.62 c p1
104.12 223.67 1.62 c p1
104.76 225.04 1.62 c p1
105.40 226.35 1.62 c p1
106.04 227.59 1.62 c p1
106.68 228.79 1.62 c p1
107.32 229.93 1.62 c p1
107.96 231.02 1.62 c p1
108.60 232.06 1.62 c p1
109.24 233.05 1.62 c p1
109.88 234.01 1.62 c p1
110.52 234.91 1.62 c p1
111.16 235.78 1.62 c p1
111.80 236.61 1.62 c p1
112.44 237.40 1.62 c p1
113.08 238.16 1.62 c p1
113.72 238.89 1.62 c p1
114.36 239.58 1.62 c p1
115.00 240.24 1.62 c p1
115.64 240.87 1.62 c p1
116.28 241.47 1.62 c p1
116.92 242.05 1.62 c p1
117.56 242.60 1.62 c p1
118.20 243.12 1.62 c p1
118.84 243.63 1.62 c p1
119.48 244.11 1.62 c p1
120.12 244.56 1.62 c p1
120.76 245.00 1.62 c p1
121.40 245.42 1.62 c p1
122.04 245.82 1.62 c p1
122.68 246.20 1.62 c p1
123.32 246.57 1.62 c p1
123.96 246.92 1.62 c p1
124.60 247.25 1.62 c p1
125.24 247.57 1.62 c p1
125.88 247.87 1.62 c p1
126.52 248.16 1.62 c p1
127.16 248.44 1.62 c p1
127.80 248.71 1.62 c p1
128.44 248.96 1.62 c p1
129.08 249.20 1.62 c p1
129.72 249.43 1.62 c p1
130.36 249.65 1.62 c p1
131.00 249.86 1.62 c p1
131.65 250.07 1.62 c p1
132.29 250.26 1.62 c p1
132.93 250.44 1.62 c p1
133.57 250.62 1.62 c p1
134.21 250.79 1.62 c p1
134.85 250.95 1.62 c p1
135.49 251.10 1.62 c p1
136.13 251.25 1.62 c p1
136.77 251.39 1.62 c p1
137.41 251.52 1.62 c p1
138.05 251.65 1.62 c p1
138.69 251.77 1.62 c p1
139.33 251.89 1.62 c p1
139.97 252.00 1.62 c p1
140.61 252.11 1.62 c p1
141.25 252.21 1.62 c p1
141.89 252.30 1.62 c p1
142.53 252.40 1.62 c p1
143.17 252.49 1.62 c p1
143.81 252.57 1.62 c p1
144.45 252.65 1.62 c p1
145.09 252.73 1.62 c p1
145.73 252.80 1.62 c p1
146.37 252.87 1.62 c p1
147.01 252.94 1.62 c p1
147.65 253.01 1.62 c p1
148.29 253.07 1.62 c p1
148.93 253.13 1.62 c p1
149.57 253.18 1.62 c p1
150.21 253.24 1.62 c p1
150.85 253.29 1.62 c p1
151.49 253.34 1.62 c p1
152.13 253.38 1.62 c p1
152.77 253.43 1.62 c p1
153.41 253.47 1.62 c p1
154.05 253.47 1.62 c p1
154.69 253.43 1.62 c p1
155.33 253.38 1.62 c p1
155.97 253.34 1.62 c p1
156.61 253.29 1.62 c p1
157.25 253.24 1.62 c p1
157.89 253.18 1.62 c p1
158.53 253.13 1.62 c p1
159.17 253.07 1.62 c p1
159.81 253.01 1.62 c p1
160.45 252.94 1.62 c p1
161.09 252.87 1.62 c p1
161.73 252.80 1.62 c p1
162.37 252.73 1.62 c p1
163.01 252.65 1.62 c p1
163.65 252.57 1.62 c p1
164.29 252.49 1.62 c p1
164.93 252.40 1.62 c p1
165.57 252.30 1.62 c p1
166.21 252.21 1.62 c p1
166.85 252.11 1.62 c p1
167.49 252.00 1.62 c p1
168.13 251.89 1.62 c p1
168.77 251.77 1.62 c p1
169.41 251.65 1.62 c p1
170.05 251.52 1.62 c p1
170.69 251.39 1.62 c p1
171.33 251.25 1.62 c p1
171.97 251.10 1.62 c p1
172.61 250.95 1.62 c p1
173.25 250.79 1.62 c p1
173.89 250.62 1.62 c p1
174.53 250.44 1.62 c p1
175.17 250.26 1.62 c p1
175.81 250.07 1.62 c p1
176.45 249.86 1.62 c p1
177.09 249.65 1.62 c p1
177.73 249.43 1.62 c p1
178.37 249.20 1.62 c p1
179.01 248.96 1.62 c p1
179.65 248.71 1.62 c p1
180.29 248.44 1.62 c p1
180.93 248.16 1.62 c p1
181.57 247.87 1.62 c p1
182.21 247.57 1.62 c p1
182.85 247.25 1.62 c p1
183.49 246.92 1.62 c p1
184.13 246.57 1.62 c p1
184.77 246.20 1.62 c p1
185.41 245.82 1.62 c p1
186.05 245.42 1.62 c p1
186.69 245.00 1.62 c p1
187.33 244.56 1.62 c p1
187.97 244.11 1.62 c p1
188.61 243.63 1.62 c p1
189.25 243.12 1.62 c p1
189.89 242.60 1.62 c p1
190.53 242.05 1.62 c p1
191.17 241.47 1.62 c p1
191.81 240.87 1.62 c p1
192.45 240.24 1.62 c p1
193.09 239.58 1.62 c p1
193.73 238.89 1.62 c p1
194.37 238.16 1.62 c p1
195.01 237.40 1.62 c p1
195.65 236.61 1.62 c p1
196.29 235.78 1.62 c p1
196.93 234.91 1.62 c p1
197.57 234.01 1.62 c p1
198.21 233.05 1.62 c p1
198.85 232.06 1.62 c p1
199.49 231.02 1.62 c p1
200.13 229.93 1.62 c p1
200.77 228.79 1.62 c p1
201.41 227.59 1.62 c p1
202.05 226.35 1.62 c p1
202.69 225.04 1.62 c p1
203.33 223.67 1.62 c p1
203.97 222.24 1.62 c p1
204.61 220.75 1.62 c p1
205.25 219.18 1.62 c p1
205.89 217.55 1.62 c p1
206.53 215.84 1.62 c p1
207.17 214.05 1.62 c p1
207.81 212.18 1.62 c p1
208.45 210.22 1.62 c p1
209.09 208.18 1.62 c p1
209.73 206.04 1.62 c p1
210.37 203.81 1.62 c p1
211.01 201.48 1.62 c p1
211.65 199.05 1.62 c p1
212.29 196.51 1.62 c p1
212.93 193.87 1.62 c p1
213.57 191.11 1.62 c p1
214.21 188.23 1.62 c p1
214.85 185.24 1.62 c p1
215.49 182.13 1.62 c p1
216.13 178.90 1.62 c p1
216.77 175.54 1.62 c p1
217.41 172.06 1.62 c p1
218.05 168.46 1.62 c p1
218.69 164.73 1.62 c p1
219.33 160.89 1.62 c p1
219.97 156.95 1.62 c p1
220.61 152.89 1.62 c p1
221.25 148.75 1.62 c p1
221.89 144.54 1.62 c p1
222.53 140.26 1.62 c p1
223.17 135.95 1.62 c p1
223.81 131.64 1.62 c p1
224.45 127.36 1.62 c p1
225.09 123.15 1.62 c p1
225.73 119.06 1.62 c p1
226.37 115.14 1.62 c p1
227.01 111.47 1.62 c p1
227.65 108.11 1.62 c p1
228.29 105.11 1.62 c p1
228.93 102.55 1.62 c p1
229.57 100.48 1.62 c p1
230.21 98.91 1.62 c p1
230.85 97.84 1.62 c p1
231.49 97.20 1.62 c p1
232.13 96.90 1.62 c p1
232.77 96.79 1.62 c p1
233.41 96.77 1.62 c p1
234.05 96.77 1.62 c p1
234.69 96.77 1.62 c p1
235.33 96.77 1.62 c p1
0 1 0 srgb
0.75 setlinewidth
[ 2.25 3.75] 0 setdash
np
59.04 96.77 m
353.22 0 l
o
np
71.48 73.44 m
0 204.27 l
o
np
153.41 73.44 m
0 204.27 l
o
np
235.33 73.44 m
0 204.27 l
o
np
399.18 73.44 m
0 204.27 l
o
/bg { 1 1 1 srgb } def
0 0 0 srgb
0.75 setlinewidth
[] 0 setdash
252.84 241.77 72.42 -65.97 r p3
0.6784 0.8471 0.9020 srgb
273.92 208.79 1.62 c p1
1 0.8431 0 srgb
273.92 192.30 1.62 c p1
/Font1 findfont 14 s
0 0 0 srgb
255.98 225.28 (P) 0 ta
-0.700 (er) tb
0.210 (iodiz) tb
-0.210 (ed) tb gr
286.48 205.14 (T) 0 0 t
/Font1 findfont 10 s
295.03 202.58 (256) 0 0 t
/Font1 findfont 14 s
286.48 188.65 (T) 0 0 t
/Font1 findfont 10 s
295.03 186.08 (128) 0 0 t
ep
%%Trailer
%%Pages: 1
%%EOF
