%!PS-Adobe-3.0 EPSF-3.0
%%DocumentNeededResources: font Helvetica
%%+ font Helvetica-Bold
%%+ font Helvetica-Oblique
%%+ font Helvetica-BoldOblique
%%+ font Symbol
%%Title: R Graphics Output
%%Creator: R Software
%%Pages: (atend)
%%BoundingBox: 0 0 454 447
%%EndComments
%%BeginProlog
/bp  { gs sRGB gs } def
% begin .ps.prolog
/gs  { gsave } bind def
/gr  { grestore } bind def
/ep  { showpage gr gr } bind def
/m   { moveto } bind def
/l  { rlineto } bind def
/np  { newpath } bind def
/cp  { closepath } bind def
/f   { fill } bind def
/o   { stroke } bind def
/c   { newpath 0 360 arc } bind def
/r   { 4 2 roll moveto 1 copy 3 -1 roll exch 0 exch rlineto 0 rlineto -1 mul 0 exch rlineto closepath } bind def
/p1  { stroke } bind def
/p2  { gsave bg fill grestore newpath } bind def
/p3  { gsave bg fill grestore stroke } bind def
/p6  { gsave bg eofill grestore newpath } bind def
/p7  { gsave bg eofill grestore stroke } bind def
/t   { 5 -2 roll moveto gsave rotate
       1 index stringwidth pop
       mul neg 0 rmoveto show grestore } bind def
/ta  { 4 -2 roll moveto gsave rotate show } bind def
/tb  { 2 -1 roll 0 rmoveto show } bind def
/cl  { grestore gsave newpath 3 index 3 index moveto 1 index
       4 -1 roll lineto  exch 1 index lineto lineto
       closepath clip newpath } bind def
/rgb { setrgbcolor } bind def
/s   { scalefont setfont } bind def
% end   .ps.prolog
/sRGB { [ /CIEBasedABC
          << /DecodeLMN
               [ { dup 0.03928 le
                        {12.92321 div}
                        {0.055 add 1.055 div 2.4 exp }
                     ifelse
                 } bind dup dup
               ]
             /MatrixLMN [0.412457 0.212673 0.019334
                         0.357576 0.715152 0.119192
                         0.180437 0.072175 0.950301]
             /WhitePoint [0.9505 1.0 1.0890]
           >>
         ] setcolorspace } bind def
/srgb { setcolor } bind def
% begin encoding
/WinAnsiEncoding [
 /.notdef /.notdef /.notdef /.notdef /.notdef /.notdef /.notdef /.notdef
 /.notdef /.notdef /.notdef /.notdef /.notdef /.notdef /.notdef /.notdef
 /.notdef /.notdef /.notdef /.notdef /.notdef /.notdef /.notdef /.notdef
 /.notdef /.notdef /.notdef /.notdef /.notdef /.notdef /.notdef /.notdef
 /space /exclam /quotedbl /numbersign /dollar /percent /ampersand /quoteright
 /parenleft /parenright /asterisk /plus /comma /minus /period /slash
 /zero /one /two /three /four /five /six /seven
 /eight /nine /colon /semicolon /less /equal /greater /question
 /at /A /B /C /D /E /F /G
 /H /I /J /K /L /M /N /O
 /P /Q /R /S /T /U /V /W
 /X /Y /Z /bracketleft /backslash /bracketright /asciicircum /underscore
 /grave /a /b /c /d /e /f /g
 /h /i /j /k /l /m /n /o
 /p /q /r /s /t /u /v /w
 /x /y /z /braceleft /bar /braceright /asciitilde /.notdef
 /Euro /.notdef /quotesinglbase /florin /quotedblbase /ellipsis /dagger /daggerdbl
 /circumflex /perthousand /Scaron /guilsinglleft /OE /.notdef /Zcaron /.notdef
 /.notdef /quoteleft /quoteright /quotedblleft /quotedblright /bullet /endash /emdash
 /tilde /trademark /scaron /guilsinglright /oe /.notdef /zcaron /Ydieresis
 /space /exclamdown /cent /sterling /currency /yen /brokenbar /section
 /dieresis /copyright /ordfeminine /guillemotleft /logicalnot /hyphen /registered /macron
 /degree /plusminus /twosuperior /threesuperior /acute /mu /paragraph /periodcentered
 /cedilla /onesuperior /ordmasculine /guillemotright /onequarter /onehalf /threequarters /questiondown
 /Agrave /Aacute /Acircumflex /Atilde /Adieresis /Aring /AE /Ccedilla
 /Egrave /Eacute /Ecircumflex /Edieresis /Igrave /Iacute /Icircumflex /Idieresis
 /Eth /Ntilde /Ograve /Oacute /Ocircumflex /Otilde /Odieresis /multiply
 /Oslash /Ugrave /Uacute /Ucircumflex /Udieresis /Yacute /Thorn /germandbls
 /agrave /aacute /acircumflex /atilde /adieresis /aring /ae /ccedilla
 /egrave /eacute /ecircumflex /edieresis /igrave /iacute /icircumflex /idieresis
 /eth /ntilde /ograve /oacute /ocircumflex /otilde /odieresis /divide
 /oslash /ugrave /uacute /ucircumflex /udieresis /yacute /thorn /ydieresis
]
 def
% end encoding
%%IncludeResource: font Helvetica
/Helvetica findfont
dup length dict begin
  {1 index /FID ne {def} {pop pop} ifelse} forall
  /Encoding WinAnsiEncoding def
  currentdict
  end
/Font1 exch definefont pop
%%IncludeResource: font Helvetica-Bold
/Helvetica-Bold findfont
dup length dict begin
  {1 index /FID ne {def} {pop pop} ifelse} forall
  /Encoding WinAnsiEncoding def
  currentdict
  end
/Font2 exch definefont pop
%%IncludeResource: font Helvetica-Oblique
/Helvetica-Oblique findfont
dup length dict begin
  {1 index /FID ne {def} {pop pop} ifelse} forall
  /Encoding WinAnsiEncoding def
  currentdict
  end
/Font3 exch definefont pop
%%IncludeResource: font Helvetica-BoldOblique
/Helvetica-BoldOblique findfont
dup length dict begin
  {1 index /FID ne {def} {pop pop} ifelse} forall
  /Encoding WinAnsiEncoding def
  currentdict
  end
/Font4 exch definefont pop
%%IncludeResource: font Symbol
/Symbol findfont
dup length dict begin
  {1 index /FID ne {def} {pop pop} ifelse} forall
  currentdict
  end
/Font5 exch definefont pop
%%EndProlog
%%Page: 1 1
bp
/bg { 1 1 1 srgb } def
0.00 0.00 453.75 447.00 r p2
59.04 73.44 423.51 387.96 cl
59.04 73.44 423.51 387.96 cl
0.6784 0.8471 0.9020 srgb
0.75 setlinewidth
[] 0 setdash
1 setlinecap
1 setlinejoin
10.00 setmiterlimit
72.54 230.70 1.35 c p1
73.20 230.70 1.35 c p1
73.86 230.70 1.35 c p1
74.52 230.70 1.35 c p1
75.18 230.72 1.35 c p1
75.84 230.82 1.35 c p1
76.50 231.10 1.35 c p1
77.16 231.69 1.35 c p1
77.82 232.68 1.35 c p1
78.48 234.13 1.35 c p1
79.14 236.05 1.35 c p1
79.80 238.41 1.35 c p1
80.46 241.18 1.35 c p1
81.12 244.29 1.35 c p1
81.78 247.68 1.35 c p1
82.45 251.29 1.35 c p1
83.11 255.07 1.35 c p1
83.77 258.96 1.35 c p1
84.43 262.92 1.35 c p1
85.09 266.90 1.35 c p1
85.75 270.88 1.35 c p1
86.41 274.83 1.35 c p1
87.07 278.73 1.35 c p1
87.73 282.55 1.35 c p1
88.39 286.30 1.35 c p1
89.05 289.94 1.35 c p1
89.71 293.49 1.35 c p1
90.37 296.93 1.35 c p1
91.03 300.26 1.35 c p1
91.69 303.47 1.35 c p1
92.35 306.57 1.35 c p1
93.01 309.56 1.35 c p1
93.67 312.44 1.35 c p1
94.33 315.20 1.35 c p1
94.99 317.86 1.35 c p1
95.65 320.40 1.35 c p1
96.31 322.85 1.35 c p1
96.97 325.19 1.35 c p1
97.63 327.44 1.35 c p1
98.30 329.59 1.35 c p1
98.96 331.65 1.35 c p1
99.62 333.62 1.35 c p1
100.28 335.51 1.35 c p1
100.94 337.32 1.35 c p1
101.60 339.05 1.35 c p1
102.26 340.70 1.35 c p1
102.92 342.28 1.35 c p1
103.58 343.79 1.35 c p1
104.24 345.24 1.35 c p1
104.90 346.62 1.35 c p1
105.56 347.94 1.35 c p1
106.22 349.20 1.35 c p1
106.88 350.41 1.35 c p1
107.54 351.56 1.35 c p1
108.20 352.67 1.35 c p1
108.86 353.72 1.35 c p1
109.52 354.73 1.35 c p1
110.18 355.69 1.35 c p1
110.84 356.61 1.35 c p1
111.50 357.49 1.35 c p1
112.16 358.33 1.35 c p1
112.82 359.13 1.35 c p1
113.48 359.89 1.35 c p1
114.15 360.63 1.35 c p1
114.81 361.33 1.35 c p1
115.47 361.99 1.35 c p1
116.13 362.63 1.35 c p1
116.79 363.24 1.35 c p1
117.45 363.83 1.35 c p1
118.11 364.38 1.35 c p1
118.77 364.91 1.35 c p1
119.43 365.42 1.35 c p1
120.09 365.91 1.35 c p1
120.75 366.37 1.35 c p1
121.41 366.82 1.35 c p1
122.07 367.24 1.35 c p1
122.73 367.65 1.35 c p1
123.39 368.03 1.35 c p1
124.05 368.40 1.35 c p1
124.71 368.75 1.35 c p1
125.37 369.09 1.35 c p1
126.03 369.41 1.35 c p1
126.69 369.72 1.35 c p1
127.35 370.02 1.35 c p1
128.01 370.30 1.35 c p1
128.67 370.56 1.35 c p1
129.33 370.82 1.35 c p1
129.99 371.07 1.35 c p1
130.66 371.30 1.35 c p1
131.32 371.52 1.35 c p1
131.98 371.74 1.35 c p1
132.64 371.94 1.35 c p1
133.30 372.14 1.35 c p1
133.96 372.32 1.35 c p1
134.62 372.50 1.35 c p1
135.28 372.67 1.35 c p1
135.94 372.83 1.35 c p1
136.60 372.99 1.35 c p1
137.26 373.14 1.35 c p1
137.92 373.28 1.35 c p1
138.58 373.41 1.35 c p1
139.24 373.54 1.35 c p1
139.90 373.67 1.35 c p1
140.56 373.79 1.35 c p1
141.22 373.90 1.35 c p1
141.88 374.01 1.35 c p1
142.54 374.11 1.35 c p1
143.20 374.21 1.35 c p1
143.86 374.30 1.35 c p1
144.52 374.39 1.35 c p1
145.18 374.48 1.35 c p1
145.84 374.56 1.35 c p1
146.51 374.64 1.35 c p1
147.17 374.71 1.35 c p1
147.83 374.78 1.35 c p1
148.49 374.85 1.35 c p1
149.15 374.92 1.35 c p1
149.81 374.98 1.35 c p1
150.47 375.04 1.35 c p1
151.13 375.10 1.35 c p1
151.79 375.15 1.35 c p1
152.45 375.20 1.35 c p1
153.11 375.25 1.35 c p1
153.77 375.30 1.35 c p1
154.43 375.34 1.35 c p1
155.09 375.39 1.35 c p1
155.75 375.43 1.35 c p1
156.41 375.47 1.35 c p1
157.07 375.51 1.35 c p1
157.73 375.54 1.35 c p1
158.39 375.58 1.35 c p1
159.05 375.61 1.35 c p1
159.71 375.64 1.35 c p1
160.37 375.67 1.35 c p1
161.03 375.70 1.35 c p1
161.69 375.73 1.35 c p1
162.36 375.75 1.35 c p1
163.02 375.78 1.35 c p1
163.68 375.80 1.35 c p1
164.34 375.82 1.35 c p1
165.00 375.85 1.35 c p1
165.66 375.87 1.35 c p1
166.32 375.89 1.35 c p1
166.98 375.91 1.35 c p1
167.64 375.92 1.35 c p1
168.30 375.94 1.35 c p1
168.96 375.96 1.35 c p1
169.62 375.97 1.35 c p1
170.28 375.99 1.35 c p1
170.94 376.00 1.35 c p1
171.60 376.02 1.35 c p1
172.26 376.03 1.35 c p1
172.92 376.04 1.35 c p1
173.58 376.06 1.35 c p1
174.24 376.07 1.35 c p1
174.90 376.08 1.35 c p1
175.56 376.09 1.35 c p1
176.22 376.10 1.35 c p1
176.88 376.11 1.35 c p1
177.54 376.12 1.35 c p1
178.21 376.13 1.35 c p1
178.87 376.13 1.35 c p1
179.53 376.14 1.35 c p1
180.19 376.15 1.35 c p1
180.85 376.16 1.35 c p1
181.51 376.16 1.35 c p1
182.17 376.17 1.35 c p1
182.83 376.18 1.35 c p1
183.49 376.18 1.35 c p1
184.15 376.19 1.35 c p1
184.81 376.19 1.35 c p1
185.47 376.20 1.35 c p1
186.13 376.20 1.35 c p1
186.79 376.21 1.35 c p1
187.45 376.21 1.35 c p1
188.11 376.22 1.35 c p1
188.77 376.22 1.35 c p1
189.43 376.23 1.35 c p1
190.09 376.23 1.35 c p1
190.75 376.23 1.35 c p1
191.41 376.24 1.35 c p1
192.07 376.24 1.35 c p1
192.73 376.24 1.35 c p1
193.39 376.25 1.35 c p1
194.06 376.25 1.35 c p1
194.72 376.25 1.35 c p1
195.38 376.26 1.35 c p1
196.04 376.26 1.35 c p1
196.70 376.26 1.35 c p1
197.36 376.26 1.35 c p1
198.02 376.27 1.35 c p1
198.68 376.27 1.35 c p1
199.34 376.27 1.35 c p1
200.00 376.27 1.35 c p1
200.66 376.27 1.35 c p1
201.32 376.28 1.35 c p1
201.98 376.28 1.35 c p1
202.64 376.28 1.35 c p1
203.30 376.28 1.35 c p1
203.96 376.28 1.35 c p1
204.62 376.28 1.35 c p1
205.28 376.28 1.35 c p1
205.94 376.29 1.35 c p1
206.60 376.29 1.35 c p1
207.26 376.29 1.35 c p1
207.92 376.29 1.35 c p1
208.58 376.29 1.35 c p1
209.24 376.29 1.35 c p1
209.91 376.29 1.35 c p1
210.57 376.29 1.35 c p1
211.23 376.29 1.35 c p1
211.89 376.29 1.35 c p1
212.55 376.30 1.35 c p1
213.21 376.30 1.35 c p1
213.87 376.30 1.35 c p1
214.53 376.30 1.35 c p1
215.19 376.30 1.35 c p1
215.85 376.30 1.35 c p1
216.51 376.30 1.35 c p1
217.17 376.30 1.35 c p1
217.83 376.30 1.35 c p1
218.49 376.30 1.35 c p1
219.15 376.30 1.35 c p1
219.81 376.30 1.35 c p1
220.47 376.30 1.35 c p1
221.13 376.30 1.35 c p1
221.79 376.30 1.35 c p1
222.45 376.30 1.35 c p1
223.11 376.30 1.35 c p1
223.77 376.30 1.35 c p1
224.43 376.31 1.35 c p1
225.09 376.31 1.35 c p1
225.76 376.31 1.35 c p1
226.42 376.31 1.35 c p1
227.08 376.31 1.35 c p1
227.74 376.31 1.35 c p1
228.40 376.31 1.35 c p1
229.06 376.31 1.35 c p1
229.72 376.31 1.35 c p1
230.38 376.31 1.35 c p1
231.04 376.31 1.35 c p1
231.70 376.31 1.35 c p1
232.36 376.31 1.35 c p1
233.02 376.31 1.35 c p1
233.68 376.31 1.35 c p1
234.34 376.31 1.35 c p1
235.00 376.31 1.35 c p1
235.66 376.31 1.35 c p1
236.32 376.31 1.35 c p1
236.98 376.31 1.35 c p1
237.64 376.31 1.35 c p1
238.30 376.31 1.35 c p1
238.96 376.31 1.35 c p1
239.62 376.31 1.35 c p1
240.28 376.31 1.35 c p1
240.94 376.31 1.35 c p1
241.61 376.31 1.35 c p1
242.27 376.31 1.35 c p1
242.93 376.31 1.35 c p1
243.59 376.31 1.35 c p1
244.25 376.31 1.35 c p1
244.91 376.31 1.35 c p1
245.57 376.31 1.35 c p1
246.23 376.31 1.35 c p1
246.89 376.31 1.35 c p1
247.55 376.31 1.35 c p1
248.21 376.31 1.35 c p1
248.87 376.31 1.35 c p1
249.53 376.31 1.35 c p1
250.19 376.31 1.35 c p1
250.85 376.31 1.35 c p1
251.51 376.31 1.35 c p1
252.17 376.31 1.35 c p1
252.83 376.31 1.35 c p1
253.49 376.31 1.35 c p1
254.15 376.31 1.35 c p1
254.81 376.31 1.35 c p1
255.47 376.31 1.35 c p1
256.13 376.31 1.35 c p1
256.79 376.31 1.35 c p1
257.46 376.31 1.35 c p1
258.12 376.31 1.35 c p1
258.78 376.30 1.35 c p1
259.44 376.30 1.35 c p1
260.10 376.30 1.35 c p1
260.76 376.30 1.35 c p1
261.42 376.30 1.35 c p1
262.08 376.30 1.35 c p1
262.74 376.30 1.35 c p1
263.40 376.30 1.35 c p1
264.06 376.30 1.35 c p1
264.72 376.30 1.35 c p1
265.38 376.30 1.35 c p1
266.04 376.30 1.35 c p1
266.70 376.30 1.35 c p1
267.36 376.30 1.35 c p1
268.02 376.30 1.35 c p1
268.68 376.30 1.35 c p1
269.34 376.30 1.35 c p1
270.00 376.30 1.35 c p1
270.66 376.29 1.35 c p1
271.32 376.29 1.35 c p1
271.98 376.29 1.35 c p1
272.64 376.29 1.35 c p1
273.31 376.29 1.35 c p1
273.97 376.29 1.35 c p1
274.63 376.29 1.35 c p1
275.29 376.29 1.35 c p1
275.95 376.29 1.35 c p1
276.61 376.29 1.35 c p1
277.27 376.28 1.35 c p1
277.93 376.28 1.35 c p1
278.59 376.28 1.35 c p1
279.25 376.28 1.35 c p1
279.91 376.28 1.35 c p1
280.57 376.28 1.35 c p1
281.23 376.28 1.35 c p1
281.89 376.27 1.35 c p1
282.55 376.27 1.35 c p1
283.21 376.27 1.35 c p1
283.87 376.27 1.35 c p1
284.53 376.27 1.35 c p1
285.19 376.26 1.35 c p1
285.85 376.26 1.35 c p1
286.51 376.26 1.35 c p1
287.17 376.26 1.35 c p1
287.83 376.25 1.35 c p1
288.49 376.25 1.35 c p1
289.15 376.25 1.35 c p1
289.82 376.24 1.35 c p1
290.48 376.24 1.35 c p1
291.14 376.24 1.35 c p1
291.80 376.23 1.35 c p1
292.46 376.23 1.35 c p1
293.12 376.23 1.35 c p1
293.78 376.22 1.35 c p1
294.44 376.22 1.35 c p1
295.10 376.21 1.35 c p1
295.76 376.21 1.35 c p1
296.42 376.20 1.35 c p1
297.08 376.20 1.35 c p1
297.74 376.19 1.35 c p1
298.40 376.19 1.35 c p1
299.06 376.18 1.35 c p1
299.72 376.18 1.35 c p1
300.38 376.17 1.35 c p1
301.04 376.16 1.35 c p1
301.70 376.16 1.35 c p1
302.36 376.15 1.35 c p1
303.02 376.14 1.35 c p1
303.68 376.13 1.35 c p1
304.34 376.13 1.35 c p1
305.00 376.12 1.35 c p1
305.67 376.11 1.35 c p1
306.33 376.10 1.35 c p1
306.99 376.09 1.35 c p1
307.65 376.08 1.35 c p1
308.31 376.07 1.35 c p1
308.97 376.06 1.35 c p1
309.63 376.04 1.35 c p1
310.29 376.03 1.35 c p1
310.95 376.02 1.35 c p1
311.61 376.00 1.35 c p1
312.27 375.99 1.35 c p1
312.93 375.97 1.35 c p1
313.59 375.96 1.35 c p1
314.25 375.94 1.35 c p1
314.91 375.92 1.35 c p1
315.57 375.91 1.35 c p1
316.23 375.89 1.35 c p1
316.89 375.87 1.35 c p1
317.55 375.85 1.35 c p1
318.21 375.82 1.35 c p1
318.87 375.80 1.35 c p1
319.53 375.78 1.35 c p1
320.19 375.75 1.35 c p1
320.85 375.73 1.35 c p1
321.52 375.70 1.35 c p1
322.18 375.67 1.35 c p1
322.84 375.64 1.35 c p1
323.50 375.61 1.35 c p1
324.16 375.58 1.35 c p1
324.82 375.54 1.35 c p1
325.48 375.51 1.35 c p1
326.14 375.47 1.35 c p1
326.80 375.43 1.35 c p1
327.46 375.39 1.35 c p1
328.12 375.34 1.35 c p1
328.78 375.30 1.35 c p1
329.44 375.25 1.35 c p1
330.10 375.20 1.35 c p1
330.76 375.15 1.35 c p1
331.42 375.10 1.35 c p1
332.08 375.04 1.35 c p1
332.74 374.98 1.35 c p1
333.40 374.92 1.35 c p1
334.06 374.85 1.35 c p1
334.72 374.78 1.35 c p1
335.38 374.71 1.35 c p1
336.04 374.64 1.35 c p1
336.70 374.56 1.35 c p1
337.37 374.48 1.35 c p1
338.03 374.39 1.35 c p1
338.69 374.30 1.35 c p1
339.35 374.21 1.35 c p1
340.01 374.11 1.35 c p1
340.67 374.01 1.35 c p1
341.33 373.90 1.35 c p1
341.99 373.79 1.35 c p1
342.65 373.67 1.35 c p1
343.31 373.54 1.35 c p1
343.97 373.41 1.35 c p1
344.63 373.28 1.35 c p1
345.29 373.14 1.35 c p1
345.95 372.99 1.35 c p1
346.61 372.83 1.35 c p1
347.27 372.67 1.35 c p1
347.93 372.50 1.35 c p1
348.59 372.32 1.35 c p1
349.25 372.14 1.35 c p1
349.91 371.94 1.35 c p1
350.57 371.74 1.35 c p1
351.23 371.52 1.35 c p1
351.89 371.30 1.35 c p1
352.55 371.07 1.35 c p1
353.22 370.82 1.35 c p1
353.88 370.56 1.35 c p1
354.54 370.30 1.35 c p1
355.20 370.02 1.35 c p1
355.86 369.72 1.35 c p1
356.52 369.41 1.35 c p1
357.18 369.09 1.35 c p1
357.84 368.75 1.35 c p1
358.50 368.40 1.35 c p1
359.16 368.03 1.35 c p1
359.82 367.65 1.35 c p1
360.48 367.24 1.35 c p1
361.14 366.82 1.35 c p1
361.80 366.37 1.35 c p1
362.46 365.91 1.35 c p1
363.12 365.42 1.35 c p1
363.78 364.91 1.35 c p1
364.44 364.38 1.35 c p1
365.10 363.83 1.35 c p1
365.76 363.24 1.35 c p1
366.42 362.63 1.35 c p1
367.08 361.99 1.35 c p1
367.74 361.33 1.35 c p1
368.40 360.63 1.35 c p1
369.07 359.89 1.35 c p1
369.73 359.13 1.35 c p1
370.39 358.33 1.35 c p1
371.05 357.49 1.35 c p1
371.71 356.61 1.35 c p1
372.37 355.69 1.35 c p1
373.03 354.73 1.35 c p1
373.69 353.72 1.35 c p1
374.35 352.67 1.35 c p1
375.01 351.56 1.35 c p1
375.67 350.41 1.35 c p1
376.33 349.20 1.35 c p1
376.99 347.94 1.35 c p1
377.65 346.62 1.35 c p1
378.31 345.24 1.35 c p1
378.97 343.79 1.35 c p1
379.63 342.28 1.35 c p1
380.29 340.70 1.35 c p1
380.95 339.05 1.35 c p1
381.61 337.32 1.35 c p1
382.27 335.51 1.35 c p1
382.93 333.62 1.35 c p1
383.59 331.65 1.35 c p1
384.25 329.59 1.35 c p1
384.92 327.44 1.35 c p1
385.58 325.19 1.35 c p1
386.24 322.85 1.35 c p1
386.90 320.40 1.35 c p1
387.56 317.86 1.35 c p1
388.22 315.20 1.35 c p1
388.88 312.44 1.35 c p1
389.54 309.56 1.35 c p1
390.20 306.57 1.35 c p1
390.86 303.47 1.35 c p1
391.52 300.26 1.35 c p1
392.18 296.93 1.35 c p1
392.84 293.49 1.35 c p1
393.50 289.94 1.35 c p1
394.16 286.30 1.35 c p1
394.82 282.55 1.35 c p1
395.48 278.73 1.35 c p1
396.14 274.83 1.35 c p1
396.80 270.88 1.35 c p1
397.46 266.90 1.35 c p1
398.12 262.92 1.35 c p1
398.78 258.96 1.35 c p1
399.44 255.07 1.35 c p1
400.10 251.29 1.35 c p1
400.77 247.68 1.35 c p1
401.43 244.29 1.35 c p1
402.09 241.18 1.35 c p1
402.75 238.41 1.35 c p1
403.41 236.05 1.35 c p1
404.07 234.13 1.35 c p1
404.73 232.68 1.35 c p1
405.39 231.69 1.35 c p1
406.05 231.10 1.35 c p1
406.71 230.82 1.35 c p1
407.37 230.72 1.35 c p1
408.03 230.70 1.35 c p1
408.69 230.70 1.35 c p1
409.35 230.70 1.35 c p1
410.01 230.70 1.35 c p1
0.00 0.00 453.75 447.00 cl
0 0 0 srgb
0.75 setlinewidth
[] 0 setdash
1 setlinecap
1 setlinejoin
10.00 setmiterlimit
np
71.88 73.44 m
334.17 0 l
o
np
71.88 73.44 m
0 -7.20 l
o
np
138.71 73.44 m
0 -7.20 l
o
np
205.55 73.44 m
0 -7.20 l
o
np
272.38 73.44 m
0 -7.20 l
o
np
339.21 73.44 m
0 -7.20 l
o
np
406.05 73.44 m
0 -7.20 l
o
/Font1 findfont 12 s
71.88 47.52 (0.0) .5 0 t
138.71 47.52 (0.1) .5 0 t
205.55 47.52 (0.2) .5 0 t
272.38 47.52 (0.3) .5 0 t
339.21 47.52 (0.4) .5 0 t
406.05 47.52 (0.5) .5 0 t
np
59.04 85.09 m
0 291.22 l
o
np
59.04 85.09 m
-7.20 0 l
o
np
59.04 157.89 m
-7.20 0 l
o
np
59.04 230.70 m
-7.20 0 l
o
np
59.04 303.51 m
-7.20 0 l
o
np
59.04 376.31 m
-7.20 0 l
o
41.76 85.09 (-1.0) .5 90 t
41.76 157.89 (-0.5) .5 90 t
41.76 230.70 (0.0) .5 90 t
41.76 303.51 (0.5) .5 90 t
41.76 376.31 (1.0) .5 90 t
np
59.04 73.44 m
364.47 0 l
0 314.52 l
-364.47 0 l
0 -314.52 l
o
0.00 0.00 453.75 447.00 cl
/Font1 findfont 12 s
0 0 0 srgb
230.71 21.07 (t) 0 0 t
/Font1 findfont 8 s
234.05 18.88 (i) 0 0 t
/Font1 findfont 12 s
235.83 21.07 ( [s]) 0 0 t
12.96 227.03 (T) 0 90 t
59.04 73.44 423.51 387.96 cl
1 0.8431 0 srgb
0.75 setlinewidth
[] 0 setdash
1 setlinecap
1 setlinejoin
10.00 setmiterlimit
72.54 120.77 1.62 c p1
73.20 120.05 1.62 c p1
73.86 119.33 1.62 c p1
74.52 118.62 1.62 c p1
75.18 117.94 1.62 c p1
75.84 117.40 1.62 c p1
76.50 117.22 1.62 c p1
77.16 117.62 1.62 c p1
77.82 118.78 1.62 c p1
78.48 120.82 1.62 c p1
79.14 123.74 1.62 c p1
79.80 127.51 1.62 c p1
80.46 132.04 1.62 c p1
81.12 137.23 1.62 c p1
81.78 142.96 1.62 c p1
82.45 149.11 1.62 c p1
83.11 155.56 1.62 c p1
83.77 162.23 1.62 c p1
84.43 169.03 1.62 c p1
85.09 175.88 1.62 c p1
85.75 182.73 1.62 c p1
86.41 189.51 1.62 c p1
87.07 196.20 1.62 c p1
87.73 202.75 1.62 c p1
88.39 209.14 1.62 c p1
89.05 215.35 1.62 c p1
89.71 221.37 1.62 c p1
90.37 227.18 1.62 c p1
91.03 232.79 1.62 c p1
91.69 238.18 1.62 c p1
92.35 243.35 1.62 c p1
93.01 248.31 1.62 c p1
93.67 253.05 1.62 c p1
94.33 257.58 1.62 c p1
94.99 261.91 1.62 c p1
95.65 266.03 1.62 c p1
96.31 269.96 1.62 c p1
96.97 273.69 1.62 c p1
97.63 277.24 1.62 c p1
98.30 280.61 1.62 c p1
98.96 283.80 1.62 c p1
99.62 286.83 1.62 c p1
100.28 289.70 1.62 c p1
100.94 292.41 1.62 c p1
101.60 294.98 1.62 c p1
102.26 297.40 1.62 c p1
102.92 299.68 1.62 c p1
103.58 301.83 1.62 c p1
104.24 303.86 1.62 c p1
104.90 305.77 1.62 c p1
105.56 307.56 1.62 c p1
106.22 309.24 1.62 c p1
106.88 310.81 1.62 c p1
107.54 312.28 1.62 c p1
108.20 313.66 1.62 c p1
108.86 314.94 1.62 c p1
109.52 316.13 1.62 c p1
110.18 317.24 1.62 c p1
110.84 318.27 1.62 c p1
111.50 319.22 1.62 c p1
112.16 320.09 1.62 c p1
112.82 320.90 1.62 c p1
113.48 321.64 1.62 c p1
114.15 322.31 1.62 c p1
114.81 322.92 1.62 c p1
115.47 323.47 1.62 c p1
116.13 323.96 1.62 c p1
116.79 324.40 1.62 c p1
117.45 324.79 1.62 c p1
118.11 325.13 1.62 c p1
118.77 325.42 1.62 c p1
119.43 325.67 1.62 c p1
120.09 325.87 1.62 c p1
120.75 326.03 1.62 c p1
121.41 326.16 1.62 c p1
122.07 326.24 1.62 c p1
122.73 326.29 1.62 c p1
123.39 326.31 1.62 c p1
124.05 326.29 1.62 c p1
124.71 326.24 1.62 c p1
125.37 326.16 1.62 c p1
126.03 326.06 1.62 c p1
126.69 325.92 1.62 c p1
127.35 325.76 1.62 c p1
128.01 325.57 1.62 c p1
128.67 325.36 1.62 c p1
129.33 325.13 1.62 c p1
129.99 324.88 1.62 c p1
130.66 324.60 1.62 c p1
131.32 324.31 1.62 c p1
131.98 324.00 1.62 c p1
132.64 323.66 1.62 c p1
133.30 323.32 1.62 c p1
133.96 322.95 1.62 c p1
134.62 322.57 1.62 c p1
135.28 322.17 1.62 c p1
135.94 321.76 1.62 c p1
136.60 321.34 1.62 c p1
137.26 320.90 1.62 c p1
137.92 320.45 1.62 c p1
138.58 319.99 1.62 c p1
139.24 319.51 1.62 c p1
139.90 319.03 1.62 c p1
140.56 318.53 1.62 c p1
141.22 318.03 1.62 c p1
141.88 317.51 1.62 c p1
142.54 316.99 1.62 c p1
143.20 316.46 1.62 c p1
143.86 315.92 1.62 c p1
144.52 315.37 1.62 c p1
145.18 314.81 1.62 c p1
145.84 314.25 1.62 c p1
146.51 313.68 1.62 c p1
147.17 313.10 1.62 c p1
147.83 312.52 1.62 c p1
148.49 311.93 1.62 c p1
149.15 311.33 1.62 c p1
149.81 310.73 1.62 c p1
150.47 310.12 1.62 c p1
151.13 309.51 1.62 c p1
151.79 308.90 1.62 c p1
152.45 308.28 1.62 c p1
153.11 307.65 1.62 c p1
153.77 307.02 1.62 c p1
154.43 306.39 1.62 c p1
155.09 305.75 1.62 c p1
155.75 305.11 1.62 c p1
156.41 304.46 1.62 c p1
157.07 303.82 1.62 c p1
157.73 303.17 1.62 c p1
158.39 302.51 1.62 c p1
159.05 301.85 1.62 c p1
159.71 301.20 1.62 c p1
160.37 300.53 1.62 c p1
161.03 299.87 1.62 c p1
161.69 299.20 1.62 c p1
162.36 298.53 1.62 c p1
163.02 297.86 1.62 c p1
163.68 297.18 1.62 c p1
164.34 296.51 1.62 c p1
165.00 295.83 1.62 c p1
165.66 295.15 1.62 c p1
166.32 294.47 1.62 c p1
166.98 293.79 1.62 c p1
167.64 293.10 1.62 c p1
168.30 292.41 1.62 c p1
168.96 291.73 1.62 c p1
169.62 291.04 1.62 c p1
170.28 290.35 1.62 c p1
170.94 289.65 1.62 c p1
171.60 288.96 1.62 c p1
172.26 288.27 1.62 c p1
172.92 287.57 1.62 c p1
173.58 286.88 1.62 c p1
174.24 286.18 1.62 c p1
174.90 285.48 1.62 c p1
175.56 284.78 1.62 c p1
176.22 284.08 1.62 c p1
176.88 283.38 1.62 c p1
177.54 282.68 1.62 c p1
178.21 281.97 1.62 c p1
178.87 281.27 1.62 c p1
179.53 280.57 1.62 c p1
180.19 279.86 1.62 c p1
180.85 279.16 1.62 c p1
181.51 278.45 1.62 c p1
182.17 277.74 1.62 c p1
182.83 277.03 1.62 c p1
183.49 276.33 1.62 c p1
184.15 275.62 1.62 c p1
184.81 274.91 1.62 c p1
185.47 274.20 1.62 c p1
186.13 273.49 1.62 c p1
186.79 272.78 1.62 c p1
187.45 272.07 1.62 c p1
188.11 271.36 1.62 c p1
188.77 270.65 1.62 c p1
189.43 269.94 1.62 c p1
190.09 269.22 1.62 c p1
190.75 268.51 1.62 c p1
191.41 267.80 1.62 c p1
192.07 267.09 1.62 c p1
192.73 266.37 1.62 c p1
193.39 265.66 1.62 c p1
194.06 264.94 1.62 c p1
194.72 264.23 1.62 c p1
195.38 263.52 1.62 c p1
196.04 262.80 1.62 c p1
196.70 262.09 1.62 c p1
197.36 261.37 1.62 c p1
198.02 260.66 1.62 c p1
198.68 259.94 1.62 c p1
199.34 259.23 1.62 c p1
200.00 258.51 1.62 c p1
200.66 257.79 1.62 c p1
201.32 257.08 1.62 c p1
201.98 256.36 1.62 c p1
202.64 255.65 1.62 c p1
203.30 254.93 1.62 c p1
203.96 254.21 1.62 c p1
204.62 253.50 1.62 c p1
205.28 252.78 1.62 c p1
205.94 252.06 1.62 c p1
206.60 251.34 1.62 c p1
207.26 250.63 1.62 c p1
207.92 249.91 1.62 c p1
208.58 249.19 1.62 c p1
209.24 248.48 1.62 c p1
209.91 247.76 1.62 c p1
210.57 247.04 1.62 c p1
211.23 246.32 1.62 c p1
211.89 245.60 1.62 c p1
212.55 244.89 1.62 c p1
213.21 244.17 1.62 c p1
213.87 243.45 1.62 c p1
214.53 242.73 1.62 c p1
215.19 242.01 1.62 c p1
215.85 241.30 1.62 c p1
216.51 240.58 1.62 c p1
217.17 239.86 1.62 c p1
217.83 239.14 1.62 c p1
218.49 238.42 1.62 c p1
219.15 237.70 1.62 c p1
219.81 236.99 1.62 c p1
220.47 236.27 1.62 c p1
221.13 235.55 1.62 c p1
221.79 234.83 1.62 c p1
222.45 234.11 1.62 c p1
223.11 233.39 1.62 c p1
223.77 232.67 1.62 c p1
224.43 231.96 1.62 c p1
225.09 231.24 1.62 c p1
225.76 230.52 1.62 c p1
226.42 229.80 1.62 c p1
227.08 229.08 1.62 c p1
227.74 228.36 1.62 c p1
228.40 227.64 1.62 c p1
229.06 226.92 1.62 c p1
229.72 226.20 1.62 c p1
230.38 225.49 1.62 c p1
231.04 224.77 1.62 c p1
231.70 224.05 1.62 c p1
232.36 223.33 1.62 c p1
233.02 222.61 1.62 c p1
233.68 221.89 1.62 c p1
234.34 221.17 1.62 c p1
235.00 220.45 1.62 c p1
235.66 219.73 1.62 c p1
236.32 219.01 1.62 c p1
236.98 218.29 1.62 c p1
237.64 217.58 1.62 c p1
238.30 216.86 1.62 c p1
238.96 216.14 1.62 c p1
239.62 215.42 1.62 c p1
240.28 214.70 1.62 c p1
240.94 213.98 1.62 c p1
241.61 213.98 1.62 c p1
242.27 214.70 1.62 c p1
242.93 215.42 1.62 c p1
243.59 216.14 1.62 c p1
244.25 216.86 1.62 c p1
244.91 217.58 1.62 c p1
245.57 218.29 1.62 c p1
246.23 219.01 1.62 c p1
246.89 219.73 1.62 c p1
247.55 220.45 1.62 c p1
248.21 221.17 1.62 c p1
248.87 221.89 1.62 c p1
249.53 222.61 1.62 c p1
250.19 223.33 1.62 c p1
250.85 224.05 1.62 c p1
251.51 224.77 1.62 c p1
252.17 225.49 1.62 c p1
252.83 226.20 1.62 c p1
253.49 226.92 1.62 c p1
254.15 227.64 1.62 c p1
254.81 228.36 1.62 c p1
255.47 229.08 1.62 c p1
256.13 229.80 1.62 c p1
256.79 230.52 1.62 c p1
257.46 231.24 1.62 c p1
258.12 231.96 1.62 c p1
258.78 232.67 1.62 c p1
259.44 233.39 1.62 c p1
260.10 234.11 1.62 c p1
260.76 234.83 1.62 c p1
261.42 235.55 1.62 c p1
262.08 236.27 1.62 c p1
262.74 236.99 1.62 c p1
263.40 237.70 1.62 c p1
264.06 238.42 1.62 c p1
264.72 239.14 1.62 c p1
265.38 239.86 1.62 c p1
266.04 240.58 1.62 c p1
266.70 241.30 1.62 c p1
267.36 242.01 1.62 c p1
268.02 242.73 1.62 c p1
268.68 243.45 1.62 c p1
269.34 244.17 1.62 c p1
270.00 244.89 1.62 c p1
270.66 245.60 1.62 c p1
271.32 246.32 1.62 c p1
271.98 247.04 1.62 c p1
272.64 247.76 1.62 c p1
273.31 248.48 1.62 c p1
273.97 249.19 1.62 c p1
274.63 249.91 1.62 c p1
275.29 250.63 1.62 c p1
275.95 251.34 1.62 c p1
276.61 252.06 1.62 c p1
277.27 252.78 1.62 c p1
277.93 253.50 1.62 c p1
278.59 254.21 1.62 c p1
279.25 254.93 1.62 c p1
279.91 255.65 1.62 c p1
280.57 256.36 1.62 c p1
281.23 257.08 1.62 c p1
281.89 257.79 1.62 c p1
282.55 258.51 1.62 c p1
283.21 259.23 1.62 c p1
283.87 259.94 1.62 c p1
284.53 260.66 1.62 c p1
285.19 261.37 1.62 c p1
285.85 262.09 1.62 c p1
286.51 262.80 1.62 c p1
287.17 263.52 1.62 c p1
287.83 264.23 1.62 c p1
288.49 264.94 1.62 c p1
289.15 265.66 1.62 c p1
289.82 266.37 1.62 c p1
290.48 267.09 1.62 c p1
291.14 267.80 1.62 c p1
291.80 268.51 1.62 c p1
292.46 269.22 1.62 c p1
293.12 269.94 1.62 c p1
293.78 270.65 1.62 c p1
294.44 271.36 1.62 c p1
295.10 272.07 1.62 c p1
295.76 272.78 1.62 c p1
296.42 273.49 1.62 c p1
297.08 274.20 1.62 c p1
297.74 274.91 1.62 c p1
298.40 275.62 1.62 c p1
299.06 276.33 1.62 c p1
299.72 277.03 1.62 c p1
300.38 277.74 1.62 c p1
301.04 278.45 1.62 c p1
301.70 279.16 1.62 c p1
302.36 279.86 1.62 c p1
303.02 280.57 1.62 c p1
303.68 281.27 1.62 c p1
304.34 281.97 1.62 c p1
305.00 282.68 1.62 c p1
305.67 283.38 1.62 c p1
306.33 284.08 1.62 c p1
306.99 284.78 1.62 c p1
307.65 285.48 1.62 c p1
308.31 286.18 1.62 c p1
308.97 286.88 1.62 c p1
309.63 287.57 1.62 c p1
310.29 288.27 1.62 c p1
310.95 288.96 1.62 c p1
311.61 289.65 1.62 c p1
312.27 290.35 1.62 c p1
312.93 291.04 1.62 c p1
313.59 291.73 1.62 c p1
314.25 292.41 1.62 c p1
314.91 293.10 1.62 c p1
315.57 293.79 1.62 c p1
316.23 294.47 1.62 c p1
316.89 295.15 1.62 c p1
317.55 295.83 1.62 c p1
318.21 296.51 1.62 c p1
318.87 297.18 1.62 c p1
319.53 297.86 1.62 c p1
320.19 298.53 1.62 c p1
320.85 299.20 1.62 c p1
321.52 299.87 1.62 c p1
322.18 300.53 1.62 c p1
322.84 301.20 1.62 c p1
323.50 301.85 1.62 c p1
324.16 302.51 1.62 c p1
324.82 303.17 1.62 c p1
325.48 303.82 1.62 c p1
326.14 304.46 1.62 c p1
326.80 305.11 1.62 c p1
327.46 305.75 1.62 c p1
328.12 306.39 1.62 c p1
328.78 307.02 1.62 c p1
329.44 307.65 1.62 c p1
330.10 308.28 1.62 c p1
330.76 308.90 1.62 c p1
331.42 309.51 1.62 c p1
332.08 310.12 1.62 c p1
332.74 310.73 1.62 c p1
333.40 311.33 1.62 c p1
334.06 311.93 1.62 c p1
334.72 312.52 1.62 c p1
335.38 313.10 1.62 c p1
336.04 313.68 1.62 c p1
336.70 314.25 1.62 c p1
337.37 314.81 1.62 c p1
338.03 315.37 1.62 c p1
338.69 315.92 1.62 c p1
339.35 316.46 1.62 c p1
340.01 316.99 1.62 c p1
340.67 317.51 1.62 c p1
341.33 318.03 1.62 c p1
341.99 318.53 1.62 c p1
342.65 319.03 1.62 c p1
343.31 319.51 1.62 c p1
343.97 319.99 1.62 c p1
344.63 320.45 1.62 c p1
345.29 320.90 1.62 c p1
345.95 321.34 1.62 c p1
346.61 321.76 1.62 c p1
347.27 322.17 1.62 c p1
347.93 322.57 1.62 c p1
348.59 322.95 1.62 c p1
349.25 323.32 1.62 c p1
349.91 323.66 1.62 c p1
350.57 324.00 1.62 c p1
351.23 324.31 1.62 c p1
351.89 324.60 1.62 c p1
352.55 324.88 1.62 c p1
353.22 325.13 1.62 c p1
353.88 325.36 1.62 c p1
354.54 325.57 1.62 c p1
355.20 325.76 1.62 c p1
355.86 325.92 1.62 c p1
356.52 326.06 1.62 c p1
357.18 326.16 1.62 c p1
357.84 326.24 1.62 c p1
358.50 326.29 1.62 c p1
359.16 326.31 1.62 c p1
359.82 326.29 1.62 c p1
360.48 326.24 1.62 c p1
361.14 326.16 1.62 c p1
361.80 326.03 1.62 c p1
362.46 325.87 1.62 c p1
363.12 325.67 1.62 c p1
363.78 325.42 1.62 c p1
364.44 325.13 1.62 c p1
365.10 324.79 1.62 c p1
365.76 324.40 1.62 c p1
366.42 323.96 1.62 c p1
367.08 323.47 1.62 c p1
367.74 322.92 1.62 c p1
368.40 322.31 1.62 c p1
369.07 321.64 1.62 c p1
369.73 320.90 1.62 c p1
370.39 320.09 1.62 c p1
371.05 319.22 1.62 c p1
371.71 318.27 1.62 c p1
372.37 317.24 1.62 c p1
373.03 316.13 1.62 c p1
373.69 314.94 1.62 c p1
374.35 313.66 1.62 c p1
375.01 312.28 1.62 c p1
375.67 310.81 1.62 c p1
376.33 309.24 1.62 c p1
376.99 307.56 1.62 c p1
377.65 305.77 1.62 c p1
378.31 303.86 1.62 c p1
378.97 301.83 1.62 c p1
379.63 299.68 1.62 c p1
380.29 297.40 1.62 c p1
380.95 294.98 1.62 c p1
381.61 292.41 1.62 c p1
382.27 289.70 1.62 c p1
382.93 286.83 1.62 c p1
383.59 283.80 1.62 c p1
384.25 280.61 1.62 c p1
384.92 277.24 1.62 c p1
385.58 273.69 1.62 c p1
386.24 269.96 1.62 c p1
386.90 266.03 1.62 c p1
387.56 261.91 1.62 c p1
388.22 257.58 1.62 c p1
388.88 253.05 1.62 c p1
389.54 248.31 1.62 c p1
390.20 243.35 1.62 c p1
390.86 238.18 1.62 c p1
391.52 232.79 1.62 c p1
392.18 227.18 1.62 c p1
392.84 221.37 1.62 c p1
393.50 215.35 1.62 c p1
394.16 209.14 1.62 c p1
394.82 202.75 1.62 c p1
395.48 196.20 1.62 c p1
396.14 189.51 1.62 c p1
396.80 182.73 1.62 c p1
397.46 175.88 1.62 c p1
398.12 169.03 1.62 c p1
398.78 162.23 1.62 c p1
399.44 155.56 1.62 c p1
400.10 149.11 1.62 c p1
400.77 142.96 1.62 c p1
401.43 137.23 1.62 c p1
402.09 132.04 1.62 c p1
402.75 127.51 1.62 c p1
403.41 123.74 1.62 c p1
404.07 120.82 1.62 c p1
404.73 118.78 1.62 c p1
405.39 117.62 1.62 c p1
406.05 117.22 1.62 c p1
406.71 117.40 1.62 c p1
407.37 117.94 1.62 c p1
408.03 118.62 1.62 c p1
408.69 119.33 1.62 c p1
409.35 120.05 1.62 c p1
410.01 120.77 1.62 c p1
/bg { 1 1 1 srgb } def
0 0 0 srgb
218.91 364.66 45.15 -59.58 r p3
0.6784 0.8471 0.9020 srgb
231.87 343.51 1.62 c p1
1 0.8431 0 srgb
231.87 322.36 1.62 c p1
/Font1 findfont 14 s
0 0 0 srgb
244.83 339.77 (T) 0 0 t
/Font1 findfont 10 s
253.39 337.20 (i) 0 0 t
/Font1 findfont 14 s
244.83 317.56 (T) 0 0 t
/Font1 findfont 10 s
253.39 313.03 (i) 0 0 t
253.39 324.51 (*) 0 0 t
0.8275 0.8275 0.8275 srgb
0.75 setlinewidth
[ 0.00 3.00] 0 setdash
np
71.88 73.44 m
0 314.52 l
o
np
138.71 73.44 m
0 314.52 l
o
np
205.55 73.44 m
0 314.52 l
o
np
272.38 73.44 m
0 314.52 l
o
np
339.21 73.44 m
0 314.52 l
o
np
406.05 73.44 m
0 314.52 l
o
np
59.04 85.09 m
364.47 0 l
o
np
59.04 157.89 m
364.47 0 l
o
np
59.04 230.70 m
364.47 0 l
o
np
59.04 303.51 m
364.47 0 l
o
np
59.04 376.31 m
364.47 0 l
o
ep
%%Trailer
%%Pages: 1
%%EOF
