%!PS-Adobe-3.0 EPSF-3.0
%%DocumentNeededResources: font Helvetica
%%+ font Helvetica-Bold
%%+ font Helvetica-Oblique
%%+ font Helvetica-BoldOblique
%%+ font Symbol
%%Title: R Graphics Output
%%Creator: R Software
%%Pages: (atend)
%%BoundingBox: 0 0 375 368
%%EndComments
%%BeginProlog
/bp  { gs sRGB gs } def
% begin .ps.prolog
/gs  { gsave } bind def
/gr  { grestore } bind def
/ep  { showpage gr gr } bind def
/m   { moveto } bind def
/l  { rlineto } bind def
/np  { newpath } bind def
/cp  { closepath } bind def
/f   { fill } bind def
/o   { stroke } bind def
/c   { newpath 0 360 arc } bind def
/r   { 4 2 roll moveto 1 copy 3 -1 roll exch 0 exch rlineto 0 rlineto -1 mul 0 exch rlineto closepath } bind def
/p1  { stroke } bind def
/p2  { gsave bg fill grestore newpath } bind def
/p3  { gsave bg fill grestore stroke } bind def
/p6  { gsave bg eofill grestore newpath } bind def
/p7  { gsave bg eofill grestore stroke } bind def
/t   { 5 -2 roll moveto gsave rotate
       1 index stringwidth pop
       mul neg 0 rmoveto show grestore } bind def
/ta  { 4 -2 roll moveto gsave rotate show } bind def
/tb  { 2 -1 roll 0 rmoveto show } bind def
/cl  { grestore gsave newpath 3 index 3 index moveto 1 index
       4 -1 roll lineto  exch 1 index lineto lineto
       closepath clip newpath } bind def
/rgb { setrgbcolor } bind def
/s   { scalefont setfont } bind def
% end   .ps.prolog
/sRGB { [ /CIEBasedABC
          << /DecodeLMN
               [ { dup 0.03928 le
                        {12.92321 div}
                        {0.055 add 1.055 div 2.4 exp }
                     ifelse
                 } bind dup dup
               ]
             /MatrixLMN [0.412457 0.212673 0.019334
                         0.357576 0.715152 0.119192
                         0.180437 0.072175 0.950301]
             /WhitePoint [0.9505 1.0 1.0890]
           >>
         ] setcolorspace } bind def
/srgb { setcolor } bind def
% begin encoding
/WinAnsiEncoding [
 /.notdef /.notdef /.notdef /.notdef /.notdef /.notdef /.notdef /.notdef
 /.notdef /.notdef /.notdef /.notdef /.notdef /.notdef /.notdef /.notdef
 /.notdef /.notdef /.notdef /.notdef /.notdef /.notdef /.notdef /.notdef
 /.notdef /.notdef /.notdef /.notdef /.notdef /.notdef /.notdef /.notdef
 /space /exclam /quotedbl /numbersign /dollar /percent /ampersand /quoteright
 /parenleft /parenright /asterisk /plus /comma /minus /period /slash
 /zero /one /two /three /four /five /six /seven
 /eight /nine /colon /semicolon /less /equal /greater /question
 /at /A /B /C /D /E /F /G
 /H /I /J /K /L /M /N /O
 /P /Q /R /S /T /U /V /W
 /X /Y /Z /bracketleft /backslash /bracketright /asciicircum /underscore
 /grave /a /b /c /d /e /f /g
 /h /i /j /k /l /m /n /o
 /p /q /r /s /t /u /v /w
 /x /y /z /braceleft /bar /braceright /asciitilde /.notdef
 /Euro /.notdef /quotesinglbase /florin /quotedblbase /ellipsis /dagger /daggerdbl
 /circumflex /perthousand /Scaron /guilsinglleft /OE /.notdef /Zcaron /.notdef
 /.notdef /quoteleft /quoteright /quotedblleft /quotedblright /bullet /endash /emdash
 /tilde /trademark /scaron /guilsinglright /oe /.notdef /zcaron /Ydieresis
 /space /exclamdown /cent /sterling /currency /yen /brokenbar /section
 /dieresis /copyright /ordfeminine /guillemotleft /logicalnot /hyphen /registered /macron
 /degree /plusminus /twosuperior /threesuperior /acute /mu /paragraph /periodcentered
 /cedilla /onesuperior /ordmasculine /guillemotright /onequarter /onehalf /threequarters /questiondown
 /Agrave /Aacute /Acircumflex /Atilde /Adieresis /Aring /AE /Ccedilla
 /Egrave /Eacute /Ecircumflex /Edieresis /Igrave /Iacute /Icircumflex /Idieresis
 /Eth /Ntilde /Ograve /Oacute /Ocircumflex /Otilde /Odieresis /multiply
 /Oslash /Ugrave /Uacute /Ucircumflex /Udieresis /Yacute /Thorn /germandbls
 /agrave /aacute /acircumflex /atilde /adieresis /aring /ae /ccedilla
 /egrave /eacute /ecircumflex /edieresis /igrave /iacute /icircumflex /idieresis
 /eth /ntilde /ograve /oacute /ocircumflex /otilde /odieresis /divide
 /oslash /ugrave /uacute /ucircumflex /udieresis /yacute /thorn /ydieresis
]
 def
% end encoding
%%IncludeResource: font Helvetica
/Helvetica findfont
dup length dict begin
  {1 index /FID ne {def} {pop pop} ifelse} forall
  /Encoding WinAnsiEncoding def
  currentdict
  end
/Font1 exch definefont pop
%%IncludeResource: font Helvetica-Bold
/Helvetica-Bold findfont
dup length dict begin
  {1 index /FID ne {def} {pop pop} ifelse} forall
  /Encoding WinAnsiEncoding def
  currentdict
  end
/Font2 exch definefont pop
%%IncludeResource: font Helvetica-Oblique
/Helvetica-Oblique findfont
dup length dict begin
  {1 index /FID ne {def} {pop pop} ifelse} forall
  /Encoding WinAnsiEncoding def
  currentdict
  end
/Font3 exch definefont pop
%%IncludeResource: font Helvetica-BoldOblique
/Helvetica-BoldOblique findfont
dup length dict begin
  {1 index /FID ne {def} {pop pop} ifelse} forall
  /Encoding WinAnsiEncoding def
  currentdict
  end
/Font4 exch definefont pop
%%IncludeResource: font Symbol
/Symbol findfont
dup length dict begin
  {1 index /FID ne {def} {pop pop} ifelse} forall
  currentdict
  end
/Font5 exch definefont pop
%%EndProlog
%%Page: 1 1
bp
/bg { 1 1 1 srgb } def
0.00 0.00 375.00 367.50 r p2
59.04 73.44 344.76 308.46 cl
59.04 73.44 344.76 308.46 cl
0.6784 0.8471 0.9020 srgb
0.75 setlinewidth
[] 0 setdash
1 setlinecap
1 setlinejoin
10.00 setmiterlimit
69.62 100.28 1.62 c p1
70.66 100.28 1.62 c p1
71.70 100.28 1.62 c p1
72.73 100.28 1.62 c p1
73.77 100.31 1.62 c p1
74.81 100.43 1.62 c p1
75.85 100.78 1.62 c p1
76.88 101.52 1.62 c p1
77.92 102.75 1.62 c p1
78.96 104.55 1.62 c p1
80.00 106.94 1.62 c p1
81.03 109.88 1.62 c p1
82.07 113.32 1.62 c p1
83.11 117.20 1.62 c p1
84.15 121.42 1.62 c p1
85.18 125.92 1.62 c p1
86.22 130.63 1.62 c p1
87.26 135.47 1.62 c p1
88.30 140.40 1.62 c p1
89.33 145.36 1.62 c p1
90.37 150.32 1.62 c p1
91.41 155.24 1.62 c p1
92.45 160.09 1.62 c p1
93.48 164.86 1.62 c p1
94.52 169.52 1.62 c p1
95.56 174.06 1.62 c p1
96.60 178.48 1.62 c p1
97.63 182.76 1.62 c p1
98.67 186.90 1.62 c p1
99.71 190.91 1.62 c p1
100.75 194.77 1.62 c p1
101.78 198.49 1.62 c p1
102.82 202.07 1.62 c p1
103.86 205.51 1.62 c p1
104.90 208.82 1.62 c p1
105.93 212.00 1.62 c p1
106.97 215.04 1.62 c p1
108.01 217.96 1.62 c p1
109.05 220.76 1.62 c p1
110.08 223.44 1.62 c p1
111.12 226.00 1.62 c p1
112.16 228.46 1.62 c p1
113.20 230.81 1.62 c p1
114.23 233.06 1.62 c p1
115.27 235.21 1.62 c p1
116.31 237.27 1.62 c p1
117.35 239.24 1.62 c p1
118.38 241.12 1.62 c p1
119.42 242.92 1.62 c p1
120.46 244.64 1.62 c p1
121.50 246.29 1.62 c p1
122.53 247.86 1.62 c p1
123.57 249.36 1.62 c p1
124.61 250.80 1.62 c p1
125.65 252.17 1.62 c p1
126.68 253.49 1.62 c p1
127.72 254.74 1.62 c p1
128.76 255.94 1.62 c p1
129.80 257.08 1.62 c p1
130.83 258.18 1.62 c p1
131.87 259.22 1.62 c p1
132.91 260.22 1.62 c p1
133.95 261.18 1.62 c p1
134.98 262.09 1.62 c p1
136.02 262.96 1.62 c p1
137.06 263.79 1.62 c p1
138.10 264.59 1.62 c p1
139.13 265.35 1.62 c p1
140.17 266.07 1.62 c p1
141.21 266.77 1.62 c p1
142.25 267.43 1.62 c p1
143.28 268.06 1.62 c p1
144.32 268.67 1.62 c p1
145.36 269.25 1.62 c p1
146.40 269.80 1.62 c p1
147.43 270.33 1.62 c p1
148.47 270.83 1.62 c p1
149.51 271.31 1.62 c p1
150.55 271.77 1.62 c p1
151.58 272.21 1.62 c p1
152.62 272.63 1.62 c p1
153.66 273.03 1.62 c p1
154.69 273.42 1.62 c p1
155.73 273.78 1.62 c p1
156.77 274.13 1.62 c p1
157.81 274.47 1.62 c p1
158.84 274.78 1.62 c p1
159.88 275.09 1.62 c p1
160.92 275.38 1.62 c p1
161.96 275.66 1.62 c p1
162.99 275.93 1.62 c p1
164.03 276.18 1.62 c p1
165.07 276.42 1.62 c p1
166.11 276.66 1.62 c p1
167.14 276.88 1.62 c p1
168.18 277.09 1.62 c p1
169.22 277.29 1.62 c p1
170.26 277.48 1.62 c p1
171.29 277.67 1.62 c p1
172.33 277.85 1.62 c p1
173.37 278.01 1.62 c p1
174.41 278.18 1.62 c p1
175.44 278.33 1.62 c p1
176.48 278.48 1.62 c p1
177.52 278.62 1.62 c p1
178.56 278.75 1.62 c p1
179.59 278.88 1.62 c p1
180.63 279.00 1.62 c p1
181.67 279.12 1.62 c p1
182.71 279.23 1.62 c p1
183.74 279.34 1.62 c p1
184.78 279.44 1.62 c p1
185.82 279.54 1.62 c p1
186.86 279.63 1.62 c p1
187.89 279.72 1.62 c p1
188.93 279.80 1.62 c p1
189.97 279.88 1.62 c p1
191.01 279.96 1.62 c p1
192.04 280.04 1.62 c p1
193.08 280.11 1.62 c p1
194.12 280.18 1.62 c p1
195.16 280.24 1.62 c p1
196.19 280.30 1.62 c p1
197.23 280.36 1.62 c p1
198.27 280.42 1.62 c p1
199.31 280.47 1.62 c p1
200.34 280.52 1.62 c p1
201.38 280.57 1.62 c p1
202.42 280.62 1.62 c p1
203.46 280.66 1.62 c p1
204.49 280.71 1.62 c p1
205.53 280.75 1.62 c p1
206.57 280.79 1.62 c p1
207.61 280.82 1.62 c p1
208.64 280.86 1.62 c p1
209.68 280.89 1.62 c p1
210.72 280.93 1.62 c p1
211.76 280.96 1.62 c p1
212.79 280.99 1.62 c p1
213.83 281.02 1.62 c p1
214.87 281.04 1.62 c p1
215.91 281.07 1.62 c p1
216.94 281.09 1.62 c p1
217.98 281.12 1.62 c p1
219.02 281.14 1.62 c p1
220.06 281.16 1.62 c p1
221.09 281.18 1.62 c p1
222.13 281.20 1.62 c p1
223.17 281.22 1.62 c p1
224.21 281.24 1.62 c p1
225.24 281.26 1.62 c p1
226.28 281.27 1.62 c p1
227.32 281.29 1.62 c p1
228.36 281.30 1.62 c p1
229.39 281.32 1.62 c p1
230.43 281.33 1.62 c p1
231.47 281.34 1.62 c p1
232.51 281.36 1.62 c p1
233.54 281.37 1.62 c p1
234.58 281.38 1.62 c p1
235.62 281.39 1.62 c p1
236.66 281.40 1.62 c p1
237.69 281.41 1.62 c p1
238.73 281.42 1.62 c p1
239.77 281.43 1.62 c p1
240.81 281.44 1.62 c p1
241.84 281.45 1.62 c p1
242.88 281.45 1.62 c p1
243.92 281.46 1.62 c p1
244.95 281.47 1.62 c p1
245.99 281.48 1.62 c p1
247.03 281.48 1.62 c p1
248.07 281.49 1.62 c p1
249.10 281.50 1.62 c p1
250.14 281.50 1.62 c p1
251.18 281.51 1.62 c p1
252.22 281.51 1.62 c p1
253.25 281.52 1.62 c p1
254.29 281.52 1.62 c p1
255.33 281.53 1.62 c p1
256.37 281.53 1.62 c p1
257.40 281.53 1.62 c p1
258.44 281.54 1.62 c p1
259.48 281.54 1.62 c p1
260.52 281.55 1.62 c p1
261.55 281.55 1.62 c p1
262.59 281.55 1.62 c p1
263.63 281.56 1.62 c p1
264.67 281.56 1.62 c p1
265.70 281.56 1.62 c p1
266.74 281.56 1.62 c p1
267.78 281.57 1.62 c p1
268.82 281.57 1.62 c p1
269.85 281.57 1.62 c p1
270.89 281.57 1.62 c p1
271.93 281.58 1.62 c p1
272.97 281.58 1.62 c p1
274.00 281.58 1.62 c p1
275.04 281.58 1.62 c p1
276.08 281.58 1.62 c p1
277.12 281.59 1.62 c p1
278.15 281.59 1.62 c p1
279.19 281.59 1.62 c p1
280.23 281.59 1.62 c p1
281.27 281.59 1.62 c p1
282.30 281.59 1.62 c p1
283.34 281.60 1.62 c p1
284.38 281.60 1.62 c p1
285.42 281.60 1.62 c p1
286.45 281.60 1.62 c p1
287.49 281.60 1.62 c p1
288.53 281.60 1.62 c p1
289.57 281.60 1.62 c p1
290.60 281.60 1.62 c p1
291.64 281.60 1.62 c p1
292.68 281.61 1.62 c p1
293.72 281.61 1.62 c p1
294.75 281.61 1.62 c p1
295.79 281.61 1.62 c p1
296.83 281.61 1.62 c p1
297.87 281.61 1.62 c p1
298.90 281.61 1.62 c p1
299.94 281.61 1.62 c p1
300.98 281.61 1.62 c p1
302.02 281.61 1.62 c p1
303.05 281.61 1.62 c p1
304.09 281.61 1.62 c p1
305.13 281.61 1.62 c p1
306.17 281.61 1.62 c p1
307.20 281.61 1.62 c p1
308.24 281.61 1.62 c p1
309.28 281.62 1.62 c p1
310.32 281.62 1.62 c p1
311.35 281.62 1.62 c p1
312.39 281.62 1.62 c p1
313.43 281.62 1.62 c p1
314.47 281.62 1.62 c p1
315.50 281.62 1.62 c p1
316.54 281.62 1.62 c p1
317.58 281.62 1.62 c p1
318.62 281.62 1.62 c p1
319.65 281.62 1.62 c p1
320.69 281.62 1.62 c p1
321.73 281.62 1.62 c p1
322.77 281.62 1.62 c p1
323.80 281.62 1.62 c p1
324.84 281.62 1.62 c p1
325.88 281.62 1.62 c p1
326.92 281.62 1.62 c p1
327.95 281.62 1.62 c p1
328.99 281.62 1.62 c p1
330.03 281.62 1.62 c p1
331.07 281.62 1.62 c p1
332.10 281.62 1.62 c p1
333.14 281.62 1.62 c p1
334.18 281.62 1.62 c p1
0.00 0.00 375.00 367.50 cl
0 0 0 srgb
0.75 setlinewidth
[] 0 setdash
1 setlinecap
1 setlinejoin
10.00 setmiterlimit
np
68.58 73.44 m
262.49 0 l
o
np
68.58 73.44 m
0 -7.20 l
o
np
121.08 73.44 m
0 -7.20 l
o
np
173.58 73.44 m
0 -7.20 l
o
np
226.07 73.44 m
0 -7.20 l
o
np
278.57 73.44 m
0 -7.20 l
o
np
331.07 73.44 m
0 -7.20 l
o
/Font1 findfont 12 s
68.58 47.52 (0.00) .5 0 t
121.08 47.52 (0.05) .5 0 t
173.58 47.52 (0.10) .5 0 t
226.07 47.52 (0.15) .5 0 t
278.57 47.52 (0.20) .5 0 t
331.07 47.52 (0.25) .5 0 t
np
59.04 100.28 m
0 181.34 l
o
np
59.04 100.28 m
-7.20 0 l
o
np
59.04 136.55 m
-7.20 0 l
o
np
59.04 172.82 m
-7.20 0 l
o
np
59.04 209.08 m
-7.20 0 l
o
np
59.04 245.35 m
-7.20 0 l
o
np
59.04 281.62 m
-7.20 0 l
o
41.76 100.28 (0.0) .5 90 t
41.76 136.55 (0.2) .5 90 t
41.76 172.82 (0.4) .5 90 t
41.76 209.08 (0.6) .5 90 t
41.76 245.35 (0.8) .5 90 t
41.76 281.62 (1.0) .5 90 t
np
59.04 73.44 m
285.72 0 l
0 235.02 l
-285.72 0 l
0 -235.02 l
o
0.00 0.00 375.00 367.50 cl
/Font1 findfont 12 s
0 0 0 srgb
191.34 21.07 (t) 0 0 t
/Font1 findfont 8 s
194.68 18.88 (i) 0 0 t
/Font1 findfont 12 s
196.45 21.07 ( [s]) 0 0 t
12.96 187.28 (T) 0 90 t
59.04 73.44 344.76 308.46 cl
/bg { 1 1 1 srgb } def
0 0 0 srgb
0.75 setlinewidth
[] 0 setdash
1 setlinecap
1 setlinejoin
10.00 setmiterlimit
362.56 267.11 44.80 -25.52 r p3
0.6784 0.8471 0.9020 srgb
372.72 254.35 1.62 c p1
0 0 0 srgb
362.56 267.11 44.80 -25.52 r p3
0.6784 0.8471 0.9020 srgb
372.72 254.35 1.62 c p1
0 0 0 srgb
278.57 267.11 44.80 -25.52 r p3
0.6784 0.8471 0.9020 srgb
288.73 254.35 1.62 c p1
/Font1 findfont 14 s
0 0 0 srgb
298.89 250.70 (T) 0 0 t
/Font1 findfont 10 s
307.44 248.14 (256) 0 0 t
ep
%%Trailer
%%Pages: 1
%%EOF
