%!PS-Adobe-3.0 EPSF-3.0
%%DocumentNeededResources: font Helvetica
%%+ font Helvetica-Bold
%%+ font Helvetica-Oblique
%%+ font Helvetica-BoldOblique
%%+ font Symbol
%%Title: R Graphics Output
%%Creator: R Software
%%Pages: (atend)
%%BoundingBox: 0 0 454 447
%%EndComments
%%BeginProlog
/bp  { gs sRGB gs } def
% begin .ps.prolog
/gs  { gsave } bind def
/gr  { grestore } bind def
/ep  { showpage gr gr } bind def
/m   { moveto } bind def
/l  { rlineto } bind def
/np  { newpath } bind def
/cp  { closepath } bind def
/f   { fill } bind def
/o   { stroke } bind def
/c   { newpath 0 360 arc } bind def
/r   { 4 2 roll moveto 1 copy 3 -1 roll exch 0 exch rlineto 0 rlineto -1 mul 0 exch rlineto closepath } bind def
/p1  { stroke } bind def
/p2  { gsave bg fill grestore newpath } bind def
/p3  { gsave bg fill grestore stroke } bind def
/p6  { gsave bg eofill grestore newpath } bind def
/p7  { gsave bg eofill grestore stroke } bind def
/t   { 5 -2 roll moveto gsave rotate
       1 index stringwidth pop
       mul neg 0 rmoveto show grestore } bind def
/ta  { 4 -2 roll moveto gsave rotate show } bind def
/tb  { 2 -1 roll 0 rmoveto show } bind def
/cl  { grestore gsave newpath 3 index 3 index moveto 1 index
       4 -1 roll lineto  exch 1 index lineto lineto
       closepath clip newpath } bind def
/rgb { setrgbcolor } bind def
/s   { scalefont setfont } bind def
% end   .ps.prolog
/sRGB { [ /CIEBasedABC
          << /DecodeLMN
               [ { dup 0.03928 le
                        {12.92321 div}
                        {0.055 add 1.055 div 2.4 exp }
                     ifelse
                 } bind dup dup
               ]
             /MatrixLMN [0.412457 0.212673 0.019334
                         0.357576 0.715152 0.119192
                         0.180437 0.072175 0.950301]
             /WhitePoint [0.9505 1.0 1.0890]
           >>
         ] setcolorspace } bind def
/srgb { setcolor } bind def
% begin encoding
/WinAnsiEncoding [
 /.notdef /.notdef /.notdef /.notdef /.notdef /.notdef /.notdef /.notdef
 /.notdef /.notdef /.notdef /.notdef /.notdef /.notdef /.notdef /.notdef
 /.notdef /.notdef /.notdef /.notdef /.notdef /.notdef /.notdef /.notdef
 /.notdef /.notdef /.notdef /.notdef /.notdef /.notdef /.notdef /.notdef
 /space /exclam /quotedbl /numbersign /dollar /percent /ampersand /quoteright
 /parenleft /parenright /asterisk /plus /comma /minus /period /slash
 /zero /one /two /three /four /five /six /seven
 /eight /nine /colon /semicolon /less /equal /greater /question
 /at /A /B /C /D /E /F /G
 /H /I /J /K /L /M /N /O
 /P /Q /R /S /T /U /V /W
 /X /Y /Z /bracketleft /backslash /bracketright /asciicircum /underscore
 /grave /a /b /c /d /e /f /g
 /h /i /j /k /l /m /n /o
 /p /q /r /s /t /u /v /w
 /x /y /z /braceleft /bar /braceright /asciitilde /.notdef
 /Euro /.notdef /quotesinglbase /florin /quotedblbase /ellipsis /dagger /daggerdbl
 /circumflex /perthousand /Scaron /guilsinglleft /OE /.notdef /Zcaron /.notdef
 /.notdef /quoteleft /quoteright /quotedblleft /quotedblright /bullet /endash /emdash
 /tilde /trademark /scaron /guilsinglright /oe /.notdef /zcaron /Ydieresis
 /space /exclamdown /cent /sterling /currency /yen /brokenbar /section
 /dieresis /copyright /ordfeminine /guillemotleft /logicalnot /hyphen /registered /macron
 /degree /plusminus /twosuperior /threesuperior /acute /mu /paragraph /periodcentered
 /cedilla /onesuperior /ordmasculine /guillemotright /onequarter /onehalf /threequarters /questiondown
 /Agrave /Aacute /Acircumflex /Atilde /Adieresis /Aring /AE /Ccedilla
 /Egrave /Eacute /Ecircumflex /Edieresis /Igrave /Iacute /Icircumflex /Idieresis
 /Eth /Ntilde /Ograve /Oacute /Ocircumflex /Otilde /Odieresis /multiply
 /Oslash /Ugrave /Uacute /Ucircumflex /Udieresis /Yacute /Thorn /germandbls
 /agrave /aacute /acircumflex /atilde /adieresis /aring /ae /ccedilla
 /egrave /eacute /ecircumflex /edieresis /igrave /iacute /icircumflex /idieresis
 /eth /ntilde /ograve /oacute /ocircumflex /otilde /odieresis /divide
 /oslash /ugrave /uacute /ucircumflex /udieresis /yacute /thorn /ydieresis
]
 def
% end encoding
%%IncludeResource: font Helvetica
/Helvetica findfont
dup length dict begin
  {1 index /FID ne {def} {pop pop} ifelse} forall
  /Encoding WinAnsiEncoding def
  currentdict
  end
/Font1 exch definefont pop
%%IncludeResource: font Helvetica-Bold
/Helvetica-Bold findfont
dup length dict begin
  {1 index /FID ne {def} {pop pop} ifelse} forall
  /Encoding WinAnsiEncoding def
  currentdict
  end
/Font2 exch definefont pop
%%IncludeResource: font Helvetica-Oblique
/Helvetica-Oblique findfont
dup length dict begin
  {1 index /FID ne {def} {pop pop} ifelse} forall
  /Encoding WinAnsiEncoding def
  currentdict
  end
/Font3 exch definefont pop
%%IncludeResource: font Helvetica-BoldOblique
/Helvetica-BoldOblique findfont
dup length dict begin
  {1 index /FID ne {def} {pop pop} ifelse} forall
  /Encoding WinAnsiEncoding def
  currentdict
  end
/Font4 exch definefont pop
%%IncludeResource: font Symbol
/Symbol findfont
dup length dict begin
  {1 index /FID ne {def} {pop pop} ifelse} forall
  currentdict
  end
/Font5 exch definefont pop
%%EndProlog
%%Page: 1 1
bp
/bg { 1 1 1 srgb } def
0.00 0.00 453.75 447.00 r p2
59.04 73.44 423.51 387.96 cl
59.04 73.44 423.51 387.96 cl
0.6784 0.8471 0.9020 srgb
0.75 setlinewidth
[] 0 setdash
1 setlinecap
1 setlinejoin
10.00 setmiterlimit
72.54 230.70 1.62 c p1
73.86 230.70 1.62 c p1
75.19 230.70 1.62 c p1
76.51 230.70 1.62 c p1
77.83 230.72 1.62 c p1
79.16 230.82 1.62 c p1
80.48 231.10 1.62 c p1
81.80 231.69 1.62 c p1
83.13 232.68 1.62 c p1
84.45 234.13 1.62 c p1
85.77 236.05 1.62 c p1
87.10 238.41 1.62 c p1
88.42 241.18 1.62 c p1
89.74 244.29 1.62 c p1
91.07 247.68 1.62 c p1
92.39 251.29 1.62 c p1
93.71 255.07 1.62 c p1
95.04 258.96 1.62 c p1
96.36 262.92 1.62 c p1
97.68 266.90 1.62 c p1
99.01 270.88 1.62 c p1
100.33 274.83 1.62 c p1
101.65 278.73 1.62 c p1
102.98 282.55 1.62 c p1
104.30 286.30 1.62 c p1
105.62 289.94 1.62 c p1
106.95 293.49 1.62 c p1
108.27 296.93 1.62 c p1
109.59 300.26 1.62 c p1
110.92 303.47 1.62 c p1
112.24 306.57 1.62 c p1
113.56 309.56 1.62 c p1
114.89 312.44 1.62 c p1
116.21 315.20 1.62 c p1
117.54 317.86 1.62 c p1
118.86 320.40 1.62 c p1
120.18 322.85 1.62 c p1
121.51 325.19 1.62 c p1
122.83 327.44 1.62 c p1
124.15 329.59 1.62 c p1
125.48 331.65 1.62 c p1
126.80 333.62 1.62 c p1
128.12 335.51 1.62 c p1
129.45 337.32 1.62 c p1
130.77 339.05 1.62 c p1
132.09 340.70 1.62 c p1
133.42 342.28 1.62 c p1
134.74 343.79 1.62 c p1
136.06 345.24 1.62 c p1
137.39 346.62 1.62 c p1
138.71 347.94 1.62 c p1
140.03 349.20 1.62 c p1
141.36 350.41 1.62 c p1
142.68 351.56 1.62 c p1
144.00 352.67 1.62 c p1
145.33 353.72 1.62 c p1
146.65 354.73 1.62 c p1
147.97 355.69 1.62 c p1
149.30 356.61 1.62 c p1
150.62 357.49 1.62 c p1
151.94 358.33 1.62 c p1
153.27 359.13 1.62 c p1
154.59 359.89 1.62 c p1
155.91 360.63 1.62 c p1
157.24 361.33 1.62 c p1
158.56 361.99 1.62 c p1
159.88 362.63 1.62 c p1
161.21 363.24 1.62 c p1
162.53 363.83 1.62 c p1
163.85 364.38 1.62 c p1
165.18 364.91 1.62 c p1
166.50 365.42 1.62 c p1
167.83 365.91 1.62 c p1
169.15 366.37 1.62 c p1
170.47 366.82 1.62 c p1
171.80 367.24 1.62 c p1
173.12 367.65 1.62 c p1
174.44 368.03 1.62 c p1
175.77 368.40 1.62 c p1
177.09 368.75 1.62 c p1
178.41 369.09 1.62 c p1
179.74 369.41 1.62 c p1
181.06 369.72 1.62 c p1
182.38 370.02 1.62 c p1
183.71 370.30 1.62 c p1
185.03 370.56 1.62 c p1
186.35 370.82 1.62 c p1
187.68 371.07 1.62 c p1
189.00 371.30 1.62 c p1
190.32 371.52 1.62 c p1
191.65 371.74 1.62 c p1
192.97 371.94 1.62 c p1
194.29 372.14 1.62 c p1
195.62 372.32 1.62 c p1
196.94 372.50 1.62 c p1
198.26 372.67 1.62 c p1
199.59 372.83 1.62 c p1
200.91 372.99 1.62 c p1
202.23 373.14 1.62 c p1
203.56 373.28 1.62 c p1
204.88 373.41 1.62 c p1
206.20 373.54 1.62 c p1
207.53 373.67 1.62 c p1
208.85 373.79 1.62 c p1
210.17 373.90 1.62 c p1
211.50 374.01 1.62 c p1
212.82 374.11 1.62 c p1
214.14 374.21 1.62 c p1
215.47 374.30 1.62 c p1
216.79 374.39 1.62 c p1
218.12 374.48 1.62 c p1
219.44 374.56 1.62 c p1
220.76 374.64 1.62 c p1
222.09 374.71 1.62 c p1
223.41 374.78 1.62 c p1
224.73 374.85 1.62 c p1
226.06 374.92 1.62 c p1
227.38 374.98 1.62 c p1
228.70 375.04 1.62 c p1
230.03 375.10 1.62 c p1
231.35 375.15 1.62 c p1
232.67 375.20 1.62 c p1
234.00 375.25 1.62 c p1
235.32 375.30 1.62 c p1
236.64 375.34 1.62 c p1
237.97 375.39 1.62 c p1
239.29 375.43 1.62 c p1
240.61 375.47 1.62 c p1
241.94 375.51 1.62 c p1
243.26 375.54 1.62 c p1
244.58 375.58 1.62 c p1
245.91 375.61 1.62 c p1
247.23 375.64 1.62 c p1
248.55 375.67 1.62 c p1
249.88 375.70 1.62 c p1
251.20 375.73 1.62 c p1
252.52 375.75 1.62 c p1
253.85 375.78 1.62 c p1
255.17 375.80 1.62 c p1
256.49 375.82 1.62 c p1
257.82 375.85 1.62 c p1
259.14 375.87 1.62 c p1
260.46 375.89 1.62 c p1
261.79 375.91 1.62 c p1
263.11 375.92 1.62 c p1
264.43 375.94 1.62 c p1
265.76 375.96 1.62 c p1
267.08 375.97 1.62 c p1
268.40 375.99 1.62 c p1
269.73 376.00 1.62 c p1
271.05 376.02 1.62 c p1
272.38 376.03 1.62 c p1
273.70 376.04 1.62 c p1
275.02 376.06 1.62 c p1
276.35 376.07 1.62 c p1
277.67 376.08 1.62 c p1
278.99 376.09 1.62 c p1
280.32 376.10 1.62 c p1
281.64 376.11 1.62 c p1
282.96 376.12 1.62 c p1
284.29 376.13 1.62 c p1
285.61 376.13 1.62 c p1
286.93 376.14 1.62 c p1
288.26 376.15 1.62 c p1
289.58 376.16 1.62 c p1
290.90 376.16 1.62 c p1
292.23 376.17 1.62 c p1
293.55 376.18 1.62 c p1
294.87 376.18 1.62 c p1
296.20 376.19 1.62 c p1
297.52 376.19 1.62 c p1
298.84 376.20 1.62 c p1
300.17 376.20 1.62 c p1
301.49 376.21 1.62 c p1
302.81 376.21 1.62 c p1
304.14 376.22 1.62 c p1
305.46 376.22 1.62 c p1
306.78 376.23 1.62 c p1
308.11 376.23 1.62 c p1
309.43 376.23 1.62 c p1
310.75 376.24 1.62 c p1
312.08 376.24 1.62 c p1
313.40 376.24 1.62 c p1
314.72 376.25 1.62 c p1
316.05 376.25 1.62 c p1
317.37 376.25 1.62 c p1
318.69 376.26 1.62 c p1
320.02 376.26 1.62 c p1
321.34 376.26 1.62 c p1
322.67 376.26 1.62 c p1
323.99 376.27 1.62 c p1
325.31 376.27 1.62 c p1
326.64 376.27 1.62 c p1
327.96 376.27 1.62 c p1
329.28 376.27 1.62 c p1
330.61 376.28 1.62 c p1
331.93 376.28 1.62 c p1
333.25 376.28 1.62 c p1
334.58 376.28 1.62 c p1
335.90 376.28 1.62 c p1
337.22 376.28 1.62 c p1
338.55 376.28 1.62 c p1
339.87 376.29 1.62 c p1
341.19 376.29 1.62 c p1
342.52 376.29 1.62 c p1
343.84 376.29 1.62 c p1
345.16 376.29 1.62 c p1
346.49 376.29 1.62 c p1
347.81 376.29 1.62 c p1
349.13 376.29 1.62 c p1
350.46 376.29 1.62 c p1
351.78 376.29 1.62 c p1
353.10 376.30 1.62 c p1
354.43 376.30 1.62 c p1
355.75 376.30 1.62 c p1
357.07 376.30 1.62 c p1
358.40 376.30 1.62 c p1
359.72 376.30 1.62 c p1
361.04 376.30 1.62 c p1
362.37 376.30 1.62 c p1
363.69 376.30 1.62 c p1
365.01 376.30 1.62 c p1
366.34 376.30 1.62 c p1
367.66 376.30 1.62 c p1
368.98 376.30 1.62 c p1
370.31 376.30 1.62 c p1
371.63 376.30 1.62 c p1
372.96 376.30 1.62 c p1
374.28 376.30 1.62 c p1
375.60 376.30 1.62 c p1
376.93 376.31 1.62 c p1
378.25 376.31 1.62 c p1
379.57 376.31 1.62 c p1
380.90 376.31 1.62 c p1
382.22 376.31 1.62 c p1
383.54 376.31 1.62 c p1
384.87 376.31 1.62 c p1
386.19 376.31 1.62 c p1
387.51 376.31 1.62 c p1
388.84 376.31 1.62 c p1
390.16 376.31 1.62 c p1
391.48 376.31 1.62 c p1
392.81 376.31 1.62 c p1
394.13 376.31 1.62 c p1
395.45 376.31 1.62 c p1
396.78 376.31 1.62 c p1
398.10 376.31 1.62 c p1
399.42 376.31 1.62 c p1
400.75 376.31 1.62 c p1
402.07 376.31 1.62 c p1
403.39 376.31 1.62 c p1
404.72 376.31 1.62 c p1
406.04 376.31 1.62 c p1
407.36 376.31 1.62 c p1
408.69 376.31 1.62 c p1
410.01 376.31 1.62 c p1
0.00 0.00 453.75 447.00 cl
0 0 0 srgb
0.75 setlinewidth
[] 0 setdash
1 setlinecap
1 setlinejoin
10.00 setmiterlimit
np
71.22 73.44 m
334.82 0 l
o
np
71.22 73.44 m
0 -7.20 l
o
np
138.18 73.44 m
0 -7.20 l
o
np
205.15 73.44 m
0 -7.20 l
o
np
272.11 73.44 m
0 -7.20 l
o
np
339.08 73.44 m
0 -7.20 l
o
np
406.04 73.44 m
0 -7.20 l
o
/Font1 findfont 12 s
71.22 47.52 (0.00) .5 0 t
138.18 47.52 (0.05) .5 0 t
205.15 47.52 (0.10) .5 0 t
272.11 47.52 (0.15) .5 0 t
339.08 47.52 (0.20) .5 0 t
406.04 47.52 (0.25) .5 0 t
np
59.04 85.09 m
0 291.22 l
o
np
59.04 85.09 m
-7.20 0 l
o
np
59.04 157.89 m
-7.20 0 l
o
np
59.04 230.70 m
-7.20 0 l
o
np
59.04 303.51 m
-7.20 0 l
o
np
59.04 376.31 m
-7.20 0 l
o
41.76 85.09 (-1.0) .5 90 t
41.76 157.89 (-0.5) .5 90 t
41.76 230.70 (0.0) .5 90 t
41.76 303.51 (0.5) .5 90 t
41.76 376.31 (1.0) .5 90 t
np
59.04 73.44 m
364.47 0 l
0 314.52 l
-364.47 0 l
0 -314.52 l
o
0.00 0.00 453.75 447.00 cl
/Font1 findfont 12 s
0 0 0 srgb
230.71 21.07 (t) 0 0 t
/Font1 findfont 8 s
234.05 18.88 (i) 0 0 t
/Font1 findfont 12 s
235.83 21.07 ( [s]) 0 0 t
12.96 227.03 (T) 0 90 t
59.04 73.44 423.51 387.96 cl
1 0.8431 0 srgb
0.75 setlinewidth
[] 0 setdash
1 setlinecap
1 setlinejoin
10.00 setmiterlimit
72.54 120.77 1.62 c p1
73.86 120.05 1.62 c p1
75.19 119.33 1.62 c p1
76.51 118.62 1.62 c p1
77.83 117.94 1.62 c p1
79.16 117.40 1.62 c p1
80.48 117.22 1.62 c p1
81.80 117.62 1.62 c p1
83.13 118.78 1.62 c p1
84.45 120.82 1.62 c p1
85.77 123.74 1.62 c p1
87.10 127.51 1.62 c p1
88.42 132.04 1.62 c p1
89.74 137.23 1.62 c p1
91.07 142.96 1.62 c p1
92.39 149.11 1.62 c p1
93.71 155.56 1.62 c p1
95.04 162.23 1.62 c p1
96.36 169.03 1.62 c p1
97.68 175.88 1.62 c p1
99.01 182.73 1.62 c p1
100.33 189.51 1.62 c p1
101.65 196.20 1.62 c p1
102.98 202.75 1.62 c p1
104.30 209.14 1.62 c p1
105.62 215.35 1.62 c p1
106.95 221.37 1.62 c p1
108.27 227.18 1.62 c p1
109.59 232.79 1.62 c p1
110.92 238.18 1.62 c p1
112.24 243.35 1.62 c p1
113.56 248.31 1.62 c p1
114.89 253.05 1.62 c p1
116.21 257.58 1.62 c p1
117.54 261.91 1.62 c p1
118.86 266.03 1.62 c p1
120.18 269.96 1.62 c p1
121.51 273.69 1.62 c p1
122.83 277.24 1.62 c p1
124.15 280.61 1.62 c p1
125.48 283.80 1.62 c p1
126.80 286.83 1.62 c p1
128.12 289.70 1.62 c p1
129.45 292.41 1.62 c p1
130.77 294.98 1.62 c p1
132.09 297.40 1.62 c p1
133.42 299.68 1.62 c p1
134.74 301.83 1.62 c p1
136.06 303.86 1.62 c p1
137.39 305.77 1.62 c p1
138.71 307.56 1.62 c p1
140.03 309.24 1.62 c p1
141.36 310.81 1.62 c p1
142.68 312.28 1.62 c p1
144.00 313.66 1.62 c p1
145.33 314.94 1.62 c p1
146.65 316.13 1.62 c p1
147.97 317.24 1.62 c p1
149.30 318.27 1.62 c p1
150.62 319.22 1.62 c p1
151.94 320.09 1.62 c p1
153.27 320.90 1.62 c p1
154.59 321.64 1.62 c p1
155.91 322.31 1.62 c p1
157.24 322.92 1.62 c p1
158.56 323.47 1.62 c p1
159.88 323.96 1.62 c p1
161.21 324.40 1.62 c p1
162.53 324.79 1.62 c p1
163.85 325.13 1.62 c p1
165.18 325.42 1.62 c p1
166.50 325.67 1.62 c p1
167.83 325.87 1.62 c p1
169.15 326.03 1.62 c p1
170.47 326.16 1.62 c p1
171.80 326.24 1.62 c p1
173.12 326.29 1.62 c p1
174.44 326.31 1.62 c p1
175.77 326.29 1.62 c p1
177.09 326.24 1.62 c p1
178.41 326.16 1.62 c p1
179.74 326.06 1.62 c p1
181.06 325.92 1.62 c p1
182.38 325.76 1.62 c p1
183.71 325.57 1.62 c p1
185.03 325.36 1.62 c p1
186.35 325.13 1.62 c p1
187.68 324.88 1.62 c p1
189.00 324.60 1.62 c p1
190.32 324.31 1.62 c p1
191.65 324.00 1.62 c p1
192.97 323.66 1.62 c p1
194.29 323.32 1.62 c p1
195.62 322.95 1.62 c p1
196.94 322.57 1.62 c p1
198.26 322.17 1.62 c p1
199.59 321.76 1.62 c p1
200.91 321.34 1.62 c p1
202.23 320.90 1.62 c p1
203.56 320.45 1.62 c p1
204.88 319.99 1.62 c p1
206.20 319.51 1.62 c p1
207.53 319.03 1.62 c p1
208.85 318.53 1.62 c p1
210.17 318.03 1.62 c p1
211.50 317.51 1.62 c p1
212.82 316.99 1.62 c p1
214.14 316.46 1.62 c p1
215.47 315.92 1.62 c p1
216.79 315.37 1.62 c p1
218.12 314.81 1.62 c p1
219.44 314.25 1.62 c p1
220.76 313.68 1.62 c p1
222.09 313.10 1.62 c p1
223.41 312.52 1.62 c p1
224.73 311.93 1.62 c p1
226.06 311.33 1.62 c p1
227.38 310.73 1.62 c p1
228.70 310.12 1.62 c p1
230.03 309.51 1.62 c p1
231.35 308.90 1.62 c p1
232.67 308.28 1.62 c p1
234.00 307.65 1.62 c p1
235.32 307.02 1.62 c p1
236.64 306.39 1.62 c p1
237.97 305.75 1.62 c p1
239.29 305.11 1.62 c p1
240.61 304.46 1.62 c p1
241.94 303.82 1.62 c p1
243.26 303.17 1.62 c p1
244.58 302.51 1.62 c p1
245.91 301.85 1.62 c p1
247.23 301.20 1.62 c p1
248.55 300.53 1.62 c p1
249.88 299.87 1.62 c p1
251.20 299.20 1.62 c p1
252.52 298.53 1.62 c p1
253.85 297.86 1.62 c p1
255.17 297.18 1.62 c p1
256.49 296.51 1.62 c p1
257.82 295.83 1.62 c p1
259.14 295.15 1.62 c p1
260.46 294.47 1.62 c p1
261.79 293.79 1.62 c p1
263.11 293.10 1.62 c p1
264.43 292.41 1.62 c p1
265.76 291.73 1.62 c p1
267.08 291.04 1.62 c p1
268.40 290.35 1.62 c p1
269.73 289.65 1.62 c p1
271.05 288.96 1.62 c p1
272.38 288.27 1.62 c p1
273.70 287.57 1.62 c p1
275.02 286.88 1.62 c p1
276.35 286.18 1.62 c p1
277.67 285.48 1.62 c p1
278.99 284.78 1.62 c p1
280.32 284.08 1.62 c p1
281.64 283.38 1.62 c p1
282.96 282.68 1.62 c p1
284.29 281.97 1.62 c p1
285.61 281.27 1.62 c p1
286.93 280.57 1.62 c p1
288.26 279.86 1.62 c p1
289.58 279.16 1.62 c p1
290.90 278.45 1.62 c p1
292.23 277.74 1.62 c p1
293.55 277.03 1.62 c p1
294.87 276.33 1.62 c p1
296.20 275.62 1.62 c p1
297.52 274.91 1.62 c p1
298.84 274.20 1.62 c p1
300.17 273.49 1.62 c p1
301.49 272.78 1.62 c p1
302.81 272.07 1.62 c p1
304.14 271.36 1.62 c p1
305.46 270.65 1.62 c p1
306.78 269.94 1.62 c p1
308.11 269.22 1.62 c p1
309.43 268.51 1.62 c p1
310.75 267.80 1.62 c p1
312.08 267.09 1.62 c p1
313.40 266.37 1.62 c p1
314.72 265.66 1.62 c p1
316.05 264.94 1.62 c p1
317.37 264.23 1.62 c p1
318.69 263.52 1.62 c p1
320.02 262.80 1.62 c p1
321.34 262.09 1.62 c p1
322.67 261.37 1.62 c p1
323.99 260.66 1.62 c p1
325.31 259.94 1.62 c p1
326.64 259.23 1.62 c p1
327.96 258.51 1.62 c p1
329.28 257.79 1.62 c p1
330.61 257.08 1.62 c p1
331.93 256.36 1.62 c p1
333.25 255.65 1.62 c p1
334.58 254.93 1.62 c p1
335.90 254.21 1.62 c p1
337.22 253.50 1.62 c p1
338.55 252.78 1.62 c p1
339.87 252.06 1.62 c p1
341.19 251.34 1.62 c p1
342.52 250.63 1.62 c p1
343.84 249.91 1.62 c p1
345.16 249.19 1.62 c p1
346.49 248.48 1.62 c p1
347.81 247.76 1.62 c p1
349.13 247.04 1.62 c p1
350.46 246.32 1.62 c p1
351.78 245.60 1.62 c p1
353.10 244.89 1.62 c p1
354.43 244.17 1.62 c p1
355.75 243.45 1.62 c p1
357.07 242.73 1.62 c p1
358.40 242.01 1.62 c p1
359.72 241.30 1.62 c p1
361.04 240.58 1.62 c p1
362.37 239.86 1.62 c p1
363.69 239.14 1.62 c p1
365.01 238.42 1.62 c p1
366.34 237.70 1.62 c p1
367.66 236.99 1.62 c p1
368.98 236.27 1.62 c p1
370.31 235.55 1.62 c p1
371.63 234.83 1.62 c p1
372.96 234.11 1.62 c p1
374.28 233.39 1.62 c p1
375.60 232.67 1.62 c p1
376.93 231.96 1.62 c p1
378.25 231.24 1.62 c p1
379.57 230.52 1.62 c p1
380.90 229.80 1.62 c p1
382.22 229.08 1.62 c p1
383.54 228.36 1.62 c p1
384.87 227.64 1.62 c p1
386.19 226.92 1.62 c p1
387.51 226.20 1.62 c p1
388.84 225.49 1.62 c p1
390.16 224.77 1.62 c p1
391.48 224.05 1.62 c p1
392.81 223.33 1.62 c p1
394.13 222.61 1.62 c p1
395.45 221.89 1.62 c p1
396.78 221.17 1.62 c p1
398.10 220.45 1.62 c p1
399.42 219.73 1.62 c p1
400.75 219.01 1.62 c p1
402.07 218.29 1.62 c p1
403.39 217.58 1.62 c p1
404.72 216.86 1.62 c p1
406.04 216.14 1.62 c p1
407.36 215.42 1.62 c p1
408.69 214.70 1.62 c p1
410.01 213.98 1.62 c p1
0.8275 0.8275 0.8275 srgb
0.75 setlinewidth
[ 0.00 3.00] 0 setdash
np
71.22 73.44 m
0 314.52 l
o
np
138.18 73.44 m
0 314.52 l
o
np
205.15 73.44 m
0 314.52 l
o
np
272.11 73.44 m
0 314.52 l
o
np
339.08 73.44 m
0 314.52 l
o
np
406.04 73.44 m
0 314.52 l
o
np
59.04 85.09 m
364.47 0 l
o
np
59.04 157.89 m
364.47 0 l
o
np
59.04 230.70 m
364.47 0 l
o
np
59.04 303.51 m
364.47 0 l
o
np
59.04 376.31 m
364.47 0 l
o
/bg { 1 1 1 srgb } def
0 0 0 srgb
0.75 setlinewidth
[] 0 setdash
312.29 354.47 45.15 -59.58 r p3
0.6784 0.8471 0.9020 srgb
325.25 333.32 1.62 c p1
1 0.8431 0 srgb
325.25 312.17 1.62 c p1
/Font1 findfont 14 s
0 0 0 srgb
338.21 329.57 (T) 0 0 t
/Font1 findfont 10 s
346.76 327.01 (i) 0 0 t
/Font1 findfont 14 s
338.21 307.36 (T) 0 0 t
/Font1 findfont 10 s
346.76 302.84 (i) 0 0 t
346.76 314.32 (*) 0 0 t
ep
%%Trailer
%%Pages: 1
%%EOF
