%!PS-Adobe-3.0 EPSF-3.0
%%DocumentNeededResources: font Helvetica
%%+ font Helvetica-Bold
%%+ font Helvetica-Oblique
%%+ font Helvetica-BoldOblique
%%+ font Symbol
%%Title: R Graphics Output
%%Creator: R Software
%%Pages: (atend)
%%BoundingBox: 0 0 338 285
%%EndComments
%%BeginProlog
/bp  { gs sRGB gs } def
% begin .ps.prolog
/gs  { gsave } bind def
/gr  { grestore } bind def
/ep  { showpage gr gr } bind def
/m   { moveto } bind def
/l  { rlineto } bind def
/np  { newpath } bind def
/cp  { closepath } bind def
/f   { fill } bind def
/o   { stroke } bind def
/c   { newpath 0 360 arc } bind def
/r   { 4 2 roll moveto 1 copy 3 -1 roll exch 0 exch rlineto 0 rlineto -1 mul 0 exch rlineto closepath } bind def
/p1  { stroke } bind def
/p2  { gsave bg fill grestore newpath } bind def
/p3  { gsave bg fill grestore stroke } bind def
/p6  { gsave bg eofill grestore newpath } bind def
/p7  { gsave bg eofill grestore stroke } bind def
/t   { 5 -2 roll moveto gsave rotate
       1 index stringwidth pop
       mul neg 0 rmoveto show grestore } bind def
/ta  { 4 -2 roll moveto gsave rotate show } bind def
/tb  { 2 -1 roll 0 rmoveto show } bind def
/cl  { grestore gsave newpath 3 index 3 index moveto 1 index
       4 -1 roll lineto  exch 1 index lineto lineto
       closepath clip newpath } bind def
/rgb { setrgbcolor } bind def
/s   { scalefont setfont } bind def
% end   .ps.prolog
/sRGB { [ /CIEBasedABC
          << /DecodeLMN
               [ { dup 0.03928 le
                        {12.92321 div}
                        {0.055 add 1.055 div 2.4 exp }
                     ifelse
                 } bind dup dup
               ]
             /MatrixLMN [0.412457 0.212673 0.019334
                         0.357576 0.715152 0.119192
                         0.180437 0.072175 0.950301]
             /WhitePoint [0.9505 1.0 1.0890]
           >>
         ] setcolorspace } bind def
/srgb { setcolor } bind def
% begin encoding
/WinAnsiEncoding [
 /.notdef /.notdef /.notdef /.notdef /.notdef /.notdef /.notdef /.notdef
 /.notdef /.notdef /.notdef /.notdef /.notdef /.notdef /.notdef /.notdef
 /.notdef /.notdef /.notdef /.notdef /.notdef /.notdef /.notdef /.notdef
 /.notdef /.notdef /.notdef /.notdef /.notdef /.notdef /.notdef /.notdef
 /space /exclam /quotedbl /numbersign /dollar /percent /ampersand /quoteright
 /parenleft /parenright /asterisk /plus /comma /minus /period /slash
 /zero /one /two /three /four /five /six /seven
 /eight /nine /colon /semicolon /less /equal /greater /question
 /at /A /B /C /D /E /F /G
 /H /I /J /K /L /M /N /O
 /P /Q /R /S /T /U /V /W
 /X /Y /Z /bracketleft /backslash /bracketright /asciicircum /underscore
 /grave /a /b /c /d /e /f /g
 /h /i /j /k /l /m /n /o
 /p /q /r /s /t /u /v /w
 /x /y /z /braceleft /bar /braceright /asciitilde /.notdef
 /Euro /.notdef /quotesinglbase /florin /quotedblbase /ellipsis /dagger /daggerdbl
 /circumflex /perthousand /Scaron /guilsinglleft /OE /.notdef /Zcaron /.notdef
 /.notdef /quoteleft /quoteright /quotedblleft /quotedblright /bullet /endash /emdash
 /tilde /trademark /scaron /guilsinglright /oe /.notdef /zcaron /Ydieresis
 /space /exclamdown /cent /sterling /currency /yen /brokenbar /section
 /dieresis /copyright /ordfeminine /guillemotleft /logicalnot /hyphen /registered /macron
 /degree /plusminus /twosuperior /threesuperior /acute /mu /paragraph /periodcentered
 /cedilla /onesuperior /ordmasculine /guillemotright /onequarter /onehalf /threequarters /questiondown
 /Agrave /Aacute /Acircumflex /Atilde /Adieresis /Aring /AE /Ccedilla
 /Egrave /Eacute /Ecircumflex /Edieresis /Igrave /Iacute /Icircumflex /Idieresis
 /Eth /Ntilde /Ograve /Oacute /Ocircumflex /Otilde /Odieresis /multiply
 /Oslash /Ugrave /Uacute /Ucircumflex /Udieresis /Yacute /Thorn /germandbls
 /agrave /aacute /acircumflex /atilde /adieresis /aring /ae /ccedilla
 /egrave /eacute /ecircumflex /edieresis /igrave /iacute /icircumflex /idieresis
 /eth /ntilde /ograve /oacute /ocircumflex /otilde /odieresis /divide
 /oslash /ugrave /uacute /ucircumflex /udieresis /yacute /thorn /ydieresis
]
 def
% end encoding
%%IncludeResource: font Helvetica
/Helvetica findfont
dup length dict begin
  {1 index /FID ne {def} {pop pop} ifelse} forall
  /Encoding WinAnsiEncoding def
  currentdict
  end
/Font1 exch definefont pop
%%IncludeResource: font Helvetica-Bold
/Helvetica-Bold findfont
dup length dict begin
  {1 index /FID ne {def} {pop pop} ifelse} forall
  /Encoding WinAnsiEncoding def
  currentdict
  end
/Font2 exch definefont pop
%%IncludeResource: font Helvetica-Oblique
/Helvetica-Oblique findfont
dup length dict begin
  {1 index /FID ne {def} {pop pop} ifelse} forall
  /Encoding WinAnsiEncoding def
  currentdict
  end
/Font3 exch definefont pop
%%IncludeResource: font Helvetica-BoldOblique
/Helvetica-BoldOblique findfont
dup length dict begin
  {1 index /FID ne {def} {pop pop} ifelse} forall
  /Encoding WinAnsiEncoding def
  currentdict
  end
/Font4 exch definefont pop
%%IncludeResource: font Symbol
/Symbol findfont
dup length dict begin
  {1 index /FID ne {def} {pop pop} ifelse} forall
  currentdict
  end
/Font5 exch definefont pop
%%EndProlog
%%Page: 1 1
bp
0.00 0.00 337.50 285.00 cl
0.00 0.00 337.50 285.00 cl
0.00 0.00 337.50 285.00 cl
0.00 0.00 337.50 285.00 cl
0.00 0.00 337.50 285.00 cl
0.00 0.00 337.50 285.00 cl
0.00 0.00 337.50 285.00 cl
0.00 0.00 337.50 285.00 cl
0.00 0.00 337.50 285.00 cl
/bg { 1 1 1 srgb } def
1 1 1 srgb
1.07 setlinewidth
[] 0 setdash
1 setlinecap
1 setlinejoin
10.00 setmiterlimit
0.00 0.00 337.50 285.00 r p3
0.00 0.00 337.50 285.00 cl
0.00 0.00 337.50 285.00 cl
0.00 0.00 337.50 285.00 cl
54.21 31.35 259.32 279.52 cl
/bg { 0.9216 0.9216 0.9216 srgb } def
54.21 31.35 205.11 248.17 r p2
1 1 1 srgb
0.53 setlinewidth
[] 0 setdash
0 setlinecap
1 setlinejoin
10.00 setmiterlimit
np
54.21 42.63 m
205.11 0 l
o
np
54.21 132.87 m
205.11 0 l
o
np
54.21 223.12 m
205.11 0 l
o
np
63.53 31.35 m
0 248.17 l
o
np
83.16 31.35 m
0 248.17 l
o
np
102.79 31.35 m
0 248.17 l
o
np
122.42 31.35 m
0 248.17 l
o
np
142.04 31.35 m
0 248.17 l
o
np
161.67 31.35 m
0 248.17 l
o
np
181.30 31.35 m
0 248.17 l
o
np
200.93 31.35 m
0 248.17 l
o
np
220.55 31.35 m
0 248.17 l
o
np
240.18 31.35 m
0 248.17 l
o
1.07 setlinewidth
[] 0 setdash
np
54.21 87.75 m
205.11 0 l
o
np
54.21 177.99 m
205.11 0 l
o
np
54.21 268.24 m
205.11 0 l
o
np
73.35 31.35 m
0 248.17 l
o
np
92.98 31.35 m
0 248.17 l
o
np
112.60 31.35 m
0 248.17 l
o
np
132.23 31.35 m
0 248.17 l
o
np
151.86 31.35 m
0 248.17 l
o
np
171.49 31.35 m
0 248.17 l
o
np
191.11 31.35 m
0 248.17 l
o
np
210.74 31.35 m
0 248.17 l
o
np
230.37 31.35 m
0 248.17 l
o
np
250.00 31.35 m
0 248.17 l
o
/bg { 0 0.7490 0.7686 srgb } def
0 0.7490 0.7686 srgb
0.71 setlinewidth
[] 0 setdash
1 setlinecap
63.53 259.72 1.95 c p3
73.35 255.39 1.95 c p3
83.16 249.30 1.95 c p3
92.98 242.25 1.95 c p3
102.79 234.66 1.95 c p3
112.60 226.67 1.95 c p3
122.42 218.26 1.95 c p3
132.23 209.22 1.95 c p3
142.04 199.16 1.95 c p3
151.86 187.20 1.95 c p3
161.67 170.86 1.95 c p3
171.49 132.29 1.95 c p3
181.30 153.45 1.95 c p3
191.11 165.16 1.95 c p3
200.93 169.55 1.95 c p3
210.74 171.27 1.95 c p3
220.55 171.60 1.95 c p3
230.37 171.07 1.95 c p3
240.18 169.97 1.95 c p3
250.00 168.43 1.95 c p3
/bg { 0.9725 0.4627 0.4275 srgb } def
0.9725 0.4627 0.4275 srgb
63.53 255.46 1.95 c p3
73.35 242.17 1.95 c p3
83.16 226.78 1.95 c p3
92.98 209.06 1.95 c p3
102.79 187.54 1.95 c p3
112.60 127.68 1.95 c p3
122.42 164.58 1.95 c p3
132.23 171.59 1.95 c p3
142.04 170.81 1.95 c p3
151.86 168.68 1.95 c p3
161.67 164.19 1.95 c p3
171.49 159.82 1.95 c p3
181.30 153.62 1.95 c p3
191.11 148.01 1.95 c p3
200.93 140.19 1.95 c p3
210.74 133.41 1.95 c p3
220.55 122.98 1.95 c p3
230.37 114.26 1.95 c p3
240.18 95.85 1.95 c p3
250.00 78.10 1.95 c p3
0 0 0 srgb
1.07 setlinewidth
[] 0 setdash
np
54.21 11.09 m
2.84 0 l
o
np
54.21 19.03 m
2.84 0 l
o
np
54.21 24.67 m
2.84 0 l
o
np
54.21 29.04 m
5.67 0 l
o
np
54.21 32.62 m
2.84 0 l
o
np
54.21 35.64 m
2.84 0 l
o
np
54.21 38.25 m
2.84 0 l
o
np
54.21 40.56 m
2.84 0 l
o
np
54.21 42.63 m
8.50 0 l
o
np
54.21 56.21 m
2.84 0 l
o
np
54.21 64.16 m
2.84 0 l
o
np
54.21 69.79 m
2.84 0 l
o
np
54.21 74.17 m
5.67 0 l
o
np
54.21 77.74 m
2.84 0 l
o
np
54.21 80.76 m
2.84 0 l
o
np
54.21 83.38 m
2.84 0 l
o
np
54.21 85.68 m
2.84 0 l
o
np
54.21 87.75 m
8.50 0 l
o
np
54.21 101.33 m
2.84 0 l
o
np
54.21 109.28 m
2.84 0 l
o
np
54.21 114.92 m
2.84 0 l
o
np
54.21 119.29 m
5.67 0 l
o
np
54.21 122.86 m
2.84 0 l
o
np
54.21 125.88 m
2.84 0 l
o
np
54.21 128.50 m
2.84 0 l
o
np
54.21 130.81 m
2.84 0 l
o
np
54.21 132.87 m
8.50 0 l
o
np
54.21 146.46 m
2.84 0 l
o
np
54.21 154.40 m
2.84 0 l
o
np
54.21 160.04 m
2.84 0 l
o
np
54.21 164.41 m
5.67 0 l
o
np
54.21 167.98 m
2.84 0 l
o
np
54.21 171.01 m
2.84 0 l
o
np
54.21 173.62 m
2.84 0 l
o
np
54.21 175.93 m
2.84 0 l
o
np
54.21 177.99 m
8.50 0 l
o
np
54.21 191.58 m
2.84 0 l
o
np
54.21 199.52 m
2.84 0 l
o
np
54.21 205.16 m
2.84 0 l
o
np
54.21 209.53 m
5.67 0 l
o
np
54.21 213.11 m
2.84 0 l
o
np
54.21 216.13 m
2.84 0 l
o
np
54.21 218.74 m
2.84 0 l
o
np
54.21 221.05 m
2.84 0 l
o
np
54.21 223.12 m
8.50 0 l
o
np
54.21 236.70 m
2.84 0 l
o
np
54.21 244.65 m
2.84 0 l
o
np
54.21 250.28 m
2.84 0 l
o
np
54.21 254.66 m
5.67 0 l
o
np
54.21 258.23 m
2.84 0 l
o
np
54.21 261.25 m
2.84 0 l
o
np
54.21 263.87 m
2.84 0 l
o
np
54.21 266.17 m
2.84 0 l
o
np
54.21 268.24 m
8.50 0 l
o
np
54.21 281.82 m
2.84 0 l
o
0.00 0.00 337.50 285.00 cl
0.00 0.00 337.50 285.00 cl
0.00 0.00 337.50 285.00 cl
0.00 0.00 337.50 285.00 cl
0.00 0.00 337.50 285.00 cl
0.00 0.00 337.50 285.00 cl
/Font1 findfont 9 s
0.3020 0.3020 0.3020 srgb
49.28 84.52 (1e-02) 1 0 t
49.28 174.76 (1e+00) 1 0 t
49.28 265.01 (1e+02) 1 0 t
0.00 0.00 337.50 285.00 cl
0.00 0.00 337.50 285.00 cl
0.2000 0.2000 0.2000 srgb
1.07 setlinewidth
[] 0 setdash
0 setlinecap
1 setlinejoin
10.00 setmiterlimit
np
51.47 87.75 m
2.74 0 l
o
np
51.47 177.99 m
2.74 0 l
o
np
51.47 268.24 m
2.74 0 l
o
0.00 0.00 337.50 285.00 cl
0.00 0.00 337.50 285.00 cl
0.00 0.00 337.50 285.00 cl
0.00 0.00 337.50 285.00 cl
0.00 0.00 337.50 285.00 cl
0.00 0.00 337.50 285.00 cl
0.00 0.00 337.50 285.00 cl
0.00 0.00 337.50 285.00 cl
0.2000 0.2000 0.2000 srgb
1.07 setlinewidth
[] 0 setdash
0 setlinecap
1 setlinejoin
10.00 setmiterlimit
np
73.35 28.61 m
0 2.74 l
o
np
92.98 28.61 m
0 2.74 l
o
np
112.60 28.61 m
0 2.74 l
o
np
132.23 28.61 m
0 2.74 l
o
np
151.86 28.61 m
0 2.74 l
o
np
171.49 28.61 m
0 2.74 l
o
np
191.11 28.61 m
0 2.74 l
o
np
210.74 28.61 m
0 2.74 l
o
np
230.37 28.61 m
0 2.74 l
o
np
250.00 28.61 m
0 2.74 l
o
0.00 0.00 337.50 285.00 cl
0.00 0.00 337.50 285.00 cl
/Font1 findfont 9 s
0.3020 0.3020 0.3020 srgb
73.35 19.95 (2) .5 0 t
92.98 19.95 (4) .5 0 t
112.60 19.95 (6) .5 0 t
132.23 19.95 (8) .5 0 t
151.86 19.95 (10) .5 0 t
171.49 19.95 (12) .5 0 t
191.11 19.95 (14) .5 0 t
210.74 19.95 (16) .5 0 t
230.37 19.95 (18) .5 0 t
250.00 19.95 (20) .5 0 t
0.00 0.00 337.50 285.00 cl
0.00 0.00 337.50 285.00 cl
0.00 0.00 337.50 285.00 cl
0.00 0.00 337.50 285.00 cl
/Font1 findfont 11 s
0 0 0 srgb
156.76 7.67 (k) .5 0 t
0.00 0.00 337.50 285.00 cl
0.00 0.00 337.50 285.00 cl
/Font1 findfont 11 s
0 0 0 srgb
17.15 139.88 (R) 0 90 t
17.15 147.82 (e) 0 90 t
17.15 153.93 (|) 0 90 t
17.15 156.79 (E) 0 90 t
0.75 setlinewidth
[] 0 setdash
1 setlinecap
1 setlinejoin
10.00 setmiterlimit
np
7.67 156.79 m
0 7.34 l
o
/Font1 findfont 8 s
19.16 164.13 (k) 0 90 t
/Font1 findfont 11 s
17.15 168.13 (|) 0 90 t
0.00 0.00 337.50 285.00 cl
0.00 0.00 337.50 285.00 cl
0.00 0.00 337.50 285.00 cl
0.00 0.00 337.50 285.00 cl
/bg { 1 1 1 srgb } def
267.82 126.87 55.69 57.13 r p2
0.00 0.00 337.50 285.00 cl
0.00 0.00 337.50 285.00 cl
/Font2 findfont 12 s
0.8235 0.4118 0.1176 srgb
272.07 170.57 (FFT) 0 0 t
0.00 0.00 337.50 285.00 cl
0.00 0.00 337.50 285.00 cl
/bg { 0.9490 0.9490 0.9490 srgb } def
1 1 1 srgb
1.07 setlinewidth
[] 0 setdash
1 setlinecap
1 setlinejoin
10.00 setmiterlimit
272.07 148.40 17.28 17.28 r p3
0.00 0.00 337.50 285.00 cl
0.00 0.00 337.50 285.00 cl
/bg { 0.9725 0.4627 0.4275 srgb } def
0.9725 0.4627 0.4275 srgb
0.71 setlinewidth
[] 0 setdash
1 setlinecap
1 setlinejoin
10.00 setmiterlimit
280.71 157.04 1.95 c p3
0.00 0.00 337.50 285.00 cl
0.00 0.00 337.50 285.00 cl
/bg { 0.9725 0.4627 0.4275 srgb } def
0.9725 0.4627 0.4275 srgb
0.71 setlinewidth
[] 0 setdash
1 setlinecap
1 setlinejoin
10.00 setmiterlimit
280.71 157.04 1.95 c p3
0.00 0.00 337.50 285.00 cl
0.00 0.00 337.50 285.00 cl
/bg { 0.9490 0.9490 0.9490 srgb } def
1 1 1 srgb
1.07 setlinewidth
[] 0 setdash
1 setlinecap
1 setlinejoin
10.00 setmiterlimit
272.07 131.12 17.28 17.28 r p3
0.00 0.00 337.50 285.00 cl
0.00 0.00 337.50 285.00 cl
/bg { 0 0.7490 0.7686 srgb } def
0 0.7490 0.7686 srgb
0.71 setlinewidth
[] 0 setdash
1 setlinecap
1 setlinejoin
10.00 setmiterlimit
280.71 139.76 1.95 c p3
0.00 0.00 337.50 285.00 cl
0.00 0.00 337.50 285.00 cl
/bg { 0 0.7490 0.7686 srgb } def
0 0.7490 0.7686 srgb
0.71 setlinewidth
[] 0 setdash
1 setlinecap
1 setlinejoin
10.00 setmiterlimit
280.71 139.76 1.95 c p3
0.00 0.00 337.50 285.00 cl
0.00 0.00 337.50 285.00 cl
/Font1 findfont 9 s
0 0 0 srgb
291.51 153.81 (E\(128\)) 0 0 t
0.00 0.00 337.50 285.00 cl
0.00 0.00 337.50 285.00 cl
/Font1 findfont 9 s
0 0 0 srgb
291.51 136.53 (E\(256\)) 0 0 t
0.00 0.00 337.50 285.00 cl
0.00 0.00 337.50 285.00 cl
0.00 0.00 337.50 285.00 cl
0.00 0.00 337.50 285.00 cl
0.00 0.00 337.50 285.00 cl
0.00 0.00 337.50 285.00 cl
ep
%%Trailer
%%Pages: 1
%%EOF
