%!PS-Adobe-3.0 EPSF-3.0
%%DocumentNeededResources: font Helvetica
%%+ font Helvetica-Bold
%%+ font Helvetica-Oblique
%%+ font Helvetica-BoldOblique
%%+ font Symbol
%%Title: R Graphics Output
%%Creator: R Software
%%Pages: (atend)
%%BoundingBox: 0 0 413 375
%%EndComments
%%BeginProlog
/bp  { gs sRGB gs } def
% begin .ps.prolog
/gs  { gsave } bind def
/gr  { grestore } bind def
/ep  { showpage gr gr } bind def
/m   { moveto } bind def
/l  { rlineto } bind def
/np  { newpath } bind def
/cp  { closepath } bind def
/f   { fill } bind def
/o   { stroke } bind def
/c   { newpath 0 360 arc } bind def
/r   { 4 2 roll moveto 1 copy 3 -1 roll exch 0 exch rlineto 0 rlineto -1 mul 0 exch rlineto closepath } bind def
/p1  { stroke } bind def
/p2  { gsave bg fill grestore newpath } bind def
/p3  { gsave bg fill grestore stroke } bind def
/p6  { gsave bg eofill grestore newpath } bind def
/p7  { gsave bg eofill grestore stroke } bind def
/t   { 5 -2 roll moveto gsave rotate
       1 index stringwidth pop
       mul neg 0 rmoveto show grestore } bind def
/ta  { 4 -2 roll moveto gsave rotate show } bind def
/tb  { 2 -1 roll 0 rmoveto show } bind def
/cl  { grestore gsave newpath 3 index 3 index moveto 1 index
       4 -1 roll lineto  exch 1 index lineto lineto
       closepath clip newpath } bind def
/rgb { setrgbcolor } bind def
/s   { scalefont setfont } bind def
% end   .ps.prolog
/sRGB { [ /CIEBasedABC
          << /DecodeLMN
               [ { dup 0.03928 le
                        {12.92321 div}
                        {0.055 add 1.055 div 2.4 exp }
                     ifelse
                 } bind dup dup
               ]
             /MatrixLMN [0.412457 0.212673 0.019334
                         0.357576 0.715152 0.119192
                         0.180437 0.072175 0.950301]
             /WhitePoint [0.9505 1.0 1.0890]
           >>
         ] setcolorspace } bind def
/srgb { setcolor } bind def
% begin encoding
/WinAnsiEncoding [
 /.notdef /.notdef /.notdef /.notdef /.notdef /.notdef /.notdef /.notdef
 /.notdef /.notdef /.notdef /.notdef /.notdef /.notdef /.notdef /.notdef
 /.notdef /.notdef /.notdef /.notdef /.notdef /.notdef /.notdef /.notdef
 /.notdef /.notdef /.notdef /.notdef /.notdef /.notdef /.notdef /.notdef
 /space /exclam /quotedbl /numbersign /dollar /percent /ampersand /quoteright
 /parenleft /parenright /asterisk /plus /comma /minus /period /slash
 /zero /one /two /three /four /five /six /seven
 /eight /nine /colon /semicolon /less /equal /greater /question
 /at /A /B /C /D /E /F /G
 /H /I /J /K /L /M /N /O
 /P /Q /R /S /T /U /V /W
 /X /Y /Z /bracketleft /backslash /bracketright /asciicircum /underscore
 /grave /a /b /c /d /e /f /g
 /h /i /j /k /l /m /n /o
 /p /q /r /s /t /u /v /w
 /x /y /z /braceleft /bar /braceright /asciitilde /.notdef
 /Euro /.notdef /quotesinglbase /florin /quotedblbase /ellipsis /dagger /daggerdbl
 /circumflex /perthousand /Scaron /guilsinglleft /OE /.notdef /Zcaron /.notdef
 /.notdef /quoteleft /quoteright /quotedblleft /quotedblright /bullet /endash /emdash
 /tilde /trademark /scaron /guilsinglright /oe /.notdef /zcaron /Ydieresis
 /space /exclamdown /cent /sterling /currency /yen /brokenbar /section
 /dieresis /copyright /ordfeminine /guillemotleft /logicalnot /hyphen /registered /macron
 /degree /plusminus /twosuperior /threesuperior /acute /mu /paragraph /periodcentered
 /cedilla /onesuperior /ordmasculine /guillemotright /onequarter /onehalf /threequarters /questiondown
 /Agrave /Aacute /Acircumflex /Atilde /Adieresis /Aring /AE /Ccedilla
 /Egrave /Eacute /Ecircumflex /Edieresis /Igrave /Iacute /Icircumflex /Idieresis
 /Eth /Ntilde /Ograve /Oacute /Ocircumflex /Otilde /Odieresis /multiply
 /Oslash /Ugrave /Uacute /Ucircumflex /Udieresis /Yacute /Thorn /germandbls
 /agrave /aacute /acircumflex /atilde /adieresis /aring /ae /ccedilla
 /egrave /eacute /ecircumflex /edieresis /igrave /iacute /icircumflex /idieresis
 /eth /ntilde /ograve /oacute /ocircumflex /otilde /odieresis /divide
 /oslash /ugrave /uacute /ucircumflex /udieresis /yacute /thorn /ydieresis
]
 def
% end encoding
%%IncludeResource: font Helvetica
/Helvetica findfont
dup length dict begin
  {1 index /FID ne {def} {pop pop} ifelse} forall
  /Encoding WinAnsiEncoding def
  currentdict
  end
/Font1 exch definefont pop
%%IncludeResource: font Helvetica-Bold
/Helvetica-Bold findfont
dup length dict begin
  {1 index /FID ne {def} {pop pop} ifelse} forall
  /Encoding WinAnsiEncoding def
  currentdict
  end
/Font2 exch definefont pop
%%IncludeResource: font Helvetica-Oblique
/Helvetica-Oblique findfont
dup length dict begin
  {1 index /FID ne {def} {pop pop} ifelse} forall
  /Encoding WinAnsiEncoding def
  currentdict
  end
/Font3 exch definefont pop
%%IncludeResource: font Helvetica-BoldOblique
/Helvetica-BoldOblique findfont
dup length dict begin
  {1 index /FID ne {def} {pop pop} ifelse} forall
  /Encoding WinAnsiEncoding def
  currentdict
  end
/Font4 exch definefont pop
%%IncludeResource: font Symbol
/Symbol findfont
dup length dict begin
  {1 index /FID ne {def} {pop pop} ifelse} forall
  currentdict
  end
/Font5 exch definefont pop
%%EndProlog
%%Page: 1 1
bp
/bg { 1 1 1 srgb } def
0.00 0.00 412.50 375.00 r p2
59.04 73.44 382.26 315.96 cl
59.04 73.44 382.26 315.96 cl
0.6784 0.8471 0.9020 srgb
0.75 setlinewidth
[] 0 setdash
1 setlinecap
1 setlinejoin
10.00 setmiterlimit
71.01 101.14 1.62 c p1
72.18 101.14 1.62 c p1
73.36 101.14 1.62 c p1
74.53 101.14 1.62 c p1
75.71 101.17 1.62 c p1
76.88 101.31 1.62 c p1
78.05 101.70 1.62 c p1
79.23 102.51 1.62 c p1
80.40 103.86 1.62 c p1
81.57 105.81 1.62 c p1
82.75 108.38 1.62 c p1
83.92 111.52 1.62 c p1
85.09 115.19 1.62 c p1
86.27 119.30 1.62 c p1
87.44 123.77 1.62 c p1
88.62 128.52 1.62 c p1
89.79 133.46 1.62 c p1
90.96 138.54 1.62 c p1
92.14 143.70 1.62 c p1
93.31 148.89 1.62 c p1
94.48 154.06 1.62 c p1
95.66 159.18 1.62 c p1
96.83 164.22 1.62 c p1
98.00 169.17 1.62 c p1
99.18 174.00 1.62 c p1
100.35 178.71 1.62 c p1
101.53 183.28 1.62 c p1
102.70 187.70 1.62 c p1
103.87 191.98 1.62 c p1
105.05 196.11 1.62 c p1
106.22 200.09 1.62 c p1
107.39 203.92 1.62 c p1
108.57 207.60 1.62 c p1
109.74 211.14 1.62 c p1
110.91 214.53 1.62 c p1
112.09 217.79 1.62 c p1
113.26 220.91 1.62 c p1
114.44 223.90 1.62 c p1
115.61 226.77 1.62 c p1
116.78 229.51 1.62 c p1
117.96 232.13 1.62 c p1
119.13 234.64 1.62 c p1
120.30 237.04 1.62 c p1
121.48 239.34 1.62 c p1
122.65 241.53 1.62 c p1
123.82 243.63 1.62 c p1
125.00 245.64 1.62 c p1
126.17 247.55 1.62 c p1
127.35 249.39 1.62 c p1
128.52 251.13 1.62 c p1
129.69 252.81 1.62 c p1
130.87 254.40 1.62 c p1
132.04 255.93 1.62 c p1
133.21 257.39 1.62 c p1
134.39 258.78 1.62 c p1
135.56 260.11 1.62 c p1
136.73 261.38 1.62 c p1
137.91 262.59 1.62 c p1
139.08 263.75 1.62 c p1
140.26 264.85 1.62 c p1
141.43 265.91 1.62 c p1
142.60 266.92 1.62 c p1
143.78 267.88 1.62 c p1
144.95 268.80 1.62 c p1
146.12 269.68 1.62 c p1
147.30 270.52 1.62 c p1
148.47 271.32 1.62 c p1
149.64 272.08 1.62 c p1
150.82 272.81 1.62 c p1
151.99 273.51 1.62 c p1
153.17 274.18 1.62 c p1
154.34 274.81 1.62 c p1
155.51 275.42 1.62 c p1
156.69 276.00 1.62 c p1
157.86 276.55 1.62 c p1
159.03 277.08 1.62 c p1
160.21 277.59 1.62 c p1
161.38 278.07 1.62 c p1
162.55 278.53 1.62 c p1
163.73 278.97 1.62 c p1
164.90 279.39 1.62 c p1
166.08 279.79 1.62 c p1
167.25 280.17 1.62 c p1
168.42 280.54 1.62 c p1
169.60 280.89 1.62 c p1
170.77 281.22 1.62 c p1
171.94 281.54 1.62 c p1
173.12 281.84 1.62 c p1
174.29 282.13 1.62 c p1
175.47 282.41 1.62 c p1
176.64 282.67 1.62 c p1
177.81 282.93 1.62 c p1
178.99 283.17 1.62 c p1
180.16 283.40 1.62 c p1
181.33 283.62 1.62 c p1
182.51 283.83 1.62 c p1
183.68 284.03 1.62 c p1
184.85 284.22 1.62 c p1
186.03 284.40 1.62 c p1
187.20 284.58 1.62 c p1
188.38 284.74 1.62 c p1
189.55 284.90 1.62 c p1
190.72 285.05 1.62 c p1
191.90 285.20 1.62 c p1
193.07 285.34 1.62 c p1
194.24 285.47 1.62 c p1
195.42 285.60 1.62 c p1
196.59 285.72 1.62 c p1
197.76 285.83 1.62 c p1
198.94 285.94 1.62 c p1
200.11 286.05 1.62 c p1
201.29 286.15 1.62 c p1
202.46 286.24 1.62 c p1
203.63 286.33 1.62 c p1
204.81 286.42 1.62 c p1
205.98 286.50 1.62 c p1
207.15 286.58 1.62 c p1
208.33 286.66 1.62 c p1
209.50 286.73 1.62 c p1
210.67 286.80 1.62 c p1
211.85 286.87 1.62 c p1
213.02 286.93 1.62 c p1
214.20 286.99 1.62 c p1
215.37 287.05 1.62 c p1
216.54 287.10 1.62 c p1
217.72 287.16 1.62 c p1
218.89 287.21 1.62 c p1
220.06 287.25 1.62 c p1
221.24 287.30 1.62 c p1
222.41 287.34 1.62 c p1
223.58 287.39 1.62 c p1
224.76 287.43 1.62 c p1
225.93 287.46 1.62 c p1
227.11 287.50 1.62 c p1
228.28 287.53 1.62 c p1
229.45 287.57 1.62 c p1
230.63 287.60 1.62 c p1
231.80 287.63 1.62 c p1
232.97 287.66 1.62 c p1
234.15 287.69 1.62 c p1
235.32 287.71 1.62 c p1
236.49 287.74 1.62 c p1
237.67 287.76 1.62 c p1
238.84 287.78 1.62 c p1
240.02 287.81 1.62 c p1
241.19 287.83 1.62 c p1
242.36 287.85 1.62 c p1
243.54 287.87 1.62 c p1
244.71 287.88 1.62 c p1
245.88 287.90 1.62 c p1
247.06 287.92 1.62 c p1
248.23 287.93 1.62 c p1
249.40 287.95 1.62 c p1
250.58 287.96 1.62 c p1
251.75 287.98 1.62 c p1
252.93 287.99 1.62 c p1
254.10 288.00 1.62 c p1
255.27 288.01 1.62 c p1
256.45 288.03 1.62 c p1
257.62 288.04 1.62 c p1
258.79 288.05 1.62 c p1
259.97 288.06 1.62 c p1
261.14 288.07 1.62 c p1
262.31 288.08 1.62 c p1
263.49 288.08 1.62 c p1
264.66 288.09 1.62 c p1
265.84 288.10 1.62 c p1
267.01 288.11 1.62 c p1
268.18 288.11 1.62 c p1
269.36 288.12 1.62 c p1
270.53 288.13 1.62 c p1
271.70 288.13 1.62 c p1
272.88 288.14 1.62 c p1
274.05 288.15 1.62 c p1
275.22 288.15 1.62 c p1
276.40 288.16 1.62 c p1
277.57 288.16 1.62 c p1
278.75 288.17 1.62 c p1
279.92 288.17 1.62 c p1
281.09 288.18 1.62 c p1
282.27 288.18 1.62 c p1
283.44 288.18 1.62 c p1
284.61 288.19 1.62 c p1
285.79 288.19 1.62 c p1
286.96 288.19 1.62 c p1
288.13 288.20 1.62 c p1
289.31 288.20 1.62 c p1
290.48 288.20 1.62 c p1
291.66 288.21 1.62 c p1
292.83 288.21 1.62 c p1
294.00 288.21 1.62 c p1
295.18 288.21 1.62 c p1
296.35 288.22 1.62 c p1
297.52 288.22 1.62 c p1
298.70 288.22 1.62 c p1
299.87 288.22 1.62 c p1
301.04 288.23 1.62 c p1
302.22 288.23 1.62 c p1
303.39 288.23 1.62 c p1
304.57 288.23 1.62 c p1
305.74 288.23 1.62 c p1
306.91 288.23 1.62 c p1
308.09 288.24 1.62 c p1
309.26 288.24 1.62 c p1
310.43 288.24 1.62 c p1
311.61 288.24 1.62 c p1
312.78 288.24 1.62 c p1
313.95 288.24 1.62 c p1
315.13 288.24 1.62 c p1
316.30 288.24 1.62 c p1
317.48 288.25 1.62 c p1
318.65 288.25 1.62 c p1
319.82 288.25 1.62 c p1
321.00 288.25 1.62 c p1
322.17 288.25 1.62 c p1
323.34 288.25 1.62 c p1
324.52 288.25 1.62 c p1
325.69 288.25 1.62 c p1
326.86 288.25 1.62 c p1
328.04 288.25 1.62 c p1
329.21 288.25 1.62 c p1
330.39 288.25 1.62 c p1
331.56 288.25 1.62 c p1
332.73 288.26 1.62 c p1
333.91 288.26 1.62 c p1
335.08 288.26 1.62 c p1
336.25 288.26 1.62 c p1
337.43 288.26 1.62 c p1
338.60 288.26 1.62 c p1
339.77 288.26 1.62 c p1
340.95 288.26 1.62 c p1
342.12 288.26 1.62 c p1
343.30 288.26 1.62 c p1
344.47 288.26 1.62 c p1
345.64 288.26 1.62 c p1
346.82 288.26 1.62 c p1
347.99 288.26 1.62 c p1
349.16 288.26 1.62 c p1
350.34 288.26 1.62 c p1
351.51 288.26 1.62 c p1
352.68 288.26 1.62 c p1
353.86 288.26 1.62 c p1
355.03 288.26 1.62 c p1
356.21 288.26 1.62 c p1
357.38 288.26 1.62 c p1
358.55 288.26 1.62 c p1
359.73 288.26 1.62 c p1
360.90 288.26 1.62 c p1
362.07 288.26 1.62 c p1
363.25 288.26 1.62 c p1
364.42 288.26 1.62 c p1
365.59 288.26 1.62 c p1
366.77 288.26 1.62 c p1
367.94 288.26 1.62 c p1
369.12 288.26 1.62 c p1
370.29 288.26 1.62 c p1
0.00 0.00 412.50 375.00 cl
0 0 0 srgb
0.75 setlinewidth
[] 0 setdash
1 setlinecap
1 setlinejoin
10.00 setmiterlimit
np
69.84 73.44 m
293.41 0 l
o
np
69.84 73.44 m
0 -7.20 l
o
np
128.52 73.44 m
0 -7.20 l
o
np
187.20 73.44 m
0 -7.20 l
o
np
245.88 73.44 m
0 -7.20 l
o
np
304.57 73.44 m
0 -7.20 l
o
np
363.25 73.44 m
0 -7.20 l
o
/Font1 findfont 12 s
69.84 47.52 (0) .5 0 t
128.52 47.52 (50) .5 0 t
187.20 47.52 (100) .5 0 t
245.88 47.52 (150) .5 0 t
304.57 47.52 (200) .5 0 t
363.25 47.52 (250) .5 0 t
np
59.04 101.14 m
0 187.12 l
o
np
59.04 101.14 m
-7.20 0 l
o
np
59.04 138.56 m
-7.20 0 l
o
np
59.04 175.99 m
-7.20 0 l
o
np
59.04 213.41 m
-7.20 0 l
o
np
59.04 250.84 m
-7.20 0 l
o
np
59.04 288.26 m
-7.20 0 l
o
41.76 101.14 (0.0) .5 90 t
41.76 138.56 (0.2) .5 90 t
41.76 175.99 (0.4) .5 90 t
41.76 213.41 (0.6) .5 90 t
41.76 250.84 (0.8) .5 90 t
41.76 288.26 (1.0) .5 90 t
np
59.04 73.44 m
323.22 0 l
0 242.52 l
-323.22 0 l
0 -242.52 l
o
0.00 0.00 412.50 375.00 cl
/Font1 findfont 12 s
0 0 0 srgb
219.32 18.72 (i) 0 0 t
10.76 181.14 (E) 0 90 t
/Font1 findfont 8 s
12.96 189.15 (i) 0 90 t
/Font1 findfont 12 s
10.76 190.92 (/) 0 90 t
10.76 194.26 (T) 0 90 t
/Font1 findfont 8 s
12.96 201.59 (m) 0 90 t
59.04 73.44 382.26 315.96 cl
0 1 0 srgb
0.75 setlinewidth
[ 2.25 3.75] 0 setdash
1 setlinecap
1 setlinejoin
10.00 setmiterlimit
np
59.04 101.14 m
323.22 0 l
o
np
59.04 288.26 m
323.22 0 l
o
np
69.84 73.44 m
0 242.52 l
o
np
370.29 73.44 m
0 242.52 l
o
/bg { 1 1 1 srgb } def
0 0 0 srgb
0.75 setlinewidth
[] 0 setdash
304.57 273.29 51.35 -39.16 r p3
0.6784 0.8471 0.9020 srgb
316.06 253.71 1.62 c p1
/Font1 findfont 14 s
0 0 0 srgb
327.55 250.06 (E) 0 0 t
/Font1 findfont 10 s
336.89 247.50 (256) 0 0 t
0 1 0 srgb
0.75 setlinewidth
[ 2.25 3.75] 0 setdash
np
59.04 101.14 m
323.22 0 l
o
np
59.04 288.26 m
323.22 0 l
o
np
69.84 73.44 m
0 242.52 l
o
np
370.29 73.44 m
0 242.52 l
o
0 0 0 srgb
0.75 setlinewidth
[] 0 setdash
304.57 273.29 51.35 -39.16 r p3
0.6784 0.8471 0.9020 srgb
316.06 253.71 1.62 c p1
/Font1 findfont 14 s
0 0 0 srgb
327.55 250.06 (E) 0 0 t
/Font1 findfont 10 s
336.89 247.50 (256) 0 0 t
0.6784 0.8471 0.9020 srgb
71.01 101.14 1.62 c p1
72.18 101.14 1.62 c p1
73.36 101.14 1.62 c p1
74.53 101.14 1.62 c p1
75.71 101.17 1.62 c p1
76.88 101.31 1.62 c p1
78.05 101.70 1.62 c p1
79.23 102.51 1.62 c p1
80.40 103.86 1.62 c p1
81.57 105.81 1.62 c p1
82.75 108.38 1.62 c p1
83.92 111.52 1.62 c p1
85.09 115.19 1.62 c p1
86.27 119.30 1.62 c p1
87.44 123.77 1.62 c p1
88.62 128.52 1.62 c p1
89.79 133.46 1.62 c p1
90.96 138.54 1.62 c p1
92.14 143.70 1.62 c p1
93.31 148.89 1.62 c p1
94.48 154.06 1.62 c p1
95.66 159.18 1.62 c p1
96.83 164.22 1.62 c p1
98.00 169.17 1.62 c p1
99.18 174.00 1.62 c p1
100.35 178.71 1.62 c p1
101.53 183.28 1.62 c p1
102.70 187.70 1.62 c p1
103.87 191.98 1.62 c p1
105.05 196.11 1.62 c p1
106.22 200.09 1.62 c p1
107.39 203.92 1.62 c p1
108.57 207.60 1.62 c p1
109.74 211.14 1.62 c p1
110.91 214.53 1.62 c p1
112.09 217.79 1.62 c p1
113.26 220.91 1.62 c p1
114.44 223.90 1.62 c p1
115.61 226.77 1.62 c p1
116.78 229.51 1.62 c p1
117.96 232.13 1.62 c p1
119.13 234.64 1.62 c p1
120.30 237.04 1.62 c p1
121.48 239.34 1.62 c p1
122.65 241.53 1.62 c p1
123.82 243.63 1.62 c p1
125.00 245.64 1.62 c p1
126.17 247.55 1.62 c p1
127.35 249.39 1.62 c p1
128.52 251.13 1.62 c p1
129.69 252.81 1.62 c p1
130.87 254.40 1.62 c p1
132.04 255.93 1.62 c p1
133.21 257.39 1.62 c p1
134.39 258.78 1.62 c p1
135.56 260.11 1.62 c p1
136.73 261.38 1.62 c p1
137.91 262.59 1.62 c p1
139.08 263.75 1.62 c p1
140.26 264.85 1.62 c p1
141.43 265.91 1.62 c p1
142.60 266.92 1.62 c p1
143.78 267.88 1.62 c p1
144.95 268.80 1.62 c p1
146.12 269.68 1.62 c p1
147.30 270.52 1.62 c p1
148.47 271.32 1.62 c p1
149.64 272.08 1.62 c p1
150.82 272.81 1.62 c p1
151.99 273.51 1.62 c p1
153.17 274.18 1.62 c p1
154.34 274.81 1.62 c p1
155.51 275.42 1.62 c p1
156.69 276.00 1.62 c p1
157.86 276.55 1.62 c p1
159.03 277.08 1.62 c p1
160.21 277.59 1.62 c p1
161.38 278.07 1.62 c p1
162.55 278.53 1.62 c p1
163.73 278.97 1.62 c p1
164.90 279.39 1.62 c p1
166.08 279.79 1.62 c p1
167.25 280.17 1.62 c p1
168.42 280.54 1.62 c p1
169.60 280.89 1.62 c p1
170.77 281.22 1.62 c p1
171.94 281.54 1.62 c p1
173.12 281.84 1.62 c p1
174.29 282.13 1.62 c p1
175.47 282.41 1.62 c p1
176.64 282.67 1.62 c p1
177.81 282.93 1.62 c p1
178.99 283.17 1.62 c p1
180.16 283.40 1.62 c p1
181.33 283.62 1.62 c p1
182.51 283.83 1.62 c p1
183.68 284.03 1.62 c p1
184.85 284.22 1.62 c p1
186.03 284.40 1.62 c p1
187.20 284.58 1.62 c p1
188.38 284.74 1.62 c p1
189.55 284.90 1.62 c p1
190.72 285.05 1.62 c p1
191.90 285.20 1.62 c p1
193.07 285.34 1.62 c p1
194.24 285.47 1.62 c p1
195.42 285.60 1.62 c p1
196.59 285.72 1.62 c p1
197.76 285.83 1.62 c p1
198.94 285.94 1.62 c p1
200.11 286.05 1.62 c p1
201.29 286.15 1.62 c p1
202.46 286.24 1.62 c p1
203.63 286.33 1.62 c p1
204.81 286.42 1.62 c p1
205.98 286.50 1.62 c p1
207.15 286.58 1.62 c p1
208.33 286.66 1.62 c p1
209.50 286.73 1.62 c p1
210.67 286.80 1.62 c p1
211.85 286.87 1.62 c p1
213.02 286.93 1.62 c p1
214.20 286.99 1.62 c p1
215.37 287.05 1.62 c p1
216.54 287.10 1.62 c p1
217.72 287.16 1.62 c p1
218.89 287.21 1.62 c p1
220.06 287.25 1.62 c p1
221.24 287.30 1.62 c p1
222.41 287.34 1.62 c p1
223.58 287.39 1.62 c p1
224.76 287.43 1.62 c p1
225.93 287.46 1.62 c p1
227.11 287.50 1.62 c p1
228.28 287.53 1.62 c p1
229.45 287.57 1.62 c p1
230.63 287.60 1.62 c p1
231.80 287.63 1.62 c p1
232.97 287.66 1.62 c p1
234.15 287.69 1.62 c p1
235.32 287.71 1.62 c p1
236.49 287.74 1.62 c p1
237.67 287.76 1.62 c p1
238.84 287.78 1.62 c p1
240.02 287.81 1.62 c p1
241.19 287.83 1.62 c p1
242.36 287.85 1.62 c p1
243.54 287.87 1.62 c p1
244.71 287.88 1.62 c p1
245.88 287.90 1.62 c p1
247.06 287.92 1.62 c p1
248.23 287.93 1.62 c p1
249.40 287.95 1.62 c p1
250.58 287.96 1.62 c p1
251.75 287.98 1.62 c p1
252.93 287.99 1.62 c p1
254.10 288.00 1.62 c p1
255.27 288.01 1.62 c p1
256.45 288.03 1.62 c p1
257.62 288.04 1.62 c p1
258.79 288.05 1.62 c p1
259.97 288.06 1.62 c p1
261.14 288.07 1.62 c p1
262.31 288.08 1.62 c p1
263.49 288.08 1.62 c p1
264.66 288.09 1.62 c p1
265.84 288.10 1.62 c p1
267.01 288.11 1.62 c p1
268.18 288.11 1.62 c p1
269.36 288.12 1.62 c p1
270.53 288.13 1.62 c p1
271.70 288.13 1.62 c p1
272.88 288.14 1.62 c p1
274.05 288.15 1.62 c p1
275.22 288.15 1.62 c p1
276.40 288.16 1.62 c p1
277.57 288.16 1.62 c p1
278.75 288.17 1.62 c p1
279.92 288.17 1.62 c p1
281.09 288.18 1.62 c p1
282.27 288.18 1.62 c p1
283.44 288.18 1.62 c p1
284.61 288.19 1.62 c p1
285.79 288.19 1.62 c p1
286.96 288.19 1.62 c p1
288.13 288.20 1.62 c p1
289.31 288.20 1.62 c p1
290.48 288.20 1.62 c p1
291.66 288.21 1.62 c p1
292.83 288.21 1.62 c p1
294.00 288.21 1.62 c p1
295.18 288.21 1.62 c p1
296.35 288.22 1.62 c p1
297.52 288.22 1.62 c p1
298.70 288.22 1.62 c p1
299.87 288.22 1.62 c p1
301.04 288.23 1.62 c p1
302.22 288.23 1.62 c p1
303.39 288.23 1.62 c p1
304.57 288.23 1.62 c p1
305.74 288.23 1.62 c p1
306.91 288.23 1.62 c p1
308.09 288.24 1.62 c p1
309.26 288.24 1.62 c p1
310.43 288.24 1.62 c p1
311.61 288.24 1.62 c p1
312.78 288.24 1.62 c p1
313.95 288.24 1.62 c p1
315.13 288.24 1.62 c p1
316.30 288.24 1.62 c p1
317.48 288.25 1.62 c p1
318.65 288.25 1.62 c p1
319.82 288.25 1.62 c p1
321.00 288.25 1.62 c p1
322.17 288.25 1.62 c p1
323.34 288.25 1.62 c p1
324.52 288.25 1.62 c p1
325.69 288.25 1.62 c p1
326.86 288.25 1.62 c p1
328.04 288.25 1.62 c p1
329.21 288.25 1.62 c p1
330.39 288.25 1.62 c p1
331.56 288.25 1.62 c p1
332.73 288.26 1.62 c p1
333.91 288.26 1.62 c p1
335.08 288.26 1.62 c p1
336.25 288.26 1.62 c p1
337.43 288.26 1.62 c p1
338.60 288.26 1.62 c p1
339.77 288.26 1.62 c p1
340.95 288.26 1.62 c p1
342.12 288.26 1.62 c p1
343.30 288.26 1.62 c p1
344.47 288.26 1.62 c p1
345.64 288.26 1.62 c p1
346.82 288.26 1.62 c p1
347.99 288.26 1.62 c p1
349.16 288.26 1.62 c p1
350.34 288.26 1.62 c p1
351.51 288.26 1.62 c p1
352.68 288.26 1.62 c p1
353.86 288.26 1.62 c p1
355.03 288.26 1.62 c p1
356.21 288.26 1.62 c p1
357.38 288.26 1.62 c p1
358.55 288.26 1.62 c p1
359.73 288.26 1.62 c p1
360.90 288.26 1.62 c p1
362.07 288.26 1.62 c p1
363.25 288.26 1.62 c p1
364.42 288.26 1.62 c p1
365.59 288.26 1.62 c p1
366.77 288.26 1.62 c p1
367.94 288.26 1.62 c p1
369.12 288.26 1.62 c p1
370.29 288.26 1.62 c p1
ep
%%Trailer
%%Pages: 1
%%EOF
