%!PS-Adobe-3.0 EPSF-3.0
%%DocumentNeededResources: font Helvetica
%%+ font Helvetica-Bold
%%+ font Helvetica-Oblique
%%+ font Helvetica-BoldOblique
%%+ font Symbol
%%Title: R Graphics Output
%%Creator: R Software
%%Pages: (atend)
%%BoundingBox: 0 0 300 262
%%EndComments
%%BeginProlog
/bp  { gs sRGB gs } def
% begin .ps.prolog
/gs  { gsave } bind def
/gr  { grestore } bind def
/ep  { showpage gr gr } bind def
/m   { moveto } bind def
/l  { rlineto } bind def
/np  { newpath } bind def
/cp  { closepath } bind def
/f   { fill } bind def
/o   { stroke } bind def
/c   { newpath 0 360 arc } bind def
/r   { 4 2 roll moveto 1 copy 3 -1 roll exch 0 exch rlineto 0 rlineto -1 mul 0 exch rlineto closepath } bind def
/p1  { stroke } bind def
/p2  { gsave bg fill grestore newpath } bind def
/p3  { gsave bg fill grestore stroke } bind def
/p6  { gsave bg eofill grestore newpath } bind def
/p7  { gsave bg eofill grestore stroke } bind def
/t   { 5 -2 roll moveto gsave rotate
       1 index stringwidth pop
       mul neg 0 rmoveto show grestore } bind def
/ta  { 4 -2 roll moveto gsave rotate show } bind def
/tb  { 2 -1 roll 0 rmoveto show } bind def
/cl  { grestore gsave newpath 3 index 3 index moveto 1 index
       4 -1 roll lineto  exch 1 index lineto lineto
       closepath clip newpath } bind def
/rgb { setrgbcolor } bind def
/s   { scalefont setfont } bind def
% end   .ps.prolog
/sRGB { [ /CIEBasedABC
          << /DecodeLMN
               [ { dup 0.03928 le
                        {12.92321 div}
                        {0.055 add 1.055 div 2.4 exp }
                     ifelse
                 } bind dup dup
               ]
             /MatrixLMN [0.412457 0.212673 0.019334
                         0.357576 0.715152 0.119192
                         0.180437 0.072175 0.950301]
             /WhitePoint [0.9505 1.0 1.0890]
           >>
         ] setcolorspace } bind def
/srgb { setcolor } bind def
% begin encoding
/WinAnsiEncoding [
 /.notdef /.notdef /.notdef /.notdef /.notdef /.notdef /.notdef /.notdef
 /.notdef /.notdef /.notdef /.notdef /.notdef /.notdef /.notdef /.notdef
 /.notdef /.notdef /.notdef /.notdef /.notdef /.notdef /.notdef /.notdef
 /.notdef /.notdef /.notdef /.notdef /.notdef /.notdef /.notdef /.notdef
 /space /exclam /quotedbl /numbersign /dollar /percent /ampersand /quoteright
 /parenleft /parenright /asterisk /plus /comma /minus /period /slash
 /zero /one /two /three /four /five /six /seven
 /eight /nine /colon /semicolon /less /equal /greater /question
 /at /A /B /C /D /E /F /G
 /H /I /J /K /L /M /N /O
 /P /Q /R /S /T /U /V /W
 /X /Y /Z /bracketleft /backslash /bracketright /asciicircum /underscore
 /grave /a /b /c /d /e /f /g
 /h /i /j /k /l /m /n /o
 /p /q /r /s /t /u /v /w
 /x /y /z /braceleft /bar /braceright /asciitilde /.notdef
 /Euro /.notdef /quotesinglbase /florin /quotedblbase /ellipsis /dagger /daggerdbl
 /circumflex /perthousand /Scaron /guilsinglleft /OE /.notdef /Zcaron /.notdef
 /.notdef /quoteleft /quoteright /quotedblleft /quotedblright /bullet /endash /emdash
 /tilde /trademark /scaron /guilsinglright /oe /.notdef /zcaron /Ydieresis
 /space /exclamdown /cent /sterling /currency /yen /brokenbar /section
 /dieresis /copyright /ordfeminine /guillemotleft /logicalnot /hyphen /registered /macron
 /degree /plusminus /twosuperior /threesuperior /acute /mu /paragraph /periodcentered
 /cedilla /onesuperior /ordmasculine /guillemotright /onequarter /onehalf /threequarters /questiondown
 /Agrave /Aacute /Acircumflex /Atilde /Adieresis /Aring /AE /Ccedilla
 /Egrave /Eacute /Ecircumflex /Edieresis /Igrave /Iacute /Icircumflex /Idieresis
 /Eth /Ntilde /Ograve /Oacute /Ocircumflex /Otilde /Odieresis /multiply
 /Oslash /Ugrave /Uacute /Ucircumflex /Udieresis /Yacute /Thorn /germandbls
 /agrave /aacute /acircumflex /atilde /adieresis /aring /ae /ccedilla
 /egrave /eacute /ecircumflex /edieresis /igrave /iacute /icircumflex /idieresis
 /eth /ntilde /ograve /oacute /ocircumflex /otilde /odieresis /divide
 /oslash /ugrave /uacute /ucircumflex /udieresis /yacute /thorn /ydieresis
]
 def
% end encoding
%%IncludeResource: font Helvetica
/Helvetica findfont
dup length dict begin
  {1 index /FID ne {def} {pop pop} ifelse} forall
  /Encoding WinAnsiEncoding def
  currentdict
  end
/Font1 exch definefont pop
%%IncludeResource: font Helvetica-Bold
/Helvetica-Bold findfont
dup length dict begin
  {1 index /FID ne {def} {pop pop} ifelse} forall
  /Encoding WinAnsiEncoding def
  currentdict
  end
/Font2 exch definefont pop
%%IncludeResource: font Helvetica-Oblique
/Helvetica-Oblique findfont
dup length dict begin
  {1 index /FID ne {def} {pop pop} ifelse} forall
  /Encoding WinAnsiEncoding def
  currentdict
  end
/Font3 exch definefont pop
%%IncludeResource: font Helvetica-BoldOblique
/Helvetica-BoldOblique findfont
dup length dict begin
  {1 index /FID ne {def} {pop pop} ifelse} forall
  /Encoding WinAnsiEncoding def
  currentdict
  end
/Font4 exch definefont pop
%%IncludeResource: font Symbol
/Symbol findfont
dup length dict begin
  {1 index /FID ne {def} {pop pop} ifelse} forall
  currentdict
  end
/Font5 exch definefont pop
%%EndProlog
%%Page: 1 1
bp
/bg { 1 1 1 srgb } def
0.00 0.00 300.00 262.50 r p2
59.04 73.44 269.76 203.46 cl
59.04 73.44 269.76 203.46 cl
0 0 0 srgb
0.75 setlinewidth
[] 0 setdash
1 setlinecap
1 setlinejoin
10.00 setmiterlimit
np
66.84 161.30 m
1.98 3.66 l
1.97 8.70 l
1.97 7.67 l
1.97 2.34 l
1.97 -3.48 l
1.97 -7.90 l
1.97 -10.58 l
1.97 -11.75 l
1.97 -11.84 l
1.97 -11.24 l
1.97 -10.20 l
1.97 -8.96 l
1.98 -7.65 l
1.97 -6.34 l
1.97 -5.10 l
1.97 -3.95 l
1.97 -2.91 l
1.97 -1.96 l
1.97 -1.14 l
1.97 -0.41 l
1.97 0.22 l
1.97 0.76 l
1.97 1.23 l
1.97 1.63 l
1.97 1.97 l
1.98 2.23 l
1.97 2.47 l
1.97 2.65 l
1.97 2.80 l
1.97 2.91 l
1.97 2.99 l
1.97 3.05 l
1.97 3.09 l
1.97 3.10 l
1.97 3.10 l
1.97 3.09 l
1.97 3.07 l
1.98 3.02 l
1.97 2.99 l
1.97 2.93 l
1.97 2.87 l
1.97 2.81 l
1.97 2.74 l
1.97 2.68 l
1.97 2.60 l
1.97 2.53 l
1.97 2.45 l
1.97 2.38 l
1.97 2.31 l
1.98 2.23 l
1.97 2.15 l
1.97 2.08 l
1.97 2.01 l
1.97 1.93 l
1.97 1.87 l
1.97 1.79 l
1.97 1.73 l
1.97 1.66 l
1.97 1.59 l
1.97 1.54 l
1.97 1.47 l
1.98 1.41 l
1.97 1.35 l
1.97 1.30 l
1.97 1.24 l
1.97 1.19 l
1.97 1.14 l
1.97 1.09 l
1.97 1.05 l
1.97 0.99 l
1.97 0.96 l
1.97 0.91 l
1.97 0.86 l
1.98 0.83 l
1.97 0.79 l
1.97 0.76 l
1.97 0.71 l
1.97 0.69 l
1.97 0.65 l
1.97 0.62 l
1.97 0.59 l
1.97 0.56 l
1.97 0.53 l
1.97 0.50 l
1.97 0.48 l
1.98 0.45 l
1.97 0.43 l
1.97 0.41 l
1.97 0.38 l
1.97 0.36 l
1.97 0.34 l
1.97 0.33 l
1.97 0.30 l
1.97 0.29 l
1.97 0.26 l
1.97 0.25 l
1.97 0.24 l
1.97 0.22 l
1.98 0.20 l
o
0.00 0.00 300.00 262.50 cl
0 0 0 srgb
0.75 setlinewidth
[] 0 setdash
1 setlinecap
1 setlinejoin
10.00 setmiterlimit
np
64.02 73.44 m
197.94 0 l
o
np
64.02 73.44 m
0 -7.20 l
o
np
92.29 73.44 m
0 -7.20 l
o
np
120.57 73.44 m
0 -7.20 l
o
np
148.85 73.44 m
0 -7.20 l
o
np
177.12 73.44 m
0 -7.20 l
o
np
205.40 73.44 m
0 -7.20 l
o
np
233.68 73.44 m
0 -7.20 l
o
np
261.96 73.44 m
0 -7.20 l
o
/Font1 findfont 12 s
64.02 47.52 (0.00) .5 0 t
120.57 47.52 (0.02) .5 0 t
177.12 47.52 (0.04) .5 0 t
233.68 47.52 (0.06) .5 0 t
np
59.04 77.91 m
0 124.94 l
o
np
59.04 77.91 m
-7.20 0 l
o
np
59.04 98.74 m
-7.20 0 l
o
np
59.04 119.56 m
-7.20 0 l
o
np
59.04 140.38 m
-7.20 0 l
o
np
59.04 161.20 m
-7.20 0 l
o
np
59.04 182.03 m
-7.20 0 l
o
np
59.04 202.85 m
-7.20 0 l
o
41.76 77.91 (-40000) .5 90 t
41.76 140.38 (-10000) .5 90 t
41.76 202.85 (20000) .5 90 t
np
59.04 73.44 m
210.72 0 l
0 130.02 l
-210.72 0 l
0 -130.02 l
o
0.00 0.00 300.00 262.50 cl
/Font1 findfont 12 s
0 0 0 srgb
164.40 18.72 (a [cm^2/s]) .5 0 t
12.96 138.45 (F\(a\)) .5 90 t
59.04 73.44 269.76 203.46 cl
0 0 0 srgb
0.75 setlinewidth
[ 2.25 3.75] 0 setdash
1 setlinecap
1 setlinejoin
10.00 setmiterlimit
np
59.04 161.20 m
210.72 0 l
o
/bg { 1 0 0 srgb } def
80.73 161.20 2.70 c p2
173.07 161.20 2.70 c p2
ep
%%Trailer
%%Pages: 1
%%EOF
