%!PS-Adobe-3.0 EPSF-3.0
%%DocumentNeededResources: font Helvetica
%%+ font Helvetica-Bold
%%+ font Helvetica-Oblique
%%+ font Helvetica-BoldOblique
%%+ font Symbol
%%Title: R Graphics Output
%%Creator: R Software
%%Pages: (atend)
%%BoundingBox: 0 0 300 262
%%EndComments
%%BeginProlog
/bp  { gs sRGB gs } def
% begin .ps.prolog
/gs  { gsave } bind def
/gr  { grestore } bind def
/ep  { showpage gr gr } bind def
/m   { moveto } bind def
/l  { rlineto } bind def
/np  { newpath } bind def
/cp  { closepath } bind def
/f   { fill } bind def
/o   { stroke } bind def
/c   { newpath 0 360 arc } bind def
/r   { 4 2 roll moveto 1 copy 3 -1 roll exch 0 exch rlineto 0 rlineto -1 mul 0 exch rlineto closepath } bind def
/p1  { stroke } bind def
/p2  { gsave bg fill grestore newpath } bind def
/p3  { gsave bg fill grestore stroke } bind def
/p6  { gsave bg eofill grestore newpath } bind def
/p7  { gsave bg eofill grestore stroke } bind def
/t   { 5 -2 roll moveto gsave rotate
       1 index stringwidth pop
       mul neg 0 rmoveto show grestore } bind def
/ta  { 4 -2 roll moveto gsave rotate show } bind def
/tb  { 2 -1 roll 0 rmoveto show } bind def
/cl  { grestore gsave newpath 3 index 3 index moveto 1 index
       4 -1 roll lineto  exch 1 index lineto lineto
       closepath clip newpath } bind def
/rgb { setrgbcolor } bind def
/s   { scalefont setfont } bind def
% end   .ps.prolog
/sRGB { [ /CIEBasedABC
          << /DecodeLMN
               [ { dup 0.03928 le
                        {12.92321 div}
                        {0.055 add 1.055 div 2.4 exp }
                     ifelse
                 } bind dup dup
               ]
             /MatrixLMN [0.412457 0.212673 0.019334
                         0.357576 0.715152 0.119192
                         0.180437 0.072175 0.950301]
             /WhitePoint [0.9505 1.0 1.0890]
           >>
         ] setcolorspace } bind def
/srgb { setcolor } bind def
% begin encoding
/WinAnsiEncoding [
 /.notdef /.notdef /.notdef /.notdef /.notdef /.notdef /.notdef /.notdef
 /.notdef /.notdef /.notdef /.notdef /.notdef /.notdef /.notdef /.notdef
 /.notdef /.notdef /.notdef /.notdef /.notdef /.notdef /.notdef /.notdef
 /.notdef /.notdef /.notdef /.notdef /.notdef /.notdef /.notdef /.notdef
 /space /exclam /quotedbl /numbersign /dollar /percent /ampersand /quoteright
 /parenleft /parenright /asterisk /plus /comma /minus /period /slash
 /zero /one /two /three /four /five /six /seven
 /eight /nine /colon /semicolon /less /equal /greater /question
 /at /A /B /C /D /E /F /G
 /H /I /J /K /L /M /N /O
 /P /Q /R /S /T /U /V /W
 /X /Y /Z /bracketleft /backslash /bracketright /asciicircum /underscore
 /grave /a /b /c /d /e /f /g
 /h /i /j /k /l /m /n /o
 /p /q /r /s /t /u /v /w
 /x /y /z /braceleft /bar /braceright /asciitilde /.notdef
 /Euro /.notdef /quotesinglbase /florin /quotedblbase /ellipsis /dagger /daggerdbl
 /circumflex /perthousand /Scaron /guilsinglleft /OE /.notdef /Zcaron /.notdef
 /.notdef /quoteleft /quoteright /quotedblleft /quotedblright /bullet /endash /emdash
 /tilde /trademark /scaron /guilsinglright /oe /.notdef /zcaron /Ydieresis
 /space /exclamdown /cent /sterling /currency /yen /brokenbar /section
 /dieresis /copyright /ordfeminine /guillemotleft /logicalnot /hyphen /registered /macron
 /degree /plusminus /twosuperior /threesuperior /acute /mu /paragraph /periodcentered
 /cedilla /onesuperior /ordmasculine /guillemotright /onequarter /onehalf /threequarters /questiondown
 /Agrave /Aacute /Acircumflex /Atilde /Adieresis /Aring /AE /Ccedilla
 /Egrave /Eacute /Ecircumflex /Edieresis /Igrave /Iacute /Icircumflex /Idieresis
 /Eth /Ntilde /Ograve /Oacute /Ocircumflex /Otilde /Odieresis /multiply
 /Oslash /Ugrave /Uacute /Ucircumflex /Udieresis /Yacute /Thorn /germandbls
 /agrave /aacute /acircumflex /atilde /adieresis /aring /ae /ccedilla
 /egrave /eacute /ecircumflex /edieresis /igrave /iacute /icircumflex /idieresis
 /eth /ntilde /ograve /oacute /ocircumflex /otilde /odieresis /divide
 /oslash /ugrave /uacute /ucircumflex /udieresis /yacute /thorn /ydieresis
]
 def
% end encoding
%%IncludeResource: font Helvetica
/Helvetica findfont
dup length dict begin
  {1 index /FID ne {def} {pop pop} ifelse} forall
  /Encoding WinAnsiEncoding def
  currentdict
  end
/Font1 exch definefont pop
%%IncludeResource: font Helvetica-Bold
/Helvetica-Bold findfont
dup length dict begin
  {1 index /FID ne {def} {pop pop} ifelse} forall
  /Encoding WinAnsiEncoding def
  currentdict
  end
/Font2 exch definefont pop
%%IncludeResource: font Helvetica-Oblique
/Helvetica-Oblique findfont
dup length dict begin
  {1 index /FID ne {def} {pop pop} ifelse} forall
  /Encoding WinAnsiEncoding def
  currentdict
  end
/Font3 exch definefont pop
%%IncludeResource: font Helvetica-BoldOblique
/Helvetica-BoldOblique findfont
dup length dict begin
  {1 index /FID ne {def} {pop pop} ifelse} forall
  /Encoding WinAnsiEncoding def
  currentdict
  end
/Font4 exch definefont pop
%%IncludeResource: font Symbol
/Symbol findfont
dup length dict begin
  {1 index /FID ne {def} {pop pop} ifelse} forall
  currentdict
  end
/Font5 exch definefont pop
%%EndProlog
%%Page: 1 1
bp
/bg { 1 1 1 srgb } def
0.00 0.00 300.00 262.50 r p2
59.04 73.44 269.76 203.46 cl
59.04 73.44 269.76 203.46 cl
0 0 1 srgb
0.75 setlinewidth
[] 0 setdash
1 setlinecap
1 setlinejoin
10.00 setmiterlimit
np
66.84 78.26 m
1.98 1.87 l
1.97 1.87 l
1.97 1.85 l
1.97 1.84 l
1.97 1.83 l
1.97 1.81 l
1.97 1.80 l
1.97 1.79 l
1.97 1.77 l
1.97 1.75 l
1.97 1.75 l
1.97 1.72 l
1.98 1.72 l
1.97 1.70 l
1.97 1.68 l
1.97 1.67 l
1.97 1.66 l
1.97 1.64 l
1.97 1.63 l
1.97 1.61 l
1.97 1.60 l
1.97 1.58 l
1.97 1.57 l
1.97 1.55 l
1.97 1.54 l
1.98 1.53 l
1.97 1.51 l
1.97 1.49 l
1.97 1.48 l
1.97 1.47 l
1.97 1.45 l
1.97 1.44 l
1.97 1.42 l
1.97 1.40 l
1.97 1.40 l
1.97 1.38 l
1.97 1.36 l
1.98 1.35 l
1.97 1.34 l
1.97 1.32 l
1.97 1.31 l
1.97 1.29 l
1.97 1.28 l
1.97 1.27 l
1.97 1.25 l
1.97 1.24 l
1.97 1.23 l
1.97 1.21 l
1.97 1.20 l
1.98 1.19 l
1.97 1.17 l
1.97 1.16 l
1.97 1.15 l
1.97 1.13 l
1.97 1.12 l
1.97 1.11 l
1.97 1.09 l
1.97 1.09 l
1.97 1.07 l
1.97 1.05 l
1.97 1.05 l
1.98 1.03 l
1.97 1.02 l
1.97 1.01 l
1.97 1.00 l
1.97 0.99 l
1.97 0.97 l
1.97 0.96 l
1.97 0.95 l
1.97 0.94 l
1.97 0.93 l
1.97 0.92 l
1.97 0.90 l
1.98 0.90 l
1.97 0.88 l
1.97 0.87 l
1.97 0.86 l
1.97 0.86 l
1.97 0.84 l
1.97 0.83 l
1.97 0.82 l
1.97 0.81 l
1.97 0.80 l
1.97 0.79 l
1.97 0.78 l
1.98 0.77 l
1.97 0.76 l
1.97 0.75 l
1.97 0.74 l
1.97 0.73 l
1.97 0.72 l
1.97 0.72 l
1.97 0.70 l
1.97 0.69 l
1.97 0.69 l
1.97 0.68 l
1.97 0.66 l
1.97 0.66 l
1.98 0.65 l
o
0.00 0.00 300.00 262.50 cl
0 0 0 srgb
0.75 setlinewidth
[] 0 setdash
1 setlinecap
1 setlinejoin
10.00 setmiterlimit
np
66.84 73.44 m
195.12 0 l
o
np
66.84 73.44 m
0 -7.20 l
o
np
115.62 73.44 m
0 -7.20 l
o
np
164.40 73.44 m
0 -7.20 l
o
np
213.18 73.44 m
0 -7.20 l
o
np
261.96 73.44 m
0 -7.20 l
o
/Font1 findfont 12 s
66.84 47.52 (0.030) .5 0 t
115.62 47.52 (0.035) .5 0 t
164.40 47.52 (0.040) .5 0 t
213.18 47.52 (0.045) .5 0 t
261.96 47.52 (0.050) .5 0 t
np
59.04 97.36 m
0 96.62 l
o
np
59.04 97.36 m
-7.20 0 l
o
np
59.04 121.51 m
-7.20 0 l
o
np
59.04 145.67 m
-7.20 0 l
o
np
59.04 169.82 m
-7.20 0 l
o
np
59.04 193.98 m
-7.20 0 l
o
41.76 97.36 (-10000) .5 90 t
41.76 145.67 (0) .5 90 t
41.76 193.98 (10000) .5 90 t
np
59.04 73.44 m
210.72 0 l
0 130.02 l
-210.72 0 l
0 -130.02 l
o
0.00 0.00 300.00 262.50 cl
/Font1 findfont 12 s
0 0 0 srgb
164.40 18.72 (a [cm^2/s]) .5 0 t
12.96 138.45 (F\(a\)) .5 90 t
59.04 73.44 269.76 203.46 cl
0 0 0 srgb
0.75 setlinewidth
[ 2.25 3.75] 0 setdash
1 setlinecap
1 setlinejoin
10.00 setmiterlimit
np
59.04 145.67 m
210.72 0 l
o
np
150.41 73.44 m
0 130.02 l
o
/bg { 1 0 0 srgb } def
150.41 145.67 2.70 c p2
ep
%%Trailer
%%Pages: 1
%%EOF
