%!PS-Adobe-3.0 EPSF-3.0
%%DocumentNeededResources: font Helvetica
%%+ font Helvetica-Bold
%%+ font Helvetica-Oblique
%%+ font Helvetica-BoldOblique
%%+ font Symbol
%%Title: R Graphics Output
%%Creator: R Software
%%Pages: (atend)
%%BoundingBox: 0 0 413 375
%%EndComments
%%BeginProlog
/bp  { gs sRGB gs } def
% begin .ps.prolog
/gs  { gsave } bind def
/gr  { grestore } bind def
/ep  { showpage gr gr } bind def
/m   { moveto } bind def
/l  { rlineto } bind def
/np  { newpath } bind def
/cp  { closepath } bind def
/f   { fill } bind def
/o   { stroke } bind def
/c   { newpath 0 360 arc } bind def
/r   { 4 2 roll moveto 1 copy 3 -1 roll exch 0 exch rlineto 0 rlineto -1 mul 0 exch rlineto closepath } bind def
/p1  { stroke } bind def
/p2  { gsave bg fill grestore newpath } bind def
/p3  { gsave bg fill grestore stroke } bind def
/p6  { gsave bg eofill grestore newpath } bind def
/p7  { gsave bg eofill grestore stroke } bind def
/t   { 5 -2 roll moveto gsave rotate
       1 index stringwidth pop
       mul neg 0 rmoveto show grestore } bind def
/ta  { 4 -2 roll moveto gsave rotate show } bind def
/tb  { 2 -1 roll 0 rmoveto show } bind def
/cl  { grestore gsave newpath 3 index 3 index moveto 1 index
       4 -1 roll lineto  exch 1 index lineto lineto
       closepath clip newpath } bind def
/rgb { setrgbcolor } bind def
/s   { scalefont setfont } bind def
% end   .ps.prolog
/sRGB { [ /CIEBasedABC
          << /DecodeLMN
               [ { dup 0.03928 le
                        {12.92321 div}
                        {0.055 add 1.055 div 2.4 exp }
                     ifelse
                 } bind dup dup
               ]
             /MatrixLMN [0.412457 0.212673 0.019334
                         0.357576 0.715152 0.119192
                         0.180437 0.072175 0.950301]
             /WhitePoint [0.9505 1.0 1.0890]
           >>
         ] setcolorspace } bind def
/srgb { setcolor } bind def
% begin encoding
/WinAnsiEncoding [
 /.notdef /.notdef /.notdef /.notdef /.notdef /.notdef /.notdef /.notdef
 /.notdef /.notdef /.notdef /.notdef /.notdef /.notdef /.notdef /.notdef
 /.notdef /.notdef /.notdef /.notdef /.notdef /.notdef /.notdef /.notdef
 /.notdef /.notdef /.notdef /.notdef /.notdef /.notdef /.notdef /.notdef
 /space /exclam /quotedbl /numbersign /dollar /percent /ampersand /quoteright
 /parenleft /parenright /asterisk /plus /comma /minus /period /slash
 /zero /one /two /three /four /five /six /seven
 /eight /nine /colon /semicolon /less /equal /greater /question
 /at /A /B /C /D /E /F /G
 /H /I /J /K /L /M /N /O
 /P /Q /R /S /T /U /V /W
 /X /Y /Z /bracketleft /backslash /bracketright /asciicircum /underscore
 /grave /a /b /c /d /e /f /g
 /h /i /j /k /l /m /n /o
 /p /q /r /s /t /u /v /w
 /x /y /z /braceleft /bar /braceright /asciitilde /.notdef
 /Euro /.notdef /quotesinglbase /florin /quotedblbase /ellipsis /dagger /daggerdbl
 /circumflex /perthousand /Scaron /guilsinglleft /OE /.notdef /Zcaron /.notdef
 /.notdef /quoteleft /quoteright /quotedblleft /quotedblright /bullet /endash /emdash
 /tilde /trademark /scaron /guilsinglright /oe /.notdef /zcaron /Ydieresis
 /space /exclamdown /cent /sterling /currency /yen /brokenbar /section
 /dieresis /copyright /ordfeminine /guillemotleft /logicalnot /hyphen /registered /macron
 /degree /plusminus /twosuperior /threesuperior /acute /mu /paragraph /periodcentered
 /cedilla /onesuperior /ordmasculine /guillemotright /onequarter /onehalf /threequarters /questiondown
 /Agrave /Aacute /Acircumflex /Atilde /Adieresis /Aring /AE /Ccedilla
 /Egrave /Eacute /Ecircumflex /Edieresis /Igrave /Iacute /Icircumflex /Idieresis
 /Eth /Ntilde /Ograve /Oacute /Ocircumflex /Otilde /Odieresis /multiply
 /Oslash /Ugrave /Uacute /Ucircumflex /Udieresis /Yacute /Thorn /germandbls
 /agrave /aacute /acircumflex /atilde /adieresis /aring /ae /ccedilla
 /egrave /eacute /ecircumflex /edieresis /igrave /iacute /icircumflex /idieresis
 /eth /ntilde /ograve /oacute /ocircumflex /otilde /odieresis /divide
 /oslash /ugrave /uacute /ucircumflex /udieresis /yacute /thorn /ydieresis
]
 def
% end encoding
%%IncludeResource: font Helvetica
/Helvetica findfont
dup length dict begin
  {1 index /FID ne {def} {pop pop} ifelse} forall
  /Encoding WinAnsiEncoding def
  currentdict
  end
/Font1 exch definefont pop
%%IncludeResource: font Helvetica-Bold
/Helvetica-Bold findfont
dup length dict begin
  {1 index /FID ne {def} {pop pop} ifelse} forall
  /Encoding WinAnsiEncoding def
  currentdict
  end
/Font2 exch definefont pop
%%IncludeResource: font Helvetica-Oblique
/Helvetica-Oblique findfont
dup length dict begin
  {1 index /FID ne {def} {pop pop} ifelse} forall
  /Encoding WinAnsiEncoding def
  currentdict
  end
/Font3 exch definefont pop
%%IncludeResource: font Helvetica-BoldOblique
/Helvetica-BoldOblique findfont
dup length dict begin
  {1 index /FID ne {def} {pop pop} ifelse} forall
  /Encoding WinAnsiEncoding def
  currentdict
  end
/Font4 exch definefont pop
%%IncludeResource: font Symbol
/Symbol findfont
dup length dict begin
  {1 index /FID ne {def} {pop pop} ifelse} forall
  currentdict
  end
/Font5 exch definefont pop
%%EndProlog
%%Page: 1 1
bp
/bg { 1 1 1 srgb } def
0.00 0.00 412.50 375.00 r p2
59.04 73.44 382.26 315.96 cl
59.04 73.44 382.26 315.96 cl
0.6784 0.8471 0.9020 srgb
0.75 setlinewidth
[] 0 setdash
1 setlinecap
1 setlinejoin
10.00 setmiterlimit
71.01 194.70 1.35 c p1
71.60 194.70 1.35 c p1
72.18 194.70 1.35 c p1
72.77 194.70 1.35 c p1
73.35 194.72 1.35 c p1
73.94 194.79 1.35 c p1
74.53 195.01 1.35 c p1
75.11 195.47 1.35 c p1
75.70 196.23 1.35 c p1
76.28 197.34 1.35 c p1
76.87 198.82 1.35 c p1
77.45 200.64 1.35 c p1
78.04 202.78 1.35 c p1
78.62 205.18 1.35 c p1
79.21 207.79 1.35 c p1
79.80 210.58 1.35 c p1
80.38 213.49 1.35 c p1
80.97 216.49 1.35 c p1
81.55 219.54 1.35 c p1
82.14 222.61 1.35 c p1
82.72 225.68 1.35 c p1
83.31 228.73 1.35 c p1
83.90 231.73 1.35 c p1
84.48 234.68 1.35 c p1
85.07 237.57 1.35 c p1
85.65 240.38 1.35 c p1
86.24 243.12 1.35 c p1
86.82 245.77 1.35 c p1
87.41 248.33 1.35 c p1
88.00 250.81 1.35 c p1
88.58 253.20 1.35 c p1
89.17 255.51 1.35 c p1
89.75 257.73 1.35 c p1
90.34 259.86 1.35 c p1
90.92 261.90 1.35 c p1
91.51 263.87 1.35 c p1
92.10 265.75 1.35 c p1
92.68 267.56 1.35 c p1
93.27 269.29 1.35 c p1
93.85 270.95 1.35 c p1
94.44 272.54 1.35 c p1
95.02 274.06 1.35 c p1
95.61 275.52 1.35 c p1
96.19 276.91 1.35 c p1
96.78 278.24 1.35 c p1
97.37 279.52 1.35 c p1
97.95 280.74 1.35 c p1
98.54 281.90 1.35 c p1
99.12 283.02 1.35 c p1
99.71 284.08 1.35 c p1
100.29 285.10 1.35 c p1
100.88 286.08 1.35 c p1
101.47 287.01 1.35 c p1
102.05 287.90 1.35 c p1
102.64 288.75 1.35 c p1
103.22 289.56 1.35 c p1
103.81 290.33 1.35 c p1
104.39 291.08 1.35 c p1
104.98 291.78 1.35 c p1
105.57 292.46 1.35 c p1
106.15 293.11 1.35 c p1
106.74 293.73 1.35 c p1
107.32 294.32 1.35 c p1
107.91 294.88 1.35 c p1
108.49 295.42 1.35 c p1
109.08 295.94 1.35 c p1
109.67 296.43 1.35 c p1
110.25 296.90 1.35 c p1
110.84 297.35 1.35 c p1
111.42 297.78 1.35 c p1
112.01 298.19 1.35 c p1
112.59 298.58 1.35 c p1
113.18 298.96 1.35 c p1
113.77 299.31 1.35 c p1
114.35 299.66 1.35 c p1
114.94 299.98 1.35 c p1
115.52 300.30 1.35 c p1
116.11 300.59 1.35 c p1
116.69 300.88 1.35 c p1
117.28 301.15 1.35 c p1
117.86 301.41 1.35 c p1
118.45 301.66 1.35 c p1
119.04 301.90 1.35 c p1
119.62 302.12 1.35 c p1
120.21 302.34 1.35 c p1
120.79 302.55 1.35 c p1
121.38 302.74 1.35 c p1
121.96 302.93 1.35 c p1
122.55 303.11 1.35 c p1
123.14 303.29 1.35 c p1
123.72 303.45 1.35 c p1
124.31 303.61 1.35 c p1
124.89 303.76 1.35 c p1
125.48 303.90 1.35 c p1
126.06 304.04 1.35 c p1
126.65 304.17 1.35 c p1
127.24 304.30 1.35 c p1
127.82 304.42 1.35 c p1
128.41 304.53 1.35 c p1
128.99 304.64 1.35 c p1
129.58 304.74 1.35 c p1
130.16 304.84 1.35 c p1
130.75 304.94 1.35 c p1
131.34 305.03 1.35 c p1
131.92 305.12 1.35 c p1
132.51 305.20 1.35 c p1
133.09 305.28 1.35 c p1
133.68 305.36 1.35 c p1
134.26 305.43 1.35 c p1
134.85 305.50 1.35 c p1
135.43 305.56 1.35 c p1
136.02 305.63 1.35 c p1
136.61 305.69 1.35 c p1
137.19 305.74 1.35 c p1
137.78 305.80 1.35 c p1
138.36 305.85 1.35 c p1
138.95 305.90 1.35 c p1
139.53 305.95 1.35 c p1
140.12 306.00 1.35 c p1
140.71 306.04 1.35 c p1
141.29 306.08 1.35 c p1
141.88 306.12 1.35 c p1
142.46 306.16 1.35 c p1
143.05 306.20 1.35 c p1
143.63 306.23 1.35 c p1
144.22 306.27 1.35 c p1
144.81 306.30 1.35 c p1
145.39 306.33 1.35 c p1
145.98 306.36 1.35 c p1
146.56 306.38 1.35 c p1
147.15 306.41 1.35 c p1
147.73 306.44 1.35 c p1
148.32 306.46 1.35 c p1
148.91 306.48 1.35 c p1
149.49 306.51 1.35 c p1
150.08 306.53 1.35 c p1
150.66 306.55 1.35 c p1
151.25 306.57 1.35 c p1
151.83 306.58 1.35 c p1
152.42 306.60 1.35 c p1
153.01 306.62 1.35 c p1
153.59 306.64 1.35 c p1
154.18 306.65 1.35 c p1
154.76 306.67 1.35 c p1
155.35 306.68 1.35 c p1
155.93 306.69 1.35 c p1
156.52 306.71 1.35 c p1
157.10 306.72 1.35 c p1
157.69 306.73 1.35 c p1
158.28 306.74 1.35 c p1
158.86 306.75 1.35 c p1
159.45 306.76 1.35 c p1
160.03 306.77 1.35 c p1
160.62 306.78 1.35 c p1
161.20 306.79 1.35 c p1
161.79 306.80 1.35 c p1
162.38 306.81 1.35 c p1
162.96 306.81 1.35 c p1
163.55 306.82 1.35 c p1
164.13 306.83 1.35 c p1
164.72 306.83 1.35 c p1
165.30 306.84 1.35 c p1
165.89 306.85 1.35 c p1
166.48 306.85 1.35 c p1
167.06 306.86 1.35 c p1
167.65 306.86 1.35 c p1
168.23 306.87 1.35 c p1
168.82 306.87 1.35 c p1
169.40 306.88 1.35 c p1
169.99 306.88 1.35 c p1
170.58 306.89 1.35 c p1
171.16 306.89 1.35 c p1
171.75 306.90 1.35 c p1
172.33 306.90 1.35 c p1
172.92 306.90 1.35 c p1
173.50 306.91 1.35 c p1
174.09 306.91 1.35 c p1
174.67 306.91 1.35 c p1
175.26 306.92 1.35 c p1
175.85 306.92 1.35 c p1
176.43 306.92 1.35 c p1
177.02 306.92 1.35 c p1
177.60 306.93 1.35 c p1
178.19 306.93 1.35 c p1
178.77 306.93 1.35 c p1
179.36 306.93 1.35 c p1
179.95 306.94 1.35 c p1
180.53 306.94 1.35 c p1
181.12 306.94 1.35 c p1
181.70 306.94 1.35 c p1
182.29 306.94 1.35 c p1
182.87 306.94 1.35 c p1
183.46 306.95 1.35 c p1
184.05 306.95 1.35 c p1
184.63 306.95 1.35 c p1
185.22 306.95 1.35 c p1
185.80 306.95 1.35 c p1
186.39 306.95 1.35 c p1
186.97 306.95 1.35 c p1
187.56 306.95 1.35 c p1
188.15 306.96 1.35 c p1
188.73 306.96 1.35 c p1
189.32 306.96 1.35 c p1
189.90 306.96 1.35 c p1
190.49 306.96 1.35 c p1
191.07 306.96 1.35 c p1
191.66 306.96 1.35 c p1
192.25 306.96 1.35 c p1
192.83 306.96 1.35 c p1
193.42 306.96 1.35 c p1
194.00 306.96 1.35 c p1
194.59 306.97 1.35 c p1
195.17 306.97 1.35 c p1
195.76 306.97 1.35 c p1
196.34 306.97 1.35 c p1
196.93 306.97 1.35 c p1
197.52 306.97 1.35 c p1
198.10 306.97 1.35 c p1
198.69 306.97 1.35 c p1
199.27 306.97 1.35 c p1
199.86 306.97 1.35 c p1
200.44 306.97 1.35 c p1
201.03 306.97 1.35 c p1
201.62 306.97 1.35 c p1
202.20 306.97 1.35 c p1
202.79 306.97 1.35 c p1
203.37 306.97 1.35 c p1
203.96 306.97 1.35 c p1
204.54 306.97 1.35 c p1
205.13 306.97 1.35 c p1
205.72 306.97 1.35 c p1
206.30 306.97 1.35 c p1
206.89 306.97 1.35 c p1
207.47 306.97 1.35 c p1
208.06 306.97 1.35 c p1
208.64 306.97 1.35 c p1
209.23 306.97 1.35 c p1
209.82 306.97 1.35 c p1
210.40 306.98 1.35 c p1
210.99 306.98 1.35 c p1
211.57 306.98 1.35 c p1
212.16 306.98 1.35 c p1
212.74 306.98 1.35 c p1
213.33 306.98 1.35 c p1
213.91 306.98 1.35 c p1
214.50 306.98 1.35 c p1
215.09 306.98 1.35 c p1
215.67 306.98 1.35 c p1
216.26 306.98 1.35 c p1
216.84 306.98 1.35 c p1
217.43 306.98 1.35 c p1
218.01 306.98 1.35 c p1
218.60 306.98 1.35 c p1
219.19 306.98 1.35 c p1
219.77 306.98 1.35 c p1
220.36 306.98 1.35 c p1
220.94 306.98 1.35 c p1
221.53 306.98 1.35 c p1
222.11 306.98 1.35 c p1
222.70 306.98 1.35 c p1
223.29 306.98 1.35 c p1
223.87 306.98 1.35 c p1
224.46 306.98 1.35 c p1
225.04 306.98 1.35 c p1
225.63 306.98 1.35 c p1
226.21 306.98 1.35 c p1
226.80 306.98 1.35 c p1
227.39 306.98 1.35 c p1
227.97 306.98 1.35 c p1
228.56 306.98 1.35 c p1
229.14 306.98 1.35 c p1
229.73 306.98 1.35 c p1
230.31 306.98 1.35 c p1
230.90 306.98 1.35 c p1
231.49 306.97 1.35 c p1
232.07 306.97 1.35 c p1
232.66 306.97 1.35 c p1
233.24 306.97 1.35 c p1
233.83 306.97 1.35 c p1
234.41 306.97 1.35 c p1
235.00 306.97 1.35 c p1
235.58 306.97 1.35 c p1
236.17 306.97 1.35 c p1
236.76 306.97 1.35 c p1
237.34 306.97 1.35 c p1
237.93 306.97 1.35 c p1
238.51 306.97 1.35 c p1
239.10 306.97 1.35 c p1
239.68 306.97 1.35 c p1
240.27 306.97 1.35 c p1
240.86 306.97 1.35 c p1
241.44 306.97 1.35 c p1
242.03 306.97 1.35 c p1
242.61 306.97 1.35 c p1
243.20 306.97 1.35 c p1
243.78 306.97 1.35 c p1
244.37 306.97 1.35 c p1
244.96 306.97 1.35 c p1
245.54 306.97 1.35 c p1
246.13 306.97 1.35 c p1
246.71 306.97 1.35 c p1
247.30 306.96 1.35 c p1
247.88 306.96 1.35 c p1
248.47 306.96 1.35 c p1
249.06 306.96 1.35 c p1
249.64 306.96 1.35 c p1
250.23 306.96 1.35 c p1
250.81 306.96 1.35 c p1
251.40 306.96 1.35 c p1
251.98 306.96 1.35 c p1
252.57 306.96 1.35 c p1
253.15 306.96 1.35 c p1
253.74 306.95 1.35 c p1
254.33 306.95 1.35 c p1
254.91 306.95 1.35 c p1
255.50 306.95 1.35 c p1
256.08 306.95 1.35 c p1
256.67 306.95 1.35 c p1
257.25 306.95 1.35 c p1
257.84 306.95 1.35 c p1
258.43 306.94 1.35 c p1
259.01 306.94 1.35 c p1
259.60 306.94 1.35 c p1
260.18 306.94 1.35 c p1
260.77 306.94 1.35 c p1
261.35 306.94 1.35 c p1
261.94 306.93 1.35 c p1
262.53 306.93 1.35 c p1
263.11 306.93 1.35 c p1
263.70 306.93 1.35 c p1
264.28 306.92 1.35 c p1
264.87 306.92 1.35 c p1
265.45 306.92 1.35 c p1
266.04 306.92 1.35 c p1
266.63 306.91 1.35 c p1
267.21 306.91 1.35 c p1
267.80 306.91 1.35 c p1
268.38 306.90 1.35 c p1
268.97 306.90 1.35 c p1
269.55 306.90 1.35 c p1
270.14 306.89 1.35 c p1
270.73 306.89 1.35 c p1
271.31 306.88 1.35 c p1
271.90 306.88 1.35 c p1
272.48 306.87 1.35 c p1
273.07 306.87 1.35 c p1
273.65 306.86 1.35 c p1
274.24 306.86 1.35 c p1
274.82 306.85 1.35 c p1
275.41 306.85 1.35 c p1
276.00 306.84 1.35 c p1
276.58 306.83 1.35 c p1
277.17 306.83 1.35 c p1
277.75 306.82 1.35 c p1
278.34 306.81 1.35 c p1
278.92 306.81 1.35 c p1
279.51 306.80 1.35 c p1
280.10 306.79 1.35 c p1
280.68 306.78 1.35 c p1
281.27 306.77 1.35 c p1
281.85 306.76 1.35 c p1
282.44 306.75 1.35 c p1
283.02 306.74 1.35 c p1
283.61 306.73 1.35 c p1
284.20 306.72 1.35 c p1
284.78 306.71 1.35 c p1
285.37 306.69 1.35 c p1
285.95 306.68 1.35 c p1
286.54 306.67 1.35 c p1
287.12 306.65 1.35 c p1
287.71 306.64 1.35 c p1
288.30 306.62 1.35 c p1
288.88 306.60 1.35 c p1
289.47 306.58 1.35 c p1
290.05 306.57 1.35 c p1
290.64 306.55 1.35 c p1
291.22 306.53 1.35 c p1
291.81 306.51 1.35 c p1
292.39 306.48 1.35 c p1
292.98 306.46 1.35 c p1
293.57 306.44 1.35 c p1
294.15 306.41 1.35 c p1
294.74 306.38 1.35 c p1
295.32 306.36 1.35 c p1
295.91 306.33 1.35 c p1
296.49 306.30 1.35 c p1
297.08 306.27 1.35 c p1
297.67 306.23 1.35 c p1
298.25 306.20 1.35 c p1
298.84 306.16 1.35 c p1
299.42 306.12 1.35 c p1
300.01 306.08 1.35 c p1
300.59 306.04 1.35 c p1
301.18 306.00 1.35 c p1
301.77 305.95 1.35 c p1
302.35 305.90 1.35 c p1
302.94 305.85 1.35 c p1
303.52 305.80 1.35 c p1
304.11 305.74 1.35 c p1
304.69 305.69 1.35 c p1
305.28 305.63 1.35 c p1
305.87 305.56 1.35 c p1
306.45 305.50 1.35 c p1
307.04 305.43 1.35 c p1
307.62 305.36 1.35 c p1
308.21 305.28 1.35 c p1
308.79 305.20 1.35 c p1
309.38 305.12 1.35 c p1
309.96 305.03 1.35 c p1
310.55 304.94 1.35 c p1
311.14 304.84 1.35 c p1
311.72 304.74 1.35 c p1
312.31 304.64 1.35 c p1
312.89 304.53 1.35 c p1
313.48 304.42 1.35 c p1
314.06 304.30 1.35 c p1
314.65 304.17 1.35 c p1
315.24 304.04 1.35 c p1
315.82 303.90 1.35 c p1
316.41 303.76 1.35 c p1
316.99 303.61 1.35 c p1
317.58 303.45 1.35 c p1
318.16 303.29 1.35 c p1
318.75 303.11 1.35 c p1
319.34 302.93 1.35 c p1
319.92 302.74 1.35 c p1
320.51 302.55 1.35 c p1
321.09 302.34 1.35 c p1
321.68 302.12 1.35 c p1
322.26 301.90 1.35 c p1
322.85 301.66 1.35 c p1
323.44 301.41 1.35 c p1
324.02 301.15 1.35 c p1
324.61 300.88 1.35 c p1
325.19 300.59 1.35 c p1
325.78 300.30 1.35 c p1
326.36 299.98 1.35 c p1
326.95 299.66 1.35 c p1
327.54 299.31 1.35 c p1
328.12 298.96 1.35 c p1
328.71 298.58 1.35 c p1
329.29 298.19 1.35 c p1
329.88 297.78 1.35 c p1
330.46 297.35 1.35 c p1
331.05 296.90 1.35 c p1
331.63 296.43 1.35 c p1
332.22 295.94 1.35 c p1
332.81 295.42 1.35 c p1
333.39 294.88 1.35 c p1
333.98 294.32 1.35 c p1
334.56 293.73 1.35 c p1
335.15 293.11 1.35 c p1
335.73 292.46 1.35 c p1
336.32 291.78 1.35 c p1
336.91 291.08 1.35 c p1
337.49 290.33 1.35 c p1
338.08 289.56 1.35 c p1
338.66 288.75 1.35 c p1
339.25 287.90 1.35 c p1
339.83 287.01 1.35 c p1
340.42 286.08 1.35 c p1
341.01 285.10 1.35 c p1
341.59 284.08 1.35 c p1
342.18 283.02 1.35 c p1
342.76 281.90 1.35 c p1
343.35 280.74 1.35 c p1
343.93 279.52 1.35 c p1
344.52 278.24 1.35 c p1
345.11 276.91 1.35 c p1
345.69 275.52 1.35 c p1
346.28 274.06 1.35 c p1
346.86 272.54 1.35 c p1
347.45 270.95 1.35 c p1
348.03 269.29 1.35 c p1
348.62 267.56 1.35 c p1
349.20 265.75 1.35 c p1
349.79 263.87 1.35 c p1
350.38 261.90 1.35 c p1
350.96 259.86 1.35 c p1
351.55 257.73 1.35 c p1
352.13 255.51 1.35 c p1
352.72 253.20 1.35 c p1
353.30 250.81 1.35 c p1
353.89 248.33 1.35 c p1
354.48 245.77 1.35 c p1
355.06 243.12 1.35 c p1
355.65 240.38 1.35 c p1
356.23 237.57 1.35 c p1
356.82 234.68 1.35 c p1
357.40 231.73 1.35 c p1
357.99 228.73 1.35 c p1
358.58 225.68 1.35 c p1
359.16 222.61 1.35 c p1
359.75 219.54 1.35 c p1
360.33 216.49 1.35 c p1
360.92 213.49 1.35 c p1
361.50 210.58 1.35 c p1
362.09 207.79 1.35 c p1
362.68 205.18 1.35 c p1
363.26 202.78 1.35 c p1
363.85 200.64 1.35 c p1
364.43 198.82 1.35 c p1
365.02 197.34 1.35 c p1
365.60 196.23 1.35 c p1
366.19 195.47 1.35 c p1
366.78 195.01 1.35 c p1
367.36 194.79 1.35 c p1
367.95 194.72 1.35 c p1
368.53 194.70 1.35 c p1
369.12 194.70 1.35 c p1
369.70 194.70 1.35 c p1
370.29 194.70 1.35 c p1
0.00 0.00 412.50 375.00 cl
0 0 0 srgb
0.75 setlinewidth
[] 0 setdash
1 setlinecap
1 setlinejoin
10.00 setmiterlimit
np
70.43 73.44 m
296.35 0 l
o
np
70.43 73.44 m
0 -7.20 l
o
np
129.70 73.44 m
0 -7.20 l
o
np
188.97 73.44 m
0 -7.20 l
o
np
248.24 73.44 m
0 -7.20 l
o
np
307.51 73.44 m
0 -7.20 l
o
np
366.78 73.44 m
0 -7.20 l
o
/Font1 findfont 12 s
70.43 47.52 (0.0) .5 0 t
129.70 47.52 (0.1) .5 0 t
188.97 47.52 (0.2) .5 0 t
248.24 47.52 (0.3) .5 0 t
307.51 47.52 (0.4) .5 0 t
366.78 47.52 (0.5) .5 0 t
np
59.04 82.42 m
0 224.56 l
o
np
59.04 82.42 m
-7.20 0 l
o
np
59.04 138.56 m
-7.20 0 l
o
np
59.04 194.70 m
-7.20 0 l
o
np
59.04 250.84 m
-7.20 0 l
o
np
59.04 306.98 m
-7.20 0 l
o
41.76 82.42 (-1.0) .5 90 t
41.76 138.56 (-0.5) .5 90 t
41.76 194.70 (0.0) .5 90 t
41.76 250.84 (0.5) .5 90 t
41.76 306.98 (1.0) .5 90 t
np
59.04 73.44 m
323.22 0 l
0 242.52 l
-323.22 0 l
0 -242.52 l
o
0.00 0.00 412.50 375.00 cl
/Font1 findfont 12 s
0 0 0 srgb
218.09 20.92 (t) 0 0 t
/Font1 findfont 8 s
221.43 18.72 (i) 0 0 t
/Font1 findfont 12 s
10.76 190.15 (T) 0 90 t
/Font1 findfont 8 s
12.96 197.48 (i) 0 90 t
59.04 73.44 382.26 315.96 cl
1 0.8431 0 srgb
0.75 setlinewidth
[] 0 setdash
1 setlinecap
1 setlinejoin
10.00 setmiterlimit
71.01 109.94 1.62 c p1
71.60 109.38 1.62 c p1
72.18 108.83 1.62 c p1
72.77 108.28 1.62 c p1
73.35 107.75 1.62 c p1
73.94 107.34 1.62 c p1
74.53 107.20 1.62 c p1
75.11 107.51 1.62 c p1
75.70 108.40 1.62 c p1
76.28 109.97 1.62 c p1
76.87 112.22 1.62 c p1
77.45 115.13 1.62 c p1
78.04 118.63 1.62 c p1
78.62 122.63 1.62 c p1
79.21 127.04 1.62 c p1
79.80 131.78 1.62 c p1
80.38 136.76 1.62 c p1
80.97 141.91 1.62 c p1
81.55 147.15 1.62 c p1
82.14 152.43 1.62 c p1
82.72 157.71 1.62 c p1
83.31 162.94 1.62 c p1
83.90 168.09 1.62 c p1
84.48 173.15 1.62 c p1
85.07 178.07 1.62 c p1
85.65 182.86 1.62 c p1
86.24 187.50 1.62 c p1
86.82 191.99 1.62 c p1
87.41 196.31 1.62 c p1
88.00 200.46 1.62 c p1
88.58 204.45 1.62 c p1
89.17 208.28 1.62 c p1
89.75 211.93 1.62 c p1
90.34 215.43 1.62 c p1
90.92 218.76 1.62 c p1
91.51 221.94 1.62 c p1
92.10 224.97 1.62 c p1
92.68 227.85 1.62 c p1
93.27 230.58 1.62 c p1
93.85 233.18 1.62 c p1
94.44 235.65 1.62 c p1
95.02 237.98 1.62 c p1
95.61 240.19 1.62 c p1
96.19 242.28 1.62 c p1
96.78 244.26 1.62 c p1
97.37 246.13 1.62 c p1
97.95 247.89 1.62 c p1
98.54 249.55 1.62 c p1
99.12 251.11 1.62 c p1
99.71 252.58 1.62 c p1
100.29 253.96 1.62 c p1
100.88 255.26 1.62 c p1
101.47 256.47 1.62 c p1
102.05 257.61 1.62 c p1
102.64 258.67 1.62 c p1
103.22 259.66 1.62 c p1
103.81 260.58 1.62 c p1
104.39 261.43 1.62 c p1
104.98 262.22 1.62 c p1
105.57 262.96 1.62 c p1
106.15 263.63 1.62 c p1
106.74 264.25 1.62 c p1
107.32 264.82 1.62 c p1
107.91 265.34 1.62 c p1
108.49 265.81 1.62 c p1
109.08 266.23 1.62 c p1
109.67 266.61 1.62 c p1
110.25 266.95 1.62 c p1
110.84 267.25 1.62 c p1
111.42 267.51 1.62 c p1
112.01 267.74 1.62 c p1
112.59 267.93 1.62 c p1
113.18 268.08 1.62 c p1
113.77 268.21 1.62 c p1
114.35 268.30 1.62 c p1
114.94 268.37 1.62 c p1
115.52 268.41 1.62 c p1
116.11 268.42 1.62 c p1
116.69 268.41 1.62 c p1
117.28 268.37 1.62 c p1
117.86 268.31 1.62 c p1
118.45 268.23 1.62 c p1
119.04 268.12 1.62 c p1
119.62 268.00 1.62 c p1
120.21 267.86 1.62 c p1
120.79 267.69 1.62 c p1
121.38 267.52 1.62 c p1
121.96 267.32 1.62 c p1
122.55 267.11 1.62 c p1
123.14 266.88 1.62 c p1
123.72 266.64 1.62 c p1
124.31 266.38 1.62 c p1
124.89 266.11 1.62 c p1
125.48 265.83 1.62 c p1
126.06 265.54 1.62 c p1
126.65 265.23 1.62 c p1
127.24 264.92 1.62 c p1
127.82 264.59 1.62 c p1
128.41 264.25 1.62 c p1
128.99 263.90 1.62 c p1
129.58 263.55 1.62 c p1
130.16 263.18 1.62 c p1
130.75 262.81 1.62 c p1
131.34 262.43 1.62 c p1
131.92 262.04 1.62 c p1
132.51 261.64 1.62 c p1
133.09 261.24 1.62 c p1
133.68 260.83 1.62 c p1
134.26 260.41 1.62 c p1
134.85 259.99 1.62 c p1
135.43 259.56 1.62 c p1
136.02 259.12 1.62 c p1
136.61 258.68 1.62 c p1
137.19 258.24 1.62 c p1
137.78 257.79 1.62 c p1
138.36 257.33 1.62 c p1
138.95 256.87 1.62 c p1
139.53 256.41 1.62 c p1
140.12 255.94 1.62 c p1
140.71 255.47 1.62 c p1
141.29 255.00 1.62 c p1
141.88 254.52 1.62 c p1
142.46 254.03 1.62 c p1
143.05 253.55 1.62 c p1
143.63 253.06 1.62 c p1
144.22 252.57 1.62 c p1
144.81 252.08 1.62 c p1
145.39 251.58 1.62 c p1
145.98 251.08 1.62 c p1
146.56 250.58 1.62 c p1
147.15 250.07 1.62 c p1
147.73 249.57 1.62 c p1
148.32 249.06 1.62 c p1
148.91 248.55 1.62 c p1
149.49 248.03 1.62 c p1
150.08 247.52 1.62 c p1
150.66 247.00 1.62 c p1
151.25 246.48 1.62 c p1
151.83 245.97 1.62 c p1
152.42 245.44 1.62 c p1
153.01 244.92 1.62 c p1
153.59 244.40 1.62 c p1
154.18 243.87 1.62 c p1
154.76 243.34 1.62 c p1
155.35 242.82 1.62 c p1
155.93 242.29 1.62 c p1
156.52 241.76 1.62 c p1
157.10 241.23 1.62 c p1
157.69 240.69 1.62 c p1
158.28 240.16 1.62 c p1
158.86 239.62 1.62 c p1
159.45 239.09 1.62 c p1
160.03 238.55 1.62 c p1
160.62 238.02 1.62 c p1
161.20 237.48 1.62 c p1
161.79 236.94 1.62 c p1
162.38 236.40 1.62 c p1
162.96 235.86 1.62 c p1
163.55 235.32 1.62 c p1
164.13 234.78 1.62 c p1
164.72 234.24 1.62 c p1
165.30 233.69 1.62 c p1
165.89 233.15 1.62 c p1
166.48 232.61 1.62 c p1
167.06 232.06 1.62 c p1
167.65 231.52 1.62 c p1
168.23 230.97 1.62 c p1
168.82 230.43 1.62 c p1
169.40 229.88 1.62 c p1
169.99 229.34 1.62 c p1
170.58 228.79 1.62 c p1
171.16 228.24 1.62 c p1
171.75 227.69 1.62 c p1
172.33 227.15 1.62 c p1
172.92 226.60 1.62 c p1
173.50 226.05 1.62 c p1
174.09 225.50 1.62 c p1
174.67 224.95 1.62 c p1
175.26 224.40 1.62 c p1
175.85 223.86 1.62 c p1
176.43 223.31 1.62 c p1
177.02 222.76 1.62 c p1
177.60 222.21 1.62 c p1
178.19 221.66 1.62 c p1
178.77 221.11 1.62 c p1
179.36 220.55 1.62 c p1
179.95 220.00 1.62 c p1
180.53 219.45 1.62 c p1
181.12 218.90 1.62 c p1
181.70 218.35 1.62 c p1
182.29 217.80 1.62 c p1
182.87 217.25 1.62 c p1
183.46 216.70 1.62 c p1
184.05 216.14 1.62 c p1
184.63 215.59 1.62 c p1
185.22 215.04 1.62 c p1
185.80 214.49 1.62 c p1
186.39 213.93 1.62 c p1
186.97 213.38 1.62 c p1
187.56 212.83 1.62 c p1
188.15 212.28 1.62 c p1
188.73 211.72 1.62 c p1
189.32 211.17 1.62 c p1
189.90 210.62 1.62 c p1
190.49 210.07 1.62 c p1
191.07 209.51 1.62 c p1
191.66 208.96 1.62 c p1
192.25 208.41 1.62 c p1
192.83 207.85 1.62 c p1
193.42 207.30 1.62 c p1
194.00 206.75 1.62 c p1
194.59 206.19 1.62 c p1
195.17 205.64 1.62 c p1
195.76 205.09 1.62 c p1
196.34 204.53 1.62 c p1
196.93 203.98 1.62 c p1
197.52 203.42 1.62 c p1
198.10 202.87 1.62 c p1
198.69 202.32 1.62 c p1
199.27 201.76 1.62 c p1
199.86 201.21 1.62 c p1
200.44 200.65 1.62 c p1
201.03 200.10 1.62 c p1
201.62 199.55 1.62 c p1
202.20 198.99 1.62 c p1
202.79 198.44 1.62 c p1
203.37 197.88 1.62 c p1
203.96 197.33 1.62 c p1
204.54 196.78 1.62 c p1
205.13 196.22 1.62 c p1
205.72 195.67 1.62 c p1
206.30 195.11 1.62 c p1
206.89 194.56 1.62 c p1
207.47 194.01 1.62 c p1
208.06 193.45 1.62 c p1
208.64 192.90 1.62 c p1
209.23 192.34 1.62 c p1
209.82 191.79 1.62 c p1
210.40 191.23 1.62 c p1
210.99 190.68 1.62 c p1
211.57 190.12 1.62 c p1
212.16 189.57 1.62 c p1
212.74 189.02 1.62 c p1
213.33 188.46 1.62 c p1
213.91 187.91 1.62 c p1
214.50 187.35 1.62 c p1
215.09 186.80 1.62 c p1
215.67 186.24 1.62 c p1
216.26 185.69 1.62 c p1
216.84 185.13 1.62 c p1
217.43 184.58 1.62 c p1
218.01 184.03 1.62 c p1
218.60 183.47 1.62 c p1
219.19 182.92 1.62 c p1
219.77 182.36 1.62 c p1
220.36 181.81 1.62 c p1
220.94 181.81 1.62 c p1
221.53 182.36 1.62 c p1
222.11 182.92 1.62 c p1
222.70 183.47 1.62 c p1
223.29 184.03 1.62 c p1
223.87 184.58 1.62 c p1
224.46 185.13 1.62 c p1
225.04 185.69 1.62 c p1
225.63 186.24 1.62 c p1
226.21 186.80 1.62 c p1
226.80 187.35 1.62 c p1
227.39 187.91 1.62 c p1
227.97 188.46 1.62 c p1
228.56 189.02 1.62 c p1
229.14 189.57 1.62 c p1
229.73 190.12 1.62 c p1
230.31 190.68 1.62 c p1
230.90 191.23 1.62 c p1
231.49 191.79 1.62 c p1
232.07 192.34 1.62 c p1
232.66 192.90 1.62 c p1
233.24 193.45 1.62 c p1
233.83 194.01 1.62 c p1
234.41 194.56 1.62 c p1
235.00 195.11 1.62 c p1
235.58 195.67 1.62 c p1
236.17 196.22 1.62 c p1
236.76 196.78 1.62 c p1
237.34 197.33 1.62 c p1
237.93 197.88 1.62 c p1
238.51 198.44 1.62 c p1
239.10 198.99 1.62 c p1
239.68 199.55 1.62 c p1
240.27 200.10 1.62 c p1
240.86 200.65 1.62 c p1
241.44 201.21 1.62 c p1
242.03 201.76 1.62 c p1
242.61 202.32 1.62 c p1
243.20 202.87 1.62 c p1
243.78 203.42 1.62 c p1
244.37 203.98 1.62 c p1
244.96 204.53 1.62 c p1
245.54 205.09 1.62 c p1
246.13 205.64 1.62 c p1
246.71 206.19 1.62 c p1
247.30 206.75 1.62 c p1
247.88 207.30 1.62 c p1
248.47 207.85 1.62 c p1
249.06 208.41 1.62 c p1
249.64 208.96 1.62 c p1
250.23 209.51 1.62 c p1
250.81 210.07 1.62 c p1
251.40 210.62 1.62 c p1
251.98 211.17 1.62 c p1
252.57 211.72 1.62 c p1
253.15 212.28 1.62 c p1
253.74 212.83 1.62 c p1
254.33 213.38 1.62 c p1
254.91 213.93 1.62 c p1
255.50 214.49 1.62 c p1
256.08 215.04 1.62 c p1
256.67 215.59 1.62 c p1
257.25 216.14 1.62 c p1
257.84 216.70 1.62 c p1
258.43 217.25 1.62 c p1
259.01 217.80 1.62 c p1
259.60 218.35 1.62 c p1
260.18 218.90 1.62 c p1
260.77 219.45 1.62 c p1
261.35 220.00 1.62 c p1
261.94 220.55 1.62 c p1
262.53 221.11 1.62 c p1
263.11 221.66 1.62 c p1
263.70 222.21 1.62 c p1
264.28 222.76 1.62 c p1
264.87 223.31 1.62 c p1
265.45 223.86 1.62 c p1
266.04 224.40 1.62 c p1
266.63 224.95 1.62 c p1
267.21 225.50 1.62 c p1
267.80 226.05 1.62 c p1
268.38 226.60 1.62 c p1
268.97 227.15 1.62 c p1
269.55 227.69 1.62 c p1
270.14 228.24 1.62 c p1
270.73 228.79 1.62 c p1
271.31 229.34 1.62 c p1
271.90 229.88 1.62 c p1
272.48 230.43 1.62 c p1
273.07 230.97 1.62 c p1
273.65 231.52 1.62 c p1
274.24 232.06 1.62 c p1
274.82 232.61 1.62 c p1
275.41 233.15 1.62 c p1
276.00 233.69 1.62 c p1
276.58 234.24 1.62 c p1
277.17 234.78 1.62 c p1
277.75 235.32 1.62 c p1
278.34 235.86 1.62 c p1
278.92 236.40 1.62 c p1
279.51 236.94 1.62 c p1
280.10 237.48 1.62 c p1
280.68 238.02 1.62 c p1
281.27 238.55 1.62 c p1
281.85 239.09 1.62 c p1
282.44 239.62 1.62 c p1
283.02 240.16 1.62 c p1
283.61 240.69 1.62 c p1
284.20 241.23 1.62 c p1
284.78 241.76 1.62 c p1
285.37 242.29 1.62 c p1
285.95 242.82 1.62 c p1
286.54 243.34 1.62 c p1
287.12 243.87 1.62 c p1
287.71 244.40 1.62 c p1
288.30 244.92 1.62 c p1
288.88 245.44 1.62 c p1
289.47 245.97 1.62 c p1
290.05 246.48 1.62 c p1
290.64 247.00 1.62 c p1
291.22 247.52 1.62 c p1
291.81 248.03 1.62 c p1
292.39 248.55 1.62 c p1
292.98 249.06 1.62 c p1
293.57 249.57 1.62 c p1
294.15 250.07 1.62 c p1
294.74 250.58 1.62 c p1
295.32 251.08 1.62 c p1
295.91 251.58 1.62 c p1
296.49 252.08 1.62 c p1
297.08 252.57 1.62 c p1
297.67 253.06 1.62 c p1
298.25 253.55 1.62 c p1
298.84 254.03 1.62 c p1
299.42 254.52 1.62 c p1
300.01 255.00 1.62 c p1
300.59 255.47 1.62 c p1
301.18 255.94 1.62 c p1
301.77 256.41 1.62 c p1
302.35 256.87 1.62 c p1
302.94 257.33 1.62 c p1
303.52 257.79 1.62 c p1
304.11 258.24 1.62 c p1
304.69 258.68 1.62 c p1
305.28 259.12 1.62 c p1
305.87 259.56 1.62 c p1
306.45 259.99 1.62 c p1
307.04 260.41 1.62 c p1
307.62 260.83 1.62 c p1
308.21 261.24 1.62 c p1
308.79 261.64 1.62 c p1
309.38 262.04 1.62 c p1
309.96 262.43 1.62 c p1
310.55 262.81 1.62 c p1
311.14 263.18 1.62 c p1
311.72 263.55 1.62 c p1
312.31 263.90 1.62 c p1
312.89 264.25 1.62 c p1
313.48 264.59 1.62 c p1
314.06 264.92 1.62 c p1
314.65 265.23 1.62 c p1
315.24 265.54 1.62 c p1
315.82 265.83 1.62 c p1
316.41 266.11 1.62 c p1
316.99 266.38 1.62 c p1
317.58 266.64 1.62 c p1
318.16 266.88 1.62 c p1
318.75 267.11 1.62 c p1
319.34 267.32 1.62 c p1
319.92 267.52 1.62 c p1
320.51 267.69 1.62 c p1
321.09 267.86 1.62 c p1
321.68 268.00 1.62 c p1
322.26 268.12 1.62 c p1
322.85 268.23 1.62 c p1
323.44 268.31 1.62 c p1
324.02 268.37 1.62 c p1
324.61 268.41 1.62 c p1
325.19 268.42 1.62 c p1
325.78 268.41 1.62 c p1
326.36 268.37 1.62 c p1
326.95 268.30 1.62 c p1
327.54 268.21 1.62 c p1
328.12 268.08 1.62 c p1
328.71 267.93 1.62 c p1
329.29 267.74 1.62 c p1
329.88 267.51 1.62 c p1
330.46 267.25 1.62 c p1
331.05 266.95 1.62 c p1
331.63 266.61 1.62 c p1
332.22 266.23 1.62 c p1
332.81 265.81 1.62 c p1
333.39 265.34 1.62 c p1
333.98 264.82 1.62 c p1
334.56 264.25 1.62 c p1
335.15 263.63 1.62 c p1
335.73 262.96 1.62 c p1
336.32 262.22 1.62 c p1
336.91 261.43 1.62 c p1
337.49 260.58 1.62 c p1
338.08 259.66 1.62 c p1
338.66 258.67 1.62 c p1
339.25 257.61 1.62 c p1
339.83 256.47 1.62 c p1
340.42 255.26 1.62 c p1
341.01 253.96 1.62 c p1
341.59 252.58 1.62 c p1
342.18 251.11 1.62 c p1
342.76 249.55 1.62 c p1
343.35 247.89 1.62 c p1
343.93 246.13 1.62 c p1
344.52 244.26 1.62 c p1
345.11 242.28 1.62 c p1
345.69 240.19 1.62 c p1
346.28 237.98 1.62 c p1
346.86 235.65 1.62 c p1
347.45 233.18 1.62 c p1
348.03 230.58 1.62 c p1
348.62 227.85 1.62 c p1
349.20 224.97 1.62 c p1
349.79 221.94 1.62 c p1
350.38 218.76 1.62 c p1
350.96 215.43 1.62 c p1
351.55 211.93 1.62 c p1
352.13 208.28 1.62 c p1
352.72 204.45 1.62 c p1
353.30 200.46 1.62 c p1
353.89 196.31 1.62 c p1
354.48 191.99 1.62 c p1
355.06 187.50 1.62 c p1
355.65 182.86 1.62 c p1
356.23 178.07 1.62 c p1
356.82 173.15 1.62 c p1
357.40 168.09 1.62 c p1
357.99 162.94 1.62 c p1
358.58 157.71 1.62 c p1
359.16 152.43 1.62 c p1
359.75 147.15 1.62 c p1
360.33 141.91 1.62 c p1
360.92 136.76 1.62 c p1
361.50 131.78 1.62 c p1
362.09 127.04 1.62 c p1
362.68 122.63 1.62 c p1
363.26 118.63 1.62 c p1
363.85 115.13 1.62 c p1
364.43 112.22 1.62 c p1
365.02 109.97 1.62 c p1
365.60 108.40 1.62 c p1
366.19 107.51 1.62 c p1
366.78 107.20 1.62 c p1
367.36 107.34 1.62 c p1
367.95 107.75 1.62 c p1
368.53 108.28 1.62 c p1
369.12 108.83 1.62 c p1
369.70 109.38 1.62 c p1
370.29 109.94 1.62 c p1
0 1 0 srgb
np
70.43 73.44 m
0 242.52 l
o
np
220.36 73.44 m
0 242.52 l
o
np
370.29 73.44 m
0 242.52 l
o
/bg { 1 1 1 srgb } def
0 0 0 srgb
248.24 183.47 59.86 -33.31 r p3
0.6784 0.8471 0.9020 srgb
257.81 172.37 1.62 c p1
1 0.8431 0 srgb
257.81 161.27 1.62 c p1
/Font1 findfont 12 s
0 0 0 srgb
267.39 168.06 (Cur) 0 ta
0.360 (v) tb
-0.300 (e 1) tb gr
267.39 156.96 (Cur) 0 ta
0.360 (v) tb
-0.300 (e 2) tb gr
ep
%%Trailer
%%Pages: 1
%%EOF
