%!PS-Adobe-3.0 EPSF-3.0
%%DocumentNeededResources: font Helvetica
%%+ font Helvetica-Bold
%%+ font Helvetica-Oblique
%%+ font Helvetica-BoldOblique
%%+ font Symbol
%%Title: R Graphics Output
%%Creator: R Software
%%Pages: (atend)
%%BoundingBox: 0 0 375 300
%%EndComments
%%BeginProlog
/bp  { gs sRGB gs } def
% begin .ps.prolog
/gs  { gsave } bind def
/gr  { grestore } bind def
/ep  { showpage gr gr } bind def
/m   { moveto } bind def
/l  { rlineto } bind def
/np  { newpath } bind def
/cp  { closepath } bind def
/f   { fill } bind def
/o   { stroke } bind def
/c   { newpath 0 360 arc } bind def
/r   { 4 2 roll moveto 1 copy 3 -1 roll exch 0 exch rlineto 0 rlineto -1 mul 0 exch rlineto closepath } bind def
/p1  { stroke } bind def
/p2  { gsave bg fill grestore newpath } bind def
/p3  { gsave bg fill grestore stroke } bind def
/p6  { gsave bg eofill grestore newpath } bind def
/p7  { gsave bg eofill grestore stroke } bind def
/t   { 5 -2 roll moveto gsave rotate
       1 index stringwidth pop
       mul neg 0 rmoveto show grestore } bind def
/ta  { 4 -2 roll moveto gsave rotate show } bind def
/tb  { 2 -1 roll 0 rmoveto show } bind def
/cl  { grestore gsave newpath 3 index 3 index moveto 1 index
       4 -1 roll lineto  exch 1 index lineto lineto
       closepath clip newpath } bind def
/rgb { setrgbcolor } bind def
/s   { scalefont setfont } bind def
% end   .ps.prolog
/sRGB { [ /CIEBasedABC
          << /DecodeLMN
               [ { dup 0.03928 le
                        {12.92321 div}
                        {0.055 add 1.055 div 2.4 exp }
                     ifelse
                 } bind dup dup
               ]
             /MatrixLMN [0.412457 0.212673 0.019334
                         0.357576 0.715152 0.119192
                         0.180437 0.072175 0.950301]
             /WhitePoint [0.9505 1.0 1.0890]
           >>
         ] setcolorspace } bind def
/srgb { setcolor } bind def
% begin encoding
/WinAnsiEncoding [
 /.notdef /.notdef /.notdef /.notdef /.notdef /.notdef /.notdef /.notdef
 /.notdef /.notdef /.notdef /.notdef /.notdef /.notdef /.notdef /.notdef
 /.notdef /.notdef /.notdef /.notdef /.notdef /.notdef /.notdef /.notdef
 /.notdef /.notdef /.notdef /.notdef /.notdef /.notdef /.notdef /.notdef
 /space /exclam /quotedbl /numbersign /dollar /percent /ampersand /quoteright
 /parenleft /parenright /asterisk /plus /comma /minus /period /slash
 /zero /one /two /three /four /five /six /seven
 /eight /nine /colon /semicolon /less /equal /greater /question
 /at /A /B /C /D /E /F /G
 /H /I /J /K /L /M /N /O
 /P /Q /R /S /T /U /V /W
 /X /Y /Z /bracketleft /backslash /bracketright /asciicircum /underscore
 /grave /a /b /c /d /e /f /g
 /h /i /j /k /l /m /n /o
 /p /q /r /s /t /u /v /w
 /x /y /z /braceleft /bar /braceright /asciitilde /.notdef
 /Euro /.notdef /quotesinglbase /florin /quotedblbase /ellipsis /dagger /daggerdbl
 /circumflex /perthousand /Scaron /guilsinglleft /OE /.notdef /Zcaron /.notdef
 /.notdef /quoteleft /quoteright /quotedblleft /quotedblright /bullet /endash /emdash
 /tilde /trademark /scaron /guilsinglright /oe /.notdef /zcaron /Ydieresis
 /space /exclamdown /cent /sterling /currency /yen /brokenbar /section
 /dieresis /copyright /ordfeminine /guillemotleft /logicalnot /hyphen /registered /macron
 /degree /plusminus /twosuperior /threesuperior /acute /mu /paragraph /periodcentered
 /cedilla /onesuperior /ordmasculine /guillemotright /onequarter /onehalf /threequarters /questiondown
 /Agrave /Aacute /Acircumflex /Atilde /Adieresis /Aring /AE /Ccedilla
 /Egrave /Eacute /Ecircumflex /Edieresis /Igrave /Iacute /Icircumflex /Idieresis
 /Eth /Ntilde /Ograve /Oacute /Ocircumflex /Otilde /Odieresis /multiply
 /Oslash /Ugrave /Uacute /Ucircumflex /Udieresis /Yacute /Thorn /germandbls
 /agrave /aacute /acircumflex /atilde /adieresis /aring /ae /ccedilla
 /egrave /eacute /ecircumflex /edieresis /igrave /iacute /icircumflex /idieresis
 /eth /ntilde /ograve /oacute /ocircumflex /otilde /odieresis /divide
 /oslash /ugrave /uacute /ucircumflex /udieresis /yacute /thorn /ydieresis
]
 def
% end encoding
%%IncludeResource: font Helvetica
/Helvetica findfont
dup length dict begin
  {1 index /FID ne {def} {pop pop} ifelse} forall
  /Encoding WinAnsiEncoding def
  currentdict
  end
/Font1 exch definefont pop
%%IncludeResource: font Helvetica-Bold
/Helvetica-Bold findfont
dup length dict begin
  {1 index /FID ne {def} {pop pop} ifelse} forall
  /Encoding WinAnsiEncoding def
  currentdict
  end
/Font2 exch definefont pop
%%IncludeResource: font Helvetica-Oblique
/Helvetica-Oblique findfont
dup length dict begin
  {1 index /FID ne {def} {pop pop} ifelse} forall
  /Encoding WinAnsiEncoding def
  currentdict
  end
/Font3 exch definefont pop
%%IncludeResource: font Helvetica-BoldOblique
/Helvetica-BoldOblique findfont
dup length dict begin
  {1 index /FID ne {def} {pop pop} ifelse} forall
  /Encoding WinAnsiEncoding def
  currentdict
  end
/Font4 exch definefont pop
%%IncludeResource: font Symbol
/Symbol findfont
dup length dict begin
  {1 index /FID ne {def} {pop pop} ifelse} forall
  currentdict
  end
/Font5 exch definefont pop
%%EndProlog
%%Page: 1 1
bp
0.00 0.00 375.00 300.00 cl
0.00 0.00 375.00 300.00 cl
0.00 0.00 375.00 300.00 cl
0.00 0.00 375.00 300.00 cl
0.00 0.00 375.00 300.00 cl
0.00 0.00 375.00 300.00 cl
0.00 0.00 375.00 300.00 cl
0.00 0.00 375.00 300.00 cl
0.00 0.00 375.00 300.00 cl
/bg { 1 1 1 srgb } def
1 1 1 srgb
1.07 setlinewidth
[] 0 setdash
1 setlinecap
1 setlinejoin
10.00 setmiterlimit
0.00 0.00 375.00 300.00 r p3
0.00 0.00 375.00 300.00 cl
0.00 0.00 375.00 300.00 cl
0.00 0.00 375.00 300.00 cl
54.21 31.35 296.82 294.52 cl
/bg { 0.9216 0.9216 0.9216 srgb } def
54.21 31.35 242.61 263.17 r p2
1 1 1 srgb
0.53 setlinewidth
[] 0 setdash
0 setlinecap
1 setlinejoin
10.00 setmiterlimit
np
54.21 43.31 m
242.61 0 l
o
np
54.21 139.01 m
242.61 0 l
o
np
54.21 234.71 m
242.61 0 l
o
np
65.24 31.35 m
0 263.17 l
o
np
88.45 31.35 m
0 263.17 l
o
np
111.67 31.35 m
0 263.17 l
o
np
134.89 31.35 m
0 263.17 l
o
np
158.10 31.35 m
0 263.17 l
o
np
181.32 31.35 m
0 263.17 l
o
np
204.53 31.35 m
0 263.17 l
o
np
227.75 31.35 m
0 263.17 l
o
np
250.97 31.35 m
0 263.17 l
o
np
274.18 31.35 m
0 263.17 l
o
1.07 setlinewidth
[] 0 setdash
np
54.21 91.16 m
242.61 0 l
o
np
54.21 186.86 m
242.61 0 l
o
np
54.21 282.56 m
242.61 0 l
o
np
76.85 31.35 m
0 263.17 l
o
np
100.06 31.35 m
0 263.17 l
o
np
123.28 31.35 m
0 263.17 l
o
np
146.49 31.35 m
0 263.17 l
o
np
169.71 31.35 m
0 263.17 l
o
np
192.93 31.35 m
0 263.17 l
o
np
216.14 31.35 m
0 263.17 l
o
np
239.36 31.35 m
0 263.17 l
o
np
262.57 31.35 m
0 263.17 l
o
np
285.79 31.35 m
0 263.17 l
o
/bg { 0 0.7490 0.7686 srgb } def
0 0.7490 0.7686 srgb
0.71 setlinewidth
[] 0 setdash
1 setlinecap
65.24 273.52 1.95 c p3
76.85 268.93 1.95 c p3
88.45 262.48 1.95 c p3
100.06 254.99 1.95 c p3
111.67 246.94 1.95 c p3
123.28 238.48 1.95 c p3
134.89 229.56 1.95 c p3
146.49 219.97 1.95 c p3
158.10 209.30 1.95 c p3
169.71 196.62 1.95 c p3
181.32 179.29 1.95 c p3
192.93 138.40 1.95 c p3
204.53 160.83 1.95 c p3
216.14 173.25 1.95 c p3
227.75 177.90 1.95 c p3
239.36 179.73 1.95 c p3
250.97 180.07 1.95 c p3
262.57 179.52 1.95 c p3
274.18 178.34 1.95 c p3
285.79 176.72 1.95 c p3
/bg { 0.9725 0.4627 0.4275 srgb } def
0.9725 0.4627 0.4275 srgb
65.24 269.00 1.95 c p3
76.85 254.91 1.95 c p3
88.45 238.59 1.95 c p3
100.06 219.80 1.95 c p3
111.67 196.99 1.95 c p3
123.28 133.50 1.95 c p3
134.89 172.63 1.95 c p3
146.49 180.07 1.95 c p3
158.10 179.23 1.95 c p3
169.71 176.98 1.95 c p3
181.32 172.22 1.95 c p3
192.93 167.58 1.95 c p3
204.53 161.01 1.95 c p3
216.14 155.06 1.95 c p3
227.75 146.77 1.95 c p3
239.36 139.58 1.95 c p3
250.97 128.52 1.95 c p3
262.57 119.27 1.95 c p3
274.18 99.75 1.95 c p3
285.79 80.93 1.95 c p3
0 0 0 srgb
1.07 setlinewidth
[] 0 setdash
np
54.21 9.86 m
2.84 0 l
o
np
54.21 18.29 m
2.84 0 l
o
np
54.21 24.27 m
2.84 0 l
o
np
54.21 28.90 m
5.67 0 l
o
np
54.21 32.69 m
2.84 0 l
o
np
54.21 35.90 m
2.84 0 l
o
np
54.21 38.67 m
2.84 0 l
o
np
54.21 41.12 m
2.84 0 l
o
np
54.21 43.31 m
8.50 0 l
o
np
54.21 57.71 m
2.84 0 l
o
np
54.21 66.14 m
2.84 0 l
o
np
54.21 72.12 m
2.84 0 l
o
np
54.21 76.75 m
5.67 0 l
o
np
54.21 80.54 m
2.84 0 l
o
np
54.21 83.75 m
2.84 0 l
o
np
54.21 86.52 m
2.84 0 l
o
np
54.21 88.97 m
2.84 0 l
o
np
54.21 91.16 m
8.50 0 l
o
np
54.21 105.56 m
2.84 0 l
o
np
54.21 113.99 m
2.84 0 l
o
np
54.21 119.97 m
2.84 0 l
o
np
54.21 124.60 m
5.67 0 l
o
np
54.21 128.39 m
2.84 0 l
o
np
54.21 131.60 m
2.84 0 l
o
np
54.21 134.37 m
2.84 0 l
o
np
54.21 136.82 m
2.84 0 l
o
np
54.21 139.01 m
8.50 0 l
o
np
54.21 153.41 m
2.84 0 l
o
np
54.21 161.84 m
2.84 0 l
o
np
54.21 167.82 m
2.84 0 l
o
np
54.21 172.45 m
5.67 0 l
o
np
54.21 176.24 m
2.84 0 l
o
np
54.21 179.45 m
2.84 0 l
o
np
54.21 182.22 m
2.84 0 l
o
np
54.21 184.67 m
2.84 0 l
o
np
54.21 186.86 m
8.50 0 l
o
np
54.21 201.26 m
2.84 0 l
o
np
54.21 209.69 m
2.84 0 l
o
np
54.21 215.67 m
2.84 0 l
o
np
54.21 220.30 m
5.67 0 l
o
np
54.21 224.09 m
2.84 0 l
o
np
54.21 227.30 m
2.84 0 l
o
np
54.21 230.07 m
2.84 0 l
o
np
54.21 232.52 m
2.84 0 l
o
np
54.21 234.71 m
8.50 0 l
o
np
54.21 249.11 m
2.84 0 l
o
np
54.21 257.54 m
2.84 0 l
o
np
54.21 263.52 m
2.84 0 l
o
np
54.21 268.15 m
5.67 0 l
o
np
54.21 271.94 m
2.84 0 l
o
np
54.21 275.15 m
2.84 0 l
o
np
54.21 277.92 m
2.84 0 l
o
np
54.21 280.37 m
2.84 0 l
o
np
54.21 282.56 m
8.50 0 l
o
np
54.21 296.96 m
2.84 0 l
o
0.00 0.00 375.00 300.00 cl
0.00 0.00 375.00 300.00 cl
0.00 0.00 375.00 300.00 cl
0.00 0.00 375.00 300.00 cl
0.00 0.00 375.00 300.00 cl
0.00 0.00 375.00 300.00 cl
/Font1 findfont 9 s
0.3020 0.3020 0.3020 srgb
49.28 87.93 (1e-02) 1 0 t
49.28 183.63 (1e+00) 1 0 t
49.28 279.33 (1e+02) 1 0 t
0.00 0.00 375.00 300.00 cl
0.00 0.00 375.00 300.00 cl
0.2000 0.2000 0.2000 srgb
1.07 setlinewidth
[] 0 setdash
0 setlinecap
1 setlinejoin
10.00 setmiterlimit
np
51.47 91.16 m
2.74 0 l
o
np
51.47 186.86 m
2.74 0 l
o
np
51.47 282.56 m
2.74 0 l
o
0.00 0.00 375.00 300.00 cl
0.00 0.00 375.00 300.00 cl
0.00 0.00 375.00 300.00 cl
0.00 0.00 375.00 300.00 cl
0.00 0.00 375.00 300.00 cl
0.00 0.00 375.00 300.00 cl
0.00 0.00 375.00 300.00 cl
0.00 0.00 375.00 300.00 cl
0.2000 0.2000 0.2000 srgb
1.07 setlinewidth
[] 0 setdash
0 setlinecap
1 setlinejoin
10.00 setmiterlimit
np
76.85 28.61 m
0 2.74 l
o
np
100.06 28.61 m
0 2.74 l
o
np
123.28 28.61 m
0 2.74 l
o
np
146.49 28.61 m
0 2.74 l
o
np
169.71 28.61 m
0 2.74 l
o
np
192.93 28.61 m
0 2.74 l
o
np
216.14 28.61 m
0 2.74 l
o
np
239.36 28.61 m
0 2.74 l
o
np
262.57 28.61 m
0 2.74 l
o
np
285.79 28.61 m
0 2.74 l
o
0.00 0.00 375.00 300.00 cl
0.00 0.00 375.00 300.00 cl
/Font1 findfont 9 s
0.3020 0.3020 0.3020 srgb
76.85 19.95 (2) .5 0 t
100.06 19.95 (4) .5 0 t
123.28 19.95 (6) .5 0 t
146.49 19.95 (8) .5 0 t
169.71 19.95 (10) .5 0 t
192.93 19.95 (12) .5 0 t
216.14 19.95 (14) .5 0 t
239.36 19.95 (16) .5 0 t
262.57 19.95 (18) .5 0 t
285.79 19.95 (20) .5 0 t
0.00 0.00 375.00 300.00 cl
0.00 0.00 375.00 300.00 cl
0.00 0.00 375.00 300.00 cl
0.00 0.00 375.00 300.00 cl
/Font1 findfont 11 s
0 0 0 srgb
175.51 7.67 (k) .5 0 t
0.00 0.00 375.00 300.00 cl
0.00 0.00 375.00 300.00 cl
/Font1 findfont 11 s
0 0 0 srgb
17.15 147.38 (R) 0 90 t
17.15 155.32 (e) 0 90 t
17.15 161.43 (|) 0 90 t
17.15 164.29 (E) 0 90 t
0.75 setlinewidth
[] 0 setdash
1 setlinecap
1 setlinejoin
10.00 setmiterlimit
np
7.67 164.29 m
0 7.34 l
o
/Font1 findfont 8 s
19.16 171.63 (k) 0 90 t
/Font1 findfont 11 s
17.15 175.63 (|) 0 90 t
0.00 0.00 375.00 300.00 cl
0.00 0.00 375.00 300.00 cl
0.00 0.00 375.00 300.00 cl
0.00 0.00 375.00 300.00 cl
/bg { 1 1 1 srgb } def
305.32 134.37 55.69 57.13 r p2
0.00 0.00 375.00 300.00 cl
0.00 0.00 375.00 300.00 cl
/Font2 findfont 12 s
0.8235 0.4118 0.1176 srgb
309.57 178.07 (FFT) 0 0 t
0.00 0.00 375.00 300.00 cl
0.00 0.00 375.00 300.00 cl
/bg { 0.9490 0.9490 0.9490 srgb } def
1 1 1 srgb
1.07 setlinewidth
[] 0 setdash
1 setlinecap
1 setlinejoin
10.00 setmiterlimit
309.57 155.90 17.28 17.28 r p3
0.00 0.00 375.00 300.00 cl
0.00 0.00 375.00 300.00 cl
/bg { 0.9725 0.4627 0.4275 srgb } def
0.9725 0.4627 0.4275 srgb
0.71 setlinewidth
[] 0 setdash
1 setlinecap
1 setlinejoin
10.00 setmiterlimit
318.21 164.54 1.95 c p3
0.00 0.00 375.00 300.00 cl
0.00 0.00 375.00 300.00 cl
/bg { 0.9725 0.4627 0.4275 srgb } def
0.9725 0.4627 0.4275 srgb
0.71 setlinewidth
[] 0 setdash
1 setlinecap
1 setlinejoin
10.00 setmiterlimit
318.21 164.54 1.95 c p3
0.00 0.00 375.00 300.00 cl
0.00 0.00 375.00 300.00 cl
/bg { 0.9490 0.9490 0.9490 srgb } def
1 1 1 srgb
1.07 setlinewidth
[] 0 setdash
1 setlinecap
1 setlinejoin
10.00 setmiterlimit
309.57 138.62 17.28 17.28 r p3
0.00 0.00 375.00 300.00 cl
0.00 0.00 375.00 300.00 cl
/bg { 0 0.7490 0.7686 srgb } def
0 0.7490 0.7686 srgb
0.71 setlinewidth
[] 0 setdash
1 setlinecap
1 setlinejoin
10.00 setmiterlimit
318.21 147.26 1.95 c p3
0.00 0.00 375.00 300.00 cl
0.00 0.00 375.00 300.00 cl
/bg { 0 0.7490 0.7686 srgb } def
0 0.7490 0.7686 srgb
0.71 setlinewidth
[] 0 setdash
1 setlinecap
1 setlinejoin
10.00 setmiterlimit
318.21 147.26 1.95 c p3
0.00 0.00 375.00 300.00 cl
0.00 0.00 375.00 300.00 cl
/Font1 findfont 9 s
0 0 0 srgb
329.01 161.31 (E\(128\)) 0 0 t
0.00 0.00 375.00 300.00 cl
0.00 0.00 375.00 300.00 cl
/Font1 findfont 9 s
0 0 0 srgb
329.01 144.03 (E\(256\)) 0 0 t
0.00 0.00 375.00 300.00 cl
0.00 0.00 375.00 300.00 cl
0.00 0.00 375.00 300.00 cl
0.00 0.00 375.00 300.00 cl
0.00 0.00 375.00 300.00 cl
0.00 0.00 375.00 300.00 cl
ep
%%Trailer
%%Pages: 1
%%EOF
