<?xml version="1.1" encoding="windows-1252"?>
<svg xmlns="http://www.w3.org/2000/svg"
    xmlns:latexdraw="http://latexdraw.sourceforge.net/namespaces/latexdraw"
    version="1.1" baseProfile="full">
    <g>
        <g latexdraw:type="ellipse" id="id28135658" transform="rotate(270.0055091506931) translate(-529.9865324574146 -49.926926215810454)">
            <ellipse cx="240.02740269805707" cy="289.98221041112424"
                rx="259.0" ry="99.00000000000007"
                latexdraw:borderPos="outer" stroke-width="2.0"
                stroke="black" fill="none"/>
        </g>
        <g latexdraw:type="ellipse" id="id20478717" transform="rotate(270.0055091506931) translate(-439.99518621107916 -139.92692579977447)">
            <ellipse cx="150.02740269805707" cy="289.98221041112964"
                rx="258.99999999999983" ry="99.00000000000004"
                latexdraw:borderPos="outer" stroke-width="2.0"
                stroke="black" fill="none"/>
        </g>
        <g latexdraw:type="ellipse" id="id6849765" transform="rotate(270.0055091506931) translate(-434.99566697517076 -144.92692577666116)">
            <ellipse cx="145.02740269805673" cy="289.9822104111294"
                rx="188.99999999999994" ry="53.99999999999994"
                latexdraw:borderPos="outer" stroke-width="2.0"
                stroke="#ff0033" fill="none"/>
        </g>
        <g latexdraw:type="joinedLines" id="id8388451">
            <polyline
                points="240.00144222293557,290.00144236161634 309.99999999999955,99.99999999999955 "
                stroke-width="2.0" stroke="black"
                stroke-dasharray="8.819444444444445, 5.291666666666667"
                latexdraw:rotationAngle="0.0"
                marker-start="url(#arrow0-8388451)" marker-end="url(#arrow1-8388451)"/>
        </g>
        <g latexdraw:type="joinedLines" id="id6577441">
            <polyline
                points="150.00144263897678,289.99278860796164 190.01105773590814,189.9966351829652 "
                stroke-width="2.0" stroke="black"
                latexdraw:rotationAngle="0.0"
                marker-start="url(#arrow0-6577441)" marker-end="url(#arrow1-6577441)"/>
        </g>
        <g latexdraw:type="text" id="id10263096" fill="black"
            latexdraw:position="bl" transform="rotate(358.97238680326933) translate(-2.552745855886883 4.640625922340348)">
            <text x="260.0129802837803" y="140.00721208544024">\Huge $R$</text>
        </g>
        <g latexdraw:type="text" id="id18459184" fill="black"
            latexdraw:position="bl" transform="rotate(359.4275028810293) translate(-2.1062112637078485 1.5882858416432555)">
            <text x="160.00817324380972" y="209.99471198791701">\Huge $r'$</text>
        </g>
        <g latexdraw:type="text" id="id8460570" fill="black"
            latexdraw:position="bl" transform="rotate(360.48506342260055) translate(4.988383190475389 -1.5447727662815396)">
            <text x="179.97355809051172" y="589.9975949083024">\Huge $L$</text>
        </g>
        <g latexdraw:type="text" id="id2124543" fill="black"
            latexdraw:position="bl" transform="rotate(352.04756297216613) translate(-42.49089431189384 51.264392314018494)">
            <text x="390.00240310394315" y="280.01490380241603">\Huge $z$</text>
        </g>
        <g latexdraw:type="joinedLines" id="id5713396">
            <polyline
                points="150.02644237175625,29.992789809859005 240.0264419557144,30.00144356351325 240.0264419557144,30.00144356351325 240.0264419557144,30.00144356351325 "
                stroke-width="2.0" stroke="black" fill="none" latexdraw:rotationAngle="0.0"/>
        </g>
        <g latexdraw:type="joinedLines" id="id13351478">
            <polyline
                points="149.97644290619752,549.992787406064 239.97644249015622,550.0014411597188 239.97644249015622,550.0014411597188 239.97644249015622,550.0014411597188 "
                stroke-width="2.0" stroke="black" fill="none" latexdraw:rotationAngle="0.0"/>
        </g>
        <g latexdraw:type="text" id="id19318755" fill="black"
            latexdraw:position="bl" transform="rotate(540.4581666185375) translate(-342.39057528199385 -598.6223729533058)">
            <text x="169.99855791574424" y="299.9956730538331">\Huge 0</text>
        </g>
        <g latexdraw:type="joinedLines" id="id5364411">
            <polyline
                points="150.0014426389771,289.99278860796153 340.0,290.0 "
                stroke-width="2.0" stroke="black"
                stroke-dasharray="8.819444444444445, 5.291666666666667" latexdraw:rotationAngle="0.0"/>
        </g>
        <g latexdraw:type="joinedLines" id="id7274098">
            <polyline points="430.0,290.0 340.0,290.0 340.0,290.0 "
                stroke-width="2.0" stroke="black" fill="none"
                latexdraw:rotationAngle="0.0" marker-start="url(#arrow0-7274098)"/>
        </g>
    </g>
    <defs>
        <marker overflow="visible" orient="auto" id="arrow0-8388451">
            <circle r="1.3819444444444444" latexdraw:dotSizeNum="2.0"
                fill="white" stroke="black" stroke-width="1.0"/>
        </marker>
        <marker overflow="visible" orient="auto" id="arrow1-8388451">
            <path
                d="M 0.0 0.0 L -4.652083333333334 1.6614583333333335 L -4.652083333333334 0.0 L -4.652083333333334 -1.6614583333333335 z "
                latexdraw:arrSizeNum="2.0" fill="black"/>
        </marker>
        <marker overflow="visible" orient="auto" id="arrow0-6577441">
            <circle r="1.3819444444444444" latexdraw:dotSizeNum="2.0"
                fill="white" stroke="black" stroke-width="1.0"/>
        </marker>
        <marker overflow="visible" orient="auto" id="arrow1-6577441">
            <path
                d="M 0.0 0.0 L -4.652083333333334 1.6614583333333335 L -4.652083333333334 0.0 L -4.652083333333334 -1.6614583333333335 z "
                latexdraw:arrSizeNum="2.0" fill="black"/>
        </marker>
        <marker overflow="visible" orient="auto" id="arrow0-7274098">
            <path
                d="M 0.0 0.0 L 4.652083333333334 1.6614583333333335 L 4.652083333333334 0.0 L 4.652083333333334 -1.6614583333333335 z "
                latexdraw:arrSizeNum="2.0" fill="black"/>
        </marker>
    </defs>
    <metadata>
        <latexdraw:metadata>
            <latexdraw:latexIncludes/>
            <latexdraw:displayXScale>true</latexdraw:displayXScale>
            <latexdraw:displayYScale>true</latexdraw:displayYScale>
            <latexdraw:unit>CM</latexdraw:unit>
            <latexdraw:zoom>1.0</latexdraw:zoom>
            <latexdraw:magneticGridStyle>CUSTOMISED</latexdraw:magneticGridStyle>
            <latexdraw:gridGap>10</latexdraw:gridGap>
            <latexdraw:magneticGrid>true</latexdraw:magneticGrid>
            <latexdraw:version>3.3.2</latexdraw:version>
            <latexdraw:size>
                <latexdraw:width>1920</latexdraw:width>
                <latexdraw:height>1056</latexdraw:height>
            </latexdraw:size>
            <latexdraw:position>
                <latexdraw:x>0.0</latexdraw:x>
                <latexdraw:y>0.0</latexdraw:y>
            </latexdraw:position>
        </latexdraw:metadata>
    </metadata>
</svg>
