%!PS-Adobe-3.0 EPSF-3.0
%%DocumentNeededResources: font Helvetica
%%+ font Helvetica-Bold
%%+ font Helvetica-Oblique
%%+ font Helvetica-BoldOblique
%%+ font Symbol
%%Title: R Graphics Output
%%Creator: R Software
%%Pages: (atend)
%%BoundingBox: 0 0 525 369
%%EndComments
%%BeginProlog
/bp  { gs sRGB gs } def
% begin .ps.prolog
/gs  { gsave } bind def
/gr  { grestore } bind def
/ep  { showpage gr gr } bind def
/m   { moveto } bind def
/l  { rlineto } bind def
/np  { newpath } bind def
/cp  { closepath } bind def
/f   { fill } bind def
/o   { stroke } bind def
/c   { newpath 0 360 arc } bind def
/r   { 4 2 roll moveto 1 copy 3 -1 roll exch 0 exch rlineto 0 rlineto -1 mul 0 exch rlineto closepath } bind def
/p1  { stroke } bind def
/p2  { gsave bg fill grestore newpath } bind def
/p3  { gsave bg fill grestore stroke } bind def
/p6  { gsave bg eofill grestore newpath } bind def
/p7  { gsave bg eofill grestore stroke } bind def
/t   { 5 -2 roll moveto gsave rotate
       1 index stringwidth pop
       mul neg 0 rmoveto show grestore } bind def
/ta  { 4 -2 roll moveto gsave rotate show } bind def
/tb  { 2 -1 roll 0 rmoveto show } bind def
/cl  { grestore gsave newpath 3 index 3 index moveto 1 index
       4 -1 roll lineto  exch 1 index lineto lineto
       closepath clip newpath } bind def
/rgb { setrgbcolor } bind def
/s   { scalefont setfont } bind def
% end   .ps.prolog
/sRGB { [ /CIEBasedABC
          << /DecodeLMN
               [ { dup 0.03928 le
                        {12.92321 div}
                        {0.055 add 1.055 div 2.4 exp }
                     ifelse
                 } bind dup dup
               ]
             /MatrixLMN [0.412457 0.212673 0.019334
                         0.357576 0.715152 0.119192
                         0.180437 0.072175 0.950301]
             /WhitePoint [0.9505 1.0 1.0890]
           >>
         ] setcolorspace } bind def
/srgb { setcolor } bind def
% begin encoding
/WinAnsiEncoding [
 /.notdef /.notdef /.notdef /.notdef /.notdef /.notdef /.notdef /.notdef
 /.notdef /.notdef /.notdef /.notdef /.notdef /.notdef /.notdef /.notdef
 /.notdef /.notdef /.notdef /.notdef /.notdef /.notdef /.notdef /.notdef
 /.notdef /.notdef /.notdef /.notdef /.notdef /.notdef /.notdef /.notdef
 /space /exclam /quotedbl /numbersign /dollar /percent /ampersand /quoteright
 /parenleft /parenright /asterisk /plus /comma /minus /period /slash
 /zero /one /two /three /four /five /six /seven
 /eight /nine /colon /semicolon /less /equal /greater /question
 /at /A /B /C /D /E /F /G
 /H /I /J /K /L /M /N /O
 /P /Q /R /S /T /U /V /W
 /X /Y /Z /bracketleft /backslash /bracketright /asciicircum /underscore
 /grave /a /b /c /d /e /f /g
 /h /i /j /k /l /m /n /o
 /p /q /r /s /t /u /v /w
 /x /y /z /braceleft /bar /braceright /asciitilde /.notdef
 /Euro /.notdef /quotesinglbase /florin /quotedblbase /ellipsis /dagger /daggerdbl
 /circumflex /perthousand /Scaron /guilsinglleft /OE /.notdef /Zcaron /.notdef
 /.notdef /quoteleft /quoteright /quotedblleft /quotedblright /bullet /endash /emdash
 /tilde /trademark /scaron /guilsinglright /oe /.notdef /zcaron /Ydieresis
 /space /exclamdown /cent /sterling /currency /yen /brokenbar /section
 /dieresis /copyright /ordfeminine /guillemotleft /logicalnot /hyphen /registered /macron
 /degree /plusminus /twosuperior /threesuperior /acute /mu /paragraph /periodcentered
 /cedilla /onesuperior /ordmasculine /guillemotright /onequarter /onehalf /threequarters /questiondown
 /Agrave /Aacute /Acircumflex /Atilde /Adieresis /Aring /AE /Ccedilla
 /Egrave /Eacute /Ecircumflex /Edieresis /Igrave /Iacute /Icircumflex /Idieresis
 /Eth /Ntilde /Ograve /Oacute /Ocircumflex /Otilde /Odieresis /multiply
 /Oslash /Ugrave /Uacute /Ucircumflex /Udieresis /Yacute /Thorn /germandbls
 /agrave /aacute /acircumflex /atilde /adieresis /aring /ae /ccedilla
 /egrave /eacute /ecircumflex /edieresis /igrave /iacute /icircumflex /idieresis
 /eth /ntilde /ograve /oacute /ocircumflex /otilde /odieresis /divide
 /oslash /ugrave /uacute /ucircumflex /udieresis /yacute /thorn /ydieresis
]
 def
% end encoding
%%IncludeResource: font Helvetica
/Helvetica findfont
dup length dict begin
  {1 index /FID ne {def} {pop pop} ifelse} forall
  /Encoding WinAnsiEncoding def
  currentdict
  end
/Font1 exch definefont pop
%%IncludeResource: font Helvetica-Bold
/Helvetica-Bold findfont
dup length dict begin
  {1 index /FID ne {def} {pop pop} ifelse} forall
  /Encoding WinAnsiEncoding def
  currentdict
  end
/Font2 exch definefont pop
%%IncludeResource: font Helvetica-Oblique
/Helvetica-Oblique findfont
dup length dict begin
  {1 index /FID ne {def} {pop pop} ifelse} forall
  /Encoding WinAnsiEncoding def
  currentdict
  end
/Font3 exch definefont pop
%%IncludeResource: font Helvetica-BoldOblique
/Helvetica-BoldOblique findfont
dup length dict begin
  {1 index /FID ne {def} {pop pop} ifelse} forall
  /Encoding WinAnsiEncoding def
  currentdict
  end
/Font4 exch definefont pop
%%IncludeResource: font Symbol
/Symbol findfont
dup length dict begin
  {1 index /FID ne {def} {pop pop} ifelse} forall
  currentdict
  end
/Font5 exch definefont pop
%%EndProlog
%%Page: 1 1
bp
/bg { 1 1 1 srgb } def
0.00 0.00 525.00 369.00 r p2
59.04 73.44 494.76 309.96 cl
59.04 73.44 494.76 309.96 cl
1 0 0 srgb
0.75 setlinewidth
[] 0 setdash
1 setlinecap
1 setlinejoin
10.00 setmiterlimit
np
75.18 266.24 m
2.03 0.14 l
2.02 0 l
2.03 0 l
2.03 0 l
2.02 -0.06 l
2.03 -0.39 l
2.03 -1.33 l
2.03 -3.01 l
2.02 -5.32 l
2.03 -7.90 l
2.03 -10.36 l
2.03 -12.43 l
2.02 -13.92 l
2.03 -14.79 l
2.03 -15.06 l
2.03 -14.81 l
2.02 -14.14 l
2.03 -13.13 l
2.03 -11.92 l
2.02 -10.55 l
2.03 -9.10 l
2.03 -7.65 l
2.03 -6.22 l
2.02 -4.84 l
2.03 -3.53 l
2.03 -2.32 l
2.03 -1.21 l
2.02 -0.19 l
2.03 0.71 l
2.03 1.53 l
2.03 2.23 l
2.02 2.86 l
2.03 3.39 l
2.03 3.84 l
2.03 4.23 l
2.02 4.55 l
2.03 4.80 l
2.03 5.01 l
2.02 5.16 l
2.03 5.28 l
2.03 5.35 l
2.03 5.39 l
2.02 5.40 l
2.03 5.40 l
2.03 5.35 l
2.03 5.30 l
2.02 5.23 l
2.03 5.15 l
2.03 5.05 l
2.03 4.95 l
2.02 4.84 l
2.03 4.71 l
2.03 4.60 l
2.03 4.47 l
2.02 4.34 l
2.03 4.21 l
2.03 4.09 l
2.02 3.95 l
2.03 3.82 l
2.03 3.69 l
2.03 3.57 l
2.02 3.43 l
2.03 3.32 l
2.03 3.20 l
2.03 3.07 l
2.02 2.96 l
2.03 2.85 l
2.03 2.74 l
2.03 2.63 l
2.02 2.53 l
2.03 2.43 l
2.03 2.32 l
2.03 2.24 l
2.02 2.14 l
2.03 2.06 l
2.03 1.97 l
2.02 1.88 l
2.03 1.81 l
2.03 1.73 l
2.03 1.65 l
2.02 1.59 l
2.03 1.51 l
2.03 1.45 l
2.03 1.38 l
2.02 1.32 l
2.03 1.27 l
2.03 1.20 l
2.03 1.15 l
2.02 1.10 l
2.03 1.05 l
2.03 1.00 l
2.02 0.95 l
2.03 0.91 l
2.03 0.86 l
2.03 0.82 l
2.02 0.78 l
2.03 0.74 l
2.03 0.71 l
2.03 0.67 l
277.91 292.70 lineto
2.03 0.61 l
2.03 0.57 l
2.03 0.54 l
2.02 0.51 l
2.03 0.48 l
2.03 0.46 l
2.03 0.43 l
2.02 0.41 l
2.03 0.38 l
2.03 0.36 l
2.02 0.34 l
2.03 0.32 l
2.03 0.30 l
2.03 0.27 l
2.02 0.26 l
2.03 0.24 l
2.03 0.23 l
2.03 0.21 l
2.02 0.19 l
2.03 0.18 l
2.03 0.16 l
2.03 0.15 l
2.02 0.13 l
2.03 0.12 l
2.03 0.11 l
2.03 0.10 l
2.02 0.09 l
2.03 0.08 l
2.03 0.06 l
2.02 0.06 l
2.03 0.05 l
2.03 0.03 l
2.03 0.03 l
2.02 0.02 l
2.03 0.02 l
2.03 0 l
2.03 0 l
2.02 -0.01 l
2.03 -0.02 l
2.03 -0.02 l
2.03 -0.03 l
2.02 -0.04 l
2.03 -0.04 l
2.03 -0.04 l
2.03 -0.05 l
2.02 -0.06 l
2.03 -0.06 l
2.03 -0.06 l
2.02 -0.07 l
2.03 -0.08 l
2.03 -0.07 l
2.03 -0.09 l
2.02 -0.08 l
2.03 -0.09 l
2.03 -0.09 l
2.03 -0.09 l
2.02 -0.10 l
2.03 -0.10 l
2.03 -0.10 l
2.03 -0.11 l
2.02 -0.11 l
2.03 -0.11 l
2.03 -0.11 l
2.02 -0.11 l
2.03 -0.12 l
2.03 -0.11 l
2.03 -0.12 l
2.02 -0.12 l
2.03 -0.13 l
2.03 -0.12 l
2.03 -0.13 l
2.02 -0.12 l
2.03 -0.13 l
2.03 -0.13 l
2.03 -0.13 l
2.02 -0.13 l
2.03 -0.13 l
2.03 -0.13 l
2.03 -0.13 l
2.02 -0.14 l
2.03 -0.13 l
2.03 -0.14 l
2.02 -0.13 l
2.03 -0.14 l
2.03 -0.13 l
2.03 -0.14 l
2.02 -0.14 l
2.03 -0.13 l
2.03 -0.14 l
2.03 -0.14 l
2.02 -0.13 l
2.03 -0.14 l
2.03 -0.14 l
2.03 -0.14 l
2.02 -0.14 l
2.03 -0.13 l
2.03 -0.14 l
2.03 -0.14 l
2.02 -0.14 l
o
0.00 0.00 525.00 369.00 cl
0 0 0 srgb
0.75 setlinewidth
[] 0 setdash
1 setlinecap
1 setlinejoin
10.00 setmiterlimit
np
75.04 73.44 m
403.58 0 l
o
np
75.04 73.44 m
0 -7.20 l
o
np
142.31 73.44 m
0 -7.20 l
o
np
209.57 73.44 m
0 -7.20 l
o
np
276.83 73.44 m
0 -7.20 l
o
np
344.10 73.44 m
0 -7.20 l
o
np
411.36 73.44 m
0 -7.20 l
o
np
478.62 73.44 m
0 -7.20 l
o
/Font1 findfont 12 s
75.04 47.52 (0.0) .5 0 t
142.31 47.52 (0.5) .5 0 t
209.57 47.52 (1.0) .5 0 t
276.83 47.52 (1.5) .5 0 t
344.10 47.52 (2.0) .5 0 t
411.36 47.52 (2.5) .5 0 t
478.62 47.52 (3.0) .5 0 t
np
59.04 119.65 m
0 146.73 l
o
np
59.04 119.65 m
-7.20 0 l
o
np
59.04 193.02 m
-7.20 0 l
o
np
59.04 266.38 m
-7.20 0 l
o
41.76 119.65 (-1000) .5 90 t
41.76 193.02 (-500) .5 90 t
41.76 266.38 (0) .5 90 t
np
59.04 73.44 m
435.72 0 l
0 236.52 l
-435.72 0 l
0 -236.52 l
o
0.00 0.00 525.00 369.00 cl
/Font1 findfont 12 s
0 0 0 srgb
273.56 18.90 (a) 0 0 t
12.96 191.70 (F\(a\)) .5 90 t
59.04 73.44 494.76 309.96 cl
0.6000 0.6000 0.6000 srgb
0.75 setlinewidth
[ 0.00 3.00] 0 setdash
1 setlinecap
1 setlinejoin
10.00 setmiterlimit
np
59.04 266.38 m
435.72 0 l
o
0 0 1 srgb
np
231.28 73.44 m
0 236.52 l
o
/Font1 findfont 12 s
0 0 0 srgb
238.48 190.17 (a) 0 0 t
245.16 190.17 (*) 0 0 t
/Font5 findfont 12 s
249.82 190.17 ( ) 0 0 t
/Font1 findfont 12 s
252.82 190.17 (=) 0 0 t
259.83 190.17 ( 1.161) 0 0 t
/Font5 findfont 12 s
293.19 190.17 ( ) 0 0 t
/Font1 findfont 12 s
296.19 190.17 (c) 0 0 t
302.19 190.17 (m) 0 0 t
/Font1 findfont 8 s
312.19 196.13 (2) 0 0 t
0.75 setlinewidth
[] 0 setdash
np
318.21 188.65 m
3.13 11.65 l
o
/Font1 findfont 12 s
322.91 190.17 (s) 0 0 t
238.48 175.62 (B) 0 0 t
246.49 175.62 (*) 0 0 t
/Font5 findfont 12 s
251.16 175.62 ( ) 0 0 t
/Font1 findfont 12 s
254.16 175.62 (=) 0 0 t
261.16 175.62 ( 2.207) 0 0 t
ep
%%Trailer
%%Pages: 1
%%EOF
