%!PS-Adobe-3.0 EPSF-3.0
%%DocumentNeededResources: font Helvetica
%%+ font Helvetica-Bold
%%+ font Helvetica-Oblique
%%+ font Helvetica-BoldOblique
%%+ font Symbol
%%Title: R Graphics Output
%%Creator: R Software
%%Pages: (atend)
%%BoundingBox: 0 0 450 316
%%EndComments
%%BeginProlog
/bp  { gs sRGB gs } def
% begin .ps.prolog
/gs  { gsave } bind def
/gr  { grestore } bind def
/ep  { showpage gr gr } bind def
/m   { moveto } bind def
/l  { rlineto } bind def
/np  { newpath } bind def
/cp  { closepath } bind def
/f   { fill } bind def
/o   { stroke } bind def
/c   { newpath 0 360 arc } bind def
/r   { 4 2 roll moveto 1 copy 3 -1 roll exch 0 exch rlineto 0 rlineto -1 mul 0 exch rlineto closepath } bind def
/p1  { stroke } bind def
/p2  { gsave bg fill grestore newpath } bind def
/p3  { gsave bg fill grestore stroke } bind def
/p6  { gsave bg eofill grestore newpath } bind def
/p7  { gsave bg eofill grestore stroke } bind def
/t   { 5 -2 roll moveto gsave rotate
       1 index stringwidth pop
       mul neg 0 rmoveto show grestore } bind def
/ta  { 4 -2 roll moveto gsave rotate show } bind def
/tb  { 2 -1 roll 0 rmoveto show } bind def
/cl  { grestore gsave newpath 3 index 3 index moveto 1 index
       4 -1 roll lineto  exch 1 index lineto lineto
       closepath clip newpath } bind def
/rgb { setrgbcolor } bind def
/s   { scalefont setfont } bind def
% end   .ps.prolog
/sRGB { [ /CIEBasedABC
          << /DecodeLMN
               [ { dup 0.03928 le
                        {12.92321 div}
                        {0.055 add 1.055 div 2.4 exp }
                     ifelse
                 } bind dup dup
               ]
             /MatrixLMN [0.412457 0.212673 0.019334
                         0.357576 0.715152 0.119192
                         0.180437 0.072175 0.950301]
             /WhitePoint [0.9505 1.0 1.0890]
           >>
         ] setcolorspace } bind def
/srgb { setcolor } bind def
% begin encoding
/WinAnsiEncoding [
 /.notdef /.notdef /.notdef /.notdef /.notdef /.notdef /.notdef /.notdef
 /.notdef /.notdef /.notdef /.notdef /.notdef /.notdef /.notdef /.notdef
 /.notdef /.notdef /.notdef /.notdef /.notdef /.notdef /.notdef /.notdef
 /.notdef /.notdef /.notdef /.notdef /.notdef /.notdef /.notdef /.notdef
 /space /exclam /quotedbl /numbersign /dollar /percent /ampersand /quoteright
 /parenleft /parenright /asterisk /plus /comma /minus /period /slash
 /zero /one /two /three /four /five /six /seven
 /eight /nine /colon /semicolon /less /equal /greater /question
 /at /A /B /C /D /E /F /G
 /H /I /J /K /L /M /N /O
 /P /Q /R /S /T /U /V /W
 /X /Y /Z /bracketleft /backslash /bracketright /asciicircum /underscore
 /grave /a /b /c /d /e /f /g
 /h /i /j /k /l /m /n /o
 /p /q /r /s /t /u /v /w
 /x /y /z /braceleft /bar /braceright /asciitilde /.notdef
 /Euro /.notdef /quotesinglbase /florin /quotedblbase /ellipsis /dagger /daggerdbl
 /circumflex /perthousand /Scaron /guilsinglleft /OE /.notdef /Zcaron /.notdef
 /.notdef /quoteleft /quoteright /quotedblleft /quotedblright /bullet /endash /emdash
 /tilde /trademark /scaron /guilsinglright /oe /.notdef /zcaron /Ydieresis
 /space /exclamdown /cent /sterling /currency /yen /brokenbar /section
 /dieresis /copyright /ordfeminine /guillemotleft /logicalnot /hyphen /registered /macron
 /degree /plusminus /twosuperior /threesuperior /acute /mu /paragraph /periodcentered
 /cedilla /onesuperior /ordmasculine /guillemotright /onequarter /onehalf /threequarters /questiondown
 /Agrave /Aacute /Acircumflex /Atilde /Adieresis /Aring /AE /Ccedilla
 /Egrave /Eacute /Ecircumflex /Edieresis /Igrave /Iacute /Icircumflex /Idieresis
 /Eth /Ntilde /Ograve /Oacute /Ocircumflex /Otilde /Odieresis /multiply
 /Oslash /Ugrave /Uacute /Ucircumflex /Udieresis /Yacute /Thorn /germandbls
 /agrave /aacute /acircumflex /atilde /adieresis /aring /ae /ccedilla
 /egrave /eacute /ecircumflex /edieresis /igrave /iacute /icircumflex /idieresis
 /eth /ntilde /ograve /oacute /ocircumflex /otilde /odieresis /divide
 /oslash /ugrave /uacute /ucircumflex /udieresis /yacute /thorn /ydieresis
]
 def
% end encoding
%%IncludeResource: font Helvetica
/Helvetica findfont
dup length dict begin
  {1 index /FID ne {def} {pop pop} ifelse} forall
  /Encoding WinAnsiEncoding def
  currentdict
  end
/Font1 exch definefont pop
%%IncludeResource: font Helvetica-Bold
/Helvetica-Bold findfont
dup length dict begin
  {1 index /FID ne {def} {pop pop} ifelse} forall
  /Encoding WinAnsiEncoding def
  currentdict
  end
/Font2 exch definefont pop
%%IncludeResource: font Helvetica-Oblique
/Helvetica-Oblique findfont
dup length dict begin
  {1 index /FID ne {def} {pop pop} ifelse} forall
  /Encoding WinAnsiEncoding def
  currentdict
  end
/Font3 exch definefont pop
%%IncludeResource: font Helvetica-BoldOblique
/Helvetica-BoldOblique findfont
dup length dict begin
  {1 index /FID ne {def} {pop pop} ifelse} forall
  /Encoding WinAnsiEncoding def
  currentdict
  end
/Font4 exch definefont pop
%%IncludeResource: font Symbol
/Symbol findfont
dup length dict begin
  {1 index /FID ne {def} {pop pop} ifelse} forall
  currentdict
  end
/Font5 exch definefont pop
%%EndProlog
%%Page: 1 1
bp
/bg { 1 1 1 srgb } def
0.00 0.00 450.00 315.75 r p2
59.04 73.44 419.76 256.71 cl
59.04 73.44 419.76 256.71 cl
0 0 1 srgb
0.75 setlinewidth
[] 0 setdash
1 setlinecap
1 setlinejoin
10.00 setmiterlimit
72.40 82.69 2.70 c p1
74.08 85.89 2.70 c p1
75.76 87.63 2.70 c p1
77.44 80.23 2.70 c p1
79.11 86.22 2.70 c p1
80.79 86.38 2.70 c p1
82.47 84.05 2.70 c p1
84.15 84.11 2.70 c p1
85.83 84.07 2.70 c p1
87.51 83.37 2.70 c p1
89.18 84.26 2.70 c p1
90.86 83.14 2.70 c p1
92.54 83.61 2.70 c p1
94.22 85.43 2.70 c p1
95.90 87.36 2.70 c p1
97.58 85.05 2.70 c p1
99.25 84.19 2.70 c p1
100.93 83.32 2.70 c p1
102.61 83.48 2.70 c p1
104.29 90.50 2.70 c p1
105.97 85.58 2.70 c p1
107.65 84.23 2.70 c p1
109.32 84.34 2.70 c p1
111.00 86.28 2.70 c p1
112.68 83.79 2.70 c p1
114.36 82.16 2.70 c p1
116.04 86.53 2.70 c p1
117.72 83.08 2.70 c p1
119.39 85.26 2.70 c p1
121.07 83.27 2.70 c p1
122.75 87.67 2.70 c p1
124.43 84.26 2.70 c p1
126.11 83.76 2.70 c p1
127.79 84.21 2.70 c p1
129.47 81.77 2.70 c p1
131.14 82.77 2.70 c p1
132.82 80.59 2.70 c p1
134.50 82.40 2.70 c p1
136.18 84.66 2.70 c p1
137.86 84.28 2.70 c p1
139.54 88.42 2.70 c p1
141.21 82.98 2.70 c p1
142.89 83.44 2.70 c p1
144.57 84.68 2.70 c p1
146.25 83.14 2.70 c p1
147.93 83.20 2.70 c p1
149.61 82.90 2.70 c p1
151.28 82.59 2.70 c p1
152.96 84.16 2.70 c p1
154.64 84.22 2.70 c p1
156.32 80.84 2.70 c p1
158.00 84.03 2.70 c p1
159.68 82.90 2.70 c p1
161.35 83.10 2.70 c p1
163.03 84.97 2.70 c p1
164.71 86.72 2.70 c p1
166.39 89.65 2.70 c p1
168.07 85.66 2.70 c p1
169.75 92.82 2.70 c p1
171.43 89.69 2.70 c p1
173.10 97.20 2.70 c p1
174.78 105.51 2.70 c p1
176.46 104.66 2.70 c p1
178.14 108.38 2.70 c p1
179.82 115.14 2.70 c p1
181.50 124.45 2.70 c p1
183.17 123.67 2.70 c p1
184.85 134.56 2.70 c p1
186.53 139.88 2.70 c p1
188.21 143.02 2.70 c p1
189.89 147.44 2.70 c p1
191.57 151.41 2.70 c p1
193.24 156.38 2.70 c p1
194.92 163.15 2.70 c p1
196.60 170.60 2.70 c p1
198.28 169.98 2.70 c p1
199.96 171.30 2.70 c p1
201.64 176.53 2.70 c p1
203.31 182.25 2.70 c p1
204.99 184.42 2.70 c p1
206.67 187.96 2.70 c p1
208.35 191.05 2.70 c p1
210.03 191.35 2.70 c p1
211.71 196.69 2.70 c p1
213.38 201.50 2.70 c p1
215.06 203.62 2.70 c p1
216.74 205.63 2.70 c p1
218.42 205.76 2.70 c p1
220.10 208.29 2.70 c p1
221.78 208.09 2.70 c p1
223.46 212.40 2.70 c p1
225.13 214.81 2.70 c p1
226.81 219.59 2.70 c p1
228.49 219.62 2.70 c p1
230.17 217.86 2.70 c p1
231.85 221.08 2.70 c p1
233.53 219.18 2.70 c p1
235.20 224.76 2.70 c p1
236.88 226.13 2.70 c p1
238.56 229.70 2.70 c p1
240.24 227.06 2.70 c p1
241.92 226.12 2.70 c p1
243.60 228.21 2.70 c p1
245.27 227.86 2.70 c p1
246.95 227.98 2.70 c p1
248.63 230.90 2.70 c p1
250.31 229.34 2.70 c p1
251.99 232.33 2.70 c p1
253.67 233.39 2.70 c p1
255.34 233.13 2.70 c p1
257.02 233.40 2.70 c p1
258.70 232.97 2.70 c p1
260.38 232.49 2.70 c p1
262.06 237.21 2.70 c p1
263.74 235.88 2.70 c p1
265.42 238.06 2.70 c p1
267.09 234.00 2.70 c p1
268.77 237.43 2.70 c p1
270.45 238.89 2.70 c p1
272.13 237.72 2.70 c p1
273.81 237.69 2.70 c p1
275.49 236.72 2.70 c p1
277.16 243.14 2.70 c p1
278.84 240.60 2.70 c p1
280.52 243.17 2.70 c p1
282.20 239.65 2.70 c p1
283.88 238.34 2.70 c p1
285.56 236.66 2.70 c p1
287.23 238.76 2.70 c p1
288.91 240.81 2.70 c p1
290.59 242.69 2.70 c p1
292.27 241.22 2.70 c p1
293.95 238.31 2.70 c p1
295.63 242.43 2.70 c p1
297.30 237.57 2.70 c p1
298.98 240.48 2.70 c p1
300.66 240.72 2.70 c p1
302.34 237.32 2.70 c p1
304.02 243.62 2.70 c p1
305.70 240.40 2.70 c p1
307.37 241.13 2.70 c p1
309.05 244.95 2.70 c p1
310.73 243.41 2.70 c p1
312.41 241.89 2.70 c p1
314.09 243.31 2.70 c p1
315.77 243.14 2.70 c p1
317.45 245.94 2.70 c p1
319.12 243.01 2.70 c p1
320.80 243.57 2.70 c p1
322.48 243.29 2.70 c p1
324.16 241.78 2.70 c p1
325.84 242.86 2.70 c p1
327.52 246.24 2.70 c p1
329.19 240.86 2.70 c p1
330.87 243.06 2.70 c p1
332.55 245.78 2.70 c p1
334.23 242.37 2.70 c p1
335.91 240.64 2.70 c p1
337.59 241.08 2.70 c p1
339.26 242.14 2.70 c p1
340.94 241.19 2.70 c p1
342.62 242.49 2.70 c p1
344.30 242.18 2.70 c p1
345.98 242.71 2.70 c p1
347.66 244.01 2.70 c p1
349.33 244.50 2.70 c p1
351.01 246.80 2.70 c p1
352.69 243.05 2.70 c p1
354.37 242.52 2.70 c p1
356.05 246.41 2.70 c p1
357.73 246.93 2.70 c p1
359.41 243.36 2.70 c p1
361.08 242.57 2.70 c p1
362.76 239.37 2.70 c p1
364.44 246.36 2.70 c p1
366.12 241.52 2.70 c p1
367.80 240.92 2.70 c p1
369.48 249.92 2.70 c p1
371.15 243.87 2.70 c p1
372.83 243.30 2.70 c p1
374.51 237.49 2.70 c p1
376.19 243.18 2.70 c p1
377.87 245.51 2.70 c p1
379.55 244.31 2.70 c p1
381.22 245.39 2.70 c p1
382.90 247.71 2.70 c p1
384.58 245.96 2.70 c p1
386.26 242.34 2.70 c p1
387.94 244.97 2.70 c p1
389.62 243.03 2.70 c p1
391.29 242.30 2.70 c p1
392.97 237.30 2.70 c p1
394.65 241.76 2.70 c p1
396.33 244.53 2.70 c p1
398.01 248.16 2.70 c p1
399.69 244.56 2.70 c p1
401.36 244.82 2.70 c p1
403.04 241.41 2.70 c p1
404.72 243.84 2.70 c p1
406.40 239.01 2.70 c p1
0.00 0.00 450.00 315.75 cl
0 0 0 srgb
0.75 setlinewidth
[] 0 setdash
1 setlinecap
1 setlinejoin
10.00 setmiterlimit
np
72.40 73.44 m
334.00 0 l
o
np
72.40 73.44 m
0 -7.20 l
o
np
155.90 73.44 m
0 -7.20 l
o
np
239.40 73.44 m
0 -7.20 l
o
np
322.90 73.44 m
0 -7.20 l
o
np
406.40 73.44 m
0 -7.20 l
o
/Font1 findfont 12 s
72.40 47.52 (-0.01) .5 0 t
155.90 47.52 (0.00) .5 0 t
239.40 47.52 (0.01) .5 0 t
322.90 47.52 (0.02) .5 0 t
406.40 47.52 (0.03) .5 0 t
np
59.04 85.29 m
0 143.88 l
o
np
59.04 85.29 m
-7.20 0 l
o
np
59.04 121.26 m
-7.20 0 l
o
np
59.04 157.23 m
-7.20 0 l
o
np
59.04 193.20 m
-7.20 0 l
o
np
59.04 229.17 m
-7.20 0 l
o
41.76 85.29 (0.0) .5 90 t
41.76 121.26 (0.5) .5 90 t
41.76 157.23 (1.0) .5 90 t
41.76 193.20 (1.5) .5 90 t
41.76 229.17 (2.0) .5 90 t
np
59.04 73.44 m
360.72 0 l
0 183.27 l
-360.72 0 l
0 -183.27 l
o
0.00 0.00 450.00 315.75 cl
/Font1 findfont 12 s
0 0 0 srgb
239.40 18.72 (time \(s\)) .5 0 t
12.96 130.73 (T) 90 ta
-1.440 (emper) tb
-0.120 (ature) tb gr
59.04 73.44 419.76 256.71 cl
1 0 0 srgb
0.75 setlinewidth
[ 2.25 3.75] 0 setdash
1 setlinecap
1 setlinejoin
10.00 setmiterlimit
np
155.90 73.44 m
0 183.27 l
o
0.6784 0.8471 0.9020 srgb
0.75 setlinewidth
[ 0.00 3.00] 0 setdash
np
59.04 85.29 m
360.72 0 l
o
0.6000 0.6000 0.6000 srgb
np
59.04 243.56 m
360.72 0 l
o
/Font1 findfont 12 s
0 0 0 srgb
364.65 228.55 (Tmax = 2.2) .5 0 t
114.15 91.89 (Baseline = 0) .5 0 t
ep
%%Trailer
%%Pages: 1
%%EOF
