%!PS-Adobe-3.0
%%DocumentNeededResources: font Helvetica
%%+ font Helvetica-Bold
%%+ font Helvetica-Oblique
%%+ font Helvetica-BoldOblique
%%+ font Symbol
%%DocumentMedia: special 432 432 0 () ()
%%Title: R Graphics Output
%%Creator: R Software
%%Pages: (atend)
%%BoundingBox: 0 0 432 432
%%EndComments
%%BeginProlog
/bp  { gs sRGB gs } def
% begin .ps.prolog
/gs  { gsave } bind def
/gr  { grestore } bind def
/ep  { showpage gr gr } bind def
/m   { moveto } bind def
/l  { rlineto } bind def
/np  { newpath } bind def
/cp  { closepath } bind def
/f   { fill } bind def
/o   { stroke } bind def
/c   { newpath 0 360 arc } bind def
/r   { 4 2 roll moveto 1 copy 3 -1 roll exch 0 exch rlineto 0 rlineto -1 mul 0 exch rlineto closepath } bind def
/p1  { stroke } bind def
/p2  { gsave bg fill grestore newpath } bind def
/p3  { gsave bg fill grestore stroke } bind def
/p6  { gsave bg eofill grestore newpath } bind def
/p7  { gsave bg eofill grestore stroke } bind def
/t   { 5 -2 roll moveto gsave rotate
       1 index stringwidth pop
       mul neg 0 rmoveto show grestore } bind def
/ta  { 4 -2 roll moveto gsave rotate show } bind def
/tb  { 2 -1 roll 0 rmoveto show } bind def
/cl  { grestore gsave newpath 3 index 3 index moveto 1 index
       4 -1 roll lineto  exch 1 index lineto lineto
       closepath clip newpath } bind def
/rgb { setrgbcolor } bind def
/s   { scalefont setfont } bind def
% end   .ps.prolog
/sRGB { [ /CIEBasedABC
          << /DecodeLMN
               [ { dup 0.03928 le
                        {12.92321 div}
                        {0.055 add 1.055 div 2.4 exp }
                     ifelse
                 } bind dup dup
               ]
             /MatrixLMN [0.412457 0.212673 0.019334
                         0.357576 0.715152 0.119192
                         0.180437 0.072175 0.950301]
             /WhitePoint [0.9505 1.0 1.0890]
           >>
         ] setcolorspace } bind def
/srgb { setcolor } bind def
% begin encoding
/WinAnsiEncoding [
 /.notdef /.notdef /.notdef /.notdef /.notdef /.notdef /.notdef /.notdef
 /.notdef /.notdef /.notdef /.notdef /.notdef /.notdef /.notdef /.notdef
 /.notdef /.notdef /.notdef /.notdef /.notdef /.notdef /.notdef /.notdef
 /.notdef /.notdef /.notdef /.notdef /.notdef /.notdef /.notdef /.notdef
 /space /exclam /quotedbl /numbersign /dollar /percent /ampersand /quoteright
 /parenleft /parenright /asterisk /plus /comma /minus /period /slash
 /zero /one /two /three /four /five /six /seven
 /eight /nine /colon /semicolon /less /equal /greater /question
 /at /A /B /C /D /E /F /G
 /H /I /J /K /L /M /N /O
 /P /Q /R /S /T /U /V /W
 /X /Y /Z /bracketleft /backslash /bracketright /asciicircum /underscore
 /grave /a /b /c /d /e /f /g
 /h /i /j /k /l /m /n /o
 /p /q /r /s /t /u /v /w
 /x /y /z /braceleft /bar /braceright /asciitilde /.notdef
 /Euro /.notdef /quotesinglbase /florin /quotedblbase /ellipsis /dagger /daggerdbl
 /circumflex /perthousand /Scaron /guilsinglleft /OE /.notdef /Zcaron /.notdef
 /.notdef /quoteleft /quoteright /quotedblleft /quotedblright /bullet /endash /emdash
 /tilde /trademark /scaron /guilsinglright /oe /.notdef /zcaron /Ydieresis
 /space /exclamdown /cent /sterling /currency /yen /brokenbar /section
 /dieresis /copyright /ordfeminine /guillemotleft /logicalnot /hyphen /registered /macron
 /degree /plusminus /twosuperior /threesuperior /acute /mu /paragraph /periodcentered
 /cedilla /onesuperior /ordmasculine /guillemotright /onequarter /onehalf /threequarters /questiondown
 /Agrave /Aacute /Acircumflex /Atilde /Adieresis /Aring /AE /Ccedilla
 /Egrave /Eacute /Ecircumflex /Edieresis /Igrave /Iacute /Icircumflex /Idieresis
 /Eth /Ntilde /Ograve /Oacute /Ocircumflex /Otilde /Odieresis /multiply
 /Oslash /Ugrave /Uacute /Ucircumflex /Udieresis /Yacute /Thorn /germandbls
 /agrave /aacute /acircumflex /atilde /adieresis /aring /ae /ccedilla
 /egrave /eacute /ecircumflex /edieresis /igrave /iacute /icircumflex /idieresis
 /eth /ntilde /ograve /oacute /ocircumflex /otilde /odieresis /divide
 /oslash /ugrave /uacute /ucircumflex /udieresis /yacute /thorn /ydieresis
]
 def
% end encoding
%%IncludeResource: font Helvetica
/Helvetica findfont
dup length dict begin
  {1 index /FID ne {def} {pop pop} ifelse} forall
  /Encoding WinAnsiEncoding def
  currentdict
  end
/Font1 exch definefont pop
%%IncludeResource: font Helvetica-Bold
/Helvetica-Bold findfont
dup length dict begin
  {1 index /FID ne {def} {pop pop} ifelse} forall
  /Encoding WinAnsiEncoding def
  currentdict
  end
/Font2 exch definefont pop
%%IncludeResource: font Helvetica-Oblique
/Helvetica-Oblique findfont
dup length dict begin
  {1 index /FID ne {def} {pop pop} ifelse} forall
  /Encoding WinAnsiEncoding def
  currentdict
  end
/Font3 exch definefont pop
%%IncludeResource: font Helvetica-BoldOblique
/Helvetica-BoldOblique findfont
dup length dict begin
  {1 index /FID ne {def} {pop pop} ifelse} forall
  /Encoding WinAnsiEncoding def
  currentdict
  end
/Font4 exch definefont pop
%%IncludeResource: font Symbol
/Symbol findfont
dup length dict begin
  {1 index /FID ne {def} {pop pop} ifelse} forall
  currentdict
  end
/Font5 exch definefont pop
%%EndProlog
%%Page: 1 1
bp
59.04 289.44 401.76 372.96 cl
1 0 0 srgb
0.75 setlinewidth
[] 0 setdash
1 setlinecap
1 setlinejoin
10.00 setmiterlimit
np
71.73 299.35 m
0.12 0.49 l
0.13 0.36 l
0.12 0.12 l
0.12 -0.97 l
0.12 0.73 l
0.12 0.12 l
0.12 0.12 l
0.12 -0.48 l
0.12 -0.12 l
0.12 0.12 l
0.12 0.36 l
0.12 -0.12 l
0.13 -0.36 l
0.12 0.85 l
0.12 -0.49 l
0.12 -0.12 l
0.12 0.36 l
0.12 -1.09 l
0.12 0.97 l
0.12 -0.73 l
0.12 0.61 l
0.12 -0.48 l
0.12 0.36 l
0.13 0.24 l
0.12 -0.24 l
0.12 -0.37 l
0.12 0.73 l
0.12 -0.73 l
0.12 0.25 l
0.12 -0.49 l
0.12 -0.24 l
0.12 0.85 l
0.12 -0.37 l
0.13 0.37 l
0.12 -0.24 l
0.12 0.36 l
0.12 0 l
0.12 0 l
0.12 -0.73 l
0.12 0.49 l
0.12 -0.25 l
0.12 0.13 l
0.12 0.12 l
0.12 0.24 l
0.13 -0.12 l
0.12 -0.49 l
0.12 0.49 l
0.12 0 l
0.12 -0.25 l
0.12 0.37 l
0.12 -0.49 l
0.12 0.61 l
0.12 -0.12 l
0.12 -0.73 l
0.12 0.49 l
0.13 0 l
0.12 0.48 l
0.12 -0.24 l
0.12 -0.12 l
0.12 0 l
0.12 -0.25 l
0.12 0.37 l
0.12 -0.24 l
0.12 -0.25 l
0.12 -0.12 l
0.13 0.36 l
0.12 0.13 l
0.12 0.12 l
0.12 0.12 l
0.12 -0.73 l
0.12 0 l
0.12 0.12 l
0.12 0.37 l
0.12 0.12 l
0.12 0 l
0.12 -0.12 l
0.13 0.12 l
0.12 -0.25 l
0.12 -0.36 l
0.12 0.36 l
0.12 0 l
0.12 -0.24 l
0.12 -0.12 l
0.12 0.36 l
0.12 -0.60 l
0.12 0.12 l
0.12 -0.24 l
0.13 0.48 l
0.12 -0.12 l
0.12 0.24 l
0.12 0.24 l
0.12 0 l
0.12 -0.48 l
0.12 0.24 l
0.12 -0.73 l
0.12 0.37 l
0.12 0.48 l
0.12 0.12 l
0.13 -0.24 l
83.83 300.20 lineto
0.12 -0.37 l
0.12 0 l
0.12 -0.12 l
0.12 0.12 l
0.12 0.12 l
0.12 -0.12 l
0.12 0.49 l
0.12 -0.12 l
0.13 -0.49 l
0.12 -1.09 l
0.12 0.73 l
0.12 0.97 l
0.12 0.24 l
0.12 -1.09 l
0.12 0.73 l
0.12 -0.37 l
0.12 0.12 l
0.12 -0.36 l
0.12 0.12 l
0.13 0 l
0.12 -0.24 l
0.12 0.36 l
0.12 -0.73 l
0.12 0.25 l
0.12 0.48 l
0.12 -0.24 l
0.12 0.12 l
0.12 -0.24 l
0.12 0 l
0.12 -0.37 l
0.13 0.37 l
0.12 0 l
0.12 0.24 l
0.12 -0.49 l
0.12 0.49 l
0.12 -0.24 l
0.12 0.12 l
0.12 0.12 l
0.12 -0.24 l
0.12 -0.61 l
0.13 0.12 l
0.12 0 l
0.12 0.36 l
0.12 0 l
0.12 0.98 l
0.12 -0.49 l
0.12 -0.73 l
0.12 0.73 l
0.12 -0.85 l
0.12 0.73 l
0.12 0.12 l
0.13 0.12 l
0.12 -0.24 l
0.12 -0.37 l
0.12 0.73 l
0.12 -0.61 l
0.12 0.49 l
0.12 -0.61 l
0.12 0 l
0.12 0.37 l
0.12 -0.37 l
0.12 0.97 l
0.13 -0.36 l
0.12 0.12 l
0.12 -0.24 l
0.12 0 l
0.12 -0.37 l
0.12 0.37 l
0.12 -0.24 l
0.12 -0.37 l
0.12 0.12 l
0.12 0.49 l
0.13 -0.49 l
0.12 0 l
0.12 0.49 l
0.12 -0.25 l
0.12 -0.24 l
0.12 0.12 l
0.12 0.25 l
0.12 -0.25 l
0.12 -0.24 l
0.12 0.36 l
0.12 -0.12 l
0.13 0.73 l
0.12 0 l
0.12 -0.24 l
0.12 0.36 l
0.12 -0.24 l
0.12 -0.24 l
0.12 0.12 l
0.12 -0.49 l
0.12 0.24 l
0.12 -0.48 l
0.12 0.12 l
0.13 0.12 l
0.12 0.49 l
0.12 -0.61 l
0.12 0.12 l
0.12 -0.24 l
95.92 298.98 lineto
0.12 0.12 l
0.12 -0.25 l
0.12 -0.36 l
0.12 0.61 l
0.13 0.24 l
0.12 0.24 l
0.12 0.37 l
0.12 -0.97 l
0.12 0.12 l
0.12 0.48 l
0.12 0.25 l
0.12 -0.13 l
0.12 -0.24 l
0.12 0.61 l
0.12 0.36 l
0.13 -0.73 l
0.12 0.37 l
0.12 0.36 l
0.12 -0.36 l
0.12 0.48 l
0.12 -0.73 l
0.12 -0.48 l
0.12 0.24 l
0.12 0.12 l
0.12 0.85 l
0.12 -0.48 l
0.13 0 l
0.12 -0.37 l
0.12 0.12 l
0.12 0.25 l
0.12 -0.37 l
0.12 -0.12 l
0.12 0.36 l
0.12 -0.24 l
0.12 0.49 l
0.12 -0.49 l
0.12 0.24 l
0.13 -0.24 l
0.12 0.49 l
0.12 0.24 l
0.12 -0.36 l
0.12 0.24 l
0.12 -0.61 l
0.12 0.49 l
0.12 0 l
0.12 -1.10 l
0.12 0.49 l
0.13 0.24 l
0.12 0.49 l
0.12 -0.24 l
0.12 -0.49 l
0.12 0.36 l
0.12 -0.36 l
0.12 0.48 l
0.12 -0.36 l
0.12 -0.24 l
0.12 0.36 l
0.12 0.37 l
0.13 -0.61 l
0.12 0.24 l
0.12 -0.36 l
0.12 -0.12 l
0.12 0.48 l
0.12 -0.48 l
0.12 -0.13 l
0.12 -0.48 l
0.12 0.73 l
0.12 0 l
0.12 0.48 l
0.13 -0.85 l
0.12 0.61 l
0.12 0.36 l
0.12 -0.36 l
0.12 0.24 l
0.12 -0.48 l
0.12 -0.37 l
0.12 -0.12 l
0.12 0.36 l
0.12 0.13 l
0.13 -0.25 l
0.12 0.25 l
0.12 -0.37 l
0.12 0.12 l
0.12 0.61 l
0.12 0 l
0.12 0 l
0.12 0 l
0.12 0.36 l
0.12 -0.12 l
0.12 -0.60 l
0.13 0.12 l
0.12 0.24 l
0.12 0.49 l
0.12 -0.49 l
0.12 0.73 l
0.12 -0.73 l
0.12 0.48 l
0.12 0 l
0.12 0 l
108.01 299.94 lineto
0.12 0.24 l
0.13 -0.24 l
0.12 0 l
0.12 0 l
0.12 -0.24 l
0.12 0 l
0.12 -0.25 l
0.12 0.37 l
0.12 0 l
0.12 0 l
0.12 0.48 l
0.13 -0.48 l
0.12 -0.37 l
0.12 0 l
0.12 0.37 l
0.12 -0.37 l
0.12 0.49 l
0.12 -0.61 l
0.12 0.12 l
0.12 0.12 l
0.12 0.37 l
0.12 -7.41 l
0.13 9.35 l
0.12 19.43 l
0.12 25.37 l
0.12 17.85 l
0.12 5.34 l
0.12 -6.32 l
0.12 -12.87 l
0.12 -15.05 l
0.12 -12.63 l
0.12 -8.61 l
0.12 -5.95 l
0.13 -3.40 l
0.12 -2.19 l
0.12 -1.09 l
0.12 -1.34 l
0.12 -0.36 l
0.12 0 l
0.12 0 l
0.12 0 l
0.12 -0.49 l
0.12 0.12 l
0.12 0 l
0.13 -0.24 l
0.12 0.24 l
0.12 -0.60 l
0.12 0.48 l
0.12 -0.12 l
0.12 0.37 l
0.12 -0.13 l
0.12 0.61 l
0.12 -0.24 l
0.12 -0.49 l
0.13 0.25 l
0.12 -0.13 l
0.12 -0.60 l
0.12 0 l
0.12 0.24 l
0.12 -0.12 l
0.12 0 l
0.12 -0.12 l
0.12 0 l
0.12 -0.13 l
0.12 0.37 l
0.13 -0.49 l
0.12 0.37 l
0.12 -0.12 l
0.12 -0.61 l
0.12 0.24 l
0.12 0.37 l
0.12 0 l
0.12 0.24 l
0.12 0.12 l
0.12 -0.49 l
0.12 0.73 l
0.13 -0.73 l
0.12 0.13 l
0.12 0.48 l
0.12 -0.12 l
0.12 0.36 l
0.12 0.25 l
0.12 -0.13 l
0.12 -0.85 l
0.12 -0.24 l
0.12 0 l
0.13 0.37 l
0.12 -0.49 l
0.12 0 l
0.12 -0.24 l
0.12 0.60 l
0.12 -0.24 l
0.12 0.61 l
0.12 0 l
0.12 0.36 l
0.12 -0.48 l
0.12 0.12 l
0.13 0 l
0.12 -0.12 l
120.11 299.81 lineto
0.12 -0.36 l
0.12 -0.24 l
0.12 -0.01 l
0.12 0.25 l
0.12 -0.12 l
0.12 0 l
0.12 0.12 l
0.12 -0.85 l
0.13 0.36 l
0.12 0.24 l
0.12 0.49 l
0.12 -0.24 l
0.12 -0.12 l
0.12 0.12 l
0.12 0.24 l
0.12 -0.36 l
0.12 0.12 l
0.12 -0.37 l
0.13 0.25 l
0.12 -0.13 l
0.12 0.25 l
0.12 0 l
0.12 -0.12 l
0.12 0.36 l
0.12 0.12 l
0.12 -0.36 l
0.12 -0.13 l
0.12 0.37 l
0.12 -0.24 l
0.13 0.24 l
0.12 -0.24 l
0.12 0.24 l
0.12 -0.12 l
0.12 0.36 l
0.12 0.37 l
0.12 -0.37 l
0.12 -0.48 l
0.12 0.12 l
0.12 0.24 l
0.12 -0.12 l
0.13 0.60 l
0.12 -0.36 l
0.12 0 l
0.12 0 l
0.12 -0.12 l
0.12 0.73 l
0.12 0 l
0.12 -0.25 l
0.12 0 l
0.12 -0.36 l
0.13 -0.12 l
0.12 0.48 l
0.12 0.37 l
0.12 0 l
0.12 0.24 l
0.12 0.24 l
0.12 0.13 l
0.12 -0.25 l
0.12 0.24 l
0.12 0.49 l
0.12 0 l
0.13 0.36 l
0.12 0.25 l
0.12 -0.37 l
0.12 0.12 l
0.12 -0.12 l
0.12 0.37 l
0.12 -0.73 l
0.12 0.24 l
0.12 0.37 l
0.12 0.12 l
0.12 0 l
0.13 0 l
0.12 -0.12 l
0.12 0.36 l
0.12 -0.24 l
0.12 0.48 l
0.12 -0.12 l
0.12 0 l
0.12 -0.49 l
0.12 0.85 l
0.12 -0.24 l
0.12 0 l
0.13 0.37 l
0.12 -0.49 l
0.12 0.49 l
0.12 0.12 l
0.12 0.36 l
0.12 -0.48 l
0.12 0.36 l
0.12 -0.49 l
0.12 0.13 l
0.12 0.60 l
0.13 -0.24 l
0.12 0.12 l
0.12 0.36 l
0.12 0.61 l
0.12 -0.12 l
0.12 0 l
132.20 304.78 lineto
0.12 -0.12 l
0.12 -0.24 l
0.12 0.48 l
0.12 0.13 l
0.13 -0.61 l
0.12 0.12 l
0.12 0.12 l
0.12 0.61 l
0.12 0 l
0.12 0.36 l
0.12 0.12 l
0.12 0 l
0.12 0.49 l
0.12 0 l
0.12 0.73 l
0.13 -0.49 l
0.12 0.12 l
0.12 -0.48 l
0.12 0.60 l
0.12 0.13 l
0.12 -0.13 l
0.12 0.25 l
0.12 0.36 l
0.12 0 l
0.12 0.61 l
0.13 -0.37 l
0.12 0 l
0.12 -0.24 l
0.12 0.36 l
0.12 0.49 l
0.12 -0.36 l
0.12 0.48 l
0.12 0.12 l
0.12 0 l
0.12 0.37 l
0.12 -0.12 l
0.13 0.24 l
0.12 0 l
0.12 0.12 l
0.12 0.24 l
0.12 0.24 l
0.12 0.25 l
0.12 -0.61 l
0.12 0.97 l
0.12 0 l
0.12 -0.73 l
0.12 0.49 l
0.13 -0.37 l
0.12 0.37 l
0.12 0.12 l
0.12 0.49 l
0.12 -0.13 l
0.12 0.49 l
0.12 0.12 l
0.12 0.12 l
0.12 -0.12 l
0.12 -0.12 l
0.13 0.12 l
0.12 0.24 l
0.12 0.37 l
0.12 -0.25 l
0.12 0.25 l
0.12 0.12 l
0.12 0.48 l
0.12 0 l
0.12 0 l
0.12 0 l
0.12 0 l
0.13 0.25 l
0.12 0.48 l
0.12 -0.73 l
0.12 0.49 l
0.12 0.73 l
0.12 0.12 l
0.12 0 l
0.12 0.24 l
0.12 0.24 l
0.12 0.85 l
0.12 -0.36 l
0.13 0.12 l
0.12 0.12 l
0.12 -0.24 l
0.12 0.49 l
0.12 -0.13 l
0.12 0 l
0.12 -0.12 l
0.12 -0.48 l
0.12 0.85 l
0.12 -0.25 l
0.12 -0.12 l
0.13 0.85 l
0.12 0 l
0.12 0 l
0.12 0.24 l
0.12 -0.12 l
0.12 0.97 l
0.12 0.13 l
0.12 -0.49 l
0.12 -0.12 l
144.29 316.19 lineto
0.13 0.12 l
0.12 -0.24 l
0.12 -0.37 l
0.12 1.34 l
0.12 0 l
0.12 0.36 l
0.12 -0.12 l
0.12 -0.12 l
0.12 0.12 l
0.12 0 l
0.12 0.36 l
0.13 0.13 l
0.12 0 l
0.12 0 l
0.12 0.12 l
0.12 0.60 l
0.12 -1.09 l
0.12 1.34 l
0.12 0 l
0.12 -0.25 l
0.12 0.61 l
0.12 0.12 l
0.13 -0.24 l
0.12 0.73 l
0.12 -0.37 l
0.12 0.37 l
0.12 0.36 l
0.12 -0.36 l
0.12 0.73 l
0.12 -0.37 l
0.12 0.49 l
0.12 -0.49 l
0.13 -0.12 l
0.12 0.61 l
0.12 0.24 l
0.12 0.24 l
0.12 0.73 l
0.12 -0.73 l
0.12 0.61 l
0.12 -0.37 l
0.12 0.85 l
0.12 -0.85 l
0.12 -0.12 l
0.13 0.49 l
0.12 -0.12 l
0.12 0.36 l
0.12 -0.85 l
0.12 1.09 l
0.12 0.49 l
0.12 -0.49 l
0.12 0.73 l
0.12 -0.12 l
0.12 0.49 l
0.12 0.12 l
0.13 -0.25 l
0.12 0 l
0.12 0.13 l
0.12 -0.13 l
0.12 0.37 l
0.12 0.36 l
0.12 0.49 l
0.12 0 l
0.12 -0.12 l
0.12 0.85 l
0.13 -0.61 l
0.12 -0.49 l
0.12 0.37 l
0.12 -0.25 l
0.12 0.37 l
0.12 -0.12 l
0.12 0.60 l
0.12 0 l
0.12 0.13 l
0.12 0.48 l
0.12 -0.12 l
0.13 -0.61 l
0.12 0.61 l
0.12 0.12 l
0.12 0.36 l
0.12 -0.60 l
0.12 0.24 l
0.12 0.24 l
0.12 0.12 l
0.12 0.13 l
0.12 0.12 l
0.12 -0.37 l
0.13 0.73 l
0.12 -0.24 l
0.12 0.36 l
0.12 -0.24 l
0.12 0.36 l
0.12 -0.12 l
0.12 0.37 l
0.12 0.24 l
0.12 0.73 l
0.12 -0.37 l
0.13 0.25 l
0.12 -0.13 l
0.12 0.37 l
156.39 327.23 lineto
0.12 0.24 l
0.12 0.37 l
0.12 0.24 l
0.12 -0.12 l
0.12 0.48 l
0.12 0 l
0.12 0.25 l
0.13 0.24 l
0.12 -0.25 l
0.12 0.13 l
0.12 0.36 l
0.12 0.97 l
0.12 -0.12 l
0.12 -0.24 l
0.12 -0.37 l
0.12 0.61 l
0.12 -0.36 l
0.12 0.60 l
0.13 0.12 l
0.12 -0.36 l
0.12 0.36 l
0.12 -0.36 l
0.12 -0.12 l
0.12 0.48 l
0.12 -0.12 l
0.12 0 l
0.12 0 l
0.12 0 l
0.12 -0.12 l
0.13 1.46 l
0.12 -0.97 l
0.12 0.48 l
0.12 -0.36 l
0.12 0.60 l
0.12 0.13 l
0.12 0.12 l
0.12 -0.25 l
0.12 -0.12 l
0.12 0.73 l
0.13 0 l
0.12 -0.12 l
0.12 0.12 l
0.12 -0.24 l
0.12 0.60 l
0.12 0 l
0.12 0.61 l
0.12 -0.12 l
0.12 -0.24 l
0.12 0 l
0.12 0.36 l
0.13 -0.24 l
0.12 0 l
0.12 0 l
0.12 -0.24 l
0.12 0.36 l
0.12 0.24 l
0.12 0.12 l
0.12 0 l
0.12 0.61 l
0.12 -0.12 l
0.12 -0.37 l
0.13 0.49 l
0.12 -0.12 l
0.12 0.48 l
0.12 0.25 l
0.12 0.36 l
0.12 -0.24 l
0.12 -0.12 l
0.12 -0.25 l
0.12 0 l
0.12 0.49 l
0.13 0 l
0.12 0.12 l
0.12 -0.12 l
0.12 1.09 l
0.12 -0.48 l
0.12 0.36 l
0.12 -0.24 l
0.12 -0.61 l
0.12 1.09 l
0.12 0 l
0.12 -0.73 l
0.13 0.13 l
0.12 0.48 l
0.12 -0.48 l
0.12 0.24 l
0.12 0 l
0.12 0 l
0.12 0 l
0.12 0.24 l
0.12 0.61 l
0.12 -0.37 l
0.12 0.12 l
0.13 0.61 l
0.12 0.12 l
0.12 0.12 l
0.12 -0.36 l
0.12 0.12 l
0.12 -0.24 l
168.48 336.93 lineto
0.12 0.13 l
0.12 -0.37 l
0.12 0.73 l
0.13 -0.49 l
0.12 0.37 l
0.12 0 l
0.12 -0.12 l
0.12 0.36 l
0.12 0.36 l
0.12 0.13 l
0.12 0.12 l
0.12 -0.49 l
0.12 0.49 l
0.12 0 l
0.13 -0.37 l
0.12 0.37 l
0.12 0.24 l
0.12 0.36 l
0.12 -0.24 l
0.12 0.37 l
0.12 -0.98 l
0.12 0.13 l
0.12 -0.25 l
0.12 0.49 l
0.12 1.21 l
0.13 -0.73 l
0.12 -0.24 l
0.12 0.61 l
0.12 0.24 l
0.12 -0.36 l
0.12 0.48 l
0.12 0 l
0.12 -0.36 l
0.12 0.48 l
0.12 -0.24 l
0.12 0.12 l
0.13 -0.12 l
0.12 0.36 l
0.12 -0.12 l
0.12 0.49 l
0.12 -0.49 l
0.12 -0.48 l
0.12 0.48 l
0.12 -0.73 l
0.12 0 l
0.12 0.49 l
0.13 0.36 l
0.12 0.37 l
0.12 0.24 l
0.12 -0.73 l
0.12 -0.12 l
0.12 0.61 l
0.12 0 l
0.12 0.36 l
0.12 0.24 l
0.12 -0.12 l
0.12 -0.24 l
0.13 0.36 l
0.12 0.73 l
0.12 -1.33 l
0.12 0.60 l
0.12 0.61 l
0.12 -0.12 l
0.12 -0.24 l
0.12 0.12 l
0.12 0.36 l
0.12 -0.36 l
0.12 0.36 l
0.13 0.37 l
0.12 0.24 l
0.12 -0.49 l
0.12 -0.36 l
0.12 -0.12 l
0.12 0.73 l
0.12 -0.13 l
0.12 0.49 l
0.12 -0.36 l
0.12 -0.37 l
0.13 0 l
0.12 0.24 l
0.12 0.12 l
0.12 0.25 l
0.12 0.12 l
0.12 -0.49 l
0.12 0.61 l
0.12 0 l
0.12 0 l
0.12 -0.61 l
0.12 0.37 l
0.13 0.73 l
0.12 -0.85 l
0.12 0.36 l
0.12 -0.12 l
0.12 0.24 l
0.12 0.49 l
0.12 0 l
0.12 -0.37 l
0.12 0.24 l
0.12 -0.24 l
180.57 342.39 lineto
0.13 -0.12 l
0.12 0.61 l
0.12 0.12 l
0.12 -0.12 l
0.12 0.60 l
0.12 -0.73 l
0.12 0.37 l
0.12 0.24 l
0.12 -0.24 l
0.12 0.24 l
0.13 -0.12 l
0.12 -0.49 l
0.12 0.85 l
0.12 -0.36 l
0.12 0.61 l
0.12 0.12 l
0.12 -0.25 l
0.12 0.13 l
0.12 0.24 l
0.12 0 l
0.12 -0.37 l
0.13 0.25 l
0.12 0 l
0.12 -0.12 l
0.12 -0.13 l
0.12 -0.12 l
0.12 0.37 l
0.12 0.24 l
0.12 -0.24 l
0.12 0.24 l
0.12 0.12 l
0.12 0 l
0.13 0 l
0.12 0 l
0.12 -0.36 l
0.12 0.24 l
0.12 0 l
0.12 0.36 l
0.12 0 l
0.12 0 l
0.12 0 l
0.12 0.49 l
0.13 -0.24 l
0.12 0.12 l
0.12 -0.61 l
0.12 1.70 l
0.12 -0.24 l
0.12 -0.25 l
0.12 0.13 l
0.12 -0.98 l
0.12 0.25 l
0.12 0.36 l
0.12 -0.61 l
0.13 0 l
0.12 0.25 l
0.12 -0.25 l
0.12 0.73 l
0.12 -0.36 l
0.12 0.60 l
0.12 -1.09 l
0.12 1.22 l
0.12 -0.37 l
0.12 0 l
0.12 0 l
0.13 0.12 l
0.12 0 l
0.12 0 l
0.12 0.61 l
0.12 -0.12 l
0.12 0.12 l
0.12 -0.12 l
0.12 0.48 l
0.12 -0.73 l
0.12 0.25 l
0.12 -0.49 l
0.13 0.73 l
0.12 -0.12 l
0.12 -0.12 l
0.12 0.36 l
0.12 0 l
0.12 -0.36 l
0.12 0.24 l
0.12 0.24 l
0.12 0.49 l
0.12 -1.09 l
0.13 0.97 l
0.12 -0.37 l
0.12 0.12 l
0.12 0.12 l
0.12 -0.24 l
0.12 0.49 l
0.12 0 l
0.12 0.48 l
0.12 -0.12 l
0.12 -0.24 l
0.12 0.24 l
0.13 -0.24 l
0.12 -0.12 l
0.12 0 l
currentpoint o m
192.67 347.85 lineto
0.12 -0.37 l
0.12 -0.48 l
0.12 0.24 l
0.12 0.61 l
0.12 -0.49 l
0.12 -0.36 l
0.12 0 l
0.13 0.36 l
0.12 0.61 l
0.12 0.12 l
0.12 -0.73 l
0.12 0 l
0.12 0.85 l
0.12 -0.49 l
0.12 -0.12 l
0.12 -0.12 l
0.12 0.37 l
0.13 0.36 l
0.12 -0.61 l
0.12 0 l
0.12 0.12 l
0.12 -0.24 l
0.12 0.24 l
0.12 0.37 l
0.12 -0.61 l
0.12 0.37 l
0.12 0.36 l
0.12 -0.12 l
0.13 -0.12 l
0.12 0.24 l
0.12 0.24 l
0.12 -0.97 l
0.12 1.21 l
0.12 -0.72 l
0.12 0.48 l
0.12 -0.48 l
0.12 0.24 l
0.12 0.24 l
0.12 -0.48 l
0.13 0.24 l
0.12 0.24 l
0.12 -0.48 l
0.12 0.85 l
0.12 0 l
0.12 -0.13 l
0.12 0.25 l
0.12 0.36 l
0.12 -0.97 l
0.12 0.36 l
0.13 -0.73 l
0.12 0.98 l
0.12 0 l
0.12 -0.25 l
0.12 0.37 l
0.12 0.36 l
0.12 -0.36 l
0.12 0.24 l
0.12 0.36 l
0.12 -0.48 l
0.12 0.48 l
0.13 -0.24 l
0.12 -0.36 l
0.12 0.36 l
0.12 -0.24 l
0.12 0.48 l
0.12 -0.48 l
0.12 0.97 l
0.12 -0.97 l
0.12 0.24 l
0.12 -0.24 l
0.12 -1.34 l
0.13 0.49 l
0.12 0.97 l
0.12 0.61 l
0.12 0.36 l
0.12 -0.36 l
0.12 0 l
0.12 -0.25 l
0.12 0 l
0.12 0.37 l
0.12 0 l
0.12 -0.73 l
0.13 0.60 l
0.12 0.25 l
0.12 -0.25 l
0.12 0.37 l
0.12 -0.85 l
0.12 -0.24 l
0.12 0 l
0.12 0 l
0.12 0.24 l
0.12 0.24 l
0.13 -0.48 l
0.12 0.72 l
0.12 -0.12 l
0.12 0.37 l
0.12 0 l
0.12 0.12 l
0.12 -0.24 l
204.76 350.15 lineto
0.12 0 l
0.12 0.48 l
0.12 -0.36 l
0.13 0.24 l
0.12 -0.24 l
0.12 0 l
0.12 0.12 l
0.12 0.48 l
0.12 -0.24 l
0.12 0.37 l
0.12 -0.25 l
0.12 -0.24 l
0.12 0.24 l
0.12 0.12 l
0.13 -0.36 l
0.12 0.12 l
0.12 -0.48 l
0.12 0.72 l
0.12 0 l
0.12 0.13 l
0.12 -0.61 l
0.12 0.73 l
0.12 -0.37 l
0.12 0.24 l
0.13 0.37 l
0.12 -0.73 l
0.12 -0.36 l
0.12 0.12 l
0.12 0.12 l
0.12 0.36 l
0.12 -0.12 l
0.12 -0.12 l
0.12 0.36 l
0.12 -0.12 l
0.12 0.25 l
0.13 0 l
0.12 0.48 l
0.12 -0.97 l
0.12 0 l
0.12 0.24 l
0.12 0.85 l
0.12 -0.12 l
0.12 -0.49 l
0.12 0.13 l
0.12 -0.13 l
0.12 0.13 l
0.13 0.48 l
0.12 -0.36 l
0.12 -0.37 l
0.12 0.25 l
0.12 0.60 l
0.12 -0.12 l
0.12 -0.12 l
0.12 -0.24 l
0.12 0.48 l
0.12 -0.36 l
0.13 0.24 l
0.12 0.24 l
0.12 -0.48 l
0.12 0.48 l
0.12 -0.12 l
0.12 -0.36 l
0.12 -0.25 l
0.12 0 l
0.12 0.25 l
0.12 0.24 l
0.12 -0.73 l
0.13 0.73 l
0.12 0.36 l
0.12 0.13 l
0.12 -0.25 l
0.12 -0.12 l
0.12 0 l
0.12 -0.24 l
0.12 -0.12 l
0.12 0 l
0.12 0.24 l
0.12 0.24 l
0.13 0 l
0.12 0 l
0.12 0.37 l
0.12 -1.10 l
0.12 0.49 l
0.12 1.09 l
0.12 -0.24 l
0.12 -1.22 l
0.12 0.49 l
0.12 -0.12 l
0.13 0.24 l
0.12 0.12 l
0.12 0 l
0.12 0.25 l
0.12 -0.13 l
0.12 -0.36 l
0.12 0.24 l
0.12 1.34 l
0.12 -1.58 l
0.12 0.49 l
0.12 -0.49 l
216.86 352.33 lineto
0.12 -0.37 l
0.12 0.12 l
0.12 -0.36 l
0.12 0.12 l
0.12 0.61 l
0.12 -0.49 l
0.12 -0.12 l
0.12 0 l
0.12 0.36 l
0.12 -0.12 l
0.13 0.37 l
0.12 0.12 l
0.12 0.73 l
0.12 -0.73 l
0.12 0 l
0.12 0.12 l
0.12 -0.37 l
0.12 0.49 l
0.12 0.24 l
0.12 -0.24 l
0.12 0 l
0.13 0.12 l
0.12 0 l
0.12 -0.36 l
0.12 0.36 l
0.12 -0.12 l
0.12 0.12 l
0.12 -0.36 l
0.12 -0.25 l
0.12 0.37 l
0.12 0.24 l
0.13 0 l
0.12 0 l
0.12 0.12 l
0.12 0.12 l
0.12 -0.12 l
0.12 -0.36 l
0.12 0.36 l
0.12 -0.48 l
0.12 0.48 l
0.12 -0.12 l
0.12 0 l
0.13 -0.24 l
0.12 0.60 l
0.12 -0.48 l
0.12 -0.12 l
0.12 0.12 l
0.12 -0.25 l
0.12 0.49 l
0.12 0 l
0.12 -0.36 l
0.12 0.48 l
0.12 -0.12 l
0.13 0.49 l
0.12 -0.37 l
0.12 -0.12 l
0.12 0.24 l
0.12 0 l
0.12 0.12 l
0.12 -0.36 l
0.12 0 l
0.12 0 l
0.12 0.12 l
0.13 0.73 l
0.12 -0.24 l
0.12 -0.61 l
0.12 0.48 l
0.12 -0.36 l
0.12 -0.12 l
0.12 -0.12 l
0.12 0.85 l
0.12 -0.61 l
0.12 0.12 l
0.12 -0.73 l
0.13 0.49 l
0.12 0.36 l
0.12 -0.60 l
0.12 0.72 l
0.12 -0.24 l
0.12 0.24 l
0.12 0 l
0.12 -0.48 l
0.12 0.24 l
0.12 -0.12 l
0.12 0.48 l
0.13 -0.24 l
0.12 0 l
0.12 0 l
0.12 0.37 l
0.12 -0.61 l
0.12 0.85 l
0.12 -0.61 l
0.12 0.73 l
0.12 -0.12 l
0.12 -0.73 l
0.13 0 l
0.12 -0.24 l
0.12 0.48 l
0.12 -0.12 l
228.95 353.41 lineto
0.12 0.36 l
0.12 -0.24 l
0.12 -0.12 l
0.12 0.24 l
0.12 0.49 l
0.12 0 l
0.13 -0.49 l
0.12 -0.24 l
0.12 0.24 l
0.12 0.12 l
0.12 -0.36 l
0.12 0.36 l
0.12 0.13 l
0.12 0 l
0.12 -0.13 l
0.12 -1.33 l
0.12 0.61 l
0.13 0.12 l
0.12 0 l
0.12 0.97 l
0.12 -1.09 l
0.12 0.24 l
0.12 0 l
0.12 0.24 l
0.12 0.73 l
0.12 -0.49 l
0.12 -0.12 l
0.12 0.24 l
0.13 0.37 l
0.12 -0.73 l
0.12 0 l
0.12 0.49 l
0.12 -0.13 l
0.12 -0.36 l
0.12 0.85 l
0.12 -0.36 l
0.12 -0.13 l
0.12 -0.72 l
0.13 0.36 l
0.12 0.12 l
0.12 0 l
0.12 -0.48 l
0.12 0.36 l
0.12 -0.36 l
0.12 1.21 l
0.12 -0.12 l
0.12 -0.49 l
0.12 0.24 l
0.12 -0.36 l
0.13 -0.24 l
0.12 0.12 l
0.12 -0.37 l
0.12 0.49 l
0.12 0 l
0.12 0.85 l
0.12 -0.24 l
0.12 0.12 l
0.12 -0.24 l
0.12 -0.37 l
0.12 0.61 l
0.13 -0.49 l
0.12 -0.12 l
0.12 0.24 l
0.12 0.12 l
0.12 -0.12 l
0.12 0.12 l
0.12 -0.24 l
0.12 0 l
0.12 0.24 l
0.12 -0.36 l
0.13 0.73 l
0.12 -0.37 l
0.12 -0.48 l
0.12 0.24 l
0.12 -0.12 l
0.12 0.24 l
0.12 0.12 l
0.12 -0.12 l
0.12 -0.36 l
0.12 0.48 l
0.12 0.25 l
0.13 -0.49 l
0.12 0.49 l
0.12 -0.13 l
0.12 -0.48 l
0.12 0.48 l
0.12 -0.24 l
0.12 -0.36 l
0.12 0.24 l
0.12 0.24 l
0.12 -0.12 l
0.12 0.12 l
0.13 0 l
0.12 -0.12 l
0.12 0.12 l
0.12 0 l
0.12 0 l
0.12 -0.36 l
0.12 0.85 l
241.04 354.50 lineto
0.12 0.36 l
0.12 0 l
0.13 0 l
0.12 -0.49 l
0.12 -0.12 l
0.12 0 l
0.12 0.12 l
0.12 0 l
0.12 -0.12 l
0.12 0.12 l
0.12 -0.12 l
0.12 0.25 l
0.12 -0.13 l
0.13 0 l
0.12 0.25 l
0.12 0.36 l
0.12 -0.24 l
0.12 -0.49 l
0.12 0.12 l
0.12 -0.12 l
0.12 0.25 l
0.12 -0.49 l
0.12 0.49 l
0.12 0.24 l
0.13 -0.12 l
0.12 -0.73 l
0.12 0.36 l
0.12 -0.12 l
0.12 0 l
0.12 0.61 l
0.12 0 l
0.12 0 l
0.12 -0.49 l
0.12 0.37 l
0.12 0.12 l
0.13 0.24 l
0.12 0.12 l
0.12 -0.36 l
0.12 -0.12 l
0.12 0 l
0.12 0 l
0.12 -0.49 l
0.12 0.61 l
0.12 -0.12 l
0.12 0.12 l
0.13 1.45 l
0.12 -1.09 l
0.12 -0.12 l
0.12 -1.70 l
0.12 1.21 l
0.12 -0.12 l
0.12 0.49 l
0.12 -0.12 l
0.12 -0.49 l
0.12 0 l
0.12 0.61 l
0.13 -0.61 l
0.12 0.61 l
0.12 -0.49 l
0.12 0.24 l
0.12 0.13 l
0.12 0.36 l
0.12 -0.36 l
0.12 -0.25 l
0.12 0.12 l
0.12 -0.12 l
0.12 -0.24 l
0.13 -0.12 l
0.12 0.36 l
0.12 0.61 l
0.12 -0.24 l
0.12 0.12 l
0.12 -0.37 l
0.12 -0.24 l
0.12 0.36 l
0.12 -0.12 l
0.12 0 l
0.13 -0.36 l
0.12 0.48 l
0.12 0 l
0.12 0.49 l
0.12 -0.61 l
0.12 0.37 l
0.12 -0.49 l
0.12 0.49 l
0.12 -0.37 l
0.12 0.24 l
0.12 -0.12 l
0.13 0.12 l
0.12 0.49 l
0.12 0 l
0.12 -0.97 l
0.12 0.24 l
0.12 0.12 l
0.12 -0.24 l
0.12 0.49 l
0.12 -0.13 l
0.12 0.13 l
0.12 0 l
253.14 354.98 lineto
0.12 0 l
0.12 -0.13 l
0.12 0 l
0.12 0 l
0.12 -0.36 l
0.12 0.61 l
0.12 -0.49 l
0.12 0.36 l
0.12 0.61 l
0.13 -0.48 l
0.12 0.24 l
0.12 -0.24 l
0.12 -0.25 l
0.12 0.37 l
0.12 0.12 l
0.12 0.12 l
0.12 -0.73 l
0.12 0.61 l
0.12 -0.37 l
0.12 0.13 l
0.13 0.48 l
0.12 -0.48 l
0.12 0.36 l
0.12 -0.24 l
0.12 -0.12 l
0.12 0.12 l
0.12 -0.13 l
0.12 -0.12 l
0.12 0.25 l
0.12 0 l
0.12 -0.25 l
0.13 0.37 l
0.12 -0.25 l
0.12 -0.12 l
0.12 0.61 l
0.12 -0.85 l
0.12 0.36 l
0.12 0 l
0.12 0.61 l
0.12 -0.48 l
0.12 0.12 l
0.13 -0.85 l
0.12 0.73 l
0.12 0 l
0.12 -0.25 l
0.12 0.37 l
0.12 -0.12 l
0.12 -0.13 l
0.12 -0.36 l
0.12 0.12 l
0.12 -0.85 l
0.12 1.09 l
0.13 -0.12 l
0.12 0.24 l
0.12 -0.12 l
0.12 0.12 l
0.12 0.25 l
0.12 -0.61 l
0.12 -0.36 l
0.12 0 l
0.12 0.36 l
0.12 0.24 l
0.12 0.12 l
0.13 -0.36 l
0.12 0.24 l
0.12 -0.36 l
0.12 0.61 l
0.12 -0.25 l
0.12 -0.12 l
0.12 0.36 l
0.12 -0.72 l
0.12 0 l
0.12 0.60 l
0.12 0.12 l
0.13 0.13 l
0.12 -0.37 l
0.12 0.24 l
0.12 0.25 l
0.12 -0.25 l
0.12 0.49 l
0.12 -0.61 l
0.12 0 l
0.12 0.73 l
0.12 -0.36 l
0.13 -0.12 l
0.12 -0.37 l
0.12 0.24 l
0.12 -0.60 l
0.12 0.12 l
0.12 0.48 l
0.12 -0.36 l
0.12 -0.12 l
0.12 0.60 l
0.12 -0.36 l
0.12 0.12 l
0.13 -0.61 l
0.12 0.25 l
0.12 -0.49 l
0.12 0.37 l
265.23 354.85 lineto
0.12 -0.97 l
0.12 0.72 l
0.12 0 l
0.12 -0.12 l
0.12 0 l
0.12 0.37 l
0.13 0.12 l
0.12 -0.85 l
0.12 0.85 l
0.12 0.24 l
0.12 -0.97 l
0.12 0.36 l
0.12 0.25 l
0.12 0.72 l
0.12 0.13 l
0.12 -0.61 l
0.13 -0.49 l
0.12 0 l
0.12 0.61 l
0.12 0.12 l
0.12 -0.24 l
0.12 0.48 l
0.12 -0.48 l
0.12 0.36 l
0.12 -0.24 l
0.12 -1.09 l
0.12 1.21 l
0.13 0.12 l
0.12 -0.24 l
0.12 0 l
0.12 -0.49 l
0.12 0.37 l
0.12 0 l
0.12 0.24 l
0.12 -0.12 l
0.12 0 l
0.12 0.24 l
0.12 0.12 l
0.13 -0.60 l
0.12 0.36 l
0.12 -0.49 l
0.12 0.85 l
0.12 -0.12 l
0.12 0.37 l
0.12 -0.37 l
0.12 0 l
0.12 0 l
0.12 -0.60 l
0.13 0.85 l
0.12 -0.13 l
0.12 -0.48 l
0.12 1.09 l
0.12 -0.36 l
0.12 -0.37 l
0.12 0 l
0.12 -0.97 l
0.12 0.73 l
0.12 -0.12 l
0.12 0 l
0.13 -0.49 l
0.12 0 l
0.12 0.61 l
0.12 -0.12 l
0.12 0 l
0.12 0.24 l
0.12 -0.24 l
0.12 0.12 l
0.12 -0.12 l
0.12 -0.37 l
0.12 0.25 l
0.13 -0.13 l
0.12 0.49 l
0.12 -0.24 l
0.12 -0.37 l
0.12 0 l
0.12 -0.36 l
0.12 0.60 l
0.12 0 l
0.12 0.61 l
0.12 -0.36 l
0.12 0.24 l
0.13 -0.12 l
0.12 0.12 l
0.12 -0.12 l
0.12 0.48 l
0.12 0 l
0.12 -0.48 l
0.12 0 l
0.12 0.12 l
0.12 0.12 l
0.12 -0.24 l
0.13 0.12 l
0.12 -0.36 l
0.12 -0.13 l
0.12 0.85 l
0.12 -0.36 l
0.12 0 l
0.12 0.12 l
0.12 0.12 l
277.32 355.33 lineto
0.12 -0.37 l
0.12 0.49 l
0.13 -0.37 l
0.12 -0.24 l
0.12 -0.36 l
0.12 0 l
0.12 0.85 l
0.12 0.24 l
0.12 0.24 l
0.12 0 l
0.12 -0.36 l
0.12 -0.37 l
0.12 0.49 l
0.13 -0.49 l
0.12 0.24 l
0.12 0 l
0.12 0.61 l
0.12 -0.24 l
0.12 0.12 l
0.12 -0.61 l
0.12 -0.36 l
0.12 0.48 l
0.12 -0.36 l
0.13 0.24 l
0.12 0.12 l
0.12 0 l
0.12 0.49 l
0.12 0.24 l
0.12 -0.12 l
0.12 0.24 l
0.12 -0.48 l
0.12 0 l
0.12 0.36 l
0.12 0 l
0.13 -0.36 l
0.12 -0.25 l
0.12 0.25 l
0.12 0 l
0.12 -0.73 l
0.12 0.61 l
0.12 0.36 l
0.12 -0.12 l
0.12 -0.12 l
0.12 0.97 l
0.12 -0.85 l
0.13 0.24 l
0.12 -0.24 l
0.12 -0.24 l
0.12 0.12 l
0.12 0.48 l
0.12 -0.12 l
0.12 0.12 l
0.12 -0.12 l
0.12 -0.36 l
0.12 0.24 l
0.13 -0.73 l
0.12 0.49 l
0.12 0.12 l
0.12 -0.12 l
0.12 0 l
0.12 0.85 l
0.12 -0.25 l
0.12 0 l
0.12 -0.48 l
0.12 -0.25 l
0.12 -0.24 l
0.13 0.49 l
0.12 -0.37 l
0.12 0 l
0.12 0.12 l
0.12 0.49 l
0.12 -0.36 l
0.12 -0.13 l
0.12 0.49 l
0.12 -0.49 l
0.12 0.25 l
0.12 0 l
0.13 -0.13 l
0.12 -0.12 l
0.12 0.37 l
0.12 0.73 l
0.12 -0.73 l
0.12 -0.61 l
0.12 0.61 l
0.12 -0.73 l
0.12 0.24 l
0.12 0.24 l
0.13 0.25 l
0.12 -0.49 l
0.12 -0.12 l
0.12 0.73 l
0.12 -0.61 l
0.12 -0.24 l
0.12 0.36 l
0.12 0 l
0.12 0.25 l
0.12 -0.98 l
0.12 0.37 l
0.13 0.48 l
289.42 355.44 lineto
0.12 0.24 l
0.12 0 l
0.12 0.25 l
0.12 -0.37 l
0.12 -0.36 l
0.12 0.48 l
0.12 0.49 l
0.12 -0.24 l
0.12 -0.61 l
0.13 1.09 l
0.12 -0.12 l
0.12 -0.49 l
0.12 0.13 l
0.12 -0.25 l
0.12 -0.12 l
0.12 0.37 l
0.12 0.24 l
0.12 -0.37 l
0.12 -0.24 l
0.12 0.12 l
0.13 0 l
0.12 0.12 l
0.12 -0.36 l
0.12 0.73 l
0.12 0 l
0.12 0.12 l
0.12 -1.34 l
0.12 0.73 l
0.12 0.24 l
0.12 -0.60 l
0.13 0.48 l
0.12 -0.48 l
0.12 0 l
0.12 1.09 l
0.12 -0.73 l
0.12 0.61 l
0.12 -0.97 l
0.12 0.36 l
0.12 -0.36 l
0.12 0.72 l
0.12 -0.48 l
0.13 -0.73 l
0.12 0.97 l
0.12 -0.24 l
0.12 -0.12 l
0.12 0.12 l
0.12 0 l
0.12 0 l
0.12 -0.49 l
0.12 0.49 l
0.12 0 l
0.12 0.24 l
0.13 -0.48 l
0.12 0.12 l
0.12 0.12 l
0.12 -0.49 l
0.12 0.25 l
0.12 -0.49 l
0.12 0.12 l
0.12 0.37 l
0.12 0 l
0.12 0.24 l
0.13 0.36 l
0.12 -0.36 l
0.12 0 l
0.12 -0.12 l
0.12 -0.37 l
0.12 0 l
0.12 0.85 l
0.12 -0.12 l
0.12 0.12 l
0.12 0.12 l
0.12 0.25 l
0.13 -0.98 l
0.12 0.13 l
0.12 0 l
0.12 0.24 l
0.12 -0.12 l
0.12 0.24 l
0.12 -1.21 l
0.12 1.82 l
0.12 -0.49 l
0.12 0.12 l
0.12 -0.24 l
0.13 0.12 l
0.12 -0.12 l
0.12 0.24 l
0.12 0 l
0.12 -0.61 l
0.12 0.25 l
0.12 -0.25 l
0.12 0.61 l
0.12 -0.73 l
0.12 0.25 l
0.13 -0.25 l
0.12 0.37 l
0.12 0.12 l
0.12 -0.12 l
0.12 0.12 l
301.51 355.19 lineto
0.12 0.37 l
0.12 0.72 l
0.12 -0.60 l
0.12 0.12 l
0.12 -0.49 l
0.13 0.61 l
0.12 -0.37 l
0.12 -0.36 l
0.12 0.36 l
0.12 0.13 l
0.12 0.48 l
0.12 -0.12 l
0.12 -0.49 l
0.12 0.25 l
0.12 -0.25 l
0.12 -0.36 l
0.13 0.85 l
0.12 -0.97 l
0.12 0.97 l
0.12 -0.24 l
0.12 0.12 l
0.12 -0.97 l
0.12 1.09 l
0.12 -0.37 l
0.12 -0.12 l
0.12 0.37 l
0.12 -0.61 l
0.13 0.24 l
0.12 -0.12 l
0.12 0 l
0.12 0 l
0.12 0.12 l
0.12 0.37 l
0.12 0.12 l
0.12 -0.12 l
0.12 0.24 l
0.12 -0.61 l
0.13 0.12 l
0.12 0.49 l
0.12 -0.12 l
0.12 -0.12 l
0.12 -0.85 l
0.12 0.60 l
0.12 0.25 l
0.12 -0.37 l
0.12 0 l
0.12 0.73 l
0.12 -0.24 l
0.13 -0.49 l
0.12 -0.48 l
0.12 0 l
0.12 0.72 l
0.12 -0.60 l
0.12 0.36 l
0.12 -0.48 l
0.12 0.85 l
0.12 0 l
0.12 -0.49 l
0.12 -0.36 l
0.13 0.48 l
0.12 0 l
0.12 -0.24 l
0.12 0.61 l
0.12 -0.01 l
0.12 0.37 l
0.12 0.61 l
0.12 -0.73 l
0.12 -0.25 l
0.12 0.13 l
0.13 0.12 l
0.12 -0.37 l
0.12 0 l
0.12 0.25 l
0.12 0.12 l
0.12 -0.25 l
0.12 0 l
0.12 0 l
0.12 -0.36 l
0.12 0.73 l
0.12 -0.37 l
0.13 -0.60 l
0.12 0 l
0.12 0.24 l
0.12 0.36 l
0.12 -0.36 l
0.12 -0.24 l
0.12 0.48 l
0.12 0.24 l
0.12 0.25 l
0.12 -0.61 l
0.12 -0.12 l
0.13 -0.12 l
0.12 -0.12 l
0.12 0.60 l
0.12 0 l
0.12 0.37 l
0.12 -0.61 l
0.12 0.36 l
0.12 0.25 l
currentpoint o m
313.60 355.79 lineto
0.12 -0.36 l
0.13 0.24 l
0.12 0.12 l
0.12 0 l
0.12 0.12 l
0.12 -0.12 l
0.12 0.24 l
0.12 -0.36 l
0.12 -0.12 l
0.12 -0.25 l
0.12 0.49 l
0.12 0.24 l
0.13 -0.24 l
0.12 0.36 l
0.12 -0.36 l
0.12 -0.49 l
0.12 0.85 l
0.12 -0.12 l
0.12 0.12 l
0.12 -0.24 l
0.12 0 l
0.12 0.12 l
0.12 0 l
0.13 -0.12 l
0.12 0.12 l
0.12 -0.12 l
0.12 -0.24 l
0.12 0.24 l
0.12 0 l
0.12 0.12 l
0.12 -0.48 l
0.12 0 l
0.12 0 l
0.13 -0.13 l
0.12 0.37 l
0.12 1.09 l
0.12 -1.21 l
0.12 0.24 l
0.12 -0.12 l
0.12 0 l
0.12 -0.24 l
0.12 0.48 l
0.12 -0.48 l
0.12 0.60 l
0.13 0 l
0.12 -0.73 l
0.12 0.37 l
0.12 -0.12 l
0.12 0.60 l
0.12 -0.12 l
0.12 0.49 l
0.12 -1.10 l
0.12 0.13 l
0.12 -0.13 l
0.12 0.37 l
0.13 0.12 l
0.12 0.12 l
0.12 0.37 l
0.12 -0.25 l
0.12 0 l
0.12 0 l
0.12 -0.36 l
0.12 0.24 l
0.12 -0.12 l
0.12 -0.49 l
0.12 0.25 l
0.13 -0.25 l
0.12 0.25 l
0.12 -0.37 l
0.12 0.24 l
0.12 0 l
0.12 0.13 l
0.12 0.36 l
0.12 -0.36 l
0.12 0.24 l
0.12 0.12 l
0.13 0.12 l
0.12 -0.12 l
0.12 -0.49 l
0.12 0.98 l
0.12 -0.73 l
0.12 -0.25 l
0.12 -0.12 l
0.12 0.12 l
0.12 0.25 l
0.12 -0.73 l
0.12 0.48 l
0.13 0 l
0.12 0.25 l
0.12 -0.73 l
0.12 -0.24 l
0.12 0.84 l
0.12 -0.72 l
0.12 0.72 l
0.12 -0.48 l
0.12 0 l
0.12 0.48 l
0.12 -0.24 l
0.13 -0.85 l
325.70 355.18 lineto
0.12 0.60 l
0.12 0 l
0.12 -0.12 l
0.12 -0.12 l
0.12 0.85 l
0.12 -1.33 l
0.12 0.72 l
0.12 0.25 l
0.13 -0.12 l
0.12 0 l
0.12 -0.37 l
0.12 -0.36 l
0.12 0.36 l
0.12 0.49 l
0.12 0.48 l
0.12 -0.12 l
0.12 -0.61 l
0.12 0.73 l
0.12 -0.61 l
0.13 0 l
0.12 0.25 l
0.12 -0.12 l
0.12 0.36 l
0.12 -0.61 l
0.12 0.25 l
0.12 0.12 l
0.12 -0.12 l
0.12 0 l
0.12 -1.34 l
0.12 1.46 l
0.13 -0.37 l
0.12 0.85 l
0.12 -0.48 l
0.12 -0.37 l
0.12 -0.24 l
0.12 0.12 l
0.12 -0.36 l
0.12 0.60 l
0.12 0 l
0.12 -0.60 l
0.13 -0.13 l
0.12 0.73 l
0.12 -0.48 l
0.12 -0.12 l
0.12 -0.25 l
0.12 0.97 l
0.12 0.13 l
0.12 -0.25 l
0.12 -0.12 l
0.12 -0.24 l
0.12 0.73 l
0.13 -0.49 l
0.12 0.12 l
0.12 -0.48 l
0.12 -0.13 l
0.12 0 l
0.12 -0.24 l
0.12 0.85 l
0.12 -0.24 l
0.12 0.12 l
0.12 -0.24 l
0.12 0.12 l
0.13 0.12 l
0.12 0 l
0.12 -0.12 l
0.12 0 l
0.12 0.36 l
0.12 -0.36 l
0.12 -0.24 l
0.12 0.12 l
0.12 -0.37 l
0.12 0.73 l
0.12 -0.24 l
0.13 0.12 l
0.12 0.12 l
0.12 -0.36 l
0.12 0.12 l
0.12 0.12 l
0.12 0.12 l
0.12 0.24 l
0.12 -0.24 l
0.12 -0.36 l
0.12 -0.13 l
0.13 -0.48 l
0.12 0.61 l
0.12 0.36 l
0.12 -0.36 l
0.12 -0.37 l
0.12 -0.24 l
0.12 0.48 l
0.12 0.37 l
0.12 -0.97 l
0.12 0.73 l
0.12 0.12 l
0.13 -0.12 l
0.12 0.12 l
0.12 -0.25 l
0.12 0.49 l
0.12 -0.12 l
337.79 355.78 lineto
0.12 -0.37 l
0.12 -0.48 l
0.12 0.12 l
0.12 0.24 l
0.12 0 l
0.13 0.37 l
0.12 -0.37 l
0.12 0.49 l
0.12 0.60 l
0.12 -0.36 l
0.12 0.24 l
0.12 -0.73 l
0.12 0.13 l
0.12 0.72 l
0.12 0 l
0.13 -0.12 l
0.12 -0.73 l
0.12 0.25 l
0.12 0.48 l
0.12 -1.09 l
0.12 0.61 l
0.12 0.12 l
0.12 -0.25 l
0.12 0.25 l
0.12 0 l
0.12 0.97 l
0.13 -0.97 l
0.12 -0.25 l
0.12 0 l
0.12 0.61 l
0.12 0 l
0.12 -0.48 l
0.12 0 l
0.12 0 l
0.12 0.24 l
0.12 0.36 l
0.12 -0.73 l
0.13 0.61 l
0.12 -0.36 l
0.12 -0.37 l
0.12 0.49 l
0.12 -0.85 l
0.12 0.73 l
0.12 -0.49 l
0.12 0.24 l
0.12 0.25 l
0.12 -0.13 l
0.13 0.25 l
0.12 0.12 l
0.12 0.12 l
0.12 -0.24 l
0.12 -0.37 l
0.12 0.25 l
0.12 -0.49 l
0.12 0.49 l
0.12 0 l
0.12 -0.49 l
0.12 0.24 l
0.13 0.49 l
0.12 -0.37 l
0.12 -0.36 l
0.12 0.12 l
0.12 0.12 l
0.12 0.61 l
0.12 0.61 l
0.12 -0.73 l
0.12 0 l
0.12 0.12 l
0.12 -0.24 l
0.13 0 l
0.12 -0.37 l
0.12 -0.61 l
0.12 0.13 l
0.12 0.48 l
0.12 -0.24 l
0.12 0.24 l
0.12 0.12 l
0.12 -0.60 l
0.12 0.84 l
0.13 -0.12 l
0.12 0 l
0.12 0.12 l
0.12 0 l
0.12 0.37 l
0.12 -0.73 l
0.12 0.24 l
0.12 -0.12 l
0.12 -0.24 l
0.12 0.36 l
0.12 0 l
0.13 0.25 l
0.12 -0.13 l
0.12 -0.12 l
0.12 0.37 l
0.12 -0.61 l
0.12 0 l
0.12 0.36 l
0.12 -0.48 l
0.12 -0.12 l
349.88 355.04 lineto
0.12 0.24 l
0.13 0.13 l
0.12 0.24 l
0.12 0.85 l
0.12 -0.73 l
0.12 -0.12 l
0.12 0.61 l
0.12 -0.85 l
0.12 -0.13 l
0.12 0.49 l
0.12 0 l
0.12 0.24 l
0.13 -0.24 l
0.12 0.85 l
0.12 -0.85 l
0.12 0 l
0.12 0.49 l
0.12 -0.13 l
0.12 -0.48 l
0.12 0.36 l
0.12 0.12 l
0.12 -0.60 l
0.13 0.24 l
0.12 0.12 l
0.12 -0.36 l
0.12 -0.13 l
0.12 0.61 l
0.12 -0.24 l
0.12 0.12 l
0.12 0 l
0.12 0.36 l
0.12 -0.12 l
0.12 0 l
0.13 -0.85 l
0.12 0.49 l
0.12 -0.12 l
0.12 0.12 l
0.12 -0.24 l
0.12 -0.13 l
0.12 0.49 l
0.12 0.24 l
0.12 -0.36 l
0.12 -0.37 l
0.12 0.37 l
0.13 0.12 l
0.12 -0.61 l
0.12 0.24 l
0.12 1.10 l
0.12 -0.49 l
0.12 -0.73 l
0.12 0.49 l
0.12 0.12 l
0.12 -0.36 l
0.12 0.72 l
0.13 -0.36 l
0.12 0.61 l
0.12 -0.85 l
0.12 0 l
0.12 0.36 l
0.12 -0.24 l
0.12 -0.24 l
0.12 -0.13 l
0.12 0.37 l
0.12 -0.25 l
0.12 0 l
0.13 0.61 l
0.12 -0.73 l
0.12 0.25 l
0.12 0 l
0.12 0 l
0.12 0.60 l
0.12 -0.48 l
0.12 0 l
0.12 -0.12 l
0.12 -0.13 l
0.12 0.61 l
0.13 -0.48 l
0.12 -0.73 l
0.12 0.48 l
0.12 -0.24 l
0.12 0.36 l
0.12 -0.12 l
0.12 -0.24 l
0.12 0.36 l
0.12 -0.24 l
0.12 0.24 l
0.13 -0.12 l
0.12 0.61 l
0.12 -0.24 l
0.12 -0.13 l
0.12 0.49 l
0.12 -0.49 l
0.12 -0.36 l
0.12 1.34 l
0.12 -1.22 l
0.12 0.61 l
0.12 -0.61 l
0.13 0.37 l
0.12 0.24 l
361.98 355.76 lineto
0.12 0.49 l
0.12 -0.49 l
0.12 -0.24 l
0.12 0.12 l
0.12 0 l
0.12 0.49 l
0.12 -0.49 l
0.12 0.73 l
0.13 -0.61 l
0.12 0 l
0.12 0.25 l
0.12 0.24 l
0.12 -0.49 l
0.12 0.61 l
0.12 -0.24 l
0.12 -0.12 l
0.12 -0.25 l
0.12 0.25 l
0.12 -0.37 l
0.13 0.24 l
0.12 0.13 l
0.12 -0.25 l
0.12 0.25 l
0.12 0.12 l
0.12 -0.61 l
0.12 0.24 l
0.12 -0.36 l
0.12 0.12 l
0.12 0.36 l
0.13 -0.36 l
0.12 0.73 l
0.12 -0.49 l
0.12 0.24 l
0.12 -0.60 l
0.12 0.24 l
0.12 0.49 l
0.12 0 l
0.12 -0.73 l
0.12 0.12 l
0.12 0.36 l
0.13 -0.12 l
0.12 0.37 l
0.12 0.24 l
0.12 -0.85 l
0.12 0.85 l
0.12 -0.97 l
0.12 0.24 l
0.12 0.12 l
0.12 0.12 l
0.12 -0.24 l
0.12 -0.12 l
0.13 0.12 l
0.12 0.12 l
0.12 0.24 l
0.12 -0.48 l
0.12 0.24 l
0.12 0 l
0.12 -0.24 l
0.12 0 l
0.12 0.48 l
0.12 -0.60 l
0.13 0.12 l
0.12 0.48 l
0.12 0.12 l
0.12 0.37 l
0.12 0.12 l
0.12 -0.24 l
0.12 -0.25 l
0.12 0 l
0.12 0.12 l
0.12 -0.36 l
0.12 0.49 l
0.13 0.24 l
0.12 0 l
0.12 -0.37 l
0.12 0.13 l
0.12 0.60 l
0.12 -0.97 l
0.12 -0.12 l
0.12 0.61 l
0.12 -0.25 l
0.12 -0.48 l
0.12 -0.12 l
0.13 0 l
0.12 0 l
0.12 -0.37 l
0.12 0.25 l
0.12 0.24 l
0.12 -0.37 l
0.12 0.73 l
0.12 0.12 l
0.12 -0.85 l
0.12 0.12 l
0.13 0 l
0.12 -0.24 l
0.12 0.24 l
0.12 0.13 l
0.12 -0.49 l
0.12 0.85 l
374.07 355.27 lineto
0.12 0.97 l
0.12 -0.12 l
0.12 0.37 l
0.12 -0.61 l
0.13 0.12 l
0.12 -0.12 l
0.12 0.48 l
0.12 -0.36 l
0.12 -0.49 l
0.12 0.61 l
0.12 -0.12 l
0.12 -0.12 l
0.12 0.12 l
0.12 0.36 l
0.12 -0.73 l
0.13 0.37 l
0.12 -0.37 l
0.12 0.37 l
0.12 0.48 l
0.12 0 l
0.12 -0.85 l
0.12 0.13 l
0.12 -0.25 l
0.12 0.49 l
0.12 0.36 l
0.13 -0.48 l
0.12 -0.12 l
0.12 0.36 l
0.12 -0.61 l
0.12 0.49 l
0.12 -0.12 l
0.12 -0.13 l
0.12 0.13 l
0.12 0.12 l
0.12 -0.49 l
0.12 0.24 l
0.13 -0.72 l
0.12 0.36 l
0.12 0.36 l
0.12 0.73 l
0.12 -0.36 l
0.12 0.48 l
0.12 -0.48 l
0.12 -0.37 l
0.12 1.10 l
0.12 -0.85 l
0.12 0 l
0.13 -0.25 l
0.12 0.49 l
0.12 -0.24 l
0.12 -0.13 l
0.12 0 l
0.12 -0.12 l
0.12 0.25 l
0.12 -0.25 l
0.12 -0.12 l
0.12 0.24 l
0.12 0.13 l
0.13 -0.25 l
0.12 -0.12 l
0.12 0.12 l
0.12 -0.12 l
0.12 0.61 l
0.12 -0.37 l
0.12 0.13 l
0.12 -0.25 l
0.12 0.61 l
0.12 -0.61 l
0.13 0 l
0.12 -0.24 l
0.12 0.48 l
0.12 -0.48 l
0.12 0.24 l
0.12 0.73 l
0.12 -0.12 l
0.12 0.24 l
0.12 -0.36 l
0.12 -0.12 l
0.12 0.36 l
0.13 -0.73 l
0.12 0 l
0.12 0 l
0.12 0.61 l
0.12 0.24 l
0.12 -0.73 l
0.12 0.25 l
0.12 0 l
0.12 -0.25 l
0.12 0 l
0.12 -0.12 l
0.13 0.61 l
0.12 0 l
0.12 -0.61 l
0.12 0.49 l
0.12 0.24 l
0.12 -1.09 l
0.12 1.33 l
0.12 -0.85 l
0.12 0 l
386.16 356.11 lineto
0.13 -0.48 l
0.12 0.61 l
0.12 -0.25 l
0.12 -0.36 l
0.12 -0.12 l
0.12 0.24 l
0.12 0 l
0.12 0.36 l
0.12 -0.60 l
0.12 0.12 l
0.12 0.12 l
0.13 0 l
0.12 -0.49 l
0.12 0.61 l
0.12 -0.85 l
0.12 0.61 l
0.12 0.24 l
0.12 0.24 l
0.12 -0.60 l
0.12 0 l
0.12 0.48 l
0.12 0.12 l
0.13 -0.60 l
0.12 0.12 l
o
0.00 0.00 432.00 432.00 cl
0 0 0 srgb
0.75 setlinewidth
[] 0 setdash
1 setlinecap
1 setlinejoin
10.00 setmiterlimit
np
110.67 289.44 m
272.11 0 l
o
np
110.67 289.44 m
0 -7.20 l
o
np
201.38 289.44 m
0 -7.20 l
o
np
292.08 289.44 m
0 -7.20 l
o
np
382.78 289.44 m
0 -7.20 l
o
/Font1 findfont 12 s
110.67 263.52 (0.00) .5 0 t
201.38 263.52 (0.05) .5 0 t
292.08 263.52 (0.10) .5 0 t
382.78 263.52 (0.15) .5 0 t
np
59.04 297.30 m
0 59.67 l
o
np
59.04 297.30 m
-7.20 0 l
o
np
59.04 317.19 m
-7.20 0 l
o
np
59.04 337.08 m
-7.20 0 l
o
np
59.04 356.97 m
-7.20 0 l
o
41.76 297.30 (-5.65) .5 90 t
41.76 356.97 (-5.50) .5 90 t
np
59.04 289.44 m
342.72 0 l
0 83.52 l
-342.72 0 l
0 -83.52 l
o
0.00 216.00 432.00 432.00 cl
/Font2 findfont 14 s
0 0 0 srgb
230.40 397.45 (IR Detector Signals) .5 0 t
/Font1 findfont 12 s
230.40 234.72 (Time \(s\)) .5 0 t
12.96 331.20 (Signal \(V\)) .5 90 t
59.04 289.44 401.76 372.96 cl
0 0 1 srgb
0.75 setlinewidth
[] 0 setdash
1 setlinecap
1 setlinejoin
10.00 setmiterlimit
np
71.61 300.94 m
0.12 0.61 l
0.12 0.24 l
0.13 0.12 l
0.12 -0.48 l
0.12 0.12 l
0.12 0.24 l
0.12 -0.36 l
0.12 0 l
0.12 0 l
0.12 -0.37 l
0.12 -0.48 l
0.12 0.36 l
0.12 0 l
0.13 0.12 l
0.12 -1.09 l
0.12 0 l
0.12 0.24 l
0.12 -0.12 l
0.12 0.49 l
0.12 -0.25 l
0.12 0.73 l
0.12 -0.36 l
0.12 -0.37 l
0.12 0.13 l
0.13 -0.13 l
0.12 0.61 l
0.12 0.24 l
0.12 0.13 l
0.12 -0.49 l
0.12 -0.12 l
0.12 0.12 l
0.12 0.12 l
0.12 -0.12 l
0.12 0.24 l
0.13 -0.24 l
0.12 0.12 l
0.12 -0.12 l
0.12 0.24 l
0.12 0.25 l
0.12 -0.37 l
0.12 -0.12 l
0.12 0.12 l
0.12 -0.36 l
0.12 0 l
0.12 0.36 l
0.13 -0.36 l
0.12 0.48 l
0.12 -0.48 l
0.12 0.73 l
0.12 0 l
0.12 -0.37 l
0.12 0 l
0.12 0.24 l
0.12 -0.12 l
0.12 0 l
0.12 -0.12 l
0.13 0.12 l
0.12 -0.12 l
0.12 -0.24 l
0.12 -0.24 l
0.12 0.36 l
0.12 -0.24 l
0.12 0.72 l
0.12 0.25 l
0.12 -0.49 l
0.12 0.12 l
0.13 -0.36 l
0.12 0.36 l
0.12 -1.21 l
0.12 0.73 l
0.12 -0.25 l
0.12 0.49 l
0.12 -0.36 l
0.12 0.12 l
0.12 -0.12 l
0.12 -0.13 l
0.12 0.13 l
0.13 0.12 l
0.12 0.36 l
0.12 0.12 l
0.12 0 l
0.12 -0.12 l
0.12 -0.24 l
0.12 0 l
0.12 0 l
0.12 -0.12 l
0.12 0.60 l
0.12 -0.60 l
0.13 0.36 l
0.12 0.24 l
0.12 -0.48 l
0.12 0.24 l
0.12 0.24 l
0.12 -0.24 l
0.12 0.12 l
0.12 -0.12 l
0.12 -0.48 l
0.12 0 l
0.12 -0.49 l
83.71 299.97 lineto
0.12 0.73 l
0.12 -0.61 l
0.12 0.61 l
0.12 0 l
0.12 0.36 l
0.12 -0.12 l
0.12 -0.36 l
0.12 0.36 l
0.12 -0.36 l
0.13 -0.37 l
0.12 0.73 l
0.12 0 l
0.12 -0.36 l
0.12 0.24 l
0.12 -0.37 l
0.12 -0.36 l
0.12 0.36 l
0.12 -0.85 l
0.12 1.22 l
0.12 0.12 l
0.13 -0.12 l
0.12 0.60 l
0.12 -0.72 l
0.12 -0.49 l
0.12 0.61 l
0.12 -0.49 l
0.12 0.61 l
0.12 -1.21 l
0.12 0.60 l
0.12 0 l
0.12 -0.12 l
0.13 0.12 l
0.12 0.37 l
0.12 0 l
0.12 -0.37 l
0.12 0.37 l
0.12 -0.13 l
0.12 0.73 l
0.12 -0.48 l
0.12 0.12 l
0.12 0.12 l
0.13 -0.49 l
0.12 0.37 l
0.12 -0.49 l
0.12 1.22 l
0.12 -0.73 l
0.12 -0.49 l
0.12 0.85 l
0.12 -0.60 l
0.12 0 l
0.12 0.24 l
0.12 -0.12 l
0.13 -0.12 l
0.12 -0.25 l
0.12 -0.12 l
0.12 -0.12 l
0.12 0.61 l
0.12 -1.10 l
0.12 0.98 l
0.12 -0.61 l
0.12 0.36 l
0.12 0.37 l
0.12 0.12 l
0.13 0.12 l
0.12 0.12 l
0.12 -0.24 l
0.12 0 l
0.12 -0.12 l
0.12 0 l
0.12 0.60 l
0.12 -0.97 l
0.12 0.73 l
0.12 -0.24 l
0.13 0.24 l
0.12 0.24 l
0.12 -0.48 l
0.12 0.12 l
0.12 -0.49 l
0.12 0 l
0.12 0.37 l
0.12 0.12 l
0.12 -0.61 l
0.12 0.25 l
0.12 -0.61 l
0.13 0.36 l
0.12 0.49 l
0.12 0 l
0.12 -0.12 l
0.12 0.36 l
0.12 -0.12 l
0.12 -0.37 l
0.12 -0.24 l
0.12 0 l
0.12 0 l
0.12 0.49 l
0.13 -0.25 l
0.12 -0.12 l
0.12 0.12 l
0.12 0 l
95.80 299.48 lineto
0.12 1.46 l
0.12 0.24 l
0.12 -0.36 l
0.12 0.12 l
0.12 0 l
0.13 0.12 l
0.12 -0.24 l
0.12 -0.37 l
0.12 0.61 l
0.12 -0.37 l
0.12 -0.24 l
0.12 -0.24 l
0.12 0.61 l
0.12 -0.13 l
0.12 0.13 l
0.12 -0.49 l
0.13 0.61 l
0.12 -0.37 l
0.12 -0.24 l
0.12 0.12 l
0.12 -0.12 l
0.12 0.24 l
0.12 0.25 l
0.12 -0.49 l
0.12 0.36 l
0.12 0.25 l
0.12 0.48 l
0.13 -0.48 l
0.12 -0.49 l
0.12 0.24 l
0.12 -0.12 l
0.12 0.25 l
0.12 -0.49 l
0.12 0.49 l
0.12 -0.13 l
0.12 0.13 l
0.12 0 l
0.12 0.12 l
0.13 0.36 l
0.12 0.12 l
0.12 -0.36 l
0.12 -0.24 l
0.12 0.72 l
0.12 -0.85 l
0.12 0.25 l
0.12 -0.25 l
0.12 -0.12 l
0.12 0.12 l
0.13 0.25 l
0.12 -0.61 l
0.12 0.73 l
0.12 0.36 l
0.12 -0.12 l
0.12 0 l
0.12 0.73 l
0.12 -0.49 l
0.12 -0.48 l
0.12 0.24 l
0.12 0.12 l
0.13 -0.36 l
0.12 0 l
0.12 -0.25 l
0.12 0.61 l
0.12 -0.97 l
0.12 -0.24 l
0.12 0.36 l
0.12 0.37 l
0.12 0.12 l
0.12 -0.61 l
0.12 0.24 l
0.13 -0.12 l
0.12 0.37 l
0.12 0.24 l
0.12 -0.61 l
0.12 0.24 l
0.12 -0.72 l
0.12 0.48 l
0.12 0.49 l
0.12 0 l
0.12 -0.37 l
0.13 0.49 l
0.12 -0.12 l
0.12 -0.37 l
0.12 0.12 l
0.12 0.85 l
0.12 -0.97 l
0.12 0.12 l
0.12 0.25 l
0.12 -0.37 l
0.12 0.12 l
0.12 -0.48 l
0.13 0.48 l
0.12 0.37 l
0.12 -0.37 l
0.12 -0.36 l
0.12 0.36 l
0.12 0 l
0.12 -0.24 l
0.12 0 l
107.89 300.57 lineto
0.12 0 l
0.12 0.12 l
0.13 0.49 l
0.12 -0.37 l
0.12 0.37 l
0.12 0.12 l
0.12 -0.73 l
0.12 0.61 l
0.12 -0.37 l
0.12 -0.36 l
0.12 0.73 l
0.12 -0.37 l
0.13 0.49 l
0.12 -0.73 l
0.12 0.36 l
0.12 -0.72 l
0.12 0.24 l
0.12 -0.37 l
0.12 0 l
0.12 0.85 l
0.12 -0.12 l
0.12 -0.12 l
0.12 -4.25 l
0.13 6.68 l
0.12 14.69 l
0.12 15.78 l
0.12 11.17 l
0.12 2.43 l
0.12 -5.22 l
0.12 -8.01 l
0.12 -11.05 l
0.12 -7.53 l
0.12 -5.34 l
0.12 -4.25 l
0.13 -2.06 l
0.12 -1.70 l
0.12 -0.49 l
0.12 -0.73 l
0.12 0.12 l
0.12 0.13 l
0.12 -0.13 l
0.12 0 l
0.12 -0.36 l
0.12 -0.12 l
0.12 0.12 l
0.13 -0.36 l
0.12 0.36 l
0.12 -0.36 l
0.12 0 l
0.12 0.72 l
0.12 -0.48 l
0.12 0 l
0.12 0.36 l
0.12 -0.97 l
0.12 0.49 l
0.13 0 l
0.12 -0.25 l
0.12 -0.72 l
0.12 0.36 l
0.12 0.85 l
0.12 -0.49 l
0.12 -0.12 l
0.12 0.61 l
0.12 0 l
0.12 0.36 l
0.12 -0.60 l
0.13 0.48 l
0.12 0.37 l
0.12 -0.97 l
0.12 0.12 l
0.12 0.12 l
0.12 0.48 l
0.12 -0.72 l
0.12 0.36 l
0.12 -0.12 l
0.12 -0.49 l
0.12 -0.12 l
0.13 0.24 l
0.12 0.49 l
0.12 -0.85 l
0.12 1.09 l
0.12 -0.48 l
0.12 -0.73 l
0.12 0.48 l
0.12 0.12 l
0.12 -0.60 l
0.12 0.73 l
0.13 -0.25 l
0.12 -0.48 l
0.12 0.12 l
0.12 0.24 l
0.12 0.61 l
0.12 -0.12 l
0.12 0 l
0.12 0 l
0.12 0 l
0.12 -0.37 l
0.12 -0.12 l
0.13 0.73 l
119.99 300.45 lineto
0.12 -0.61 l
0.12 -1.09 l
0.12 0.85 l
0.12 0.24 l
0.12 -0.12 l
0.12 0.97 l
0.12 -1.09 l
0.12 0.60 l
0.12 0.13 l
0.13 0.48 l
0.12 -0.36 l
0.12 -0.12 l
0.12 0.12 l
0.12 -0.73 l
0.12 0.61 l
0.12 0.24 l
0.12 -0.24 l
0.12 0.72 l
0.12 -0.24 l
0.13 -0.24 l
0.12 -0.61 l
0.12 0.73 l
0.12 -0.12 l
0.12 -0.24 l
0.12 0.12 l
0.12 -0.25 l
0.12 0.49 l
0.12 -0.36 l
0.12 0.12 l
0.12 -0.25 l
0.13 0 l
0.12 -0.36 l
0.12 0.36 l
0.12 0.37 l
0.12 0.12 l
0.12 -0.37 l
0.12 0.61 l
0.12 0 l
0.12 0 l
0.12 -0.12 l
0.12 -0.24 l
0.13 0.48 l
0.12 -0.12 l
0.12 0.24 l
0.12 0 l
0.12 -0.24 l
0.12 0.49 l
0.12 -0.61 l
0.12 0.12 l
0.12 0.12 l
0.12 0.25 l
0.12 0.12 l
0.13 -0.25 l
0.12 0.13 l
0.12 0 l
0.12 0 l
0.12 0.60 l
0.12 -0.36 l
0.12 -0.12 l
0.12 -0.12 l
0.12 -0.37 l
0.12 0.37 l
0.13 0.72 l
0.12 -0.12 l
0.12 -0.48 l
0.12 0.36 l
0.12 0 l
0.12 0.37 l
0.12 0.24 l
0.12 -0.24 l
0.12 0 l
0.12 0.36 l
0.12 -0.36 l
0.13 0.48 l
0.12 -0.12 l
0.12 0.12 l
0.12 0 l
0.12 -0.12 l
0.12 0.48 l
0.12 -0.84 l
0.12 1.09 l
0.12 -0.37 l
0.12 -0.12 l
0.12 0 l
0.13 0.85 l
0.12 0 l
0.12 -0.24 l
0.12 -0.49 l
0.12 0.85 l
0.12 -0.48 l
0.12 0.24 l
0.12 -0.24 l
0.12 -0.12 l
0.12 0.24 l
0.13 0.73 l
0.12 0 l
0.12 0.36 l
0.12 -0.85 l
0.12 0.85 l
132.08 303.97 lineto
0.12 0.36 l
0.12 0.12 l
0.12 -0.85 l
0.12 0.85 l
0.12 0 l
0.13 0 l
0.12 0.37 l
0.12 -0.37 l
0.12 -0.12 l
0.12 0.36 l
0.12 0.25 l
0.12 0.72 l
0.12 -0.72 l
0.12 0.60 l
0.12 -0.85 l
0.12 0.49 l
0.13 -0.12 l
0.12 0.73 l
0.12 -0.98 l
0.12 0.98 l
0.12 -0.37 l
0.12 0.24 l
0.12 0.49 l
0.12 0.36 l
0.12 -0.36 l
0.12 -0.24 l
0.13 0.60 l
0.12 -0.72 l
0.12 0.36 l
0.12 0 l
0.12 -0.49 l
0.12 0.85 l
0.12 0.13 l
0.12 -0.13 l
0.12 1.46 l
0.12 -0.73 l
0.12 -0.12 l
0.13 -0.36 l
0.12 0.60 l
0.12 -0.24 l
0.12 0.37 l
0.12 0.12 l
0.12 0.12 l
0.12 -0.37 l
0.12 0.25 l
0.12 -0.25 l
0.12 0.13 l
0.12 0.24 l
0.13 0.48 l
0.12 0 l
0.12 0 l
0.12 0.37 l
0.12 -0.25 l
0.12 0 l
0.12 0.61 l
0.12 0.61 l
0.12 -0.49 l
0.12 0.97 l
0.13 -1.33 l
0.12 0.12 l
0.12 0.24 l
0.12 0.37 l
0.12 0 l
0.12 -0.12 l
0.12 -0.49 l
0.12 0.61 l
0.12 0.36 l
0.12 -0.36 l
0.12 0.73 l
0.13 -0.61 l
0.12 0.61 l
0.12 -0.13 l
0.12 -0.36 l
0.12 0.36 l
0.12 0 l
0.12 0 l
0.12 -0.24 l
0.12 1.22 l
0.12 -0.25 l
0.12 -0.48 l
0.13 0.85 l
0.12 0 l
0.12 -0.25 l
0.12 0.25 l
0.12 -0.13 l
0.12 0.25 l
0.12 0.12 l
0.12 0.24 l
0.12 0.37 l
0.12 0.48 l
0.12 -0.85 l
0.13 1.22 l
0.12 -0.13 l
0.12 -0.36 l
0.12 0.12 l
0.12 0.12 l
0.12 0.49 l
0.12 -0.61 l
0.12 0.73 l
144.17 312.58 lineto
0.12 0.12 l
0.13 0.37 l
0.12 -0.49 l
0.12 0.37 l
0.12 0.60 l
0.12 0 l
0.12 0 l
0.12 0.13 l
0.12 -0.49 l
0.12 0.85 l
0.12 -0.49 l
0.12 0.25 l
0.13 0 l
0.12 -0.12 l
0.12 0 l
0.12 0 l
0.12 0.24 l
0.12 -0.12 l
0.12 0.12 l
0.12 0 l
0.12 0.24 l
0.12 0 l
0.12 0.24 l
0.13 0.49 l
0.12 -0.12 l
0.12 0 l
0.12 -0.61 l
0.12 0.24 l
0.12 0.37 l
0.12 0.12 l
0.12 -0.24 l
0.12 0 l
0.12 0.36 l
0.13 -0.12 l
0.12 -0.12 l
0.12 0.60 l
0.12 0.37 l
0.12 -0.37 l
0.12 -0.24 l
0.12 0.85 l
0.12 0.12 l
0.12 -0.36 l
0.12 0.85 l
0.12 0.36 l
0.13 -0.12 l
0.12 -0.24 l
0.12 -0.49 l
0.12 0.49 l
0.12 0 l
0.12 -0.24 l
0.12 0.48 l
0.12 0.36 l
0.12 0.25 l
0.12 0 l
0.12 0.12 l
0.13 -0.24 l
0.12 0.48 l
0.12 0.12 l
0.12 -0.24 l
0.12 0 l
0.12 0.36 l
0.12 -0.24 l
0.12 0.12 l
0.12 0 l
0.12 -0.24 l
0.13 0.36 l
0.12 -0.48 l
0.12 0.24 l
0.12 0.49 l
0.12 -0.12 l
0.12 0.60 l
0.12 -0.36 l
0.12 -0.12 l
0.12 0.36 l
0.12 0.61 l
0.12 -0.37 l
0.13 0.61 l
0.12 -0.24 l
0.12 0 l
0.12 0 l
0.12 0 l
0.12 0.12 l
0.12 0 l
0.12 0.36 l
0.12 -0.36 l
0.12 0.24 l
0.12 0.25 l
0.13 0.24 l
0.12 0 l
0.12 -0.12 l
0.12 0 l
0.12 -0.13 l
0.12 0.25 l
0.12 0 l
0.12 0 l
0.12 -0.25 l
0.12 0.25 l
0.12 0.48 l
0.13 -0.48 l
156.27 320.23 lineto
0.12 0.85 l
0.12 0.24 l
0.12 -0.12 l
0.12 0.12 l
0.12 0 l
0.12 -0.24 l
0.12 0.12 l
0.12 0.24 l
0.13 0.61 l
0.12 -0.24 l
0.12 -0.12 l
0.12 -0.49 l
0.12 0 l
0.12 0.36 l
0.12 0.13 l
0.12 -0.13 l
0.12 0.37 l
0.12 0.36 l
0.12 -0.12 l
0.13 0.24 l
0.12 0.61 l
0.12 -0.61 l
0.12 0.49 l
0.12 -0.24 l
0.12 0.12 l
0.12 -0.37 l
0.12 0 l
0.12 0.37 l
0.12 0.36 l
0.12 -0.48 l
0.13 0.36 l
0.12 -0.12 l
0.12 0 l
0.12 0.24 l
0.12 -0.73 l
0.12 1.10 l
0.12 0.12 l
0.12 -0.12 l
0.12 -0.25 l
0.12 0.37 l
0.13 -0.12 l
0.12 0.12 l
0.12 0 l
0.12 0.24 l
0.12 0.12 l
0.12 0.12 l
0.12 0.25 l
0.12 0 l
0.12 -0.61 l
0.12 0.36 l
0.12 0.12 l
0.13 0.98 l
0.12 -0.98 l
0.12 0.37 l
0.12 0.48 l
0.12 0.13 l
0.12 0.24 l
0.12 -0.85 l
0.12 0.24 l
0.12 -0.24 l
0.12 0.73 l
0.12 0.24 l
0.13 -0.12 l
0.12 -0.49 l
0.12 0.12 l
0.12 0.49 l
0.12 -0.61 l
0.12 0.24 l
0.12 -0.60 l
0.12 0.36 l
0.12 0.12 l
0.12 -0.12 l
0.13 0.12 l
0.12 0.85 l
0.12 -0.48 l
0.12 -0.61 l
0.12 0.73 l
0.12 0.36 l
0.12 -0.24 l
0.12 0.24 l
0.12 -0.48 l
0.12 0.60 l
0.12 0.13 l
0.13 0.12 l
0.12 -0.61 l
0.12 0.61 l
0.12 0.60 l
0.12 -0.24 l
0.12 0.37 l
0.12 -0.37 l
0.12 -0.24 l
0.12 -0.24 l
0.12 0.48 l
0.12 0.49 l
0.13 -0.49 l
0.12 0.24 l
0.12 0.13 l
0.12 0.12 l
0.12 0.36 l
168.36 327.27 lineto
0.12 0.12 l
0.12 0.48 l
0.12 -0.60 l
0.12 0 l
0.13 -0.61 l
0.12 0.37 l
0.12 0.60 l
0.12 -0.60 l
0.12 0.24 l
0.12 0.36 l
0.12 0 l
0.12 -0.24 l
0.12 0.24 l
0.12 -0.24 l
0.12 -0.12 l
0.13 0.36 l
0.12 0.24 l
0.12 0 l
0.12 -0.12 l
0.12 -0.12 l
0.12 0.37 l
0.12 -0.25 l
0.12 0.25 l
0.12 0.24 l
0.12 -0.49 l
0.12 -0.12 l
0.13 0.73 l
0.12 -0.49 l
0.12 0.49 l
0.12 0.49 l
0.12 -0.73 l
0.12 0.36 l
0.12 0.37 l
0.12 -0.13 l
0.12 0.25 l
0.12 -0.12 l
0.12 0 l
0.13 -1.34 l
0.12 0.97 l
0.12 0.37 l
0.12 -0.49 l
0.12 0.24 l
0.12 0 l
0.12 0.37 l
0.12 0.24 l
0.12 -0.24 l
0.12 0 l
0.13 0.36 l
0.12 0 l
0.12 0 l
0.12 -0.36 l
0.12 0.36 l
0.12 0 l
0.12 -0.12 l
0.12 0.12 l
0.12 0 l
0.12 -0.36 l
0.12 0.36 l
0.13 -0.12 l
0.12 0.61 l
0.12 0 l
0.12 -0.37 l
0.12 0.12 l
0.12 -0.24 l
0.12 0.49 l
0.12 -0.25 l
0.12 0.49 l
0.12 0.24 l
0.12 -0.24 l
0.13 -0.49 l
0.12 0.73 l
0.12 -0.24 l
0.12 -0.49 l
0.12 1.22 l
0.12 -0.25 l
0.12 0.13 l
0.12 -0.25 l
0.12 -0.48 l
0.12 -0.12 l
0.13 0.72 l
0.12 -0.24 l
0.12 -0.24 l
0.12 0.48 l
0.12 -0.60 l
0.12 0.60 l
0.12 0.61 l
0.12 -0.36 l
0.12 0.24 l
0.12 -1.09 l
0.12 0.73 l
0.13 0.72 l
0.12 0 l
0.12 0.25 l
0.12 -0.25 l
0.12 -0.36 l
0.12 0.24 l
0.12 0.49 l
0.12 -0.25 l
0.12 -0.36 l
180.45 331.51 lineto
0.12 -0.12 l
0.13 -0.12 l
0.12 -0.24 l
0.12 0.61 l
0.12 0.12 l
0.12 0.24 l
0.12 -0.36 l
0.12 0.48 l
0.12 1.34 l
0.12 -1.58 l
0.12 -0.24 l
0.13 0 l
0.12 0.12 l
0.12 0.36 l
0.12 -0.48 l
0.12 0 l
0.12 0.12 l
0.12 -0.49 l
0.12 0.37 l
0.12 0.24 l
0.12 0.36 l
0.12 0 l
0.13 -0.36 l
0.12 0.48 l
0.12 -0.12 l
0.12 -0.12 l
0.12 -0.24 l
0.12 0.48 l
0.12 -0.36 l
0.12 -0.24 l
0.12 0.36 l
0.12 -0.36 l
0.12 0.60 l
0.13 -0.60 l
0.12 0.48 l
0.12 0.49 l
0.12 -0.37 l
0.12 0 l
0.12 0.13 l
0.12 0.12 l
0.12 -0.12 l
0.12 0 l
0.12 0.12 l
0.12 -0.25 l
0.13 0.61 l
0.12 0 l
0.12 0.12 l
0.12 -0.12 l
0.12 -0.36 l
0.12 0.48 l
0.12 0.37 l
0.12 -0.73 l
0.12 0.36 l
0.12 -0.24 l
0.13 0.61 l
0.12 -0.49 l
0.12 0.61 l
0.12 -0.25 l
0.12 -0.60 l
0.12 0.73 l
0.12 -0.37 l
0.12 0.85 l
0.12 0.12 l
0.12 -0.12 l
0.12 -0.85 l
0.13 0.73 l
0.12 -0.24 l
0.12 0.12 l
0.12 -0.24 l
0.12 0.24 l
0.12 -1.09 l
0.12 1.45 l
0.12 -0.48 l
0.12 0.24 l
0.12 0 l
0.12 -0.36 l
0.13 0.48 l
0.12 0.12 l
0.12 0 l
0.12 0.73 l
0.12 -0.48 l
0.12 -0.73 l
0.12 0.24 l
0.12 0 l
0.12 0.24 l
0.12 -0.12 l
0.13 0 l
0.12 -0.12 l
0.12 0.61 l
0.12 -0.37 l
0.12 0 l
0.12 0 l
0.12 0.24 l
0.12 0.25 l
0.12 -0.37 l
0.12 0.61 l
0.12 -0.24 l
0.13 -0.12 l
0.12 0 l
currentpoint o m
192.55 333.94 lineto
0.12 0.85 l
0.12 0.24 l
0.12 0 l
0.12 -0.48 l
0.12 -0.12 l
0.12 0.60 l
0.12 0 l
0.12 -0.12 l
0.13 0.12 l
0.12 -0.12 l
0.12 -0.24 l
0.12 0 l
0.12 0.24 l
0.12 -0.36 l
0.12 0 l
0.12 0.60 l
0.12 0.25 l
0.12 -0.61 l
0.13 0 l
0.12 0.61 l
0.12 -0.61 l
0.12 0.12 l
0.12 0.24 l
0.12 -0.72 l
0.12 0.97 l
0.12 0.85 l
0.12 -0.85 l
0.12 -0.12 l
0.12 -0.61 l
0.13 0.61 l
0.12 -0.13 l
0.12 -0.12 l
0.12 0.61 l
0.12 -0.49 l
0.12 0.61 l
0.12 -0.61 l
0.12 0.49 l
0.12 0.12 l
0.12 0.36 l
0.12 -0.60 l
0.13 -0.37 l
0.12 0.25 l
0.12 0 l
0.12 -0.13 l
0.12 0.13 l
0.12 -0.37 l
0.12 0.49 l
0.12 -0.37 l
0.12 0.97 l
0.12 -0.60 l
0.13 0 l
0.12 0.24 l
0.12 -0.49 l
0.12 0.37 l
0.12 -0.24 l
0.12 -0.25 l
0.12 0.37 l
0.12 0.60 l
0.12 0.13 l
0.12 0 l
0.12 -0.49 l
0.13 0.61 l
0.12 0.24 l
0.12 -0.36 l
0.12 -0.13 l
0.12 -0.60 l
0.12 0 l
0.12 0.48 l
0.12 -0.12 l
0.12 0.12 l
0.12 -0.36 l
0.12 0.48 l
0.13 0.25 l
0.12 -0.12 l
0.12 -0.73 l
0.12 0.48 l
0.12 0.49 l
0.12 -0.12 l
0.12 0.24 l
0.12 0 l
0.12 -0.24 l
0.12 0.12 l
0.12 -0.61 l
0.13 -0.24 l
0.12 0.12 l
0.12 0.24 l
0.12 0 l
0.12 0.73 l
0.12 0 l
0.12 -0.24 l
0.12 0.24 l
0.12 -0.48 l
0.12 0.24 l
0.13 0 l
0.12 0.24 l
0.12 -0.36 l
0.12 0.24 l
0.12 -0.12 l
0.12 0.60 l
204.64 336.12 lineto
0.12 -0.48 l
0.12 0.48 l
0.12 0.37 l
0.12 -0.25 l
0.13 0 l
0.12 0.13 l
0.12 0.85 l
0.12 -0.73 l
0.12 0.12 l
0.12 0.36 l
0.12 -0.85 l
0.12 0.49 l
0.12 -0.12 l
0.12 0.60 l
0.12 -0.60 l
0.13 -0.73 l
0.12 1.09 l
0.12 0 l
0.12 0 l
0.12 0.24 l
0.12 0 l
0.12 -0.12 l
0.12 -0.12 l
0.12 0.49 l
0.12 0 l
0.13 -0.85 l
0.12 -0.73 l
0.12 1.33 l
0.12 -0.72 l
0.12 0.12 l
0.12 -0.12 l
0.12 0.60 l
0.12 0.12 l
0.12 0.49 l
0.12 -0.12 l
0.12 -0.24 l
0.13 -0.37 l
0.12 0.24 l
0.12 0 l
0.12 0.25 l
0.12 0 l
0.12 0.12 l
0.12 0 l
0.12 0.24 l
0.12 -0.48 l
0.12 -0.37 l
0.12 0.49 l
0.13 -0.37 l
0.12 0.24 l
0.12 -0.12 l
0.12 0.37 l
0.12 -0.37 l
0.12 -0.36 l
0.12 0.73 l
0.12 0 l
0.12 -0.37 l
0.12 -0.12 l
0.13 -0.12 l
0.12 0.12 l
0.12 0.61 l
0.12 -0.61 l
0.12 0.61 l
0.12 -0.12 l
0.12 0 l
0.12 0.12 l
0.12 -0.85 l
0.12 0.61 l
0.12 -0.13 l
0.13 0.49 l
0.12 -0.61 l
0.12 0.12 l
0.12 -0.12 l
0.12 0 l
0.12 0.49 l
0.12 -0.49 l
0.12 0.12 l
0.12 0.13 l
0.12 0.12 l
0.12 0.48 l
0.13 0 l
0.12 -0.36 l
0.12 0.12 l
0.12 0 l
0.12 0.12 l
0.12 -0.12 l
0.12 0.24 l
0.12 -0.12 l
0.12 -0.36 l
0.12 0.48 l
0.12 0.12 l
0.13 -0.24 l
0.12 0.24 l
0.12 -0.24 l
0.12 0.12 l
0.12 0.12 l
0.12 0.13 l
0.12 -0.61 l
0.12 0.36 l
0.12 -0.12 l
216.73 337.70 lineto
0.13 0.24 l
0.12 -0.24 l
0.12 0 l
0.12 0.61 l
0.12 0.12 l
0.12 -0.49 l
0.12 -0.36 l
0.12 0 l
0.12 0.24 l
0.12 0 l
0.12 -0.12 l
0.13 -0.73 l
0.12 0.97 l
0.12 -0.24 l
0.12 -0.12 l
0.12 0.36 l
0.12 -0.36 l
0.12 0 l
0.12 0.60 l
0.12 -0.85 l
0.12 0.85 l
0.12 -0.60 l
0.13 0.24 l
0.12 -0.24 l
0.12 0.48 l
0.12 -0.48 l
0.12 0.60 l
0.12 -0.85 l
0.12 0.61 l
0.12 0.24 l
0.12 -0.60 l
0.12 0 l
0.13 1.09 l
0.12 -0.36 l
0.12 0 l
0.12 0.60 l
0.12 -0.36 l
0.12 -0.12 l
0.12 0.12 l
0.12 -0.49 l
0.12 0.49 l
0.12 -0.24 l
0.12 0.12 l
0.13 -0.12 l
0.12 0.48 l
0.12 0 l
0.12 0 l
0.12 -0.73 l
0.12 -0.60 l
0.12 0.60 l
0.12 0.73 l
0.12 0.24 l
0.12 -0.36 l
0.12 0.36 l
0.13 -0.12 l
0.12 -0.36 l
0.12 0.12 l
0.12 0.12 l
0.12 -0.36 l
0.12 0.12 l
0.12 0.24 l
0.12 0.12 l
0.12 -0.48 l
0.12 -0.13 l
0.13 -0.12 l
0.12 0.85 l
0.12 -0.97 l
0.12 0.24 l
0.12 0.37 l
0.12 0.36 l
0.12 -0.48 l
0.12 -0.12 l
0.12 0 l
0.12 0 l
0.12 -0.13 l
0.13 0.37 l
0.12 -0.61 l
0.12 0.61 l
0.12 -0.24 l
0.12 0.24 l
0.12 0.24 l
0.12 -0.61 l
0.12 0.13 l
0.12 -0.25 l
0.12 0.61 l
0.12 0.24 l
0.13 -0.60 l
0.12 -0.37 l
0.12 0.61 l
0.12 0.12 l
0.12 0.12 l
0.12 -0.12 l
0.12 0.12 l
0.12 -0.36 l
0.12 0.36 l
0.12 0 l
0.13 -0.61 l
0.12 0.13 l
0.12 0.12 l
228.83 338.30 lineto
0.12 0.85 l
0.12 0.25 l
0.12 -0.61 l
0.12 -0.36 l
0.12 0.12 l
0.12 -0.61 l
0.12 0.61 l
0.13 0.73 l
0.12 -0.49 l
0.12 0.24 l
0.12 0.61 l
0.12 -0.85 l
0.12 0.49 l
0.12 0.12 l
0.12 -0.61 l
0.12 0.48 l
0.12 -0.72 l
0.12 0.12 l
0.13 0 l
0.12 0.36 l
0.12 0.61 l
0.12 -0.37 l
0.12 -0.24 l
0.12 0.12 l
0.12 0.25 l
0.12 0.24 l
0.12 -0.49 l
0.12 -0.73 l
0.12 0.73 l
0.13 -0.60 l
0.12 0 l
0.12 -0.13 l
0.12 0.49 l
0.12 0.12 l
0.12 0.24 l
0.12 -0.36 l
0.12 0.24 l
0.12 0.12 l
0.12 0.13 l
0.13 -0.37 l
0.12 0.12 l
0.12 -0.24 l
0.12 -0.36 l
0.12 0.72 l
0.12 -0.48 l
0.12 0.48 l
0.12 -0.60 l
0.12 0.12 l
0.12 0.36 l
0.12 0.37 l
0.13 0 l
0.12 -0.61 l
0.12 0.36 l
0.12 0 l
0.12 0.25 l
0.12 -0.12 l
0.12 0.24 l
0.12 -0.61 l
0.12 0.12 l
0.12 0.12 l
0.12 0.73 l
0.13 -0.85 l
0.12 0.12 l
0.12 0 l
0.12 -0.24 l
0.12 -0.36 l
0.12 0.36 l
0.12 -0.12 l
0.12 0.49 l
0.12 0.24 l
0.12 -0.24 l
0.13 -0.37 l
0.12 -0.36 l
0.12 0.85 l
0.12 0 l
0.12 -0.25 l
0.12 0 l
0.12 -0.12 l
0.12 0.49 l
0.12 -0.37 l
0.12 0.37 l
0.12 -0.49 l
0.13 0 l
0.12 -0.61 l
0.12 0.73 l
0.12 0.61 l
0.12 -0.85 l
0.12 0.12 l
0.12 0.73 l
0.12 -0.36 l
0.12 0.48 l
0.12 -0.36 l
0.12 -0.49 l
0.13 0.12 l
0.12 0.25 l
0.12 -0.13 l
0.12 0.13 l
0.12 -0.37 l
0.12 -0.12 l
240.92 338.79 lineto
0.12 0.73 l
0.12 0 l
0.12 0 l
0.13 0.12 l
0.12 -1.10 l
0.12 0.73 l
0.12 -0.24 l
0.12 0 l
0.12 0.36 l
0.12 -0.36 l
0.12 0.49 l
0.12 -0.13 l
0.12 0.13 l
0.12 0 l
0.13 -0.37 l
0.12 0.37 l
0.12 -0.25 l
0.12 0.25 l
0.12 -0.49 l
0.12 0.85 l
0.12 0 l
0.12 -0.12 l
0.12 0.36 l
0.12 -0.97 l
0.12 0.73 l
0.13 -0.24 l
0.12 0.12 l
0.12 0.12 l
0.12 -0.36 l
0.12 0 l
0.12 0.24 l
0.12 -0.24 l
0.12 0 l
0.12 0.36 l
0.12 0.48 l
0.12 -0.60 l
0.13 -0.37 l
0.12 0.37 l
0.12 0 l
0.12 0.12 l
0.12 -0.73 l
0.12 0 l
0.12 0.36 l
0.12 0 l
0.12 -0.24 l
0.12 -0.12 l
0.13 -0.24 l
0.12 0.24 l
0.12 0.12 l
0.12 -0.36 l
0.12 0.48 l
0.12 0.25 l
0.12 0.12 l
0.12 -0.37 l
0.12 0.49 l
0.12 -0.24 l
0.12 0.12 l
0.13 -0.73 l
0.12 0 l
0.12 0.36 l
0.12 0 l
0.12 0.73 l
0.12 -0.48 l
0.12 0 l
0.12 0 l
0.12 0.24 l
0.12 -0.12 l
0.12 0.24 l
0.13 -0.24 l
0.12 0.48 l
0.12 0.25 l
0.12 -0.49 l
0.12 0.24 l
0.12 0.25 l
0.12 -0.85 l
0.12 -0.25 l
0.12 0.25 l
0.12 0.24 l
0.13 -0.49 l
0.12 0.12 l
0.12 0.25 l
0.12 0.12 l
0.12 0.12 l
0.12 -0.61 l
0.12 0.85 l
0.12 -0.36 l
0.12 -0.37 l
0.12 0.73 l
0.12 -0.36 l
0.13 0 l
0.12 -0.49 l
0.12 0.25 l
0.12 -0.25 l
0.12 0 l
0.12 0.61 l
0.12 0.12 l
0.12 0 l
0.12 0.49 l
0.12 -1.46 l
253.01 339.88 lineto
0.13 0.73 l
0.12 -0.61 l
0.12 0.61 l
0.12 0 l
0.12 -0.25 l
0.12 -1.33 l
0.12 0.73 l
0.12 -0.13 l
0.12 0.37 l
0.12 -0.37 l
0.13 0.25 l
0.12 -0.12 l
0.12 0 l
0.12 0.12 l
0.12 -0.12 l
0.12 -0.13 l
0.12 -0.36 l
0.12 0.36 l
0.12 0 l
0.12 0.25 l
0.12 -0.97 l
0.13 0.72 l
0.12 0.49 l
0.12 0 l
0.12 -0.49 l
0.12 0.13 l
0.12 0.24 l
0.12 0.12 l
0.12 0.49 l
0.12 -0.73 l
0.12 0.60 l
0.12 -0.97 l
0.13 0.12 l
0.12 0.25 l
0.12 0.24 l
0.12 -0.12 l
0.12 -0.24 l
0.12 0.48 l
0.12 -0.48 l
0.12 -0.49 l
0.12 1.82 l
0.12 -0.73 l
0.13 0 l
0.12 0.37 l
0.12 -0.85 l
0.12 0.48 l
0.12 -0.60 l
0.12 0.36 l
0.12 0 l
0.12 -0.12 l
0.12 0.24 l
0.12 0.12 l
0.12 -0.24 l
0.13 0 l
0.12 -0.24 l
0.12 0.24 l
0.12 0 l
0.12 0.24 l
0.12 -0.97 l
0.12 0.61 l
0.12 0 l
0.12 0.12 l
0.12 -0.37 l
0.12 0.98 l
0.13 -0.73 l
0.12 -0.12 l
0.12 0.12 l
0.12 -0.37 l
0.12 0.12 l
0.12 0.37 l
0.12 0.12 l
0.12 -0.73 l
0.12 0 l
0.12 0.49 l
0.12 -0.25 l
0.13 0.25 l
0.12 0.12 l
0.12 -0.12 l
0.12 -0.12 l
0.12 0.48 l
0.12 0 l
0.12 0 l
0.12 -0.36 l
0.12 -0.37 l
0.12 0.73 l
0.13 0.49 l
0.12 -0.73 l
0.12 0 l
0.12 0.24 l
0.12 -0.24 l
0.12 -0.49 l
0.12 0.49 l
0.12 0 l
0.12 0.36 l
0.12 -0.24 l
0.12 -0.24 l
0.13 -0.12 l
0.12 -0.25 l
0.12 0.49 l
265.11 339.88 lineto
0.12 0.24 l
0.12 0.36 l
0.12 -0.60 l
0.12 0.36 l
0.12 -0.49 l
0.12 0 l
0.12 0.49 l
0.13 -0.49 l
0.12 0.25 l
0.12 -0.12 l
0.12 -0.13 l
0.12 0.73 l
0.12 -0.24 l
0.12 -0.12 l
0.12 -0.12 l
0.12 0 l
0.12 0.24 l
0.13 0 l
0.12 -0.85 l
0.12 0.48 l
0.12 -0.12 l
0.12 0.25 l
0.12 0.36 l
0.12 -0.24 l
0.12 0.12 l
0.12 -0.49 l
0.12 -0.12 l
0.12 -0.24 l
0.13 0.24 l
0.12 0.24 l
0.12 0.25 l
0.12 0.24 l
0.12 0.12 l
0.12 -0.61 l
0.12 0.37 l
0.12 -0.24 l
0.12 0.48 l
0.12 -0.85 l
0.12 0.12 l
0.13 0.25 l
0.12 0.72 l
0.12 -0.12 l
0.12 -0.24 l
0.12 -0.24 l
0.12 0 l
0.12 0.24 l
0.12 0.12 l
0.12 -0.24 l
0.12 -0.12 l
0.13 0 l
0.12 -0.25 l
0.12 0.13 l
0.12 0.72 l
0.12 -0.12 l
0.12 -0.24 l
0.12 1.09 l
0.12 -1.33 l
0.12 0.24 l
0.12 0.24 l
0.12 0 l
0.13 0.12 l
0.12 0.13 l
0.12 -0.73 l
0.12 0 l
0.12 0.85 l
0.12 -0.61 l
0.12 0.49 l
0.12 -0.49 l
0.12 -0.36 l
0.12 0.72 l
0.12 0 l
0.13 -0.36 l
0.12 -0.49 l
0.12 -0.12 l
0.12 0 l
0.12 0.37 l
0.12 0.36 l
0.12 -0.24 l
0.12 0.12 l
0.12 0.48 l
0.12 -0.48 l
0.12 0 l
0.13 -0.37 l
0.12 0.37 l
0.12 0.36 l
0.12 -0.48 l
0.12 -0.12 l
0.12 -0.13 l
0.12 -0.24 l
0.12 0.61 l
0.12 -0.73 l
0.12 0.24 l
0.13 0.12 l
0.12 0.49 l
0.12 -0.36 l
0.12 -0.13 l
0.12 0.37 l
0.12 -0.37 l
0.12 0.49 l
277.20 340.12 lineto
0.12 0.12 l
0.12 0.12 l
0.12 0.12 l
0.13 -0.24 l
0.12 0.12 l
0.12 -0.61 l
0.12 0 l
0.12 0 l
0.12 0.85 l
0.12 -0.24 l
0.12 -0.61 l
0.12 -0.48 l
0.12 0.72 l
0.12 0.49 l
0.13 -0.12 l
0.12 0.61 l
0.12 -0.85 l
0.12 0.24 l
0.12 -0.37 l
0.12 0.37 l
0.12 -0.24 l
0.12 0.36 l
0.12 -0.24 l
0.12 0.24 l
0.13 0.36 l
0.12 -0.48 l
0.12 -0.37 l
0.12 0.13 l
0.12 0.24 l
0.12 -0.12 l
0.12 0.24 l
0.12 -0.24 l
0.12 0 l
0.12 0.24 l
0.12 -0.36 l
0.13 0 l
0.12 0.72 l
0.12 -0.72 l
0.12 0.12 l
0.12 -0.13 l
0.12 -0.12 l
0.12 0.12 l
0.12 0 l
0.12 0.25 l
0.12 0.24 l
0.12 0.12 l
0.13 -0.73 l
0.12 0.61 l
0.12 -0.85 l
0.12 0.24 l
0.12 0.49 l
0.12 -0.24 l
0.12 0.24 l
0.12 0 l
0.12 0.61 l
0.12 -0.49 l
0.13 0.49 l
0.12 -0.85 l
0.12 0 l
0.12 0.12 l
0.12 0.12 l
0.12 0.12 l
0.12 -0.12 l
0.12 -0.37 l
0.12 -0.12 l
0.12 -0.24 l
0.12 0.12 l
0.13 -0.36 l
0.12 1.09 l
0.12 -0.49 l
0.12 0 l
0.12 0.61 l
0.12 -0.36 l
0.12 -0.49 l
0.12 0.49 l
0.12 -0.25 l
0.12 0.13 l
0.12 -0.25 l
0.13 0.97 l
0.12 -0.48 l
0.12 -0.12 l
0.12 0.36 l
0.12 -0.12 l
0.12 0.12 l
0.12 -0.61 l
0.12 0.37 l
0.12 -0.85 l
0.12 0.97 l
0.13 0 l
0.12 -0.36 l
0.12 0.24 l
0.12 0 l
0.12 -0.37 l
0.12 0.49 l
0.12 0.24 l
0.12 -0.12 l
0.12 -1.21 l
0.12 0.97 l
0.12 0.12 l
289.30 340.23 lineto
0.12 0.13 l
0.12 0 l
0.12 0.12 l
0.12 -0.12 l
0.12 -0.13 l
0.12 0 l
0.12 0.37 l
0.12 -0.24 l
0.12 -0.61 l
0.12 0.73 l
0.13 -0.37 l
0.12 0.49 l
0.12 -0.37 l
0.12 0.25 l
0.12 0 l
0.12 0 l
0.12 -0.37 l
0.12 -0.36 l
0.12 0.24 l
0.12 1.58 l
0.12 -1.09 l
0.13 0.12 l
0.12 0.12 l
0.12 -0.36 l
0.12 0.36 l
0.12 0.36 l
0.12 -0.72 l
0.12 0.24 l
0.12 0.36 l
0.12 -0.36 l
0.12 -0.24 l
0.13 0.48 l
0.12 0.24 l
0.12 0 l
0.12 -0.72 l
0.12 0.24 l
0.12 0.36 l
0.12 -0.60 l
0.12 0.24 l
0.12 -0.12 l
0.12 -0.12 l
0.12 0.24 l
0.13 -0.24 l
0.12 0.12 l
0.12 0 l
0.12 -0.12 l
0.12 0.12 l
0.12 0.24 l
0.12 -0.24 l
0.12 0.60 l
0.12 -0.12 l
0.12 0.24 l
0.12 0 l
0.13 0.25 l
0.12 -0.85 l
0.12 0.24 l
0.12 -0.24 l
0.12 0.48 l
0.12 -0.72 l
0.12 -0.01 l
0.12 0 l
0.12 0 l
0.12 -0.36 l
0.13 0.73 l
0.12 -0.61 l
0.12 0.12 l
0.12 -0.12 l
0.12 0.37 l
0.12 0.24 l
0.12 -0.12 l
0.12 0.24 l
0.12 -0.73 l
0.12 0.12 l
0.12 0.97 l
0.13 -0.36 l
0.12 -0.24 l
0.12 -0.25 l
0.12 -0.36 l
0.12 -0.36 l
0.12 0.36 l
0.12 0.36 l
0.12 0 l
0.12 -0.12 l
0.12 0.12 l
0.12 0 l
0.13 -0.12 l
0.12 0.25 l
0.12 -0.61 l
0.12 0.48 l
0.12 0.49 l
0.12 -0.36 l
0.12 0.36 l
0.12 0.12 l
0.12 -0.85 l
0.12 0.49 l
0.13 0 l
0.12 -0.12 l
0.12 -0.13 l
0.12 0 l
301.39 340.60 lineto
0.12 -0.49 l
0.12 0.61 l
0.12 -0.37 l
0.12 0.25 l
0.12 0.12 l
0.12 -0.73 l
0.13 0.49 l
0.12 0.24 l
0.12 0 l
0.12 -0.12 l
0.12 0.48 l
0.12 -0.36 l
0.12 -0.24 l
0.12 0.72 l
0.12 -0.97 l
0.12 0.12 l
0.12 -0.24 l
0.13 -0.36 l
0.12 0.24 l
0.12 0.24 l
0.12 0.73 l
0.12 -0.97 l
0.12 -0.36 l
0.12 0.60 l
0.12 -0.12 l
0.12 0.97 l
0.12 -1.09 l
0.12 0.61 l
0.13 -0.25 l
0.12 0.25 l
0.12 -0.25 l
0.12 -0.36 l
0.12 0.24 l
0.12 0 l
0.12 0.37 l
0.12 -0.25 l
0.12 0.25 l
0.12 0 l
0.13 -0.25 l
0.12 -0.12 l
0.12 0.61 l
0.12 -0.49 l
0.12 0.25 l
0.12 0 l
0.12 0 l
0.12 0.12 l
0.12 -0.37 l
0.12 0 l
0.12 0 l
0.13 0 l
0.12 0 l
0.12 0.49 l
0.12 -0.49 l
0.12 -0.48 l
0.12 -0.25 l
0.12 0.85 l
0.12 -0.12 l
0.12 0.25 l
0.12 -0.13 l
0.12 1.10 l
0.13 -1.22 l
0.12 0.25 l
0.12 0 l
0.12 -0.25 l
0.12 0 l
0.12 0.25 l
0.12 -0.61 l
0.12 0.24 l
0.12 -0.48 l
0.12 0.36 l
0.13 0.61 l
0.12 -0.25 l
0.12 0 l
0.12 0.13 l
0.12 -0.25 l
0.12 -0.12 l
0.12 0.49 l
0.12 -0.37 l
0.12 -0.24 l
0.12 0.73 l
0.12 -0.25 l
0.13 -0.48 l
0.12 0.61 l
0.12 -0.49 l
0.12 0.36 l
0.12 0.25 l
0.12 0 l
0.12 0 l
0.12 0 l
0.12 -0.25 l
0.12 -0.12 l
0.12 -1.45 l
0.13 1.09 l
0.12 0.24 l
0.12 0 l
0.12 0.24 l
0.12 0.25 l
0.12 -0.25 l
0.12 -1.57 l
currentpoint o m
313.48 340.11 lineto
0.12 0 l
0.12 0 l
0.13 0.36 l
0.12 0.25 l
0.12 -0.13 l
0.12 0.25 l
0.12 -0.49 l
0.12 0.24 l
0.12 -0.12 l
0.12 0.25 l
0.12 0 l
0.12 -0.49 l
0.12 0 l
0.13 0.49 l
0.12 0.12 l
0.12 -0.12 l
0.12 0.24 l
0.12 -0.49 l
0.12 0.73 l
0.12 -0.12 l
0.12 -0.36 l
0.12 -0.13 l
0.12 0 l
0.12 0 l
0.13 0.25 l
0.12 -0.25 l
0.12 -0.24 l
0.12 -0.24 l
0.12 0.61 l
0.12 0 l
0.12 -0.61 l
0.12 0.36 l
0.12 -0.12 l
0.12 0.49 l
0.13 -0.25 l
0.12 0.25 l
0.12 -0.49 l
0.12 0.24 l
0.12 -0.24 l
0.12 0.24 l
0.12 -0.60 l
0.12 0.36 l
0.12 0.49 l
0.12 -0.73 l
0.12 0.12 l
0.13 0.61 l
0.12 -0.49 l
0.12 -0.12 l
0.12 0.36 l
0.12 0.85 l
0.12 -1.09 l
0.12 0.61 l
0.12 -0.37 l
0.12 1.58 l
0.12 -1.33 l
0.12 -0.25 l
0.13 0.49 l
0.12 -0.12 l
0.12 -0.37 l
0.12 -0.24 l
0.12 -0.61 l
0.12 0.73 l
0.12 0.12 l
0.12 -0.36 l
0.12 0.85 l
0.12 -0.12 l
0.12 0.24 l
0.13 -0.24 l
0.12 -0.49 l
0.12 0.85 l
0.12 -0.24 l
0.12 -0.24 l
0.12 -0.49 l
0.12 -0.12 l
0.12 0.48 l
0.12 -0.24 l
0.12 0.24 l
0.13 -0.36 l
0.12 0.73 l
0.12 0 l
0.12 -0.49 l
0.12 0.12 l
0.12 -0.24 l
0.12 0.37 l
0.12 -0.25 l
0.12 0.25 l
0.12 0.12 l
0.12 0.24 l
0.13 -0.24 l
0.12 0.12 l
0.12 -0.37 l
0.12 0.13 l
0.12 -0.25 l
0.12 0.25 l
0.12 -0.37 l
0.12 -0.12 l
0.12 0 l
0.12 -0.12 l
0.12 0.36 l
325.58 341.56 lineto
0.12 -0.60 l
0.12 0 l
0.12 -0.37 l
0.12 0 l
0.12 0 l
0.12 -0.48 l
0.12 0 l
0.12 -0.12 l
0.12 0.12 l
0.13 0.36 l
0.12 -0.24 l
0.12 0.24 l
0.12 -0.24 l
0.12 0 l
0.12 0.12 l
0.12 -0.49 l
0.12 0.73 l
0.12 -0.24 l
0.12 0.24 l
0.12 -0.12 l
0.13 0 l
0.12 0.24 l
0.12 0.37 l
0.12 0.97 l
0.12 -0.73 l
0.12 -0.61 l
0.12 -0.73 l
0.12 0.37 l
0.12 0.36 l
0.12 -0.48 l
0.12 0.36 l
0.13 -0.12 l
0.12 -0.49 l
0.12 0.13 l
0.12 -0.25 l
0.12 1.10 l
0.12 -0.25 l
0.12 -0.12 l
0.12 0.24 l
0.12 0 l
0.12 -0.48 l
0.13 0.61 l
0.12 -0.37 l
0.12 -0.48 l
0.12 0.24 l
0.12 0.12 l
0.12 -0.49 l
0.12 0.49 l
0.12 -0.36 l
0.12 0.97 l
0.12 -0.73 l
0.12 0.48 l
0.13 -0.36 l
0.12 0 l
0.12 0.12 l
0.12 -0.12 l
0.12 0.24 l
0.12 -0.48 l
0.12 0 l
0.12 -0.12 l
0.12 0.36 l
0.12 -0.24 l
0.12 0.48 l
0.13 0 l
0.12 -0.12 l
0.12 -0.48 l
0.12 0.12 l
0.12 -0.25 l
0.12 0.49 l
0.12 0.24 l
0.12 0.37 l
0.12 -0.25 l
0.12 -0.60 l
0.12 0.12 l
0.13 -0.25 l
0.12 -0.12 l
0.12 0.12 l
0.12 -0.24 l
0.12 0.73 l
0.12 -0.61 l
0.12 -0.24 l
0.12 0.49 l
0.12 0 l
0.12 0.12 l
0.13 0.24 l
0.12 -0.12 l
0.12 -0.37 l
0.12 -0.24 l
0.12 0.24 l
0.12 0.25 l
0.12 -0.37 l
0.12 0.73 l
0.12 0 l
0.12 0 l
0.12 -0.24 l
0.13 0 l
0.12 -0.37 l
0.12 -0.12 l
0.12 0.37 l
337.67 340.71 lineto
0.12 0.37 l
0.12 0 l
0.12 -0.61 l
0.12 0.12 l
0.12 -0.12 l
0.12 0.24 l
0.13 0.12 l
0.12 -0.36 l
0.12 0.48 l
0.12 -0.12 l
0.12 -0.24 l
0.12 -0.24 l
0.12 0.12 l
0.12 -0.12 l
0.12 0 l
0.12 -0.25 l
0.13 0.73 l
0.12 0.12 l
0.12 -0.60 l
0.12 0.48 l
0.12 -0.24 l
0.12 -0.36 l
0.12 -0.25 l
0.12 0 l
0.12 0.61 l
0.12 -1.09 l
0.12 1.21 l
0.13 -0.12 l
0.12 0.24 l
0.12 -0.12 l
0.12 -0.73 l
0.12 0.12 l
0.12 0 l
0.12 -0.12 l
0.12 0 l
0.12 0.73 l
0.12 -0.12 l
0.12 0.12 l
0.13 0 l
0.12 0 l
0.12 0 l
0.12 0 l
0.12 -0.12 l
0.12 -0.85 l
0.12 0.85 l
0.12 0 l
0.12 0.36 l
0.12 -0.24 l
0.13 -0.49 l
0.12 0.37 l
0.12 0.12 l
0.12 0.24 l
0.12 0.12 l
0.12 0 l
0.12 -0.12 l
0.12 0.25 l
0.12 -1.10 l
0.12 0.85 l
0.12 -0.24 l
0.13 0.12 l
0.12 -0.12 l
0.12 0 l
0.12 -0.24 l
0.12 0.36 l
0.12 -0.36 l
0.12 0 l
0.12 -0.12 l
0.12 -0.25 l
0.12 0 l
0.12 1.10 l
0.13 -0.61 l
0.12 0 l
0.12 -0.49 l
0.12 0.37 l
0.12 0.36 l
0.12 -0.36 l
0.12 -0.25 l
0.12 0 l
0.12 0 l
0.12 0.85 l
0.13 -1.09 l
0.12 0 l
0.12 0.24 l
0.12 -0.24 l
0.12 0.49 l
0.12 0.48 l
0.12 0 l
0.12 -0.85 l
0.12 0.61 l
0.12 -0.49 l
0.12 0.49 l
0.13 -0.24 l
0.12 0.12 l
0.12 0.24 l
0.12 -0.12 l
0.12 -0.61 l
0.12 0 l
0.12 0.73 l
0.12 -0.36 l
349.76 340.22 lineto
0.12 0.61 l
0.12 -0.12 l
0.13 0.12 l
0.12 0.97 l
0.12 -1.21 l
0.12 -0.49 l
0.12 0.73 l
0.12 -0.49 l
0.12 0.25 l
0.12 -0.49 l
0.12 0.61 l
0.12 0.36 l
0.12 -0.12 l
0.13 -0.36 l
0.12 0.73 l
0.12 0.24 l
0.12 -1.34 l
0.12 0.25 l
0.12 0.24 l
0.12 0.36 l
0.12 0.49 l
0.12 -0.73 l
0.12 -0.49 l
0.13 0.25 l
0.12 -0.37 l
0.12 0.49 l
0.12 -0.61 l
0.12 0.49 l
0.12 -0.61 l
0.12 0.49 l
0.12 0.24 l
0.12 -0.12 l
0.12 -0.12 l
0.12 0.85 l
0.13 -0.73 l
0.12 -0.37 l
0.12 0.61 l
0.12 0 l
0.12 -0.49 l
0.12 0.13 l
0.12 -0.61 l
0.12 0.24 l
0.12 0.37 l
0.12 -0.37 l
0.12 -0.12 l
0.13 0.12 l
0.12 -0.12 l
0.12 0.24 l
0.12 -0.12 l
0.12 -0.12 l
0.12 0.49 l
0.12 -0.49 l
0.12 0 l
0.12 0.36 l
0.12 0.12 l
0.13 0.25 l
0.12 -0.97 l
0.12 0.60 l
0.12 0 l
0.12 0 l
0.12 0.49 l
0.12 -0.37 l
0.12 -0.24 l
0.12 0.37 l
0.12 0.12 l
0.12 0 l
0.13 -0.12 l
0.12 -0.25 l
0.12 0 l
0.12 -0.12 l
0.12 0 l
0.12 -0.12 l
0.12 0.36 l
0.12 1.34 l
0.12 -0.73 l
0.12 -0.48 l
0.12 -0.61 l
0.13 -0.24 l
0.12 0.12 l
0.12 0.24 l
0.12 0.36 l
0.12 -0.36 l
0.12 0.24 l
0.12 -0.36 l
0.12 0.24 l
0.12 0.37 l
0.12 -0.37 l
0.13 0 l
0.12 0.24 l
0.12 -0.24 l
0.12 0.61 l
0.12 -0.37 l
0.12 0.13 l
0.12 0.12 l
0.12 -0.12 l
0.12 -0.85 l
0.12 0.72 l
0.12 -0.60 l
0.13 0.24 l
361.86 340.10 lineto
0.12 0.24 l
0.12 -0.12 l
0.12 -0.12 l
0.12 0 l
0.12 0.97 l
0.12 -0.61 l
0.12 0 l
0.12 -0.24 l
0.12 0.12 l
0.13 0.37 l
0.12 0.12 l
0.12 -0.97 l
0.12 0.60 l
0.12 0.49 l
0.12 -0.37 l
0.12 0.13 l
0.12 0.12 l
0.12 -0.25 l
0.12 -0.12 l
0.12 0.12 l
0.13 0 l
0.12 -0.36 l
0.12 -0.36 l
0.12 0.36 l
0.12 0.36 l
0.12 0.25 l
0.12 -0.61 l
0.12 0.24 l
0.12 0.37 l
0.12 -0.25 l
0.13 -0.12 l
0.12 -0.48 l
0.12 0.24 l
0.12 -0.12 l
0.12 -0.37 l
0.12 0.13 l
0.12 0.12 l
0.12 0.12 l
0.12 0.61 l
0.12 -0.37 l
0.12 0.12 l
0.13 -0.73 l
0.12 0.73 l
0.12 -0.24 l
0.12 0.36 l
0.12 0.13 l
0.12 -0.25 l
0.12 0.37 l
0.12 0 l
0.12 -0.37 l
0.12 -0.12 l
0.12 0.61 l
0.13 0 l
0.12 -0.85 l
0.12 0.61 l
0.12 0 l
0.12 -0.49 l
0.12 0.24 l
0.12 0.12 l
0.12 0.61 l
0.12 -0.24 l
0.12 -0.37 l
0.13 -0.48 l
0.12 0.36 l
0.12 -0.12 l
0.12 -0.24 l
0.12 -0.24 l
0.12 0.72 l
0.12 -0.48 l
0.12 0.12 l
0.12 0.12 l
0.12 0.12 l
0.12 0.12 l
0.13 -0.12 l
0.12 0.61 l
0.12 -0.61 l
0.12 0 l
0.12 0.24 l
0.12 -0.12 l
0.12 0.25 l
0.12 -0.37 l
0.12 0.24 l
0.12 0 l
0.12 0.37 l
0.13 0.24 l
0.12 -0.12 l
0.12 -1.21 l
0.12 0.97 l
0.12 -0.61 l
0.12 -0.12 l
0.12 0 l
0.12 1.09 l
0.12 -0.73 l
0.12 0.37 l
0.13 -0.37 l
0.12 0.37 l
0.12 0.12 l
0.12 -0.37 l
0.12 -1.82 l
373.95 340.46 lineto
0.12 0.12 l
0.12 -0.24 l
0.12 -0.36 l
0.12 0.48 l
0.12 0.49 l
0.13 -0.37 l
0.12 0.25 l
0.12 -0.25 l
0.12 -0.24 l
0.12 0.36 l
0.12 0 l
0.12 -0.12 l
0.12 -0.36 l
0.12 0.24 l
0.12 0.61 l
0.12 -0.73 l
0.13 -0.61 l
0.12 0.49 l
0.12 0.12 l
0.12 0 l
0.12 -0.12 l
0.12 -0.12 l
0.12 -0.12 l
0.12 0.48 l
0.12 -0.36 l
0.12 0.36 l
0.13 0 l
0.12 0.12 l
0.12 0.12 l
0.12 -0.36 l
0.12 0.36 l
0.12 0 l
0.12 -0.24 l
0.12 0.49 l
0.12 0.12 l
0.12 -0.12 l
0.12 0 l
0.13 0.24 l
0.12 -0.12 l
0.12 0 l
0.12 0.12 l
0.12 -0.12 l
0.12 -0.25 l
0.12 -0.24 l
0.12 0.12 l
0.12 -0.36 l
0.12 -0.24 l
0.12 0.48 l
0.13 0.24 l
0.12 0.37 l
0.12 -0.12 l
0.12 -0.49 l
0.12 0 l
0.12 0 l
0.12 0.12 l
0.12 0.25 l
0.12 -0.25 l
0.12 0.37 l
0.12 -0.97 l
0.13 0.24 l
0.12 1.21 l
0.12 -0.48 l
0.12 -0.25 l
0.12 -0.48 l
0.12 0.24 l
0.12 0 l
0.12 -0.61 l
0.12 0.61 l
0.12 -0.73 l
0.13 0.61 l
0.12 0.49 l
0.12 -0.37 l
0.12 0 l
0.12 0 l
0.12 -0.36 l
0.12 0 l
0.12 0.24 l
0.12 0.12 l
0.12 0 l
0.12 -0.97 l
0.13 0.61 l
0.12 0.12 l
0.12 0.12 l
0.12 0.36 l
0.12 -0.12 l
0.12 -0.12 l
0.12 0.24 l
0.12 -0.24 l
0.12 0.61 l
0.12 -0.49 l
0.12 -0.48 l
0.13 0.36 l
0.12 0.24 l
0.12 -0.24 l
0.12 0.12 l
0.12 0.24 l
0.12 -0.84 l
0.12 0.24 l
0.12 -0.24 l
386.04 341.07 lineto
0.12 0 l
0.13 0 l
0.12 -0.61 l
0.12 0.12 l
0.12 0.24 l
0.12 -0.12 l
0.12 -0.12 l
0.12 -0.12 l
0.12 0.73 l
0.12 -0.37 l
0.12 -0.48 l
0.12 0.85 l
0.13 -0.49 l
0.12 -0.36 l
0.12 -0.12 l
0.12 0.36 l
0.12 -0.12 l
0.12 0.12 l
0.12 0.24 l
0.12 -0.24 l
0.12 -0.36 l
0.12 0.60 l
0.12 0.49 l
0.13 -0.37 l
o
/Font1 findfont 12 s
234.61 313.93 (MO5l , Shot No 03 T = 99.4  C) 0 0 t
1 0 0 srgb
234.61 299.53 (MO5l , Shot No 05 T = 99.9  C) 0 0 t
0.8275 0.8275 0.8275 srgb
0.75 setlinewidth
[ 0.00 3.00] 0 setdash
np
110.67 289.44 m
0 83.52 l
o
np
201.38 289.44 m
0 83.52 l
o
np
292.08 289.44 m
0 83.52 l
o
np
382.78 289.44 m
0 83.52 l
o
np
59.04 297.30 m
342.72 0 l
o
np
59.04 317.19 m
342.72 0 l
o
np
59.04 337.08 m
342.72 0 l
o
np
59.04 356.97 m
342.72 0 l
o
59.04 73.44 401.76 156.96 cl
59.04 73.44 401.76 156.96 cl
1 0 0 srgb
0.75 setlinewidth
[] 0 setdash
1 setlinecap
1 setlinejoin
10.00 setmiterlimit
np
71.73 84.30 m
6.35 -0.48 l
6.35 -0.37 l
6.34 0 l
6.35 0.37 l
6.35 -0.37 l
6.34 0.49 l
6.35 -0.61 l
6.35 0.12 l
6.34 0.12 l
6.35 0.37 l
6.35 -7.41 l
6.34 9.35 l
6.35 19.43 l
6.35 25.37 l
6.34 17.85 l
6.35 5.34 l
6.35 -6.32 l
6.34 -12.87 l
6.35 -15.05 l
6.35 -12.63 l
6.34 -8.61 l
6.35 -5.95 l
6.35 -3.40 l
6.34 -2.19 l
6.35 -1.09 l
6.35 -1.34 l
6.34 -0.36 l
6.35 0 l
6.35 0 l
6.34 0 l
6.35 -0.49 l
6.35 0.12 l
6.34 0 l
6.35 -0.24 l
6.35 0.24 l
6.34 -0.60 l
6.35 0.48 l
6.35 -0.12 l
6.34 0.37 l
6.35 -0.13 l
6.35 0.61 l
6.34 -0.24 l
6.35 -0.49 l
6.35 0.25 l
6.34 -0.13 l
6.35 -0.60 l
6.35 0 l
6.34 0.24 l
6.35 -0.12 l
6.35 0 l
o
0.00 0.00 432.00 432.00 cl
0 0 0 srgb
0.75 setlinewidth
[] 0 setdash
1 setlinecap
1 setlinejoin
10.00 setmiterlimit
np
93.95 73.44 m
285.60 0 l
o
np
93.95 73.44 m
0 -7.20 l
o
np
141.55 73.44 m
0 -7.20 l
o
np
189.15 73.44 m
0 -7.20 l
o
np
236.75 73.44 m
0 -7.20 l
o
np
284.35 73.44 m
0 -7.20 l
o
np
331.95 73.44 m
0 -7.20 l
o
np
379.55 73.44 m
0 -7.20 l
o
/Font1 findfont 12 s
93.95 47.52 (-0.0005) .5 0 t
189.15 47.52 (0.0005) .5 0 t
236.75 47.52 (0.0010) .5 0 t
284.35 47.52 (0.0015) .5 0 t
331.95 47.52 (0.0020) .5 0 t
379.55 47.52 (0.0025) .5 0 t
np
59.04 82.98 m
0 59.67 l
o
np
59.04 82.98 m
-7.20 0 l
o
np
59.04 102.87 m
-7.20 0 l
o
np
59.04 122.76 m
-7.20 0 l
o
np
59.04 142.65 m
-7.20 0 l
o
41.76 82.98 (0.00) .5 90 t
41.76 122.76 (0.10) .5 90 t
np
59.04 73.44 m
342.72 0 l
0 83.52 l
-342.72 0 l
0 -83.52 l
o
0.00 0.00 432.00 216.00 cl
/Font2 findfont 14 s
0 0 0 srgb
230.40 181.45 (Time Detail) .5 0 t
/Font1 findfont 12 s
230.40 18.72 (Time \(s\)) .5 0 t
12.96 115.20 (Signal \(V\)) .5 90 t
59.04 73.44 401.76 156.96 cl
0 0 1 srgb
0.75 setlinewidth
[] 0 setdash
1 setlinecap
1 setlinejoin
10.00 setmiterlimit
np
71.73 83.17 m
6.35 0.48 l
6.35 -0.73 l
6.34 0.37 l
6.35 -0.73 l
6.35 0.24 l
6.34 -0.36 l
6.35 0 l
6.35 0.85 l
6.34 -0.12 l
6.35 -0.12 l
6.35 -4.25 l
6.34 6.67 l
6.35 14.69 l
6.35 15.79 l
6.34 11.16 l
6.35 2.43 l
6.35 -5.22 l
6.34 -8.01 l
6.35 -11.05 l
6.35 -7.53 l
6.34 -5.34 l
6.35 -4.25 l
6.35 -2.06 l
6.34 -1.70 l
6.35 -0.49 l
6.35 -0.72 l
6.34 0.12 l
6.35 0.12 l
6.35 -0.12 l
6.34 0 l
6.35 -0.37 l
6.35 -0.12 l
6.34 0.12 l
6.35 -0.36 l
6.35 0.36 l
6.34 -0.36 l
6.35 0 l
6.35 0.73 l
6.34 -0.49 l
6.35 0 l
6.35 0.37 l
6.34 -0.98 l
6.35 0.49 l
6.35 0 l
6.34 -0.24 l
6.35 -0.73 l
6.35 0.36 l
6.34 0.85 l
6.35 -0.48 l
6.35 -0.12 l
o
0.8275 0.8275 0.8275 srgb
0.75 setlinewidth
[ 0.00 3.00] 0 setdash
np
93.95 73.44 m
0 83.52 l
o
np
141.55 73.44 m
0 83.52 l
o
np
189.15 73.44 m
0 83.52 l
o
np
236.75 73.44 m
0 83.52 l
o
np
284.35 73.44 m
0 83.52 l
o
np
331.95 73.44 m
0 83.52 l
o
np
379.55 73.44 m
0 83.52 l
o
np
59.04 82.98 m
342.72 0 l
o
np
59.04 102.87 m
342.72 0 l
o
np
59.04 122.76 m
342.72 0 l
o
np
59.04 142.65 m
342.72 0 l
o
ep
%%Trailer
%%Pages: 1
%%EOF
