%!PS-Adobe-3.0 EPSF-3.0
%%DocumentNeededResources: font Helvetica
%%+ font Helvetica-Bold
%%+ font Helvetica-Oblique
%%+ font Helvetica-BoldOblique
%%+ font Symbol
%%Title: R Graphics Output
%%Creator: R Software
%%Pages: (atend)
%%BoundingBox: 0 0 675 475
%%EndComments
%%BeginProlog
/bp  { gs sRGB gs } def
% begin .ps.prolog
/gs  { gsave } bind def
/gr  { grestore } bind def
/ep  { showpage gr gr } bind def
/m   { moveto } bind def
/l  { rlineto } bind def
/np  { newpath } bind def
/cp  { closepath } bind def
/f   { fill } bind def
/o   { stroke } bind def
/c   { newpath 0 360 arc } bind def
/r   { 4 2 roll moveto 1 copy 3 -1 roll exch 0 exch rlineto 0 rlineto -1 mul 0 exch rlineto closepath } bind def
/p1  { stroke } bind def
/p2  { gsave bg fill grestore newpath } bind def
/p3  { gsave bg fill grestore stroke } bind def
/p6  { gsave bg eofill grestore newpath } bind def
/p7  { gsave bg eofill grestore stroke } bind def
/t   { 5 -2 roll moveto gsave rotate
       1 index stringwidth pop
       mul neg 0 rmoveto show grestore } bind def
/ta  { 4 -2 roll moveto gsave rotate show } bind def
/tb  { 2 -1 roll 0 rmoveto show } bind def
/cl  { grestore gsave newpath 3 index 3 index moveto 1 index
       4 -1 roll lineto  exch 1 index lineto lineto
       closepath clip newpath } bind def
/rgb { setrgbcolor } bind def
/s   { scalefont setfont } bind def
% end   .ps.prolog
/sRGB { [ /CIEBasedABC
          << /DecodeLMN
               [ { dup 0.03928 le
                        {12.92321 div}
                        {0.055 add 1.055 div 2.4 exp }
                     ifelse
                 } bind dup dup
               ]
             /MatrixLMN [0.412457 0.212673 0.019334
                         0.357576 0.715152 0.119192
                         0.180437 0.072175 0.950301]
             /WhitePoint [0.9505 1.0 1.0890]
           >>
         ] setcolorspace } bind def
/srgb { setcolor } bind def
% begin encoding
/WinAnsiEncoding [
 /.notdef /.notdef /.notdef /.notdef /.notdef /.notdef /.notdef /.notdef
 /.notdef /.notdef /.notdef /.notdef /.notdef /.notdef /.notdef /.notdef
 /.notdef /.notdef /.notdef /.notdef /.notdef /.notdef /.notdef /.notdef
 /.notdef /.notdef /.notdef /.notdef /.notdef /.notdef /.notdef /.notdef
 /space /exclam /quotedbl /numbersign /dollar /percent /ampersand /quoteright
 /parenleft /parenright /asterisk /plus /comma /minus /period /slash
 /zero /one /two /three /four /five /six /seven
 /eight /nine /colon /semicolon /less /equal /greater /question
 /at /A /B /C /D /E /F /G
 /H /I /J /K /L /M /N /O
 /P /Q /R /S /T /U /V /W
 /X /Y /Z /bracketleft /backslash /bracketright /asciicircum /underscore
 /grave /a /b /c /d /e /f /g
 /h /i /j /k /l /m /n /o
 /p /q /r /s /t /u /v /w
 /x /y /z /braceleft /bar /braceright /asciitilde /.notdef
 /Euro /.notdef /quotesinglbase /florin /quotedblbase /ellipsis /dagger /daggerdbl
 /circumflex /perthousand /Scaron /guilsinglleft /OE /.notdef /Zcaron /.notdef
 /.notdef /quoteleft /quoteright /quotedblleft /quotedblright /bullet /endash /emdash
 /tilde /trademark /scaron /guilsinglright /oe /.notdef /zcaron /Ydieresis
 /space /exclamdown /cent /sterling /currency /yen /brokenbar /section
 /dieresis /copyright /ordfeminine /guillemotleft /logicalnot /hyphen /registered /macron
 /degree /plusminus /twosuperior /threesuperior /acute /mu /paragraph /periodcentered
 /cedilla /onesuperior /ordmasculine /guillemotright /onequarter /onehalf /threequarters /questiondown
 /Agrave /Aacute /Acircumflex /Atilde /Adieresis /Aring /AE /Ccedilla
 /Egrave /Eacute /Ecircumflex /Edieresis /Igrave /Iacute /Icircumflex /Idieresis
 /Eth /Ntilde /Ograve /Oacute /Ocircumflex /Otilde /Odieresis /multiply
 /Oslash /Ugrave /Uacute /Ucircumflex /Udieresis /Yacute /Thorn /germandbls
 /agrave /aacute /acircumflex /atilde /adieresis /aring /ae /ccedilla
 /egrave /eacute /ecircumflex /edieresis /igrave /iacute /icircumflex /idieresis
 /eth /ntilde /ograve /oacute /ocircumflex /otilde /odieresis /divide
 /oslash /ugrave /uacute /ucircumflex /udieresis /yacute /thorn /ydieresis
]
 def
% end encoding
%%IncludeResource: font Helvetica
/Helvetica findfont
dup length dict begin
  {1 index /FID ne {def} {pop pop} ifelse} forall
  /Encoding WinAnsiEncoding def
  currentdict
  end
/Font1 exch definefont pop
%%IncludeResource: font Helvetica-Bold
/Helvetica-Bold findfont
dup length dict begin
  {1 index /FID ne {def} {pop pop} ifelse} forall
  /Encoding WinAnsiEncoding def
  currentdict
  end
/Font2 exch definefont pop
%%IncludeResource: font Helvetica-Oblique
/Helvetica-Oblique findfont
dup length dict begin
  {1 index /FID ne {def} {pop pop} ifelse} forall
  /Encoding WinAnsiEncoding def
  currentdict
  end
/Font3 exch definefont pop
%%IncludeResource: font Helvetica-BoldOblique
/Helvetica-BoldOblique findfont
dup length dict begin
  {1 index /FID ne {def} {pop pop} ifelse} forall
  /Encoding WinAnsiEncoding def
  currentdict
  end
/Font4 exch definefont pop
%%IncludeResource: font Symbol
/Symbol findfont
dup length dict begin
  {1 index /FID ne {def} {pop pop} ifelse} forall
  currentdict
  end
/Font5 exch definefont pop
%%EndProlog
%%Page: 1 1
bp
/bg { 1 1 1 srgb } def
0.00 0.00 675.00 474.75 r p2
59.04 73.44 644.76 415.71 cl
59.04 73.44 644.76 415.71 cl
0 0 1 srgb
0.75 setlinewidth
[] 0 setdash
1 setlinecap
1 setlinejoin
10.00 setmiterlimit
80.73 90.71 2.70 c p1
83.46 96.69 2.70 c p1
86.18 99.94 2.70 c p1
88.91 86.12 2.70 c p1
91.63 97.30 2.70 c p1
94.36 97.61 2.70 c p1
97.09 93.25 2.70 c p1
99.81 93.37 2.70 c p1
102.54 93.30 2.70 c p1
105.26 91.98 2.70 c p1
107.99 93.65 2.70 c p1
110.71 91.55 2.70 c p1
113.44 92.44 2.70 c p1
116.16 95.83 2.70 c p1
118.89 99.44 2.70 c p1
121.61 95.13 2.70 c p1
124.34 93.51 2.70 c p1
127.06 91.90 2.70 c p1
129.79 92.20 2.70 c p1
132.51 105.31 2.70 c p1
135.24 96.11 2.70 c p1
137.96 93.59 2.70 c p1
140.69 93.80 2.70 c p1
143.42 97.42 2.70 c p1
146.14 92.78 2.70 c p1
148.87 89.73 2.70 c p1
151.59 97.89 2.70 c p1
154.32 91.45 2.70 c p1
157.04 95.51 2.70 c p1
159.77 91.80 2.70 c p1
162.49 100.01 2.70 c p1
165.22 93.65 2.70 c p1
167.94 92.71 2.70 c p1
170.67 93.55 2.70 c p1
173.39 89.00 2.70 c p1
176.12 90.86 2.70 c p1
178.84 86.78 2.70 c p1
181.57 90.17 2.70 c p1
184.29 94.38 2.70 c p1
187.02 93.69 2.70 c p1
189.75 101.41 2.70 c p1
192.47 91.26 2.70 c p1
195.20 92.12 2.70 c p1
197.92 94.44 2.70 c p1
200.65 91.56 2.70 c p1
203.37 91.67 2.70 c p1
206.10 91.11 2.70 c p1
208.82 90.52 2.70 c p1
211.55 93.46 2.70 c p1
214.27 93.57 2.70 c p1
217.00 87.26 2.70 c p1
219.72 93.22 2.70 c p1
222.45 91.10 2.70 c p1
225.17 91.48 2.70 c p1
227.90 94.97 2.70 c p1
230.62 98.24 2.70 c p1
233.35 103.71 2.70 c p1
236.08 96.26 2.70 c p1
238.80 109.63 2.70 c p1
241.53 103.79 2.70 c p1
244.25 117.82 2.70 c p1
246.98 133.34 2.70 c p1
249.70 131.75 2.70 c p1
252.43 138.70 2.70 c p1
255.15 151.32 2.70 c p1
257.88 168.71 2.70 c p1
260.60 167.24 2.70 c p1
263.33 187.58 2.70 c p1
266.05 197.52 2.70 c p1
268.78 203.38 2.70 c p1
271.50 211.64 2.70 c p1
274.23 219.05 2.70 c p1
276.95 228.33 2.70 c p1
279.68 240.98 2.70 c p1
282.41 254.89 2.70 c p1
285.13 253.74 2.70 c p1
287.86 256.20 2.70 c p1
290.58 265.97 2.70 c p1
293.31 276.65 2.70 c p1
296.03 280.71 2.70 c p1
298.76 287.32 2.70 c p1
301.48 293.08 2.70 c p1
304.21 293.65 2.70 c p1
306.93 303.61 2.70 c p1
309.66 312.59 2.70 c p1
312.38 316.57 2.70 c p1
315.11 320.31 2.70 c p1
317.83 320.57 2.70 c p1
320.56 325.29 2.70 c p1
323.28 324.90 2.70 c p1
326.01 332.95 2.70 c p1
328.74 337.46 2.70 c p1
331.46 346.38 2.70 c p1
334.19 346.45 2.70 c p1
336.91 343.16 2.70 c p1
339.64 349.18 2.70 c p1
342.36 345.61 2.70 c p1
345.09 356.03 2.70 c p1
347.81 358.59 2.70 c p1
350.54 365.28 2.70 c p1
353.26 360.34 2.70 c p1
355.99 358.58 2.70 c p1
358.71 362.49 2.70 c p1
361.44 361.83 2.70 c p1
364.16 362.06 2.70 c p1
366.89 367.51 2.70 c p1
369.61 364.60 2.70 c p1
372.34 370.18 2.70 c p1
375.06 372.15 2.70 c p1
377.79 371.66 2.70 c p1
380.52 372.17 2.70 c p1
383.24 371.37 2.70 c p1
385.97 370.48 2.70 c p1
388.69 379.29 2.70 c p1
391.42 376.82 2.70 c p1
394.14 380.89 2.70 c p1
396.87 373.29 2.70 c p1
399.59 379.71 2.70 c p1
402.32 382.42 2.70 c p1
405.04 380.25 2.70 c p1
407.77 380.19 2.70 c p1
410.49 378.39 2.70 c p1
413.22 390.37 2.70 c p1
415.94 385.61 2.70 c p1
418.67 390.42 2.70 c p1
421.39 383.85 2.70 c p1
424.12 381.41 2.70 c p1
426.85 378.26 2.70 c p1
429.57 382.18 2.70 c p1
432.30 386.02 2.70 c p1
435.02 389.53 2.70 c p1
437.75 386.78 2.70 c p1
440.47 381.34 2.70 c p1
443.20 389.05 2.70 c p1
445.92 379.97 2.70 c p1
448.65 385.40 2.70 c p1
451.37 385.84 2.70 c p1
454.10 379.49 2.70 c p1
456.82 391.27 2.70 c p1
459.55 385.25 2.70 c p1
462.27 386.60 2.70 c p1
465.00 393.75 2.70 c p1
467.72 390.87 2.70 c p1
470.45 388.02 2.70 c p1
473.18 390.68 2.70 c p1
475.90 390.36 2.70 c p1
478.63 395.59 2.70 c p1
481.35 390.13 2.70 c p1
484.08 391.18 2.70 c p1
486.80 390.65 2.70 c p1
489.53 387.83 2.70 c p1
492.25 389.85 2.70 c p1
494.98 396.15 2.70 c p1
497.70 386.11 2.70 c p1
500.43 390.21 2.70 c p1
503.15 395.29 2.70 c p1
505.88 388.93 2.70 c p1
508.60 385.70 2.70 c p1
511.33 386.51 2.70 c p1
514.05 388.51 2.70 c p1
516.78 386.72 2.70 c p1
519.51 389.15 2.70 c p1
522.23 388.58 2.70 c p1
524.96 389.56 2.70 c p1
527.68 391.99 2.70 c p1
530.41 392.91 2.70 c p1
533.13 397.20 2.70 c p1
535.86 390.20 2.70 c p1
538.58 389.22 2.70 c p1
541.31 396.47 2.70 c p1
544.03 397.45 2.70 c p1
546.76 390.78 2.70 c p1
549.48 389.30 2.70 c p1
552.21 383.32 2.70 c p1
554.93 396.38 2.70 c p1
557.66 387.34 2.70 c p1
560.38 386.21 2.70 c p1
563.11 403.03 2.70 c p1
565.84 391.73 2.70 c p1
568.56 390.67 2.70 c p1
571.29 379.81 2.70 c p1
574.01 390.44 2.70 c p1
576.74 394.79 2.70 c p1
579.46 392.54 2.70 c p1
582.19 394.57 2.70 c p1
584.91 398.90 2.70 c p1
587.64 395.63 2.70 c p1
590.36 388.88 2.70 c p1
593.09 393.78 2.70 c p1
595.81 390.15 2.70 c p1
598.54 388.79 2.70 c p1
601.26 379.46 2.70 c p1
603.99 387.80 2.70 c p1
606.71 392.96 2.70 c p1
609.44 399.74 2.70 c p1
612.17 393.02 2.70 c p1
614.89 393.51 2.70 c p1
617.62 387.13 2.70 c p1
620.34 391.68 2.70 c p1
623.07 382.66 2.70 c p1
0.00 0.00 675.00 474.75 cl
0 0 0 srgb
0.75 setlinewidth
[] 0 setdash
1 setlinecap
1 setlinejoin
10.00 setmiterlimit
np
80.73 73.44 m
542.34 0 l
o
np
80.73 73.44 m
0 -7.20 l
o
np
216.32 73.44 m
0 -7.20 l
o
np
351.90 73.44 m
0 -7.20 l
o
np
487.48 73.44 m
0 -7.20 l
o
np
623.07 73.44 m
0 -7.20 l
o
/Font1 findfont 12 s
80.73 47.52 (-0.01) .5 0 t
216.32 47.52 (0.00) .5 0 t
351.90 47.52 (0.01) .5 0 t
487.48 47.52 (0.02) .5 0 t
623.07 47.52 (0.03) .5 0 t
np
59.04 95.57 m
0 268.70 l
o
np
59.04 95.57 m
-7.20 0 l
o
np
59.04 162.75 m
-7.20 0 l
o
np
59.04 229.92 m
-7.20 0 l
o
np
59.04 297.10 m
-7.20 0 l
o
np
59.04 364.27 m
-7.20 0 l
o
41.76 95.57 (0.0) .5 90 t
41.76 162.75 (0.5) .5 90 t
41.76 229.92 (1.0) .5 90 t
41.76 297.10 (1.5) .5 90 t
41.76 364.27 (2.0) .5 90 t
np
59.04 73.44 m
585.72 0 l
0 342.27 l
-585.72 0 l
0 -342.27 l
o
0.00 0.00 675.00 474.75 cl
/Font1 findfont 12 s
0 0 0 srgb
351.90 18.72 (time \(s\)) .5 0 t
12.96 210.23 (T) 90 ta
-1.440 (emper) tb
-0.120 (ature) tb gr
59.04 73.44 644.76 415.71 cl
1 0 0 srgb
0.75 setlinewidth
[] 0 setdash
1 setlinecap
1 setlinejoin
10.00 setmiterlimit
np
80.73 95.57 m
2.73 0 l
2.72 0 l
2.73 0 l
2.72 0 l
2.73 0 l
2.73 0 l
2.72 0 l
2.73 0 l
2.72 0 l
2.73 0 l
2.72 0 l
2.73 0 l
2.72 0 l
2.73 0 l
2.72 0 l
2.73 0 l
2.72 0 l
2.73 0 l
2.72 0 l
2.73 0 l
2.72 0 l
2.73 0 l
2.73 0 l
2.72 0 l
2.73 0 l
2.72 0 l
2.73 0 l
2.72 0 l
2.73 0 l
2.72 0 l
2.73 0 l
2.72 0 l
2.73 0 l
2.72 0 l
2.73 0 l
2.72 0 l
2.73 0 l
2.72 0 l
2.73 0 l
2.73 0 l
2.72 0 l
2.73 0 l
2.72 0 l
2.73 0 l
2.72 0 l
2.73 0 l
2.72 0 l
2.73 0 l
2.72 0 l
2.73 -1.04 l
2.72 1.04 l
2.73 0 l
2.72 0 l
2.73 0.05 l
2.72 0.33 l
2.73 1.05 l
2.73 2.22 l
2.72 3.68 l
2.73 5.19 l
2.72 6.58 l
2.73 7.78 l
2.72 8.72 l
2.73 9.41 l
2.72 9.87 l
2.73 10.13 l
2.72 10.24 l
2.73 10.20 l
2.72 10.08 l
2.73 9.86 l
2.72 9.59 l
2.73 9.28 l
2.72 8.94 l
2.73 8.59 l
2.73 8.21 l
2.72 7.85 l
2.73 7.48 l
2.72 7.13 l
2.73 6.76 l
2.72 6.43 l
2.73 6.10 l
2.72 5.77 l
2.73 5.47 l
2.72 5.18 l
2.73 4.91 l
2.72 4.63 l
2.73 4.39 l
2.72 4.14 l
2.73 3.92 l
2.72 3.70 l
2.73 3.50 l
2.73 3.31 l
2.72 3.12 l
2.73 2.94 l
2.72 2.79 l
2.73 2.63 l
2.72 2.48 l
2.73 2.35 l
2.72 2.21 l
2.73 2.09 l
353.26 358.82 lineto
2.73 1.87 l
2.72 1.76 l
2.73 1.66 l
2.72 1.57 l
2.73 1.48 l
2.72 1.40 l
2.73 1.31 l
2.72 1.25 l
2.73 1.18 l
2.73 1.11 l
2.72 1.05 l
2.73 0.99 l
2.72 0.93 l
2.73 0.88 l
2.72 0.83 l
2.73 0.79 l
2.72 0.74 l
2.73 0.70 l
2.72 0.66 l
2.73 0.63 l
2.72 0.59 l
2.73 0.56 l
2.72 0.52 l
2.73 0.50 l
2.72 0.46 l
2.73 0.45 l
2.73 0.41 l
2.72 0.40 l
2.73 0.37 l
2.72 0.35 l
2.73 0.33 l
2.72 0.31 l
2.73 0.30 l
2.72 0.28 l
2.73 0.26 l
2.72 0.25 l
2.73 0.24 l
2.72 0.22 l
2.73 0.21 l
2.72 0.19 l
2.73 0.19 l
2.72 0.18 l
2.73 0.16 l
2.73 0.16 l
2.72 0.15 l
2.73 0.14 l
2.72 0.13 l
2.73 0.12 l
2.72 0.12 l
2.73 0.11 l
2.72 0.11 l
2.73 0.09 l
2.72 0.10 l
2.73 0.09 l
2.72 0.08 l
2.73 0.08 l
2.72 0.07 l
2.73 0.07 l
2.72 0.07 l
2.73 0.06 l
2.73 0.06 l
2.72 0.05 l
2.73 0.06 l
2.72 0.05 l
2.73 0.04 l
2.72 0.05 l
2.73 0.04 l
2.72 0.04 l
2.73 0.04 l
2.72 0.03 l
2.73 0.03 l
2.72 0.04 l
2.73 0.02 l
2.72 0.03 l
2.73 0.03 l
2.72 0.02 l
2.73 0.03 l
2.73 0.02 l
2.72 0.02 l
2.73 0.02 l
2.72 0.02 l
2.73 0.02 l
2.72 0.01 l
2.73 0.02 l
2.72 0.01 l
2.73 0.02 l
2.72 0.01 l
2.73 0.01 l
2.72 0.01 l
2.73 0.01 l
2.72 0.02 l
2.73 0.01 l
2.72 0 l
2.73 0.01 l
2.73 0.01 l
2.72 0.01 l
2.73 0.01 l
2.72 0 l
2.73 0.01 l
o
np
542.88 236.94 m
22.68 0 l
o
0 0 1 srgb
554.22 252.21 2.70 c p1
/Font1 findfont 12 s
0 0 0 srgb
576.89 247.90 (Exper) 0 ta
0.180 (iment) tb gr
576.89 232.63 (Theor) 0 ta
0.360 (y) tb gr
ep
%%Trailer
%%Pages: 1
%%EOF
