<?xml version="1.1" encoding="windows-1252"?>
<svg xmlns="http://www.w3.org/2000/svg"
    xmlns:latexdraw="http://latexdraw.sourceforge.net/namespaces/latexdraw"
    version="1.1" baseProfile="full">
    <g>
        <g latexdraw:type="joinedLines" id="id10810003">
            <polyline
                points="699.4974820198404,939.9993354611529 700.5025179801595,700.0006645388471 700.5025179801595,700.0006645388471 "
                stroke-width="1.0" stroke="black" fill="none"
                latexdraw:rotationAngle="0.0" marker-start="url(#arrow0-10810003)"/>
        </g>
        <g latexdraw:type="text" id="id14304001" fill="black" latexdraw:position="l">
            <text x="700.0" y="740.0"> 0</text>
        </g>
        <g latexdraw:type="text" id="id7836277" fill="black" latexdraw:position="tl">
            <text x="704.0" y="920.0">x</text>
        </g>
        <g latexdraw:type="text" id="id10148372" fill="black" latexdraw:position="l">
            <text x="700.0" y="840.0"> L</text>
        </g>
        <g latexdraw:type="text" id="id13902907" fill="black" latexdraw:position="bl">
            <text x="540.0" y="820.0">T(x,t)</text>
        </g>
        <g latexdraw:type="rectangle" id="id17460904">
            <rect x="421.0" y="741.0" width="278.0" height="98.0"
                latexdraw:borderPos="outer" stroke-width="2.0"
                stroke="#0066ff" fill="none"/>
        </g>
        <g latexdraw:type="rectangle" id="id32993399">
            <rect x="421.0" y="741.0" width="278.0" height="18.0"
                latexdraw:borderPos="outer" stroke-width="2.0"
                stroke="#ff0033" fill="#e71818" fill-opacity="0.36862746"/>
        </g>
        <g latexdraw:type="text" id="id33535802" fill="black" latexdraw:position="tl">
            <text x="700.0" y="760.0"> g</text>
        </g>
        <g latexdraw:type="akinPoints" id="id2051722"
            latexdraw:pathType="CURVES" latexdraw:interval="5" latexdraw:points="548.0 596.0 544.0 592.0 548.0 588.0 ">
            <path d="M 548.0 596.0 " stroke-width="2.0" stroke="black"
                fill="none" latexdraw:rotationAngle="0.0"/>
        </g>
        <g latexdraw:type="akinPoints" id="id21390899"
            latexdraw:pathType="CURVES" latexdraw:interval="5" latexdraw:points="568.0 636.0 572.0 628.0 568.0 596.0 ">
            <path d="M 568.0 636.0 " stroke-width="2.0" stroke="black"
                fill="none" latexdraw:rotationAngle="0.0"/>
        </g>
        <g latexdraw:type="akinPoints" id="id22193673"
            latexdraw:pathType="CURVES" latexdraw:interval="5" latexdraw:points="568.0 592.0 572.0 556.0 588.0 552.0 600.0 548.0 624.0 552.0 ">
            <path d="M 568.0 592.0 " stroke-width="2.0" stroke="black"
                fill="none" latexdraw:rotationAngle="0.0"/>
        </g>
        <g latexdraw:type="akinPoints" id="id28773121"
            latexdraw:pathType="CURVES" latexdraw:interval="5" latexdraw:points="520.0 580.0 516.0 576.0 520.0 572.0 524.0 568.0 ">
            <path d="M 520.0 580.0 " stroke-width="2.0" stroke="black"
                fill="none" latexdraw:rotationAngle="0.0"/>
        </g>
        <g latexdraw:type="joinedLines" id="id1864924">
            <polyline
                points="558.4532757885185,740.9942511459086 559.5467242114815,689.0057488540914 "
                stroke-width="1.4" stroke="#ff6666"
                latexdraw:rotationAngle="3.162622057836002" marker-end="url(#arrow1-1864924)"/>
        </g>
        <g latexdraw:type="joinedLines" id="id19223210">
            <polyline points="559.0,840.0 559.0,892.0 "
                stroke-width="1.4" stroke="#ff6666"
                latexdraw:rotationAngle="0.0" marker-end="url(#arrow1-19223210)"/>
        </g>
        <g latexdraw:type="text" id="id3246710" fill="black" latexdraw:position="bl">
            <text x="560.0" y="717.0">$h_0$</text>
        </g>
        <g latexdraw:type="text" id="id18796595" fill="black" latexdraw:position="bl">
            <text x="562.0" y="880.0">$h_L</text>
        </g>
        <g latexdraw:type="text" id="id11404506" fill="black" latexdraw:position="bl">
            <text x="562.0" y="880.0">$h_L$</text>
        </g>
        <g latexdraw:type="text" id="id22757824" fill="black" latexdraw:position="bl">
            <text x="562.0" y="880.0">$h_L$</text>
        </g>
    </g>
    <defs>
        <marker overflow="visible" orient="auto" id="arrow0-10810003">
            <path
                d="M 0.0 0.0 L 6.504166666666667 2.322916666666667 L 6.504166666666667 0.0 L 6.504166666666667 -2.322916666666667 z "
                latexdraw:arrSizeNum="2.0" fill="black"/>
        </marker>
        <marker overflow="visible" orient="auto" id="arrow1-1864924">
            <path
                d="M 0.0 0.0 L -5.445833333333333 1.944940476190476 L -5.445833333333333 0.0 L -5.445833333333333 -1.944940476190476 z "
                latexdraw:arrSizeNum="2.0" fill="#ff6666"/>
        </marker>
        <marker overflow="visible" orient="auto" id="arrow1-19223210">
            <path
                d="M 0.0 0.0 L -5.445833333333333 1.944940476190476 L -5.445833333333333 0.0 L -5.445833333333333 -1.944940476190476 z "
                latexdraw:arrSizeNum="2.0" fill="#ff6666"/>
        </marker>
    </defs>
    <metadata>
        <latexdraw:metadata>
            <latexdraw:latexIncludes>h_0</latexdraw:latexIncludes>
            <latexdraw:displayXScale>true</latexdraw:displayXScale>
            <latexdraw:displayYScale>true</latexdraw:displayYScale>
            <latexdraw:unit>CM</latexdraw:unit>
            <latexdraw:zoom>1.0</latexdraw:zoom>
            <latexdraw:magneticGridStyle>STANDARD</latexdraw:magneticGridStyle>
            <latexdraw:gridGap>4</latexdraw:gridGap>
            <latexdraw:magneticGrid>false</latexdraw:magneticGrid>
            <latexdraw:version>3.3.2</latexdraw:version>
            <latexdraw:size>
                <latexdraw:width>1920</latexdraw:width>
                <latexdraw:height>1056</latexdraw:height>
            </latexdraw:size>
            <latexdraw:position>
                <latexdraw:x>0.0</latexdraw:x>
                <latexdraw:y>0.0</latexdraw:y>
            </latexdraw:position>
        </latexdraw:metadata>
    </metadata>
</svg>
