%!PS-Adobe-3.0 EPSF-3.0
%%DocumentNeededResources: font Helvetica
%%+ font Helvetica-Bold
%%+ font Helvetica-Oblique
%%+ font Helvetica-BoldOblique
%%+ font Symbol
%%Title: R Graphics Output
%%Creator: R Software
%%Pages: (atend)
%%BoundingBox: 0 0 358 332
%%EndComments
%%BeginProlog
/bp  { gs sRGB gs } def
% begin .ps.prolog
/gs  { gsave } bind def
/gr  { grestore } bind def
/ep  { showpage gr gr } bind def
/m   { moveto } bind def
/l  { rlineto } bind def
/np  { newpath } bind def
/cp  { closepath } bind def
/f   { fill } bind def
/o   { stroke } bind def
/c   { newpath 0 360 arc } bind def
/r   { 4 2 roll moveto 1 copy 3 -1 roll exch 0 exch rlineto 0 rlineto -1 mul 0 exch rlineto closepath } bind def
/p1  { stroke } bind def
/p2  { gsave bg fill grestore newpath } bind def
/p3  { gsave bg fill grestore stroke } bind def
/p6  { gsave bg eofill grestore newpath } bind def
/p7  { gsave bg eofill grestore stroke } bind def
/t   { 5 -2 roll moveto gsave rotate
       1 index stringwidth pop
       mul neg 0 rmoveto show grestore } bind def
/ta  { 4 -2 roll moveto gsave rotate show } bind def
/tb  { 2 -1 roll 0 rmoveto show } bind def
/cl  { grestore gsave newpath 3 index 3 index moveto 1 index
       4 -1 roll lineto  exch 1 index lineto lineto
       closepath clip newpath } bind def
/rgb { setrgbcolor } bind def
/s   { scalefont setfont } bind def
% end   .ps.prolog
/sRGB { [ /CIEBasedABC
          << /DecodeLMN
               [ { dup 0.03928 le
                        {12.92321 div}
                        {0.055 add 1.055 div 2.4 exp }
                     ifelse
                 } bind dup dup
               ]
             /MatrixLMN [0.412457 0.212673 0.019334
                         0.357576 0.715152 0.119192
                         0.180437 0.072175 0.950301]
             /WhitePoint [0.9505 1.0 1.0890]
           >>
         ] setcolorspace } bind def
/srgb { setcolor } bind def
% begin encoding
/WinAnsiEncoding [
 /.notdef /.notdef /.notdef /.notdef /.notdef /.notdef /.notdef /.notdef
 /.notdef /.notdef /.notdef /.notdef /.notdef /.notdef /.notdef /.notdef
 /.notdef /.notdef /.notdef /.notdef /.notdef /.notdef /.notdef /.notdef
 /.notdef /.notdef /.notdef /.notdef /.notdef /.notdef /.notdef /.notdef
 /space /exclam /quotedbl /numbersign /dollar /percent /ampersand /quoteright
 /parenleft /parenright /asterisk /plus /comma /minus /period /slash
 /zero /one /two /three /four /five /six /seven
 /eight /nine /colon /semicolon /less /equal /greater /question
 /at /A /B /C /D /E /F /G
 /H /I /J /K /L /M /N /O
 /P /Q /R /S /T /U /V /W
 /X /Y /Z /bracketleft /backslash /bracketright /asciicircum /underscore
 /grave /a /b /c /d /e /f /g
 /h /i /j /k /l /m /n /o
 /p /q /r /s /t /u /v /w
 /x /y /z /braceleft /bar /braceright /asciitilde /.notdef
 /Euro /.notdef /quotesinglbase /florin /quotedblbase /ellipsis /dagger /daggerdbl
 /circumflex /perthousand /Scaron /guilsinglleft /OE /.notdef /Zcaron /.notdef
 /.notdef /quoteleft /quoteright /quotedblleft /quotedblright /bullet /endash /emdash
 /tilde /trademark /scaron /guilsinglright /oe /.notdef /zcaron /Ydieresis
 /space /exclamdown /cent /sterling /currency /yen /brokenbar /section
 /dieresis /copyright /ordfeminine /guillemotleft /logicalnot /hyphen /registered /macron
 /degree /plusminus /twosuperior /threesuperior /acute /mu /paragraph /periodcentered
 /cedilla /onesuperior /ordmasculine /guillemotright /onequarter /onehalf /threequarters /questiondown
 /Agrave /Aacute /Acircumflex /Atilde /Adieresis /Aring /AE /Ccedilla
 /Egrave /Eacute /Ecircumflex /Edieresis /Igrave /Iacute /Icircumflex /Idieresis
 /Eth /Ntilde /Ograve /Oacute /Ocircumflex /Otilde /Odieresis /multiply
 /Oslash /Ugrave /Uacute /Ucircumflex /Udieresis /Yacute /Thorn /germandbls
 /agrave /aacute /acircumflex /atilde /adieresis /aring /ae /ccedilla
 /egrave /eacute /ecircumflex /edieresis /igrave /iacute /icircumflex /idieresis
 /eth /ntilde /ograve /oacute /ocircumflex /otilde /odieresis /divide
 /oslash /ugrave /uacute /ucircumflex /udieresis /yacute /thorn /ydieresis
]
 def
% end encoding
%%IncludeResource: font Helvetica
/Helvetica findfont
dup length dict begin
  {1 index /FID ne {def} {pop pop} ifelse} forall
  /Encoding WinAnsiEncoding def
  currentdict
  end
/Font1 exch definefont pop
%%IncludeResource: font Helvetica-Bold
/Helvetica-Bold findfont
dup length dict begin
  {1 index /FID ne {def} {pop pop} ifelse} forall
  /Encoding WinAnsiEncoding def
  currentdict
  end
/Font2 exch definefont pop
%%IncludeResource: font Helvetica-Oblique
/Helvetica-Oblique findfont
dup length dict begin
  {1 index /FID ne {def} {pop pop} ifelse} forall
  /Encoding WinAnsiEncoding def
  currentdict
  end
/Font3 exch definefont pop
%%IncludeResource: font Helvetica-BoldOblique
/Helvetica-BoldOblique findfont
dup length dict begin
  {1 index /FID ne {def} {pop pop} ifelse} forall
  /Encoding WinAnsiEncoding def
  currentdict
  end
/Font4 exch definefont pop
%%IncludeResource: font Symbol
/Symbol findfont
dup length dict begin
  {1 index /FID ne {def} {pop pop} ifelse} forall
  currentdict
  end
/Font5 exch definefont pop
%%EndProlog
%%Page: 1 1
bp
/bg { 1 1 1 srgb } def
0.00 0.00 357.75 331.50 r p2
59.04 73.44 327.51 272.46 cl
59.04 73.44 327.51 272.46 cl
1 0 0 srgb
0.75 setlinewidth
[] 0 setdash
1 setlinecap
1 setlinejoin
10.00 setmiterlimit
np
68.98 235.64 m
1.25 -0.99 l
1.25 -1.62 l
1.25 -2.38 l
1.25 -3.23 l
1.25 -4.11 l
1.25 -4.96 l
1.25 -5.77 l
1.25 -6.46 l
1.25 -7.05 l
1.24 -7.50 l
1.25 -7.81 l
1.25 -8.00 l
1.25 -8.05 l
1.25 -8.00 l
1.25 -7.85 l
1.25 -7.62 l
1.25 -7.30 l
1.25 -6.94 l
1.25 -6.53 l
1.25 -6.08 l
1.25 -5.61 l
1.24 -5.13 l
1.25 -4.63 l
1.25 -4.14 l
1.25 -3.66 l
1.25 -3.18 l
1.25 -2.71 l
1.25 -2.27 l
1.25 -1.83 l
1.25 -1.42 l
1.25 -1.03 l
1.25 -0.66 l
1.25 -0.31 l
1.24 0.01 l
1.25 0.32 l
1.25 0.60 l
1.25 0.86 l
1.25 1.10 l
1.25 1.33 l
1.25 1.52 l
1.25 1.71 l
1.25 1.87 l
1.25 2.03 l
1.25 2.16 l
1.25 2.28 l
1.24 2.38 l
1.25 2.48 l
1.25 2.56 l
1.25 2.63 l
1.25 2.69 l
1.25 2.74 l
1.25 2.78 l
1.25 2.81 l
1.25 2.84 l
1.25 2.85 l
1.25 2.86 l
1.25 2.87 l
1.24 2.87 l
1.25 2.86 l
1.25 2.85 l
1.25 2.83 l
1.25 2.82 l
1.25 2.79 l
1.25 2.77 l
1.25 2.74 l
1.25 2.71 l
1.25 2.67 l
1.25 2.64 l
1.25 2.61 l
1.24 2.57 l
1.25 2.52 l
1.25 2.49 l
1.25 2.45 l
1.25 2.40 l
1.25 2.37 l
1.25 2.31 l
1.25 2.28 l
1.25 2.23 l
1.25 2.19 l
1.25 2.15 l
1.25 2.10 l
1.24 2.06 l
1.25 2.01 l
1.25 1.97 l
1.25 1.93 l
1.25 1.89 l
1.25 1.84 l
1.25 1.81 l
1.25 1.76 l
1.25 1.72 l
1.25 1.68 l
1.25 1.64 l
1.25 1.60 l
1.24 1.57 l
1.25 1.52 l
1.25 1.49 l
1.25 1.45 l
1.25 1.42 l
1.25 1.38 l
193.90 222.40 lineto
1.25 1.31 l
1.25 1.28 l
1.25 1.25 l
1.25 1.21 l
1.25 1.18 l
1.24 1.16 l
1.25 1.12 l
1.25 1.09 l
1.25 1.07 l
1.25 1.03 l
1.25 1.01 l
1.25 0.98 l
1.25 0.96 l
1.25 0.93 l
1.25 0.90 l
1.25 0.88 l
1.25 0.86 l
1.24 0.83 l
1.25 0.81 l
1.25 0.79 l
1.25 0.76 l
1.25 0.74 l
1.25 0.73 l
1.25 0.70 l
1.25 0.68 l
1.25 0.66 l
1.25 0.65 l
1.25 0.62 l
1.25 0.61 l
1.24 0.59 l
1.25 0.57 l
1.25 0.56 l
1.25 0.54 l
1.25 0.52 l
1.25 0.51 l
1.25 0.49 l
1.25 0.48 l
1.25 0.46 l
1.25 0.45 l
1.25 0.43 l
1.25 0.43 l
1.24 0.40 l
1.25 0.40 l
1.25 0.38 l
1.25 0.38 l
1.25 0.35 l
1.25 0.35 l
1.25 0.34 l
1.25 0.33 l
1.25 0.31 l
1.25 0.31 l
1.25 0.29 l
1.25 0.28 l
1.24 0.28 l
1.25 0.27 l
1.25 0.25 l
1.25 0.25 l
1.25 0.24 l
1.25 0.23 l
1.25 0.22 l
1.25 0.21 l
1.25 0.21 l
1.25 0.20 l
1.25 0.19 l
1.25 0.18 l
1.24 0.18 l
1.25 0.17 l
1.25 0.16 l
1.25 0.16 l
1.25 0.15 l
1.25 0.14 l
1.25 0.14 l
1.25 0.13 l
1.25 0.13 l
1.25 0.12 l
1.25 0.11 l
1.25 0.11 l
1.24 0.11 l
1.25 0.10 l
1.25 0.09 l
1.25 0.09 l
1.25 0.09 l
1.25 0.08 l
1.25 0.07 l
1.25 0.07 l
1.25 0.07 l
1.25 0.06 l
1.25 0.06 l
1.25 0.06 l
1.24 0.05 l
1.25 0.05 l
1.25 0.04 l
1.25 0.04 l
1.25 0.04 l
1.25 0.03 l
1.25 0.04 l
1.25 0.02 l
1.25 0.03 l
1.25 0.02 l
o
0.00 0.00 357.75 331.50 cl
0 0 0 srgb
0.75 setlinewidth
[] 0 setdash
1 setlinecap
1 setlinejoin
10.00 setmiterlimit
np
121.32 73.44 m
196.25 0 l
o
np
121.32 73.44 m
0 -7.20 l
o
np
186.73 73.44 m
0 -7.20 l
o
np
252.15 73.44 m
0 -7.20 l
o
np
317.57 73.44 m
0 -7.20 l
o
/Font1 findfont 12 s
121.32 47.52 (0.5) .5 0 t
186.73 47.52 (1.0) .5 0 t
252.15 47.52 (1.5) .5 0 t
317.57 47.52 (2.0) .5 0 t
np
59.04 113.01 m
0 123.51 l
o
np
59.04 113.01 m
-7.20 0 l
o
np
59.04 174.77 m
-7.20 0 l
o
np
59.04 236.52 m
-7.20 0 l
o
41.76 113.01 (-1000) .5 90 t
41.76 174.77 (-500) .5 90 t
41.76 236.52 (0) .5 90 t
np
59.04 73.44 m
268.47 0 l
0 199.02 l
-268.47 0 l
0 -199.02 l
o
0.00 0.00 357.75 331.50 cl
/Font1 findfont 12 s
0 0 0 srgb
189.94 18.90 (a) 0 0 t
12.96 172.95 (F\(a\)) .5 90 t
59.04 73.44 327.51 272.46 cl
0.6000 0.6000 0.6000 srgb
0.75 setlinewidth
[ 0.00 3.00] 0 setdash
1 setlinecap
1 setlinejoin
10.00 setmiterlimit
np
59.04 236.52 m
268.47 0 l
o
0 0 1 srgb
np
208.89 73.44 m
0 199.02 l
o
/Font1 findfont 12 s
0 0 0 srgb
216.09 171.92 (a) 0 0 t
222.76 171.92 (*) 0 0 t
/Font5 findfont 12 s
227.43 171.92 ( ) 0 0 t
/Font1 findfont 12 s
230.43 171.92 (=) 0 0 t
237.44 171.92 ( 1.1693) 0 0 t
/Font5 findfont 12 s
277.47 171.92 ( ) 0 0 t
/Font1 findfont 12 s
280.47 171.92 (c) 0 0 t
286.47 171.92 (m) 0 0 t
/Font1 findfont 8 s
296.47 177.88 (2) 0 0 t
0.75 setlinewidth
[] 0 setdash
np
302.48 170.40 m
3.14 11.65 l
o
/Font1 findfont 12 s
307.19 171.92 (s) 0 0 t
216.09 159.70 (B) 0 0 t
224.09 159.70 (*) 0 0 t
/Font5 findfont 12 s
228.76 159.70 ( ) 0 0 t
/Font1 findfont 12 s
231.76 159.70 (=) 0 0 t
238.77 159.70 ( 2.2056) 0 0 t
ep
%%Trailer
%%Pages: 1
%%EOF
