%!PS-Adobe-3.0 EPSF-3.0
%%DocumentNeededResources: font Helvetica
%%+ font Helvetica-Bold
%%+ font Helvetica-Oblique
%%+ font Helvetica-BoldOblique
%%+ font Symbol
%%Title: R Graphics Output
%%Creator: R Software
%%Pages: (atend)
%%BoundingBox: 0 0 386 257
%%EndComments
%%BeginProlog
/bp  { gs sRGB gs } def
% begin .ps.prolog
/gs  { gsave } bind def
/gr  { grestore } bind def
/ep  { showpage gr gr } bind def
/m   { moveto } bind def
/l  { rlineto } bind def
/np  { newpath } bind def
/cp  { closepath } bind def
/f   { fill } bind def
/o   { stroke } bind def
/c   { newpath 0 360 arc } bind def
/r   { 4 2 roll moveto 1 copy 3 -1 roll exch 0 exch rlineto 0 rlineto -1 mul 0 exch rlineto closepath } bind def
/p1  { stroke } bind def
/p2  { gsave bg fill grestore newpath } bind def
/p3  { gsave bg fill grestore stroke } bind def
/p6  { gsave bg eofill grestore newpath } bind def
/p7  { gsave bg eofill grestore stroke } bind def
/t   { 5 -2 roll moveto gsave rotate
       1 index stringwidth pop
       mul neg 0 rmoveto show grestore } bind def
/ta  { 4 -2 roll moveto gsave rotate show } bind def
/tb  { 2 -1 roll 0 rmoveto show } bind def
/cl  { grestore gsave newpath 3 index 3 index moveto 1 index
       4 -1 roll lineto  exch 1 index lineto lineto
       closepath clip newpath } bind def
/rgb { setrgbcolor } bind def
/s   { scalefont setfont } bind def
% end   .ps.prolog
/sRGB { [ /CIEBasedABC
          << /DecodeLMN
               [ { dup 0.03928 le
                        {12.92321 div}
                        {0.055 add 1.055 div 2.4 exp }
                     ifelse
                 } bind dup dup
               ]
             /MatrixLMN [0.412457 0.212673 0.019334
                         0.357576 0.715152 0.119192
                         0.180437 0.072175 0.950301]
             /WhitePoint [0.9505 1.0 1.0890]
           >>
         ] setcolorspace } bind def
/srgb { setcolor } bind def
% begin encoding
/WinAnsiEncoding [
 /.notdef /.notdef /.notdef /.notdef /.notdef /.notdef /.notdef /.notdef
 /.notdef /.notdef /.notdef /.notdef /.notdef /.notdef /.notdef /.notdef
 /.notdef /.notdef /.notdef /.notdef /.notdef /.notdef /.notdef /.notdef
 /.notdef /.notdef /.notdef /.notdef /.notdef /.notdef /.notdef /.notdef
 /space /exclam /quotedbl /numbersign /dollar /percent /ampersand /quoteright
 /parenleft /parenright /asterisk /plus /comma /minus /period /slash
 /zero /one /two /three /four /five /six /seven
 /eight /nine /colon /semicolon /less /equal /greater /question
 /at /A /B /C /D /E /F /G
 /H /I /J /K /L /M /N /O
 /P /Q /R /S /T /U /V /W
 /X /Y /Z /bracketleft /backslash /bracketright /asciicircum /underscore
 /grave /a /b /c /d /e /f /g
 /h /i /j /k /l /m /n /o
 /p /q /r /s /t /u /v /w
 /x /y /z /braceleft /bar /braceright /asciitilde /.notdef
 /Euro /.notdef /quotesinglbase /florin /quotedblbase /ellipsis /dagger /daggerdbl
 /circumflex /perthousand /Scaron /guilsinglleft /OE /.notdef /Zcaron /.notdef
 /.notdef /quoteleft /quoteright /quotedblleft /quotedblright /bullet /endash /emdash
 /tilde /trademark /scaron /guilsinglright /oe /.notdef /zcaron /Ydieresis
 /space /exclamdown /cent /sterling /currency /yen /brokenbar /section
 /dieresis /copyright /ordfeminine /guillemotleft /logicalnot /hyphen /registered /macron
 /degree /plusminus /twosuperior /threesuperior /acute /mu /paragraph /periodcentered
 /cedilla /onesuperior /ordmasculine /guillemotright /onequarter /onehalf /threequarters /questiondown
 /Agrave /Aacute /Acircumflex /Atilde /Adieresis /Aring /AE /Ccedilla
 /Egrave /Eacute /Ecircumflex /Edieresis /Igrave /Iacute /Icircumflex /Idieresis
 /Eth /Ntilde /Ograve /Oacute /Ocircumflex /Otilde /Odieresis /multiply
 /Oslash /Ugrave /Uacute /Ucircumflex /Udieresis /Yacute /Thorn /germandbls
 /agrave /aacute /acircumflex /atilde /adieresis /aring /ae /ccedilla
 /egrave /eacute /ecircumflex /edieresis /igrave /iacute /icircumflex /idieresis
 /eth /ntilde /ograve /oacute /ocircumflex /otilde /odieresis /divide
 /oslash /ugrave /uacute /ucircumflex /udieresis /yacute /thorn /ydieresis
]
 def
% end encoding
%%IncludeResource: font Helvetica
/Helvetica findfont
dup length dict begin
  {1 index /FID ne {def} {pop pop} ifelse} forall
  /Encoding WinAnsiEncoding def
  currentdict
  end
/Font1 exch definefont pop
%%IncludeResource: font Helvetica-Bold
/Helvetica-Bold findfont
dup length dict begin
  {1 index /FID ne {def} {pop pop} ifelse} forall
  /Encoding WinAnsiEncoding def
  currentdict
  end
/Font2 exch definefont pop
%%IncludeResource: font Helvetica-Oblique
/Helvetica-Oblique findfont
dup length dict begin
  {1 index /FID ne {def} {pop pop} ifelse} forall
  /Encoding WinAnsiEncoding def
  currentdict
  end
/Font3 exch definefont pop
%%IncludeResource: font Helvetica-BoldOblique
/Helvetica-BoldOblique findfont
dup length dict begin
  {1 index /FID ne {def} {pop pop} ifelse} forall
  /Encoding WinAnsiEncoding def
  currentdict
  end
/Font4 exch definefont pop
%%IncludeResource: font Symbol
/Symbol findfont
dup length dict begin
  {1 index /FID ne {def} {pop pop} ifelse} forall
  currentdict
  end
/Font5 exch definefont pop
%%EndProlog
%%Page: 1 1
bp
0.00 0.00 385.50 256.50 cl
0.00 0.00 385.50 256.50 cl
0.00 0.00 385.50 256.50 cl
0.00 0.00 385.50 256.50 cl
0.00 0.00 385.50 256.50 cl
0.00 0.00 385.50 256.50 cl
0.00 0.00 385.50 256.50 cl
0.00 0.00 385.50 256.50 cl
0.00 0.00 385.50 256.50 cl
/bg { 1 1 1 srgb } def
1 1 1 srgb
1.07 setlinewidth
[] 0 setdash
1 setlinecap
1 setlinejoin
10.00 setmiterlimit
0.00 0.00 385.50 256.50 r p3
0.00 0.00 385.50 256.50 cl
0.00 0.00 385.50 256.50 cl
0.00 0.00 385.50 256.50 cl
37.39 31.35 289.32 251.02 cl
/bg { 0.9216 0.9216 0.9216 srgb } def
37.39 31.35 251.92 219.67 r p2
1 1 1 srgb
0.53 setlinewidth
[] 0 setdash
0 setlinecap
1 setlinejoin
10.00 setmiterlimit
np
37.39 68.45 m
251.93 0 l
o
np
37.39 110.78 m
251.93 0 l
o
np
37.39 153.11 m
251.93 0 l
o
np
37.39 195.44 m
251.93 0 l
o
np
37.39 237.77 m
251.93 0 l
o
np
77.47 31.35 m
0 219.67 l
o
np
134.73 31.35 m
0 219.67 l
o
np
191.98 31.35 m
0 219.67 l
o
np
249.24 31.35 m
0 219.67 l
o
1.07 setlinewidth
[] 0 setdash
np
37.39 47.29 m
251.93 0 l
o
np
37.39 89.62 m
251.93 0 l
o
np
37.39 131.95 m
251.93 0 l
o
np
37.39 174.28 m
251.93 0 l
o
np
37.39 216.61 m
251.93 0 l
o
np
48.85 31.35 m
0 219.67 l
o
np
106.10 31.35 m
0 219.67 l
o
np
163.36 31.35 m
0 219.67 l
o
np
220.61 31.35 m
0 219.67 l
o
np
277.87 31.35 m
0 219.67 l
o
/bg { 0 0 1 srgb } def
0 0 1 srgb
0.71 setlinewidth
[] 0 setdash
1 setlinecap
48.85 44.22 0.67 c p3
50.00 47.99 0.67 c p3
51.15 50.04 0.67 c p3
52.30 41.33 0.67 c p3
53.45 48.38 0.67 c p3
54.60 48.57 0.67 c p3
55.75 45.83 0.67 c p3
56.90 45.90 0.67 c p3
58.05 45.86 0.67 c p3
59.20 45.03 0.67 c p3
60.35 46.08 0.67 c p3
61.50 44.75 0.67 c p3
62.66 45.32 0.67 c p3
63.81 47.45 0.67 c p3
64.96 49.73 0.67 c p3
66.11 47.01 0.67 c p3
67.26 45.99 0.67 c p3
68.41 44.97 0.67 c p3
69.56 45.16 0.67 c p3
70.71 53.42 0.67 c p3
71.86 47.63 0.67 c p3
73.01 46.04 0.67 c p3
74.16 46.17 0.67 c p3
75.32 48.46 0.67 c p3
76.47 45.53 0.67 c p3
77.62 43.61 0.67 c p3
78.77 48.75 0.67 c p3
79.92 44.69 0.67 c p3
81.07 47.25 0.67 c p3
82.22 44.91 0.67 c p3
83.37 50.09 0.67 c p3
84.52 46.08 0.67 c p3
85.67 45.49 0.67 c p3
86.82 46.02 0.67 c p3
87.97 43.15 0.67 c p3
89.13 44.32 0.67 c p3
90.28 41.75 0.67 c p3
91.43 43.88 0.67 c p3
92.58 46.54 0.67 c p3
93.73 46.11 0.67 c p3
94.88 50.97 0.67 c p3
96.03 44.57 0.67 c p3
97.18 45.12 0.67 c p3
98.33 46.58 0.67 c p3
99.48 44.76 0.67 c p3
100.63 44.83 0.67 c p3
101.79 44.48 0.67 c p3
102.94 44.11 0.67 c p3
104.09 45.96 0.67 c p3
105.24 46.03 0.67 c p3
106.39 42.70 0.67 c p3
107.54 45.81 0.67 c p3
108.69 44.47 0.67 c p3
109.84 44.71 0.67 c p3
110.99 46.94 0.67 c p3
112.14 49.08 0.67 c p3
113.29 52.69 0.67 c p3
114.44 48.21 0.67 c p3
115.60 56.88 0.67 c p3
116.75 53.44 0.67 c p3
117.90 62.47 0.67 c p3
119.05 72.42 0.67 c p3
120.20 71.54 0.67 c p3
121.35 76.00 0.67 c p3
122.50 84.00 0.67 c p3
123.65 94.99 0.67 c p3
124.80 94.06 0.67 c p3
125.95 106.86 0.67 c p3
127.10 113.09 0.67 c p3
128.26 116.75 0.67 c p3
129.41 121.91 0.67 c p3
130.56 126.52 0.67 c p3
131.71 132.31 0.67 c p3
132.86 140.22 0.67 c p3
134.01 148.93 0.67 c p3
135.16 148.15 0.67 c p3
136.31 149.64 0.67 c p3
137.46 155.74 0.67 c p3
138.61 162.41 0.67 c p3
139.76 164.92 0.67 c p3
140.91 169.03 0.67 c p3
142.07 172.61 0.67 c p3
143.22 172.93 0.67 c p3
144.37 179.16 0.67 c p3
145.52 184.78 0.67 c p3
146.67 187.24 0.67 c p3
147.82 189.56 0.67 c p3
148.97 189.69 0.67 c p3
150.12 192.63 0.67 c p3
151.27 192.35 0.67 c p3
152.42 197.40 0.67 c p3
153.57 200.20 0.67 c p3
154.73 205.80 0.67 c p3
155.88 205.82 0.67 c p3
157.03 203.72 0.67 c p3
158.18 207.49 0.67 c p3
159.33 205.22 0.67 c p3
160.48 211.77 0.67 c p3
161.63 213.36 0.67 c p3
162.78 217.55 0.67 c p3
163.93 214.42 0.67 c p3
165.08 213.30 0.67 c p3
166.23 215.74 0.67 c p3
167.38 215.31 0.67 c p3
168.54 215.45 0.67 c p3
169.69 218.87 0.67 c p3
170.84 217.02 0.67 c p3
171.99 220.53 0.67 c p3
173.14 221.76 0.67 c p3
174.29 221.44 0.67 c p3
175.44 221.75 0.67 c p3
176.59 221.23 0.67 c p3
177.74 220.66 0.67 c p3
178.89 226.21 0.67 c p3
180.04 224.64 0.67 c p3
181.20 227.20 0.67 c p3
182.35 222.41 0.67 c p3
183.50 226.44 0.67 c p3
184.65 228.15 0.67 c p3
185.80 226.77 0.67 c p3
186.95 226.73 0.67 c p3
188.10 225.59 0.67 c p3
189.25 233.14 0.67 c p3
190.40 230.13 0.67 c p3
191.55 233.16 0.67 c p3
192.70 229.01 0.67 c p3
193.85 227.47 0.67 c p3
195.01 225.48 0.67 c p3
196.16 227.95 0.67 c p3
197.31 230.36 0.67 c p3
198.46 232.57 0.67 c p3
199.61 230.84 0.67 c p3
200.76 227.41 0.67 c p3
201.91 232.26 0.67 c p3
203.06 226.54 0.67 c p3
204.21 229.96 0.67 c p3
205.36 230.24 0.67 c p3
206.51 226.23 0.67 c p3
207.66 233.65 0.67 c p3
208.82 229.86 0.67 c p3
209.97 230.71 0.67 c p3
211.12 235.21 0.67 c p3
212.27 233.39 0.67 c p3
213.42 231.60 0.67 c p3
214.57 233.27 0.67 c p3
215.72 233.07 0.67 c p3
216.87 236.36 0.67 c p3
218.02 232.92 0.67 c p3
219.17 233.58 0.67 c p3
220.32 233.24 0.67 c p3
221.48 231.47 0.67 c p3
222.63 232.74 0.67 c p3
223.78 236.71 0.67 c p3
224.93 230.38 0.67 c p3
226.08 232.97 0.67 c p3
227.23 236.17 0.67 c p3
228.38 232.16 0.67 c p3
229.53 230.12 0.67 c p3
230.68 230.63 0.67 c p3
231.83 231.89 0.67 c p3
232.98 230.76 0.67 c p3
234.13 232.29 0.67 c p3
235.29 231.93 0.67 c p3
236.44 232.55 0.67 c p3
237.59 234.08 0.67 c p3
238.74 234.66 0.67 c p3
239.89 237.36 0.67 c p3
241.04 232.95 0.67 c p3
242.19 232.33 0.67 c p3
243.34 236.90 0.67 c p3
244.49 237.52 0.67 c p3
245.64 233.32 0.67 c p3
246.79 232.38 0.67 c p3
247.95 228.62 0.67 c p3
249.10 236.85 0.67 c p3
250.25 231.15 0.67 c p3
251.40 230.44 0.67 c p3
252.55 241.04 0.67 c p3
253.70 233.91 0.67 c p3
254.85 233.25 0.67 c p3
256.00 226.40 0.67 c p3
257.15 233.10 0.67 c p3
258.30 235.84 0.67 c p3
259.45 234.42 0.67 c p3
260.60 235.70 0.67 c p3
261.76 238.43 0.67 c p3
262.91 236.37 0.67 c p3
264.06 232.11 0.67 c p3
265.21 235.20 0.67 c p3
266.36 232.92 0.67 c p3
267.51 232.06 0.67 c p3
268.66 226.18 0.67 c p3
269.81 231.43 0.67 c p3
270.96 234.68 0.67 c p3
272.11 238.96 0.67 c p3
273.26 234.73 0.67 c p3
274.42 235.03 0.67 c p3
275.57 231.01 0.67 c p3
276.72 233.88 0.67 c p3
277.87 228.19 0.67 c p3
1 0 0 srgb
1.07 setlinewidth
[] 0 setdash
0 setlinecap
1.00 setmiterlimit
np
48.85 47.29 m
1.15 0 l
1.15 0 l
1.15 0 l
1.15 0 l
1.15 0 l
1.15 0 l
1.15 0 l
1.15 0 l
1.15 0 l
1.15 0 l
1.15 0 l
1.16 0 l
1.15 0 l
1.15 0 l
1.15 0 l
1.15 0 l
1.15 0 l
1.15 0 l
1.15 0 l
1.15 0 l
1.15 0 l
1.15 0 l
1.16 0 l
1.15 0 l
1.15 0 l
1.15 0 l
1.15 0 l
1.15 0 l
1.15 0 l
1.15 0 l
1.15 0 l
1.15 0 l
1.15 0 l
1.15 0 l
1.16 0 l
1.15 0 l
1.15 0 l
1.15 0 l
1.15 0 l
1.15 0 l
1.15 0 l
1.15 0 l
1.15 0 l
1.15 0 l
1.15 0 l
1.16 0 l
1.15 0 l
1.15 0 l
1.15 0 l
1.15 0 l
1.15 0 l
1.15 0 l
1.15 0 l
1.15 0.06 l
1.15 0.31 l
1.15 0.87 l
1.15 1.70 l
1.16 2.65 l
1.15 3.62 l
1.15 4.47 l
1.15 5.17 l
1.15 5.73 l
1.15 6.10 l
1.15 6.35 l
1.15 6.48 l
1.15 6.50 l
1.15 6.46 l
1.15 6.34 l
1.16 6.19 l
1.15 6.01 l
1.15 5.79 l
1.15 5.57 l
1.15 5.34 l
1.15 5.10 l
1.15 4.86 l
1.15 4.64 l
1.15 4.40 l
1.15 4.18 l
1.15 3.96 l
1.15 3.75 l
1.16 3.56 l
1.15 3.36 l
1.15 3.19 l
1.15 3.00 l
1.15 2.85 l
1.15 2.69 l
1.15 2.53 l
1.15 2.40 l
1.15 2.27 l
1.15 2.13 l
1.15 2.02 l
1.16 1.91 l
1.15 1.79 l
1.15 1.70 l
1.15 1.60 l
1.15 1.51 l
1.15 1.43 l
1.15 1.34 l
1.15 1.27 l
163.93 213.64 lineto
1.15 1.13 l
1.15 1.07 l
1.15 1.01 l
1.16 0.94 l
1.15 0.90 l
1.15 0.85 l
1.15 0.79 l
1.15 0.76 l
1.15 0.71 l
1.15 0.67 l
1.15 0.63 l
1.15 0.59 l
1.15 0.57 l
1.15 0.53 l
1.16 0.50 l
1.15 0.47 l
1.15 0.45 l
1.15 0.42 l
1.15 0.39 l
1.15 0.38 l
1.15 0.35 l
1.15 0.33 l
1.15 0.32 l
1.15 0.29 l
1.15 0.28 l
1.15 0.27 l
1.16 0.25 l
1.15 0.23 l
1.15 0.22 l
1.15 0.21 l
1.15 0.20 l
1.15 0.19 l
1.15 0.17 l
1.15 0.17 l
1.15 0.15 l
1.15 0.15 l
1.15 0.14 l
1.15 0.13 l
1.16 0.13 l
1.15 0.11 l
1.15 0.11 l
1.15 0.11 l
1.15 0.09 l
1.15 0.10 l
1.15 0.08 l
1.15 0.09 l
1.15 0.07 l
1.15 0.08 l
1.15 0.07 l
1.16 0.06 l
1.15 0.06 l
1.15 0.06 l
1.15 0.06 l
1.15 0.05 l
1.15 0.05 l
1.15 0.04 l
1.15 0.05 l
1.15 0.04 l
1.15 0.04 l
1.15 0.03 l
1.15 0.04 l
1.16 0.03 l
1.15 0.03 l
1.15 0.03 l
1.15 0.03 l
1.15 0.02 l
1.15 0.03 l
1.15 0.02 l
1.15 0.02 l
1.15 0.02 l
1.15 0.02 l
1.15 0.02 l
1.16 0.02 l
1.15 0.01 l
1.15 0.02 l
1.15 0.01 l
1.15 0.02 l
1.15 0.01 l
1.15 0.01 l
1.15 0.01 l
1.15 0.01 l
1.15 0.01 l
1.15 0.01 l
1.15 0.01 l
1.16 0.01 l
1.15 0.01 l
1.15 0 l
1.15 0.01 l
1.15 0.01 l
1.15 0.01 l
1.15 0 l
1.15 0.01 l
1.15 0 l
1.15 0.01 l
1.15 0 l
1.16 0.01 l
1.15 0 l
1.15 0 l
1.15 0.01 l
o
/Font1 findfont 14 s
0 0 0 srgb
179.77 190.42 (nls) 0 ta
-0.210 (.lm results) tb gr
/Font1 findfont 11 s
189.05 170.52 (a) 0 0 t
/Font5 findfont 11 s
197.72 170.52 (=) 0 0 t
/Font1 findfont 11 s
206.30 170.52 (1.173595) 0 0 t
188.44 153.50 (B) 0 0 t
/Font5 findfont 11 s
198.33 153.50 (=) 0 0 t
/Font1 findfont 11 s
206.91 153.50 (2.201245) 0 0 t
/Font5 findfont 11 s
191.85 136.66 (s) 0 0 t
201.03 136.66 (=) 0 0 t
/Font1 findfont 11 s
209.62 136.66 (0.03066) 0 0 t
188.44 119.53 (S) 0 0 t
/Font5 findfont 11 s
198.33 119.53 (=) 0 0 t
/Font1 findfont 11 s
206.91 119.53 (0.186138) 0 0 t
0.00 0.00 385.50 256.50 cl
0.00 0.00 385.50 256.50 cl
0.00 0.00 385.50 256.50 cl
0.00 0.00 385.50 256.50 cl
0.00 0.00 385.50 256.50 cl
0.00 0.00 385.50 256.50 cl
/Font1 findfont 9 s
0.3020 0.3020 0.3020 srgb
32.46 44.06 (0.0) 1 0 t
32.46 86.39 (0.5) 1 0 t
32.46 128.72 (1.0) 1 0 t
32.46 171.05 (1.5) 1 0 t
32.46 213.38 (2.0) 1 0 t
0.00 0.00 385.50 256.50 cl
0.00 0.00 385.50 256.50 cl
0.2000 0.2000 0.2000 srgb
1.07 setlinewidth
[] 0 setdash
0 setlinecap
1 setlinejoin
10.00 setmiterlimit
np
34.65 47.29 m
2.74 0 l
o
np
34.65 89.62 m
2.74 0 l
o
np
34.65 131.95 m
2.74 0 l
o
np
34.65 174.28 m
2.74 0 l
o
np
34.65 216.61 m
2.74 0 l
o
0.00 0.00 385.50 256.50 cl
0.00 0.00 385.50 256.50 cl
0.00 0.00 385.50 256.50 cl
0.00 0.00 385.50 256.50 cl
0.00 0.00 385.50 256.50 cl
0.00 0.00 385.50 256.50 cl
0.00 0.00 385.50 256.50 cl
0.00 0.00 385.50 256.50 cl
0.2000 0.2000 0.2000 srgb
1.07 setlinewidth
[] 0 setdash
0 setlinecap
1 setlinejoin
10.00 setmiterlimit
np
48.85 28.61 m
0 2.74 l
o
np
106.10 28.61 m
0 2.74 l
o
np
163.36 28.61 m
0 2.74 l
o
np
220.61 28.61 m
0 2.74 l
o
np
277.87 28.61 m
0 2.74 l
o
0.00 0.00 385.50 256.50 cl
0.00 0.00 385.50 256.50 cl
/Font1 findfont 9 s
0.3020 0.3020 0.3020 srgb
48.85 19.95 (-0.01) .5 0 t
106.10 19.95 (0.00) .5 0 t
163.36 19.95 (0.01) .5 0 t
220.61 19.95 (0.02) .5 0 t
277.87 19.95 (0.03) .5 0 t
0.00 0.00 385.50 256.50 cl
0.00 0.00 385.50 256.50 cl
0.00 0.00 385.50 256.50 cl
0.00 0.00 385.50 256.50 cl
/Font1 findfont 11 s
0 0 0 srgb
163.36 7.67 (time) .5 0 t
0.00 0.00 385.50 256.50 cl
0.00 0.00 385.50 256.50 cl
/Font1 findfont 11 s
0 0 0 srgb
15.57 109.70 (T) 90 ta
-1.320 (emper) tb
-0.110 (ature) tb gr
0.00 0.00 385.50 256.50 cl
0.00 0.00 385.50 256.50 cl
0.00 0.00 385.50 256.50 cl
0.00 0.00 385.50 256.50 cl
/bg { 1 1 1 srgb } def
297.82 112.99 73.69 56.38 r p2
0.00 0.00 385.50 256.50 cl
0.00 0.00 385.50 256.50 cl
0.00 0.00 385.50 256.50 cl
0.00 0.00 385.50 256.50 cl
/bg { 0.9490 0.9490 0.9490 srgb } def
1 1 1 srgb
1.07 setlinewidth
[] 0 setdash
1 setlinecap
1 setlinejoin
10.00 setmiterlimit
302.07 134.52 17.28 17.28 r p3
0.00 0.00 385.50 256.50 cl
0.00 0.00 385.50 256.50 cl
/bg { 0 0 1 srgb } def
310.71 143.16 0.67 c p2
0.00 0.00 385.50 256.50 cl
0.00 0.00 385.50 256.50 cl
0.00 0.00 385.50 256.50 cl
0.00 0.00 385.50 256.50 cl
/bg { 0.9490 0.9490 0.9490 srgb } def
1 1 1 srgb
1.07 setlinewidth
[] 0 setdash
1 setlinecap
1 setlinejoin
10.00 setmiterlimit
302.07 117.24 17.28 17.28 r p3
0.00 0.00 385.50 256.50 cl
0.00 0.00 385.50 256.50 cl
0.00 0.00 385.50 256.50 cl
0.00 0.00 385.50 256.50 cl
1 0 0 srgb
1.07 setlinewidth
[] 0 setdash
0 setlinecap
1 setlinejoin
10.00 setmiterlimit
np
303.80 125.88 m
13.83 0 l
o
0.00 0.00 385.50 256.50 cl
0.00 0.00 385.50 256.50 cl
/Font1 findfont 9 s
0 0 0 srgb
321.51 139.93 (e) 0 ta
-0.270 (xper) tb
0.135 (iment) tb gr
0.00 0.00 385.50 256.50 cl
0.00 0.00 385.50 256.50 cl
/Font1 findfont 9 s
0 0 0 srgb
321.51 122.65 (theor) 0 ta
0.270 (y) tb gr
0.00 0.00 385.50 256.50 cl
0.00 0.00 385.50 256.50 cl
0.00 0.00 385.50 256.50 cl
0.00 0.00 385.50 256.50 cl
0.00 0.00 385.50 256.50 cl
0.00 0.00 385.50 256.50 cl
ep
%%Trailer
%%Pages: 1
%%EOF
