<?xml version="1.1" encoding="windows-1252"?>
<svg xmlns="http://www.w3.org/2000/svg"
    xmlns:latexdraw="http://latexdraw.sourceforge.net/namespaces/latexdraw"
    version="1.1" baseProfile="full">
    <g>
        <g latexdraw:type="joinedLines" id="id1238918699">
            <polyline
                points="859.5134580769484,287.4517771337487 959.5134459465171,287.4025218181896 "
                stroke-width="2.0" stroke="black"
                latexdraw:rotationAngle="-4.925531754981227E-4"
                marker-start="url(#arrow0-1238918699)" marker-end="url(#arrow1-1238918699)"/>
        </g>
        <g latexdraw:type="text" id="id104941002" fill="black" latexdraw:position="bl">
            <text x="730.0" y="325.0">\Huge (a)</text>
        </g>
        <g latexdraw:type="text" id="id1719597669" fill="black" latexdraw:position="bl">
            <text x="731.0" y="711.0">\Huge (b)</text>
        </g>
        <g latexdraw:type="rectangle" id="id288096982">
            <rect x="601.0" y="146.0" width="298.0" height="33.0"
                latexdraw:borderPos="outer" stroke-width="2.0"
                stroke="black" fill="url(#pattern288096982)"/>
        </g>
        <g latexdraw:type="polygon" id="id1976492466">
            <polygon
                points="610.0,5.0 610.0,130.0 600.0,130.0 610.0,140.0 890.0,140.0 900.0,130.0 890.0,130.0 890.0,5.0 "
                stroke-width="0.5" stroke="#ff6666" fill="#ff6699" latexdraw:rotationAngle="0.0"/>
        </g>
        <g latexdraw:type="polygon" id="id1792023088">
            <polygon
                points="725.0,185.0 715.0,195.0 725.0,195.0 725.0,255.0 775.0,255.0 775.0,195.0 785.0,195.0 775.0,185.0 775.0,185.0 "
                stroke-width="0.5" stroke="black" fill="#ccccff" latexdraw:rotationAngle="0.0"/>
        </g>
        <g latexdraw:type="polygon" id="id1486417499">
            <polygon points="750.0,0.0 750.0,280.0 750.0,280.0 "
                stroke-width="0.5" stroke="black" fill="blue"
                stroke-dasharray="8.819444444444445, 5.291666666666667" latexdraw:rotationAngle="0.0"/>
        </g>
        <g latexdraw:type="joinedLines" id="id465564974">
            <polyline points="835.0,225.0 835.0,315.0 "
                stroke-width="2.0" stroke="black"
                latexdraw:rotationAngle="0.0"
                marker-start="url(#arrow0-465564974)" marker-end="url(#arrow1-465564974)"/>
        </g>
        <g latexdraw:type="text" id="id88623585" fill="black" latexdraw:position="bl">
            <text x="806.0" y="216.0">\huge {axial}</text>
        </g>
        <g latexdraw:type="text" id="id1977188434" fill="black" latexdraw:position="bl">
            <text x="865.0" y="325.0">\huge {radial}</text>
        </g>
        <g latexdraw:type="text" id="id1080815310" fill="black" latexdraw:position="bl">
            <text x="781.0" y="246.0">\huge {$R_1$}</text>
        </g>
        <g latexdraw:type="text" id="id1772053085" fill="black" latexdraw:position="bl">
            <text x="832.0" y="87.0">\huge {$r_1$}</text>
        </g>
        <g latexdraw:type="text" id="id1808666103" fill="black" latexdraw:position="bl">
            <text x="553.0" y="173.0">\huge {$L$}</text>
        </g>
        <g latexdraw:type="joinedLines" id="id814569482">
            <polyline points="750.0,95.0 750.0,95.0 890.0,95.0 "
                stroke-width="2.0" stroke="black" fill="none"
                latexdraw:rotationAngle="0.0" marker-end="url(#arrow1-814569482)"/>
        </g>
        <g latexdraw:type="joinedLines" id="id1749585138">
            <polyline points="750.0,225.0 775.0,225.0 "
                stroke-width="2.0" stroke="black"
                latexdraw:rotationAngle="0.0" marker-end="url(#arrow1-1749585138)"/>
        </g>
        <g latexdraw:type="joinedLines" id="id1006252407">
            <polyline points="750.0,200.0 600.0,200.0 "
                stroke-width="2.0" stroke="black"
                latexdraw:rotationAngle="0.0" marker-end="url(#arrow1-1006252407)"/>
        </g>
        <g latexdraw:type="text" id="id61481439" fill="black" latexdraw:position="bl">
            <text x="637.0" y="237.0">\huge {$R$}</text>
        </g>
        <g latexdraw:type="text" id="id1897507985" fill="#000099" latexdraw:position="bl">
            <text x="705.0" y="40.0">\huge{Laser}</text>
        </g>
        <g latexdraw:type="rectangle" id="id188421333">
            <rect x="602.0" y="512.0" width="298.0" height="33.0"
                latexdraw:borderPos="outer" stroke-width="2.0"
                stroke="black" fill="url(#pattern188421333)"/>
        </g>
        <g latexdraw:type="polygon" id="id1610327752">
            <polygon
                points="611.0000000000002,371.0 611.0000000000002,496.0 601.0,496.0 611.0000000000002,506.0 890.9999999999999,506.0 901.0,496.0 890.9999999999999,496.0 890.9999999999999,371.0 "
                stroke-width="0.5" stroke="#ff6699" fill="#ff6699" latexdraw:rotationAngle="0.0"/>
        </g>
        <g latexdraw:type="polygon" id="id1423455191">
            <polygon
                points="726.0,551.0 716.0,561.0 726.0,561.0 726.0,621.0 776.0,621.0 776.0,561.0 786.0,561.0 776.0,551.0 776.0,551.0 "
                stroke-width="0.5" stroke="black" fill="#ccccff" latexdraw:rotationAngle="0.0"/>
        </g>
        <g latexdraw:type="text" id="id1349901141" fill="black" latexdraw:position="bl">
            <text x="782.0" y="612.0">\huge {$R_1$}</text>
        </g>
        <g latexdraw:type="text" id="id1584313471" fill="black" latexdraw:position="bl">
            <text x="554.0" y="539.0">\huge {$L$}</text>
        </g>
        <g latexdraw:type="joinedLines" id="id1542323649">
            <polyline points="751.0,591.0 776.0,591.0 "
                stroke-width="2.0" stroke="black"
                latexdraw:rotationAngle="0.0" marker-end="url(#arrow1-1542323649)"/>
        </g>
        <g latexdraw:type="joinedLines" id="id1218177174">
            <polyline points="751.0,566.0 601.0,566.0 "
                stroke-width="2.0" stroke="black"
                latexdraw:rotationAngle="0.0" marker-end="url(#arrow1-1218177174)"/>
        </g>
        <g latexdraw:type="text" id="id249724645" fill="black" latexdraw:position="bl">
            <text x="638.0" y="603.0">\huge {$R$}</text>
        </g>
        <g latexdraw:type="text" id="id1166613019" fill="#cc00cc" latexdraw:position="bl">
            <text x="706.0" y="406.0">\huge{Laser}</text>
        </g>
        <g latexdraw:type="rectangle" id="id560286577">
            <rect x="655.05" y="370.05" width="189.9" height="139.9"
                latexdraw:borderPos="outer" stroke-width="0.1"
                stroke="white" fill="white"/>
        </g>
        <g latexdraw:type="polygon" id="id1758446393">
            <polygon points="751.0,366.0 751.0,646.0 751.0,646.0 "
                stroke-width="0.5" stroke="black" fill="blue"
                stroke-dasharray="8.819444444444445, 5.291666666666667" latexdraw:rotationAngle="0.0"/>
        </g>
        <g latexdraw:type="joinedLines" id="id832643361">
            <polyline points="751.0,461.0 751.0,461.0 891.0,461.0 "
                stroke-width="2.0" stroke="black" fill="none"
                latexdraw:rotationAngle="0.0" marker-end="url(#arrow1-832643361)"/>
        </g>
        <g latexdraw:type="joinedLines" id="id799850638">
            <polyline points="750.0,415.0 845.0,415.0 "
                stroke-width="2.0" stroke="black"
                latexdraw:rotationAngle="0.0" marker-end="url(#arrow1-799850638)"/>
        </g>
        <g latexdraw:type="text" id="id1346124027" fill="black" latexdraw:position="bl">
            <text x="783.0" y="488.0">\huge {$r_1$}</text>
        </g>
        <g latexdraw:type="text" id="id1192899269" fill="black" latexdraw:position="bl">
            <text x="785.0" y="405.0">\huge{$r_0$}</text>
        </g>
    </g>
    <defs>
        <marker overflow="visible" orient="auto" id="arrow0-1238918699">
            <path
                d="M 0.5 -3.3819444444444446 L 0.5 3.3819444444444446 "
                latexdraw:tbarSizeNum="5.0" stroke="black" fill="none" stroke-width="1.0"/>
        </marker>
        <marker overflow="visible" orient="auto" id="arrow1-1238918699">
            <path
                d="M 0.0 0.0 L -10.252083333333333 3.6614583333333335 L -10.252083333333333 0.0 L -10.252083333333333 -3.6614583333333335 z "
                latexdraw:arrSizeNum="6.0" fill="black"/>
        </marker>
        <pattern latexdraw:type="hlines*" latexdraw:rotationAngle="0.0"
            latexdraw:size="7.055555555555555"
            patternUnits="userSpaceOnUse" id="pattern288096982" x="0"
            y="0" width="900" height="180">
            <rect width="900" height="180" fill="#cccccc" stroke="none"/>
            <g stroke="black" stroke-width="1.4111111111111112" stroke-dasharray="none">
                <path d="M 600.0 145.0 L 900.0 145.0 M 600.0 153.46666666666667 L 900.0 153.46666666666667 M 600.0 161.93333333333334 L 900.0 161.93333333333334 M 600.0 170.4 L 900.0 170.4 M 600.0 178.86666666666667 L 900.0 178.86666666666667 "/>
            </g>
        </pattern>
        <marker overflow="visible" orient="auto" id="arrow0-465564974">
            <path
                d="M 0.5 -3.3819444444444446 L 0.5 3.3819444444444446 "
                latexdraw:tbarSizeNum="5.0" stroke="black" fill="none" stroke-width="1.0"/>
        </marker>
        <marker overflow="visible" orient="auto" id="arrow1-465564974">
            <path
                d="M 0.0 0.0 L -10.252083333333333 3.6614583333333335 L -10.252083333333333 0.0 L -10.252083333333333 -3.6614583333333335 z "
                latexdraw:arrSizeNum="6.0" fill="black"/>
        </marker>
        <marker overflow="visible" orient="auto" id="arrow1-814569482">
            <path
                d="M 0.0 0.0 L -6.052083333333333 2.1614583333333335 L -6.052083333333333 0.0 L -6.052083333333333 -2.1614583333333335 z "
                latexdraw:arrSizeNum="3.0" fill="black"/>
        </marker>
        <marker overflow="visible" orient="auto" id="arrow1-1749585138">
            <path
                d="M 0.0 0.0 L -6.052083333333333 2.1614583333333335 L -6.052083333333333 0.0 L -6.052083333333333 -2.1614583333333335 z "
                latexdraw:arrSizeNum="3.0" fill="black"/>
        </marker>
        <marker overflow="visible" orient="auto" id="arrow1-1006252407">
            <path
                d="M 0.0 0.0 L -6.052083333333333 2.1614583333333335 L -6.052083333333333 0.0 L -6.052083333333333 -2.1614583333333335 z "
                latexdraw:arrSizeNum="3.0" fill="black"/>
        </marker>
        <pattern latexdraw:type="hlines*" latexdraw:rotationAngle="0.0"
            latexdraw:size="7.055555555555555"
            patternUnits="userSpaceOnUse" id="pattern188421333" x="0"
            y="0" width="901" height="546">
            <rect width="901" height="546" fill="#cccccc" stroke="none"/>
            <g stroke="black" stroke-width="1.4111111111111112" stroke-dasharray="none">
                <path d="M 601.0 511.0 L 901.0 511.0 M 601.0 519.4666666666667 L 901.0 519.4666666666667 M 601.0 527.9333333333334 L 901.0 527.9333333333334 M 601.0 536.4000000000001 L 901.0 536.4000000000001 M 601.0 544.8666666666668 L 901.0 544.8666666666668 "/>
            </g>
        </pattern>
        <marker overflow="visible" orient="auto" id="arrow1-1542323649">
            <path
                d="M 0.0 0.0 L -6.052083333333333 2.1614583333333335 L -6.052083333333333 0.0 L -6.052083333333333 -2.1614583333333335 z "
                latexdraw:arrSizeNum="3.0" fill="black"/>
        </marker>
        <marker overflow="visible" orient="auto" id="arrow1-1218177174">
            <path
                d="M 0.0 0.0 L -6.052083333333333 2.1614583333333335 L -6.052083333333333 0.0 L -6.052083333333333 -2.1614583333333335 z "
                latexdraw:arrSizeNum="3.0" fill="black"/>
        </marker>
        <marker overflow="visible" orient="auto" id="arrow1-832643361">
            <path
                d="M 0.0 0.0 L -6.052083333333333 2.1614583333333335 L -6.052083333333333 0.0 L -6.052083333333333 -2.1614583333333335 z "
                latexdraw:arrSizeNum="3.0" fill="black"/>
        </marker>
        <marker overflow="visible" orient="auto" id="arrow1-799850638">
            <path
                d="M 0.0 0.0 L -6.052083333333333 2.1614583333333335 L -6.052083333333333 0.0 L -6.052083333333333 -2.1614583333333335 z "
                latexdraw:arrSizeNum="3.0" fill="black"/>
        </marker>
    </defs>
    <metadata>
        <latexdraw:metadata>
            <latexdraw:latexIncludes/>
            <latexdraw:displayXScale>true</latexdraw:displayXScale>
            <latexdraw:displayYScale>true</latexdraw:displayYScale>
            <latexdraw:unit>CM</latexdraw:unit>
            <latexdraw:zoom>1.0</latexdraw:zoom>
            <latexdraw:magneticGridStyle>STANDARD</latexdraw:magneticGridStyle>
            <latexdraw:gridGap>6</latexdraw:gridGap>
            <latexdraw:magneticGrid>true</latexdraw:magneticGrid>
            <latexdraw:version>3.3.5</latexdraw:version>
            <latexdraw:size>
                <latexdraw:width>1680</latexdraw:width>
                <latexdraw:height>1026</latexdraw:height>
            </latexdraw:size>
            <latexdraw:position>
                <latexdraw:x>0.0</latexdraw:x>
                <latexdraw:y>0.0</latexdraw:y>
            </latexdraw:position>
        </latexdraw:metadata>
    </metadata>
</svg>
