<?xml version="1.1" encoding="windows-1252"?>
<svg xmlns="http://www.w3.org/2000/svg"
    xmlns:latexdraw="http://latexdraw.sourceforge.net/namespaces/latexdraw"
    version="1.1" baseProfile="full">
    <g>
        <g latexdraw:type="polygon" id="id510289074">
            <polygon
                points="255.0,470.0 155.0,520.0 355.0,520.0 450.0,470.0 "
                stroke-width="2.0" stroke="black"
                fill="url(#pattern510289074)" latexdraw:rotationAngle="0.0"/>
        </g>
        <g latexdraw:type="polygon" id="id705288654">
            <polygon
                points="455.0,470.0 455.0,515.0 354.9999999999998,570.0 354.9999999999998,520.0 449.9999999999999,470.0 "
                stroke-width="2.0" stroke="black"
                fill="url(#pattern705288654)" latexdraw:rotationAngle="0.0"/>
        </g>
        <g latexdraw:type="rectangle" id="id695743921">
            <rect x="156.0" y="521.0" width="198.0" height="48.0"
                latexdraw:borderPos="outer" stroke-width="2.0"
                stroke="black" fill="#999999"/>
        </g>
        <g latexdraw:type="polygon" id="id220950297">
            <polygon
                points="150.0,200.0 250.0,150.0 450.0,150.0 345.0,200.0 345.0,200.0 "
                stroke-width="2.0" stroke="black" fill="#999999" latexdraw:rotationAngle="0.0"/>
        </g>
        <g latexdraw:type="polygon" id="id888854181">
            <polygon
                points="150.0,200.0 150.0,215.0 345.0,215.0 345.0,200.0 345.0,200.0 "
                stroke-width="2.0" stroke="black" fill="white" latexdraw:rotationAngle="0.0"/>
        </g>
        <g latexdraw:type="polygon" id="id1496940969">
            <polygon
                points="345.0,215.0 450.0,165.0 450.0,150.0 345.0,200.0 "
                stroke-width="2.0" stroke="black" fill="white" latexdraw:rotationAngle="0.0"/>
        </g>
        <g latexdraw:type="joinedLines" id="id465564974">
            <polyline points="305.0,85.0 305.0,175.0 "
                stroke-width="2.0" stroke="black"
                latexdraw:rotationAngle="0.0"
                marker-start="url(#arrow0-465564974)" marker-end="url(#arrow1-465564974)"/>
        </g>
        <g latexdraw:type="joinedLines" id="id1238918699">
            <polyline
                points="365.78077940921645,222.55039461755405 455.367658498137,178.11852435411464 "
                stroke-width="2.0" stroke="black"
                latexdraw:rotationAngle="-0.4604136293998828"
                marker-start="url(#arrow0-1238918699)" marker-end="url(#arrow1-1238918699)"/>
        </g>
        <g latexdraw:type="text" id="id153544185" fill="black"
            latexdraw:position="bl" transform="rotate(-26.37975779491368) translate(-155.7865576330941 139.07086101417616)">
            <text x="374.5948396057002" y="262.8283332794664">\huge {in-plane}</text>
        </g>
        <g latexdraw:type="text" id="id88623585" fill="black" latexdraw:position="bl">
            <text x="186.0" y="81.0">\huge {through-thickness}</text>
        </g>
        <g latexdraw:type="text" id="id104941002" fill="black" latexdraw:position="bl">
            <text x="285.0" y="300.0">\Huge (a)</text>
        </g>
        <g latexdraw:type="text" id="id1719597669" fill="black" latexdraw:position="bl">
            <text x="286.0" y="711.0">\Huge (b)</text>
        </g>
        <g latexdraw:type="joinedLines" id="id1923742109">
            <polyline points="311.0,406.0 311.0,496.0 "
                stroke-width="2.0" stroke="black"
                latexdraw:rotationAngle="0.0"
                marker-start="url(#arrow0-1923742109)" marker-end="url(#arrow1-1923742109)"/>
        </g>
        <g latexdraw:type="text" id="id1117872896" fill="black" latexdraw:position="bl">
            <text x="257.0" y="402.0">\huge {in-plane}</text>
        </g>
        <g latexdraw:type="joinedLines" id="id174600476">
            <polyline
                points="372.02657315177646,586.5991742912756 458.37607933579886,536.1634450730373 "
                stroke-width="2.0" stroke="black"
                latexdraw:rotationAngle="-0.5286374936130888"
                marker-start="url(#arrow0-174600476)" marker-end="url(#arrow1-174600476)"/>
        </g>
        <g latexdraw:type="text" id="id891527653" fill="black"
            latexdraw:position="bl" transform="rotate(-30.288697276403997) translate(-377.16637312101255 81.18602935508284)">
            <text x="338.5659142206696" y="656.1825496867085">\huge {through-thickness}</text>
        </g>
    </g>
    <defs>
        <pattern latexdraw:type="hlines" latexdraw:rotationAngle="0.0"
            latexdraw:size="5.06" patternUnits="userSpaceOnUse"
            id="pattern510289074" x="0" y="0" width="450" height="520">
            <g stroke="black" stroke-width="2.0" stroke-dasharray="none">
                <path d="M 155.0 470.0 L 450.0 470.0 M 155.0 477.06 L 450.0 477.06 M 155.0 484.12 L 450.0 484.12 M 155.0 491.18 L 450.0 491.18 M 155.0 498.24 L 450.0 498.24 M 155.0 505.3 L 450.0 505.3 M 155.0 512.36 L 450.0 512.36 M 155.0 519.42 L 450.0 519.42 "/>
            </g>
        </pattern>
        <pattern latexdraw:type="vlines" latexdraw:rotationAngle="0.0"
            latexdraw:size="8.06" patternUnits="userSpaceOnUse"
            id="pattern705288654" x="0" y="0" width="455" height="570">
            <g stroke="black" stroke-width="2.0" stroke-dasharray="none">
                <path d="M 354.9999999999998 470.0 L 354.9999999999998 570.0 M 365.0599999999998 470.0 L 365.0599999999998 570.0 M 375.1199999999998 470.0 L 375.1199999999998 570.0 M 385.1799999999998 470.0 L 385.1799999999998 570.0 M 395.2399999999998 470.0 L 395.2399999999998 570.0 M 405.2999999999998 470.0 L 405.2999999999998 570.0 M 415.3599999999998 470.0 L 415.3599999999998 570.0 M 425.4199999999998 470.0 L 425.4199999999998 570.0 M 435.4799999999998 470.0 L 435.4799999999998 570.0 M 445.5399999999998 470.0 L 445.5399999999998 570.0 "/>
            </g>
        </pattern>
        <marker overflow="visible" orient="auto" id="arrow0-465564974">
            <path
                d="M 0.5 -3.3819444444444446 L 0.5 3.3819444444444446 "
                latexdraw:tbarSizeNum="5.0" stroke="black" fill="none" stroke-width="1.0"/>
        </marker>
        <marker overflow="visible" orient="auto" id="arrow1-465564974">
            <path
                d="M 0.0 0.0 L -10.252083333333333 3.6614583333333335 L -10.252083333333333 0.0 L -10.252083333333333 -3.6614583333333335 z "
                latexdraw:arrSizeNum="6.0" fill="black"/>
        </marker>
        <marker overflow="visible" orient="auto" id="arrow0-1238918699">
            <path
                d="M 0.5 -3.3819444444444446 L 0.5 3.3819444444444446 "
                latexdraw:tbarSizeNum="5.0" stroke="black" fill="none" stroke-width="1.0"/>
        </marker>
        <marker overflow="visible" orient="auto" id="arrow1-1238918699">
            <path
                d="M 0.0 0.0 L -10.252083333333333 3.6614583333333335 L -10.252083333333333 0.0 L -10.252083333333333 -3.6614583333333335 z "
                latexdraw:arrSizeNum="6.0" fill="black"/>
        </marker>
        <marker overflow="visible" orient="auto" id="arrow0-1923742109">
            <path
                d="M 0.5 -3.3819444444444446 L 0.5 3.3819444444444446 "
                latexdraw:tbarSizeNum="5.0" stroke="black" fill="none" stroke-width="1.0"/>
        </marker>
        <marker overflow="visible" orient="auto" id="arrow1-1923742109">
            <path
                d="M 0.0 0.0 L -10.252083333333333 3.6614583333333335 L -10.252083333333333 0.0 L -10.252083333333333 -3.6614583333333335 z "
                latexdraw:arrSizeNum="6.0" fill="black"/>
        </marker>
        <marker overflow="visible" orient="auto" id="arrow0-174600476">
            <path
                d="M 0.5 -3.3819444444444446 L 0.5 3.3819444444444446 "
                latexdraw:tbarSizeNum="5.0" stroke="black" fill="none" stroke-width="1.0"/>
        </marker>
        <marker overflow="visible" orient="auto" id="arrow1-174600476">
            <path
                d="M 0.0 0.0 L -10.252083333333333 3.6614583333333335 L -10.252083333333333 0.0 L -10.252083333333333 -3.6614583333333335 z "
                latexdraw:arrSizeNum="6.0" fill="black"/>
        </marker>
    </defs>
    <metadata>
        <latexdraw:metadata>
            <latexdraw:latexIncludes/>
            <latexdraw:displayXScale>true</latexdraw:displayXScale>
            <latexdraw:displayYScale>true</latexdraw:displayYScale>
            <latexdraw:unit>CM</latexdraw:unit>
            <latexdraw:zoom>1.0</latexdraw:zoom>
            <latexdraw:magneticGridStyle>STANDARD</latexdraw:magneticGridStyle>
            <latexdraw:gridGap>6</latexdraw:gridGap>
            <latexdraw:magneticGrid>true</latexdraw:magneticGrid>
            <latexdraw:version>3.3.5</latexdraw:version>
            <latexdraw:size>
                <latexdraw:width>1680</latexdraw:width>
                <latexdraw:height>1026</latexdraw:height>
            </latexdraw:size>
            <latexdraw:position>
                <latexdraw:x>0.0</latexdraw:x>
                <latexdraw:y>0.0</latexdraw:y>
            </latexdraw:position>
        </latexdraw:metadata>
    </metadata>
</svg>
