%!PS-Adobe-3.0 EPSF-3.0
%%DocumentNeededResources: font Helvetica
%%+ font Helvetica-Bold
%%+ font Helvetica-Oblique
%%+ font Helvetica-BoldOblique
%%+ font Symbol
%%Title: R Graphics Output
%%Creator: R Software
%%Pages: (atend)
%%BoundingBox: 0 0 320 227
%%EndComments
%%BeginProlog
/bp  { gs sRGB gs } def
% begin .ps.prolog
/gs  { gsave } bind def
/gr  { grestore } bind def
/ep  { showpage gr gr } bind def
/m   { moveto } bind def
/l  { rlineto } bind def
/np  { newpath } bind def
/cp  { closepath } bind def
/f   { fill } bind def
/o   { stroke } bind def
/c   { newpath 0 360 arc } bind def
/r   { 4 2 roll moveto 1 copy 3 -1 roll exch 0 exch rlineto 0 rlineto -1 mul 0 exch rlineto closepath } bind def
/p1  { stroke } bind def
/p2  { gsave bg fill grestore newpath } bind def
/p3  { gsave bg fill grestore stroke } bind def
/p6  { gsave bg eofill grestore newpath } bind def
/p7  { gsave bg eofill grestore stroke } bind def
/t   { 5 -2 roll moveto gsave rotate
       1 index stringwidth pop
       mul neg 0 rmoveto show grestore } bind def
/ta  { 4 -2 roll moveto gsave rotate show } bind def
/tb  { 2 -1 roll 0 rmoveto show } bind def
/cl  { grestore gsave newpath 3 index 3 index moveto 1 index
       4 -1 roll lineto  exch 1 index lineto lineto
       closepath clip newpath } bind def
/rgb { setrgbcolor } bind def
/s   { scalefont setfont } bind def
% end   .ps.prolog
/sRGB { [ /CIEBasedABC
          << /DecodeLMN
               [ { dup 0.03928 le
                        {12.92321 div}
                        {0.055 add 1.055 div 2.4 exp }
                     ifelse
                 } bind dup dup
               ]
             /MatrixLMN [0.412457 0.212673 0.019334
                         0.357576 0.715152 0.119192
                         0.180437 0.072175 0.950301]
             /WhitePoint [0.9505 1.0 1.0890]
           >>
         ] setcolorspace } bind def
/srgb { setcolor } bind def
% begin encoding
/WinAnsiEncoding [
 /.notdef /.notdef /.notdef /.notdef /.notdef /.notdef /.notdef /.notdef
 /.notdef /.notdef /.notdef /.notdef /.notdef /.notdef /.notdef /.notdef
 /.notdef /.notdef /.notdef /.notdef /.notdef /.notdef /.notdef /.notdef
 /.notdef /.notdef /.notdef /.notdef /.notdef /.notdef /.notdef /.notdef
 /space /exclam /quotedbl /numbersign /dollar /percent /ampersand /quoteright
 /parenleft /parenright /asterisk /plus /comma /minus /period /slash
 /zero /one /two /three /four /five /six /seven
 /eight /nine /colon /semicolon /less /equal /greater /question
 /at /A /B /C /D /E /F /G
 /H /I /J /K /L /M /N /O
 /P /Q /R /S /T /U /V /W
 /X /Y /Z /bracketleft /backslash /bracketright /asciicircum /underscore
 /grave /a /b /c /d /e /f /g
 /h /i /j /k /l /m /n /o
 /p /q /r /s /t /u /v /w
 /x /y /z /braceleft /bar /braceright /asciitilde /.notdef
 /Euro /.notdef /quotesinglbase /florin /quotedblbase /ellipsis /dagger /daggerdbl
 /circumflex /perthousand /Scaron /guilsinglleft /OE /.notdef /Zcaron /.notdef
 /.notdef /quoteleft /quoteright /quotedblleft /quotedblright /bullet /endash /emdash
 /tilde /trademark /scaron /guilsinglright /oe /.notdef /zcaron /Ydieresis
 /space /exclamdown /cent /sterling /currency /yen /brokenbar /section
 /dieresis /copyright /ordfeminine /guillemotleft /logicalnot /hyphen /registered /macron
 /degree /plusminus /twosuperior /threesuperior /acute /mu /paragraph /periodcentered
 /cedilla /onesuperior /ordmasculine /guillemotright /onequarter /onehalf /threequarters /questiondown
 /Agrave /Aacute /Acircumflex /Atilde /Adieresis /Aring /AE /Ccedilla
 /Egrave /Eacute /Ecircumflex /Edieresis /Igrave /Iacute /Icircumflex /Idieresis
 /Eth /Ntilde /Ograve /Oacute /Ocircumflex /Otilde /Odieresis /multiply
 /Oslash /Ugrave /Uacute /Ucircumflex /Udieresis /Yacute /Thorn /germandbls
 /agrave /aacute /acircumflex /atilde /adieresis /aring /ae /ccedilla
 /egrave /eacute /ecircumflex /edieresis /igrave /iacute /icircumflex /idieresis
 /eth /ntilde /ograve /oacute /ocircumflex /otilde /odieresis /divide
 /oslash /ugrave /uacute /ucircumflex /udieresis /yacute /thorn /ydieresis
]
 def
% end encoding
%%IncludeResource: font Helvetica
/Helvetica findfont
dup length dict begin
  {1 index /FID ne {def} {pop pop} ifelse} forall
  /Encoding WinAnsiEncoding def
  currentdict
  end
/Font1 exch definefont pop
%%IncludeResource: font Helvetica-Bold
/Helvetica-Bold findfont
dup length dict begin
  {1 index /FID ne {def} {pop pop} ifelse} forall
  /Encoding WinAnsiEncoding def
  currentdict
  end
/Font2 exch definefont pop
%%IncludeResource: font Helvetica-Oblique
/Helvetica-Oblique findfont
dup length dict begin
  {1 index /FID ne {def} {pop pop} ifelse} forall
  /Encoding WinAnsiEncoding def
  currentdict
  end
/Font3 exch definefont pop
%%IncludeResource: font Helvetica-BoldOblique
/Helvetica-BoldOblique findfont
dup length dict begin
  {1 index /FID ne {def} {pop pop} ifelse} forall
  /Encoding WinAnsiEncoding def
  currentdict
  end
/Font4 exch definefont pop
%%IncludeResource: font Symbol
/Symbol findfont
dup length dict begin
  {1 index /FID ne {def} {pop pop} ifelse} forall
  currentdict
  end
/Font5 exch definefont pop
%%EndProlog
%%Page: 1 1
bp
0.00 0.00 319.50 227.25 cl
0.00 0.00 319.50 227.25 cl
0.00 0.00 319.50 227.25 cl
0.00 0.00 319.50 227.25 cl
0.00 0.00 319.50 227.25 cl
0.00 0.00 319.50 227.25 cl
0.00 0.00 319.50 227.25 cl
0.00 0.00 319.50 227.25 cl
0.00 0.00 319.50 227.25 cl
/bg { 1 1 1 srgb } def
1 1 1 srgb
1.07 setlinewidth
[] 0 setdash
1 setlinecap
1 setlinejoin
10.00 setmiterlimit
0.00 0.00 319.50 227.25 r p3
0.00 0.00 319.50 227.25 cl
57.19 47.87 311.53 219.28 cl
/bg { 1 1 1 srgb } def
57.19 47.87 254.34 171.41 r p2
0.9216 0.9216 0.9216 srgb
0.53 setlinewidth
[] 0 setdash
0 setlinecap
1 setlinejoin
10.00 setmiterlimit
np
57.19 58.98 m
254.34 0 l
o
np
57.19 90.31 m
254.34 0 l
o
np
57.19 121.65 m
254.34 0 l
o
np
57.19 152.99 m
254.34 0 l
o
np
57.19 184.32 m
254.34 0 l
o
np
57.19 215.66 m
254.34 0 l
o
np
89.99 47.87 m
0 171.41 l
o
np
137.17 47.87 m
0 171.41 l
o
np
184.36 47.87 m
0 171.41 l
o
np
231.55 47.87 m
0 171.41 l
o
np
278.73 47.87 m
0 171.41 l
o
1.07 setlinewidth
[] 0 setdash
np
57.19 74.65 m
254.34 0 l
o
np
57.19 105.98 m
254.34 0 l
o
np
57.19 137.32 m
254.34 0 l
o
np
57.19 168.66 m
254.34 0 l
o
np
57.19 199.99 m
254.34 0 l
o
np
66.39 47.87 m
0 171.41 l
o
np
113.58 47.87 m
0 171.41 l
o
np
160.77 47.87 m
0 171.41 l
o
np
207.95 47.87 m
0 171.41 l
o
np
255.14 47.87 m
0 171.41 l
o
np
302.33 47.87 m
0 171.41 l
o
0.6784 0.8471 0.9020 srgb
0.85 setlinewidth
[] 0 setdash
np
57.19 86.80 m
254.34 0 l
o
np
184.36 47.87 m
0 171.41 l
o
1 0.3882 0.2784 srgb
1.07 setlinewidth
[] 0 setdash
1.00 setmiterlimit
np
68.75 55.66 m
2.36 1.67 l
2.36 1.22 l
2.36 1.02 l
2.36 0.89 l
2.36 0.81 l
2.36 0.74 l
2.36 0.70 l
2.36 0.67 l
2.36 0.65 l
2.35 0.62 l
2.36 0.60 l
2.36 0.59 l
2.36 0.57 l
2.36 0.57 l
2.36 0.56 l
2.36 0.55 l
2.36 0.55 l
2.36 0.54 l
2.36 0.54 l
2.36 0.52 l
2.36 0.55 l
2.36 0.51 l
2.36 0.53 l
2.36 0.54 l
2.36 0.53 l
2.35 0.53 l
2.36 0.53 l
2.36 0.54 l
2.36 0.52 l
2.36 0.55 l
2.36 0.54 l
2.36 0.54 l
2.36 0.55 l
2.36 0.56 l
2.36 0.55 l
2.36 0.57 l
2.36 0.57 l
2.36 0.55 l
2.36 0.60 l
2.36 0.58 l
2.36 0.59 l
2.35 0.60 l
2.36 0.60 l
2.36 0.62 l
2.36 0.61 l
2.36 0.64 l
2.36 0.65 l
2.36 0.65 l
2.36 0.66 l
2.36 0.67 l
2.36 0.69 l
2.36 0.69 l
2.36 0.71 l
2.36 0.73 l
2.36 0.74 l
2.36 0.75 l
2.35 0.77 l
2.36 0.79 l
2.36 0.81 l
2.36 0.82 l
2.36 0.85 l
2.36 0.86 l
2.36 0.89 l
2.36 0.91 l
2.36 0.93 l
2.36 0.96 l
2.36 0.99 l
2.36 1.02 l
2.36 1.05 l
2.36 1.09 l
2.36 1.13 l
2.36 1.16 l
2.35 1.20 l
2.36 1.26 l
2.36 1.30 l
2.36 1.35 l
2.36 1.42 l
2.36 1.50 l
2.36 1.54 l
2.36 1.64 l
2.36 1.72 l
2.36 1.82 l
2.36 1.93 l
2.36 2.05 l
2.36 2.20 l
2.36 2.34 l
2.36 2.55 l
2.36 2.76 l
2.35 3.03 l
2.36 3.34 l
2.36 3.74 l
2.36 4.24 l
2.36 4.89 l
2.36 5.79 l
2.36 7.09 l
2.36 9.13 l
2.36 12.86 l
2.36 21.99 l
o
/Font5 findfont 16 s
0 0 0 srgb
77.68 96.29 ( ) 0 0 t
81.68 96.29 (w) 0 0 t
/Font1 findfont 11 s
92.66 93.36 (0.5) 0 0 t
/Font5 findfont 16 s
111.65 96.29 (=) 0 0 t
/Font1 findfont 16 s
124.14 96.29 (0.1388) 0 0 t
0.2000 0.2000 0.2000 srgb
1 setlinecap
10.00 setmiterlimit
57.19 47.87 254.34 171.41 r p1
0.00 0.00 319.50 227.25 cl
0.00 0.00 319.50 227.25 cl
0.00 0.00 319.50 227.25 cl
0.00 0.00 319.50 227.25 cl
0.00 0.00 319.50 227.25 cl
0.00 0.00 319.50 227.25 cl
0.00 0.00 319.50 227.25 cl
0.00 0.00 319.50 227.25 cl
0.00 0.00 319.50 227.25 cl
0.00 0.00 319.50 227.25 cl
0.00 0.00 319.50 227.25 cl
0.00 0.00 319.50 227.25 cl
0.00 0.00 319.50 227.25 cl
0.00 0.00 319.50 227.25 cl
0.00 0.00 319.50 227.25 cl
0.00 0.00 319.50 227.25 cl
/Font1 findfont 13 s
0.3020 0.3020 0.3020 srgb
50.02 69.98 (0.1) 1 0 t
50.02 101.32 (0.2) 1 0 t
50.02 132.65 (0.3) 1 0 t
50.02 163.99 (0.4) 1 0 t
50.02 195.33 (0.5) 1 0 t
0.00 0.00 319.50 227.25 cl
0.00 0.00 319.50 227.25 cl
0.2000 0.2000 0.2000 srgb
1.07 setlinewidth
[] 0 setdash
0 setlinecap
1 setlinejoin
10.00 setmiterlimit
np
53.21 74.65 m
3.98 0 l
o
np
53.21 105.98 m
3.98 0 l
o
np
53.21 137.32 m
3.98 0 l
o
np
53.21 168.66 m
3.98 0 l
o
np
53.21 199.99 m
3.98 0 l
o
0.00 0.00 319.50 227.25 cl
0.00 0.00 319.50 227.25 cl
0.00 0.00 319.50 227.25 cl
0.00 0.00 319.50 227.25 cl
0.00 0.00 319.50 227.25 cl
0.00 0.00 319.50 227.25 cl
0.00 0.00 319.50 227.25 cl
0.00 0.00 319.50 227.25 cl
0.00 0.00 319.50 227.25 cl
0.00 0.00 319.50 227.25 cl
0.2000 0.2000 0.2000 srgb
1.07 setlinewidth
[] 0 setdash
0 setlinecap
1 setlinejoin
10.00 setmiterlimit
np
66.39 43.89 m
0 3.98 l
o
np
113.58 43.89 m
0 3.98 l
o
np
160.77 43.89 m
0 3.98 l
o
np
207.95 43.89 m
0 3.98 l
o
np
255.14 43.89 m
0 3.98 l
o
np
302.33 43.89 m
0 3.98 l
o
0.00 0.00 319.50 227.25 cl
0.00 0.00 319.50 227.25 cl
/Font1 findfont 13 s
0.3020 0.3020 0.3020 srgb
66.39 31.36 (0.0) .5 0 t
113.58 31.36 (0.2) .5 0 t
160.77 31.36 (0.4) .5 0 t
207.95 31.36 (0.6) .5 0 t
255.14 31.36 (0.8) .5 0 t
302.33 31.36 (1.0) .5 0 t
0.00 0.00 319.50 227.25 cl
0.00 0.00 319.50 227.25 cl
0.00 0.00 319.50 227.25 cl
0.00 0.00 319.50 227.25 cl
0.00 0.00 319.50 227.25 cl
0.00 0.00 319.50 227.25 cl
/Font5 findfont 16 s
0 0 0 srgb
177.97 11.54 ( ) 0 0 t
181.97 11.54 (b) 0 0 t
0.00 0.00 319.50 227.25 cl
0.00 0.00 319.50 227.25 cl
/Font5 findfont 16 s
0 0 0 srgb
15.97 123.07 ( ) 0 90 t
15.97 127.07 (w) 0 90 t
/Font5 findfont 11 s
18.90 138.04 (b) 0 90 t
0.00 0.00 319.50 227.25 cl
0.00 0.00 319.50 227.25 cl
0.00 0.00 319.50 227.25 cl
0.00 0.00 319.50 227.25 cl
0.00 0.00 319.50 227.25 cl
0.00 0.00 319.50 227.25 cl
0.00 0.00 319.50 227.25 cl
0.00 0.00 319.50 227.25 cl
0.00 0.00 319.50 227.25 cl
0.00 0.00 319.50 227.25 cl
ep
%%Trailer
%%Pages: 1
%%EOF
