%!PS-Adobe-3.0 EPSF-3.0
%%DocumentNeededResources: font Helvetica
%%+ font Helvetica-Bold
%%+ font Helvetica-Oblique
%%+ font Helvetica-BoldOblique
%%+ font Symbol
%%Title: R Graphics Output
%%Creator: R Software
%%Pages: (atend)
%%BoundingBox: 0 0 370 257
%%EndComments
%%BeginProlog
/bp  { gs sRGB gs } def
% begin .ps.prolog
/gs  { gsave } bind def
/gr  { grestore } bind def
/ep  { showpage gr gr } bind def
/m   { moveto } bind def
/l  { rlineto } bind def
/np  { newpath } bind def
/cp  { closepath } bind def
/f   { fill } bind def
/o   { stroke } bind def
/c   { newpath 0 360 arc } bind def
/r   { 4 2 roll moveto 1 copy 3 -1 roll exch 0 exch rlineto 0 rlineto -1 mul 0 exch rlineto closepath } bind def
/p1  { stroke } bind def
/p2  { gsave bg fill grestore newpath } bind def
/p3  { gsave bg fill grestore stroke } bind def
/p6  { gsave bg eofill grestore newpath } bind def
/p7  { gsave bg eofill grestore stroke } bind def
/t   { 5 -2 roll moveto gsave rotate
       1 index stringwidth pop
       mul neg 0 rmoveto show grestore } bind def
/ta  { 4 -2 roll moveto gsave rotate show } bind def
/tb  { 2 -1 roll 0 rmoveto show } bind def
/cl  { grestore gsave newpath 3 index 3 index moveto 1 index
       4 -1 roll lineto  exch 1 index lineto lineto
       closepath clip newpath } bind def
/rgb { setrgbcolor } bind def
/s   { scalefont setfont } bind def
% end   .ps.prolog
/sRGB { [ /CIEBasedABC
          << /DecodeLMN
               [ { dup 0.03928 le
                        {12.92321 div}
                        {0.055 add 1.055 div 2.4 exp }
                     ifelse
                 } bind dup dup
               ]
             /MatrixLMN [0.412457 0.212673 0.019334
                         0.357576 0.715152 0.119192
                         0.180437 0.072175 0.950301]
             /WhitePoint [0.9505 1.0 1.0890]
           >>
         ] setcolorspace } bind def
/srgb { setcolor } bind def
% begin encoding
/WinAnsiEncoding [
 /.notdef /.notdef /.notdef /.notdef /.notdef /.notdef /.notdef /.notdef
 /.notdef /.notdef /.notdef /.notdef /.notdef /.notdef /.notdef /.notdef
 /.notdef /.notdef /.notdef /.notdef /.notdef /.notdef /.notdef /.notdef
 /.notdef /.notdef /.notdef /.notdef /.notdef /.notdef /.notdef /.notdef
 /space /exclam /quotedbl /numbersign /dollar /percent /ampersand /quoteright
 /parenleft /parenright /asterisk /plus /comma /minus /period /slash
 /zero /one /two /three /four /five /six /seven
 /eight /nine /colon /semicolon /less /equal /greater /question
 /at /A /B /C /D /E /F /G
 /H /I /J /K /L /M /N /O
 /P /Q /R /S /T /U /V /W
 /X /Y /Z /bracketleft /backslash /bracketright /asciicircum /underscore
 /grave /a /b /c /d /e /f /g
 /h /i /j /k /l /m /n /o
 /p /q /r /s /t /u /v /w
 /x /y /z /braceleft /bar /braceright /asciitilde /.notdef
 /Euro /.notdef /quotesinglbase /florin /quotedblbase /ellipsis /dagger /daggerdbl
 /circumflex /perthousand /Scaron /guilsinglleft /OE /.notdef /Zcaron /.notdef
 /.notdef /quoteleft /quoteright /quotedblleft /quotedblright /bullet /endash /emdash
 /tilde /trademark /scaron /guilsinglright /oe /.notdef /zcaron /Ydieresis
 /space /exclamdown /cent /sterling /currency /yen /brokenbar /section
 /dieresis /copyright /ordfeminine /guillemotleft /logicalnot /hyphen /registered /macron
 /degree /plusminus /twosuperior /threesuperior /acute /mu /paragraph /periodcentered
 /cedilla /onesuperior /ordmasculine /guillemotright /onequarter /onehalf /threequarters /questiondown
 /Agrave /Aacute /Acircumflex /Atilde /Adieresis /Aring /AE /Ccedilla
 /Egrave /Eacute /Ecircumflex /Edieresis /Igrave /Iacute /Icircumflex /Idieresis
 /Eth /Ntilde /Ograve /Oacute /Ocircumflex /Otilde /Odieresis /multiply
 /Oslash /Ugrave /Uacute /Ucircumflex /Udieresis /Yacute /Thorn /germandbls
 /agrave /aacute /acircumflex /atilde /adieresis /aring /ae /ccedilla
 /egrave /eacute /ecircumflex /edieresis /igrave /iacute /icircumflex /idieresis
 /eth /ntilde /ograve /oacute /ocircumflex /otilde /odieresis /divide
 /oslash /ugrave /uacute /ucircumflex /udieresis /yacute /thorn /ydieresis
]
 def
% end encoding
%%IncludeResource: font Helvetica
/Helvetica findfont
dup length dict begin
  {1 index /FID ne {def} {pop pop} ifelse} forall
  /Encoding WinAnsiEncoding def
  currentdict
  end
/Font1 exch definefont pop
%%IncludeResource: font Helvetica-Bold
/Helvetica-Bold findfont
dup length dict begin
  {1 index /FID ne {def} {pop pop} ifelse} forall
  /Encoding WinAnsiEncoding def
  currentdict
  end
/Font2 exch definefont pop
%%IncludeResource: font Helvetica-Oblique
/Helvetica-Oblique findfont
dup length dict begin
  {1 index /FID ne {def} {pop pop} ifelse} forall
  /Encoding WinAnsiEncoding def
  currentdict
  end
/Font3 exch definefont pop
%%IncludeResource: font Helvetica-BoldOblique
/Helvetica-BoldOblique findfont
dup length dict begin
  {1 index /FID ne {def} {pop pop} ifelse} forall
  /Encoding WinAnsiEncoding def
  currentdict
  end
/Font4 exch definefont pop
%%IncludeResource: font Symbol
/Symbol findfont
dup length dict begin
  {1 index /FID ne {def} {pop pop} ifelse} forall
  currentdict
  end
/Font5 exch definefont pop
%%EndProlog
%%Page: 1 1
bp
0.00 0.00 370.50 257.25 cl
0.00 0.00 370.50 257.25 cl
0.00 0.00 370.50 257.25 cl
0.00 0.00 370.50 257.25 cl
0.00 0.00 370.50 257.25 cl
0.00 0.00 370.50 257.25 cl
0.00 0.00 370.50 257.25 cl
0.00 0.00 370.50 257.25 cl
0.00 0.00 370.50 257.25 cl
/bg { 1 1 1 srgb } def
1 1 1 srgb
1.07 setlinewidth
[] 0 setdash
1 setlinecap
1 setlinejoin
10.00 setmiterlimit
0.00 0.00 370.50 257.25 r p3
0.00 0.00 370.50 257.25 cl
48.50 36.43 290.59 251.77 cl
/bg { 1 1 1 srgb } def
48.50 36.43 242.09 215.34 r p2
0.9216 0.9216 0.9216 srgb
0.53 setlinewidth
[] 0 setdash
0 setlinecap
1 setlinejoin
10.00 setmiterlimit
np
48.50 70.69 m
242.09 0 l
o
np
48.50 119.64 m
242.09 0 l
o
np
48.50 168.58 m
242.09 0 l
o
np
48.50 217.53 m
242.09 0 l
o
np
74.57 36.43 m
0 215.34 l
o
np
105.15 36.43 m
0 215.34 l
o
np
135.73 36.43 m
0 215.34 l
o
np
166.31 36.43 m
0 215.34 l
o
np
196.89 36.43 m
0 215.34 l
o
np
227.46 36.43 m
0 215.34 l
o
np
258.04 36.43 m
0 215.34 l
o
np
288.62 36.43 m
0 215.34 l
o
1.07 setlinewidth
[] 0 setdash
np
48.50 46.22 m
242.09 0 l
o
np
48.50 95.16 m
242.09 0 l
o
np
48.50 144.11 m
242.09 0 l
o
np
48.50 193.05 m
242.09 0 l
o
np
48.50 242.00 m
242.09 0 l
o
np
59.28 36.43 m
0 215.34 l
o
np
89.86 36.43 m
0 215.34 l
o
np
120.44 36.43 m
0 215.34 l
o
np
151.02 36.43 m
0 215.34 l
o
np
181.60 36.43 m
0 215.34 l
o
np
212.18 36.43 m
0 215.34 l
o
np
242.75 36.43 m
0 215.34 l
o
np
273.33 36.43 m
0 215.34 l
o
0.9725 0.4627 0.4275 srgb
1.00 setmiterlimit
np
59.50 46.22 m
0.28 0 l
0.28 0 l
0.27 0 l
0.28 0 l
0.27 0 l
0.28 0 l
0.27 0 l
0.28 0 l
0.27 0 l
0.28 0 l
0.27 0 l
0.28 0 l
0.28 0 l
0.27 0 l
0.28 0 l
0.27 0.01 l
0.28 0.01 l
0.27 0.01 l
0.28 0.03 l
0.27 0.03 l
0.28 0.05 l
0.27 0.06 l
0.28 0.09 l
0.28 0.10 l
0.27 0.14 l
0.28 0.16 l
0.27 0.20 l
0.28 0.23 l
0.27 0.27 l
0.28 0.31 l
0.27 0.36 l
0.28 0.39 l
0.27 0.45 l
0.28 0.48 l
0.28 0.54 l
0.27 0.58 l
0.28 0.62 l
0.27 0.68 l
0.28 0.71 l
0.27 0.77 l
0.28 0.80 l
0.27 0.85 l
0.28 0.89 l
0.27 0.94 l
0.28 0.97 l
0.28 1.01 l
0.27 1.04 l
0.28 1.08 l
0.27 1.11 l
0.28 1.14 l
0.27 1.18 l
0.28 1.20 l
0.27 1.22 l
0.28 1.25 l
0.27 1.28 l
0.28 1.29 l
0.28 1.31 l
0.27 1.34 l
0.28 1.34 l
0.27 1.37 l
0.28 1.38 l
0.27 1.39 l
0.28 1.40 l
0.27 1.41 l
0.28 1.42 l
0.27 1.42 l
0.28 1.44 l
0.28 1.43 l
0.27 1.45 l
0.28 1.44 l
0.27 1.45 l
0.28 1.45 l
0.27 1.45 l
0.28 1.45 l
0.27 1.45 l
0.28 1.44 l
0.27 1.45 l
0.28 1.44 l
0.28 1.43 l
0.27 1.44 l
0.28 1.42 l
0.27 1.43 l
0.28 1.41 l
0.27 1.41 l
0.28 1.41 l
0.27 1.39 l
0.28 1.39 l
0.27 1.38 l
0.28 1.37 l
0.28 1.37 l
0.27 1.35 l
0.28 1.35 l
0.27 1.33 l
0.28 1.33 l
0.27 1.31 l
0.28 1.31 l
0.27 1.30 l
0.28 1.28 l
0.27 1.28 l
87.05 131.83 lineto
0.28 1.25 l
0.27 1.24 l
0.28 1.24 l
0.27 1.22 l
0.28 1.21 l
0.27 1.20 l
0.28 1.19 l
0.27 1.18 l
0.28 1.16 l
0.27 1.16 l
0.28 1.14 l
0.27 1.14 l
0.28 1.12 l
0.28 1.11 l
0.27 1.10 l
0.28 1.09 l
0.27 1.08 l
0.28 1.06 l
0.27 1.06 l
0.28 1.04 l
0.27 1.03 l
0.28 1.03 l
0.27 1.01 l
0.28 1.00 l
0.28 0.99 l
0.27 0.98 l
0.28 0.96 l
0.27 0.96 l
0.28 0.95 l
0.27 0.94 l
0.28 0.92 l
0.27 0.92 l
0.28 0.90 l
0.27 0.90 l
0.28 0.89 l
0.28 0.87 l
0.27 0.87 l
0.28 0.85 l
0.27 0.85 l
0.28 0.84 l
0.27 0.82 l
0.28 0.82 l
0.27 0.81 l
0.28 0.80 l
0.27 0.79 l
0.28 0.78 l
0.28 0.77 l
0.27 0.76 l
0.28 0.75 l
0.27 0.75 l
0.28 0.73 l
0.27 0.73 l
0.28 0.72 l
0.27 0.71 l
0.28 0.70 l
0.27 0.70 l
0.28 0.68 l
0.28 0.68 l
0.27 0.67 l
0.28 0.66 l
0.27 0.65 l
0.28 0.65 l
0.27 0.64 l
0.28 0.63 l
0.27 0.62 l
0.28 0.62 l
0.27 0.60 l
0.28 0.60 l
0.28 0.60 l
0.27 0.59 l
0.28 0.57 l
0.27 0.58 l
0.28 0.56 l
0.27 0.56 l
0.28 0.55 l
0.27 0.55 l
0.28 0.54 l
0.27 0.53 l
0.28 0.53 l
0.28 0.52 l
0.27 0.51 l
0.28 0.51 l
0.27 0.50 l
0.28 0.49 l
0.27 0.49 l
0.28 0.48 l
0.27 0.48 l
0.28 0.47 l
0.27 0.47 l
0.28 0.46 l
0.28 0.45 l
0.27 0.45 l
0.28 0.44 l
0.27 0.44 l
0.28 0.44 l
0.27 0.42 l
0.28 0.43 l
0.27 0.41 l
0.28 0.41 l
114.59 209.16 lineto
0.28 0.40 l
0.28 0.40 l
0.27 0.39 l
0.28 0.39 l
0.27 0.38 l
0.28 0.38 l
0.27 0.38 l
0.28 0.36 l
0.27 0.37 l
0.28 0.36 l
0.27 0.35 l
0.28 0.36 l
0.28 0.34 l
0.27 0.35 l
0.28 0.33 l
0.27 0.34 l
0.28 0.33 l
0.27 0.33 l
0.28 0.32 l
0.27 0.32 l
0.28 0.31 l
0.27 0.31 l
0.28 0.31 l
0.28 0.30 l
0.27 0.30 l
0.28 0.30 l
0.27 0.29 l
0.28 0.29 l
0.27 0.28 l
0.28 0.28 l
0.27 0.28 l
0.28 0.28 l
0.27 0.27 l
0.28 0.27 l
0.28 0.26 l
0.27 0.26 l
0.28 0.26 l
0.27 0.26 l
0.28 0.25 l
0.27 0.25 l
0.28 0.24 l
0.27 0.25 l
0.28 0.24 l
0.27 0.23 l
0.28 0.24 l
0.28 0.23 l
0.27 0.23 l
0.28 0.22 l
0.27 0.22 l
0.28 0.22 l
0.27 0.22 l
0.28 0.22 l
0.27 0.21 l
0.28 0.21 l
0.27 0.20 l
0.28 0.21 l
0.28 0.20 l
0.27 0.20 l
0.28 0.20 l
0.27 0.19 l
0.28 0.19 l
0.27 0.19 l
0.28 0.19 l
0.27 0.19 l
0.28 0.18 l
0.27 0.18 l
0.28 0.18 l
0.28 0.17 l
0.27 0.18 l
0.28 0.17 l
0.27 0.17 l
0.28 0.17 l
0.27 0.16 l
0.28 0.17 l
0.27 0.16 l
0.28 0.16 l
0.27 0.16 l
0.28 0.15 l
0.28 0.16 l
0.27 0.15 l
0.28 0.15 l
0.27 0.15 l
0.28 0.14 l
0.27 0.15 l
0.28 0.14 l
0.27 0.14 l
0.28 0.14 l
0.27 0.14 l
0.28 0.14 l
0.28 0.13 l
0.27 0.13 l
0.28 0.13 l
0.27 0.13 l
0.28 0.13 l
0.27 0.13 l
0.28 0.12 l
0.27 0.13 l
0.28 0.12 l
0.27 0.12 l
142.14 232.44 lineto
0.27 0.11 l
0.28 0.12 l
0.28 0.11 l
0.27 0.12 l
0.28 0.11 l
0.27 0.11 l
0.28 0.11 l
0.27 0.11 l
0.28 0.10 l
0.27 0.11 l
0.28 0.10 l
0.27 0.10 l
0.28 0.10 l
0.28 0.10 l
0.27 0.10 l
0.28 0.10 l
0.27 0.10 l
0.28 0.09 l
0.27 0.10 l
0.28 0.09 l
0.27 0.09 l
0.28 0.09 l
0.27 0.09 l
0.28 0.09 l
0.28 0.09 l
0.27 0.08 l
0.28 0.09 l
0.27 0.08 l
0.28 0.08 l
0.27 0.09 l
0.28 0.08 l
0.27 0.08 l
0.28 0.08 l
0.27 0.07 l
0.28 0.08 l
0.28 0.08 l
0.27 0.07 l
0.28 0.08 l
0.27 0.07 l
0.28 0.07 l
0.27 0.07 l
0.28 0.08 l
0.27 0.07 l
0.28 0.06 l
0.27 0.07 l
0.28 0.07 l
0.28 0.07 l
0.27 0.06 l
0.28 0.07 l
0.27 0.06 l
0.28 0.06 l
0.27 0.07 l
0.28 0.06 l
0.27 0.06 l
0.28 0.06 l
0.27 0.06 l
0.28 0.06 l
0.28 0.06 l
0.27 0.05 l
0.28 0.06 l
0.27 0.06 l
0.28 0.05 l
0.27 0.06 l
0.28 0.05 l
0.27 0.05 l
0.28 0.06 l
0.27 0.05 l
0.28 0.05 l
0.28 0.05 l
0.27 0.05 l
0.28 0.05 l
0.27 0.05 l
0.28 0.05 l
0.27 0.04 l
0.28 0.05 l
0.27 0.05 l
0.28 0.04 l
0.27 0.05 l
0.28 0.04 l
0.28 0.05 l
0.27 0.04 l
0.28 0.05 l
0.27 0.04 l
0.28 0.04 l
0.27 0.04 l
0.28 0.04 l
0.27 0.04 l
0.28 0.04 l
0.27 0.04 l
0.28 0.04 l
0.28 0.04 l
0.27 0.04 l
0.28 0.04 l
0.27 0.03 l
0.28 0.04 l
0.27 0.04 l
0.28 0.03 l
0.27 0.04 l
0.28 0.03 l
169.68 239.22 lineto
0.28 0.03 l
0.28 0.04 l
0.27 0.03 l
0.28 0.03 l
0.27 0.03 l
0.28 0.04 l
0.27 0.03 l
0.28 0.03 l
0.27 0.03 l
0.28 0.03 l
0.27 0.03 l
0.28 0.03 l
0.28 0.03 l
0.27 0.03 l
0.28 0.03 l
0.27 0.03 l
0.28 0.02 l
0.27 0.03 l
0.28 0.03 l
0.27 0.03 l
0.28 0.02 l
0.27 0.03 l
0.28 0.03 l
0.28 0.02 l
0.27 0.03 l
0.28 0.02 l
0.27 0.03 l
0.28 0.02 l
0.27 0.03 l
0.28 0.02 l
0.27 0.02 l
0.28 0.03 l
0.27 0.02 l
0.28 0.02 l
0.28 0.02 l
0.27 0.03 l
0.28 0.02 l
0.27 0.02 l
0.28 0.02 l
0.27 0.02 l
0.28 0.02 l
0.27 0.02 l
0.28 0.02 l
0.27 0.02 l
0.28 0.02 l
0.28 0.02 l
0.27 0.02 l
0.28 0.02 l
0.27 0.02 l
0.28 0.02 l
0.27 0.02 l
0.28 0.02 l
0.27 0.01 l
0.28 0.02 l
0.27 0.02 l
0.28 0.02 l
0.28 0.01 l
0.27 0.02 l
0.28 0.02 l
0.27 0.01 l
0.28 0.02 l
0.27 0.02 l
0.28 0.01 l
0.27 0.02 l
0.28 0.01 l
0.27 0.02 l
0.28 0.01 l
0.28 0.02 l
0.27 0.01 l
0.28 0.02 l
0.27 0.01 l
0.28 0.02 l
0.27 0.01 l
0.28 0.02 l
0.27 0.01 l
0.28 0.01 l
0.27 0.02 l
0.28 0.01 l
0.28 0.01 l
0.27 0.02 l
0.28 0.01 l
0.27 0.01 l
0.28 0.01 l
0.27 0.02 l
0.28 0.01 l
0.27 0.01 l
0.28 0.01 l
0.27 0.01 l
0.28 0.01 l
0.27 0.02 l
0.28 0.01 l
0.28 0.01 l
0.27 0.01 l
0.28 0.01 l
0.27 0.01 l
0.28 0.01 l
0.27 0.01 l
0.28 0.01 l
0.27 0.01 l
197.23 241.19 lineto
0.27 0.01 l
0.28 0.01 l
0.28 0.01 l
0.27 0.01 l
0.28 0.01 l
0.27 0.01 l
0.28 0.01 l
0.27 0.01 l
0.28 0.01 l
0.27 0.01 l
0.28 0 l
0.27 0.01 l
0.28 0.01 l
0.28 0.01 l
0.27 0.01 l
0.28 0.01 l
0.27 0.01 l
0.28 0 l
0.27 0.01 l
0.28 0.01 l
0.27 0.01 l
0.28 0 l
0.27 0.01 l
0.28 0.01 l
0.28 0.01 l
0.27 0 l
0.28 0.01 l
0.27 0.01 l
0.28 0.01 l
0.27 0 l
0.28 0.01 l
0.27 0.01 l
0.28 0 l
0.27 0.01 l
0.28 0.01 l
0.28 0 l
0.27 0.01 l
0.28 0.01 l
0.27 0 l
0.28 0.01 l
0.27 0 l
0.28 0.01 l
0.27 0.01 l
0.28 0 l
0.27 0.01 l
0.28 0 l
0.28 0.01 l
0.27 0 l
0.28 0.01 l
0.27 0.01 l
0.28 0 l
0.27 0.01 l
0.28 0 l
0.27 0.01 l
0.28 0 l
0.27 0.01 l
0.28 0 l
0.28 0.01 l
0.27 0 l
0.28 0.01 l
0.27 0 l
0.28 0.01 l
0.27 0 l
0.28 0 l
0.27 0.01 l
0.28 0 l
0.27 0.01 l
0.28 0 l
0.28 0.01 l
0.27 0 l
0.28 0.01 l
0.27 0 l
0.28 0 l
0.27 0.01 l
0.28 0 l
0.27 0.01 l
0.28 0 l
0.27 0 l
0.28 0.01 l
0.28 0 l
0.27 0 l
0.28 0.01 l
0.27 0 l
0.28 0.01 l
0.27 0 l
0.28 0 l
0.27 0.01 l
0.28 0 l
0.27 0 l
0.28 0.01 l
0.28 0 l
0.27 0 l
0.28 0.01 l
0.27 0 l
0.28 0 l
0.27 0 l
0.28 0.01 l
0.27 0 l
0.28 0 l
224.77 241.77 lineto
0.28 0 l
0.28 0 l
0.27 0.01 l
0.28 0 l
0.27 0 l
0.28 0 l
0.27 0.01 l
0.28 0 l
0.27 0 l
0.28 0 l
0.27 0.01 l
0.28 0 l
0.28 0 l
0.27 0 l
0.28 0.01 l
0.27 0 l
0.28 0 l
0.27 0 l
0.28 0.01 l
0.27 0 l
0.28 0 l
0.27 0 l
0.28 0.01 l
0.28 0 l
0.27 0 l
0.28 0 l
0.27 0 l
0.28 0.01 l
0.27 0 l
0.28 0 l
0.27 0 l
0.28 0 l
0.27 0.01 l
0.28 0 l
0.28 0 l
0.27 0 l
0.28 0 l
0.27 0.01 l
0.28 0 l
0.27 0 l
0.28 0 l
0.27 0 l
0.28 0 l
0.27 0.01 l
0.28 0 l
0.28 0 l
0.27 0 l
0.28 0 l
0.27 0 l
0.28 0.01 l
0.27 0 l
0.28 0 l
0.27 0 l
0.28 0 l
0.27 0 l
0.28 0 l
0.28 0.01 l
0.27 0 l
0.28 0 l
0.27 0 l
0.28 0 l
0.27 0 l
0.28 0 l
0.27 0.01 l
0.28 0 l
0.27 0 l
0.28 0 l
0.28 0 l
0.27 0 l
0.28 0 l
0.27 0 l
0.28 0.01 l
0.27 0 l
0.28 0 l
0.27 0 l
0.28 0 l
0.27 0 l
0.28 0 l
0.27 0 l
0.28 0 l
0.28 0.01 l
0.27 0 l
0.28 0 l
0.27 0 l
0.28 0 l
0.27 0 l
0.28 0 l
0.27 0 l
0.28 0 l
0.27 0.01 l
0.28 0 l
0.28 0 l
0.27 0 l
0.28 0 l
0.27 0 l
0.28 0 l
0.27 0 l
0.28 0 l
0.27 0 l
252.32 241.93 lineto
0.27 0 l
0.28 0.01 l
0.28 0 l
0.27 0 l
0.28 0 l
0.27 0 l
0.28 0 l
0.27 0 l
0.28 0 l
0.27 0 l
0.28 0 l
0.27 0 l
0.28 0 l
0.28 0 l
0.27 0.01 l
0.28 0 l
0.27 0 l
0.28 0 l
0.27 0 l
0.28 0 l
0.27 0 l
0.28 0 l
0.27 0 l
0.28 0 l
0.28 0 l
0.27 0 l
0.28 0 l
0.27 0 l
0.28 0 l
0.27 0.01 l
0.28 0 l
0.27 0 l
0.28 0 l
0.27 0 l
0.28 0 l
0.28 0 l
0.27 0 l
0.28 0 l
0.27 0 l
0.28 0 l
0.27 0 l
0.28 0 l
0.27 0 l
0.28 0 l
0.27 0 l
0.28 0 l
0.28 0 l
0.27 0 l
0.28 0.01 l
0.27 0 l
0.28 0 l
0.27 0 l
0.28 0 l
0.27 0 l
0.28 0 l
0.27 0 l
0.28 0 l
0.28 0 l
0.27 0 l
0.28 0 l
0.27 0 l
0.28 0 l
0.27 0 l
0.28 0 l
0.27 0 l
0.28 0 l
0.27 0 l
0.28 0 l
0.28 0 l
0.27 0 l
0.28 0 l
0.27 0 l
0.28 0 l
0.27 0.01 l
0.28 0 l
0.27 0 l
0.28 0 l
0.27 0 l
0.28 0 l
0.28 0 l
0.27 0 l
0.28 0 l
0.27 0 l
0.28 0 l
0.27 0 l
0.28 0 l
0.27 0 l
0.28 0 l
0.27 0 l
0.28 0 l
0.28 0 l
0.27 0 l
0.28 0 l
0.27 0 l
0.28 0 l
0.27 0 l
0.28 0 l
0.27 0 l
0.28 0 l
o
0 0.7490 0.7686 srgb
np
59.50 46.22 m
0.28 0 l
0.28 0 l
0.27 0 l
0.28 0 l
0.27 0 l
0.28 0 l
0.27 0 l
0.28 0 l
0.27 0 l
0.28 0 l
0.27 0 l
0.28 0 l
0.28 0.01 l
0.27 0.02 l
0.28 0.03 l
0.27 0.06 l
0.28 0.10 l
0.27 0.14 l
0.28 0.21 l
0.27 0.29 l
0.28 0.38 l
0.27 0.49 l
0.28 0.61 l
0.28 0.73 l
0.27 0.87 l
0.28 1.01 l
0.27 1.15 l
0.28 1.30 l
0.27 1.44 l
0.28 1.58 l
0.27 1.72 l
0.28 1.85 l
0.27 1.96 l
0.28 2.09 l
0.28 2.18 l
0.27 2.29 l
0.28 2.36 l
0.27 2.45 l
0.28 2.51 l
0.27 2.56 l
0.28 2.61 l
0.27 2.65 l
0.28 2.68 l
0.27 2.70 l
0.28 2.70 l
0.28 2.71 l
0.27 2.71 l
0.28 2.70 l
0.27 2.68 l
0.28 2.65 l
0.27 2.63 l
0.28 2.60 l
0.27 2.56 l
0.28 2.52 l
0.27 2.48 l
0.28 2.43 l
0.28 2.38 l
0.27 2.33 l
0.28 2.27 l
0.27 2.22 l
0.28 2.16 l
0.27 2.10 l
0.28 2.04 l
0.27 1.98 l
0.28 1.92 l
0.27 1.86 l
0.28 1.80 l
0.28 1.74 l
0.27 1.67 l
0.28 1.62 l
0.27 1.55 l
0.28 1.49 l
0.27 1.43 l
0.28 1.38 l
0.27 1.31 l
0.28 1.26 l
0.27 1.20 l
0.28 1.15 l
0.28 1.09 l
0.27 1.04 l
0.28 0.98 l
0.27 0.93 l
0.28 0.89 l
0.27 0.83 l
0.28 0.78 l
0.27 0.74 l
0.28 0.69 l
0.27 0.64 l
0.28 0.60 l
0.28 0.56 l
0.27 0.51 l
0.28 0.48 l
0.27 0.43 l
0.28 0.40 l
0.27 0.35 l
0.28 0.33 l
0.27 0.28 l
0.28 0.25 l
0.27 0.22 l
87.05 172.69 lineto
0.28 0.15 l
0.27 0.12 l
0.28 0.09 l
0.27 0.07 l
0.28 0.03 l
0.27 0.01 l
0.28 -0.02 l
0.27 -0.04 l
0.28 -0.07 l
0.27 -0.09 l
0.28 -0.11 l
0.27 -0.14 l
0.28 -0.16 l
0.28 -0.18 l
0.27 -0.20 l
0.28 -0.21 l
0.27 -0.24 l
0.28 -0.26 l
0.27 -0.27 l
0.28 -0.29 l
0.27 -0.31 l
0.28 -0.32 l
0.27 -0.33 l
0.28 -0.35 l
0.28 -0.37 l
0.27 -0.38 l
0.28 -0.39 l
0.27 -0.40 l
0.28 -0.42 l
0.27 -0.43 l
0.28 -0.43 l
0.27 -0.45 l
0.28 -0.46 l
0.27 -0.47 l
0.28 -0.48 l
0.28 -0.48 l
0.27 -0.50 l
0.28 -0.50 l
0.27 -0.51 l
0.28 -0.52 l
0.27 -0.53 l
0.28 -0.53 l
0.27 -0.54 l
0.28 -0.54 l
0.27 -0.55 l
0.28 -0.56 l
0.28 -0.56 l
0.27 -0.56 l
0.28 -0.58 l
0.27 -0.57 l
0.28 -0.58 l
0.27 -0.58 l
0.28 -0.59 l
0.27 -0.59 l
0.28 -0.59 l
0.27 -0.60 l
0.28 -0.60 l
0.28 -0.60 l
0.27 -0.61 l
0.28 -0.60 l
0.27 -0.61 l
0.28 -0.61 l
0.27 -0.61 l
0.28 -0.62 l
0.27 -0.61 l
0.28 -0.62 l
0.27 -0.62 l
0.28 -0.61 l
0.28 -0.62 l
0.27 -0.62 l
0.28 -0.62 l
0.27 -0.62 l
0.28 -0.62 l
0.27 -0.62 l
0.28 -0.62 l
0.27 -0.62 l
0.28 -0.62 l
0.27 -0.62 l
0.28 -0.62 l
0.28 -0.62 l
0.27 -0.62 l
0.28 -0.61 l
0.27 -0.62 l
0.28 -0.61 l
0.27 -0.62 l
0.28 -0.61 l
0.27 -0.61 l
0.28 -0.61 l
0.27 -0.61 l
0.28 -0.61 l
0.28 -0.60 l
0.27 -0.61 l
0.28 -0.60 l
0.27 -0.60 l
0.28 -0.60 l
0.27 -0.60 l
0.28 -0.60 l
0.27 -0.59 l
0.28 -0.59 l
114.59 126.46 lineto
0.28 -0.59 l
0.28 -0.58 l
0.27 -0.59 l
0.28 -0.58 l
0.27 -0.58 l
0.28 -0.57 l
0.27 -0.58 l
0.28 -0.57 l
0.27 -0.57 l
0.28 -0.57 l
0.27 -0.56 l
0.28 -0.56 l
0.28 -0.56 l
0.27 -0.56 l
0.28 -0.55 l
0.27 -0.56 l
0.28 -0.55 l
0.27 -0.54 l
0.28 -0.55 l
0.27 -0.54 l
0.28 -0.54 l
0.27 -0.53 l
0.28 -0.54 l
0.28 -0.53 l
0.27 -0.52 l
0.28 -0.53 l
0.27 -0.52 l
0.28 -0.52 l
0.27 -0.52 l
0.28 -0.51 l
0.27 -0.51 l
0.28 -0.51 l
0.27 -0.50 l
0.28 -0.50 l
0.28 -0.50 l
0.27 -0.50 l
0.28 -0.49 l
0.27 -0.49 l
0.28 -0.49 l
0.27 -0.48 l
0.28 -0.49 l
0.27 -0.47 l
0.28 -0.48 l
0.27 -0.47 l
0.28 -0.47 l
0.28 -0.47 l
0.27 -0.46 l
0.28 -0.47 l
0.27 -0.45 l
0.28 -0.46 l
0.27 -0.45 l
0.28 -0.45 l
0.27 -0.45 l
0.28 -0.44 l
0.27 -0.44 l
0.28 -0.44 l
0.28 -0.43 l
0.27 -0.44 l
0.28 -0.42 l
0.27 -0.43 l
0.28 -0.42 l
0.27 -0.42 l
0.28 -0.42 l
0.27 -0.42 l
0.28 -0.41 l
0.27 -0.41 l
0.28 -0.40 l
0.28 -0.41 l
0.27 -0.40 l
0.28 -0.39 l
0.27 -0.40 l
0.28 -0.39 l
0.27 -0.39 l
0.28 -0.39 l
0.27 -0.38 l
0.28 -0.38 l
0.27 -0.38 l
0.28 -0.37 l
0.28 -0.38 l
0.27 -0.37 l
0.28 -0.36 l
0.27 -0.37 l
0.28 -0.36 l
0.27 -0.36 l
0.28 -0.35 l
0.27 -0.36 l
0.28 -0.35 l
0.27 -0.35 l
0.28 -0.34 l
0.28 -0.35 l
0.27 -0.34 l
0.28 -0.33 l
0.27 -0.34 l
0.28 -0.33 l
0.27 -0.33 l
0.28 -0.33 l
0.27 -0.32 l
0.28 -0.33 l
0.27 -0.32 l
142.14 81.07 lineto
0.27 -0.31 l
0.28 -0.31 l
0.28 -0.31 l
0.27 -0.31 l
0.28 -0.31 l
0.27 -0.30 l
0.28 -0.30 l
0.27 -0.30 l
0.28 -0.29 l
0.27 -0.30 l
0.28 -0.29 l
0.27 -0.29 l
0.28 -0.28 l
0.28 -0.29 l
0.27 -0.28 l
0.28 -0.28 l
0.27 -0.27 l
0.28 -0.28 l
0.27 -0.27 l
0.28 -0.27 l
0.27 -0.27 l
0.28 -0.27 l
0.27 -0.26 l
0.28 -0.26 l
0.28 -0.26 l
0.27 -0.26 l
0.28 -0.25 l
0.27 -0.26 l
0.28 -0.25 l
0.27 -0.25 l
0.28 -0.24 l
0.27 -0.25 l
0.28 -0.24 l
0.27 -0.24 l
0.28 -0.24 l
0.28 -0.24 l
0.27 -0.23 l
0.28 -0.23 l
0.27 -0.23 l
0.28 -0.23 l
0.27 -0.23 l
0.28 -0.22 l
0.27 -0.23 l
0.28 -0.22 l
0.27 -0.22 l
0.28 -0.21 l
0.28 -0.22 l
0.27 -0.21 l
0.28 -0.21 l
0.27 -0.21 l
0.28 -0.21 l
0.27 -0.21 l
0.28 -0.20 l
0.27 -0.21 l
0.28 -0.20 l
0.27 -0.20 l
0.28 -0.19 l
0.28 -0.20 l
0.27 -0.19 l
0.28 -0.19 l
0.27 -0.19 l
0.28 -0.19 l
0.27 -0.19 l
0.28 -0.19 l
0.27 -0.18 l
0.28 -0.18 l
0.27 -0.18 l
0.28 -0.18 l
0.28 -0.18 l
0.27 -0.18 l
0.28 -0.17 l
0.27 -0.17 l
0.28 -0.17 l
0.27 -0.17 l
0.28 -0.17 l
0.27 -0.17 l
0.28 -0.16 l
0.27 -0.17 l
0.28 -0.16 l
0.28 -0.16 l
0.27 -0.16 l
0.28 -0.16 l
0.27 -0.15 l
0.28 -0.16 l
0.27 -0.15 l
0.28 -0.15 l
0.27 -0.15 l
0.28 -0.15 l
0.27 -0.15 l
0.28 -0.15 l
0.28 -0.14 l
0.27 -0.15 l
0.28 -0.14 l
0.27 -0.14 l
0.28 -0.14 l
0.27 -0.14 l
0.28 -0.14 l
0.27 -0.13 l
0.28 -0.14 l
169.68 59.66 lineto
0.28 -0.14 l
0.28 -0.13 l
0.27 -0.13 l
0.28 -0.13 l
0.27 -0.12 l
0.28 -0.13 l
0.27 -0.12 l
0.28 -0.13 l
0.27 -0.12 l
0.28 -0.12 l
0.27 -0.12 l
0.28 -0.12 l
0.28 -0.12 l
0.27 -0.12 l
0.28 -0.12 l
0.27 -0.11 l
0.28 -0.12 l
0.27 -0.11 l
0.28 -0.11 l
0.27 -0.11 l
0.28 -0.11 l
0.27 -0.11 l
0.28 -0.11 l
0.28 -0.10 l
0.27 -0.11 l
0.28 -0.11 l
0.27 -0.10 l
0.28 -0.10 l
0.27 -0.10 l
0.28 -0.10 l
0.27 -0.10 l
0.28 -0.10 l
0.27 -0.10 l
0.28 -0.10 l
0.28 -0.09 l
0.27 -0.10 l
0.28 -0.09 l
0.27 -0.10 l
0.28 -0.09 l
0.27 -0.09 l
0.28 -0.09 l
0.27 -0.09 l
0.28 -0.09 l
0.27 -0.09 l
0.28 -0.09 l
0.28 -0.08 l
0.27 -0.09 l
0.28 -0.08 l
0.27 -0.09 l
0.28 -0.08 l
0.27 -0.08 l
0.28 -0.09 l
0.27 -0.08 l
0.28 -0.08 l
0.27 -0.08 l
0.28 -0.07 l
0.28 -0.08 l
0.27 -0.08 l
0.28 -0.07 l
0.27 -0.08 l
0.28 -0.07 l
0.27 -0.08 l
0.28 -0.07 l
0.27 -0.07 l
0.28 -0.08 l
0.27 -0.07 l
0.28 -0.07 l
0.28 -0.07 l
0.27 -0.07 l
0.28 -0.07 l
0.27 -0.06 l
0.28 -0.07 l
0.27 -0.07 l
0.28 -0.06 l
0.27 -0.07 l
0.28 -0.06 l
0.27 -0.07 l
0.28 -0.06 l
0.28 -0.06 l
0.27 -0.06 l
0.28 -0.07 l
0.27 -0.06 l
0.28 -0.06 l
0.27 -0.06 l
0.28 -0.06 l
0.27 -0.05 l
0.28 -0.06 l
0.27 -0.06 l
0.28 -0.06 l
0.27 -0.05 l
0.28 -0.06 l
0.28 -0.05 l
0.27 -0.06 l
0.28 -0.05 l
0.27 -0.05 l
0.28 -0.06 l
0.27 -0.05 l
0.28 -0.05 l
0.27 -0.05 l
197.23 51.08 lineto
0.27 -0.05 l
0.28 -0.05 l
0.28 -0.05 l
0.27 -0.05 l
0.28 -0.05 l
0.27 -0.05 l
0.28 -0.04 l
0.27 -0.05 l
0.28 -0.05 l
0.27 -0.04 l
0.28 -0.05 l
0.27 -0.04 l
0.28 -0.05 l
0.28 -0.04 l
0.27 -0.05 l
0.28 -0.04 l
0.27 -0.04 l
0.28 -0.05 l
0.27 -0.04 l
0.28 -0.04 l
0.27 -0.04 l
0.28 -0.04 l
0.27 -0.04 l
0.28 -0.04 l
0.28 -0.04 l
0.27 -0.04 l
0.28 -0.04 l
0.27 -0.04 l
0.28 -0.03 l
0.27 -0.04 l
0.28 -0.04 l
0.27 -0.04 l
0.28 -0.03 l
0.27 -0.04 l
0.28 -0.03 l
0.28 -0.04 l
0.27 -0.03 l
0.28 -0.04 l
0.27 -0.03 l
0.28 -0.04 l
0.27 -0.03 l
0.28 -0.03 l
0.27 -0.04 l
0.28 -0.03 l
0.27 -0.03 l
0.28 -0.03 l
0.28 -0.03 l
0.27 -0.04 l
0.28 -0.03 l
0.27 -0.03 l
0.28 -0.03 l
0.27 -0.03 l
0.28 -0.03 l
0.27 -0.03 l
0.28 -0.03 l
0.27 -0.02 l
0.28 -0.03 l
0.28 -0.03 l
0.27 -0.03 l
0.28 -0.03 l
0.27 -0.02 l
0.28 -0.03 l
0.27 -0.03 l
0.28 -0.02 l
0.27 -0.03 l
0.28 -0.03 l
0.27 -0.02 l
0.28 -0.03 l
0.28 -0.02 l
0.27 -0.03 l
0.28 -0.02 l
0.27 -0.03 l
0.28 -0.02 l
0.27 -0.02 l
0.28 -0.03 l
0.27 -0.02 l
0.28 -0.02 l
0.27 -0.03 l
0.28 -0.02 l
0.28 -0.02 l
0.27 -0.02 l
0.28 -0.03 l
0.27 -0.02 l
0.28 -0.02 l
0.27 -0.02 l
0.28 -0.02 l
0.27 -0.02 l
0.28 -0.02 l
0.27 -0.02 l
0.28 -0.02 l
0.28 -0.02 l
0.27 -0.02 l
0.28 -0.02 l
0.27 -0.02 l
0.28 -0.02 l
0.27 -0.02 l
0.28 -0.02 l
0.27 -0.02 l
0.28 -0.02 l
224.77 47.90 lineto
0.28 -0.01 l
0.28 -0.02 l
0.27 -0.02 l
0.28 -0.02 l
0.27 -0.01 l
0.28 -0.02 l
0.27 -0.02 l
0.28 -0.01 l
0.27 -0.02 l
0.28 -0.02 l
0.27 -0.01 l
0.28 -0.02 l
0.28 -0.02 l
0.27 -0.01 l
0.28 -0.02 l
0.27 -0.01 l
0.28 -0.02 l
0.27 -0.01 l
0.28 -0.02 l
0.27 -0.01 l
0.28 -0.02 l
0.27 -0.01 l
0.28 -0.02 l
0.28 -0.01 l
0.27 -0.01 l
0.28 -0.02 l
0.27 -0.01 l
0.28 -0.01 l
0.27 -0.02 l
0.28 -0.01 l
0.27 -0.01 l
0.28 -0.02 l
0.27 -0.01 l
0.28 -0.01 l
0.28 -0.02 l
0.27 -0.01 l
0.28 -0.01 l
0.27 -0.01 l
0.28 -0.01 l
0.27 -0.02 l
0.28 -0.01 l
0.27 -0.01 l
0.28 -0.01 l
0.27 -0.01 l
0.28 -0.01 l
0.28 -0.02 l
0.27 -0.01 l
0.28 -0.01 l
0.27 -0.01 l
0.28 -0.01 l
0.27 -0.01 l
0.28 -0.01 l
0.27 -0.01 l
0.28 -0.01 l
0.27 -0.01 l
0.28 -0.01 l
0.28 -0.01 l
0.27 -0.01 l
0.28 -0.01 l
0.27 -0.01 l
0.28 -0.01 l
0.27 -0.01 l
0.28 -0.01 l
0.27 -0.01 l
0.28 -0.01 l
0.27 -0.01 l
0.28 -0.01 l
0.28 0 l
0.27 -0.01 l
0.28 -0.01 l
0.27 -0.01 l
0.28 -0.01 l
0.27 -0.01 l
0.28 -0.01 l
0.27 0 l
0.28 -0.01 l
0.27 -0.01 l
0.28 -0.01 l
0.27 -0.01 l
0.28 0 l
0.28 -0.01 l
0.27 -0.01 l
0.28 -0.01 l
0.27 0 l
0.28 -0.01 l
0.27 -0.01 l
0.28 -0.01 l
0.27 0 l
0.28 -0.01 l
0.27 -0.01 l
0.28 0 l
0.28 -0.01 l
0.27 -0.01 l
0.28 0 l
0.27 -0.01 l
0.28 -0.01 l
0.27 0 l
0.28 -0.01 l
0.27 -0.01 l
252.32 46.79 lineto
0.27 -0.01 l
0.28 -0.01 l
0.28 0 l
0.27 -0.01 l
0.28 0 l
0.27 -0.01 l
0.28 0 l
0.27 -0.01 l
0.28 -0.01 l
0.27 0 l
0.28 -0.01 l
0.27 0 l
0.28 -0.01 l
0.28 0 l
0.27 -0.01 l
0.28 0 l
0.27 -0.01 l
0.28 0 l
0.27 -0.01 l
0.28 -0.01 l
0.27 0 l
0.28 -0.01 l
0.27 0 l
0.28 0 l
0.28 -0.01 l
0.27 0 l
0.28 -0.01 l
0.27 0 l
0.28 -0.01 l
0.27 0 l
0.28 -0.01 l
0.27 0 l
0.28 -0.01 l
0.27 0 l
0.28 0 l
0.28 -0.01 l
0.27 0 l
0.28 -0.01 l
0.27 0 l
0.28 -0.01 l
0.27 0 l
0.28 0 l
0.27 -0.01 l
0.28 0 l
0.27 -0.01 l
0.28 0 l
0.28 0 l
0.27 -0.01 l
0.28 0 l
0.27 0 l
0.28 -0.01 l
0.27 0 l
0.28 0 l
0.27 -0.01 l
0.28 0 l
0.27 -0.01 l
0.28 0 l
0.28 0 l
0.27 -0.01 l
0.28 0 l
0.27 0 l
0.28 0 l
0.27 -0.01 l
0.28 0 l
0.27 0 l
0.28 -0.01 l
0.27 0 l
0.28 0 l
0.28 -0.01 l
0.27 0 l
0.28 0 l
0.27 0 l
0.28 -0.01 l
0.27 0 l
0.28 0 l
0.27 -0.01 l
0.28 0 l
0.27 0 l
0.28 0 l
0.28 -0.01 l
0.27 0 l
0.28 0 l
0.27 0 l
0.28 -0.01 l
0.27 0 l
0.28 0 l
0.27 0 l
0.28 -0.01 l
0.27 0 l
0.28 0 l
0.28 0 l
0.27 -0.01 l
0.28 0 l
0.27 0 l
0.28 0 l
0.27 -0.01 l
0.28 0 l
0.27 0 l
0.28 0 l
o
0.6784 0.8471 0.9020 srgb
0.85 setlinewidth
[] 0 setdash
10.00 setmiterlimit
np
48.50 144.11 m
242.09 0 l
o
np
89.86 36.43 m
0 215.34 l
o
0.2000 0.2000 0.2000 srgb
1.07 setlinewidth
[] 0 setdash
1 setlinecap
48.50 36.43 242.09 215.34 r p1
0.00 0.00 370.50 257.25 cl
0.00 0.00 370.50 257.25 cl
0.00 0.00 370.50 257.25 cl
0.00 0.00 370.50 257.25 cl
0.00 0.00 370.50 257.25 cl
0.00 0.00 370.50 257.25 cl
0.00 0.00 370.50 257.25 cl
0.00 0.00 370.50 257.25 cl
0.00 0.00 370.50 257.25 cl
0.00 0.00 370.50 257.25 cl
0.00 0.00 370.50 257.25 cl
0.00 0.00 370.50 257.25 cl
0.00 0.00 370.50 257.25 cl
0.00 0.00 370.50 257.25 cl
0.00 0.00 370.50 257.25 cl
0.00 0.00 370.50 257.25 cl
/Font1 findfont 9 s
0.3020 0.3020 0.3020 srgb
43.57 42.99 (0.00) 1 0 t
43.57 91.93 (0.25) 1 0 t
43.57 140.88 (0.50) 1 0 t
43.57 189.82 (0.75) 1 0 t
43.57 238.77 (1.00) 1 0 t
0.00 0.00 370.50 257.25 cl
0.00 0.00 370.50 257.25 cl
0.2000 0.2000 0.2000 srgb
1.07 setlinewidth
[] 0 setdash
0 setlinecap
1 setlinejoin
10.00 setmiterlimit
np
45.76 46.22 m
2.74 0 l
o
np
45.76 95.16 m
2.74 0 l
o
np
45.76 144.11 m
2.74 0 l
o
np
45.76 193.05 m
2.74 0 l
o
np
45.76 242.00 m
2.74 0 l
o
0.00 0.00 370.50 257.25 cl
0.00 0.00 370.50 257.25 cl
0.00 0.00 370.50 257.25 cl
0.00 0.00 370.50 257.25 cl
0.00 0.00 370.50 257.25 cl
0.00 0.00 370.50 257.25 cl
0.00 0.00 370.50 257.25 cl
0.00 0.00 370.50 257.25 cl
0.00 0.00 370.50 257.25 cl
0.00 0.00 370.50 257.25 cl
0.2000 0.2000 0.2000 srgb
1.07 setlinewidth
[] 0 setdash
0 setlinecap
1 setlinejoin
10.00 setmiterlimit
np
59.28 33.69 m
0 2.74 l
o
np
89.86 33.69 m
0 2.74 l
o
np
120.44 33.69 m
0 2.74 l
o
np
151.02 33.69 m
0 2.74 l
o
np
181.60 33.69 m
0 2.74 l
o
np
212.18 33.69 m
0 2.74 l
o
np
242.75 33.69 m
0 2.74 l
o
np
273.33 33.69 m
0 2.74 l
o
0.00 0.00 370.50 257.25 cl
0.00 0.00 370.50 257.25 cl
/Font1 findfont 9 s
0.3020 0.3020 0.3020 srgb
59.28 25.04 (0) .5 0 t
89.86 25.04 (1) .5 0 t
120.44 25.04 (2) .5 0 t
151.02 25.04 (3) .5 0 t
181.60 25.04 (4) .5 0 t
212.18 25.04 (5) .5 0 t
242.75 25.04 (6) .5 0 t
273.33 25.04 (7) .5 0 t
0.00 0.00 370.50 257.25 cl
0.00 0.00 370.50 257.25 cl
0.00 0.00 370.50 257.25 cl
0.00 0.00 370.50 257.25 cl
0.00 0.00 370.50 257.25 cl
0.00 0.00 370.50 257.25 cl
/Font5 findfont 11 s
0 0 0 srgb
150.20 10.27 ( ) 0 0 t
/Font3 findfont 11 s
152.95 10.27 (F) 0 0 t
160.86 10.27 (o) 0 0 t
0.75 setlinewidth
[] 0 setdash
1 setlinecap
1 setlinejoin
10.00 setmiterlimit
np
169.30 8.88 m
2.87 10.68 l
o
173.61 10.27 (t) 0 0 t
/Font1 findfont 8 s
177.77 8.26 (0.5) 0 0 t
0.00 0.00 370.50 257.25 cl
0.00 0.00 370.50 257.25 cl
/Font5 findfont 11 s
0 0 0 srgb
14.90 119.44 ( ) 0 90 t
/Font3 findfont 11 s
14.90 122.19 (x) 0 90 t
/Font5 findfont 14 s
14.90 128.55 (\() 0 90 t
/Font5 findfont 11 s
14.90 133.21 (d) 0 90 t
/Font3 findfont 11 s
14.90 138.65 (T) 0 90 t
0.75 setlinewidth
[] 0 setdash
1 setlinecap
1 setlinejoin
10.00 setmiterlimit
np
16.29 147.99 m
-10.68 2.88 l
o
/Font5 findfont 11 s
14.90 152.30 (d) 0 90 t
/Font3 findfont 11 s
14.90 157.74 (x) 0 90 t
/Font5 findfont 14 s
14.90 164.10 (\)) 0 90 t
0.00 0.00 370.50 257.25 cl
0.00 0.00 370.50 257.25 cl
0.00 0.00 370.50 257.25 cl
0.00 0.00 370.50 257.25 cl
0.00 0.00 370.50 257.25 cl
0.00 0.00 370.50 257.25 cl
0.00 0.00 370.50 257.25 cl
0.00 0.00 370.50 257.25 cl
/bg { 1 1 1 srgb } def
301.93 114.49 63.09 59.22 r p2
0.00 0.00 370.50 257.25 cl
0.00 0.00 370.50 257.25 cl
/Font1 findfont 11 s
0 0 0 srgb
307.60 159.59 (P) 0 ta
-0.440 (ar) tb
-0.110 (ameter) tb gr
0.00 0.00 370.50 257.25 cl
0.00 0.00 370.50 257.25 cl
/bg { 1 1 1 srgb } def
307.60 137.44 17.28 17.28 r p2
0.00 0.00 370.50 257.25 cl
0.00 0.00 370.50 257.25 cl
0.9725 0.4627 0.4275 srgb
1.07 setlinewidth
[] 0 setdash
0 setlinecap
1 setlinejoin
10.00 setmiterlimit
np
309.33 146.08 m
13.82 0 l
o
0.00 0.00 370.50 257.25 cl
0.00 0.00 370.50 257.25 cl
/bg { 1 1 1 srgb } def
307.60 120.16 17.28 17.28 r p2
0.00 0.00 370.50 257.25 cl
0.00 0.00 370.50 257.25 cl
0 0.7490 0.7686 srgb
1.07 setlinewidth
[] 0 setdash
0 setlinecap
1 setlinejoin
10.00 setmiterlimit
np
309.33 128.80 m
13.82 0 l
o
0.00 0.00 370.50 257.25 cl
0.00 0.00 370.50 257.25 cl
/Font1 findfont 9 s
0 0 0 srgb
327.04 142.85 (Tm) 0 0 t
0.00 0.00 370.50 257.25 cl
0.00 0.00 370.50 257.25 cl
/Font1 findfont 9 s
0 0 0 srgb
327.04 125.57 (a) 0 0 t
0.00 0.00 370.50 257.25 cl
0.00 0.00 370.50 257.25 cl
0.00 0.00 370.50 257.25 cl
0.00 0.00 370.50 257.25 cl
0.00 0.00 370.50 257.25 cl
0.00 0.00 370.50 257.25 cl
0.00 0.00 370.50 257.25 cl
0.00 0.00 370.50 257.25 cl
0.00 0.00 370.50 257.25 cl
0.00 0.00 370.50 257.25 cl
ep
%%Trailer
%%Pages: 1
%%EOF
