%!PS-Adobe-3.0 EPSF-3.0
%%DocumentNeededResources: font Helvetica
%%+ font Helvetica-Bold
%%+ font Helvetica-Oblique
%%+ font Helvetica-BoldOblique
%%+ font Symbol
%%Title: R Graphics Output
%%Creator: R Software
%%Pages: (atend)
%%BoundingBox: 0 0 317 239
%%EndComments
%%BeginProlog
/bp  { gs sRGB gs } def
% begin .ps.prolog
/gs  { gsave } bind def
/gr  { grestore } bind def
/ep  { showpage gr gr } bind def
/m   { moveto } bind def
/l  { rlineto } bind def
/np  { newpath } bind def
/cp  { closepath } bind def
/f   { fill } bind def
/o   { stroke } bind def
/c   { newpath 0 360 arc } bind def
/r   { 4 2 roll moveto 1 copy 3 -1 roll exch 0 exch rlineto 0 rlineto -1 mul 0 exch rlineto closepath } bind def
/p1  { stroke } bind def
/p2  { gsave bg fill grestore newpath } bind def
/p3  { gsave bg fill grestore stroke } bind def
/p6  { gsave bg eofill grestore newpath } bind def
/p7  { gsave bg eofill grestore stroke } bind def
/t   { 5 -2 roll moveto gsave rotate
       1 index stringwidth pop
       mul neg 0 rmoveto show grestore } bind def
/ta  { 4 -2 roll moveto gsave rotate show } bind def
/tb  { 2 -1 roll 0 rmoveto show } bind def
/cl  { grestore gsave newpath 3 index 3 index moveto 1 index
       4 -1 roll lineto  exch 1 index lineto lineto
       closepath clip newpath } bind def
/rgb { setrgbcolor } bind def
/s   { scalefont setfont } bind def
% end   .ps.prolog
/sRGB { [ /CIEBasedABC
          << /DecodeLMN
               [ { dup 0.03928 le
                        {12.92321 div}
                        {0.055 add 1.055 div 2.4 exp }
                     ifelse
                 } bind dup dup
               ]
             /MatrixLMN [0.412457 0.212673 0.019334
                         0.357576 0.715152 0.119192
                         0.180437 0.072175 0.950301]
             /WhitePoint [0.9505 1.0 1.0890]
           >>
         ] setcolorspace } bind def
/srgb { setcolor } bind def
% begin encoding
/WinAnsiEncoding [
 /.notdef /.notdef /.notdef /.notdef /.notdef /.notdef /.notdef /.notdef
 /.notdef /.notdef /.notdef /.notdef /.notdef /.notdef /.notdef /.notdef
 /.notdef /.notdef /.notdef /.notdef /.notdef /.notdef /.notdef /.notdef
 /.notdef /.notdef /.notdef /.notdef /.notdef /.notdef /.notdef /.notdef
 /space /exclam /quotedbl /numbersign /dollar /percent /ampersand /quoteright
 /parenleft /parenright /asterisk /plus /comma /minus /period /slash
 /zero /one /two /three /four /five /six /seven
 /eight /nine /colon /semicolon /less /equal /greater /question
 /at /A /B /C /D /E /F /G
 /H /I /J /K /L /M /N /O
 /P /Q /R /S /T /U /V /W
 /X /Y /Z /bracketleft /backslash /bracketright /asciicircum /underscore
 /grave /a /b /c /d /e /f /g
 /h /i /j /k /l /m /n /o
 /p /q /r /s /t /u /v /w
 /x /y /z /braceleft /bar /braceright /asciitilde /.notdef
 /Euro /.notdef /quotesinglbase /florin /quotedblbase /ellipsis /dagger /daggerdbl
 /circumflex /perthousand /Scaron /guilsinglleft /OE /.notdef /Zcaron /.notdef
 /.notdef /quoteleft /quoteright /quotedblleft /quotedblright /bullet /endash /emdash
 /tilde /trademark /scaron /guilsinglright /oe /.notdef /zcaron /Ydieresis
 /space /exclamdown /cent /sterling /currency /yen /brokenbar /section
 /dieresis /copyright /ordfeminine /guillemotleft /logicalnot /hyphen /registered /macron
 /degree /plusminus /twosuperior /threesuperior /acute /mu /paragraph /periodcentered
 /cedilla /onesuperior /ordmasculine /guillemotright /onequarter /onehalf /threequarters /questiondown
 /Agrave /Aacute /Acircumflex /Atilde /Adieresis /Aring /AE /Ccedilla
 /Egrave /Eacute /Ecircumflex /Edieresis /Igrave /Iacute /Icircumflex /Idieresis
 /Eth /Ntilde /Ograve /Oacute /Ocircumflex /Otilde /Odieresis /multiply
 /Oslash /Ugrave /Uacute /Ucircumflex /Udieresis /Yacute /Thorn /germandbls
 /agrave /aacute /acircumflex /atilde /adieresis /aring /ae /ccedilla
 /egrave /eacute /ecircumflex /edieresis /igrave /iacute /icircumflex /idieresis
 /eth /ntilde /ograve /oacute /ocircumflex /otilde /odieresis /divide
 /oslash /ugrave /uacute /ucircumflex /udieresis /yacute /thorn /ydieresis
]
 def
% end encoding
%%IncludeResource: font Helvetica
/Helvetica findfont
dup length dict begin
  {1 index /FID ne {def} {pop pop} ifelse} forall
  /Encoding WinAnsiEncoding def
  currentdict
  end
/Font1 exch definefont pop
%%IncludeResource: font Helvetica-Bold
/Helvetica-Bold findfont
dup length dict begin
  {1 index /FID ne {def} {pop pop} ifelse} forall
  /Encoding WinAnsiEncoding def
  currentdict
  end
/Font2 exch definefont pop
%%IncludeResource: font Helvetica-Oblique
/Helvetica-Oblique findfont
dup length dict begin
  {1 index /FID ne {def} {pop pop} ifelse} forall
  /Encoding WinAnsiEncoding def
  currentdict
  end
/Font3 exch definefont pop
%%IncludeResource: font Helvetica-BoldOblique
/Helvetica-BoldOblique findfont
dup length dict begin
  {1 index /FID ne {def} {pop pop} ifelse} forall
  /Encoding WinAnsiEncoding def
  currentdict
  end
/Font4 exch definefont pop
%%IncludeResource: font Symbol
/Symbol findfont
dup length dict begin
  {1 index /FID ne {def} {pop pop} ifelse} forall
  currentdict
  end
/Font5 exch definefont pop
%%EndProlog
%%Page: 1 1
bp
0.00 0.00 317.25 239.25 cl
0.00 0.00 317.25 239.25 cl
0.00 0.00 317.25 239.25 cl
0.00 0.00 317.25 239.25 cl
0.00 0.00 317.25 239.25 cl
0.00 0.00 317.25 239.25 cl
0.00 0.00 317.25 239.25 cl
0.00 0.00 317.25 239.25 cl
0.00 0.00 317.25 239.25 cl
/bg { 1 1 1 srgb } def
1 1 1 srgb
1.07 setlinewidth
[] 0 setdash
1 setlinecap
1 setlinejoin
10.00 setmiterlimit
0.00 0.00 317.25 239.25 r p3
0.00 0.00 317.25 239.25 cl
53.87 39.97 311.77 233.77 cl
/bg { 0.9216 0.9216 0.9216 srgb } def
53.87 39.97 257.90 193.80 r p2
1 1 1 srgb
0.53 setlinewidth
[] 0 setdash
0 setlinecap
1 setlinejoin
10.00 setmiterlimit
np
53.87 70.80 m
257.90 0 l
o
np
53.87 114.85 m
257.90 0 l
o
np
53.87 158.90 m
257.90 0 l
o
np
53.87 202.95 m
257.90 0 l
o
np
81.64 39.97 m
0 193.80 l
o
np
114.22 39.97 m
0 193.80 l
o
np
146.79 39.97 m
0 193.80 l
o
np
179.37 39.97 m
0 193.80 l
o
np
211.94 39.97 m
0 193.80 l
o
np
244.52 39.97 m
0 193.80 l
o
np
277.09 39.97 m
0 193.80 l
o
np
309.67 39.97 m
0 193.80 l
o
1.07 setlinewidth
[] 0 setdash
np
53.87 48.78 m
257.90 0 l
o
np
53.87 92.83 m
257.90 0 l
o
np
53.87 136.88 m
257.90 0 l
o
np
53.87 180.93 m
257.90 0 l
o
np
53.87 224.98 m
257.90 0 l
o
np
65.36 39.97 m
0 193.80 l
o
np
97.93 39.97 m
0 193.80 l
o
np
130.51 39.97 m
0 193.80 l
o
np
163.08 39.97 m
0 193.80 l
o
np
195.66 39.97 m
0 193.80 l
o
np
228.23 39.97 m
0 193.80 l
o
np
260.81 39.97 m
0 193.80 l
o
np
293.38 39.97 m
0 193.80 l
o
0.9725 0.4627 0.4275 srgb
2.13 setlinewidth
[] 0 setdash
1.00 setmiterlimit
np
65.59 48.78 m
0.29 0 l
0.30 0 l
0.29 0 l
0.29 0 l
0.30 0 l
0.29 0 l
0.30 0 l
0.29 0 l
0.29 0 l
0.30 0 l
0.29 0 l
0.29 0 l
0.30 0 l
0.29 0 l
0.29 0 l
0.30 0.01 l
0.29 0.01 l
0.29 0.01 l
0.30 0.02 l
0.29 0.03 l
0.29 0.04 l
0.30 0.06 l
0.29 0.08 l
0.29 0.09 l
0.30 0.12 l
0.29 0.15 l
0.29 0.18 l
0.30 0.21 l
0.29 0.24 l
0.29 0.28 l
0.30 0.32 l
0.29 0.36 l
0.29 0.40 l
0.30 0.43 l
0.29 0.48 l
0.29 0.53 l
0.30 0.56 l
0.29 0.61 l
0.30 0.64 l
0.29 0.69 l
0.29 0.72 l
0.30 0.77 l
0.29 0.80 l
0.29 0.84 l
0.30 0.87 l
0.29 0.91 l
0.29 0.94 l
0.30 0.97 l
0.29 1.00 l
0.29 1.03 l
0.30 1.06 l
0.29 1.08 l
0.29 1.10 l
0.30 1.12 l
0.29 1.15 l
0.29 1.17 l
0.30 1.18 l
0.29 1.20 l
0.29 1.21 l
0.30 1.23 l
0.29 1.24 l
0.29 1.25 l
0.30 1.26 l
0.29 1.27 l
0.29 1.28 l
0.30 1.28 l
0.29 1.29 l
0.29 1.29 l
0.30 1.30 l
0.29 1.30 l
0.30 1.31 l
0.29 1.30 l
0.29 1.31 l
0.30 1.30 l
0.29 1.30 l
0.29 1.31 l
0.30 1.29 l
0.29 1.30 l
0.29 1.29 l
0.30 1.29 l
0.29 1.29 l
0.29 1.28 l
0.30 1.27 l
0.29 1.27 l
0.29 1.26 l
0.30 1.26 l
0.29 1.25 l
0.29 1.24 l
0.30 1.24 l
0.29 1.22 l
0.29 1.22 l
0.30 1.21 l
0.29 1.21 l
0.29 1.19 l
0.30 1.19 l
0.29 1.17 l
0.29 1.17 l
0.30 1.16 l
0.29 1.14 l
94.93 125.82 lineto
0.30 1.13 l
0.29 1.12 l
0.30 1.11 l
0.29 1.10 l
0.29 1.09 l
0.30 1.08 l
0.29 1.07 l
0.29 1.06 l
0.30 1.05 l
0.29 1.04 l
0.29 1.03 l
0.30 1.02 l
0.29 1.01 l
0.29 1.00 l
0.30 0.99 l
0.29 0.98 l
0.29 0.97 l
0.30 0.96 l
0.29 0.95 l
0.29 0.94 l
0.30 0.93 l
0.29 0.92 l
0.29 0.91 l
0.30 0.90 l
0.29 0.89 l
0.29 0.88 l
0.30 0.87 l
0.29 0.86 l
0.29 0.86 l
0.30 0.84 l
0.29 0.83 l
0.29 0.83 l
0.30 0.81 l
0.29 0.81 l
0.30 0.80 l
0.29 0.78 l
0.29 0.78 l
0.30 0.77 l
0.29 0.76 l
0.29 0.76 l
0.30 0.74 l
0.29 0.74 l
0.29 0.72 l
0.30 0.72 l
0.29 0.71 l
0.29 0.71 l
0.30 0.69 l
0.29 0.69 l
0.29 0.67 l
0.30 0.67 l
0.29 0.67 l
0.29 0.65 l
0.30 0.65 l
0.29 0.64 l
0.29 0.63 l
0.30 0.62 l
0.29 0.62 l
0.29 0.61 l
0.30 0.60 l
0.29 0.60 l
0.29 0.59 l
0.30 0.58 l
0.29 0.57 l
0.29 0.57 l
0.30 0.56 l
0.29 0.55 l
0.30 0.55 l
0.29 0.54 l
0.29 0.54 l
0.30 0.52 l
0.29 0.52 l
0.29 0.52 l
0.30 0.51 l
0.29 0.50 l
0.29 0.50 l
0.30 0.49 l
0.29 0.48 l
0.29 0.48 l
0.30 0.48 l
0.29 0.46 l
0.29 0.47 l
0.30 0.45 l
0.29 0.45 l
0.29 0.45 l
0.30 0.44 l
0.29 0.43 l
0.29 0.43 l
0.30 0.43 l
0.29 0.42 l
0.29 0.41 l
0.30 0.41 l
0.29 0.40 l
0.29 0.40 l
0.30 0.40 l
0.29 0.39 l
0.29 0.38 l
0.30 0.38 l
0.29 0.38 l
0.30 0.37 l
124.28 195.42 lineto
0.29 0.37 l
0.30 0.35 l
0.29 0.36 l
0.29 0.34 l
0.30 0.35 l
0.29 0.34 l
0.29 0.34 l
0.30 0.33 l
0.29 0.33 l
0.29 0.32 l
0.30 0.32 l
0.29 0.32 l
0.29 0.31 l
0.30 0.31 l
0.29 0.30 l
0.29 0.30 l
0.30 0.30 l
0.29 0.29 l
0.29 0.29 l
0.30 0.29 l
0.29 0.28 l
0.29 0.28 l
0.30 0.28 l
0.29 0.27 l
0.29 0.27 l
0.30 0.27 l
0.29 0.26 l
0.29 0.26 l
0.30 0.26 l
0.29 0.25 l
0.30 0.25 l
0.29 0.25 l
0.29 0.24 l
0.30 0.24 l
0.29 0.24 l
0.29 0.24 l
0.30 0.23 l
0.29 0.23 l
0.29 0.23 l
0.30 0.22 l
0.29 0.22 l
0.29 0.22 l
0.30 0.22 l
0.29 0.21 l
0.29 0.21 l
0.30 0.21 l
0.29 0.20 l
0.29 0.21 l
0.30 0.20 l
0.29 0.19 l
0.29 0.20 l
0.30 0.19 l
0.29 0.19 l
0.29 0.19 l
0.30 0.19 l
0.29 0.18 l
0.29 0.18 l
0.30 0.18 l
0.29 0.18 l
0.29 0.18 l
0.30 0.17 l
0.29 0.17 l
0.30 0.17 l
0.29 0.17 l
0.29 0.16 l
0.30 0.16 l
0.29 0.16 l
0.29 0.16 l
0.30 0.16 l
0.29 0.15 l
0.29 0.16 l
0.30 0.15 l
0.29 0.15 l
0.29 0.14 l
0.30 0.15 l
0.29 0.14 l
0.29 0.14 l
0.30 0.15 l
0.29 0.13 l
0.29 0.14 l
0.30 0.14 l
0.29 0.13 l
0.29 0.13 l
0.30 0.13 l
0.29 0.13 l
0.29 0.13 l
0.30 0.12 l
0.29 0.13 l
0.29 0.12 l
0.30 0.12 l
0.29 0.12 l
0.29 0.12 l
0.30 0.11 l
0.29 0.12 l
0.30 0.11 l
0.29 0.11 l
0.29 0.12 l
0.30 0.11 l
0.29 0.10 l
153.62 216.37 lineto
0.30 0.11 l
0.29 0.10 l
0.29 0.10 l
0.30 0.10 l
0.29 0.11 l
0.29 0.09 l
0.30 0.10 l
0.29 0.10 l
0.29 0.10 l
0.30 0.09 l
0.29 0.09 l
0.29 0.10 l
0.30 0.09 l
0.29 0.09 l
0.29 0.09 l
0.30 0.08 l
0.29 0.09 l
0.29 0.09 l
0.30 0.08 l
0.29 0.08 l
0.29 0.09 l
0.30 0.08 l
0.29 0.08 l
0.29 0.08 l
0.30 0.08 l
0.29 0.07 l
0.30 0.08 l
0.29 0.08 l
0.29 0.07 l
0.30 0.07 l
0.29 0.08 l
0.29 0.07 l
0.30 0.07 l
0.29 0.07 l
0.29 0.07 l
0.30 0.07 l
0.29 0.07 l
0.29 0.06 l
0.30 0.07 l
0.29 0.06 l
0.29 0.07 l
0.30 0.06 l
0.29 0.07 l
0.29 0.06 l
0.30 0.06 l
0.29 0.06 l
0.29 0.06 l
0.30 0.06 l
0.29 0.06 l
0.29 0.05 l
0.30 0.06 l
0.29 0.06 l
0.29 0.05 l
0.30 0.06 l
0.29 0.05 l
0.29 0.06 l
0.30 0.05 l
0.29 0.05 l
0.30 0.05 l
0.29 0.05 l
0.29 0.05 l
0.30 0.05 l
0.29 0.05 l
0.29 0.05 l
0.30 0.05 l
0.29 0.05 l
0.29 0.04 l
0.30 0.05 l
0.29 0.05 l
0.29 0.04 l
0.30 0.04 l
0.29 0.05 l
0.29 0.04 l
0.30 0.05 l
0.29 0.04 l
0.29 0.04 l
0.30 0.04 l
0.29 0.04 l
0.29 0.04 l
0.30 0.04 l
0.29 0.04 l
0.29 0.04 l
0.30 0.04 l
0.29 0.04 l
0.29 0.03 l
0.30 0.04 l
0.29 0.04 l
0.29 0.03 l
0.30 0.04 l
0.29 0.03 l
0.30 0.04 l
0.29 0.03 l
0.29 0.04 l
0.30 0.03 l
0.29 0.03 l
0.29 0.04 l
0.30 0.03 l
0.29 0.03 l
0.29 0.03 l
182.97 222.47 lineto
0.29 0.03 l
0.29 0.03 l
0.30 0.03 l
0.29 0.03 l
0.29 0.03 l
0.30 0.03 l
0.29 0.03 l
0.29 0.03 l
0.30 0.03 l
0.29 0.02 l
0.29 0.03 l
0.30 0.03 l
0.29 0.02 l
0.29 0.03 l
0.30 0.03 l
0.29 0.02 l
0.29 0.03 l
0.30 0.02 l
0.29 0.03 l
0.29 0.02 l
0.30 0.03 l
0.29 0.02 l
0.30 0.02 l
0.29 0.03 l
0.29 0.02 l
0.30 0.02 l
0.29 0.02 l
0.29 0.03 l
0.30 0.02 l
0.29 0.02 l
0.29 0.02 l
0.30 0.02 l
0.29 0.02 l
0.29 0.02 l
0.30 0.02 l
0.29 0.02 l
0.29 0.02 l
0.30 0.02 l
0.29 0.02 l
0.29 0.02 l
0.30 0.02 l
0.29 0.02 l
0.29 0.02 l
0.30 0.01 l
0.29 0.02 l
0.29 0.02 l
0.30 0.02 l
0.29 0.01 l
0.29 0.02 l
0.30 0.02 l
0.29 0.01 l
0.29 0.02 l
0.30 0.02 l
0.29 0.01 l
0.30 0.02 l
0.29 0.01 l
0.29 0.02 l
0.30 0.01 l
0.29 0.02 l
0.29 0.01 l
0.30 0.02 l
0.29 0.01 l
0.29 0.02 l
0.30 0.01 l
0.29 0.02 l
0.29 0.01 l
0.30 0.01 l
0.29 0.02 l
0.29 0.01 l
0.30 0.01 l
0.29 0.02 l
0.29 0.01 l
0.30 0.01 l
0.29 0.01 l
0.29 0.02 l
0.30 0.01 l
0.29 0.01 l
0.29 0.01 l
0.30 0.01 l
0.29 0.02 l
0.29 0.01 l
0.30 0.01 l
0.29 0.01 l
0.29 0.01 l
0.30 0.01 l
0.29 0.01 l
0.30 0.01 l
0.29 0.01 l
0.29 0.01 l
0.30 0.01 l
0.29 0.01 l
0.29 0.01 l
0.30 0.01 l
0.29 0.01 l
0.29 0.01 l
0.30 0.01 l
0.29 0.01 l
0.29 0.01 l
0.30 0.01 l
212.31 224.25 lineto
0.29 0.01 l
0.30 0.01 l
0.29 0.01 l
0.29 0.01 l
0.30 0 l
0.29 0.01 l
0.29 0.01 l
0.30 0.01 l
0.29 0.01 l
0.29 0 l
0.30 0.01 l
0.29 0.01 l
0.29 0.01 l
0.30 0.01 l
0.29 0 l
0.29 0.01 l
0.30 0.01 l
0.29 0.01 l
0.30 0 l
0.29 0.01 l
0.29 0.01 l
0.30 0 l
0.29 0.01 l
0.29 0.01 l
0.30 0 l
0.29 0.01 l
0.29 0.01 l
0.30 0 l
0.29 0.01 l
0.29 0.01 l
0.30 0 l
0.29 0.01 l
0.29 0 l
0.30 0.01 l
0.29 0.01 l
0.29 0 l
0.30 0.01 l
0.29 0 l
0.29 0.01 l
0.30 0 l
0.29 0.01 l
0.29 0.01 l
0.30 0 l
0.29 0.01 l
0.29 0 l
0.30 0.01 l
0.29 0 l
0.29 0.01 l
0.30 0 l
0.29 0.01 l
0.30 0 l
0.29 0.01 l
0.29 0 l
0.30 0.01 l
0.29 0 l
0.29 0 l
0.30 0.01 l
0.29 0 l
0.29 0.01 l
0.30 0 l
0.29 0.01 l
0.29 0 l
0.30 0 l
0.29 0.01 l
0.29 0 l
0.30 0.01 l
0.29 0 l
0.29 0 l
0.30 0.01 l
0.29 0 l
0.29 0.01 l
0.30 0 l
0.29 0 l
0.29 0.01 l
0.30 0 l
0.29 0 l
0.29 0.01 l
0.30 0 l
0.29 0 l
0.29 0.01 l
0.30 0 l
0.29 0 l
0.30 0.01 l
0.29 0 l
0.29 0 l
0.30 0.01 l
0.29 0 l
0.29 0 l
0.30 0.01 l
0.29 0 l
0.29 0 l
0.30 0.01 l
0.29 0 l
0.29 0 l
0.30 0 l
0.29 0.01 l
0.29 0 l
0.30 0 l
0.29 0 l
241.65 224.77 lineto
0.30 0 l
0.29 0 l
0.29 0.01 l
0.30 0 l
0.29 0 l
0.29 0 l
0.30 0 l
0.29 0.01 l
0.29 0 l
0.30 0 l
0.29 0 l
0.29 0.01 l
0.30 0 l
0.29 0 l
0.30 0 l
0.29 0.01 l
0.29 0 l
0.30 0 l
0.29 0 l
0.29 0 l
0.30 0.01 l
0.29 0 l
0.29 0 l
0.30 0 l
0.29 0 l
0.29 0.01 l
0.30 0 l
0.29 0 l
0.29 0 l
0.30 0 l
0.29 0 l
0.29 0.01 l
0.30 0 l
0.29 0 l
0.29 0 l
0.30 0 l
0.29 0.01 l
0.29 0 l
0.30 0 l
0.29 0 l
0.29 0 l
0.30 0 l
0.29 0 l
0.29 0.01 l
0.30 0 l
0.29 0 l
0.30 0 l
0.29 0 l
0.29 0 l
0.30 0.01 l
0.29 0 l
0.29 0 l
0.30 0 l
0.29 0 l
0.29 0 l
0.30 0 l
0.29 0 l
0.29 0.01 l
0.30 0 l
0.29 0 l
0.29 0 l
0.30 0 l
0.29 0 l
0.29 0 l
0.30 0 l
0.29 0.01 l
0.29 0 l
0.30 0 l
0.29 0 l
0.29 0 l
0.30 0 l
0.29 0 l
0.29 0 l
0.30 0 l
0.29 0.01 l
0.29 0 l
0.30 0 l
0.29 0 l
0.30 0 l
0.29 0 l
0.29 0 l
0.30 0 l
0.29 0 l
0.29 0 l
0.30 0.01 l
0.29 0 l
0.29 0 l
0.30 0 l
0.29 0 l
0.29 0 l
0.30 0 l
0.29 0 l
0.29 0 l
0.30 0 l
0.29 0 l
0.29 0 l
0.30 0.01 l
0.29 0 l
0.29 0 l
271.00 224.92 lineto
0.29 0 l
0.29 0 l
0.30 0 l
0.29 0 l
0.29 0 l
0.30 0 l
0.29 0 l
0.29 0 l
0.30 0 l
0.29 0.01 l
0.30 0 l
0.29 0 l
0.29 0 l
0.30 0 l
0.29 0 l
0.29 0 l
0.30 0 l
0.29 0 l
0.29 0 l
0.30 0 l
0.29 0 l
0.29 0 l
0.30 0 l
0.29 0 l
0.29 0 l
0.30 0 l
0.29 0.01 l
0.29 0 l
0.30 0 l
0.29 0 l
0.29 0 l
0.30 0 l
0.29 0 l
0.29 0 l
0.30 0 l
0.29 0 l
0.29 0 l
0.30 0 l
0.29 0 l
0.29 0 l
0.30 0 l
0.29 0 l
0.30 0 l
0.29 0 l
0.29 0 l
0.30 0 l
0.29 0.01 l
0.29 0 l
0.30 0 l
0.29 0 l
0.29 0 l
0.30 0 l
0.29 0 l
0.29 0 l
0.30 0 l
0.29 0 l
0.29 0 l
0.30 0 l
0.29 0 l
0.29 0 l
0.30 0 l
0.29 0 l
0.29 0 l
0.30 0 l
0.29 0 l
0.29 0 l
0.30 0 l
0.29 0 l
0.29 0 l
0.30 0 l
0.29 0 l
0.29 0 l
0.30 0 l
0.29 0.01 l
0.30 0 l
0.29 0 l
0.29 0 l
0.30 0 l
0.29 0 l
0.29 0 l
0.30 0 l
0.29 0 l
0.29 0 l
0.30 0 l
0.29 0 l
0.29 0 l
0.30 0 l
0.29 0 l
0.29 0 l
0.30 0 l
0.29 0 l
0.29 0 l
0.30 0 l
0.29 0 l
0.29 0 l
0.30 0 l
0.29 0 l
0.29 0 l
0.30 0 l
o
0 0.7490 0.7686 srgb
2.13 setlinewidth
[ 4.27 4.27] 0 setdash
np
65.59 48.78 m
0.29 0 l
0.30 0 l
0.29 0 l
0.29 0 l
0.30 0 l
0.29 0 l
0.30 0 l
0.29 0 l
0.29 0 l
0.30 0 l
0.29 0 l
0.29 0 l
0.30 0.01 l
0.29 0.01 l
0.29 0.04 l
0.30 0.05 l
0.29 0.09 l
0.29 0.13 l
0.30 0.19 l
0.29 0.26 l
0.29 0.34 l
0.30 0.44 l
0.29 0.54 l
0.29 0.66 l
0.30 0.78 l
0.29 0.91 l
0.29 1.04 l
0.30 1.17 l
0.29 1.30 l
0.29 1.42 l
0.30 1.54 l
0.29 1.67 l
0.29 1.77 l
0.30 1.87 l
0.29 1.97 l
0.29 2.05 l
0.30 2.14 l
0.29 2.19 l
0.30 2.26 l
0.29 2.31 l
0.29 2.35 l
0.30 2.39 l
0.29 2.40 l
0.29 2.43 l
0.30 2.44 l
0.29 2.44 l
0.29 2.43 l
0.30 2.43 l
0.29 2.41 l
0.29 2.39 l
0.30 2.37 l
0.29 2.34 l
0.29 2.30 l
0.30 2.27 l
0.29 2.23 l
0.29 2.19 l
0.30 2.14 l
0.29 2.10 l
0.29 2.04 l
0.30 2.00 l
0.29 1.94 l
0.29 1.89 l
0.30 1.84 l
0.29 1.78 l
0.29 1.73 l
0.30 1.67 l
0.29 1.62 l
0.29 1.56 l
0.30 1.51 l
0.29 1.45 l
0.30 1.40 l
0.29 1.35 l
0.29 1.28 l
0.30 1.24 l
0.29 1.19 l
0.29 1.13 l
0.30 1.08 l
0.29 1.03 l
0.29 0.98 l
0.30 0.94 l
0.29 0.88 l
0.29 0.84 l
0.30 0.79 l
0.29 0.75 l
0.29 0.71 l
0.30 0.66 l
0.29 0.62 l
0.29 0.58 l
0.30 0.54 l
0.29 0.50 l
0.29 0.47 l
0.30 0.42 l
0.29 0.39 l
0.29 0.36 l
0.30 0.32 l
0.29 0.29 l
0.29 0.26 l
0.30 0.22 l
0.29 0.20 l
94.93 162.60 lineto
0.30 0.13 l
0.29 0.11 l
0.30 0.09 l
0.29 0.05 l
0.29 0.04 l
0.30 0 l
0.29 -0.01 l
0.29 -0.04 l
0.30 -0.06 l
0.29 -0.08 l
0.29 -0.11 l
0.30 -0.12 l
0.29 -0.14 l
0.29 -0.16 l
0.30 -0.18 l
0.29 -0.20 l
0.29 -0.21 l
0.30 -0.23 l
0.29 -0.25 l
0.29 -0.26 l
0.30 -0.27 l
0.29 -0.29 l
0.29 -0.31 l
0.30 -0.31 l
0.29 -0.33 l
0.29 -0.34 l
0.30 -0.35 l
0.29 -0.37 l
0.29 -0.37 l
0.30 -0.38 l
0.29 -0.40 l
0.29 -0.40 l
0.30 -0.42 l
0.29 -0.42 l
0.30 -0.43 l
0.29 -0.43 l
0.29 -0.45 l
0.30 -0.45 l
0.29 -0.46 l
0.29 -0.47 l
0.30 -0.47 l
0.29 -0.48 l
0.29 -0.49 l
0.30 -0.49 l
0.29 -0.49 l
0.29 -0.50 l
0.30 -0.51 l
0.29 -0.51 l
0.29 -0.51 l
0.30 -0.52 l
0.29 -0.52 l
0.29 -0.52 l
0.30 -0.53 l
0.29 -0.53 l
0.29 -0.54 l
0.30 -0.53 l
0.29 -0.54 l
0.29 -0.55 l
0.30 -0.54 l
0.29 -0.55 l
0.29 -0.54 l
0.30 -0.55 l
0.29 -0.55 l
0.29 -0.56 l
0.30 -0.55 l
0.29 -0.55 l
0.30 -0.56 l
0.29 -0.55 l
0.29 -0.56 l
0.30 -0.56 l
0.29 -0.56 l
0.29 -0.55 l
0.30 -0.56 l
0.29 -0.56 l
0.29 -0.56 l
0.30 -0.56 l
0.29 -0.56 l
0.29 -0.55 l
0.30 -0.56 l
0.29 -0.56 l
0.29 -0.55 l
0.30 -0.56 l
0.29 -0.55 l
0.29 -0.55 l
0.30 -0.56 l
0.29 -0.55 l
0.29 -0.55 l
0.30 -0.55 l
0.29 -0.55 l
0.29 -0.54 l
0.30 -0.55 l
0.29 -0.54 l
0.29 -0.55 l
0.30 -0.54 l
0.29 -0.54 l
0.29 -0.53 l
0.30 -0.54 l
0.29 -0.53 l
0.30 -0.54 l
124.28 120.99 lineto
0.29 -0.53 l
0.30 -0.52 l
0.29 -0.53 l
0.29 -0.52 l
0.30 -0.52 l
0.29 -0.52 l
0.29 -0.52 l
0.30 -0.51 l
0.29 -0.51 l
0.29 -0.52 l
0.30 -0.50 l
0.29 -0.51 l
0.29 -0.50 l
0.30 -0.50 l
0.29 -0.50 l
0.29 -0.50 l
0.30 -0.49 l
0.29 -0.50 l
0.29 -0.49 l
0.30 -0.48 l
0.29 -0.49 l
0.29 -0.48 l
0.30 -0.48 l
0.29 -0.48 l
0.29 -0.47 l
0.30 -0.47 l
0.29 -0.47 l
0.29 -0.47 l
0.30 -0.47 l
0.29 -0.46 l
0.30 -0.46 l
0.29 -0.45 l
0.29 -0.46 l
0.30 -0.45 l
0.29 -0.45 l
0.29 -0.45 l
0.30 -0.44 l
0.29 -0.44 l
0.29 -0.44 l
0.30 -0.44 l
0.29 -0.43 l
0.29 -0.43 l
0.30 -0.43 l
0.29 -0.42 l
0.29 -0.43 l
0.30 -0.42 l
0.29 -0.41 l
0.29 -0.42 l
0.30 -0.41 l
0.29 -0.41 l
0.29 -0.41 l
0.30 -0.40 l
0.29 -0.40 l
0.29 -0.40 l
0.30 -0.40 l
0.29 -0.39 l
0.29 -0.40 l
0.30 -0.38 l
0.29 -0.39 l
0.29 -0.38 l
0.30 -0.38 l
0.29 -0.38 l
0.30 -0.38 l
0.29 -0.37 l
0.29 -0.37 l
0.30 -0.37 l
0.29 -0.37 l
0.29 -0.36 l
0.30 -0.36 l
0.29 -0.36 l
0.29 -0.35 l
0.30 -0.35 l
0.29 -0.35 l
0.29 -0.35 l
0.30 -0.35 l
0.29 -0.34 l
0.29 -0.34 l
0.30 -0.34 l
0.29 -0.33 l
0.29 -0.34 l
0.30 -0.33 l
0.29 -0.32 l
0.29 -0.33 l
0.30 -0.32 l
0.29 -0.32 l
0.29 -0.32 l
0.30 -0.32 l
0.29 -0.31 l
0.29 -0.31 l
0.30 -0.31 l
0.29 -0.31 l
0.29 -0.30 l
0.30 -0.30 l
0.29 -0.30 l
0.30 -0.30 l
0.29 -0.30 l
0.29 -0.29 l
0.30 -0.29 l
0.29 -0.29 l
153.62 80.15 lineto
0.30 -0.29 l
0.29 -0.28 l
0.29 -0.28 l
0.30 -0.27 l
0.29 -0.28 l
0.29 -0.27 l
0.30 -0.27 l
0.29 -0.27 l
0.29 -0.26 l
0.30 -0.27 l
0.29 -0.26 l
0.29 -0.26 l
0.30 -0.26 l
0.29 -0.25 l
0.29 -0.26 l
0.30 -0.25 l
0.29 -0.25 l
0.29 -0.25 l
0.30 -0.24 l
0.29 -0.24 l
0.29 -0.25 l
0.30 -0.24 l
0.29 -0.23 l
0.29 -0.24 l
0.30 -0.23 l
0.29 -0.23 l
0.30 -0.23 l
0.29 -0.23 l
0.29 -0.23 l
0.30 -0.22 l
0.29 -0.22 l
0.29 -0.22 l
0.30 -0.22 l
0.29 -0.22 l
0.29 -0.21 l
0.30 -0.22 l
0.29 -0.21 l
0.29 -0.21 l
0.30 -0.20 l
0.29 -0.21 l
0.29 -0.20 l
0.30 -0.21 l
0.29 -0.20 l
0.29 -0.19 l
0.30 -0.20 l
0.29 -0.20 l
0.29 -0.19 l
0.30 -0.19 l
0.29 -0.19 l
0.29 -0.19 l
0.30 -0.19 l
0.29 -0.18 l
0.29 -0.19 l
0.30 -0.18 l
0.29 -0.18 l
0.29 -0.18 l
0.30 -0.18 l
0.29 -0.17 l
0.30 -0.18 l
0.29 -0.17 l
0.29 -0.17 l
0.30 -0.17 l
0.29 -0.17 l
0.29 -0.17 l
0.30 -0.16 l
0.29 -0.17 l
0.29 -0.16 l
0.30 -0.16 l
0.29 -0.16 l
0.29 -0.16 l
0.30 -0.16 l
0.29 -0.15 l
0.29 -0.16 l
0.30 -0.15 l
0.29 -0.15 l
0.29 -0.15 l
0.30 -0.15 l
0.29 -0.15 l
0.29 -0.14 l
0.30 -0.15 l
0.29 -0.14 l
0.29 -0.14 l
0.30 -0.14 l
0.29 -0.14 l
0.29 -0.14 l
0.30 -0.14 l
0.29 -0.13 l
0.29 -0.14 l
0.30 -0.13 l
0.29 -0.13 l
0.30 -0.13 l
0.29 -0.13 l
0.29 -0.13 l
0.30 -0.13 l
0.29 -0.12 l
0.29 -0.13 l
0.30 -0.12 l
0.29 -0.13 l
0.29 -0.12 l
182.97 60.87 lineto
0.29 -0.12 l
0.29 -0.11 l
0.30 -0.12 l
0.29 -0.12 l
0.29 -0.11 l
0.30 -0.12 l
0.29 -0.11 l
0.29 -0.11 l
0.30 -0.11 l
0.29 -0.11 l
0.29 -0.11 l
0.30 -0.11 l
0.29 -0.10 l
0.29 -0.11 l
0.30 -0.10 l
0.29 -0.11 l
0.29 -0.10 l
0.30 -0.10 l
0.29 -0.10 l
0.29 -0.10 l
0.30 -0.10 l
0.29 -0.10 l
0.30 -0.10 l
0.29 -0.09 l
0.29 -0.10 l
0.30 -0.09 l
0.29 -0.10 l
0.29 -0.09 l
0.30 -0.09 l
0.29 -0.09 l
0.29 -0.09 l
0.30 -0.09 l
0.29 -0.09 l
0.29 -0.09 l
0.30 -0.08 l
0.29 -0.09 l
0.29 -0.08 l
0.30 -0.09 l
0.29 -0.08 l
0.29 -0.08 l
0.30 -0.08 l
0.29 -0.08 l
0.29 -0.08 l
0.30 -0.08 l
0.29 -0.08 l
0.29 -0.08 l
0.30 -0.08 l
0.29 -0.07 l
0.29 -0.08 l
0.30 -0.07 l
0.29 -0.08 l
0.29 -0.07 l
0.30 -0.07 l
0.29 -0.08 l
0.30 -0.07 l
0.29 -0.07 l
0.29 -0.07 l
0.30 -0.07 l
0.29 -0.07 l
0.29 -0.06 l
0.30 -0.07 l
0.29 -0.07 l
0.29 -0.06 l
0.30 -0.07 l
0.29 -0.06 l
0.29 -0.07 l
0.30 -0.06 l
0.29 -0.06 l
0.29 -0.07 l
0.30 -0.06 l
0.29 -0.06 l
0.29 -0.06 l
0.30 -0.06 l
0.29 -0.06 l
0.29 -0.06 l
0.30 -0.06 l
0.29 -0.05 l
0.29 -0.06 l
0.30 -0.06 l
0.29 -0.05 l
0.29 -0.06 l
0.30 -0.05 l
0.29 -0.06 l
0.29 -0.05 l
0.30 -0.05 l
0.29 -0.06 l
0.30 -0.05 l
0.29 -0.05 l
0.29 -0.05 l
0.30 -0.05 l
0.29 -0.05 l
0.29 -0.05 l
0.30 -0.05 l
0.29 -0.05 l
0.29 -0.05 l
0.30 -0.04 l
0.29 -0.05 l
0.29 -0.05 l
0.30 -0.04 l
212.31 53.15 lineto
0.29 -0.04 l
0.30 -0.05 l
0.29 -0.04 l
0.29 -0.05 l
0.30 -0.04 l
0.29 -0.04 l
0.29 -0.05 l
0.30 -0.04 l
0.29 -0.04 l
0.29 -0.04 l
0.30 -0.04 l
0.29 -0.04 l
0.29 -0.04 l
0.30 -0.04 l
0.29 -0.04 l
0.29 -0.04 l
0.30 -0.04 l
0.29 -0.04 l
0.30 -0.04 l
0.29 -0.03 l
0.29 -0.04 l
0.30 -0.04 l
0.29 -0.03 l
0.29 -0.04 l
0.30 -0.04 l
0.29 -0.03 l
0.29 -0.04 l
0.30 -0.03 l
0.29 -0.03 l
0.29 -0.04 l
0.30 -0.03 l
0.29 -0.03 l
0.29 -0.04 l
0.30 -0.03 l
0.29 -0.03 l
0.29 -0.03 l
0.30 -0.03 l
0.29 -0.04 l
0.29 -0.03 l
0.30 -0.03 l
0.29 -0.03 l
0.29 -0.03 l
0.30 -0.03 l
0.29 -0.03 l
0.29 -0.02 l
0.30 -0.03 l
0.29 -0.03 l
0.29 -0.03 l
0.30 -0.03 l
0.29 -0.03 l
0.30 -0.02 l
0.29 -0.03 l
0.29 -0.03 l
0.30 -0.02 l
0.29 -0.03 l
0.29 -0.02 l
0.30 -0.03 l
0.29 -0.03 l
0.29 -0.02 l
0.30 -0.03 l
0.29 -0.02 l
0.29 -0.02 l
0.30 -0.03 l
0.29 -0.02 l
0.29 -0.03 l
0.30 -0.02 l
0.29 -0.02 l
0.29 -0.03 l
0.30 -0.02 l
0.29 -0.02 l
0.29 -0.02 l
0.30 -0.02 l
0.29 -0.03 l
0.29 -0.02 l
0.30 -0.02 l
0.29 -0.02 l
0.29 -0.02 l
0.30 -0.02 l
0.29 -0.02 l
0.29 -0.02 l
0.30 -0.02 l
0.29 -0.02 l
0.30 -0.02 l
0.29 -0.02 l
0.29 -0.02 l
0.30 -0.02 l
0.29 -0.02 l
0.29 -0.02 l
0.30 -0.01 l
0.29 -0.02 l
0.29 -0.02 l
0.30 -0.02 l
0.29 -0.02 l
0.29 -0.01 l
0.30 -0.02 l
0.29 -0.02 l
0.29 -0.01 l
0.30 -0.02 l
0.29 -0.02 l
241.65 50.30 lineto
0.30 -0.02 l
0.29 -0.02 l
0.29 -0.01 l
0.30 -0.02 l
0.29 -0.01 l
0.29 -0.02 l
0.30 -0.01 l
0.29 -0.02 l
0.29 -0.01 l
0.30 -0.02 l
0.29 -0.01 l
0.29 -0.02 l
0.30 -0.01 l
0.29 -0.02 l
0.30 -0.01 l
0.29 -0.01 l
0.29 -0.02 l
0.30 -0.01 l
0.29 -0.02 l
0.29 -0.01 l
0.30 -0.01 l
0.29 -0.01 l
0.29 -0.02 l
0.30 -0.01 l
0.29 -0.01 l
0.29 -0.02 l
0.30 -0.01 l
0.29 -0.01 l
0.29 -0.01 l
0.30 -0.01 l
0.29 -0.02 l
0.29 -0.01 l
0.30 -0.01 l
0.29 -0.01 l
0.29 -0.01 l
0.30 -0.01 l
0.29 -0.01 l
0.29 -0.01 l
0.30 -0.02 l
0.29 -0.01 l
0.29 -0.01 l
0.30 -0.01 l
0.29 -0.01 l
0.29 -0.01 l
0.30 -0.01 l
0.29 -0.01 l
0.30 -0.01 l
0.29 -0.01 l
0.29 -0.01 l
0.30 -0.01 l
0.29 -0.01 l
0.29 -0.01 l
0.30 -0.01 l
0.29 -0.01 l
0.29 0 l
0.30 -0.01 l
0.29 -0.01 l
0.29 -0.01 l
0.30 -0.01 l
0.29 -0.01 l
0.29 -0.01 l
0.30 -0.01 l
0.29 0 l
0.29 -0.01 l
0.30 -0.01 l
0.29 -0.01 l
0.29 -0.01 l
0.30 -0.01 l
0.29 0 l
0.29 -0.01 l
0.30 -0.01 l
0.29 -0.01 l
0.29 0 l
0.30 -0.01 l
0.29 -0.01 l
0.29 -0.01 l
0.30 0 l
0.29 -0.01 l
0.30 -0.01 l
0.29 0 l
0.29 -0.01 l
0.30 -0.01 l
0.29 -0.01 l
0.29 0 l
0.30 -0.01 l
0.29 -0.01 l
0.29 0 l
0.30 -0.01 l
0.29 0 l
0.29 -0.01 l
0.30 -0.01 l
0.29 0 l
0.29 -0.01 l
0.30 -0.01 l
0.29 0 l
0.29 -0.01 l
0.30 0 l
0.29 -0.01 l
0.29 0 l
271.00 49.29 lineto
0.29 -0.01 l
0.29 0 l
0.30 -0.01 l
0.29 0 l
0.29 -0.01 l
0.30 0 l
0.29 -0.01 l
0.29 0 l
0.30 -0.01 l
0.29 0 l
0.30 -0.01 l
0.29 0 l
0.29 -0.01 l
0.30 0 l
0.29 -0.01 l
0.29 0 l
0.30 -0.01 l
0.29 0 l
0.29 -0.01 l
0.30 0 l
0.29 -0.01 l
0.29 0 l
0.30 0 l
0.29 -0.01 l
0.29 0 l
0.30 -0.01 l
0.29 0 l
0.29 -0.01 l
0.30 0 l
0.29 0 l
0.29 -0.01 l
0.30 0 l
0.29 -0.01 l
0.29 0 l
0.30 0 l
0.29 -0.01 l
0.29 0 l
0.30 -0.01 l
0.29 0 l
0.29 0 l
0.30 -0.01 l
0.29 0 l
0.30 0 l
0.29 -0.01 l
0.29 0 l
0.30 0 l
0.29 -0.01 l
0.29 0 l
0.30 0 l
0.29 -0.01 l
0.29 0 l
0.30 0 l
0.29 -0.01 l
0.29 0 l
0.30 0 l
0.29 -0.01 l
0.29 0 l
0.30 0 l
0.29 -0.01 l
0.29 0 l
0.30 0 l
0.29 0 l
0.29 -0.01 l
0.30 0 l
0.29 0 l
0.29 -0.01 l
0.30 0 l
0.29 0 l
0.29 0 l
0.30 -0.01 l
0.29 0 l
0.29 0 l
0.30 0 l
0.29 -0.01 l
0.30 0 l
0.29 0 l
0.29 0 l
0.30 -0.01 l
0.29 0 l
0.29 0 l
0.30 0 l
0.29 -0.01 l
0.29 0 l
0.30 0 l
0.29 0 l
0.29 0 l
0.30 -0.01 l
0.29 0 l
0.29 0 l
0.30 0 l
0.29 -0.01 l
0.29 0 l
0.30 0 l
0.29 0 l
0.29 0 l
0.30 -0.01 l
0.29 0 l
0.29 0 l
0.30 0 l
o
0.6784 0.8471 0.9020 srgb
0.85 setlinewidth
[] 0 setdash
10.00 setmiterlimit
np
53.87 136.88 m
257.90 0 l
o
np
97.93 39.97 m
0 193.80 l
o
/Font5 findfont 16 s
0 0 0 srgb
145.97 104.70 ( ) 0 0 t
/Font3 findfont 16 s
149.97 104.70 (S) 0 0 t
/Font5 findfont 16 s
142.72 192.80 ( ) 0 0 t
/Font3 findfont 16 s
146.72 192.80 (V) 0 0 t
0.00 0.00 317.25 239.25 cl
0.00 0.00 317.25 239.25 cl
0.00 0.00 317.25 239.25 cl
0.00 0.00 317.25 239.25 cl
0.00 0.00 317.25 239.25 cl
0.00 0.00 317.25 239.25 cl
0.00 0.00 317.25 239.25 cl
0.00 0.00 317.25 239.25 cl
0.00 0.00 317.25 239.25 cl
0.00 0.00 317.25 239.25 cl
0.00 0.00 317.25 239.25 cl
0.00 0.00 317.25 239.25 cl
0.00 0.00 317.25 239.25 cl
0.00 0.00 317.25 239.25 cl
0.00 0.00 317.25 239.25 cl
0.00 0.00 317.25 239.25 cl
/Font1 findfont 12 s
0.3020 0.3020 0.3020 srgb
48.94 44.47 (0.00) 1 0 t
48.94 88.52 (0.25) 1 0 t
48.94 132.57 (0.50) 1 0 t
48.94 176.62 (0.75) 1 0 t
48.94 220.67 (1.00) 1 0 t
0.00 0.00 317.25 239.25 cl
0.00 0.00 317.25 239.25 cl
0.2000 0.2000 0.2000 srgb
1.07 setlinewidth
[] 0 setdash
0 setlinecap
1 setlinejoin
10.00 setmiterlimit
np
51.13 48.78 m
2.74 0 l
o
np
51.13 92.83 m
2.74 0 l
o
np
51.13 136.88 m
2.74 0 l
o
np
51.13 180.93 m
2.74 0 l
o
np
51.13 224.98 m
2.74 0 l
o
0.00 0.00 317.25 239.25 cl
0.00 0.00 317.25 239.25 cl
0.00 0.00 317.25 239.25 cl
0.00 0.00 317.25 239.25 cl
0.00 0.00 317.25 239.25 cl
0.00 0.00 317.25 239.25 cl
0.00 0.00 317.25 239.25 cl
0.00 0.00 317.25 239.25 cl
0.00 0.00 317.25 239.25 cl
0.00 0.00 317.25 239.25 cl
0.2000 0.2000 0.2000 srgb
1.07 setlinewidth
[] 0 setdash
0 setlinecap
1 setlinejoin
10.00 setmiterlimit
np
65.36 37.23 m
0 2.74 l
o
np
97.93 37.23 m
0 2.74 l
o
np
130.51 37.23 m
0 2.74 l
o
np
163.08 37.23 m
0 2.74 l
o
np
195.66 37.23 m
0 2.74 l
o
np
228.23 37.23 m
0 2.74 l
o
np
260.81 37.23 m
0 2.74 l
o
np
293.38 37.23 m
0 2.74 l
o
0.00 0.00 317.25 239.25 cl
0.00 0.00 317.25 239.25 cl
/Font1 findfont 12 s
0.3020 0.3020 0.3020 srgb
65.36 26.42 (0) .5 0 t
97.93 26.42 (1) .5 0 t
130.51 26.42 (2) .5 0 t
163.08 26.42 (3) .5 0 t
195.66 26.42 (4) .5 0 t
228.23 26.42 (5) .5 0 t
260.81 26.42 (6) .5 0 t
293.38 26.42 (7) .5 0 t
0.00 0.00 317.25 239.25 cl
0.00 0.00 317.25 239.25 cl
0.00 0.00 317.25 239.25 cl
0.00 0.00 317.25 239.25 cl
0.00 0.00 317.25 239.25 cl
0.00 0.00 317.25 239.25 cl
/Font5 findfont 14 s
0 0 0 srgb
151.20 9.12 ( ) 0 0 t
154.70 9.12 (w) 0 0 t
0.75 setlinewidth
[] 0 setdash
1 setlinecap
1 setlinejoin
10.00 setmiterlimit
np
166.13 7.35 m
3.67 13.59 l
o
/Font1 findfont 14 s
171.63 9.12 (0.1388) 0 0 t
0.00 0.00 317.25 239.25 cl
0.00 0.00 317.25 239.25 cl
/Font5 findfont 14 s
0 0 0 srgb
15.80 120.34 ( ) 0 90 t
/Font3 findfont 14 s
15.80 123.84 (S) 0 90 t
/Font5 findfont 14 s
15.80 133.17 ( ) 0 90 t
/Font1 findfont 14 s
15.80 136.67 (,) 0 90 t
/Font5 findfont 14 s
15.80 140.57 ( ) 0 90 t
/Font3 findfont 14 s
15.80 144.07 (V) 0 90 t
0.00 0.00 317.25 239.25 cl
0.00 0.00 317.25 239.25 cl
0.00 0.00 317.25 239.25 cl
0.00 0.00 317.25 239.25 cl
0.00 0.00 317.25 239.25 cl
0.00 0.00 317.25 239.25 cl
0.00 0.00 317.25 239.25 cl
0.00 0.00 317.25 239.25 cl
0.00 0.00 317.25 239.25 cl
0.00 0.00 317.25 239.25 cl
ep
%%Trailer
%%Pages: 1
%%EOF
