%!PS-Adobe-3.0 EPSF-3.0
%%DocumentNeededResources: font Helvetica
%%+ font Helvetica-Bold
%%+ font Helvetica-Oblique
%%+ font Helvetica-BoldOblique
%%+ font Symbol
%%Title: R Graphics Output
%%Creator: R Software
%%Pages: (atend)
%%BoundingBox: 0 0 300 195
%%EndComments
%%BeginProlog
/bp  { gs sRGB gs } def
% begin .ps.prolog
/gs  { gsave } bind def
/gr  { grestore } bind def
/ep  { showpage gr gr } bind def
/m   { moveto } bind def
/l  { rlineto } bind def
/np  { newpath } bind def
/cp  { closepath } bind def
/f   { fill } bind def
/o   { stroke } bind def
/c   { newpath 0 360 arc } bind def
/r   { 4 2 roll moveto 1 copy 3 -1 roll exch 0 exch rlineto 0 rlineto -1 mul 0 exch rlineto closepath } bind def
/p1  { stroke } bind def
/p2  { gsave bg fill grestore newpath } bind def
/p3  { gsave bg fill grestore stroke } bind def
/p6  { gsave bg eofill grestore newpath } bind def
/p7  { gsave bg eofill grestore stroke } bind def
/t   { 5 -2 roll moveto gsave rotate
       1 index stringwidth pop
       mul neg 0 rmoveto show grestore } bind def
/ta  { 4 -2 roll moveto gsave rotate show } bind def
/tb  { 2 -1 roll 0 rmoveto show } bind def
/cl  { grestore gsave newpath 3 index 3 index moveto 1 index
       4 -1 roll lineto  exch 1 index lineto lineto
       closepath clip newpath } bind def
/rgb { setrgbcolor } bind def
/s   { scalefont setfont } bind def
% end   .ps.prolog
/sRGB { [ /CIEBasedABC
          << /DecodeLMN
               [ { dup 0.03928 le
                        {12.92321 div}
                        {0.055 add 1.055 div 2.4 exp }
                     ifelse
                 } bind dup dup
               ]
             /MatrixLMN [0.412457 0.212673 0.019334
                         0.357576 0.715152 0.119192
                         0.180437 0.072175 0.950301]
             /WhitePoint [0.9505 1.0 1.0890]
           >>
         ] setcolorspace } bind def
/srgb { setcolor } bind def
% begin encoding
/WinAnsiEncoding [
 /.notdef /.notdef /.notdef /.notdef /.notdef /.notdef /.notdef /.notdef
 /.notdef /.notdef /.notdef /.notdef /.notdef /.notdef /.notdef /.notdef
 /.notdef /.notdef /.notdef /.notdef /.notdef /.notdef /.notdef /.notdef
 /.notdef /.notdef /.notdef /.notdef /.notdef /.notdef /.notdef /.notdef
 /space /exclam /quotedbl /numbersign /dollar /percent /ampersand /quoteright
 /parenleft /parenright /asterisk /plus /comma /minus /period /slash
 /zero /one /two /three /four /five /six /seven
 /eight /nine /colon /semicolon /less /equal /greater /question
 /at /A /B /C /D /E /F /G
 /H /I /J /K /L /M /N /O
 /P /Q /R /S /T /U /V /W
 /X /Y /Z /bracketleft /backslash /bracketright /asciicircum /underscore
 /grave /a /b /c /d /e /f /g
 /h /i /j /k /l /m /n /o
 /p /q /r /s /t /u /v /w
 /x /y /z /braceleft /bar /braceright /asciitilde /.notdef
 /Euro /.notdef /quotesinglbase /florin /quotedblbase /ellipsis /dagger /daggerdbl
 /circumflex /perthousand /Scaron /guilsinglleft /OE /.notdef /Zcaron /.notdef
 /.notdef /quoteleft /quoteright /quotedblleft /quotedblright /bullet /endash /emdash
 /tilde /trademark /scaron /guilsinglright /oe /.notdef /zcaron /Ydieresis
 /space /exclamdown /cent /sterling /currency /yen /brokenbar /section
 /dieresis /copyright /ordfeminine /guillemotleft /logicalnot /hyphen /registered /macron
 /degree /plusminus /twosuperior /threesuperior /acute /mu /paragraph /periodcentered
 /cedilla /onesuperior /ordmasculine /guillemotright /onequarter /onehalf /threequarters /questiondown
 /Agrave /Aacute /Acircumflex /Atilde /Adieresis /Aring /AE /Ccedilla
 /Egrave /Eacute /Ecircumflex /Edieresis /Igrave /Iacute /Icircumflex /Idieresis
 /Eth /Ntilde /Ograve /Oacute /Ocircumflex /Otilde /Odieresis /multiply
 /Oslash /Ugrave /Uacute /Ucircumflex /Udieresis /Yacute /Thorn /germandbls
 /agrave /aacute /acircumflex /atilde /adieresis /aring /ae /ccedilla
 /egrave /eacute /ecircumflex /edieresis /igrave /iacute /icircumflex /idieresis
 /eth /ntilde /ograve /oacute /ocircumflex /otilde /odieresis /divide
 /oslash /ugrave /uacute /ucircumflex /udieresis /yacute /thorn /ydieresis
]
 def
% end encoding
%%IncludeResource: font Helvetica
/Helvetica findfont
dup length dict begin
  {1 index /FID ne {def} {pop pop} ifelse} forall
  /Encoding WinAnsiEncoding def
  currentdict
  end
/Font1 exch definefont pop
%%IncludeResource: font Helvetica-Bold
/Helvetica-Bold findfont
dup length dict begin
  {1 index /FID ne {def} {pop pop} ifelse} forall
  /Encoding WinAnsiEncoding def
  currentdict
  end
/Font2 exch definefont pop
%%IncludeResource: font Helvetica-Oblique
/Helvetica-Oblique findfont
dup length dict begin
  {1 index /FID ne {def} {pop pop} ifelse} forall
  /Encoding WinAnsiEncoding def
  currentdict
  end
/Font3 exch definefont pop
%%IncludeResource: font Helvetica-BoldOblique
/Helvetica-BoldOblique findfont
dup length dict begin
  {1 index /FID ne {def} {pop pop} ifelse} forall
  /Encoding WinAnsiEncoding def
  currentdict
  end
/Font4 exch definefont pop
%%IncludeResource: font Symbol
/Symbol findfont
dup length dict begin
  {1 index /FID ne {def} {pop pop} ifelse} forall
  currentdict
  end
/Font5 exch definefont pop
%%EndProlog
%%Page: 1 1
bp
0.00 0.00 300.00 195.00 cl
0.00 0.00 300.00 195.00 cl
0.00 0.00 300.00 195.00 cl
0.00 0.00 300.00 195.00 cl
0.00 0.00 300.00 195.00 cl
0.00 0.00 300.00 195.00 cl
0.00 0.00 300.00 195.00 cl
0.00 0.00 300.00 195.00 cl
0.00 0.00 300.00 195.00 cl
/bg { 1 1 1 srgb } def
1 1 1 srgb
1.07 setlinewidth
[] 0 setdash
1 setlinecap
1 setlinejoin
10.00 setmiterlimit
0.00 0.00 300.00 195.00 r p3
0.00 0.00 300.00 195.00 cl
46.27 36.43 220.09 189.52 cl
/bg { 1 1 1 srgb } def
46.27 36.43 173.82 153.09 r p2
0.9216 0.9216 0.9216 srgb
0.53 setlinewidth
[] 0 setdash
0 setlinecap
1 setlinejoin
10.00 setmiterlimit
np
46.27 60.79 m
173.82 0 l
o
np
46.27 95.58 m
173.82 0 l
o
np
46.27 130.38 m
173.82 0 l
o
np
46.27 165.18 m
173.82 0 l
o
np
64.99 36.43 m
0 153.09 l
o
np
86.95 36.43 m
0 153.09 l
o
np
108.90 36.43 m
0 153.09 l
o
np
130.86 36.43 m
0 153.09 l
o
np
152.81 36.43 m
0 153.09 l
o
np
174.77 36.43 m
0 153.09 l
o
np
196.72 36.43 m
0 153.09 l
o
np
218.68 36.43 m
0 153.09 l
o
1.07 setlinewidth
[] 0 setdash
np
46.27 43.39 m
173.82 0 l
o
np
46.27 78.18 m
173.82 0 l
o
np
46.27 112.98 m
173.82 0 l
o
np
46.27 147.78 m
173.82 0 l
o
np
46.27 182.57 m
173.82 0 l
o
np
54.01 36.43 m
0 153.09 l
o
np
75.97 36.43 m
0 153.09 l
o
np
97.92 36.43 m
0 153.09 l
o
np
119.88 36.43 m
0 153.09 l
o
np
141.83 36.43 m
0 153.09 l
o
np
163.79 36.43 m
0 153.09 l
o
np
185.74 36.43 m
0 153.09 l
o
np
207.70 36.43 m
0 153.09 l
o
0.9725 0.4627 0.4275 srgb
1.00 setmiterlimit
np
54.17 43.39 m
0.20 0 l
0.20 0 l
0.19 0 l
0.20 0 l
0.20 0 l
0.20 0 l
0.20 0 l
0.19 0 l
0.20 0 l
0.20 0 l
0.20 0 l
0.19 0 l
0.20 0 l
0.20 0 l
0.20 0 l
0.20 0.01 l
0.19 0 l
0.20 0.01 l
0.20 0.02 l
0.20 0.02 l
0.19 0.04 l
0.20 0.04 l
0.20 0.06 l
0.20 0.08 l
0.20 0.10 l
0.19 0.11 l
0.20 0.14 l
0.20 0.17 l
0.20 0.19 l
0.19 0.22 l
0.20 0.25 l
0.20 0.28 l
0.20 0.32 l
0.20 0.35 l
0.19 0.37 l
0.20 0.42 l
0.20 0.44 l
0.20 0.48 l
0.19 0.51 l
0.20 0.54 l
0.20 0.58 l
0.20 0.60 l
0.20 0.63 l
0.19 0.67 l
0.20 0.69 l
0.20 0.71 l
0.20 0.75 l
0.19 0.76 l
0.20 0.79 l
0.20 0.82 l
0.20 0.83 l
0.20 0.85 l
0.19 0.87 l
0.20 0.89 l
0.20 0.91 l
0.20 0.92 l
0.19 0.93 l
0.20 0.95 l
0.20 0.96 l
0.20 0.97 l
0.20 0.98 l
0.19 0.99 l
0.20 0.99 l
0.20 1.00 l
0.20 1.01 l
0.19 1.02 l
0.20 1.02 l
0.20 1.02 l
0.20 1.02 l
0.20 1.03 l
0.19 1.03 l
0.20 1.03 l
0.20 1.03 l
0.20 1.03 l
0.19 1.03 l
0.20 1.03 l
0.20 1.03 l
0.20 1.02 l
0.20 1.02 l
0.19 1.02 l
0.20 1.02 l
0.20 1.01 l
0.20 1.00 l
0.19 1.01 l
0.20 0.99 l
0.20 1.00 l
0.20 0.98 l
0.20 0.98 l
0.19 0.98 l
0.20 0.97 l
0.20 0.96 l
0.20 0.96 l
0.19 0.95 l
0.20 0.94 l
0.20 0.94 l
0.20 0.93 l
0.20 0.92 l
0.19 0.91 l
0.20 0.91 l
73.95 104.25 lineto
0.20 0.89 l
0.19 0.89 l
0.20 0.87 l
0.20 0.87 l
0.20 0.86 l
0.20 0.85 l
0.19 0.85 l
0.20 0.84 l
0.20 0.83 l
0.20 0.82 l
0.19 0.81 l
0.20 0.81 l
0.20 0.80 l
0.20 0.78 l
0.20 0.79 l
0.19 0.77 l
0.20 0.77 l
0.20 0.75 l
0.20 0.75 l
0.19 0.75 l
0.20 0.73 l
0.20 0.73 l
0.20 0.72 l
0.20 0.71 l
0.19 0.70 l
0.20 0.70 l
0.20 0.69 l
0.20 0.68 l
0.19 0.67 l
0.20 0.67 l
0.20 0.65 l
0.20 0.66 l
0.19 0.64 l
0.20 0.64 l
0.20 0.63 l
0.20 0.62 l
0.20 0.61 l
0.19 0.61 l
0.20 0.60 l
0.20 0.60 l
0.20 0.59 l
0.19 0.58 l
0.20 0.57 l
0.20 0.57 l
0.20 0.56 l
0.20 0.56 l
0.19 0.54 l
0.20 0.55 l
0.20 0.53 l
0.20 0.53 l
0.19 0.52 l
0.20 0.52 l
0.20 0.51 l
0.20 0.51 l
0.20 0.50 l
0.19 0.49 l
0.20 0.49 l
0.20 0.48 l
0.20 0.47 l
0.19 0.47 l
0.20 0.47 l
0.20 0.46 l
0.20 0.45 l
0.20 0.45 l
0.19 0.44 l
0.20 0.44 l
0.20 0.43 l
0.20 0.43 l
0.19 0.42 l
0.20 0.42 l
0.20 0.41 l
0.20 0.41 l
0.20 0.40 l
0.19 0.40 l
0.20 0.39 l
0.20 0.39 l
0.20 0.38 l
0.19 0.38 l
0.20 0.37 l
0.20 0.37 l
0.20 0.37 l
0.20 0.36 l
0.19 0.35 l
0.20 0.36 l
0.20 0.34 l
0.20 0.35 l
0.19 0.34 l
0.20 0.33 l
0.20 0.33 l
0.20 0.33 l
0.20 0.32 l
0.19 0.32 l
0.20 0.32 l
0.20 0.31 l
0.20 0.31 l
0.19 0.30 l
0.20 0.30 l
0.20 0.30 l
0.20 0.29 l
93.73 159.23 lineto
0.19 0.28 l
0.20 0.29 l
0.20 0.28 l
0.20 0.27 l
0.19 0.27 l
0.20 0.27 l
0.20 0.27 l
0.20 0.26 l
0.20 0.26 l
0.19 0.26 l
0.20 0.25 l
0.20 0.25 l
0.20 0.24 l
0.19 0.25 l
0.20 0.24 l
0.20 0.24 l
0.20 0.23 l
0.20 0.23 l
0.19 0.23 l
0.20 0.23 l
0.20 0.22 l
0.20 0.22 l
0.19 0.22 l
0.20 0.22 l
0.20 0.21 l
0.20 0.21 l
0.20 0.21 l
0.19 0.20 l
0.20 0.21 l
0.20 0.20 l
0.20 0.19 l
0.19 0.20 l
0.20 0.19 l
0.20 0.19 l
0.20 0.19 l
0.20 0.19 l
0.19 0.18 l
0.20 0.18 l
0.20 0.18 l
0.20 0.18 l
0.19 0.17 l
0.20 0.18 l
0.20 0.17 l
0.20 0.16 l
0.20 0.17 l
0.19 0.16 l
0.20 0.17 l
0.20 0.16 l
0.20 0.16 l
0.19 0.15 l
0.20 0.16 l
0.20 0.15 l
0.20 0.15 l
0.20 0.15 l
0.19 0.15 l
0.20 0.14 l
0.20 0.15 l
0.20 0.14 l
0.19 0.14 l
0.20 0.14 l
0.20 0.13 l
0.20 0.14 l
0.20 0.13 l
0.19 0.13 l
0.20 0.13 l
0.20 0.13 l
0.20 0.13 l
0.19 0.12 l
0.20 0.13 l
0.20 0.12 l
0.20 0.12 l
0.20 0.12 l
0.19 0.12 l
0.20 0.11 l
0.20 0.12 l
0.20 0.11 l
0.19 0.11 l
0.20 0.11 l
0.20 0.11 l
0.20 0.11 l
0.20 0.11 l
0.19 0.10 l
0.20 0.11 l
0.20 0.10 l
0.20 0.10 l
0.19 0.10 l
0.20 0.10 l
0.20 0.10 l
0.20 0.10 l
0.20 0.09 l
0.19 0.10 l
0.20 0.09 l
0.20 0.09 l
0.20 0.09 l
0.19 0.09 l
0.20 0.09 l
0.20 0.09 l
0.20 0.09 l
0.20 0.08 l
113.50 175.78 lineto
0.20 0.08 l
0.20 0.08 l
0.20 0.08 l
0.19 0.08 l
0.20 0.08 l
0.20 0.08 l
0.20 0.08 l
0.20 0.07 l
0.19 0.08 l
0.20 0.07 l
0.20 0.08 l
0.20 0.07 l
0.19 0.07 l
0.20 0.07 l
0.20 0.07 l
0.20 0.07 l
0.20 0.07 l
0.19 0.07 l
0.20 0.07 l
0.20 0.06 l
0.20 0.07 l
0.19 0.06 l
0.20 0.07 l
0.20 0.06 l
0.20 0.06 l
0.20 0.06 l
0.19 0.06 l
0.20 0.06 l
0.20 0.06 l
0.20 0.06 l
0.19 0.06 l
0.20 0.05 l
0.20 0.06 l
0.20 0.06 l
0.20 0.05 l
0.19 0.05 l
0.20 0.06 l
0.20 0.05 l
0.20 0.05 l
0.19 0.05 l
0.20 0.06 l
0.20 0.05 l
0.20 0.05 l
0.20 0.04 l
0.19 0.05 l
0.20 0.05 l
0.20 0.05 l
0.20 0.04 l
0.19 0.05 l
0.20 0.05 l
0.20 0.04 l
0.20 0.05 l
0.20 0.04 l
0.19 0.04 l
0.20 0.05 l
0.20 0.04 l
0.20 0.04 l
0.19 0.04 l
0.20 0.04 l
0.20 0.04 l
0.20 0.04 l
0.20 0.04 l
0.19 0.04 l
0.20 0.04 l
0.20 0.04 l
0.20 0.03 l
0.19 0.04 l
0.20 0.04 l
0.20 0.03 l
0.20 0.04 l
0.20 0.03 l
0.19 0.04 l
0.20 0.03 l
0.20 0.04 l
0.20 0.03 l
0.19 0.03 l
0.20 0.04 l
0.20 0.03 l
0.20 0.03 l
0.20 0.03 l
0.19 0.03 l
0.20 0.03 l
0.20 0.03 l
0.20 0.03 l
0.19 0.03 l
0.20 0.03 l
0.20 0.03 l
0.20 0.03 l
0.20 0.03 l
0.19 0.03 l
0.20 0.02 l
0.20 0.03 l
0.20 0.03 l
0.19 0.02 l
0.20 0.03 l
0.20 0.03 l
0.20 0.02 l
0.20 0.03 l
0.19 0.02 l
133.28 180.60 lineto
0.20 0.02 l
0.20 0.02 l
0.19 0.03 l
0.20 0.02 l
0.20 0.02 l
0.20 0.03 l
0.20 0.02 l
0.19 0.02 l
0.20 0.02 l
0.20 0.03 l
0.20 0.02 l
0.19 0.02 l
0.20 0.02 l
0.20 0.02 l
0.20 0.02 l
0.20 0.02 l
0.19 0.02 l
0.20 0.02 l
0.20 0.02 l
0.20 0.02 l
0.19 0.02 l
0.20 0.02 l
0.20 0.02 l
0.20 0.01 l
0.20 0.02 l
0.19 0.02 l
0.20 0.02 l
0.20 0.01 l
0.20 0.02 l
0.19 0.02 l
0.20 0.02 l
0.20 0.01 l
0.20 0.02 l
0.19 0.01 l
0.20 0.02 l
0.20 0.02 l
0.20 0.01 l
0.20 0.02 l
0.19 0.01 l
0.20 0.02 l
0.20 0.01 l
0.20 0.02 l
0.19 0.01 l
0.20 0.02 l
0.20 0.01 l
0.20 0.01 l
0.20 0.02 l
0.19 0.01 l
0.20 0.01 l
0.20 0.02 l
0.20 0.01 l
0.19 0.01 l
0.20 0.02 l
0.20 0.01 l
0.20 0.01 l
0.20 0.01 l
0.19 0.02 l
0.20 0.01 l
0.20 0.01 l
0.20 0.01 l
0.19 0.01 l
0.20 0.01 l
0.20 0.02 l
0.20 0.01 l
0.20 0.01 l
0.19 0.01 l
0.20 0.01 l
0.20 0.01 l
0.20 0.01 l
0.19 0.01 l
0.20 0.01 l
0.20 0.01 l
0.20 0.01 l
0.20 0.01 l
0.19 0.01 l
0.20 0.01 l
0.20 0.01 l
0.20 0.01 l
0.19 0.01 l
0.20 0.01 l
0.20 0.01 l
0.20 0.01 l
0.20 0.01 l
0.19 0 l
0.20 0.01 l
0.20 0.01 l
0.20 0.01 l
0.19 0.01 l
0.20 0.01 l
0.20 0 l
0.20 0.01 l
0.20 0.01 l
0.19 0.01 l
0.20 0.01 l
0.20 0 l
0.20 0.01 l
0.19 0.01 l
0.20 0.01 l
0.20 0 l
153.06 182.00 lineto
0.20 0.01 l
0.19 0 l
0.20 0.01 l
0.20 0.01 l
0.20 0 l
0.19 0.01 l
0.20 0.01 l
0.20 0 l
0.20 0.01 l
0.20 0.01 l
0.19 0 l
0.20 0.01 l
0.20 0.01 l
0.20 0 l
0.19 0.01 l
0.20 0 l
0.20 0.01 l
0.20 0 l
0.20 0.01 l
0.19 0.01 l
0.20 0 l
0.20 0.01 l
0.20 0 l
0.19 0.01 l
0.20 0 l
0.20 0.01 l
0.20 0 l
0.20 0.01 l
0.19 0 l
0.20 0.01 l
0.20 0 l
0.20 0.01 l
0.19 0 l
0.20 0.01 l
0.20 0 l
0.20 0.01 l
0.20 0 l
0.19 0.01 l
0.20 0 l
0.20 0 l
0.20 0.01 l
0.19 0 l
0.20 0.01 l
0.20 0 l
0.20 0.01 l
0.20 0 l
0.19 0 l
0.20 0.01 l
0.20 0 l
0.20 0.01 l
0.19 0 l
0.20 0 l
0.20 0.01 l
0.20 0 l
0.20 0 l
0.19 0.01 l
0.20 0 l
0.20 0 l
0.20 0.01 l
0.19 0 l
0.20 0 l
0.20 0.01 l
0.20 0 l
0.20 0 l
0.19 0.01 l
0.20 0 l
0.20 0 l
0.20 0.01 l
0.19 0 l
0.20 0 l
0.20 0.01 l
0.20 0 l
0.20 0 l
0.19 0 l
0.20 0.01 l
0.20 0 l
0.20 0 l
0.19 0.01 l
0.20 0 l
0.20 0 l
0.20 0 l
0.20 0.01 l
0.19 0 l
0.20 0 l
0.20 0 l
0.20 0.01 l
0.19 0 l
0.20 0 l
0.20 0 l
0.20 0.01 l
0.20 0 l
0.19 0 l
0.20 0 l
0.20 0.01 l
0.20 0 l
0.19 0 l
0.20 0 l
0.20 0 l
0.20 0.01 l
172.84 182.41 lineto
0.19 0 l
0.20 0 l
0.20 0 l
0.20 0.01 l
0.19 0 l
0.20 0 l
0.20 0 l
0.20 0 l
0.20 0.01 l
0.19 0 l
0.20 0 l
0.20 0 l
0.20 0 l
0.19 0 l
0.20 0.01 l
0.20 0 l
0.20 0 l
0.20 0 l
0.19 0 l
0.20 0 l
0.20 0.01 l
0.20 0 l
0.19 0 l
0.20 0 l
0.20 0 l
0.20 0 l
0.20 0.01 l
0.19 0 l
0.20 0 l
0.20 0 l
0.20 0 l
0.19 0 l
0.20 0 l
0.20 0.01 l
0.20 0 l
0.20 0 l
0.19 0 l
0.20 0 l
0.20 0 l
0.20 0 l
0.19 0 l
0.20 0.01 l
0.20 0 l
0.20 0 l
0.20 0 l
0.19 0 l
0.20 0 l
0.20 0 l
0.20 0 l
0.19 0.01 l
0.20 0 l
0.20 0 l
0.20 0 l
0.20 0 l
0.19 0 l
0.20 0 l
0.20 0 l
0.20 0 l
0.19 0.01 l
0.20 0 l
0.20 0 l
0.20 0 l
0.20 0 l
0.19 0 l
0.20 0 l
0.20 0 l
0.20 0 l
0.19 0 l
0.20 0 l
0.20 0.01 l
0.20 0 l
0.20 0 l
0.19 0 l
0.20 0 l
0.20 0 l
0.20 0 l
0.19 0 l
0.20 0 l
0.20 0 l
0.20 0 l
0.20 0 l
0.19 0.01 l
0.20 0 l
0.20 0 l
0.20 0 l
0.19 0 l
0.20 0 l
0.20 0 l
0.20 0 l
0.20 0 l
0.19 0 l
0.20 0 l
0.20 0 l
0.20 0 l
0.19 0 l
0.20 0 l
0.20 0.01 l
0.20 0 l
0.20 0 l
192.61 182.53 lineto
0.20 0 l
0.20 0 l
0.20 0 l
0.19 0 l
0.20 0 l
0.20 0 l
0.20 0 l
0.20 0 l
0.19 0 l
0.20 0 l
0.20 0 l
0.20 0 l
0.19 0 l
0.20 0 l
0.20 0.01 l
0.20 0 l
0.20 0 l
0.19 0 l
0.20 0 l
0.20 0 l
0.20 0 l
0.19 0 l
0.20 0 l
0.20 0 l
0.20 0 l
0.20 0 l
0.19 0 l
0.20 0 l
0.20 0 l
0.20 0 l
0.19 0 l
0.20 0 l
0.20 0 l
0.20 0 l
0.20 0 l
0.19 0 l
0.20 0.01 l
0.20 0 l
0.20 0 l
0.19 0 l
0.20 0 l
0.20 0 l
0.20 0 l
0.19 0 l
0.20 0 l
0.20 0 l
0.20 0 l
0.20 0 l
0.19 0 l
0.20 0 l
0.20 0 l
0.20 0 l
0.19 0 l
0.20 0 l
0.20 0 l
0.20 0 l
0.20 0 l
0.19 0 l
0.20 0 l
0.20 0 l
0.20 0 l
0.19 0 l
0.20 0 l
0.20 0 l
0.20 0 l
0.20 0 l
0.19 0 l
0.20 0 l
0.20 0.01 l
0.20 0 l
0.19 0 l
0.20 0 l
0.20 0 l
0.20 0 l
0.20 0 l
0.19 0 l
0.20 0 l
0.20 0 l
0.20 0 l
0.19 0 l
0.20 0 l
0.20 0 l
0.20 0 l
0.20 0 l
0.19 0 l
0.20 0 l
0.20 0 l
0.20 0 l
0.19 0 l
0.20 0 l
0.20 0 l
0.20 0 l
0.20 0 l
0.19 0 l
0.20 0 l
0.20 0 l
0.20 0 l
0.19 0 l
0.20 0 l
o
0 0.7490 0.7686 srgb
np
54.17 43.39 m
0.20 0 l
0.20 0 l
0.19 0 l
0.20 0 l
0.20 0 l
0.20 0 l
0.20 0 l
0.19 0 l
0.20 0 l
0.20 0 l
0.20 0 l
0.19 0 l
0.20 0.01 l
0.20 0.01 l
0.20 0.02 l
0.20 0.05 l
0.19 0.06 l
0.20 0.11 l
0.20 0.15 l
0.20 0.20 l
0.19 0.27 l
0.20 0.35 l
0.20 0.43 l
0.20 0.52 l
0.20 0.62 l
0.19 0.72 l
0.20 0.82 l
0.20 0.92 l
0.20 1.02 l
0.19 1.13 l
0.20 1.22 l
0.20 1.31 l
0.20 1.40 l
0.20 1.48 l
0.19 1.56 l
0.20 1.62 l
0.20 1.68 l
0.20 1.74 l
0.19 1.78 l
0.20 1.83 l
0.20 1.86 l
0.20 1.88 l
0.20 1.90 l
0.19 1.92 l
0.20 1.92 l
0.20 1.93 l
0.20 1.92 l
0.19 1.92 l
0.20 1.91 l
0.20 1.88 l
0.20 1.87 l
0.20 1.85 l
0.19 1.82 l
0.20 1.79 l
0.20 1.77 l
0.20 1.72 l
0.19 1.70 l
0.20 1.65 l
0.20 1.62 l
0.20 1.57 l
0.20 1.54 l
0.19 1.49 l
0.20 1.45 l
0.20 1.41 l
0.20 1.37 l
0.19 1.32 l
0.20 1.28 l
0.20 1.23 l
0.20 1.19 l
0.20 1.15 l
0.19 1.10 l
0.20 1.06 l
0.20 1.02 l
0.20 0.98 l
0.19 0.93 l
0.20 0.90 l
0.20 0.85 l
0.20 0.82 l
0.20 0.77 l
0.19 0.74 l
0.20 0.70 l
0.20 0.66 l
0.20 0.63 l
0.19 0.59 l
0.20 0.56 l
0.20 0.52 l
0.20 0.49 l
0.20 0.46 l
0.19 0.43 l
0.20 0.39 l
0.20 0.37 l
0.20 0.34 l
0.19 0.30 l
0.20 0.29 l
0.20 0.25 l
0.20 0.23 l
0.20 0.20 l
0.19 0.18 l
0.20 0.16 l
73.95 133.30 lineto
0.20 0.11 l
0.19 0.08 l
0.20 0.07 l
0.20 0.04 l
0.20 0.03 l
0.20 0.01 l
0.19 -0.02 l
0.20 -0.03 l
0.20 -0.05 l
0.20 -0.06 l
0.19 -0.08 l
0.20 -0.10 l
0.20 -0.11 l
0.20 -0.13 l
0.20 -0.14 l
0.19 -0.16 l
0.20 -0.17 l
0.20 -0.18 l
0.20 -0.19 l
0.19 -0.21 l
0.20 -0.21 l
0.20 -0.23 l
0.20 -0.24 l
0.20 -0.25 l
0.19 -0.26 l
0.20 -0.27 l
0.20 -0.28 l
0.20 -0.28 l
0.19 -0.30 l
0.20 -0.30 l
0.20 -0.31 l
0.20 -0.32 l
0.19 -0.33 l
0.20 -0.33 l
0.20 -0.34 l
0.20 -0.35 l
0.20 -0.35 l
0.19 -0.36 l
0.20 -0.36 l
0.20 -0.37 l
0.20 -0.37 l
0.19 -0.38 l
0.20 -0.38 l
0.20 -0.39 l
0.20 -0.39 l
0.20 -0.40 l
0.19 -0.40 l
0.20 -0.40 l
0.20 -0.41 l
0.20 -0.40 l
0.19 -0.42 l
0.20 -0.41 l
0.20 -0.42 l
0.20 -0.42 l
0.20 -0.42 l
0.19 -0.42 l
0.20 -0.43 l
0.20 -0.43 l
0.20 -0.43 l
0.19 -0.43 l
0.20 -0.43 l
0.20 -0.44 l
0.20 -0.43 l
0.20 -0.44 l
0.19 -0.43 l
0.20 -0.44 l
0.20 -0.44 l
0.20 -0.44 l
0.19 -0.44 l
0.20 -0.44 l
0.20 -0.44 l
0.20 -0.44 l
0.20 -0.44 l
0.19 -0.44 l
0.20 -0.44 l
0.20 -0.44 l
0.20 -0.45 l
0.19 -0.44 l
0.20 -0.44 l
0.20 -0.44 l
0.20 -0.43 l
0.20 -0.44 l
0.19 -0.44 l
0.20 -0.44 l
0.20 -0.43 l
0.20 -0.44 l
0.19 -0.44 l
0.20 -0.43 l
0.20 -0.43 l
0.20 -0.43 l
0.20 -0.43 l
0.19 -0.43 l
0.20 -0.43 l
0.20 -0.43 l
0.20 -0.43 l
0.19 -0.42 l
0.20 -0.42 l
0.20 -0.43 l
0.20 -0.42 l
93.73 100.43 lineto
0.19 -0.41 l
0.20 -0.42 l
0.20 -0.42 l
0.20 -0.41 l
0.19 -0.41 l
0.20 -0.41 l
0.20 -0.41 l
0.20 -0.40 l
0.20 -0.41 l
0.19 -0.40 l
0.20 -0.40 l
0.20 -0.40 l
0.20 -0.40 l
0.19 -0.40 l
0.20 -0.39 l
0.20 -0.39 l
0.20 -0.39 l
0.20 -0.39 l
0.19 -0.39 l
0.20 -0.38 l
0.20 -0.39 l
0.20 -0.38 l
0.19 -0.38 l
0.20 -0.37 l
0.20 -0.38 l
0.20 -0.37 l
0.20 -0.37 l
0.19 -0.37 l
0.20 -0.37 l
0.20 -0.36 l
0.20 -0.37 l
0.19 -0.36 l
0.20 -0.36 l
0.20 -0.35 l
0.20 -0.36 l
0.20 -0.35 l
0.19 -0.35 l
0.20 -0.35 l
0.20 -0.35 l
0.20 -0.34 l
0.19 -0.34 l
0.20 -0.34 l
0.20 -0.34 l
0.20 -0.34 l
0.20 -0.33 l
0.19 -0.34 l
0.20 -0.33 l
0.20 -0.32 l
0.20 -0.33 l
0.19 -0.32 l
0.20 -0.32 l
0.20 -0.32 l
0.20 -0.32 l
0.20 -0.32 l
0.19 -0.31 l
0.20 -0.31 l
0.20 -0.31 l
0.20 -0.31 l
0.19 -0.30 l
0.20 -0.30 l
0.20 -0.31 l
0.20 -0.29 l
0.20 -0.30 l
0.19 -0.30 l
0.20 -0.29 l
0.20 -0.29 l
0.20 -0.29 l
0.19 -0.28 l
0.20 -0.29 l
0.20 -0.28 l
0.20 -0.28 l
0.20 -0.28 l
0.19 -0.28 l
0.20 -0.27 l
0.20 -0.27 l
0.20 -0.28 l
0.19 -0.26 l
0.20 -0.27 l
0.20 -0.27 l
0.20 -0.26 l
0.20 -0.26 l
0.19 -0.26 l
0.20 -0.26 l
0.20 -0.25 l
0.20 -0.25 l
0.19 -0.26 l
0.20 -0.25 l
0.20 -0.24 l
0.20 -0.25 l
0.20 -0.24 l
0.19 -0.24 l
0.20 -0.24 l
0.20 -0.24 l
0.20 -0.24 l
0.19 -0.23 l
0.20 -0.24 l
0.20 -0.23 l
0.20 -0.23 l
0.20 -0.23 l
113.50 68.17 lineto
0.20 -0.23 l
0.20 -0.22 l
0.20 -0.22 l
0.19 -0.22 l
0.20 -0.21 l
0.20 -0.22 l
0.20 -0.21 l
0.20 -0.21 l
0.19 -0.21 l
0.20 -0.21 l
0.20 -0.21 l
0.20 -0.21 l
0.19 -0.20 l
0.20 -0.20 l
0.20 -0.20 l
0.20 -0.20 l
0.20 -0.20 l
0.19 -0.19 l
0.20 -0.20 l
0.20 -0.19 l
0.20 -0.19 l
0.19 -0.19 l
0.20 -0.19 l
0.20 -0.18 l
0.20 -0.19 l
0.20 -0.18 l
0.19 -0.18 l
0.20 -0.18 l
0.20 -0.18 l
0.20 -0.18 l
0.19 -0.17 l
0.20 -0.17 l
0.20 -0.18 l
0.20 -0.17 l
0.20 -0.17 l
0.19 -0.17 l
0.20 -0.16 l
0.20 -0.17 l
0.20 -0.16 l
0.19 -0.16 l
0.20 -0.17 l
0.20 -0.16 l
0.20 -0.15 l
0.20 -0.16 l
0.19 -0.16 l
0.20 -0.15 l
0.20 -0.15 l
0.20 -0.16 l
0.19 -0.15 l
0.20 -0.15 l
0.20 -0.14 l
0.20 -0.15 l
0.20 -0.15 l
0.19 -0.14 l
0.20 -0.14 l
0.20 -0.14 l
0.20 -0.14 l
0.19 -0.14 l
0.20 -0.14 l
0.20 -0.14 l
0.20 -0.13 l
0.20 -0.14 l
0.19 -0.13 l
0.20 -0.13 l
0.20 -0.13 l
0.20 -0.13 l
0.19 -0.13 l
0.20 -0.13 l
0.20 -0.12 l
0.20 -0.13 l
0.20 -0.12 l
0.19 -0.13 l
0.20 -0.12 l
0.20 -0.12 l
0.20 -0.12 l
0.19 -0.12 l
0.20 -0.11 l
0.20 -0.12 l
0.20 -0.11 l
0.20 -0.12 l
0.19 -0.11 l
0.20 -0.11 l
0.20 -0.12 l
0.20 -0.11 l
0.19 -0.10 l
0.20 -0.11 l
0.20 -0.11 l
0.20 -0.11 l
0.20 -0.10 l
0.19 -0.11 l
0.20 -0.10 l
0.20 -0.10 l
0.20 -0.10 l
0.19 -0.10 l
0.20 -0.10 l
0.20 -0.10 l
0.20 -0.10 l
0.20 -0.10 l
0.19 -0.09 l
133.28 52.94 lineto
0.20 -0.09 l
0.20 -0.09 l
0.19 -0.10 l
0.20 -0.09 l
0.20 -0.09 l
0.20 -0.09 l
0.20 -0.09 l
0.19 -0.09 l
0.20 -0.08 l
0.20 -0.09 l
0.20 -0.09 l
0.19 -0.08 l
0.20 -0.09 l
0.20 -0.08 l
0.20 -0.08 l
0.20 -0.08 l
0.19 -0.09 l
0.20 -0.08 l
0.20 -0.08 l
0.20 -0.07 l
0.19 -0.08 l
0.20 -0.08 l
0.20 -0.08 l
0.20 -0.07 l
0.20 -0.08 l
0.19 -0.07 l
0.20 -0.08 l
0.20 -0.07 l
0.20 -0.07 l
0.19 -0.07 l
0.20 -0.07 l
0.20 -0.07 l
0.20 -0.07 l
0.19 -0.07 l
0.20 -0.07 l
0.20 -0.07 l
0.20 -0.07 l
0.20 -0.06 l
0.19 -0.07 l
0.20 -0.06 l
0.20 -0.07 l
0.20 -0.06 l
0.19 -0.06 l
0.20 -0.07 l
0.20 -0.06 l
0.20 -0.06 l
0.20 -0.06 l
0.19 -0.06 l
0.20 -0.06 l
0.20 -0.06 l
0.20 -0.06 l
0.19 -0.06 l
0.20 -0.06 l
0.20 -0.05 l
0.20 -0.06 l
0.20 -0.05 l
0.19 -0.06 l
0.20 -0.05 l
0.20 -0.06 l
0.20 -0.05 l
0.19 -0.06 l
0.20 -0.05 l
0.20 -0.05 l
0.20 -0.05 l
0.20 -0.05 l
0.19 -0.05 l
0.20 -0.05 l
0.20 -0.05 l
0.20 -0.05 l
0.19 -0.05 l
0.20 -0.05 l
0.20 -0.05 l
0.20 -0.04 l
0.20 -0.05 l
0.19 -0.05 l
0.20 -0.04 l
0.20 -0.05 l
0.20 -0.04 l
0.19 -0.05 l
0.20 -0.04 l
0.20 -0.05 l
0.20 -0.04 l
0.20 -0.04 l
0.19 -0.04 l
0.20 -0.05 l
0.20 -0.04 l
0.20 -0.04 l
0.19 -0.04 l
0.20 -0.04 l
0.20 -0.04 l
0.20 -0.04 l
0.20 -0.04 l
0.19 -0.04 l
0.20 -0.04 l
0.20 -0.03 l
0.20 -0.04 l
0.19 -0.04 l
0.20 -0.03 l
0.20 -0.04 l
153.06 46.84 lineto
0.20 -0.03 l
0.19 -0.04 l
0.20 -0.03 l
0.20 -0.04 l
0.20 -0.03 l
0.19 -0.04 l
0.20 -0.03 l
0.20 -0.03 l
0.20 -0.04 l
0.20 -0.03 l
0.19 -0.03 l
0.20 -0.03 l
0.20 -0.04 l
0.20 -0.03 l
0.19 -0.03 l
0.20 -0.03 l
0.20 -0.03 l
0.20 -0.03 l
0.20 -0.03 l
0.19 -0.03 l
0.20 -0.03 l
0.20 -0.03 l
0.20 -0.03 l
0.19 -0.02 l
0.20 -0.03 l
0.20 -0.03 l
0.20 -0.03 l
0.20 -0.02 l
0.19 -0.03 l
0.20 -0.03 l
0.20 -0.02 l
0.20 -0.03 l
0.19 -0.03 l
0.20 -0.02 l
0.20 -0.03 l
0.20 -0.02 l
0.20 -0.03 l
0.19 -0.02 l
0.20 -0.03 l
0.20 -0.02 l
0.20 -0.02 l
0.19 -0.03 l
0.20 -0.02 l
0.20 -0.02 l
0.20 -0.03 l
0.20 -0.02 l
0.19 -0.02 l
0.20 -0.02 l
0.20 -0.03 l
0.20 -0.02 l
0.19 -0.02 l
0.20 -0.02 l
0.20 -0.02 l
0.20 -0.02 l
0.20 -0.02 l
0.19 -0.02 l
0.20 -0.02 l
0.20 -0.02 l
0.20 -0.02 l
0.19 -0.02 l
0.20 -0.02 l
0.20 -0.02 l
0.20 -0.02 l
0.20 -0.02 l
0.19 -0.02 l
0.20 -0.02 l
0.20 -0.02 l
0.20 -0.01 l
0.19 -0.02 l
0.20 -0.02 l
0.20 -0.02 l
0.20 -0.01 l
0.20 -0.02 l
0.19 -0.02 l
0.20 -0.01 l
0.20 -0.02 l
0.20 -0.02 l
0.19 -0.01 l
0.20 -0.02 l
0.20 -0.02 l
0.20 -0.01 l
0.20 -0.02 l
0.19 -0.01 l
0.20 -0.02 l
0.20 -0.01 l
0.20 -0.02 l
0.19 -0.01 l
0.20 -0.02 l
0.20 -0.01 l
0.20 -0.02 l
0.20 -0.01 l
0.19 -0.02 l
0.20 -0.01 l
0.20 -0.01 l
0.20 -0.02 l
0.19 -0.01 l
0.20 -0.01 l
0.20 -0.02 l
0.20 -0.01 l
172.84 44.59 lineto
0.19 -0.02 l
0.20 -0.01 l
0.20 -0.01 l
0.20 -0.01 l
0.19 -0.02 l
0.20 -0.01 l
0.20 -0.01 l
0.20 -0.01 l
0.20 -0.01 l
0.19 -0.01 l
0.20 -0.02 l
0.20 -0.01 l
0.20 -0.01 l
0.19 -0.01 l
0.20 -0.01 l
0.20 -0.01 l
0.20 -0.01 l
0.20 -0.01 l
0.19 -0.01 l
0.20 -0.01 l
0.20 -0.02 l
0.20 -0.01 l
0.19 -0.01 l
0.20 -0.01 l
0.20 -0.01 l
0.20 -0.01 l
0.20 -0.01 l
0.19 0 l
0.20 -0.01 l
0.20 -0.01 l
0.20 -0.01 l
0.19 -0.01 l
0.20 -0.01 l
0.20 -0.01 l
0.20 -0.01 l
0.20 -0.01 l
0.19 -0.01 l
0.20 -0.01 l
0.20 0 l
0.20 -0.01 l
0.19 -0.01 l
0.20 -0.01 l
0.20 -0.01 l
0.20 -0.01 l
0.20 0 l
0.19 -0.01 l
0.20 -0.01 l
0.20 -0.01 l
0.20 -0.01 l
0.19 0 l
0.20 -0.01 l
0.20 -0.01 l
0.20 -0.01 l
0.20 0 l
0.19 -0.01 l
0.20 -0.01 l
0.20 0 l
0.20 -0.01 l
0.19 -0.01 l
0.20 0 l
0.20 -0.01 l
0.20 -0.01 l
0.20 -0.01 l
0.19 0 l
0.20 -0.01 l
0.20 0 l
0.20 -0.01 l
0.19 -0.01 l
0.20 0 l
0.20 -0.01 l
0.20 -0.01 l
0.20 0 l
0.19 -0.01 l
0.20 0 l
0.20 -0.01 l
0.20 -0.01 l
0.19 0 l
0.20 -0.01 l
0.20 0 l
0.20 -0.01 l
0.20 0 l
0.19 -0.01 l
0.20 0 l
0.20 -0.01 l
0.20 0 l
0.19 -0.01 l
0.20 0 l
0.20 -0.01 l
0.20 -0.01 l
0.20 0 l
0.19 0 l
0.20 -0.01 l
0.20 0 l
0.20 -0.01 l
0.19 0 l
0.20 -0.01 l
0.20 0 l
0.20 -0.01 l
0.20 0 l
192.61 43.79 lineto
0.20 0 l
0.20 -0.01 l
0.20 0 l
0.19 0 l
0.20 -0.01 l
0.20 0 l
0.20 -0.01 l
0.20 0 l
0.19 -0.01 l
0.20 0 l
0.20 0 l
0.20 -0.01 l
0.19 0 l
0.20 0 l
0.20 -0.01 l
0.20 0 l
0.20 -0.01 l
0.19 0 l
0.20 0 l
0.20 -0.01 l
0.20 0 l
0.19 0 l
0.20 -0.01 l
0.20 0 l
0.20 0 l
0.20 -0.01 l
0.19 0 l
0.20 0 l
0.20 -0.01 l
0.20 0 l
0.19 0 l
0.20 -0.01 l
0.20 0 l
0.20 0 l
0.20 -0.01 l
0.19 0 l
0.20 0 l
0.20 -0.01 l
0.20 0 l
0.19 0 l
0.20 0 l
0.20 -0.01 l
0.20 0 l
0.19 0 l
0.20 -0.01 l
0.20 0 l
0.20 0 l
0.20 0 l
0.19 -0.01 l
0.20 0 l
0.20 0 l
0.20 0 l
0.19 -0.01 l
0.20 0 l
0.20 0 l
0.20 0 l
0.20 -0.01 l
0.19 0 l
0.20 0 l
0.20 0 l
0.20 -0.01 l
0.19 0 l
0.20 0 l
0.20 0 l
0.20 0 l
0.20 -0.01 l
0.19 0 l
0.20 0 l
0.20 0 l
0.20 0 l
0.19 -0.01 l
0.20 0 l
0.20 0 l
0.20 0 l
0.20 0 l
0.19 -0.01 l
0.20 0 l
0.20 0 l
0.20 0 l
0.19 0 l
0.20 -0.01 l
0.20 0 l
0.20 0 l
0.20 0 l
0.19 0 l
0.20 -0.01 l
0.20 0 l
0.20 0 l
0.19 0 l
0.20 0 l
0.20 0 l
0.20 -0.01 l
0.20 0 l
0.19 0 l
0.20 0 l
0.20 0 l
0.20 0 l
0.19 0 l
0.20 -0.01 l
o
0.6784 0.8471 0.9020 srgb
0.85 setlinewidth
[] 0 setdash
10.00 setmiterlimit
np
46.27 112.98 m
173.82 0 l
o
np
75.97 36.43 m
0 153.09 l
o
0.2000 0.2000 0.2000 srgb
1.07 setlinewidth
[] 0 setdash
1 setlinecap
46.27 36.43 173.82 153.09 r p1
0.00 0.00 300.00 195.00 cl
0.00 0.00 300.00 195.00 cl
0.00 0.00 300.00 195.00 cl
0.00 0.00 300.00 195.00 cl
0.00 0.00 300.00 195.00 cl
0.00 0.00 300.00 195.00 cl
0.00 0.00 300.00 195.00 cl
0.00 0.00 300.00 195.00 cl
0.00 0.00 300.00 195.00 cl
0.00 0.00 300.00 195.00 cl
0.00 0.00 300.00 195.00 cl
0.00 0.00 300.00 195.00 cl
0.00 0.00 300.00 195.00 cl
0.00 0.00 300.00 195.00 cl
0.00 0.00 300.00 195.00 cl
0.00 0.00 300.00 195.00 cl
/Font1 findfont 9 s
0.3020 0.3020 0.3020 srgb
41.34 40.16 (0.00) 1 0 t
41.34 74.95 (0.25) 1 0 t
41.34 109.75 (0.50) 1 0 t
41.34 144.55 (0.75) 1 0 t
41.34 179.34 (1.00) 1 0 t
0.00 0.00 300.00 195.00 cl
0.00 0.00 300.00 195.00 cl
0.2000 0.2000 0.2000 srgb
1.07 setlinewidth
[] 0 setdash
0 setlinecap
1 setlinejoin
10.00 setmiterlimit
np
43.53 43.39 m
2.74 0 l
o
np
43.53 78.18 m
2.74 0 l
o
np
43.53 112.98 m
2.74 0 l
o
np
43.53 147.78 m
2.74 0 l
o
np
43.53 182.57 m
2.74 0 l
o
0.00 0.00 300.00 195.00 cl
0.00 0.00 300.00 195.00 cl
0.00 0.00 300.00 195.00 cl
0.00 0.00 300.00 195.00 cl
0.00 0.00 300.00 195.00 cl
0.00 0.00 300.00 195.00 cl
0.00 0.00 300.00 195.00 cl
0.00 0.00 300.00 195.00 cl
0.00 0.00 300.00 195.00 cl
0.00 0.00 300.00 195.00 cl
0.2000 0.2000 0.2000 srgb
1.07 setlinewidth
[] 0 setdash
0 setlinecap
1 setlinejoin
10.00 setmiterlimit
np
54.01 33.69 m
0 2.74 l
o
np
75.97 33.69 m
0 2.74 l
o
np
97.92 33.69 m
0 2.74 l
o
np
119.88 33.69 m
0 2.74 l
o
np
141.83 33.69 m
0 2.74 l
o
np
163.79 33.69 m
0 2.74 l
o
np
185.74 33.69 m
0 2.74 l
o
np
207.70 33.69 m
0 2.74 l
o
0.00 0.00 300.00 195.00 cl
0.00 0.00 300.00 195.00 cl
/Font1 findfont 9 s
0.3020 0.3020 0.3020 srgb
54.01 25.04 (0) .5 0 t
75.97 25.04 (1) .5 0 t
97.92 25.04 (2) .5 0 t
119.88 25.04 (3) .5 0 t
141.83 25.04 (4) .5 0 t
163.79 25.04 (5) .5 0 t
185.74 25.04 (6) .5 0 t
207.70 25.04 (7) .5 0 t
0.00 0.00 300.00 195.00 cl
0.00 0.00 300.00 195.00 cl
0.00 0.00 300.00 195.00 cl
0.00 0.00 300.00 195.00 cl
0.00 0.00 300.00 195.00 cl
0.00 0.00 300.00 195.00 cl
/Font5 findfont 11 s
0 0 0 srgb
113.83 10.27 ( ) 0 0 t
/Font3 findfont 11 s
116.58 10.27 (F) 0 0 t
124.49 10.27 (o) 0 0 t
0.75 setlinewidth
[] 0 setdash
1 setlinecap
1 setlinejoin
10.00 setmiterlimit
np
132.93 8.88 m
2.88 10.68 l
o
137.25 10.27 (t) 0 0 t
/Font1 findfont 8 s
141.41 8.26 (0.5) 0 0 t
0.00 0.00 300.00 195.00 cl
0.00 0.00 300.00 195.00 cl
/Font5 findfont 11 s
0 0 0 srgb
13.59 91.39 ( ) 0 90 t
/Font3 findfont 11 s
13.59 94.14 (S) 0 90 t
/Font3 findfont 8 s
15.60 102.69 (a) 0 90 t
/Font3 findfont 11 s
13.59 107.79 (,) 0 90 t
/Font5 findfont 11 s
13.59 110.84 ( ) 0 90 t
/Font3 findfont 11 s
13.59 113.59 (S) 0 90 t
/Font3 findfont 8 s
15.60 122.15 (T) 0 90 t
15.60 127.90 (m) 0 90 t
0.00 0.00 300.00 195.00 cl
0.00 0.00 300.00 195.00 cl
0.00 0.00 300.00 195.00 cl
0.00 0.00 300.00 195.00 cl
0.00 0.00 300.00 195.00 cl
0.00 0.00 300.00 195.00 cl
0.00 0.00 300.00 195.00 cl
0.00 0.00 300.00 195.00 cl
/bg { 1 1 1 srgb } def
231.43 83.37 63.09 59.22 r p2
0.00 0.00 300.00 195.00 cl
0.00 0.00 300.00 195.00 cl
/Font1 findfont 11 s
0 0 0 srgb
237.10 128.47 (P) 0 ta
-0.440 (ar) tb
-0.110 (ameter) tb gr
0.00 0.00 300.00 195.00 cl
0.00 0.00 300.00 195.00 cl
/bg { 1 1 1 srgb } def
237.10 106.32 17.28 17.28 r p2
0.00 0.00 300.00 195.00 cl
0.00 0.00 300.00 195.00 cl
0.9725 0.4627 0.4275 srgb
1.07 setlinewidth
[] 0 setdash
0 setlinecap
1 setlinejoin
10.00 setmiterlimit
np
238.83 114.96 m
13.82 0 l
o
0.00 0.00 300.00 195.00 cl
0.00 0.00 300.00 195.00 cl
/bg { 1 1 1 srgb } def
237.10 89.04 17.28 17.28 r p2
0.00 0.00 300.00 195.00 cl
0.00 0.00 300.00 195.00 cl
0 0.7490 0.7686 srgb
1.07 setlinewidth
[] 0 setdash
0 setlinecap
1 setlinejoin
10.00 setmiterlimit
np
238.83 97.68 m
13.82 0 l
o
0.00 0.00 300.00 195.00 cl
0.00 0.00 300.00 195.00 cl
/Font1 findfont 9 s
0 0 0 srgb
256.54 111.72 (Tm) 0 0 t
0.00 0.00 300.00 195.00 cl
0.00 0.00 300.00 195.00 cl
/Font1 findfont 9 s
0 0 0 srgb
256.54 94.44 (a) 0 0 t
0.00 0.00 300.00 195.00 cl
0.00 0.00 300.00 195.00 cl
0.00 0.00 300.00 195.00 cl
0.00 0.00 300.00 195.00 cl
0.00 0.00 300.00 195.00 cl
0.00 0.00 300.00 195.00 cl
0.00 0.00 300.00 195.00 cl
0.00 0.00 300.00 195.00 cl
0.00 0.00 300.00 195.00 cl
0.00 0.00 300.00 195.00 cl
ep
%%Trailer
%%Pages: 1
%%EOF
