%!PS-Adobe-3.0 EPSF-3.0
%%DocumentNeededResources: font Helvetica
%%+ font Helvetica-Bold
%%+ font Helvetica-Oblique
%%+ font Helvetica-BoldOblique
%%+ font Symbol
%%Title: R Graphics Output
%%Creator: R Software
%%Pages: (atend)
%%BoundingBox: 0 0 317 239
%%EndComments
%%BeginProlog
/bp  { gs sRGB gs } def
% begin .ps.prolog
/gs  { gsave } bind def
/gr  { grestore } bind def
/ep  { showpage gr gr } bind def
/m   { moveto } bind def
/l  { rlineto } bind def
/np  { newpath } bind def
/cp  { closepath } bind def
/f   { fill } bind def
/o   { stroke } bind def
/c   { newpath 0 360 arc } bind def
/r   { 4 2 roll moveto 1 copy 3 -1 roll exch 0 exch rlineto 0 rlineto -1 mul 0 exch rlineto closepath } bind def
/p1  { stroke } bind def
/p2  { gsave bg fill grestore newpath } bind def
/p3  { gsave bg fill grestore stroke } bind def
/p6  { gsave bg eofill grestore newpath } bind def
/p7  { gsave bg eofill grestore stroke } bind def
/t   { 5 -2 roll moveto gsave rotate
       1 index stringwidth pop
       mul neg 0 rmoveto show grestore } bind def
/ta  { 4 -2 roll moveto gsave rotate show } bind def
/tb  { 2 -1 roll 0 rmoveto show } bind def
/cl  { grestore gsave newpath 3 index 3 index moveto 1 index
       4 -1 roll lineto  exch 1 index lineto lineto
       closepath clip newpath } bind def
/rgb { setrgbcolor } bind def
/s   { scalefont setfont } bind def
% end   .ps.prolog
/sRGB { [ /CIEBasedABC
          << /DecodeLMN
               [ { dup 0.03928 le
                        {12.92321 div}
                        {0.055 add 1.055 div 2.4 exp }
                     ifelse
                 } bind dup dup
               ]
             /MatrixLMN [0.412457 0.212673 0.019334
                         0.357576 0.715152 0.119192
                         0.180437 0.072175 0.950301]
             /WhitePoint [0.9505 1.0 1.0890]
           >>
         ] setcolorspace } bind def
/srgb { setcolor } bind def
% begin encoding
/WinAnsiEncoding [
 /.notdef /.notdef /.notdef /.notdef /.notdef /.notdef /.notdef /.notdef
 /.notdef /.notdef /.notdef /.notdef /.notdef /.notdef /.notdef /.notdef
 /.notdef /.notdef /.notdef /.notdef /.notdef /.notdef /.notdef /.notdef
 /.notdef /.notdef /.notdef /.notdef /.notdef /.notdef /.notdef /.notdef
 /space /exclam /quotedbl /numbersign /dollar /percent /ampersand /quoteright
 /parenleft /parenright /asterisk /plus /comma /minus /period /slash
 /zero /one /two /three /four /five /six /seven
 /eight /nine /colon /semicolon /less /equal /greater /question
 /at /A /B /C /D /E /F /G
 /H /I /J /K /L /M /N /O
 /P /Q /R /S /T /U /V /W
 /X /Y /Z /bracketleft /backslash /bracketright /asciicircum /underscore
 /grave /a /b /c /d /e /f /g
 /h /i /j /k /l /m /n /o
 /p /q /r /s /t /u /v /w
 /x /y /z /braceleft /bar /braceright /asciitilde /.notdef
 /Euro /.notdef /quotesinglbase /florin /quotedblbase /ellipsis /dagger /daggerdbl
 /circumflex /perthousand /Scaron /guilsinglleft /OE /.notdef /Zcaron /.notdef
 /.notdef /quoteleft /quoteright /quotedblleft /quotedblright /bullet /endash /emdash
 /tilde /trademark /scaron /guilsinglright /oe /.notdef /zcaron /Ydieresis
 /space /exclamdown /cent /sterling /currency /yen /brokenbar /section
 /dieresis /copyright /ordfeminine /guillemotleft /logicalnot /hyphen /registered /macron
 /degree /plusminus /twosuperior /threesuperior /acute /mu /paragraph /periodcentered
 /cedilla /onesuperior /ordmasculine /guillemotright /onequarter /onehalf /threequarters /questiondown
 /Agrave /Aacute /Acircumflex /Atilde /Adieresis /Aring /AE /Ccedilla
 /Egrave /Eacute /Ecircumflex /Edieresis /Igrave /Iacute /Icircumflex /Idieresis
 /Eth /Ntilde /Ograve /Oacute /Ocircumflex /Otilde /Odieresis /multiply
 /Oslash /Ugrave /Uacute /Ucircumflex /Udieresis /Yacute /Thorn /germandbls
 /agrave /aacute /acircumflex /atilde /adieresis /aring /ae /ccedilla
 /egrave /eacute /ecircumflex /edieresis /igrave /iacute /icircumflex /idieresis
 /eth /ntilde /ograve /oacute /ocircumflex /otilde /odieresis /divide
 /oslash /ugrave /uacute /ucircumflex /udieresis /yacute /thorn /ydieresis
]
 def
% end encoding
%%IncludeResource: font Helvetica
/Helvetica findfont
dup length dict begin
  {1 index /FID ne {def} {pop pop} ifelse} forall
  /Encoding WinAnsiEncoding def
  currentdict
  end
/Font1 exch definefont pop
%%IncludeResource: font Helvetica-Bold
/Helvetica-Bold findfont
dup length dict begin
  {1 index /FID ne {def} {pop pop} ifelse} forall
  /Encoding WinAnsiEncoding def
  currentdict
  end
/Font2 exch definefont pop
%%IncludeResource: font Helvetica-Oblique
/Helvetica-Oblique findfont
dup length dict begin
  {1 index /FID ne {def} {pop pop} ifelse} forall
  /Encoding WinAnsiEncoding def
  currentdict
  end
/Font3 exch definefont pop
%%IncludeResource: font Helvetica-BoldOblique
/Helvetica-BoldOblique findfont
dup length dict begin
  {1 index /FID ne {def} {pop pop} ifelse} forall
  /Encoding WinAnsiEncoding def
  currentdict
  end
/Font4 exch definefont pop
%%IncludeResource: font Symbol
/Symbol findfont
dup length dict begin
  {1 index /FID ne {def} {pop pop} ifelse} forall
  currentdict
  end
/Font5 exch definefont pop
%%EndProlog
%%Page: 1 1
bp
0.00 0.00 317.25 239.25 cl
0.00 0.00 317.25 239.25 cl
0.00 0.00 317.25 239.25 cl
0.00 0.00 317.25 239.25 cl
0.00 0.00 317.25 239.25 cl
0.00 0.00 317.25 239.25 cl
0.00 0.00 317.25 239.25 cl
0.00 0.00 317.25 239.25 cl
0.00 0.00 317.25 239.25 cl
/bg { 1 1 1 srgb } def
1 1 1 srgb
1.07 setlinewidth
[] 0 setdash
1 setlinecap
1 setlinejoin
10.00 setmiterlimit
0.00 0.00 317.25 239.25 r p3
0.00 0.00 317.25 239.25 cl
54.20 31.54 237.34 233.77 cl
/bg { 0.9216 0.9216 0.9216 srgb } def
54.20 31.54 183.15 202.23 r p2
1 1 1 srgb
0.53 setlinewidth
[] 0 setdash
0 setlinecap
1 setlinejoin
10.00 setmiterlimit
np
54.20 32.46 m
183.14 0 l
o
np
54.20 46.37 m
183.14 0 l
o
np
54.20 74.20 m
183.14 0 l
o
np
54.20 102.02 m
183.14 0 l
o
np
54.20 129.85 m
183.14 0 l
o
np
54.20 157.67 m
183.14 0 l
o
np
54.20 185.50 m
183.14 0 l
o
np
54.20 213.32 m
183.14 0 l
o
np
83.19 31.54 m
0 202.23 l
o
np
124.85 31.54 m
0 202.23 l
o
np
166.52 31.54 m
0 202.23 l
o
np
208.19 31.54 m
0 202.23 l
o
1.07 setlinewidth
[] 0 setdash
np
54.20 60.29 m
183.14 0 l
o
np
54.20 88.11 m
183.14 0 l
o
np
54.20 115.94 m
183.14 0 l
o
np
54.20 143.76 m
183.14 0 l
o
np
54.20 171.59 m
183.14 0 l
o
np
54.20 199.41 m
183.14 0 l
o
np
54.20 227.24 m
183.14 0 l
o
np
62.35 31.54 m
0 202.23 l
o
np
104.02 31.54 m
0 202.23 l
o
np
145.69 31.54 m
0 202.23 l
o
np
187.35 31.54 m
0 202.23 l
o
np
229.02 31.54 m
0 202.23 l
o
0.9725 0.4627 0.4275 srgb
1.00 setmiterlimit
np
62.52 86.69 m
0.33 1.42 l
0.34 0 l
0.33 0 l
0.33 0 l
0.34 0 l
0.33 0 l
0.34 0 l
0.33 0 l
0.33 0 l
0.34 0.01 l
0.33 0.01 l
0.33 0.02 l
0.34 0.04 l
0.33 0.07 l
0.34 0.10 l
0.33 0.15 l
0.33 0.21 l
0.34 0.27 l
0.33 0.34 l
0.33 0.42 l
0.34 0.49 l
0.33 0.58 l
0.33 0.67 l
0.34 0.75 l
0.33 0.83 l
0.34 0.91 l
0.33 0.99 l
0.33 1.07 l
0.34 1.13 l
0.33 1.20 l
0.33 1.26 l
0.34 1.31 l
0.33 1.37 l
0.33 1.41 l
0.34 1.45 l
0.33 1.49 l
0.34 1.52 l
0.33 1.55 l
0.33 1.57 l
0.34 1.59 l
0.33 1.61 l
0.33 1.62 l
0.34 1.63 l
0.33 1.64 l
0.33 1.64 l
0.34 1.64 l
0.33 1.64 l
0.34 1.64 l
0.33 1.63 l
0.33 1.63 l
0.34 1.61 l
0.33 1.61 l
0.33 1.59 l
0.34 1.58 l
0.33 1.57 l
0.34 1.55 l
0.33 1.54 l
0.33 1.52 l
0.34 1.50 l
0.33 1.49 l
0.33 1.46 l
0.34 1.45 l
0.33 1.43 l
0.33 1.41 l
0.34 1.39 l
0.33 1.36 l
0.34 1.35 l
0.33 1.33 l
0.33 1.31 l
0.34 1.29 l
0.33 1.26 l
0.33 1.25 l
0.34 1.22 l
0.33 1.21 l
0.33 1.19 l
0.34 1.16 l
0.33 1.15 l
0.34 1.12 l
0.33 1.11 l
0.33 1.08 l
0.34 1.07 l
0.33 1.05 l
0.33 1.03 l
0.34 1.01 l
0.33 0.99 l
0.34 0.98 l
0.33 0.96 l
0.33 0.94 l
0.34 0.92 l
0.33 0.90 l
0.33 0.89 l
0.34 0.87 l
0.33 0.86 l
0.33 0.84 l
0.34 0.82 l
0.33 0.81 l
0.34 0.79 l
0.33 0.78 l
0.33 0.76 l
95.89 188.32 lineto
0.33 0.73 l
0.33 0.72 l
0.34 0.70 l
0.33 0.70 l
0.33 0.67 l
0.34 0.67 l
0.33 0.65 l
0.34 0.64 l
0.33 0.63 l
0.33 0.61 l
0.34 0.61 l
0.33 0.59 l
0.33 0.58 l
0.34 0.57 l
0.33 0.56 l
0.34 0.54 l
0.33 0.54 l
0.33 0.52 l
0.34 0.52 l
0.33 0.50 l
0.33 0.50 l
0.34 0.48 l
0.33 0.48 l
0.33 0.46 l
0.34 0.46 l
0.33 0.45 l
0.34 0.44 l
0.33 0.43 l
0.33 0.42 l
0.34 0.42 l
0.33 0.40 l
0.33 0.40 l
0.34 0.39 l
0.33 0.38 l
0.33 0.37 l
0.34 0.37 l
0.33 0.36 l
0.34 0.35 l
0.33 0.35 l
0.33 0.34 l
0.34 0.33 l
0.33 0.32 l
0.33 0.32 l
0.34 0.31 l
0.33 0.31 l
0.34 0.30 l
0.33 0.29 l
0.33 0.29 l
0.34 0.28 l
0.33 0.28 l
0.33 0.27 l
0.34 0.27 l
0.33 0.26 l
0.33 0.25 l
0.34 0.25 l
0.33 0.25 l
0.34 0.24 l
0.33 0.23 l
0.33 0.24 l
0.34 0.22 l
0.33 0.22 l
0.33 0.22 l
0.34 0.21 l
0.33 0.21 l
0.33 0.20 l
0.34 0.20 l
0.33 0.20 l
0.34 0.19 l
0.33 0.19 l
0.33 0.19 l
0.34 0.18 l
0.33 0.17 l
0.33 0.18 l
0.34 0.17 l
0.33 0.16 l
0.33 0.17 l
0.34 0.16 l
0.33 0.15 l
0.34 0.16 l
0.33 0.15 l
0.33 0.14 l
0.34 0.15 l
0.33 0.14 l
0.33 0.14 l
0.34 0.13 l
0.33 0.13 l
0.34 0.13 l
0.33 0.13 l
0.33 0.13 l
0.34 0.12 l
0.33 0.12 l
0.33 0.12 l
0.34 0.11 l
0.33 0.11 l
0.33 0.11 l
0.34 0.11 l
0.33 0.11 l
0.34 0.10 l
0.33 0.10 l
129.25 220.44 lineto
0.34 0.10 l
0.33 0.09 l
0.33 0.10 l
0.34 0.09 l
0.33 0.09 l
0.33 0.08 l
0.34 0.09 l
0.33 0.08 l
0.34 0.09 l
0.33 0.08 l
0.33 0.08 l
0.34 0.07 l
0.33 0.08 l
0.33 0.07 l
0.34 0.07 l
0.33 0.07 l
0.34 0.07 l
0.33 0.07 l
0.33 0.07 l
0.34 0.06 l
0.33 0.07 l
0.33 0.06 l
0.34 0.06 l
0.33 0.06 l
0.33 0.06 l
0.34 0.05 l
0.33 0.06 l
0.34 0.05 l
0.33 0.06 l
0.33 0.05 l
0.34 0.05 l
0.33 0.05 l
0.33 0.05 l
0.34 0.05 l
0.33 0.04 l
0.33 0.05 l
0.34 0.05 l
0.33 0.04 l
0.34 0.04 l
0.33 0.04 l
0.33 0.04 l
0.34 0.04 l
0.33 0.04 l
0.33 0.04 l
0.34 0.04 l
0.33 0.04 l
0.34 0.03 l
0.33 0.04 l
0.33 0.03 l
0.34 0.03 l
0.33 0.04 l
0.33 0.03 l
0.34 0.03 l
0.33 0.03 l
0.33 0.03 l
0.34 0.03 l
0.33 0.03 l
0.34 0.03 l
0.33 0.02 l
0.33 0.03 l
0.34 0.02 l
0.33 0.03 l
0.33 0.02 l
0.34 0.03 l
0.33 0.02 l
0.33 0.02 l
0.34 0.03 l
0.33 0.02 l
0.34 0.02 l
0.33 0.02 l
0.33 0.02 l
0.34 0.02 l
0.33 0.02 l
0.33 0.02 l
0.34 0.02 l
0.33 0.01 l
0.34 0.02 l
0.33 0.02 l
0.33 0.01 l
0.34 0.02 l
0.33 0.01 l
0.33 0.02 l
0.34 0.01 l
0.33 0.02 l
0.33 0.01 l
0.34 0.02 l
0.33 0.01 l
0.34 0.01 l
0.33 0.01 l
0.33 0.02 l
0.34 0.01 l
0.33 0.01 l
0.33 0.01 l
0.34 0.01 l
0.33 0.01 l
0.33 0.01 l
0.34 0.01 l
0.33 0.01 l
0.34 0.01 l
162.62 224.40 lineto
0.33 0.01 l
0.34 0.01 l
0.33 0 l
0.33 0.01 l
0.34 0.01 l
0.33 0.01 l
0.33 0 l
0.34 0.01 l
0.33 0.01 l
0.34 0 l
0.33 0.01 l
0.33 0.01 l
0.34 0 l
0.33 0.01 l
0.33 0 l
0.34 0.01 l
0.33 0 l
0.34 0.01 l
0.33 0 l
0.33 0.01 l
0.34 0 l
0.33 0 l
0.33 0.01 l
0.34 0 l
0.33 0 l
0.33 0.01 l
0.34 0 l
0.33 0 l
0.34 0.01 l
0.33 0 l
0.33 0 l
0.34 0 l
0.33 0 l
0.33 0.01 l
0.34 0 l
0.33 0 l
0.33 0 l
0.34 0 l
0.33 0 l
0.34 0 l
0.33 0.01 l
0.33 0 l
0.34 0 l
0.33 0 l
0.33 0 l
0.34 0 l
0.33 0 l
0.34 0 l
0.33 0 l
0.33 0 l
0.34 0 l
0.33 0 l
0.33 0 l
0.34 0 l
0.33 0 l
0.33 0 l
0.34 -0.01 l
0.33 0 l
0.34 0 l
0.33 0 l
0.33 0 l
0.34 0 l
0.33 0 l
0.33 0 l
0.34 0 l
0.33 -0.01 l
0.33 0 l
0.34 0 l
0.33 0 l
0.34 0 l
0.33 -0.01 l
0.33 0 l
0.34 0 l
0.33 0 l
0.33 0 l
0.34 -0.01 l
0.33 0 l
0.34 0 l
0.33 0 l
0.33 -0.01 l
0.34 0 l
0.33 0 l
0.33 0 l
0.34 -0.01 l
0.33 0 l
0.33 0 l
0.34 0 l
0.33 -0.01 l
0.34 0 l
0.33 0 l
0.33 -0.01 l
0.34 0 l
0.33 0 l
0.33 -0.01 l
0.34 0 l
0.33 0 l
0.33 -0.01 l
0.34 0 l
0.33 0 l
195.99 224.47 lineto
0.33 0 l
0.33 0 l
0.34 -0.01 l
0.33 0 l
0.33 0 l
0.34 -0.01 l
0.33 0 l
0.34 -0.01 l
0.33 0 l
0.33 0 l
0.34 -0.01 l
0.33 0 l
0.33 -0.01 l
0.34 0 l
0.33 0 l
0.33 -0.01 l
0.34 0 l
0.33 -0.01 l
0.34 0 l
0.33 0 l
0.33 -0.01 l
0.34 0 l
0.33 -0.01 l
0.33 0 l
0.34 0 l
0.33 -0.01 l
0.33 0 l
0.34 -0.01 l
0.33 0 l
0.34 -0.01 l
0.33 0 l
0.33 0 l
0.34 -0.01 l
0.33 0 l
0.33 -0.01 l
0.34 0 l
0.33 -0.01 l
0.33 0 l
0.34 -0.01 l
0.33 0 l
0.34 -0.01 l
0.33 0 l
0.33 0 l
0.34 -0.01 l
0.33 0 l
0.33 -0.01 l
0.34 0 l
0.33 -0.01 l
0.34 0 l
0.33 -0.01 l
0.33 0 l
0.34 -0.01 l
0.33 0 l
0.33 -0.01 l
0.34 0 l
0.33 -0.01 l
0.33 0 l
0.34 -0.01 l
0.33 0 l
0.34 0 l
0.33 -0.01 l
0.33 0 l
0.34 -0.01 l
0.33 0 l
0.33 -0.01 l
0.34 0 l
0.33 -0.01 l
0.33 0 l
0.34 -0.01 l
0.33 0 l
0.34 -0.01 l
0.33 0 l
0.33 -0.01 l
0.34 0 l
0.33 -0.01 l
0.33 0 l
0.34 -0.01 l
0.33 0 l
0.34 -0.01 l
0.33 0 l
0.33 -0.01 l
0.34 0 l
0.33 -0.01 l
0.33 0 l
0.34 -0.01 l
0.33 0 l
0.33 -0.01 l
0.34 0 l
0.33 -0.01 l
0.34 0 l
0.33 -0.01 l
0.33 0 l
0.34 -0.01 l
0.33 -0.01 l
0.33 0 l
0.34 -0.01 l
0.33 0 l
0.33 -0.01 l
0.34 0 l
o
1.07 setlinewidth
[ 2.13 2.13] 0 setdash
np
62.52 89.52 m
0.33 -1.41 l
0.34 0 l
0.33 0 l
0.33 0 l
0.34 0 l
0.33 0 l
0.34 0 l
0.33 0.01 l
0.33 0.01 l
0.34 0.05 l
0.33 0.11 l
0.33 0.20 l
0.34 0.34 l
0.33 0.52 l
0.34 0.73 l
0.33 0.98 l
0.33 1.23 l
0.34 1.49 l
0.33 1.76 l
0.33 1.99 l
0.34 2.23 l
0.33 2.42 l
0.33 2.61 l
0.34 2.74 l
0.33 2.87 l
0.34 2.96 l
0.33 3.02 l
0.33 3.06 l
0.34 3.07 l
0.33 3.07 l
0.33 3.03 l
0.34 3.00 l
0.33 2.93 l
0.33 2.87 l
0.34 2.78 l
0.33 2.70 l
0.34 2.60 l
0.33 2.50 l
0.33 2.39 l
0.34 2.28 l
0.33 2.18 l
0.33 2.06 l
0.34 1.95 l
0.33 1.83 l
0.33 1.73 l
0.34 1.62 l
0.33 1.51 l
0.34 1.40 l
0.33 1.30 l
0.33 1.21 l
0.34 1.10 l
0.33 1.01 l
0.33 0.93 l
0.34 0.83 l
0.33 0.75 l
0.34 0.67 l
0.33 0.59 l
0.33 0.52 l
0.34 0.44 l
0.33 0.38 l
0.33 0.31 l
0.34 0.25 l
0.33 0.19 l
0.33 0.13 l
0.34 0.08 l
0.33 0.03 l
0.34 -0.02 l
0.33 -0.07 l
0.33 -0.11 l
0.34 -0.15 l
0.33 -0.19 l
0.33 -0.23 l
0.34 -0.27 l
0.33 -0.30 l
0.33 -0.33 l
0.34 -0.36 l
0.33 -0.38 l
0.34 -0.42 l
0.33 -0.43 l
0.33 -0.47 l
0.34 -0.48 l
0.33 -0.50 l
0.33 -0.53 l
0.34 -0.54 l
0.33 -0.55 l
0.34 -0.58 l
0.33 -0.58 l
0.33 -0.60 l
0.34 -0.62 l
0.33 -0.62 l
0.33 -0.64 l
0.34 -0.64 l
0.33 -0.66 l
0.33 -0.66 l
0.34 -0.67 l
0.33 -0.67 l
0.34 -0.69 l
0.33 -0.68 l
0.33 -0.69 l
95.89 161.63 lineto
0.33 -0.70 l
0.33 -0.70 l
0.34 -0.71 l
0.33 -0.71 l
0.33 -0.71 l
0.34 -0.71 l
0.33 -0.71 l
0.34 -0.71 l
0.33 -0.71 l
0.33 -0.71 l
0.34 -0.71 l
0.33 -0.72 l
0.33 -0.70 l
0.34 -0.71 l
0.33 -0.71 l
0.34 -0.70 l
0.33 -0.70 l
0.33 -0.70 l
0.34 -0.70 l
0.33 -0.69 l
0.33 -0.69 l
0.34 -0.69 l
0.33 -0.69 l
0.33 -0.68 l
0.34 -0.67 l
0.33 -0.68 l
0.34 -0.67 l
0.33 -0.66 l
0.33 -0.66 l
0.34 -0.66 l
0.33 -0.65 l
0.33 -0.65 l
0.34 -0.64 l
0.33 -0.64 l
0.33 -0.63 l
0.34 -0.63 l
0.33 -0.63 l
0.34 -0.61 l
0.33 -0.62 l
0.33 -0.61 l
0.34 -0.60 l
0.33 -0.60 l
0.33 -0.59 l
0.34 -0.59 l
0.33 -0.58 l
0.34 -0.58 l
0.33 -0.57 l
0.33 -0.57 l
0.34 -0.56 l
0.33 -0.56 l
0.33 -0.55 l
0.34 -0.55 l
0.33 -0.54 l
0.33 -0.53 l
0.34 -0.53 l
0.33 -0.52 l
0.34 -0.52 l
0.33 -0.52 l
0.33 -0.50 l
0.34 -0.51 l
0.33 -0.49 l
0.33 -0.50 l
0.34 -0.48 l
0.33 -0.49 l
0.33 -0.47 l
0.34 -0.47 l
0.33 -0.47 l
0.34 -0.46 l
0.33 -0.45 l
0.33 -0.46 l
0.34 -0.44 l
0.33 -0.44 l
0.33 -0.44 l
0.34 -0.43 l
0.33 -0.42 l
0.33 -0.42 l
0.34 -0.42 l
0.33 -0.41 l
0.34 -0.40 l
0.33 -0.40 l
0.33 -0.40 l
0.34 -0.39 l
0.33 -0.39 l
0.33 -0.38 l
0.34 -0.37 l
0.33 -0.38 l
0.34 -0.36 l
0.33 -0.37 l
0.33 -0.36 l
0.34 -0.35 l
0.33 -0.35 l
0.33 -0.34 l
0.34 -0.35 l
0.33 -0.33 l
0.33 -0.33 l
0.34 -0.33 l
0.33 -0.33 l
0.34 -0.32 l
0.33 -0.31 l
129.25 107.37 lineto
0.34 -0.31 l
0.33 -0.31 l
0.33 -0.29 l
0.34 -0.30 l
0.33 -0.29 l
0.33 -0.29 l
0.34 -0.28 l
0.33 -0.29 l
0.34 -0.27 l
0.33 -0.28 l
0.33 -0.26 l
0.34 -0.27 l
0.33 -0.26 l
0.33 -0.26 l
0.34 -0.26 l
0.33 -0.25 l
0.34 -0.25 l
0.33 -0.24 l
0.33 -0.24 l
0.34 -0.24 l
0.33 -0.24 l
0.33 -0.23 l
0.34 -0.23 l
0.33 -0.22 l
0.33 -0.23 l
0.34 -0.22 l
0.33 -0.21 l
0.34 -0.22 l
0.33 -0.21 l
0.33 -0.20 l
0.34 -0.21 l
0.33 -0.20 l
0.33 -0.20 l
0.34 -0.20 l
0.33 -0.19 l
0.33 -0.19 l
0.34 -0.19 l
0.33 -0.18 l
0.34 -0.19 l
0.33 -0.18 l
0.33 -0.17 l
0.34 -0.18 l
0.33 -0.17 l
0.33 -0.17 l
0.34 -0.17 l
0.33 -0.17 l
0.34 -0.16 l
0.33 -0.16 l
0.33 -0.16 l
0.34 -0.15 l
0.33 -0.16 l
0.33 -0.15 l
0.34 -0.15 l
0.33 -0.15 l
0.33 -0.14 l
0.34 -0.15 l
0.33 -0.14 l
0.34 -0.14 l
0.33 -0.13 l
0.33 -0.14 l
0.34 -0.13 l
0.33 -0.13 l
0.33 -0.13 l
0.34 -0.13 l
0.33 -0.13 l
0.33 -0.12 l
0.34 -0.12 l
0.33 -0.12 l
0.34 -0.12 l
0.33 -0.12 l
0.33 -0.11 l
0.34 -0.11 l
0.33 -0.12 l
0.33 -0.11 l
0.34 -0.11 l
0.33 -0.10 l
0.34 -0.11 l
0.33 -0.10 l
0.33 -0.10 l
0.34 -0.10 l
0.33 -0.10 l
0.33 -0.10 l
0.34 -0.10 l
0.33 -0.09 l
0.33 -0.10 l
0.34 -0.09 l
0.33 -0.09 l
0.34 -0.09 l
0.33 -0.09 l
0.33 -0.08 l
0.34 -0.09 l
0.33 -0.08 l
0.33 -0.09 l
0.34 -0.08 l
0.33 -0.08 l
0.33 -0.08 l
0.34 -0.08 l
0.33 -0.08 l
0.34 -0.07 l
162.62 90.62 lineto
0.33 -0.07 l
0.34 -0.07 l
0.33 -0.08 l
0.33 -0.07 l
0.34 -0.07 l
0.33 -0.06 l
0.33 -0.07 l
0.34 -0.07 l
0.33 -0.06 l
0.34 -0.07 l
0.33 -0.06 l
0.33 -0.07 l
0.34 -0.06 l
0.33 -0.06 l
0.33 -0.06 l
0.34 -0.06 l
0.33 -0.06 l
0.34 -0.05 l
0.33 -0.06 l
0.33 -0.06 l
0.34 -0.05 l
0.33 -0.06 l
0.33 -0.05 l
0.34 -0.05 l
0.33 -0.05 l
0.33 -0.05 l
0.34 -0.05 l
0.33 -0.05 l
0.34 -0.05 l
0.33 -0.05 l
0.33 -0.05 l
0.34 -0.05 l
0.33 -0.04 l
0.33 -0.05 l
0.34 -0.04 l
0.33 -0.05 l
0.33 -0.04 l
0.34 -0.04 l
0.33 -0.05 l
0.34 -0.04 l
0.33 -0.04 l
0.33 -0.04 l
0.34 -0.04 l
0.33 -0.04 l
0.33 -0.04 l
0.34 -0.04 l
0.33 -0.03 l
0.34 -0.04 l
0.33 -0.04 l
0.33 -0.03 l
0.34 -0.04 l
0.33 -0.03 l
0.33 -0.04 l
0.34 -0.03 l
0.33 -0.04 l
0.33 -0.03 l
0.34 -0.03 l
0.33 -0.04 l
0.34 -0.03 l
0.33 -0.03 l
0.33 -0.03 l
0.34 -0.03 l
0.33 -0.03 l
0.33 -0.03 l
0.34 -0.03 l
0.33 -0.03 l
0.33 -0.03 l
0.34 -0.03 l
0.33 -0.02 l
0.34 -0.03 l
0.33 -0.03 l
0.33 -0.03 l
0.34 -0.02 l
0.33 -0.03 l
0.33 -0.02 l
0.34 -0.03 l
0.33 -0.02 l
0.34 -0.03 l
0.33 -0.02 l
0.33 -0.03 l
0.34 -0.02 l
0.33 -0.02 l
0.33 -0.03 l
0.34 -0.02 l
0.33 -0.02 l
0.33 -0.02 l
0.34 -0.03 l
0.33 -0.02 l
0.34 -0.02 l
0.33 -0.02 l
0.33 -0.02 l
0.34 -0.02 l
0.33 -0.02 l
0.33 -0.02 l
0.34 -0.02 l
0.33 -0.02 l
0.33 -0.02 l
0.34 -0.02 l
0.33 -0.02 l
195.99 86.68 lineto
0.33 -0.02 l
0.33 -0.01 l
0.34 -0.02 l
0.33 -0.02 l
0.33 -0.02 l
0.34 -0.01 l
0.33 -0.02 l
0.34 -0.02 l
0.33 -0.02 l
0.33 -0.01 l
0.34 -0.02 l
0.33 -0.01 l
0.33 -0.02 l
0.34 -0.02 l
0.33 -0.01 l
0.33 -0.02 l
0.34 -0.01 l
0.33 -0.02 l
0.34 -0.01 l
0.33 -0.02 l
0.33 -0.01 l
0.34 -0.02 l
0.33 -0.01 l
0.33 -0.02 l
0.34 -0.01 l
0.33 -0.01 l
0.33 -0.02 l
0.34 -0.01 l
0.33 -0.01 l
0.34 -0.02 l
0.33 -0.01 l
0.33 -0.01 l
0.34 -0.02 l
0.33 -0.01 l
0.33 -0.01 l
0.34 -0.01 l
0.33 -0.02 l
0.33 -0.01 l
0.34 -0.01 l
0.33 -0.01 l
0.34 -0.01 l
0.33 -0.02 l
0.33 -0.01 l
0.34 -0.01 l
0.33 -0.01 l
0.33 -0.01 l
0.34 -0.01 l
0.33 -0.01 l
0.34 -0.02 l
0.33 -0.01 l
0.33 -0.01 l
0.34 -0.01 l
0.33 -0.01 l
0.33 -0.01 l
0.34 -0.01 l
0.33 -0.01 l
0.33 -0.01 l
0.34 -0.01 l
0.33 -0.01 l
0.34 -0.01 l
0.33 -0.01 l
0.33 -0.01 l
0.34 -0.01 l
0.33 -0.01 l
0.33 -0.01 l
0.34 -0.01 l
0.33 -0.01 l
0.33 -0.01 l
0.34 -0.01 l
0.33 -0.01 l
0.34 -0.01 l
0.33 -0.01 l
0.33 0 l
0.34 -0.01 l
0.33 -0.01 l
0.33 -0.01 l
0.34 -0.01 l
0.33 -0.01 l
0.34 -0.01 l
0.33 -0.01 l
0.33 0 l
0.34 -0.01 l
0.33 -0.01 l
0.33 -0.01 l
0.34 -0.01 l
0.33 -0.01 l
0.33 -0.01 l
0.34 0 l
0.33 -0.01 l
0.34 -0.01 l
0.33 -0.01 l
0.33 -0.01 l
0.34 0 l
0.33 -0.01 l
0.33 -0.01 l
0.34 -0.01 l
0.33 -0.01 l
0.33 0 l
0.34 -0.01 l
o
1.07 setlinewidth
[ 4.27 2.13] 0 setdash
np
62.52 88.11 m
0.33 0 l
0.34 0 l
0.33 0 l
0.33 0 l
0.34 0 l
0.33 0 l
0.34 0 l
0.33 0 l
0.33 0 l
0.34 0 l
0.33 0 l
0.33 0 l
0.34 0 l
0.33 0 l
0.34 0 l
0.33 0 l
0.33 0 l
0.34 0 l
0.33 0 l
0.33 0 l
0.34 0 l
0.33 0 l
0.33 0 l
0.34 -0.01 l
0.33 0 l
0.34 0 l
0.33 0 l
0.33 -0.01 l
0.34 0 l
0.33 0 l
0.33 -0.01 l
0.34 0 l
0.33 0 l
0.33 -0.01 l
0.34 0 l
0.33 -0.01 l
0.34 0 l
0.33 -0.01 l
0.33 0 l
0.34 -0.01 l
0.33 -0.01 l
0.33 0 l
0.34 -0.01 l
0.33 -0.01 l
0.33 0 l
0.34 -0.01 l
0.33 -0.01 l
0.34 -0.01 l
0.33 0 l
0.33 -0.01 l
0.34 -0.01 l
0.33 -0.01 l
0.33 -0.01 l
0.34 -0.01 l
0.33 0 l
0.34 -0.01 l
0.33 -0.01 l
0.33 -0.01 l
0.34 -0.01 l
0.33 -0.01 l
0.33 -0.01 l
0.34 -0.01 l
0.33 -0.01 l
0.33 -0.01 l
0.34 -0.01 l
0.33 -0.01 l
0.34 -0.01 l
0.33 -0.01 l
0.33 -0.01 l
0.34 -0.01 l
0.33 -0.01 l
0.33 -0.01 l
0.34 -0.01 l
0.33 -0.01 l
0.33 -0.01 l
0.34 -0.01 l
0.33 -0.01 l
0.34 -0.01 l
0.33 -0.01 l
0.33 -0.01 l
0.34 -0.01 l
0.33 -0.01 l
0.33 -0.01 l
0.34 -0.01 l
0.33 -0.01 l
0.34 -0.01 l
0.33 -0.01 l
0.33 -0.01 l
0.34 -0.01 l
0.33 -0.01 l
0.33 -0.01 l
0.34 -0.01 l
0.33 -0.01 l
0.33 -0.01 l
0.34 -0.01 l
0.33 -0.01 l
0.34 -0.01 l
0.33 -0.01 l
0.33 -0.01 l
95.89 87.48 lineto
0.33 -0.01 l
0.33 -0.01 l
0.34 -0.01 l
0.33 -0.01 l
0.33 -0.01 l
0.34 -0.01 l
0.33 -0.01 l
0.34 -0.01 l
0.33 -0.01 l
0.33 -0.01 l
0.34 -0.01 l
0.33 -0.01 l
0.33 -0.01 l
0.34 -0.01 l
0.33 -0.01 l
0.34 -0.01 l
0.33 -0.01 l
0.33 -0.01 l
0.34 0 l
0.33 -0.01 l
0.33 -0.01 l
0.34 -0.01 l
0.33 -0.01 l
0.33 -0.01 l
0.34 -0.01 l
0.33 -0.01 l
0.34 -0.01 l
0.33 -0.01 l
0.33 -0.01 l
0.34 0 l
0.33 -0.01 l
0.33 -0.01 l
0.34 -0.01 l
0.33 -0.01 l
0.33 -0.01 l
0.34 -0.01 l
0.33 -0.01 l
0.34 -0.01 l
0.33 0 l
0.33 -0.01 l
0.34 -0.01 l
0.33 -0.01 l
0.33 -0.01 l
0.34 -0.01 l
0.33 -0.01 l
0.34 0 l
0.33 -0.01 l
0.33 -0.01 l
0.34 -0.01 l
0.33 -0.01 l
0.33 0 l
0.34 -0.01 l
0.33 -0.01 l
0.33 -0.01 l
0.34 -0.01 l
0.33 -0.01 l
0.34 0 l
0.33 -0.01 l
0.33 -0.01 l
0.34 -0.01 l
0.33 -0.01 l
0.33 0 l
0.34 -0.01 l
0.33 -0.01 l
0.33 -0.01 l
0.34 0 l
0.33 -0.01 l
0.34 -0.01 l
0.33 -0.01 l
0.33 -0.01 l
0.34 0 l
0.33 -0.01 l
0.33 -0.01 l
0.34 -0.01 l
0.33 0 l
0.33 -0.01 l
0.34 -0.01 l
0.33 -0.01 l
0.34 0 l
0.33 -0.01 l
0.33 -0.01 l
0.34 0 l
0.33 -0.01 l
0.33 -0.01 l
0.34 -0.01 l
0.33 0 l
0.34 -0.01 l
0.33 -0.01 l
0.33 -0.01 l
0.34 0 l
0.33 -0.01 l
0.33 -0.01 l
0.34 0 l
0.33 -0.01 l
0.33 -0.01 l
0.34 0 l
0.33 -0.01 l
0.34 -0.01 l
0.33 -0.01 l
129.25 86.65 lineto
0.34 -0.01 l
0.33 -0.01 l
0.33 0 l
0.34 -0.01 l
0.33 -0.01 l
0.33 0 l
0.34 -0.01 l
0.33 -0.01 l
0.34 0 l
0.33 -0.01 l
0.33 -0.01 l
0.34 0 l
0.33 -0.01 l
0.33 -0.01 l
0.34 0 l
0.33 -0.01 l
0.34 -0.01 l
0.33 0 l
0.33 -0.01 l
0.34 -0.01 l
0.33 0 l
0.33 -0.01 l
0.34 -0.01 l
0.33 0 l
0.33 -0.01 l
0.34 0 l
0.33 -0.01 l
0.34 -0.01 l
0.33 0 l
0.33 -0.01 l
0.34 -0.01 l
0.33 0 l
0.33 -0.01 l
0.34 -0.01 l
0.33 0 l
0.33 -0.01 l
0.34 0 l
0.33 -0.01 l
0.34 -0.01 l
0.33 0 l
0.33 -0.01 l
0.34 -0.01 l
0.33 0 l
0.33 -0.01 l
0.34 0 l
0.33 -0.01 l
0.34 -0.01 l
0.33 0 l
0.33 -0.01 l
0.34 0 l
0.33 -0.01 l
0.33 -0.01 l
0.34 0 l
0.33 -0.01 l
0.33 0 l
0.34 -0.01 l
0.33 -0.01 l
0.34 0 l
0.33 -0.01 l
0.33 0 l
0.34 -0.01 l
0.33 -0.01 l
0.33 0 l
0.34 -0.01 l
0.33 0 l
0.33 -0.01 l
0.34 -0.01 l
0.33 0 l
0.34 -0.01 l
0.33 0 l
0.33 -0.01 l
0.34 -0.01 l
0.33 0 l
0.33 -0.01 l
0.34 0 l
0.33 -0.01 l
0.34 -0.01 l
0.33 0 l
0.33 -0.01 l
0.34 0 l
0.33 -0.01 l
0.33 0 l
0.34 -0.01 l
0.33 -0.01 l
0.33 0 l
0.34 -0.01 l
0.33 0 l
0.34 -0.01 l
0.33 -0.01 l
0.33 0 l
0.34 -0.01 l
0.33 0 l
0.33 -0.01 l
0.34 0 l
0.33 -0.01 l
0.33 -0.01 l
0.34 0 l
0.33 -0.01 l
0.34 0 l
162.62 86.03 lineto
0.33 0 l
0.34 -0.01 l
0.33 -0.01 l
0.33 0 l
0.34 -0.01 l
0.33 0 l
0.33 -0.01 l
0.34 0 l
0.33 -0.01 l
0.34 0 l
0.33 -0.01 l
0.33 -0.01 l
0.34 0 l
0.33 -0.01 l
0.33 0 l
0.34 -0.01 l
0.33 0 l
0.34 -0.01 l
0.33 -0.01 l
0.33 0 l
0.34 -0.01 l
0.33 0 l
0.33 -0.01 l
0.34 0 l
0.33 -0.01 l
0.33 0 l
0.34 -0.01 l
0.33 -0.01 l
0.34 0 l
0.33 -0.01 l
0.33 0 l
0.34 -0.01 l
0.33 0 l
0.33 -0.01 l
0.34 0 l
0.33 -0.01 l
0.33 -0.01 l
0.34 0 l
0.33 -0.01 l
0.34 0 l
0.33 -0.01 l
0.33 0 l
0.34 -0.01 l
0.33 0 l
0.33 -0.01 l
0.34 -0.01 l
0.33 0 l
0.34 -0.01 l
0.33 0 l
0.33 -0.01 l
0.34 0 l
0.33 -0.01 l
0.33 0 l
0.34 -0.01 l
0.33 0 l
0.33 -0.01 l
0.34 -0.01 l
0.33 0 l
0.34 -0.01 l
0.33 0 l
0.33 -0.01 l
0.34 0 l
0.33 -0.01 l
0.33 0 l
0.34 -0.01 l
0.33 -0.01 l
0.33 0 l
0.34 -0.01 l
0.33 0 l
0.34 -0.01 l
0.33 0 l
0.33 -0.01 l
0.34 0 l
0.33 -0.01 l
0.33 0 l
0.34 -0.01 l
0.33 -0.01 l
0.34 0 l
0.33 -0.01 l
0.33 0 l
0.34 -0.01 l
0.33 0 l
0.33 -0.01 l
0.34 0 l
0.33 -0.01 l
0.33 0 l
0.34 -0.01 l
0.33 0 l
0.34 -0.01 l
0.33 -0.01 l
0.33 0 l
0.34 -0.01 l
0.33 0 l
0.33 -0.01 l
0.34 0 l
0.33 -0.01 l
0.33 0 l
0.34 -0.01 l
0.33 0 l
195.99 85.48 lineto
0.33 0 l
0.33 -0.01 l
0.34 -0.01 l
0.33 0 l
0.33 -0.01 l
0.34 0 l
0.33 -0.01 l
0.34 0 l
0.33 -0.01 l
0.33 0 l
0.34 -0.01 l
0.33 0 l
0.33 -0.01 l
0.34 -0.01 l
0.33 0 l
0.33 -0.01 l
0.34 0 l
0.33 -0.01 l
0.34 0 l
0.33 -0.01 l
0.33 0 l
0.34 -0.01 l
0.33 0 l
0.33 -0.01 l
0.34 0 l
0.33 -0.01 l
0.33 0 l
0.34 -0.01 l
0.33 -0.01 l
0.34 0 l
0.33 -0.01 l
0.33 0 l
0.34 -0.01 l
0.33 0 l
0.33 -0.01 l
0.34 0 l
0.33 -0.01 l
0.33 0 l
0.34 -0.01 l
0.33 0 l
0.34 -0.01 l
0.33 -0.01 l
0.33 0 l
0.34 -0.01 l
0.33 0 l
0.33 -0.01 l
0.34 0 l
0.33 -0.01 l
0.34 0 l
0.33 -0.01 l
0.33 0 l
0.34 -0.01 l
0.33 0 l
0.33 -0.01 l
0.34 0 l
0.33 -0.01 l
0.33 -0.01 l
0.34 0 l
0.33 -0.01 l
0.34 0 l
0.33 -0.01 l
0.33 0 l
0.34 -0.01 l
0.33 0 l
0.33 -0.01 l
0.34 0 l
0.33 -0.01 l
0.33 0 l
0.34 -0.01 l
0.33 0 l
0.34 -0.01 l
0.33 -0.01 l
0.33 0 l
0.34 -0.01 l
0.33 0 l
0.33 -0.01 l
0.34 0 l
0.33 -0.01 l
0.34 0 l
0.33 -0.01 l
0.33 0 l
0.34 -0.01 l
0.33 0 l
0.33 -0.01 l
0.34 0 l
0.33 -0.01 l
0.33 -0.01 l
0.34 0 l
0.33 -0.01 l
0.34 0 l
0.33 -0.01 l
0.33 0 l
0.34 -0.01 l
0.33 0 l
0.33 -0.01 l
0.34 0 l
0.33 -0.01 l
0.33 0 l
0.34 -0.01 l
o
0.4863 0.6824 0 srgb
1.07 setlinewidth
[] 0 setdash
np
62.52 86.69 m
0.33 1.42 l
0.34 0 l
0.33 0 l
0.33 0 l
0.34 0 l
0.33 0 l
0.34 0 l
0.33 0 l
0.33 0 l
0.34 0.01 l
0.33 0.01 l
0.33 0.02 l
0.34 0.04 l
0.33 0.07 l
0.34 0.10 l
0.33 0.15 l
0.33 0.20 l
0.34 0.27 l
0.33 0.33 l
0.33 0.41 l
0.34 0.49 l
0.33 0.57 l
0.33 0.66 l
0.34 0.73 l
0.33 0.82 l
0.34 0.89 l
0.33 0.97 l
0.33 1.04 l
0.34 1.11 l
0.33 1.17 l
0.33 1.23 l
0.34 1.28 l
0.33 1.32 l
0.33 1.38 l
0.34 1.41 l
0.33 1.44 l
0.34 1.48 l
0.33 1.50 l
0.33 1.52 l
0.34 1.54 l
0.33 1.55 l
0.33 1.56 l
0.34 1.57 l
0.33 1.58 l
0.33 1.58 l
0.34 1.58 l
0.33 1.57 l
0.34 1.57 l
0.33 1.56 l
0.33 1.56 l
0.34 1.54 l
0.33 1.53 l
0.33 1.52 l
0.34 1.51 l
0.33 1.49 l
0.34 1.47 l
0.33 1.46 l
0.33 1.44 l
0.34 1.42 l
0.33 1.41 l
0.33 1.38 l
0.34 1.37 l
0.33 1.34 l
0.33 1.33 l
0.34 1.30 l
0.33 1.28 l
0.34 1.27 l
0.33 1.24 l
0.33 1.22 l
0.34 1.20 l
0.33 1.18 l
0.33 1.16 l
0.34 1.14 l
0.33 1.12 l
0.33 1.09 l
0.34 1.08 l
0.33 1.06 l
0.34 1.04 l
0.33 1.02 l
0.33 0.99 l
0.34 0.98 l
0.33 0.97 l
0.33 0.94 l
0.34 0.92 l
0.33 0.91 l
0.34 0.88 l
0.33 0.87 l
0.33 0.85 l
0.34 0.84 l
0.33 0.82 l
0.33 0.80 l
0.34 0.78 l
0.33 0.77 l
0.33 0.75 l
0.34 0.74 l
0.33 0.72 l
0.34 0.71 l
0.33 0.69 l
0.33 0.68 l
95.89 182.83 lineto
0.33 0.65 l
0.33 0.63 l
0.34 0.63 l
0.33 0.60 l
0.33 0.60 l
0.34 0.58 l
0.33 0.57 l
0.34 0.56 l
0.33 0.54 l
0.33 0.54 l
0.34 0.52 l
0.33 0.51 l
0.33 0.50 l
0.34 0.48 l
0.33 0.48 l
0.34 0.47 l
0.33 0.45 l
0.33 0.45 l
0.34 0.43 l
0.33 0.43 l
0.33 0.42 l
0.34 0.40 l
0.33 0.40 l
0.33 0.39 l
0.34 0.38 l
0.33 0.37 l
0.34 0.37 l
0.33 0.35 l
0.33 0.35 l
0.34 0.34 l
0.33 0.33 l
0.33 0.32 l
0.34 0.31 l
0.33 0.31 l
0.33 0.30 l
0.34 0.30 l
0.33 0.28 l
0.34 0.28 l
0.33 0.28 l
0.33 0.26 l
0.34 0.26 l
0.33 0.26 l
0.33 0.24 l
0.34 0.25 l
0.33 0.23 l
0.34 0.23 l
0.33 0.23 l
0.33 0.21 l
0.34 0.22 l
0.33 0.21 l
0.33 0.20 l
0.34 0.20 l
0.33 0.19 l
0.33 0.19 l
0.34 0.18 l
0.33 0.18 l
0.34 0.17 l
0.33 0.17 l
0.33 0.17 l
0.34 0.16 l
0.33 0.15 l
0.33 0.15 l
0.34 0.15 l
0.33 0.15 l
0.33 0.14 l
0.34 0.13 l
0.33 0.13 l
0.34 0.13 l
0.33 0.13 l
0.33 0.12 l
0.34 0.12 l
0.33 0.11 l
0.33 0.11 l
0.34 0.11 l
0.33 0.11 l
0.33 0.10 l
0.34 0.10 l
0.33 0.09 l
0.34 0.10 l
0.33 0.09 l
0.33 0.08 l
0.34 0.09 l
0.33 0.08 l
0.33 0.08 l
0.34 0.08 l
0.33 0.07 l
0.34 0.07 l
0.33 0.07 l
0.33 0.07 l
0.34 0.06 l
0.33 0.06 l
0.33 0.06 l
0.34 0.06 l
0.33 0.06 l
0.33 0.05 l
0.34 0.05 l
0.33 0.05 l
0.34 0.05 l
0.33 0.04 l
129.25 208.03 lineto
0.34 0.05 l
0.33 0.04 l
0.33 0.03 l
0.34 0.04 l
0.33 0.03 l
0.33 0.04 l
0.34 0.03 l
0.33 0.03 l
0.34 0.03 l
0.33 0.02 l
0.33 0.03 l
0.34 0.02 l
0.33 0.02 l
0.33 0.02 l
0.34 0.02 l
0.33 0.02 l
0.34 0.02 l
0.33 0.01 l
0.33 0.02 l
0.34 0.01 l
0.33 0.01 l
0.33 0.01 l
0.34 0.01 l
0.33 0.01 l
0.33 0 l
0.34 0.01 l
0.33 0 l
0.34 0.01 l
0.33 0 l
0.33 0 l
0.34 0 l
0.33 0 l
0.33 0 l
0.34 0 l
0.33 -0.01 l
0.33 0 l
0.34 0 l
0.33 -0.01 l
0.34 -0.01 l
0.33 -0.01 l
0.33 0 l
0.34 -0.01 l
0.33 -0.01 l
0.33 -0.01 l
0.34 -0.01 l
0.33 -0.02 l
0.34 -0.01 l
0.33 -0.01 l
0.33 -0.02 l
0.34 -0.01 l
0.33 -0.02 l
0.33 -0.01 l
0.34 -0.02 l
0.33 -0.02 l
0.33 -0.02 l
0.34 -0.02 l
0.33 -0.02 l
0.34 -0.02 l
0.33 -0.02 l
0.33 -0.02 l
0.34 -0.02 l
0.33 -0.02 l
0.33 -0.02 l
0.34 -0.03 l
0.33 -0.02 l
0.33 -0.02 l
0.34 -0.03 l
0.33 -0.02 l
0.34 -0.03 l
0.33 -0.02 l
0.33 -0.03 l
0.34 -0.03 l
0.33 -0.02 l
0.33 -0.03 l
0.34 -0.03 l
0.33 -0.03 l
0.34 -0.02 l
0.33 -0.03 l
0.33 -0.03 l
0.34 -0.03 l
0.33 -0.03 l
0.33 -0.03 l
0.34 -0.03 l
0.33 -0.03 l
0.33 -0.04 l
0.34 -0.03 l
0.33 -0.03 l
0.34 -0.03 l
0.33 -0.03 l
0.33 -0.04 l
0.34 -0.03 l
0.33 -0.03 l
0.33 -0.04 l
0.34 -0.03 l
0.33 -0.03 l
0.33 -0.04 l
0.34 -0.03 l
0.33 -0.04 l
0.34 -0.03 l
162.62 207.11 lineto
0.33 -0.03 l
0.34 -0.04 l
0.33 -0.04 l
0.33 -0.03 l
0.34 -0.04 l
0.33 -0.03 l
0.33 -0.04 l
0.34 -0.04 l
0.33 -0.04 l
0.34 -0.03 l
0.33 -0.04 l
0.33 -0.04 l
0.34 -0.04 l
0.33 -0.03 l
0.33 -0.04 l
0.34 -0.04 l
0.33 -0.04 l
0.34 -0.04 l
0.33 -0.04 l
0.33 -0.03 l
0.34 -0.04 l
0.33 -0.04 l
0.33 -0.04 l
0.34 -0.04 l
0.33 -0.04 l
0.33 -0.04 l
0.34 -0.04 l
0.33 -0.04 l
0.34 -0.04 l
0.33 -0.04 l
0.33 -0.04 l
0.34 -0.04 l
0.33 -0.04 l
0.33 -0.04 l
0.34 -0.04 l
0.33 -0.04 l
0.33 -0.04 l
0.34 -0.05 l
0.33 -0.04 l
0.34 -0.04 l
0.33 -0.04 l
0.33 -0.04 l
0.34 -0.04 l
0.33 -0.04 l
0.33 -0.04 l
0.34 -0.05 l
0.33 -0.04 l
0.34 -0.04 l
0.33 -0.04 l
0.33 -0.04 l
0.34 -0.05 l
0.33 -0.04 l
0.33 -0.04 l
0.34 -0.04 l
0.33 -0.04 l
0.33 -0.05 l
0.34 -0.04 l
0.33 -0.04 l
0.34 -0.04 l
0.33 -0.05 l
0.33 -0.04 l
0.34 -0.04 l
0.33 -0.04 l
0.33 -0.05 l
0.34 -0.04 l
0.33 -0.04 l
0.33 -0.05 l
0.34 -0.04 l
0.33 -0.04 l
0.34 -0.04 l
0.33 -0.05 l
0.33 -0.04 l
0.34 -0.04 l
0.33 -0.05 l
0.33 -0.04 l
0.34 -0.04 l
0.33 -0.05 l
0.34 -0.04 l
0.33 -0.04 l
0.33 -0.05 l
0.34 -0.04 l
0.33 -0.04 l
0.33 -0.05 l
0.34 -0.04 l
0.33 -0.04 l
0.33 -0.05 l
0.34 -0.04 l
0.33 -0.04 l
0.34 -0.05 l
0.33 -0.04 l
0.33 -0.05 l
0.34 -0.04 l
0.33 -0.04 l
0.33 -0.05 l
0.34 -0.04 l
0.33 -0.04 l
0.33 -0.05 l
0.34 -0.04 l
0.33 -0.04 l
195.99 202.99 lineto
0.33 -0.04 l
0.33 -0.05 l
0.34 -0.04 l
0.33 -0.04 l
0.33 -0.05 l
0.34 -0.04 l
0.33 -0.05 l
0.34 -0.04 l
0.33 -0.04 l
0.33 -0.05 l
0.34 -0.04 l
0.33 -0.04 l
0.33 -0.05 l
0.34 -0.04 l
0.33 -0.05 l
0.33 -0.04 l
0.34 -0.04 l
0.33 -0.05 l
0.34 -0.04 l
0.33 -0.05 l
0.33 -0.04 l
0.34 -0.04 l
0.33 -0.05 l
0.33 -0.04 l
0.34 -0.05 l
0.33 -0.04 l
0.33 -0.04 l
0.34 -0.05 l
0.33 -0.04 l
0.34 -0.05 l
0.33 -0.04 l
0.33 -0.04 l
0.34 -0.05 l
0.33 -0.04 l
0.33 -0.04 l
0.34 -0.05 l
0.33 -0.04 l
0.33 -0.05 l
0.34 -0.04 l
0.33 -0.04 l
0.34 -0.05 l
0.33 -0.04 l
0.33 -0.05 l
0.34 -0.04 l
0.33 -0.04 l
0.33 -0.05 l
0.34 -0.04 l
0.33 -0.05 l
0.34 -0.04 l
0.33 -0.04 l
0.33 -0.05 l
0.34 -0.04 l
0.33 -0.04 l
0.33 -0.05 l
0.34 -0.04 l
0.33 -0.05 l
0.33 -0.04 l
0.34 -0.04 l
0.33 -0.05 l
0.34 -0.04 l
0.33 -0.05 l
0.33 -0.04 l
0.34 -0.04 l
0.33 -0.05 l
0.33 -0.04 l
0.34 -0.04 l
0.33 -0.05 l
0.33 -0.04 l
0.34 -0.05 l
0.33 -0.04 l
0.34 -0.04 l
0.33 -0.05 l
0.33 -0.04 l
0.34 -0.04 l
0.33 -0.05 l
0.33 -0.04 l
0.34 -0.04 l
0.33 -0.05 l
0.34 -0.04 l
0.33 -0.05 l
0.33 -0.04 l
0.34 -0.04 l
0.33 -0.05 l
0.33 -0.04 l
0.34 -0.04 l
0.33 -0.05 l
0.33 -0.04 l
0.34 -0.04 l
0.33 -0.05 l
0.34 -0.04 l
0.33 -0.04 l
0.33 -0.05 l
0.34 -0.04 l
0.33 -0.04 l
0.33 -0.05 l
0.34 -0.04 l
0.33 -0.04 l
0.33 -0.05 l
0.34 -0.04 l
o
1.07 setlinewidth
[ 2.13 2.13] 0 setdash
np
62.52 89.52 m
0.33 -1.41 l
0.34 0 l
0.33 0 l
0.33 0 l
0.34 0 l
0.33 0 l
0.34 0 l
0.33 0.01 l
0.33 0.01 l
0.34 0.05 l
0.33 0.11 l
0.33 0.20 l
0.34 0.33 l
0.33 0.52 l
0.34 0.72 l
0.33 0.96 l
0.33 1.21 l
0.34 1.47 l
0.33 1.72 l
0.33 1.96 l
0.34 2.18 l
0.33 2.38 l
0.33 2.54 l
0.34 2.68 l
0.33 2.80 l
0.34 2.87 l
0.33 2.93 l
0.33 2.97 l
0.34 2.97 l
0.33 2.96 l
0.33 2.92 l
0.34 2.88 l
0.33 2.82 l
0.33 2.74 l
0.34 2.66 l
0.33 2.56 l
0.34 2.47 l
0.33 2.36 l
0.33 2.25 l
0.34 2.15 l
0.33 2.03 l
0.33 1.92 l
0.34 1.81 l
0.33 1.69 l
0.33 1.59 l
0.34 1.47 l
0.33 1.37 l
0.34 1.26 l
0.33 1.16 l
0.33 1.07 l
0.34 0.97 l
0.33 0.87 l
0.33 0.79 l
0.34 0.69 l
0.33 0.62 l
0.34 0.54 l
0.33 0.46 l
0.33 0.39 l
0.34 0.31 l
0.33 0.26 l
0.33 0.18 l
0.34 0.13 l
0.33 0.07 l
0.33 0.02 l
0.34 -0.04 l
0.33 -0.09 l
0.34 -0.13 l
0.33 -0.18 l
0.33 -0.22 l
0.34 -0.26 l
0.33 -0.30 l
0.33 -0.33 l
0.34 -0.37 l
0.33 -0.39 l
0.33 -0.43 l
0.34 -0.46 l
0.33 -0.48 l
0.34 -0.50 l
0.33 -0.53 l
0.33 -0.55 l
0.34 -0.57 l
0.33 -0.59 l
0.33 -0.61 l
0.34 -0.62 l
0.33 -0.64 l
0.34 -0.65 l
0.33 -0.66 l
0.33 -0.68 l
0.34 -0.68 l
0.33 -0.70 l
0.33 -0.71 l
0.34 -0.71 l
0.33 -0.72 l
0.33 -0.73 l
0.34 -0.73 l
0.33 -0.74 l
0.34 -0.75 l
0.33 -0.74 l
0.33 -0.76 l
95.89 153.14 lineto
0.33 -0.76 l
0.33 -0.75 l
0.34 -0.76 l
0.33 -0.77 l
0.33 -0.76 l
0.34 -0.76 l
0.33 -0.76 l
0.34 -0.76 l
0.33 -0.76 l
0.33 -0.76 l
0.34 -0.76 l
0.33 -0.75 l
0.33 -0.75 l
0.34 -0.75 l
0.33 -0.75 l
0.34 -0.75 l
0.33 -0.74 l
0.33 -0.74 l
0.34 -0.73 l
0.33 -0.73 l
0.33 -0.73 l
0.34 -0.72 l
0.33 -0.72 l
0.33 -0.72 l
0.34 -0.71 l
0.33 -0.71 l
0.34 -0.70 l
0.33 -0.69 l
0.33 -0.70 l
0.34 -0.68 l
0.33 -0.68 l
0.33 -0.68 l
0.34 -0.67 l
0.33 -0.67 l
0.33 -0.66 l
0.34 -0.66 l
0.33 -0.65 l
0.34 -0.64 l
0.33 -0.64 l
0.33 -0.64 l
0.34 -0.62 l
0.33 -0.63 l
0.33 -0.61 l
0.34 -0.62 l
0.33 -0.60 l
0.34 -0.60 l
0.33 -0.60 l
0.33 -0.58 l
0.34 -0.59 l
0.33 -0.58 l
0.33 -0.57 l
0.34 -0.56 l
0.33 -0.56 l
0.33 -0.56 l
0.34 -0.55 l
0.33 -0.54 l
0.34 -0.54 l
0.33 -0.53 l
0.33 -0.53 l
0.34 -0.52 l
0.33 -0.52 l
0.33 -0.51 l
0.34 -0.50 l
0.33 -0.50 l
0.33 -0.50 l
0.34 -0.48 l
0.33 -0.49 l
0.34 -0.48 l
0.33 -0.47 l
0.33 -0.47 l
0.34 -0.46 l
0.33 -0.46 l
0.33 -0.45 l
0.34 -0.44 l
0.33 -0.45 l
0.33 -0.43 l
0.34 -0.43 l
0.33 -0.43 l
0.34 -0.42 l
0.33 -0.42 l
0.33 -0.41 l
0.34 -0.41 l
0.33 -0.40 l
0.33 -0.40 l
0.34 -0.39 l
0.33 -0.39 l
0.34 -0.38 l
0.33 -0.38 l
0.33 -0.38 l
0.34 -0.37 l
0.33 -0.36 l
0.33 -0.36 l
0.34 -0.36 l
0.33 -0.35 l
0.33 -0.35 l
0.34 -0.35 l
0.33 -0.34 l
0.34 -0.33 l
0.33 -0.34 l
129.25 96.25 lineto
0.34 -0.33 l
0.33 -0.32 l
0.33 -0.31 l
0.34 -0.32 l
0.33 -0.30 l
0.33 -0.31 l
0.34 -0.30 l
0.33 -0.30 l
0.34 -0.29 l
0.33 -0.29 l
0.33 -0.29 l
0.34 -0.28 l
0.33 -0.28 l
0.33 -0.28 l
0.34 -0.27 l
0.33 -0.27 l
0.34 -0.26 l
0.33 -0.27 l
0.33 -0.26 l
0.34 -0.25 l
0.33 -0.26 l
0.33 -0.25 l
0.34 -0.24 l
0.33 -0.25 l
0.33 -0.24 l
0.34 -0.24 l
0.33 -0.23 l
0.34 -0.23 l
0.33 -0.23 l
0.33 -0.23 l
0.34 -0.22 l
0.33 -0.22 l
0.33 -0.22 l
0.34 -0.22 l
0.33 -0.21 l
0.33 -0.21 l
0.34 -0.21 l
0.33 -0.20 l
0.34 -0.21 l
0.33 -0.20 l
0.33 -0.19 l
0.34 -0.20 l
0.33 -0.19 l
0.33 -0.19 l
0.34 -0.19 l
0.33 -0.19 l
0.34 -0.18 l
0.33 -0.18 l
0.33 -0.18 l
0.34 -0.18 l
0.33 -0.17 l
0.33 -0.18 l
0.34 -0.17 l
0.33 -0.17 l
0.33 -0.16 l
0.34 -0.17 l
0.33 -0.16 l
0.34 -0.16 l
0.33 -0.16 l
0.33 -0.16 l
0.34 -0.16 l
0.33 -0.15 l
0.33 -0.15 l
0.34 -0.15 l
0.33 -0.15 l
0.33 -0.15 l
0.34 -0.14 l
0.33 -0.14 l
0.34 -0.15 l
0.33 -0.14 l
0.33 -0.13 l
0.34 -0.14 l
0.33 -0.14 l
0.33 -0.13 l
0.34 -0.13 l
0.33 -0.13 l
0.34 -0.13 l
0.33 -0.13 l
0.33 -0.13 l
0.34 -0.12 l
0.33 -0.13 l
0.33 -0.12 l
0.34 -0.12 l
0.33 -0.12 l
0.33 -0.12 l
0.34 -0.11 l
0.33 -0.12 l
0.34 -0.11 l
0.33 -0.12 l
0.33 -0.11 l
0.34 -0.11 l
0.33 -0.11 l
0.33 -0.11 l
0.34 -0.11 l
0.33 -0.10 l
0.33 -0.11 l
0.34 -0.10 l
0.33 -0.11 l
0.34 -0.10 l
162.62 77.39 lineto
0.33 -0.10 l
0.34 -0.10 l
0.33 -0.10 l
0.33 -0.09 l
0.34 -0.10 l
0.33 -0.09 l
0.33 -0.10 l
0.34 -0.09 l
0.33 -0.09 l
0.34 -0.10 l
0.33 -0.09 l
0.33 -0.09 l
0.34 -0.09 l
0.33 -0.08 l
0.33 -0.09 l
0.34 -0.09 l
0.33 -0.08 l
0.34 -0.09 l
0.33 -0.08 l
0.33 -0.09 l
0.34 -0.08 l
0.33 -0.08 l
0.33 -0.08 l
0.34 -0.08 l
0.33 -0.08 l
0.33 -0.08 l
0.34 -0.08 l
0.33 -0.08 l
0.34 -0.07 l
0.33 -0.08 l
0.33 -0.07 l
0.34 -0.08 l
0.33 -0.07 l
0.33 -0.08 l
0.34 -0.07 l
0.33 -0.07 l
0.33 -0.08 l
0.34 -0.07 l
0.33 -0.07 l
0.34 -0.07 l
0.33 -0.07 l
0.33 -0.07 l
0.34 -0.07 l
0.33 -0.06 l
0.33 -0.07 l
0.34 -0.07 l
0.33 -0.07 l
0.34 -0.06 l
0.33 -0.07 l
0.33 -0.06 l
0.34 -0.07 l
0.33 -0.06 l
0.33 -0.07 l
0.34 -0.06 l
0.33 -0.06 l
0.33 -0.06 l
0.34 -0.07 l
0.33 -0.06 l
0.34 -0.06 l
0.33 -0.06 l
0.33 -0.06 l
0.34 -0.06 l
0.33 -0.06 l
0.33 -0.06 l
0.34 -0.06 l
0.33 -0.06 l
0.33 -0.05 l
0.34 -0.06 l
0.33 -0.06 l
0.34 -0.06 l
0.33 -0.05 l
0.33 -0.06 l
0.34 -0.06 l
0.33 -0.05 l
0.33 -0.06 l
0.34 -0.05 l
0.33 -0.06 l
0.34 -0.05 l
0.33 -0.05 l
0.33 -0.06 l
0.34 -0.05 l
0.33 -0.06 l
0.33 -0.05 l
0.34 -0.05 l
0.33 -0.05 l
0.33 -0.06 l
0.34 -0.05 l
0.33 -0.05 l
0.34 -0.05 l
0.33 -0.05 l
0.33 -0.05 l
0.34 -0.05 l
0.33 -0.05 l
0.33 -0.05 l
0.34 -0.05 l
0.33 -0.05 l
0.33 -0.05 l
0.34 -0.05 l
0.33 -0.05 l
195.99 70.58 lineto
0.33 -0.05 l
0.33 -0.04 l
0.34 -0.05 l
0.33 -0.05 l
0.33 -0.05 l
0.34 -0.05 l
0.33 -0.04 l
0.34 -0.05 l
0.33 -0.05 l
0.33 -0.04 l
0.34 -0.05 l
0.33 -0.05 l
0.33 -0.04 l
0.34 -0.05 l
0.33 -0.04 l
0.33 -0.05 l
0.34 -0.04 l
0.33 -0.05 l
0.34 -0.04 l
0.33 -0.05 l
0.33 -0.04 l
0.34 -0.05 l
0.33 -0.04 l
0.33 -0.05 l
0.34 -0.04 l
0.33 -0.04 l
0.33 -0.05 l
0.34 -0.04 l
0.33 -0.04 l
0.34 -0.05 l
0.33 -0.04 l
0.33 -0.04 l
0.34 -0.05 l
0.33 -0.04 l
0.33 -0.04 l
0.34 -0.04 l
0.33 -0.05 l
0.33 -0.04 l
0.34 -0.04 l
0.33 -0.04 l
0.34 -0.05 l
0.33 -0.04 l
0.33 -0.04 l
0.34 -0.04 l
0.33 -0.04 l
0.33 -0.04 l
0.34 -0.04 l
0.33 -0.04 l
0.34 -0.05 l
0.33 -0.04 l
0.33 -0.04 l
0.34 -0.04 l
0.33 -0.04 l
0.33 -0.04 l
0.34 -0.04 l
0.33 -0.04 l
0.33 -0.04 l
0.34 -0.04 l
0.33 -0.04 l
0.34 -0.04 l
0.33 -0.04 l
0.33 -0.04 l
0.34 -0.04 l
0.33 -0.04 l
0.33 -0.03 l
0.34 -0.04 l
0.33 -0.04 l
0.33 -0.04 l
0.34 -0.04 l
0.33 -0.04 l
0.34 -0.04 l
0.33 -0.04 l
0.33 -0.04 l
0.34 -0.03 l
0.33 -0.04 l
0.33 -0.04 l
0.34 -0.04 l
0.33 -0.04 l
0.34 -0.04 l
0.33 -0.03 l
0.33 -0.04 l
0.34 -0.04 l
0.33 -0.04 l
0.33 -0.03 l
0.34 -0.04 l
0.33 -0.04 l
0.33 -0.04 l
0.34 -0.03 l
0.33 -0.04 l
0.34 -0.04 l
0.33 -0.04 l
0.33 -0.03 l
0.34 -0.04 l
0.33 -0.04 l
0.33 -0.03 l
0.34 -0.04 l
0.33 -0.04 l
0.33 -0.03 l
0.34 -0.04 l
o
1.07 setlinewidth
[ 4.27 2.13] 0 setdash
np
62.52 88.11 m
0.33 0 l
0.34 0 l
0.33 0 l
0.33 0 l
0.34 0 l
0.33 0 l
0.34 0 l
0.33 0 l
0.33 0 l
0.34 0 l
0.33 0 l
0.33 0 l
0.34 0 l
0.33 0 l
0.34 0 l
0.33 0 l
0.33 -0.01 l
0.34 0 l
0.33 -0.01 l
0.33 0 l
0.34 -0.01 l
0.33 -0.01 l
0.33 -0.02 l
0.34 -0.01 l
0.33 -0.02 l
0.34 -0.02 l
0.33 -0.02 l
0.33 -0.03 l
0.34 -0.03 l
0.33 -0.03 l
0.33 -0.03 l
0.34 -0.04 l
0.33 -0.04 l
0.33 -0.04 l
0.34 -0.05 l
0.33 -0.04 l
0.34 -0.05 l
0.33 -0.06 l
0.33 -0.05 l
0.34 -0.06 l
0.33 -0.06 l
0.33 -0.06 l
0.34 -0.07 l
0.33 -0.06 l
0.33 -0.07 l
0.34 -0.07 l
0.33 -0.07 l
0.34 -0.08 l
0.33 -0.07 l
0.33 -0.08 l
0.34 -0.08 l
0.33 -0.08 l
0.33 -0.08 l
0.34 -0.08 l
0.33 -0.08 l
0.34 -0.08 l
0.33 -0.09 l
0.33 -0.09 l
0.34 -0.08 l
0.33 -0.09 l
0.33 -0.09 l
0.34 -0.09 l
0.33 -0.09 l
0.33 -0.09 l
0.34 -0.09 l
0.33 -0.09 l
0.34 -0.09 l
0.33 -0.09 l
0.33 -0.09 l
0.34 -0.10 l
0.33 -0.09 l
0.33 -0.09 l
0.34 -0.09 l
0.33 -0.10 l
0.33 -0.09 l
0.34 -0.09 l
0.33 -0.10 l
0.34 -0.09 l
0.33 -0.09 l
0.33 -0.10 l
0.34 -0.09 l
0.33 -0.10 l
0.33 -0.09 l
0.34 -0.09 l
0.33 -0.09 l
0.34 -0.10 l
0.33 -0.09 l
0.33 -0.09 l
0.34 -0.10 l
0.33 -0.09 l
0.33 -0.09 l
0.34 -0.09 l
0.33 -0.09 l
0.33 -0.09 l
0.34 -0.09 l
0.33 -0.10 l
0.34 -0.09 l
0.33 -0.09 l
0.33 -0.09 l
95.89 82.24 lineto
0.33 -0.09 l
0.33 -0.09 l
0.34 -0.09 l
0.33 -0.09 l
0.33 -0.09 l
0.34 -0.08 l
0.33 -0.09 l
0.34 -0.09 l
0.33 -0.08 l
0.33 -0.09 l
0.34 -0.08 l
0.33 -0.09 l
0.33 -0.08 l
0.34 -0.09 l
0.33 -0.08 l
0.34 -0.09 l
0.33 -0.08 l
0.33 -0.08 l
0.34 -0.08 l
0.33 -0.09 l
0.33 -0.08 l
0.34 -0.08 l
0.33 -0.08 l
0.33 -0.08 l
0.34 -0.08 l
0.33 -0.08 l
0.34 -0.08 l
0.33 -0.08 l
0.33 -0.07 l
0.34 -0.08 l
0.33 -0.08 l
0.33 -0.08 l
0.34 -0.07 l
0.33 -0.08 l
0.33 -0.08 l
0.34 -0.07 l
0.33 -0.08 l
0.34 -0.07 l
0.33 -0.07 l
0.33 -0.08 l
0.34 -0.07 l
0.33 -0.08 l
0.33 -0.07 l
0.34 -0.07 l
0.33 -0.07 l
0.34 -0.07 l
0.33 -0.08 l
0.33 -0.07 l
0.34 -0.07 l
0.33 -0.07 l
0.33 -0.07 l
0.34 -0.07 l
0.33 -0.07 l
0.33 -0.06 l
0.34 -0.07 l
0.33 -0.07 l
0.34 -0.07 l
0.33 -0.07 l
0.33 -0.06 l
0.34 -0.07 l
0.33 -0.07 l
0.33 -0.06 l
0.34 -0.07 l
0.33 -0.06 l
0.33 -0.07 l
0.34 -0.06 l
0.33 -0.07 l
0.34 -0.06 l
0.33 -0.07 l
0.33 -0.06 l
0.34 -0.06 l
0.33 -0.07 l
0.33 -0.06 l
0.34 -0.06 l
0.33 -0.06 l
0.33 -0.06 l
0.34 -0.07 l
0.33 -0.06 l
0.34 -0.06 l
0.33 -0.06 l
0.33 -0.06 l
0.34 -0.06 l
0.33 -0.06 l
0.33 -0.06 l
0.34 -0.06 l
0.33 -0.06 l
0.34 -0.05 l
0.33 -0.06 l
0.33 -0.06 l
0.34 -0.06 l
0.33 -0.06 l
0.33 -0.05 l
0.34 -0.06 l
0.33 -0.06 l
0.33 -0.06 l
0.34 -0.05 l
0.33 -0.06 l
0.34 -0.05 l
0.33 -0.06 l
129.25 75.14 lineto
0.34 -0.05 l
0.33 -0.06 l
0.33 -0.05 l
0.34 -0.06 l
0.33 -0.05 l
0.33 -0.05 l
0.34 -0.06 l
0.33 -0.05 l
0.34 -0.06 l
0.33 -0.05 l
0.33 -0.05 l
0.34 -0.05 l
0.33 -0.06 l
0.33 -0.05 l
0.34 -0.05 l
0.33 -0.05 l
0.34 -0.06 l
0.33 -0.05 l
0.33 -0.05 l
0.34 -0.05 l
0.33 -0.05 l
0.33 -0.05 l
0.34 -0.05 l
0.33 -0.06 l
0.33 -0.05 l
0.34 -0.05 l
0.33 -0.05 l
0.34 -0.05 l
0.33 -0.05 l
0.33 -0.05 l
0.34 -0.05 l
0.33 -0.05 l
0.33 -0.04 l
0.34 -0.05 l
0.33 -0.05 l
0.33 -0.05 l
0.34 -0.05 l
0.33 -0.05 l
0.34 -0.05 l
0.33 -0.05 l
0.33 -0.04 l
0.34 -0.05 l
0.33 -0.05 l
0.33 -0.05 l
0.34 -0.04 l
0.33 -0.05 l
0.34 -0.05 l
0.33 -0.05 l
0.33 -0.04 l
0.34 -0.05 l
0.33 -0.05 l
0.33 -0.04 l
0.34 -0.05 l
0.33 -0.05 l
0.33 -0.04 l
0.34 -0.05 l
0.33 -0.04 l
0.34 -0.05 l
0.33 -0.05 l
0.33 -0.04 l
0.34 -0.05 l
0.33 -0.04 l
0.33 -0.05 l
0.34 -0.04 l
0.33 -0.05 l
0.33 -0.04 l
0.34 -0.05 l
0.33 -0.04 l
0.34 -0.05 l
0.33 -0.04 l
0.33 -0.04 l
0.34 -0.05 l
0.33 -0.04 l
0.33 -0.05 l
0.34 -0.04 l
0.33 -0.05 l
0.34 -0.04 l
0.33 -0.04 l
0.33 -0.05 l
0.34 -0.04 l
0.33 -0.04 l
0.33 -0.05 l
0.34 -0.04 l
0.33 -0.04 l
0.33 -0.05 l
0.34 -0.04 l
0.33 -0.04 l
0.34 -0.04 l
0.33 -0.05 l
0.33 -0.04 l
0.34 -0.04 l
0.33 -0.04 l
0.33 -0.05 l
0.34 -0.04 l
0.33 -0.04 l
0.33 -0.04 l
0.34 -0.05 l
0.33 -0.04 l
0.34 -0.04 l
162.62 70.41 lineto
0.33 -0.04 l
0.34 -0.04 l
0.33 -0.05 l
0.33 -0.04 l
0.34 -0.04 l
0.33 -0.04 l
0.33 -0.04 l
0.34 -0.04 l
0.33 -0.04 l
0.34 -0.05 l
0.33 -0.04 l
0.33 -0.04 l
0.34 -0.04 l
0.33 -0.04 l
0.33 -0.04 l
0.34 -0.04 l
0.33 -0.04 l
0.34 -0.04 l
0.33 -0.04 l
0.33 -0.04 l
0.34 -0.04 l
0.33 -0.04 l
0.33 -0.04 l
0.34 -0.04 l
0.33 -0.04 l
0.33 -0.04 l
0.34 -0.04 l
0.33 -0.04 l
0.34 -0.04 l
0.33 -0.04 l
0.33 -0.04 l
0.34 -0.04 l
0.33 -0.04 l
0.33 -0.04 l
0.34 -0.04 l
0.33 -0.04 l
0.33 -0.04 l
0.34 -0.04 l
0.33 -0.04 l
0.34 -0.04 l
0.33 -0.04 l
0.33 -0.03 l
0.34 -0.04 l
0.33 -0.04 l
0.33 -0.04 l
0.34 -0.04 l
0.33 -0.04 l
0.34 -0.04 l
0.33 -0.04 l
0.33 -0.04 l
0.34 -0.03 l
0.33 -0.04 l
0.33 -0.04 l
0.34 -0.04 l
0.33 -0.04 l
0.33 -0.04 l
0.34 -0.03 l
0.33 -0.04 l
0.34 -0.04 l
0.33 -0.04 l
0.33 -0.04 l
0.34 -0.04 l
0.33 -0.03 l
0.33 -0.04 l
0.34 -0.04 l
0.33 -0.04 l
0.33 -0.03 l
0.34 -0.04 l
0.33 -0.04 l
0.34 -0.04 l
0.33 -0.04 l
0.33 -0.03 l
0.34 -0.04 l
0.33 -0.04 l
0.33 -0.04 l
0.34 -0.03 l
0.33 -0.04 l
0.34 -0.04 l
0.33 -0.03 l
0.33 -0.04 l
0.34 -0.04 l
0.33 -0.04 l
0.33 -0.03 l
0.34 -0.04 l
0.33 -0.04 l
0.33 -0.03 l
0.34 -0.04 l
0.33 -0.04 l
0.34 -0.04 l
0.33 -0.03 l
0.33 -0.04 l
0.34 -0.04 l
0.33 -0.03 l
0.33 -0.04 l
0.34 -0.04 l
0.33 -0.03 l
0.33 -0.04 l
0.34 -0.03 l
0.33 -0.04 l
195.99 66.53 lineto
0.33 -0.03 l
0.33 -0.04 l
0.34 -0.04 l
0.33 -0.03 l
0.33 -0.04 l
0.34 -0.03 l
0.33 -0.04 l
0.34 -0.04 l
0.33 -0.03 l
0.33 -0.04 l
0.34 -0.04 l
0.33 -0.03 l
0.33 -0.04 l
0.34 -0.03 l
0.33 -0.04 l
0.33 -0.03 l
0.34 -0.04 l
0.33 -0.04 l
0.34 -0.03 l
0.33 -0.04 l
0.33 -0.03 l
0.34 -0.04 l
0.33 -0.03 l
0.33 -0.04 l
0.34 -0.03 l
0.33 -0.04 l
0.33 -0.04 l
0.34 -0.03 l
0.33 -0.04 l
0.34 -0.03 l
0.33 -0.04 l
0.33 -0.03 l
0.34 -0.04 l
0.33 -0.03 l
0.33 -0.04 l
0.34 -0.03 l
0.33 -0.04 l
0.33 -0.03 l
0.34 -0.04 l
0.33 -0.03 l
0.34 -0.04 l
0.33 -0.03 l
0.33 -0.04 l
0.34 -0.03 l
0.33 -0.04 l
0.33 -0.03 l
0.34 -0.04 l
0.33 -0.03 l
0.34 -0.03 l
0.33 -0.04 l
0.33 -0.03 l
0.34 -0.04 l
0.33 -0.03 l
0.33 -0.04 l
0.34 -0.03 l
0.33 -0.04 l
0.33 -0.03 l
0.34 -0.03 l
0.33 -0.04 l
0.34 -0.03 l
0.33 -0.04 l
0.33 -0.03 l
0.34 -0.04 l
0.33 -0.03 l
0.33 -0.03 l
0.34 -0.04 l
0.33 -0.03 l
0.33 -0.04 l
0.34 -0.03 l
0.33 -0.03 l
0.34 -0.04 l
0.33 -0.03 l
0.33 -0.03 l
0.34 -0.04 l
0.33 -0.03 l
0.33 -0.04 l
0.34 -0.03 l
0.33 -0.03 l
0.34 -0.04 l
0.33 -0.03 l
0.33 -0.03 l
0.34 -0.04 l
0.33 -0.03 l
0.33 -0.03 l
0.34 -0.04 l
0.33 -0.03 l
0.33 -0.03 l
0.34 -0.04 l
0.33 -0.03 l
0.34 -0.03 l
0.33 -0.04 l
0.33 -0.03 l
0.34 -0.03 l
0.33 -0.04 l
0.33 -0.03 l
0.34 -0.03 l
0.33 -0.04 l
0.33 -0.03 l
0.34 -0.03 l
o
0 0.7490 0.7686 srgb
1.07 setlinewidth
[] 0 setdash
np
62.52 86.69 m
0.33 1.42 l
0.34 0 l
0.33 0 l
0.33 0 l
0.34 0 l
0.33 0 l
0.34 0 l
0.33 0 l
0.33 0 l
0.34 0.01 l
0.33 0.01 l
0.33 0.02 l
0.34 0.04 l
0.33 0.06 l
0.34 0.10 l
0.33 0.14 l
0.33 0.19 l
0.34 0.25 l
0.33 0.32 l
0.33 0.38 l
0.34 0.46 l
0.33 0.53 l
0.33 0.60 l
0.34 0.68 l
0.33 0.75 l
0.34 0.81 l
0.33 0.89 l
0.33 0.94 l
0.34 1.00 l
0.33 1.05 l
0.33 1.10 l
0.34 1.14 l
0.33 1.19 l
0.33 1.21 l
0.34 1.25 l
0.33 1.26 l
0.34 1.29 l
0.33 1.31 l
0.33 1.32 l
0.34 1.33 l
0.33 1.33 l
0.33 1.34 l
0.34 1.34 l
0.33 1.33 l
0.33 1.34 l
0.34 1.32 l
0.33 1.32 l
0.34 1.30 l
0.33 1.30 l
0.33 1.28 l
0.34 1.27 l
0.33 1.25 l
0.33 1.23 l
0.34 1.22 l
0.33 1.20 l
0.34 1.18 l
0.33 1.16 l
0.33 1.14 l
0.34 1.11 l
0.33 1.10 l
0.33 1.08 l
0.34 1.06 l
0.33 1.03 l
0.33 1.01 l
0.34 1.00 l
0.33 0.97 l
0.34 0.94 l
0.33 0.93 l
0.33 0.91 l
0.34 0.88 l
0.33 0.87 l
0.33 0.84 l
0.34 0.83 l
0.33 0.80 l
0.33 0.78 l
0.34 0.76 l
0.33 0.75 l
0.34 0.72 l
0.33 0.71 l
0.33 0.69 l
0.34 0.66 l
0.33 0.66 l
0.33 0.63 l
0.34 0.61 l
0.33 0.60 l
0.34 0.58 l
0.33 0.57 l
0.33 0.55 l
0.34 0.53 l
0.33 0.52 l
0.33 0.50 l
0.34 0.49 l
0.33 0.47 l
0.33 0.46 l
0.34 0.44 l
0.33 0.43 l
0.34 0.42 l
0.33 0.40 l
0.33 0.39 l
95.89 162.65 lineto
0.33 0.36 l
0.33 0.36 l
0.34 0.34 l
0.33 0.33 l
0.33 0.32 l
0.34 0.30 l
0.33 0.30 l
0.34 0.29 l
0.33 0.27 l
0.33 0.27 l
0.34 0.26 l
0.33 0.24 l
0.33 0.24 l
0.34 0.23 l
0.33 0.21 l
0.34 0.21 l
0.33 0.21 l
0.33 0.19 l
0.34 0.18 l
0.33 0.18 l
0.33 0.17 l
0.34 0.16 l
0.33 0.15 l
0.33 0.15 l
0.34 0.14 l
0.33 0.13 l
0.34 0.13 l
0.33 0.12 l
0.33 0.11 l
0.34 0.11 l
0.33 0.10 l
0.33 0.09 l
0.34 0.09 l
0.33 0.08 l
0.33 0.08 l
0.34 0.07 l
0.33 0.07 l
0.34 0.06 l
0.33 0.06 l
0.33 0.05 l
0.34 0.05 l
0.33 0.04 l
0.33 0.03 l
0.34 0.04 l
0.33 0.03 l
0.34 0.02 l
0.33 0.02 l
0.33 0.02 l
0.34 0.01 l
0.33 0.01 l
0.33 0 l
0.34 0 l
0.33 0 l
0.33 -0.01 l
0.34 0 l
0.33 -0.02 l
0.34 -0.01 l
0.33 -0.02 l
0.33 -0.02 l
0.34 -0.03 l
0.33 -0.03 l
0.33 -0.03 l
0.34 -0.03 l
0.33 -0.04 l
0.33 -0.04 l
0.34 -0.04 l
0.33 -0.04 l
0.34 -0.05 l
0.33 -0.05 l
0.33 -0.05 l
0.34 -0.05 l
0.33 -0.06 l
0.33 -0.05 l
0.34 -0.06 l
0.33 -0.06 l
0.33 -0.07 l
0.34 -0.06 l
0.33 -0.07 l
0.34 -0.07 l
0.33 -0.07 l
0.33 -0.07 l
0.34 -0.08 l
0.33 -0.07 l
0.33 -0.08 l
0.34 -0.08 l
0.33 -0.08 l
0.34 -0.08 l
0.33 -0.08 l
0.33 -0.09 l
0.34 -0.08 l
0.33 -0.09 l
0.33 -0.09 l
0.34 -0.09 l
0.33 -0.09 l
0.33 -0.09 l
0.34 -0.09 l
0.33 -0.10 l
0.34 -0.09 l
0.33 -0.10 l
129.25 167.48 lineto
0.34 -0.10 l
0.33 -0.09 l
0.33 -0.10 l
0.34 -0.11 l
0.33 -0.10 l
0.33 -0.10 l
0.34 -0.10 l
0.33 -0.11 l
0.34 -0.10 l
0.33 -0.11 l
0.33 -0.11 l
0.34 -0.10 l
0.33 -0.11 l
0.33 -0.11 l
0.34 -0.11 l
0.33 -0.11 l
0.34 -0.11 l
0.33 -0.11 l
0.33 -0.11 l
0.34 -0.11 l
0.33 -0.11 l
0.33 -0.12 l
0.34 -0.11 l
0.33 -0.11 l
0.33 -0.12 l
0.34 -0.11 l
0.33 -0.12 l
0.34 -0.11 l
0.33 -0.12 l
0.33 -0.12 l
0.34 -0.11 l
0.33 -0.12 l
0.33 -0.12 l
0.34 -0.11 l
0.33 -0.12 l
0.33 -0.12 l
0.34 -0.12 l
0.33 -0.12 l
0.34 -0.12 l
0.33 -0.12 l
0.33 -0.12 l
0.34 -0.12 l
0.33 -0.12 l
0.33 -0.12 l
0.34 -0.12 l
0.33 -0.12 l
0.34 -0.12 l
0.33 -0.12 l
0.33 -0.12 l
0.34 -0.12 l
0.33 -0.12 l
0.33 -0.12 l
0.34 -0.12 l
0.33 -0.12 l
0.33 -0.13 l
0.34 -0.12 l
0.33 -0.12 l
0.34 -0.12 l
0.33 -0.12 l
0.33 -0.13 l
0.34 -0.12 l
0.33 -0.12 l
0.33 -0.12 l
0.34 -0.12 l
0.33 -0.13 l
0.33 -0.12 l
0.34 -0.12 l
0.33 -0.12 l
0.34 -0.12 l
0.33 -0.13 l
0.33 -0.12 l
0.34 -0.12 l
0.33 -0.12 l
0.33 -0.13 l
0.34 -0.12 l
0.33 -0.12 l
0.34 -0.12 l
0.33 -0.12 l
0.33 -0.13 l
0.34 -0.12 l
0.33 -0.12 l
0.33 -0.12 l
0.34 -0.12 l
0.33 -0.13 l
0.33 -0.12 l
0.34 -0.12 l
0.33 -0.12 l
0.34 -0.12 l
0.33 -0.12 l
0.33 -0.12 l
0.34 -0.13 l
0.33 -0.12 l
0.33 -0.12 l
0.34 -0.12 l
0.33 -0.12 l
0.33 -0.12 l
0.34 -0.12 l
0.33 -0.12 l
0.34 -0.12 l
162.62 155.76 lineto
0.33 -0.12 l
0.34 -0.12 l
0.33 -0.12 l
0.33 -0.12 l
0.34 -0.12 l
0.33 -0.12 l
0.33 -0.12 l
0.34 -0.12 l
0.33 -0.12 l
0.34 -0.12 l
0.33 -0.12 l
0.33 -0.12 l
0.34 -0.11 l
0.33 -0.12 l
0.33 -0.12 l
0.34 -0.12 l
0.33 -0.12 l
0.34 -0.12 l
0.33 -0.11 l
0.33 -0.12 l
0.34 -0.12 l
0.33 -0.12 l
0.33 -0.11 l
0.34 -0.12 l
0.33 -0.12 l
0.33 -0.11 l
0.34 -0.12 l
0.33 -0.12 l
0.34 -0.11 l
0.33 -0.12 l
0.33 -0.12 l
0.34 -0.11 l
0.33 -0.12 l
0.33 -0.11 l
0.34 -0.12 l
0.33 -0.11 l
0.33 -0.12 l
0.34 -0.11 l
0.33 -0.12 l
0.34 -0.11 l
0.33 -0.12 l
0.33 -0.11 l
0.34 -0.11 l
0.33 -0.12 l
0.33 -0.11 l
0.34 -0.11 l
0.33 -0.12 l
0.34 -0.11 l
0.33 -0.11 l
0.33 -0.12 l
0.34 -0.11 l
0.33 -0.11 l
0.33 -0.11 l
0.34 -0.12 l
0.33 -0.11 l
0.33 -0.11 l
0.34 -0.11 l
0.33 -0.11 l
0.34 -0.11 l
0.33 -0.11 l
0.33 -0.12 l
0.34 -0.11 l
0.33 -0.11 l
0.33 -0.11 l
0.34 -0.11 l
0.33 -0.11 l
0.33 -0.11 l
0.34 -0.11 l
0.33 -0.11 l
0.34 -0.11 l
0.33 -0.10 l
0.33 -0.11 l
0.34 -0.11 l
0.33 -0.11 l
0.33 -0.11 l
0.34 -0.11 l
0.33 -0.10 l
0.34 -0.11 l
0.33 -0.11 l
0.33 -0.11 l
0.34 -0.10 l
0.33 -0.11 l
0.33 -0.11 l
0.34 -0.10 l
0.33 -0.11 l
0.33 -0.11 l
0.34 -0.10 l
0.33 -0.11 l
0.34 -0.11 l
0.33 -0.10 l
0.33 -0.11 l
0.34 -0.10 l
0.33 -0.11 l
0.33 -0.10 l
0.34 -0.11 l
0.33 -0.10 l
0.33 -0.10 l
0.34 -0.11 l
0.33 -0.10 l
195.99 144.51 lineto
0.33 -0.10 l
0.33 -0.10 l
0.34 -0.11 l
0.33 -0.10 l
0.33 -0.10 l
0.34 -0.11 l
0.33 -0.10 l
0.34 -0.10 l
0.33 -0.10 l
0.33 -0.10 l
0.34 -0.11 l
0.33 -0.10 l
0.33 -0.10 l
0.34 -0.10 l
0.33 -0.10 l
0.33 -0.10 l
0.34 -0.10 l
0.33 -0.10 l
0.34 -0.10 l
0.33 -0.10 l
0.33 -0.10 l
0.34 -0.10 l
0.33 -0.10 l
0.33 -0.10 l
0.34 -0.10 l
0.33 -0.10 l
0.33 -0.10 l
0.34 -0.10 l
0.33 -0.10 l
0.34 -0.10 l
0.33 -0.09 l
0.33 -0.10 l
0.34 -0.10 l
0.33 -0.10 l
0.33 -0.10 l
0.34 -0.09 l
0.33 -0.10 l
0.33 -0.10 l
0.34 -0.09 l
0.33 -0.10 l
0.34 -0.10 l
0.33 -0.09 l
0.33 -0.10 l
0.34 -0.09 l
0.33 -0.10 l
0.33 -0.10 l
0.34 -0.09 l
0.33 -0.10 l
0.34 -0.09 l
0.33 -0.10 l
0.33 -0.09 l
0.34 -0.10 l
0.33 -0.09 l
0.33 -0.09 l
0.34 -0.10 l
0.33 -0.09 l
0.33 -0.10 l
0.34 -0.09 l
0.33 -0.09 l
0.34 -0.10 l
0.33 -0.09 l
0.33 -0.09 l
0.34 -0.10 l
0.33 -0.09 l
0.33 -0.09 l
0.34 -0.09 l
0.33 -0.09 l
0.33 -0.10 l
0.34 -0.09 l
0.33 -0.09 l
0.34 -0.09 l
0.33 -0.09 l
0.33 -0.09 l
0.34 -0.09 l
0.33 -0.09 l
0.33 -0.09 l
0.34 -0.10 l
0.33 -0.09 l
0.34 -0.09 l
0.33 -0.09 l
0.33 -0.08 l
0.34 -0.09 l
0.33 -0.09 l
0.33 -0.09 l
0.34 -0.09 l
0.33 -0.09 l
0.33 -0.09 l
0.34 -0.09 l
0.33 -0.09 l
0.34 -0.08 l
0.33 -0.09 l
0.33 -0.09 l
0.34 -0.09 l
0.33 -0.09 l
0.33 -0.08 l
0.34 -0.09 l
0.33 -0.09 l
0.33 -0.08 l
0.34 -0.09 l
o
1.07 setlinewidth
[ 2.13 2.13] 0 setdash
np
62.52 89.52 m
0.33 -1.41 l
0.34 0 l
0.33 0 l
0.33 0 l
0.34 0 l
0.33 0 l
0.34 0 l
0.33 0.01 l
0.33 0.01 l
0.34 0.05 l
0.33 0.10 l
0.33 0.19 l
0.34 0.32 l
0.33 0.49 l
0.34 0.68 l
0.33 0.91 l
0.33 1.13 l
0.34 1.37 l
0.33 1.59 l
0.33 1.80 l
0.34 1.99 l
0.33 2.16 l
0.33 2.30 l
0.34 2.41 l
0.33 2.49 l
0.34 2.54 l
0.33 2.58 l
0.33 2.58 l
0.34 2.57 l
0.33 2.53 l
0.33 2.49 l
0.34 2.42 l
0.33 2.34 l
0.33 2.26 l
0.34 2.16 l
0.33 2.05 l
0.34 1.96 l
0.33 1.84 l
0.33 1.73 l
0.34 1.62 l
0.33 1.50 l
0.33 1.39 l
0.34 1.28 l
0.33 1.16 l
0.33 1.06 l
0.34 0.96 l
0.33 0.85 l
0.34 0.75 l
0.33 0.66 l
0.33 0.56 l
0.34 0.47 l
0.33 0.39 l
0.33 0.31 l
0.34 0.22 l
0.33 0.16 l
0.34 0.08 l
0.33 0.01 l
0.33 -0.05 l
0.34 -0.11 l
0.33 -0.16 l
0.33 -0.23 l
0.34 -0.27 l
0.33 -0.32 l
0.33 -0.37 l
0.34 -0.41 l
0.33 -0.45 l
0.34 -0.49 l
0.33 -0.53 l
0.33 -0.55 l
0.34 -0.59 l
0.33 -0.62 l
0.33 -0.64 l
0.34 -0.67 l
0.33 -0.69 l
0.33 -0.71 l
0.34 -0.73 l
0.33 -0.75 l
0.34 -0.77 l
0.33 -0.78 l
0.33 -0.79 l
0.34 -0.81 l
0.33 -0.81 l
0.33 -0.83 l
0.34 -0.84 l
0.33 -0.84 l
0.34 -0.85 l
0.33 -0.86 l
0.33 -0.86 l
0.34 -0.86 l
0.33 -0.87 l
0.33 -0.87 l
0.34 -0.87 l
0.33 -0.88 l
0.33 -0.87 l
0.34 -0.88 l
0.33 -0.88 l
0.34 -0.87 l
0.33 -0.87 l
0.33 -0.87 l
95.89 124.75 lineto
0.33 -0.87 l
0.33 -0.86 l
0.34 -0.86 l
0.33 -0.85 l
0.33 -0.85 l
0.34 -0.85 l
0.33 -0.84 l
0.34 -0.84 l
0.33 -0.83 l
0.33 -0.83 l
0.34 -0.82 l
0.33 -0.82 l
0.33 -0.81 l
0.34 -0.80 l
0.33 -0.80 l
0.34 -0.79 l
0.33 -0.78 l
0.33 -0.78 l
0.34 -0.77 l
0.33 -0.77 l
0.33 -0.76 l
0.34 -0.75 l
0.33 -0.74 l
0.33 -0.74 l
0.34 -0.73 l
0.33 -0.72 l
0.34 -0.72 l
0.33 -0.71 l
0.33 -0.70 l
0.34 -0.69 l
0.33 -0.69 l
0.33 -0.68 l
0.34 -0.67 l
0.33 -0.67 l
0.33 -0.66 l
0.34 -0.65 l
0.33 -0.64 l
0.34 -0.64 l
0.33 -0.63 l
0.33 -0.62 l
0.34 -0.62 l
0.33 -0.61 l
0.33 -0.60 l
0.34 -0.59 l
0.33 -0.59 l
0.34 -0.58 l
0.33 -0.57 l
0.33 -0.57 l
0.34 -0.56 l
0.33 -0.55 l
0.33 -0.55 l
0.34 -0.54 l
0.33 -0.53 l
0.33 -0.53 l
0.34 -0.52 l
0.33 -0.52 l
0.34 -0.50 l
0.33 -0.50 l
0.33 -0.50 l
0.34 -0.49 l
0.33 -0.48 l
0.33 -0.48 l
0.34 -0.47 l
0.33 -0.46 l
0.33 -0.46 l
0.34 -0.45 l
0.33 -0.45 l
0.34 -0.44 l
0.33 -0.44 l
0.33 -0.43 l
0.34 -0.42 l
0.33 -0.42 l
0.33 -0.42 l
0.34 -0.40 l
0.33 -0.41 l
0.33 -0.40 l
0.34 -0.39 l
0.33 -0.39 l
0.34 -0.38 l
0.33 -0.38 l
0.33 -0.37 l
0.34 -0.37 l
0.33 -0.36 l
0.33 -0.36 l
0.34 -0.35 l
0.33 -0.35 l
0.34 -0.34 l
0.33 -0.34 l
0.33 -0.34 l
0.34 -0.33 l
0.33 -0.32 l
0.33 -0.33 l
0.34 -0.31 l
0.33 -0.32 l
0.33 -0.31 l
0.34 -0.30 l
0.33 -0.30 l
0.34 -0.30 l
0.33 -0.30 l
129.25 68.34 lineto
0.34 -0.28 l
0.33 -0.28 l
0.33 -0.28 l
0.34 -0.28 l
0.33 -0.27 l
0.33 -0.27 l
0.34 -0.26 l
0.33 -0.26 l
0.34 -0.26 l
0.33 -0.25 l
0.33 -0.25 l
0.34 -0.25 l
0.33 -0.24 l
0.33 -0.25 l
0.34 -0.23 l
0.33 -0.24 l
0.34 -0.23 l
0.33 -0.23 l
0.33 -0.22 l
0.34 -0.23 l
0.33 -0.22 l
0.33 -0.21 l
0.34 -0.22 l
0.33 -0.21 l
0.33 -0.21 l
0.34 -0.20 l
0.33 -0.21 l
0.34 -0.20 l
0.33 -0.20 l
0.33 -0.19 l
0.34 -0.20 l
0.33 -0.19 l
0.33 -0.18 l
0.34 -0.19 l
0.33 -0.18 l
0.33 -0.19 l
0.34 -0.17 l
0.33 -0.18 l
0.34 -0.18 l
0.33 -0.17 l
0.33 -0.17 l
0.34 -0.17 l
0.33 -0.16 l
0.33 -0.17 l
0.34 -0.16 l
0.33 -0.16 l
0.34 -0.16 l
0.33 -0.15 l
0.33 -0.16 l
0.34 -0.15 l
0.33 -0.15 l
0.33 -0.15 l
0.34 -0.15 l
0.33 -0.14 l
0.33 -0.14 l
0.34 -0.14 l
0.33 -0.14 l
0.34 -0.14 l
0.33 -0.14 l
0.33 -0.13 l
0.34 -0.14 l
0.33 -0.13 l
0.33 -0.13 l
0.34 -0.13 l
0.33 -0.12 l
0.33 -0.13 l
0.34 -0.12 l
0.33 -0.13 l
0.34 -0.12 l
0.33 -0.12 l
0.33 -0.12 l
0.34 -0.11 l
0.33 -0.12 l
0.33 -0.11 l
0.34 -0.12 l
0.33 -0.11 l
0.34 -0.11 l
0.33 -0.11 l
0.33 -0.10 l
0.34 -0.11 l
0.33 -0.11 l
0.33 -0.10 l
0.34 -0.10 l
0.33 -0.11 l
0.33 -0.10 l
0.34 -0.10 l
0.33 -0.09 l
0.34 -0.10 l
0.33 -0.10 l
0.33 -0.09 l
0.34 -0.10 l
0.33 -0.09 l
0.33 -0.09 l
0.34 -0.09 l
0.33 -0.09 l
0.33 -0.09 l
0.34 -0.09 l
0.33 -0.09 l
0.34 -0.08 l
162.62 52.06 lineto
0.33 -0.08 l
0.34 -0.09 l
0.33 -0.08 l
0.33 -0.08 l
0.34 -0.08 l
0.33 -0.08 l
0.33 -0.08 l
0.34 -0.08 l
0.33 -0.08 l
0.34 -0.08 l
0.33 -0.07 l
0.33 -0.08 l
0.34 -0.07 l
0.33 -0.07 l
0.33 -0.08 l
0.34 -0.07 l
0.33 -0.07 l
0.34 -0.07 l
0.33 -0.07 l
0.33 -0.07 l
0.34 -0.07 l
0.33 -0.07 l
0.33 -0.06 l
0.34 -0.07 l
0.33 -0.06 l
0.33 -0.07 l
0.34 -0.06 l
0.33 -0.07 l
0.34 -0.06 l
0.33 -0.06 l
0.33 -0.06 l
0.34 -0.06 l
0.33 -0.06 l
0.33 -0.06 l
0.34 -0.06 l
0.33 -0.06 l
0.33 -0.06 l
0.34 -0.06 l
0.33 -0.05 l
0.34 -0.06 l
0.33 -0.06 l
0.33 -0.05 l
0.34 -0.06 l
0.33 -0.05 l
0.33 -0.05 l
0.34 -0.06 l
0.33 -0.05 l
0.34 -0.05 l
0.33 -0.05 l
0.33 -0.05 l
0.34 -0.05 l
0.33 -0.05 l
0.33 -0.05 l
0.34 -0.05 l
0.33 -0.05 l
0.33 -0.05 l
0.34 -0.05 l
0.33 -0.04 l
0.34 -0.05 l
0.33 -0.05 l
0.33 -0.04 l
0.34 -0.05 l
0.33 -0.04 l
0.33 -0.05 l
0.34 -0.04 l
0.33 -0.04 l
0.33 -0.05 l
0.34 -0.04 l
0.33 -0.04 l
0.34 -0.04 l
0.33 -0.04 l
0.33 -0.05 l
0.34 -0.04 l
0.33 -0.04 l
0.33 -0.04 l
0.34 -0.03 l
0.33 -0.04 l
0.34 -0.04 l
0.33 -0.04 l
0.33 -0.04 l
0.34 -0.04 l
0.33 -0.03 l
0.33 -0.04 l
0.34 -0.04 l
0.33 -0.03 l
0.33 -0.04 l
0.34 -0.03 l
0.33 -0.04 l
0.34 -0.03 l
0.33 -0.04 l
0.33 -0.03 l
0.34 -0.03 l
0.33 -0.04 l
0.33 -0.03 l
0.34 -0.03 l
0.33 -0.03 l
0.33 -0.03 l
0.34 -0.04 l
0.33 -0.03 l
195.99 46.76 lineto
0.33 -0.03 l
0.33 -0.03 l
0.34 -0.03 l
0.33 -0.03 l
0.33 -0.03 l
0.34 -0.02 l
0.33 -0.03 l
0.34 -0.03 l
0.33 -0.03 l
0.33 -0.03 l
0.34 -0.02 l
0.33 -0.03 l
0.33 -0.03 l
0.34 -0.02 l
0.33 -0.03 l
0.33 -0.03 l
0.34 -0.02 l
0.33 -0.03 l
0.34 -0.02 l
0.33 -0.03 l
0.33 -0.02 l
0.34 -0.03 l
0.33 -0.02 l
0.33 -0.02 l
0.34 -0.03 l
0.33 -0.02 l
0.33 -0.02 l
0.34 -0.02 l
0.33 -0.03 l
0.34 -0.02 l
0.33 -0.02 l
0.33 -0.02 l
0.34 -0.02 l
0.33 -0.02 l
0.33 -0.03 l
0.34 -0.02 l
0.33 -0.02 l
0.33 -0.02 l
0.34 -0.02 l
0.33 -0.01 l
0.34 -0.02 l
0.33 -0.02 l
0.33 -0.02 l
0.34 -0.02 l
0.33 -0.02 l
0.33 -0.02 l
0.34 -0.01 l
0.33 -0.02 l
0.34 -0.02 l
0.33 -0.02 l
0.33 -0.01 l
0.34 -0.02 l
0.33 -0.02 l
0.33 -0.01 l
0.34 -0.02 l
0.33 -0.01 l
0.33 -0.02 l
0.34 -0.01 l
0.33 -0.02 l
0.34 -0.01 l
0.33 -0.02 l
0.33 -0.01 l
0.34 -0.02 l
0.33 -0.01 l
0.33 -0.01 l
0.34 -0.02 l
0.33 -0.01 l
0.33 -0.01 l
0.34 -0.02 l
0.33 -0.01 l
0.34 -0.01 l
0.33 -0.01 l
0.33 -0.02 l
0.34 -0.01 l
0.33 -0.01 l
0.33 -0.01 l
0.34 -0.01 l
0.33 -0.01 l
0.34 -0.01 l
0.33 -0.01 l
0.33 -0.01 l
0.34 -0.01 l
0.33 -0.01 l
0.33 -0.01 l
0.34 -0.01 l
0.33 -0.01 l
0.33 -0.01 l
0.34 -0.01 l
0.33 -0.01 l
0.34 -0.01 l
0.33 -0.01 l
0.33 -0.01 l
0.34 0 l
0.33 -0.01 l
0.33 -0.01 l
0.34 -0.01 l
0.33 0 l
0.33 -0.01 l
0.34 -0.01 l
o
1.07 setlinewidth
[ 4.27 2.13] 0 setdash
np
62.52 88.11 m
0.33 0 l
0.34 0 l
0.33 0 l
0.33 0 l
0.34 0 l
0.33 0 l
0.34 0 l
0.33 0 l
0.33 0 l
0.34 0 l
0.33 0 l
0.33 0 l
0.34 0 l
0.33 -0.01 l
0.34 0 l
0.33 -0.01 l
0.33 -0.02 l
0.34 -0.01 l
0.33 -0.03 l
0.33 -0.03 l
0.34 -0.04 l
0.33 -0.05 l
0.33 -0.06 l
0.34 -0.07 l
0.33 -0.08 l
0.34 -0.09 l
0.33 -0.10 l
0.33 -0.11 l
0.34 -0.13 l
0.33 -0.13 l
0.33 -0.15 l
0.34 -0.16 l
0.33 -0.17 l
0.33 -0.18 l
0.34 -0.19 l
0.33 -0.20 l
0.34 -0.22 l
0.33 -0.22 l
0.33 -0.23 l
0.34 -0.24 l
0.33 -0.24 l
0.33 -0.26 l
0.34 -0.26 l
0.33 -0.27 l
0.33 -0.28 l
0.34 -0.28 l
0.33 -0.29 l
0.34 -0.29 l
0.33 -0.30 l
0.33 -0.30 l
0.34 -0.31 l
0.33 -0.31 l
0.33 -0.32 l
0.34 -0.31 l
0.33 -0.32 l
0.34 -0.33 l
0.33 -0.32 l
0.33 -0.33 l
0.34 -0.33 l
0.33 -0.33 l
0.33 -0.33 l
0.34 -0.33 l
0.33 -0.33 l
0.33 -0.34 l
0.34 -0.33 l
0.33 -0.34 l
0.34 -0.33 l
0.33 -0.33 l
0.33 -0.34 l
0.34 -0.33 l
0.33 -0.33 l
0.33 -0.33 l
0.34 -0.34 l
0.33 -0.32 l
0.33 -0.33 l
0.34 -0.33 l
0.33 -0.33 l
0.34 -0.32 l
0.33 -0.32 l
0.33 -0.32 l
0.34 -0.32 l
0.33 -0.32 l
0.33 -0.32 l
0.34 -0.31 l
0.33 -0.31 l
0.34 -0.31 l
0.33 -0.31 l
0.33 -0.31 l
0.34 -0.30 l
0.33 -0.30 l
0.33 -0.30 l
0.34 -0.30 l
0.33 -0.29 l
0.33 -0.29 l
0.34 -0.29 l
0.33 -0.29 l
0.34 -0.29 l
0.33 -0.28 l
0.33 -0.28 l
95.89 66.60 lineto
0.33 -0.27 l
0.33 -0.28 l
0.34 -0.27 l
0.33 -0.27 l
0.33 -0.26 l
0.34 -0.27 l
0.33 -0.26 l
0.34 -0.26 l
0.33 -0.25 l
0.33 -0.26 l
0.34 -0.25 l
0.33 -0.25 l
0.33 -0.24 l
0.34 -0.25 l
0.33 -0.24 l
0.34 -0.24 l
0.33 -0.24 l
0.33 -0.23 l
0.34 -0.23 l
0.33 -0.23 l
0.33 -0.23 l
0.34 -0.23 l
0.33 -0.22 l
0.33 -0.22 l
0.34 -0.22 l
0.33 -0.21 l
0.34 -0.22 l
0.33 -0.21 l
0.33 -0.21 l
0.34 -0.21 l
0.33 -0.20 l
0.33 -0.21 l
0.34 -0.20 l
0.33 -0.20 l
0.33 -0.19 l
0.34 -0.20 l
0.33 -0.19 l
0.34 -0.19 l
0.33 -0.19 l
0.33 -0.19 l
0.34 -0.18 l
0.33 -0.18 l
0.33 -0.19 l
0.34 -0.17 l
0.33 -0.18 l
0.34 -0.18 l
0.33 -0.17 l
0.33 -0.17 l
0.34 -0.17 l
0.33 -0.17 l
0.33 -0.16 l
0.34 -0.17 l
0.33 -0.16 l
0.33 -0.16 l
0.34 -0.16 l
0.33 -0.16 l
0.34 -0.15 l
0.33 -0.16 l
0.33 -0.15 l
0.34 -0.15 l
0.33 -0.15 l
0.33 -0.15 l
0.34 -0.14 l
0.33 -0.15 l
0.33 -0.14 l
0.34 -0.14 l
0.33 -0.14 l
0.34 -0.14 l
0.33 -0.14 l
0.33 -0.13 l
0.34 -0.14 l
0.33 -0.13 l
0.33 -0.13 l
0.34 -0.13 l
0.33 -0.13 l
0.33 -0.12 l
0.34 -0.13 l
0.33 -0.12 l
0.34 -0.13 l
0.33 -0.12 l
0.33 -0.12 l
0.34 -0.12 l
0.33 -0.12 l
0.33 -0.11 l
0.34 -0.12 l
0.33 -0.11 l
0.34 -0.11 l
0.33 -0.12 l
0.33 -0.11 l
0.34 -0.11 l
0.33 -0.10 l
0.33 -0.11 l
0.34 -0.11 l
0.33 -0.10 l
0.33 -0.11 l
0.34 -0.10 l
0.33 -0.10 l
0.34 -0.10 l
0.33 -0.10 l
129.25 49.19 lineto
0.34 -0.10 l
0.33 -0.09 l
0.33 -0.10 l
0.34 -0.09 l
0.33 -0.10 l
0.33 -0.09 l
0.34 -0.09 l
0.33 -0.09 l
0.34 -0.09 l
0.33 -0.09 l
0.33 -0.09 l
0.34 -0.09 l
0.33 -0.08 l
0.33 -0.09 l
0.34 -0.08 l
0.33 -0.09 l
0.34 -0.08 l
0.33 -0.08 l
0.33 -0.08 l
0.34 -0.08 l
0.33 -0.08 l
0.33 -0.08 l
0.34 -0.08 l
0.33 -0.08 l
0.33 -0.07 l
0.34 -0.08 l
0.33 -0.07 l
0.34 -0.08 l
0.33 -0.07 l
0.33 -0.07 l
0.34 -0.07 l
0.33 -0.08 l
0.33 -0.07 l
0.34 -0.07 l
0.33 -0.07 l
0.33 -0.06 l
0.34 -0.07 l
0.33 -0.07 l
0.34 -0.06 l
0.33 -0.07 l
0.33 -0.07 l
0.34 -0.06 l
0.33 -0.06 l
0.33 -0.07 l
0.34 -0.06 l
0.33 -0.06 l
0.34 -0.06 l
0.33 -0.06 l
0.33 -0.06 l
0.34 -0.06 l
0.33 -0.06 l
0.33 -0.06 l
0.34 -0.06 l
0.33 -0.06 l
0.33 -0.05 l
0.34 -0.06 l
0.33 -0.05 l
0.34 -0.06 l
0.33 -0.05 l
0.33 -0.06 l
0.34 -0.05 l
0.33 -0.05 l
0.33 -0.06 l
0.34 -0.05 l
0.33 -0.05 l
0.33 -0.05 l
0.34 -0.05 l
0.33 -0.05 l
0.34 -0.05 l
0.33 -0.05 l
0.33 -0.05 l
0.34 -0.05 l
0.33 -0.04 l
0.33 -0.05 l
0.34 -0.05 l
0.33 -0.04 l
0.34 -0.05 l
0.33 -0.04 l
0.33 -0.05 l
0.34 -0.04 l
0.33 -0.05 l
0.33 -0.04 l
0.34 -0.04 l
0.33 -0.04 l
0.33 -0.05 l
0.34 -0.04 l
0.33 -0.04 l
0.34 -0.04 l
0.33 -0.04 l
0.33 -0.04 l
0.34 -0.04 l
0.33 -0.04 l
0.33 -0.04 l
0.34 -0.04 l
0.33 -0.03 l
0.33 -0.04 l
0.34 -0.04 l
0.33 -0.04 l
0.34 -0.03 l
162.62 43.01 lineto
0.33 -0.03 l
0.34 -0.04 l
0.33 -0.04 l
0.33 -0.03 l
0.34 -0.03 l
0.33 -0.04 l
0.33 -0.03 l
0.34 -0.03 l
0.33 -0.04 l
0.34 -0.03 l
0.33 -0.03 l
0.33 -0.03 l
0.34 -0.04 l
0.33 -0.03 l
0.33 -0.03 l
0.34 -0.03 l
0.33 -0.03 l
0.34 -0.03 l
0.33 -0.03 l
0.33 -0.03 l
0.34 -0.03 l
0.33 -0.02 l
0.33 -0.03 l
0.34 -0.03 l
0.33 -0.03 l
0.33 -0.02 l
0.34 -0.03 l
0.33 -0.03 l
0.34 -0.02 l
0.33 -0.03 l
0.33 -0.03 l
0.34 -0.02 l
0.33 -0.03 l
0.33 -0.02 l
0.34 -0.03 l
0.33 -0.02 l
0.33 -0.02 l
0.34 -0.03 l
0.33 -0.02 l
0.34 -0.02 l
0.33 -0.03 l
0.33 -0.02 l
0.34 -0.02 l
0.33 -0.02 l
0.33 -0.03 l
0.34 -0.02 l
0.33 -0.02 l
0.34 -0.02 l
0.33 -0.02 l
0.33 -0.02 l
0.34 -0.02 l
0.33 -0.02 l
0.33 -0.02 l
0.34 -0.02 l
0.33 -0.02 l
0.33 -0.02 l
0.34 -0.01 l
0.33 -0.02 l
0.34 -0.02 l
0.33 -0.02 l
0.33 -0.02 l
0.34 -0.01 l
0.33 -0.02 l
0.33 -0.02 l
0.34 -0.01 l
0.33 -0.02 l
0.33 -0.02 l
0.34 -0.01 l
0.33 -0.02 l
0.34 -0.01 l
0.33 -0.02 l
0.33 -0.01 l
0.34 -0.02 l
0.33 -0.01 l
0.33 -0.02 l
0.34 -0.01 l
0.33 -0.01 l
0.34 -0.02 l
0.33 -0.01 l
0.33 -0.01 l
0.34 -0.01 l
0.33 -0.02 l
0.33 -0.01 l
0.34 -0.01 l
0.33 -0.01 l
0.33 -0.02 l
0.34 -0.01 l
0.33 -0.01 l
0.34 -0.01 l
0.33 -0.01 l
0.33 -0.01 l
0.34 -0.01 l
0.33 -0.01 l
0.33 -0.01 l
0.34 -0.01 l
0.33 -0.01 l
0.33 -0.01 l
0.34 -0.01 l
0.33 -0.01 l
195.99 40.92 lineto
0.33 0 l
0.33 -0.01 l
0.34 -0.01 l
0.33 -0.01 l
0.33 -0.01 l
0.34 0 l
0.33 -0.01 l
0.34 -0.01 l
0.33 0 l
0.33 -0.01 l
0.34 -0.01 l
0.33 0 l
0.33 -0.01 l
0.34 0 l
0.33 -0.01 l
0.33 -0.01 l
0.34 0 l
0.33 -0.01 l
0.34 0 l
0.33 -0.01 l
0.33 0 l
0.34 0 l
0.33 -0.01 l
0.33 0 l
0.34 -0.01 l
0.33 0 l
0.33 0 l
0.34 -0.01 l
0.33 0 l
0.34 0 l
0.33 -0.01 l
0.33 0 l
0.34 0 l
0.33 0 l
0.33 0 l
0.34 -0.01 l
0.33 0 l
0.33 0 l
0.34 0 l
0.33 0 l
0.34 0 l
0.33 0 l
0.33 0 l
0.34 0 l
0.33 0 l
0.33 0 l
0.34 0 l
0.33 0 l
0.34 0 l
0.33 0 l
0.33 0 l
0.34 0 l
0.33 0 l
0.33 0 l
0.34 0 l
0.33 0 l
0.33 0.01 l
0.34 0 l
0.33 0 l
0.34 0 l
0.33 0 l
0.33 0.01 l
0.34 0 l
0.33 0 l
0.33 0 l
0.34 0.01 l
0.33 0 l
0.33 0 l
0.34 0.01 l
0.33 0 l
0.34 0.01 l
0.33 0 l
0.33 0 l
0.34 0.01 l
0.33 0 l
0.33 0.01 l
0.34 0 l
0.33 0.01 l
0.34 0 l
0.33 0.01 l
0.33 0 l
0.34 0.01 l
0.33 0 l
0.33 0.01 l
0.34 0.01 l
0.33 0 l
0.33 0.01 l
0.34 0 l
0.33 0.01 l
0.34 0.01 l
0.33 0 l
0.33 0.01 l
0.34 0.01 l
0.33 0.01 l
0.33 0 l
0.34 0.01 l
0.33 0.01 l
0.33 0.01 l
0.34 0 l
o
0.7804 0.4863 1 srgb
1.07 setlinewidth
[] 0 setdash
np
62.52 86.69 m
0.33 1.42 l
0.34 0 l
0.33 0 l
0.33 0 l
0.34 0 l
0.33 0 l
0.34 0 l
0.33 0 l
0.33 0 l
0.34 0.01 l
0.33 0.01 l
0.33 0.02 l
0.34 0.03 l
0.33 0.06 l
0.34 0.09 l
0.33 0.14 l
0.33 0.18 l
0.34 0.23 l
0.33 0.29 l
0.33 0.35 l
0.34 0.42 l
0.33 0.49 l
0.33 0.55 l
0.34 0.61 l
0.33 0.67 l
0.34 0.74 l
0.33 0.78 l
0.33 0.84 l
0.34 0.89 l
0.33 0.93 l
0.33 0.96 l
0.34 1.00 l
0.33 1.02 l
0.33 1.05 l
0.34 1.07 l
0.33 1.09 l
0.34 1.10 l
0.33 1.10 l
0.33 1.12 l
0.34 1.11 l
0.33 1.11 l
0.33 1.11 l
0.34 1.11 l
0.33 1.10 l
0.33 1.08 l
0.34 1.08 l
0.33 1.06 l
0.34 1.05 l
0.33 1.04 l
0.33 1.01 l
0.34 1.00 l
0.33 0.98 l
0.33 0.96 l
0.34 0.95 l
0.33 0.92 l
0.34 0.90 l
0.33 0.88 l
0.33 0.86 l
0.34 0.84 l
0.33 0.82 l
0.33 0.79 l
0.34 0.78 l
0.33 0.75 l
0.33 0.74 l
0.34 0.71 l
0.33 0.69 l
0.34 0.67 l
0.33 0.65 l
0.33 0.63 l
0.34 0.61 l
0.33 0.59 l
0.33 0.57 l
0.34 0.55 l
0.33 0.53 l
0.33 0.52 l
0.34 0.50 l
0.33 0.47 l
0.34 0.47 l
0.33 0.44 l
0.33 0.43 l
0.34 0.41 l
0.33 0.40 l
0.33 0.38 l
0.34 0.37 l
0.33 0.35 l
0.34 0.33 l
0.33 0.32 l
0.33 0.31 l
0.34 0.30 l
0.33 0.28 l
0.33 0.27 l
0.34 0.25 l
0.33 0.25 l
0.33 0.23 l
0.34 0.22 l
0.33 0.21 l
0.34 0.19 l
0.33 0.19 l
0.33 0.18 l
95.89 144.61 lineto
0.33 0.16 l
0.33 0.15 l
0.34 0.13 l
0.33 0.13 l
0.33 0.12 l
0.34 0.11 l
0.33 0.11 l
0.34 0.09 l
0.33 0.09 l
0.33 0.07 l
0.34 0.08 l
0.33 0.06 l
0.33 0.06 l
0.34 0.05 l
0.33 0.04 l
0.34 0.04 l
0.33 0.03 l
0.33 0.02 l
0.34 0.02 l
0.33 0.01 l
0.33 0.01 l
0.34 0 l
0.33 -0.01 l
0.33 0 l
0.34 -0.02 l
0.33 -0.02 l
0.34 -0.02 l
0.33 -0.03 l
0.33 -0.03 l
0.34 -0.04 l
0.33 -0.04 l
0.33 -0.04 l
0.34 -0.05 l
0.33 -0.06 l
0.33 -0.05 l
0.34 -0.06 l
0.33 -0.07 l
0.34 -0.06 l
0.33 -0.07 l
0.33 -0.08 l
0.34 -0.07 l
0.33 -0.08 l
0.33 -0.08 l
0.34 -0.09 l
0.33 -0.08 l
0.34 -0.09 l
0.33 -0.10 l
0.33 -0.09 l
0.34 -0.10 l
0.33 -0.10 l
0.33 -0.10 l
0.34 -0.10 l
0.33 -0.11 l
0.33 -0.10 l
0.34 -0.11 l
0.33 -0.11 l
0.34 -0.12 l
0.33 -0.11 l
0.33 -0.12 l
0.34 -0.11 l
0.33 -0.12 l
0.33 -0.12 l
0.34 -0.13 l
0.33 -0.12 l
0.33 -0.12 l
0.34 -0.13 l
0.33 -0.13 l
0.34 -0.12 l
0.33 -0.13 l
0.33 -0.13 l
0.34 -0.14 l
0.33 -0.13 l
0.33 -0.13 l
0.34 -0.14 l
0.33 -0.13 l
0.33 -0.14 l
0.34 -0.13 l
0.33 -0.14 l
0.34 -0.14 l
0.33 -0.14 l
0.33 -0.14 l
0.34 -0.14 l
0.33 -0.14 l
0.33 -0.14 l
0.34 -0.14 l
0.33 -0.14 l
0.34 -0.14 l
0.33 -0.15 l
0.33 -0.14 l
0.34 -0.14 l
0.33 -0.15 l
0.33 -0.14 l
0.34 -0.15 l
0.33 -0.14 l
0.33 -0.15 l
0.34 -0.14 l
0.33 -0.15 l
0.34 -0.15 l
0.33 -0.14 l
129.25 137.99 lineto
0.34 -0.14 l
0.33 -0.15 l
0.33 -0.15 l
0.34 -0.14 l
0.33 -0.15 l
0.33 -0.15 l
0.34 -0.15 l
0.33 -0.14 l
0.34 -0.15 l
0.33 -0.15 l
0.33 -0.14 l
0.34 -0.15 l
0.33 -0.15 l
0.33 -0.14 l
0.34 -0.15 l
0.33 -0.15 l
0.34 -0.15 l
0.33 -0.14 l
0.33 -0.15 l
0.34 -0.15 l
0.33 -0.14 l
0.33 -0.15 l
0.34 -0.14 l
0.33 -0.15 l
0.33 -0.15 l
0.34 -0.14 l
0.33 -0.15 l
0.34 -0.14 l
0.33 -0.15 l
0.33 -0.14 l
0.34 -0.15 l
0.33 -0.14 l
0.33 -0.15 l
0.34 -0.14 l
0.33 -0.14 l
0.33 -0.15 l
0.34 -0.14 l
0.33 -0.14 l
0.34 -0.15 l
0.33 -0.14 l
0.33 -0.14 l
0.34 -0.14 l
0.33 -0.14 l
0.33 -0.15 l
0.34 -0.14 l
0.33 -0.14 l
0.34 -0.14 l
0.33 -0.14 l
0.33 -0.14 l
0.34 -0.14 l
0.33 -0.14 l
0.33 -0.14 l
0.34 -0.14 l
0.33 -0.13 l
0.33 -0.14 l
0.34 -0.14 l
0.33 -0.14 l
0.34 -0.13 l
0.33 -0.14 l
0.33 -0.14 l
0.34 -0.13 l
0.33 -0.14 l
0.33 -0.13 l
0.34 -0.14 l
0.33 -0.13 l
0.33 -0.14 l
0.34 -0.13 l
0.33 -0.14 l
0.34 -0.13 l
0.33 -0.13 l
0.33 -0.13 l
0.34 -0.14 l
0.33 -0.13 l
0.33 -0.13 l
0.34 -0.13 l
0.33 -0.13 l
0.34 -0.13 l
0.33 -0.13 l
0.33 -0.13 l
0.34 -0.13 l
0.33 -0.13 l
0.33 -0.13 l
0.34 -0.13 l
0.33 -0.13 l
0.33 -0.12 l
0.34 -0.13 l
0.33 -0.13 l
0.34 -0.12 l
0.33 -0.13 l
0.33 -0.13 l
0.34 -0.12 l
0.33 -0.13 l
0.33 -0.12 l
0.34 -0.12 l
0.33 -0.13 l
0.33 -0.12 l
0.34 -0.12 l
0.33 -0.13 l
0.34 -0.12 l
162.62 124.21 lineto
0.33 -0.12 l
0.34 -0.12 l
0.33 -0.13 l
0.33 -0.12 l
0.34 -0.12 l
0.33 -0.12 l
0.33 -0.11 l
0.34 -0.12 l
0.33 -0.12 l
0.34 -0.12 l
0.33 -0.12 l
0.33 -0.12 l
0.34 -0.11 l
0.33 -0.12 l
0.33 -0.12 l
0.34 -0.11 l
0.33 -0.12 l
0.34 -0.11 l
0.33 -0.12 l
0.33 -0.11 l
0.34 -0.12 l
0.33 -0.11 l
0.33 -0.11 l
0.34 -0.12 l
0.33 -0.11 l
0.33 -0.11 l
0.34 -0.11 l
0.33 -0.12 l
0.34 -0.11 l
0.33 -0.11 l
0.33 -0.11 l
0.34 -0.11 l
0.33 -0.11 l
0.33 -0.11 l
0.34 -0.11 l
0.33 -0.11 l
0.33 -0.10 l
0.34 -0.11 l
0.33 -0.11 l
0.34 -0.11 l
0.33 -0.10 l
0.33 -0.11 l
0.34 -0.11 l
0.33 -0.10 l
0.33 -0.11 l
0.34 -0.10 l
0.33 -0.11 l
0.34 -0.10 l
0.33 -0.11 l
0.33 -0.10 l
0.34 -0.11 l
0.33 -0.10 l
0.33 -0.10 l
0.34 -0.10 l
0.33 -0.11 l
0.33 -0.10 l
0.34 -0.10 l
0.33 -0.10 l
0.34 -0.10 l
0.33 -0.10 l
0.33 -0.10 l
0.34 -0.10 l
0.33 -0.10 l
0.33 -0.10 l
0.34 -0.10 l
0.33 -0.10 l
0.33 -0.10 l
0.34 -0.09 l
0.33 -0.10 l
0.34 -0.10 l
0.33 -0.10 l
0.33 -0.09 l
0.34 -0.10 l
0.33 -0.09 l
0.33 -0.10 l
0.34 -0.09 l
0.33 -0.10 l
0.34 -0.09 l
0.33 -0.10 l
0.33 -0.09 l
0.34 -0.10 l
0.33 -0.09 l
0.33 -0.09 l
0.34 -0.10 l
0.33 -0.09 l
0.33 -0.09 l
0.34 -0.09 l
0.33 -0.09 l
0.34 -0.09 l
0.33 -0.10 l
0.33 -0.09 l
0.34 -0.09 l
0.33 -0.09 l
0.33 -0.09 l
0.34 -0.08 l
0.33 -0.09 l
0.33 -0.09 l
0.34 -0.09 l
0.33 -0.09 l
195.99 113.80 lineto
0.33 -0.08 l
0.33 -0.09 l
0.34 -0.09 l
0.33 -0.09 l
0.33 -0.08 l
0.34 -0.09 l
0.33 -0.08 l
0.34 -0.09 l
0.33 -0.08 l
0.33 -0.09 l
0.34 -0.08 l
0.33 -0.09 l
0.33 -0.08 l
0.34 -0.09 l
0.33 -0.08 l
0.33 -0.08 l
0.34 -0.09 l
0.33 -0.08 l
0.34 -0.08 l
0.33 -0.08 l
0.33 -0.08 l
0.34 -0.09 l
0.33 -0.08 l
0.33 -0.08 l
0.34 -0.08 l
0.33 -0.08 l
0.33 -0.08 l
0.34 -0.08 l
0.33 -0.08 l
0.34 -0.08 l
0.33 -0.08 l
0.33 -0.08 l
0.34 -0.07 l
0.33 -0.08 l
0.33 -0.08 l
0.34 -0.08 l
0.33 -0.08 l
0.33 -0.07 l
0.34 -0.08 l
0.33 -0.08 l
0.34 -0.07 l
0.33 -0.08 l
0.33 -0.08 l
0.34 -0.07 l
0.33 -0.08 l
0.33 -0.07 l
0.34 -0.08 l
0.33 -0.07 l
0.34 -0.08 l
0.33 -0.07 l
0.33 -0.07 l
0.34 -0.08 l
0.33 -0.07 l
0.33 -0.07 l
0.34 -0.08 l
0.33 -0.07 l
0.33 -0.07 l
0.34 -0.07 l
0.33 -0.08 l
0.34 -0.07 l
0.33 -0.07 l
0.33 -0.07 l
0.34 -0.07 l
0.33 -0.07 l
0.33 -0.07 l
0.34 -0.07 l
0.33 -0.07 l
0.33 -0.07 l
0.34 -0.07 l
0.33 -0.07 l
0.34 -0.07 l
0.33 -0.07 l
0.33 -0.07 l
0.34 -0.06 l
0.33 -0.07 l
0.33 -0.07 l
0.34 -0.07 l
0.33 -0.07 l
0.34 -0.06 l
0.33 -0.07 l
0.33 -0.07 l
0.34 -0.06 l
0.33 -0.07 l
0.33 -0.07 l
0.34 -0.06 l
0.33 -0.07 l
0.33 -0.06 l
0.34 -0.07 l
0.33 -0.06 l
0.34 -0.07 l
0.33 -0.06 l
0.33 -0.07 l
0.34 -0.06 l
0.33 -0.06 l
0.33 -0.07 l
0.34 -0.06 l
0.33 -0.06 l
0.33 -0.07 l
0.34 -0.06 l
o
1.07 setlinewidth
[ 2.13 2.13] 0 setdash
np
62.52 89.52 m
0.33 -1.41 l
0.34 0 l
0.33 0 l
0.33 0 l
0.34 0 l
0.33 0 l
0.34 0 l
0.33 0.01 l
0.33 0.01 l
0.34 0.04 l
0.33 0.10 l
0.33 0.18 l
0.34 0.31 l
0.33 0.45 l
0.34 0.64 l
0.33 0.84 l
0.33 1.04 l
0.34 1.25 l
0.33 1.45 l
0.33 1.63 l
0.34 1.79 l
0.33 1.92 l
0.33 2.03 l
0.34 2.12 l
0.33 2.16 l
0.34 2.20 l
0.33 2.20 l
0.33 2.19 l
0.34 2.15 l
0.33 2.10 l
0.33 2.03 l
0.34 1.96 l
0.33 1.87 l
0.33 1.77 l
0.34 1.67 l
0.33 1.57 l
0.34 1.46 l
0.33 1.34 l
0.33 1.24 l
0.34 1.12 l
0.33 1.02 l
0.33 0.90 l
0.34 0.80 l
0.33 0.69 l
0.33 0.60 l
0.34 0.50 l
0.33 0.40 l
0.34 0.31 l
0.33 0.23 l
0.33 0.15 l
0.34 0.07 l
0.33 -0.01 l
0.33 -0.08 l
0.34 -0.14 l
0.33 -0.21 l
0.34 -0.26 l
0.33 -0.32 l
0.33 -0.37 l
0.34 -0.43 l
0.33 -0.46 l
0.33 -0.51 l
0.34 -0.55 l
0.33 -0.59 l
0.33 -0.62 l
0.34 -0.65 l
0.33 -0.68 l
0.34 -0.71 l
0.33 -0.73 l
0.33 -0.75 l
0.34 -0.77 l
0.33 -0.79 l
0.33 -0.81 l
0.34 -0.82 l
0.33 -0.84 l
0.33 -0.85 l
0.34 -0.85 l
0.33 -0.87 l
0.34 -0.87 l
0.33 -0.88 l
0.33 -0.89 l
0.34 -0.88 l
0.33 -0.90 l
0.33 -0.89 l
0.34 -0.89 l
0.33 -0.90 l
0.34 -0.89 l
0.33 -0.90 l
0.33 -0.89 l
0.34 -0.89 l
0.33 -0.89 l
0.33 -0.88 l
0.34 -0.88 l
0.33 -0.87 l
0.33 -0.87 l
0.34 -0.86 l
0.33 -0.86 l
0.34 -0.86 l
0.33 -0.84 l
0.33 -0.84 l
95.89 103.80 lineto
0.33 -0.83 l
0.33 -0.82 l
0.34 -0.81 l
0.33 -0.80 l
0.33 -0.79 l
0.34 -0.79 l
0.33 -0.78 l
0.34 -0.77 l
0.33 -0.76 l
0.33 -0.75 l
0.34 -0.74 l
0.33 -0.74 l
0.33 -0.72 l
0.34 -0.72 l
0.33 -0.71 l
0.34 -0.70 l
0.33 -0.69 l
0.33 -0.68 l
0.34 -0.68 l
0.33 -0.66 l
0.33 -0.66 l
0.34 -0.64 l
0.33 -0.64 l
0.33 -0.63 l
0.34 -0.62 l
0.33 -0.61 l
0.34 -0.61 l
0.33 -0.59 l
0.33 -0.59 l
0.34 -0.58 l
0.33 -0.57 l
0.33 -0.56 l
0.34 -0.55 l
0.33 -0.54 l
0.33 -0.54 l
0.34 -0.53 l
0.33 -0.52 l
0.34 -0.51 l
0.33 -0.50 l
0.33 -0.50 l
0.34 -0.49 l
0.33 -0.48 l
0.33 -0.47 l
0.34 -0.47 l
0.33 -0.46 l
0.34 -0.45 l
0.33 -0.44 l
0.33 -0.44 l
0.34 -0.43 l
0.33 -0.42 l
0.33 -0.42 l
0.34 -0.41 l
0.33 -0.40 l
0.33 -0.40 l
0.34 -0.39 l
0.33 -0.38 l
0.34 -0.38 l
0.33 -0.37 l
0.33 -0.36 l
0.34 -0.36 l
0.33 -0.35 l
0.33 -0.35 l
0.34 -0.34 l
0.33 -0.33 l
0.33 -0.33 l
0.34 -0.32 l
0.33 -0.32 l
0.34 -0.31 l
0.33 -0.31 l
0.33 -0.30 l
0.34 -0.30 l
0.33 -0.29 l
0.33 -0.28 l
0.34 -0.28 l
0.33 -0.28 l
0.33 -0.27 l
0.34 -0.27 l
0.33 -0.26 l
0.34 -0.26 l
0.33 -0.25 l
0.33 -0.25 l
0.34 -0.24 l
0.33 -0.24 l
0.33 -0.23 l
0.34 -0.24 l
0.33 -0.22 l
0.34 -0.22 l
0.33 -0.22 l
0.33 -0.22 l
0.34 -0.21 l
0.33 -0.20 l
0.33 -0.21 l
0.34 -0.20 l
0.33 -0.19 l
0.33 -0.19 l
0.34 -0.19 l
0.33 -0.19 l
0.34 -0.18 l
0.33 -0.18 l
129.25 58.76 lineto
0.34 -0.17 l
0.33 -0.17 l
0.33 -0.16 l
0.34 -0.17 l
0.33 -0.15 l
0.33 -0.16 l
0.34 -0.15 l
0.33 -0.15 l
0.34 -0.15 l
0.33 -0.14 l
0.33 -0.14 l
0.34 -0.14 l
0.33 -0.14 l
0.33 -0.13 l
0.34 -0.13 l
0.33 -0.13 l
0.34 -0.13 l
0.33 -0.12 l
0.33 -0.12 l
0.34 -0.12 l
0.33 -0.11 l
0.33 -0.12 l
0.34 -0.11 l
0.33 -0.11 l
0.33 -0.10 l
0.34 -0.11 l
0.33 -0.10 l
0.34 -0.10 l
0.33 -0.10 l
0.33 -0.09 l
0.34 -0.10 l
0.33 -0.09 l
0.33 -0.09 l
0.34 -0.09 l
0.33 -0.09 l
0.33 -0.08 l
0.34 -0.08 l
0.33 -0.08 l
0.34 -0.08 l
0.33 -0.08 l
0.33 -0.07 l
0.34 -0.08 l
0.33 -0.07 l
0.33 -0.07 l
0.34 -0.07 l
0.33 -0.07 l
0.34 -0.06 l
0.33 -0.07 l
0.33 -0.06 l
0.34 -0.06 l
0.33 -0.06 l
0.33 -0.06 l
0.34 -0.06 l
0.33 -0.05 l
0.33 -0.06 l
0.34 -0.05 l
0.33 -0.05 l
0.34 -0.05 l
0.33 -0.05 l
0.33 -0.05 l
0.34 -0.04 l
0.33 -0.05 l
0.33 -0.04 l
0.34 -0.04 l
0.33 -0.04 l
0.33 -0.04 l
0.34 -0.04 l
0.33 -0.04 l
0.34 -0.04 l
0.33 -0.03 l
0.33 -0.04 l
0.34 -0.03 l
0.33 -0.04 l
0.33 -0.03 l
0.34 -0.03 l
0.33 -0.03 l
0.34 -0.03 l
0.33 -0.02 l
0.33 -0.03 l
0.34 -0.02 l
0.33 -0.03 l
0.33 -0.02 l
0.34 -0.03 l
0.33 -0.02 l
0.33 -0.02 l
0.34 -0.02 l
0.33 -0.02 l
0.34 -0.02 l
0.33 -0.01 l
0.33 -0.02 l
0.34 -0.02 l
0.33 -0.01 l
0.33 -0.02 l
0.34 -0.01 l
0.33 -0.01 l
0.33 -0.02 l
0.34 -0.01 l
0.33 -0.01 l
0.34 -0.01 l
162.62 51.72 lineto
0.33 -0.01 l
0.34 0 l
0.33 -0.01 l
0.33 -0.01 l
0.34 0 l
0.33 -0.01 l
0.33 0 l
0.34 -0.01 l
0.33 0 l
0.34 0 l
0.33 0 l
0.33 0 l
0.34 -0.01 l
0.33 0 l
0.33 0 l
0.34 0.01 l
0.33 0 l
0.34 0 l
0.33 0 l
0.33 0.01 l
0.34 0 l
0.33 0 l
0.33 0.01 l
0.34 0 l
0.33 0.01 l
0.33 0.01 l
0.34 0 l
0.33 0.01 l
0.34 0.01 l
0.33 0.01 l
0.33 0.01 l
0.34 0.01 l
0.33 0.01 l
0.33 0.01 l
0.34 0.01 l
0.33 0.01 l
0.33 0.01 l
0.34 0.01 l
0.33 0.01 l
0.34 0.02 l
0.33 0.01 l
0.33 0.01 l
0.34 0.02 l
0.33 0.01 l
0.33 0.02 l
0.34 0.01 l
0.33 0.02 l
0.34 0.01 l
0.33 0.02 l
0.33 0.02 l
0.34 0.02 l
0.33 0.01 l
0.33 0.02 l
0.34 0.02 l
0.33 0.02 l
0.33 0.02 l
0.34 0.02 l
0.33 0.02 l
0.34 0.02 l
0.33 0.02 l
0.33 0.02 l
0.34 0.02 l
0.33 0.02 l
0.33 0.02 l
0.34 0.03 l
0.33 0.02 l
0.33 0.02 l
0.34 0.02 l
0.33 0.03 l
0.34 0.02 l
0.33 0.02 l
0.33 0.03 l
0.34 0.02 l
0.33 0.03 l
0.33 0.02 l
0.34 0.03 l
0.33 0.02 l
0.34 0.03 l
0.33 0.03 l
0.33 0.02 l
0.34 0.03 l
0.33 0.03 l
0.33 0.03 l
0.34 0.02 l
0.33 0.03 l
0.33 0.03 l
0.34 0.03 l
0.33 0.03 l
0.34 0.02 l
0.33 0.03 l
0.33 0.03 l
0.34 0.03 l
0.33 0.03 l
0.33 0.03 l
0.34 0.03 l
0.33 0.03 l
0.33 0.03 l
0.34 0.04 l
0.33 0.03 l
195.99 53.25 lineto
0.33 0.03 l
0.33 0.03 l
0.34 0.03 l
0.33 0.04 l
0.33 0.03 l
0.34 0.03 l
0.33 0.03 l
0.34 0.04 l
0.33 0.03 l
0.33 0.03 l
0.34 0.04 l
0.33 0.03 l
0.33 0.03 l
0.34 0.04 l
0.33 0.03 l
0.33 0.04 l
0.34 0.03 l
0.33 0.04 l
0.34 0.03 l
0.33 0.04 l
0.33 0.03 l
0.34 0.04 l
0.33 0.04 l
0.33 0.03 l
0.34 0.04 l
0.33 0.03 l
0.33 0.04 l
0.34 0.04 l
0.33 0.03 l
0.34 0.04 l
0.33 0.04 l
0.33 0.04 l
0.34 0.03 l
0.33 0.04 l
0.33 0.04 l
0.34 0.04 l
0.33 0.03 l
0.33 0.04 l
0.34 0.04 l
0.33 0.04 l
0.34 0.04 l
0.33 0.04 l
0.33 0.03 l
0.34 0.04 l
0.33 0.04 l
0.33 0.04 l
0.34 0.04 l
0.33 0.04 l
0.34 0.04 l
0.33 0.04 l
0.33 0.04 l
0.34 0.04 l
0.33 0.04 l
0.33 0.04 l
0.34 0.04 l
0.33 0.04 l
0.33 0.04 l
0.34 0.04 l
0.33 0.04 l
0.34 0.04 l
0.33 0.04 l
0.33 0.05 l
0.34 0.04 l
0.33 0.04 l
0.33 0.04 l
0.34 0.04 l
0.33 0.04 l
0.33 0.04 l
0.34 0.05 l
0.33 0.04 l
0.34 0.04 l
0.33 0.04 l
0.33 0.05 l
0.34 0.04 l
0.33 0.04 l
0.33 0.04 l
0.34 0.04 l
0.33 0.05 l
0.34 0.04 l
0.33 0.04 l
0.33 0.05 l
0.34 0.04 l
0.33 0.04 l
0.33 0.05 l
0.34 0.04 l
0.33 0.04 l
0.33 0.05 l
0.34 0.04 l
0.33 0.04 l
0.34 0.05 l
0.33 0.04 l
0.33 0.04 l
0.34 0.05 l
0.33 0.04 l
0.33 0.05 l
0.34 0.04 l
0.33 0.04 l
0.33 0.05 l
0.34 0.04 l
o
1.07 setlinewidth
[ 4.27 2.13] 0 setdash
np
62.52 88.11 m
0.33 0 l
0.34 0 l
0.33 0 l
0.33 0 l
0.34 0 l
0.33 0 l
0.34 0 l
0.33 0 l
0.33 0 l
0.34 0 l
0.33 0 l
0.33 0 l
0.34 -0.01 l
0.33 0 l
0.34 -0.01 l
0.33 -0.02 l
0.33 -0.02 l
0.34 -0.04 l
0.33 -0.04 l
0.33 -0.06 l
0.34 -0.07 l
0.33 -0.09 l
0.33 -0.10 l
0.34 -0.12 l
0.33 -0.14 l
0.34 -0.15 l
0.33 -0.18 l
0.33 -0.19 l
0.34 -0.21 l
0.33 -0.23 l
0.33 -0.25 l
0.34 -0.26 l
0.33 -0.29 l
0.33 -0.30 l
0.34 -0.31 l
0.33 -0.33 l
0.34 -0.35 l
0.33 -0.35 l
0.33 -0.37 l
0.34 -0.38 l
0.33 -0.40 l
0.33 -0.40 l
0.34 -0.41 l
0.33 -0.42 l
0.33 -0.43 l
0.34 -0.44 l
0.33 -0.44 l
0.34 -0.45 l
0.33 -0.45 l
0.33 -0.46 l
0.34 -0.46 l
0.33 -0.47 l
0.33 -0.47 l
0.34 -0.46 l
0.33 -0.48 l
0.34 -0.47 l
0.33 -0.47 l
0.33 -0.47 l
0.34 -0.47 l
0.33 -0.48 l
0.33 -0.47 l
0.34 -0.47 l
0.33 -0.46 l
0.33 -0.47 l
0.34 -0.46 l
0.33 -0.46 l
0.34 -0.46 l
0.33 -0.46 l
0.33 -0.45 l
0.34 -0.45 l
0.33 -0.44 l
0.33 -0.44 l
0.34 -0.44 l
0.33 -0.44 l
0.33 -0.43 l
0.34 -0.42 l
0.33 -0.42 l
0.34 -0.42 l
0.33 -0.41 l
0.33 -0.41 l
0.34 -0.40 l
0.33 -0.40 l
0.33 -0.39 l
0.34 -0.39 l
0.33 -0.39 l
0.34 -0.38 l
0.33 -0.37 l
0.33 -0.37 l
0.34 -0.36 l
0.33 -0.36 l
0.33 -0.36 l
0.34 -0.35 l
0.33 -0.34 l
0.33 -0.34 l
0.34 -0.33 l
0.33 -0.33 l
0.34 -0.33 l
0.33 -0.32 l
0.33 -0.31 l
95.89 58.23 lineto
0.33 -0.31 l
0.33 -0.30 l
0.34 -0.30 l
0.33 -0.29 l
0.33 -0.29 l
0.34 -0.28 l
0.33 -0.27 l
0.34 -0.28 l
0.33 -0.27 l
0.33 -0.26 l
0.34 -0.26 l
0.33 -0.25 l
0.33 -0.25 l
0.34 -0.25 l
0.33 -0.24 l
0.34 -0.24 l
0.33 -0.23 l
0.33 -0.23 l
0.34 -0.23 l
0.33 -0.22 l
0.33 -0.22 l
0.34 -0.21 l
0.33 -0.21 l
0.33 -0.21 l
0.34 -0.20 l
0.33 -0.20 l
0.34 -0.19 l
0.33 -0.19 l
0.33 -0.19 l
0.34 -0.18 l
0.33 -0.18 l
0.33 -0.18 l
0.34 -0.17 l
0.33 -0.17 l
0.33 -0.17 l
0.34 -0.16 l
0.33 -0.16 l
0.34 -0.16 l
0.33 -0.15 l
0.33 -0.15 l
0.34 -0.15 l
0.33 -0.14 l
0.33 -0.14 l
0.34 -0.14 l
0.33 -0.14 l
0.34 -0.13 l
0.33 -0.13 l
0.33 -0.13 l
0.34 -0.12 l
0.33 -0.12 l
0.33 -0.12 l
0.34 -0.12 l
0.33 -0.11 l
0.33 -0.11 l
0.34 -0.11 l
0.33 -0.11 l
0.34 -0.10 l
0.33 -0.10 l
0.33 -0.10 l
0.34 -0.10 l
0.33 -0.09 l
0.33 -0.10 l
0.34 -0.08 l
0.33 -0.09 l
0.33 -0.09 l
0.34 -0.08 l
0.33 -0.08 l
0.34 -0.08 l
0.33 -0.08 l
0.33 -0.07 l
0.34 -0.08 l
0.33 -0.07 l
0.33 -0.07 l
0.34 -0.07 l
0.33 -0.06 l
0.33 -0.07 l
0.34 -0.06 l
0.33 -0.06 l
0.34 -0.06 l
0.33 -0.05 l
0.33 -0.06 l
0.34 -0.05 l
0.33 -0.05 l
0.33 -0.05 l
0.34 -0.05 l
0.33 -0.05 l
0.34 -0.05 l
0.33 -0.04 l
0.33 -0.04 l
0.34 -0.04 l
0.33 -0.04 l
0.33 -0.04 l
0.34 -0.04 l
0.33 -0.03 l
0.33 -0.04 l
0.34 -0.03 l
0.33 -0.03 l
0.34 -0.03 l
0.33 -0.03 l
129.25 44.60 lineto
0.34 -0.02 l
0.33 -0.03 l
0.33 -0.02 l
0.34 -0.03 l
0.33 -0.02 l
0.33 -0.02 l
0.34 -0.02 l
0.33 -0.02 l
0.34 -0.01 l
0.33 -0.02 l
0.33 -0.01 l
0.34 -0.02 l
0.33 -0.01 l
0.33 -0.01 l
0.34 -0.01 l
0.33 -0.01 l
0.34 -0.01 l
0.33 -0.01 l
0.33 -0.01 l
0.34 -0.01 l
0.33 0 l
0.33 0 l
0.34 -0.01 l
0.33 0 l
0.33 0 l
0.34 0 l
0.33 0 l
0.34 0 l
0.33 0 l
0.33 0 l
0.34 0 l
0.33 0.01 l
0.33 0 l
0.34 0.01 l
0.33 0 l
0.33 0.01 l
0.34 0.01 l
0.33 0.01 l
0.34 0.01 l
0.33 0.01 l
0.33 0.01 l
0.34 0.01 l
0.33 0.01 l
0.33 0.01 l
0.34 0.01 l
0.33 0.02 l
0.34 0.01 l
0.33 0.02 l
0.33 0.01 l
0.34 0.02 l
0.33 0.02 l
0.33 0.01 l
0.34 0.02 l
0.33 0.02 l
0.33 0.02 l
0.34 0.02 l
0.33 0.02 l
0.34 0.02 l
0.33 0.02 l
0.33 0.02 l
0.34 0.02 l
0.33 0.03 l
0.33 0.02 l
0.34 0.02 l
0.33 0.03 l
0.33 0.02 l
0.34 0.03 l
0.33 0.02 l
0.34 0.03 l
0.33 0.02 l
0.33 0.03 l
0.34 0.03 l
0.33 0.03 l
0.33 0.02 l
0.34 0.03 l
0.33 0.03 l
0.34 0.03 l
0.33 0.03 l
0.33 0.03 l
0.34 0.03 l
0.33 0.03 l
0.33 0.03 l
0.34 0.04 l
0.33 0.03 l
0.33 0.03 l
0.34 0.03 l
0.33 0.04 l
0.34 0.03 l
0.33 0.03 l
0.33 0.04 l
0.34 0.03 l
0.33 0.04 l
0.33 0.03 l
0.34 0.04 l
0.33 0.04 l
0.33 0.03 l
0.34 0.04 l
0.33 0.03 l
0.34 0.04 l
162.62 45.88 lineto
0.33 0.04 l
0.34 0.04 l
0.33 0.03 l
0.33 0.04 l
0.34 0.04 l
0.33 0.04 l
0.33 0.04 l
0.34 0.04 l
0.33 0.04 l
0.34 0.04 l
0.33 0.04 l
0.33 0.04 l
0.34 0.04 l
0.33 0.04 l
0.33 0.05 l
0.34 0.04 l
0.33 0.04 l
0.34 0.04 l
0.33 0.05 l
0.33 0.04 l
0.34 0.04 l
0.33 0.04 l
0.33 0.05 l
0.34 0.04 l
0.33 0.05 l
0.33 0.04 l
0.34 0.04 l
0.33 0.05 l
0.34 0.04 l
0.33 0.05 l
0.33 0.04 l
0.34 0.05 l
0.33 0.04 l
0.33 0.05 l
0.34 0.05 l
0.33 0.04 l
0.33 0.05 l
0.34 0.05 l
0.33 0.04 l
0.34 0.05 l
0.33 0.05 l
0.33 0.04 l
0.34 0.05 l
0.33 0.05 l
0.33 0.05 l
0.34 0.04 l
0.33 0.05 l
0.34 0.05 l
0.33 0.05 l
0.33 0.05 l
0.34 0.05 l
0.33 0.05 l
0.33 0.05 l
0.34 0.04 l
0.33 0.05 l
0.33 0.05 l
0.34 0.05 l
0.33 0.05 l
0.34 0.05 l
0.33 0.05 l
0.33 0.05 l
0.34 0.05 l
0.33 0.05 l
0.33 0.05 l
0.34 0.06 l
0.33 0.05 l
0.33 0.05 l
0.34 0.05 l
0.33 0.05 l
0.34 0.05 l
0.33 0.05 l
0.33 0.05 l
0.34 0.06 l
0.33 0.05 l
0.33 0.05 l
0.34 0.05 l
0.33 0.05 l
0.34 0.06 l
0.33 0.05 l
0.33 0.05 l
0.34 0.05 l
0.33 0.06 l
0.33 0.05 l
0.34 0.05 l
0.33 0.05 l
0.33 0.06 l
0.34 0.05 l
0.33 0.05 l
0.34 0.06 l
0.33 0.05 l
0.33 0.05 l
0.34 0.06 l
0.33 0.05 l
0.33 0.06 l
0.34 0.05 l
0.33 0.05 l
0.33 0.06 l
0.34 0.05 l
0.33 0.06 l
195.99 50.66 lineto
0.33 0.05 l
0.33 0.06 l
0.34 0.05 l
0.33 0.06 l
0.33 0.05 l
0.34 0.06 l
0.33 0.05 l
0.34 0.06 l
0.33 0.05 l
0.33 0.06 l
0.34 0.05 l
0.33 0.06 l
0.33 0.05 l
0.34 0.06 l
0.33 0.05 l
0.33 0.06 l
0.34 0.05 l
0.33 0.06 l
0.34 0.05 l
0.33 0.06 l
0.33 0.05 l
0.34 0.06 l
0.33 0.06 l
0.33 0.05 l
0.34 0.06 l
0.33 0.05 l
0.33 0.06 l
0.34 0.05 l
0.33 0.06 l
0.34 0.06 l
0.33 0.05 l
0.33 0.06 l
0.34 0.05 l
0.33 0.06 l
0.33 0.06 l
0.34 0.05 l
0.33 0.06 l
0.33 0.06 l
0.34 0.05 l
0.33 0.06 l
0.34 0.05 l
0.33 0.06 l
0.33 0.06 l
0.34 0.05 l
0.33 0.06 l
0.33 0.06 l
0.34 0.05 l
0.33 0.06 l
0.34 0.06 l
0.33 0.05 l
0.33 0.06 l
0.34 0.06 l
0.33 0.05 l
0.33 0.06 l
0.34 0.06 l
0.33 0.05 l
0.33 0.06 l
0.34 0.06 l
0.33 0.05 l
0.34 0.06 l
0.33 0.06 l
0.33 0.05 l
0.34 0.06 l
0.33 0.06 l
0.33 0.05 l
0.34 0.06 l
0.33 0.06 l
0.33 0.05 l
0.34 0.06 l
0.33 0.06 l
0.34 0.06 l
0.33 0.05 l
0.33 0.06 l
0.34 0.06 l
0.33 0.05 l
0.33 0.06 l
0.34 0.06 l
0.33 0.05 l
0.34 0.06 l
0.33 0.06 l
0.33 0.05 l
0.34 0.06 l
0.33 0.06 l
0.33 0.05 l
0.34 0.06 l
0.33 0.06 l
0.33 0.06 l
0.34 0.05 l
0.33 0.06 l
0.34 0.06 l
0.33 0.05 l
0.33 0.06 l
0.34 0.06 l
0.33 0.05 l
0.33 0.06 l
0.34 0.06 l
0.33 0.05 l
0.33 0.06 l
0.34 0.06 l
o
0.00 0.00 317.25 239.25 cl
0.00 0.00 317.25 239.25 cl
0.00 0.00 317.25 239.25 cl
0.00 0.00 317.25 239.25 cl
0.00 0.00 317.25 239.25 cl
0.00 0.00 317.25 239.25 cl
0.00 0.00 317.25 239.25 cl
0.00 0.00 317.25 239.25 cl
0.00 0.00 317.25 239.25 cl
0.00 0.00 317.25 239.25 cl
0.00 0.00 317.25 239.25 cl
0.00 0.00 317.25 239.25 cl
0.00 0.00 317.25 239.25 cl
0.00 0.00 317.25 239.25 cl
0.00 0.00 317.25 239.25 cl
0.00 0.00 317.25 239.25 cl
/Font1 findfont 11 s
0.3020 0.3020 0.3020 srgb
49.26 56.34 (-0.2) 1 0 t
49.26 84.16 (0.0) 1 0 t
49.26 111.99 (0.2) 1 0 t
49.26 139.81 (0.4) 1 0 t
49.26 167.64 (0.6) 1 0 t
49.26 195.46 (0.8) 1 0 t
49.26 223.29 (1.0) 1 0 t
0.00 0.00 317.25 239.25 cl
0.00 0.00 317.25 239.25 cl
0.2000 0.2000 0.2000 srgb
1.07 setlinewidth
[] 0 setdash
0 setlinecap
1 setlinejoin
10.00 setmiterlimit
np
51.46 60.29 m
2.74 0 l
o
np
51.46 88.11 m
2.74 0 l
o
np
51.46 115.94 m
2.74 0 l
o
np
51.46 143.76 m
2.74 0 l
o
np
51.46 171.59 m
2.74 0 l
o
np
51.46 199.41 m
2.74 0 l
o
np
51.46 227.24 m
2.74 0 l
o
0.00 0.00 317.25 239.25 cl
0.00 0.00 317.25 239.25 cl
0.00 0.00 317.25 239.25 cl
0.00 0.00 317.25 239.25 cl
0.00 0.00 317.25 239.25 cl
0.00 0.00 317.25 239.25 cl
0.00 0.00 317.25 239.25 cl
0.00 0.00 317.25 239.25 cl
0.00 0.00 317.25 239.25 cl
0.00 0.00 317.25 239.25 cl
0.2000 0.2000 0.2000 srgb
1.07 setlinewidth
[] 0 setdash
0 setlinecap
1 setlinejoin
10.00 setmiterlimit
np
62.35 28.80 m
0 2.74 l
o
np
104.02 28.80 m
0 2.74 l
o
np
145.69 28.80 m
0 2.74 l
o
np
187.35 28.80 m
0 2.74 l
o
np
229.02 28.80 m
0 2.74 l
o
0.00 0.00 317.25 239.25 cl
0.00 0.00 317.25 239.25 cl
/Font1 findfont 11 s
0.3020 0.3020 0.3020 srgb
62.35 18.71 (0.00) .5 0 t
104.02 18.71 (0.25) .5 0 t
145.69 18.71 (0.50) .5 0 t
187.35 18.71 (0.75) .5 0 t
229.02 18.71 (1.00) .5 0 t
0.00 0.00 317.25 239.25 cl
0.00 0.00 317.25 239.25 cl
0.00 0.00 317.25 239.25 cl
0.00 0.00 317.25 239.25 cl
0.00 0.00 317.25 239.25 cl
0.00 0.00 317.25 239.25 cl
/Font5 findfont 15 s
0 0 0 srgb
138.75 5.73 ( ) 0 0 t
142.50 5.73 (w) 0 0 t
0.00 0.00 317.25 239.25 cl
0.00 0.00 317.25 239.25 cl
/Font5 findfont 15 s
0 0 0 srgb
16.53 88.92 ( ) 0 90 t
/Font3 findfont 15 s
16.53 92.67 (S) 0 90 t
/Font3 findfont 11 s
19.28 104.33 (a) 0 90 t
/Font3 findfont 15 s
16.53 111.33 (,) 0 90 t
/Font5 findfont 15 s
16.53 115.50 ( ) 0 90 t
/Font3 findfont 15 s
16.53 119.25 (S) 0 90 t
/Font3 findfont 11 s
19.28 130.92 (T) 0 90 t
19.28 138.82 (m) 0 90 t
/Font3 findfont 15 s
16.53 148.87 (,) 0 90 t
/Font5 findfont 15 s
16.53 153.04 ( ) 0 90 t
/Font3 findfont 15 s
16.53 156.79 (S) 0 90 t
/Font3 findfont 11 s
19.28 168.46 (H) 0 90 t
0.00 0.00 317.25 239.25 cl
0.00 0.00 317.25 239.25 cl
0.00 0.00 317.25 239.25 cl
0.00 0.00 317.25 239.25 cl
0.00 0.00 317.25 239.25 cl
0.00 0.00 317.25 239.25 cl
0.00 0.00 317.25 239.25 cl
0.00 0.00 317.25 239.25 cl
/bg { 1 1 1 srgb } def
248.68 129.69 48.78 93.78 r p2
0.00 0.00 317.25 239.25 cl
0.00 0.00 317.25 239.25 cl
/Font5 findfont 11 s
0 0 0 srgb
254.35 209.35 ( ) 0 0 t
/Font3 findfont 11 s
257.10 209.35 (H) 0 0 t
0.00 0.00 317.25 239.25 cl
0.00 0.00 317.25 239.25 cl
/bg { 0.9490 0.9490 0.9490 srgb } def
1 1 1 srgb
1.07 setlinewidth
[] 0 setdash
1 setlinecap
1 setlinejoin
10.00 setmiterlimit
254.35 187.20 17.28 17.28 r p3
0.00 0.00 317.25 239.25 cl
0.00 0.00 317.25 239.25 cl
0.9725 0.4627 0.4275 srgb
1.07 setlinewidth
[] 0 setdash
0 setlinecap
1 setlinejoin
10.00 setmiterlimit
np
256.08 195.84 m
13.82 0 l
o
0.00 0.00 317.25 239.25 cl
0.00 0.00 317.25 239.25 cl
/bg { 0.9490 0.9490 0.9490 srgb } def
1 1 1 srgb
1.07 setlinewidth
[] 0 setdash
1 setlinecap
1 setlinejoin
10.00 setmiterlimit
254.35 169.92 17.28 17.28 r p3
0.00 0.00 317.25 239.25 cl
0.00 0.00 317.25 239.25 cl
0.4863 0.6824 0 srgb
1.07 setlinewidth
[] 0 setdash
0 setlinecap
1 setlinejoin
10.00 setmiterlimit
np
256.08 178.56 m
13.82 0 l
o
0.00 0.00 317.25 239.25 cl
0.00 0.00 317.25 239.25 cl
/bg { 0.9490 0.9490 0.9490 srgb } def
1 1 1 srgb
1.07 setlinewidth
[] 0 setdash
1 setlinecap
1 setlinejoin
10.00 setmiterlimit
254.35 152.64 17.28 17.28 r p3
0.00 0.00 317.25 239.25 cl
0.00 0.00 317.25 239.25 cl
0 0.7490 0.7686 srgb
1.07 setlinewidth
[] 0 setdash
0 setlinecap
1 setlinejoin
10.00 setmiterlimit
np
256.08 161.28 m
13.82 0 l
o
0.00 0.00 317.25 239.25 cl
0.00 0.00 317.25 239.25 cl
/bg { 0.9490 0.9490 0.9490 srgb } def
1 1 1 srgb
1.07 setlinewidth
[] 0 setdash
1 setlinecap
1 setlinejoin
10.00 setmiterlimit
254.35 135.36 17.28 17.28 r p3
0.00 0.00 317.25 239.25 cl
0.00 0.00 317.25 239.25 cl
0.7804 0.4863 1 srgb
1.07 setlinewidth
[] 0 setdash
0 setlinecap
1 setlinejoin
10.00 setmiterlimit
np
256.08 144.00 m
13.82 0 l
o
0.00 0.00 317.25 239.25 cl
0.00 0.00 317.25 239.25 cl
/Font1 findfont 9 s
0 0 0 srgb
273.79 192.60 (0.01) 0 0 t
0.00 0.00 317.25 239.25 cl
0.00 0.00 317.25 239.25 cl
/Font1 findfont 9 s
0 0 0 srgb
273.79 175.32 (0.1) 0 0 t
0.00 0.00 317.25 239.25 cl
0.00 0.00 317.25 239.25 cl
/Font1 findfont 9 s
0 0 0 srgb
273.79 158.04 (0.5) 0 0 t
0.00 0.00 317.25 239.25 cl
0.00 0.00 317.25 239.25 cl
/Font1 findfont 9 s
0 0 0 srgb
273.79 140.76 (1) 0 0 t
0.00 0.00 317.25 239.25 cl
0.00 0.00 317.25 239.25 cl
0.00 0.00 317.25 239.25 cl
0.00 0.00 317.25 239.25 cl
/bg { 1 1 1 srgb } def
248.68 41.85 63.09 76.50 r p2
0.00 0.00 317.25 239.25 cl
0.00 0.00 317.25 239.25 cl
/Font1 findfont 11 s
0 0 0 srgb
254.35 104.23 (P) 0 ta
-0.440 (ar) tb
-0.110 (ameter) tb gr
0.00 0.00 317.25 239.25 cl
0.00 0.00 317.25 239.25 cl
/bg { 0.9490 0.9490 0.9490 srgb } def
1 1 1 srgb
1.07 setlinewidth
[] 0 setdash
1 setlinecap
1 setlinejoin
10.00 setmiterlimit
254.35 82.08 17.28 17.28 r p3
0.00 0.00 317.25 239.25 cl
0.00 0.00 317.25 239.25 cl
0 0 0 srgb
1.07 setlinewidth
[] 0 setdash
0 setlinecap
1 setlinejoin
10.00 setmiterlimit
np
256.08 90.72 m
13.82 0 l
o
0.00 0.00 317.25 239.25 cl
0.00 0.00 317.25 239.25 cl
/bg { 0.9490 0.9490 0.9490 srgb } def
1 1 1 srgb
1.07 setlinewidth
[] 0 setdash
1 setlinecap
1 setlinejoin
10.00 setmiterlimit
254.35 64.80 17.28 17.28 r p3
0.00 0.00 317.25 239.25 cl
0.00 0.00 317.25 239.25 cl
0 0 0 srgb
1.07 setlinewidth
[ 2.13 2.13] 0 setdash
0 setlinecap
1 setlinejoin
10.00 setmiterlimit
np
256.08 73.44 m
13.82 0 l
o
0.00 0.00 317.25 239.25 cl
0.00 0.00 317.25 239.25 cl
/bg { 0.9490 0.9490 0.9490 srgb } def
1 1 1 srgb
1.07 setlinewidth
[] 0 setdash
1 setlinecap
1 setlinejoin
10.00 setmiterlimit
254.35 47.52 17.28 17.28 r p3
0.00 0.00 317.25 239.25 cl
0.00 0.00 317.25 239.25 cl
0 0 0 srgb
1.07 setlinewidth
[ 4.27 2.13] 0 setdash
0 setlinecap
1 setlinejoin
10.00 setmiterlimit
np
256.08 56.16 m
13.82 0 l
o
0.00 0.00 317.25 239.25 cl
0.00 0.00 317.25 239.25 cl
/Font1 findfont 9 s
0 0 0 srgb
273.79 87.49 (Tm) 0 0 t
0.00 0.00 317.25 239.25 cl
0.00 0.00 317.25 239.25 cl
/Font1 findfont 9 s
0 0 0 srgb
273.79 70.21 (a) 0 0 t
0.00 0.00 317.25 239.25 cl
0.00 0.00 317.25 239.25 cl
/Font1 findfont 9 s
0 0 0 srgb
273.79 52.93 (H) 0 0 t
0.00 0.00 317.25 239.25 cl
0.00 0.00 317.25 239.25 cl
0.00 0.00 317.25 239.25 cl
0.00 0.00 317.25 239.25 cl
0.00 0.00 317.25 239.25 cl
0.00 0.00 317.25 239.25 cl
0.00 0.00 317.25 239.25 cl
0.00 0.00 317.25 239.25 cl
0.00 0.00 317.25 239.25 cl
0.00 0.00 317.25 239.25 cl
ep
%%Trailer
%%Pages: 1
%%EOF
