%!PS-Adobe-3.0 EPSF-3.0
%%DocumentNeededResources: font Helvetica
%%+ font Helvetica-Bold
%%+ font Helvetica-Oblique
%%+ font Helvetica-BoldOblique
%%+ font Symbol
%%Title: R Graphics Output
%%Creator: R Software
%%Pages: (atend)
%%BoundingBox: 0 0 300 195
%%EndComments
%%BeginProlog
/bp  { gs sRGB gs } def
% begin .ps.prolog
/gs  { gsave } bind def
/gr  { grestore } bind def
/ep  { showpage gr gr } bind def
/m   { moveto } bind def
/l  { rlineto } bind def
/np  { newpath } bind def
/cp  { closepath } bind def
/f   { fill } bind def
/o   { stroke } bind def
/c   { newpath 0 360 arc } bind def
/r   { 4 2 roll moveto 1 copy 3 -1 roll exch 0 exch rlineto 0 rlineto -1 mul 0 exch rlineto closepath } bind def
/p1  { stroke } bind def
/p2  { gsave bg fill grestore newpath } bind def
/p3  { gsave bg fill grestore stroke } bind def
/p6  { gsave bg eofill grestore newpath } bind def
/p7  { gsave bg eofill grestore stroke } bind def
/t   { 5 -2 roll moveto gsave rotate
       1 index stringwidth pop
       mul neg 0 rmoveto show grestore } bind def
/ta  { 4 -2 roll moveto gsave rotate show } bind def
/tb  { 2 -1 roll 0 rmoveto show } bind def
/cl  { grestore gsave newpath 3 index 3 index moveto 1 index
       4 -1 roll lineto  exch 1 index lineto lineto
       closepath clip newpath } bind def
/rgb { setrgbcolor } bind def
/s   { scalefont setfont } bind def
% end   .ps.prolog
/sRGB { [ /CIEBasedABC
          << /DecodeLMN
               [ { dup 0.03928 le
                        {12.92321 div}
                        {0.055 add 1.055 div 2.4 exp }
                     ifelse
                 } bind dup dup
               ]
             /MatrixLMN [0.412457 0.212673 0.019334
                         0.357576 0.715152 0.119192
                         0.180437 0.072175 0.950301]
             /WhitePoint [0.9505 1.0 1.0890]
           >>
         ] setcolorspace } bind def
/srgb { setcolor } bind def
% begin encoding
/WinAnsiEncoding [
 /.notdef /.notdef /.notdef /.notdef /.notdef /.notdef /.notdef /.notdef
 /.notdef /.notdef /.notdef /.notdef /.notdef /.notdef /.notdef /.notdef
 /.notdef /.notdef /.notdef /.notdef /.notdef /.notdef /.notdef /.notdef
 /.notdef /.notdef /.notdef /.notdef /.notdef /.notdef /.notdef /.notdef
 /space /exclam /quotedbl /numbersign /dollar /percent /ampersand /quoteright
 /parenleft /parenright /asterisk /plus /comma /minus /period /slash
 /zero /one /two /three /four /five /six /seven
 /eight /nine /colon /semicolon /less /equal /greater /question
 /at /A /B /C /D /E /F /G
 /H /I /J /K /L /M /N /O
 /P /Q /R /S /T /U /V /W
 /X /Y /Z /bracketleft /backslash /bracketright /asciicircum /underscore
 /grave /a /b /c /d /e /f /g
 /h /i /j /k /l /m /n /o
 /p /q /r /s /t /u /v /w
 /x /y /z /braceleft /bar /braceright /asciitilde /.notdef
 /Euro /.notdef /quotesinglbase /florin /quotedblbase /ellipsis /dagger /daggerdbl
 /circumflex /perthousand /Scaron /guilsinglleft /OE /.notdef /Zcaron /.notdef
 /.notdef /quoteleft /quoteright /quotedblleft /quotedblright /bullet /endash /emdash
 /tilde /trademark /scaron /guilsinglright /oe /.notdef /zcaron /Ydieresis
 /space /exclamdown /cent /sterling /currency /yen /brokenbar /section
 /dieresis /copyright /ordfeminine /guillemotleft /logicalnot /hyphen /registered /macron
 /degree /plusminus /twosuperior /threesuperior /acute /mu /paragraph /periodcentered
 /cedilla /onesuperior /ordmasculine /guillemotright /onequarter /onehalf /threequarters /questiondown
 /Agrave /Aacute /Acircumflex /Atilde /Adieresis /Aring /AE /Ccedilla
 /Egrave /Eacute /Ecircumflex /Edieresis /Igrave /Iacute /Icircumflex /Idieresis
 /Eth /Ntilde /Ograve /Oacute /Ocircumflex /Otilde /Odieresis /multiply
 /Oslash /Ugrave /Uacute /Ucircumflex /Udieresis /Yacute /Thorn /germandbls
 /agrave /aacute /acircumflex /atilde /adieresis /aring /ae /ccedilla
 /egrave /eacute /ecircumflex /edieresis /igrave /iacute /icircumflex /idieresis
 /eth /ntilde /ograve /oacute /ocircumflex /otilde /odieresis /divide
 /oslash /ugrave /uacute /ucircumflex /udieresis /yacute /thorn /ydieresis
]
 def
% end encoding
%%IncludeResource: font Helvetica
/Helvetica findfont
dup length dict begin
  {1 index /FID ne {def} {pop pop} ifelse} forall
  /Encoding WinAnsiEncoding def
  currentdict
  end
/Font1 exch definefont pop
%%IncludeResource: font Helvetica-Bold
/Helvetica-Bold findfont
dup length dict begin
  {1 index /FID ne {def} {pop pop} ifelse} forall
  /Encoding WinAnsiEncoding def
  currentdict
  end
/Font2 exch definefont pop
%%IncludeResource: font Helvetica-Oblique
/Helvetica-Oblique findfont
dup length dict begin
  {1 index /FID ne {def} {pop pop} ifelse} forall
  /Encoding WinAnsiEncoding def
  currentdict
  end
/Font3 exch definefont pop
%%IncludeResource: font Helvetica-BoldOblique
/Helvetica-BoldOblique findfont
dup length dict begin
  {1 index /FID ne {def} {pop pop} ifelse} forall
  /Encoding WinAnsiEncoding def
  currentdict
  end
/Font4 exch definefont pop
%%IncludeResource: font Symbol
/Symbol findfont
dup length dict begin
  {1 index /FID ne {def} {pop pop} ifelse} forall
  currentdict
  end
/Font5 exch definefont pop
%%EndProlog
%%Page: 1 1
bp
0.00 0.00 300.00 195.00 cl
0.00 0.00 300.00 195.00 cl
0.00 0.00 300.00 195.00 cl
0.00 0.00 300.00 195.00 cl
0.00 0.00 300.00 195.00 cl
0.00 0.00 300.00 195.00 cl
0.00 0.00 300.00 195.00 cl
0.00 0.00 300.00 195.00 cl
0.00 0.00 300.00 195.00 cl
/bg { 1 1 1 srgb } def
1 1 1 srgb
1.07 setlinewidth
[] 0 setdash
1 setlinecap
1 setlinejoin
10.00 setmiterlimit
-0.00 0.00 300.00 195.00 r p3
0.00 0.00 300.00 195.00 cl
46.52 30.40 220.09 189.52 cl
/bg { 1 1 1 srgb } def
46.52 30.40 173.57 159.12 r p2
0.9216 0.9216 0.9216 srgb
0.53 setlinewidth
[] 0 setdash
0 setlinecap
1 setlinejoin
10.00 setmiterlimit
np
46.52 48.66 m
173.57 0 l
o
np
46.52 76.32 m
173.57 0 l
o
np
46.52 103.98 m
173.57 0 l
o
np
46.52 131.64 m
173.57 0 l
o
np
46.52 159.30 m
173.57 0 l
o
np
46.52 186.96 m
173.57 0 l
o
np
74.00 30.40 m
0 159.12 l
o
np
113.49 30.40 m
0 159.12 l
o
np
152.97 30.40 m
0 159.12 l
o
np
192.46 30.40 m
0 159.12 l
o
1.07 setlinewidth
[] 0 setdash
np
46.52 34.83 m
173.57 0 l
o
np
46.52 62.49 m
173.57 0 l
o
np
46.52 90.15 m
173.57 0 l
o
np
46.52 117.81 m
173.57 0 l
o
np
46.52 145.47 m
173.57 0 l
o
np
46.52 173.13 m
173.57 0 l
o
np
54.25 30.40 m
0 159.12 l
o
np
93.74 30.40 m
0 159.12 l
o
np
133.23 30.40 m
0 159.12 l
o
np
172.72 30.40 m
0 159.12 l
o
np
212.20 30.40 m
0 159.12 l
o
0.9725 0.4627 0.4275 srgb
1.00 setmiterlimit
np
54.41 61.08 m
0.20 1.41 l
0.20 0 l
0.19 0 l
0.20 0 l
0.20 0 l
0.20 0 l
0.19 0 l
0.20 0 l
0.20 0 l
0.20 0 l
0.19 0 l
0.20 0 l
0.20 0 l
0.20 0 l
0.19 0 l
0.20 0.01 l
0.20 0 l
0.20 0.01 l
0.19 0.01 l
0.20 0.03 l
0.20 0.02 l
0.20 0.04 l
0.19 0.06 l
0.20 0.07 l
0.20 0.08 l
0.20 0.11 l
0.19 0.13 l
0.20 0.15 l
0.20 0.18 l
0.20 0.20 l
0.19 0.23 l
0.20 0.27 l
0.20 0.29 l
0.20 0.33 l
0.19 0.35 l
0.20 0.39 l
0.20 0.42 l
0.20 0.46 l
0.19 0.48 l
0.20 0.51 l
0.20 0.55 l
0.20 0.57 l
0.19 0.61 l
0.20 0.63 l
0.20 0.66 l
0.20 0.68 l
0.19 0.71 l
0.20 0.73 l
0.20 0.76 l
0.20 0.77 l
0.19 0.80 l
0.20 0.81 l
0.20 0.84 l
0.20 0.85 l
0.19 0.86 l
0.20 0.88 l
0.20 0.89 l
0.20 0.91 l
0.19 0.92 l
0.20 0.92 l
0.20 0.94 l
0.20 0.94 l
0.19 0.95 l
0.20 0.96 l
0.20 0.96 l
0.20 0.97 l
0.19 0.97 l
0.20 0.97 l
0.20 0.98 l
0.20 0.98 l
0.19 0.98 l
0.20 0.98 l
0.20 0.98 l
0.20 0.97 l
0.19 0.98 l
0.20 0.98 l
0.20 0.97 l
0.20 0.97 l
0.19 0.97 l
0.20 0.96 l
0.20 0.96 l
0.20 0.96 l
0.19 0.95 l
0.20 0.95 l
0.20 0.94 l
0.20 0.93 l
0.19 0.93 l
0.20 0.93 l
0.20 0.92 l
0.20 0.91 l
0.19 0.90 l
0.20 0.90 l
0.20 0.89 l
0.20 0.88 l
0.19 0.88 l
0.20 0.87 l
0.20 0.86 l
0.20 0.86 l
0.19 0.84 l
74.16 120.13 lineto
0.20 0.84 l
0.20 0.82 l
0.19 0.81 l
0.20 0.81 l
0.20 0.80 l
0.20 0.79 l
0.19 0.79 l
0.20 0.77 l
0.20 0.77 l
0.20 0.76 l
0.19 0.75 l
0.20 0.75 l
0.20 0.73 l
0.20 0.73 l
0.19 0.72 l
0.20 0.71 l
0.20 0.71 l
0.20 0.69 l
0.19 0.69 l
0.20 0.68 l
0.20 0.67 l
0.20 0.67 l
0.19 0.65 l
0.20 0.65 l
0.20 0.64 l
0.19 0.64 l
0.20 0.62 l
0.20 0.62 l
0.20 0.61 l
0.19 0.61 l
0.20 0.59 l
0.20 0.59 l
0.20 0.58 l
0.19 0.58 l
0.20 0.57 l
0.20 0.56 l
0.20 0.55 l
0.19 0.55 l
0.20 0.54 l
0.20 0.53 l
0.20 0.53 l
0.19 0.51 l
0.20 0.52 l
0.20 0.50 l
0.20 0.50 l
0.19 0.50 l
0.20 0.48 l
0.20 0.49 l
0.20 0.47 l
0.19 0.47 l
0.20 0.46 l
0.20 0.46 l
0.20 0.45 l
0.19 0.44 l
0.20 0.44 l
0.20 0.43 l
0.20 0.43 l
0.19 0.42 l
0.20 0.42 l
0.20 0.41 l
0.20 0.40 l
0.19 0.40 l
0.20 0.40 l
0.20 0.39 l
0.20 0.38 l
0.19 0.38 l
0.20 0.37 l
0.20 0.37 l
0.20 0.37 l
0.19 0.35 l
0.20 0.36 l
0.20 0.35 l
0.20 0.34 l
0.19 0.34 l
0.20 0.33 l
0.20 0.34 l
0.20 0.32 l
0.19 0.32 l
0.20 0.32 l
0.20 0.31 l
0.20 0.31 l
0.19 0.30 l
0.20 0.30 l
0.20 0.30 l
0.20 0.29 l
0.19 0.29 l
0.20 0.28 l
0.20 0.28 l
0.20 0.28 l
0.19 0.27 l
0.20 0.26 l
0.20 0.27 l
0.20 0.26 l
0.19 0.26 l
0.20 0.25 l
0.20 0.25 l
0.20 0.24 l
0.19 0.25 l
0.20 0.23 l
93.91 169.15 lineto
0.20 0.23 l
0.19 0.23 l
0.20 0.23 l
0.20 0.22 l
0.20 0.22 l
0.19 0.21 l
0.20 0.22 l
0.20 0.21 l
0.20 0.20 l
0.19 0.21 l
0.20 0.20 l
0.20 0.19 l
0.20 0.20 l
0.19 0.19 l
0.20 0.19 l
0.20 0.19 l
0.20 0.18 l
0.19 0.18 l
0.20 0.18 l
0.20 0.17 l
0.20 0.18 l
0.19 0.17 l
0.20 0.16 l
0.20 0.17 l
0.20 0.16 l
0.19 0.16 l
0.20 0.16 l
0.20 0.16 l
0.20 0.15 l
0.19 0.15 l
0.20 0.15 l
0.20 0.14 l
0.20 0.15 l
0.19 0.14 l
0.20 0.14 l
0.20 0.14 l
0.20 0.13 l
0.19 0.13 l
0.20 0.14 l
0.20 0.12 l
0.20 0.13 l
0.19 0.13 l
0.20 0.12 l
0.20 0.12 l
0.20 0.12 l
0.19 0.12 l
0.20 0.11 l
0.20 0.12 l
0.20 0.11 l
0.19 0.11 l
0.20 0.10 l
0.20 0.11 l
0.20 0.11 l
0.19 0.10 l
0.20 0.10 l
0.20 0.10 l
0.20 0.10 l
0.19 0.09 l
0.20 0.10 l
0.20 0.09 l
0.20 0.09 l
0.19 0.09 l
0.20 0.09 l
0.20 0.09 l
0.20 0.08 l
0.19 0.08 l
0.20 0.09 l
0.20 0.08 l
0.20 0.08 l
0.19 0.08 l
0.20 0.07 l
0.20 0.08 l
0.20 0.07 l
0.19 0.07 l
0.20 0.08 l
0.20 0.07 l
0.20 0.06 l
0.19 0.07 l
0.20 0.07 l
0.20 0.06 l
0.20 0.07 l
0.19 0.06 l
0.20 0.06 l
0.20 0.06 l
0.20 0.06 l
0.19 0.06 l
0.20 0.06 l
0.20 0.05 l
0.20 0.06 l
0.19 0.05 l
0.20 0.05 l
0.20 0.05 l
0.20 0.05 l
0.19 0.05 l
0.20 0.05 l
0.20 0.05 l
0.20 0.05 l
0.19 0.04 l
0.20 0.05 l
113.66 181.01 lineto
0.20 0.04 l
0.19 0.04 l
0.20 0.04 l
0.20 0.04 l
0.20 0.04 l
0.19 0.04 l
0.20 0.04 l
0.20 0.03 l
0.20 0.04 l
0.19 0.03 l
0.20 0.04 l
0.20 0.03 l
0.20 0.03 l
0.19 0.03 l
0.20 0.04 l
0.20 0.03 l
0.20 0.02 l
0.19 0.03 l
0.20 0.03 l
0.20 0.03 l
0.20 0.02 l
0.19 0.03 l
0.20 0.02 l
0.20 0.03 l
0.19 0.02 l
0.20 0.02 l
0.20 0.03 l
0.20 0.02 l
0.19 0.02 l
0.20 0.02 l
0.20 0.02 l
0.20 0.02 l
0.19 0.01 l
0.20 0.02 l
0.20 0.02 l
0.20 0.02 l
0.19 0.01 l
0.20 0.02 l
0.20 0.01 l
0.20 0.02 l
0.19 0.01 l
0.20 0.01 l
0.20 0.01 l
0.20 0.02 l
0.19 0.01 l
0.20 0.01 l
0.20 0.01 l
0.20 0.01 l
0.19 0.01 l
0.20 0.01 l
0.20 0 l
0.20 0.01 l
0.19 0.01 l
0.20 0.01 l
0.20 0 l
0.20 0.01 l
0.19 0 l
0.20 0.01 l
0.20 0 l
0.20 0.01 l
0.19 0 l
0.20 0.01 l
0.20 0 l
0.20 0 l
0.19 0 l
0.20 0 l
0.20 0.01 l
0.20 0 l
0.19 0 l
0.20 0 l
0.20 0 l
0.20 0 l
0.19 0 l
0.20 -0.01 l
0.20 0 l
0.20 0 l
0.19 0 l
0.20 0 l
0.20 -0.01 l
0.20 0 l
0.19 0 l
0.20 -0.01 l
0.20 0 l
0.20 -0.01 l
0.19 0 l
0.20 -0.01 l
0.20 0 l
0.20 -0.01 l
0.19 -0.01 l
0.20 0 l
0.20 -0.01 l
0.20 -0.01 l
0.19 0 l
0.20 -0.01 l
0.20 -0.01 l
0.20 -0.01 l
0.19 -0.01 l
0.20 -0.01 l
0.20 0 l
133.41 182.14 lineto
0.19 -0.01 l
0.20 -0.01 l
0.20 -0.01 l
0.20 -0.01 l
0.19 -0.01 l
0.20 -0.01 l
0.20 -0.02 l
0.20 -0.01 l
0.19 -0.01 l
0.20 -0.01 l
0.20 -0.01 l
0.20 -0.01 l
0.19 -0.02 l
0.20 -0.01 l
0.20 -0.01 l
0.20 -0.01 l
0.19 -0.02 l
0.20 -0.01 l
0.20 -0.02 l
0.20 -0.01 l
0.19 -0.01 l
0.20 -0.02 l
0.20 -0.01 l
0.20 -0.02 l
0.19 -0.01 l
0.20 -0.02 l
0.20 -0.01 l
0.20 -0.02 l
0.19 -0.01 l
0.20 -0.02 l
0.20 -0.01 l
0.20 -0.02 l
0.19 -0.02 l
0.20 -0.01 l
0.20 -0.02 l
0.20 -0.01 l
0.19 -0.02 l
0.20 -0.02 l
0.20 -0.02 l
0.20 -0.01 l
0.19 -0.02 l
0.20 -0.02 l
0.20 -0.02 l
0.20 -0.01 l
0.19 -0.02 l
0.20 -0.02 l
0.20 -0.02 l
0.20 -0.02 l
0.19 -0.01 l
0.20 -0.02 l
0.20 -0.02 l
0.20 -0.02 l
0.19 -0.02 l
0.20 -0.02 l
0.20 -0.02 l
0.20 -0.02 l
0.19 -0.02 l
0.20 -0.02 l
0.20 -0.02 l
0.20 -0.02 l
0.19 -0.02 l
0.20 -0.02 l
0.20 -0.02 l
0.20 -0.02 l
0.19 -0.02 l
0.20 -0.02 l
0.20 -0.02 l
0.20 -0.02 l
0.19 -0.02 l
0.20 -0.02 l
0.20 -0.02 l
0.20 -0.02 l
0.19 -0.02 l
0.20 -0.03 l
0.20 -0.02 l
0.20 -0.02 l
0.19 -0.02 l
0.20 -0.02 l
0.20 -0.02 l
0.20 -0.03 l
0.19 -0.02 l
0.20 -0.02 l
0.20 -0.02 l
0.20 -0.02 l
0.19 -0.03 l
0.20 -0.02 l
0.20 -0.02 l
0.20 -0.02 l
0.19 -0.03 l
0.20 -0.02 l
0.20 -0.02 l
0.20 -0.02 l
0.19 -0.03 l
0.20 -0.02 l
0.20 -0.02 l
0.20 -0.03 l
0.19 -0.02 l
0.20 -0.02 l
0.20 -0.03 l
153.16 180.34 lineto
0.19 -0.02 l
0.20 -0.03 l
0.20 -0.02 l
0.20 -0.02 l
0.19 -0.03 l
0.20 -0.02 l
0.20 -0.03 l
0.20 -0.02 l
0.19 -0.02 l
0.20 -0.03 l
0.20 -0.02 l
0.20 -0.03 l
0.19 -0.02 l
0.20 -0.02 l
0.20 -0.03 l
0.20 -0.02 l
0.19 -0.03 l
0.20 -0.02 l
0.20 -0.03 l
0.20 -0.02 l
0.19 -0.03 l
0.20 -0.02 l
0.20 -0.03 l
0.19 -0.02 l
0.20 -0.02 l
0.20 -0.03 l
0.20 -0.02 l
0.19 -0.03 l
0.20 -0.02 l
0.20 -0.03 l
0.20 -0.02 l
0.19 -0.03 l
0.20 -0.02 l
0.20 -0.03 l
0.20 -0.02 l
0.19 -0.03 l
0.20 -0.03 l
0.20 -0.02 l
0.20 -0.03 l
0.19 -0.02 l
0.20 -0.03 l
0.20 -0.02 l
0.20 -0.03 l
0.19 -0.02 l
0.20 -0.03 l
0.20 -0.02 l
0.20 -0.03 l
0.19 -0.03 l
0.20 -0.02 l
0.20 -0.03 l
0.20 -0.02 l
0.19 -0.03 l
0.20 -0.02 l
0.20 -0.03 l
0.20 -0.03 l
0.19 -0.02 l
0.20 -0.03 l
0.20 -0.02 l
0.20 -0.03 l
0.19 -0.03 l
0.20 -0.02 l
0.20 -0.03 l
0.20 -0.02 l
0.19 -0.03 l
0.20 -0.03 l
0.20 -0.02 l
0.20 -0.03 l
0.19 -0.03 l
0.20 -0.02 l
0.20 -0.03 l
0.20 -0.02 l
0.19 -0.03 l
0.20 -0.03 l
0.20 -0.02 l
0.20 -0.03 l
0.19 -0.03 l
0.20 -0.02 l
0.20 -0.03 l
0.20 -0.03 l
0.19 -0.02 l
0.20 -0.03 l
0.20 -0.03 l
0.20 -0.02 l
0.19 -0.03 l
0.20 -0.03 l
0.20 -0.02 l
0.20 -0.03 l
0.19 -0.03 l
0.20 -0.02 l
0.20 -0.03 l
0.20 -0.03 l
0.19 -0.02 l
0.20 -0.03 l
0.20 -0.03 l
0.20 -0.02 l
0.19 -0.03 l
0.20 -0.03 l
0.20 -0.02 l
0.20 -0.03 l
172.90 177.78 lineto
0.20 -0.02 l
0.20 -0.03 l
0.20 -0.03 l
0.19 -0.02 l
0.20 -0.03 l
0.20 -0.03 l
0.20 -0.02 l
0.19 -0.03 l
0.20 -0.03 l
0.20 -0.02 l
0.20 -0.03 l
0.19 -0.03 l
0.20 -0.03 l
0.20 -0.02 l
0.20 -0.03 l
0.19 -0.03 l
0.20 -0.02 l
0.20 -0.03 l
0.20 -0.03 l
0.19 -0.02 l
0.20 -0.03 l
0.20 -0.03 l
0.20 -0.03 l
0.19 -0.02 l
0.20 -0.03 l
0.20 -0.03 l
0.20 -0.02 l
0.19 -0.03 l
0.20 -0.03 l
0.20 -0.03 l
0.20 -0.02 l
0.19 -0.03 l
0.20 -0.03 l
0.20 -0.02 l
0.20 -0.03 l
0.19 -0.03 l
0.20 -0.03 l
0.20 -0.02 l
0.20 -0.03 l
0.19 -0.03 l
0.20 -0.02 l
0.20 -0.03 l
0.20 -0.03 l
0.19 -0.03 l
0.20 -0.02 l
0.20 -0.03 l
0.20 -0.03 l
0.19 -0.02 l
0.20 -0.03 l
0.20 -0.03 l
0.20 -0.03 l
0.19 -0.02 l
0.20 -0.03 l
0.20 -0.03 l
0.20 -0.02 l
0.19 -0.03 l
0.20 -0.03 l
0.20 -0.03 l
0.20 -0.02 l
0.19 -0.03 l
0.20 -0.03 l
0.20 -0.03 l
0.20 -0.02 l
0.19 -0.03 l
0.20 -0.03 l
0.20 -0.02 l
0.20 -0.03 l
0.19 -0.03 l
0.20 -0.03 l
0.20 -0.02 l
0.20 -0.03 l
0.19 -0.03 l
0.20 -0.03 l
0.20 -0.02 l
0.20 -0.03 l
0.19 -0.03 l
0.20 -0.02 l
0.20 -0.03 l
0.20 -0.03 l
0.19 -0.03 l
0.20 -0.02 l
0.20 -0.03 l
0.20 -0.03 l
0.19 -0.03 l
0.20 -0.02 l
0.20 -0.03 l
0.20 -0.03 l
0.19 -0.02 l
0.20 -0.03 l
0.20 -0.03 l
0.20 -0.03 l
0.19 -0.02 l
0.20 -0.03 l
0.20 -0.03 l
0.20 -0.03 l
0.19 -0.02 l
0.20 -0.03 l
0.20 -0.03 l
0.20 -0.02 l
192.65 175.07 lineto
0.20 -0.03 l
0.20 -0.03 l
0.20 -0.02 l
0.19 -0.03 l
0.20 -0.03 l
0.20 -0.03 l
0.20 -0.02 l
0.19 -0.03 l
0.20 -0.03 l
0.20 -0.02 l
0.20 -0.03 l
0.19 -0.03 l
0.20 -0.03 l
0.20 -0.02 l
0.20 -0.03 l
0.19 -0.03 l
0.20 -0.02 l
0.20 -0.03 l
0.20 -0.03 l
0.19 -0.03 l
0.20 -0.02 l
0.20 -0.03 l
0.19 -0.03 l
0.20 -0.03 l
0.20 -0.02 l
0.20 -0.03 l
0.19 -0.03 l
0.20 -0.02 l
0.20 -0.03 l
0.20 -0.03 l
0.19 -0.03 l
0.20 -0.02 l
0.20 -0.03 l
0.20 -0.03 l
0.19 -0.02 l
0.20 -0.03 l
0.20 -0.03 l
0.20 -0.03 l
0.19 -0.02 l
0.20 -0.03 l
0.20 -0.03 l
0.20 -0.02 l
0.19 -0.03 l
0.20 -0.03 l
0.20 -0.03 l
0.20 -0.02 l
0.19 -0.03 l
0.20 -0.03 l
0.20 -0.02 l
0.20 -0.03 l
0.19 -0.03 l
0.20 -0.03 l
0.20 -0.02 l
0.20 -0.03 l
0.19 -0.03 l
0.20 -0.02 l
0.20 -0.03 l
0.20 -0.03 l
0.19 -0.03 l
0.20 -0.02 l
0.20 -0.03 l
0.20 -0.03 l
0.19 -0.02 l
0.20 -0.03 l
0.20 -0.03 l
0.20 -0.03 l
0.19 -0.02 l
0.20 -0.03 l
0.20 -0.03 l
0.20 -0.02 l
0.19 -0.03 l
0.20 -0.03 l
0.20 -0.02 l
0.20 -0.03 l
0.19 -0.03 l
0.20 -0.03 l
0.20 -0.02 l
0.20 -0.03 l
0.19 -0.03 l
0.20 -0.02 l
0.20 -0.03 l
0.20 -0.03 l
0.19 -0.03 l
0.20 -0.02 l
0.20 -0.03 l
0.20 -0.03 l
0.19 -0.02 l
0.20 -0.03 l
0.20 -0.03 l
0.20 -0.02 l
0.19 -0.03 l
0.20 -0.03 l
0.20 -0.02 l
0.20 -0.03 l
0.19 -0.03 l
0.20 -0.03 l
0.20 -0.02 l
0.20 -0.03 l
0.19 -0.03 l
o
0 0.7294 0.2196 srgb
np
54.41 63.89 m
0.20 -1.40 l
0.20 0 l
0.19 0 l
0.20 0 l
0.20 0 l
0.20 0 l
0.19 0 l
0.20 0 l
0.20 0 l
0.20 0 l
0.19 0 l
0.20 0 l
0.20 0.01 l
0.20 0.01 l
0.19 0.02 l
0.20 0.03 l
0.20 0.06 l
0.20 0.08 l
0.19 0.13 l
0.20 0.18 l
0.20 0.24 l
0.20 0.31 l
0.19 0.39 l
0.20 0.47 l
0.20 0.57 l
0.20 0.66 l
0.19 0.76 l
0.20 0.86 l
0.20 0.96 l
0.20 1.06 l
0.19 1.15 l
0.20 1.24 l
0.20 1.32 l
0.20 1.41 l
0.19 1.48 l
0.20 1.55 l
0.20 1.60 l
0.20 1.66 l
0.19 1.71 l
0.20 1.74 l
0.20 1.78 l
0.20 1.80 l
0.19 1.83 l
0.20 1.83 l
0.20 1.84 l
0.20 1.85 l
0.19 1.84 l
0.20 1.83 l
0.20 1.83 l
0.20 1.80 l
0.19 1.79 l
0.20 1.76 l
0.20 1.74 l
0.20 1.70 l
0.19 1.68 l
0.20 1.64 l
0.20 1.60 l
0.20 1.57 l
0.19 1.53 l
0.20 1.49 l
0.20 1.45 l
0.20 1.40 l
0.19 1.37 l
0.20 1.32 l
0.20 1.27 l
0.20 1.24 l
0.19 1.19 l
0.20 1.14 l
0.20 1.10 l
0.20 1.06 l
0.19 1.02 l
0.20 0.97 l
0.20 0.93 l
0.20 0.89 l
0.19 0.85 l
0.20 0.81 l
0.20 0.76 l
0.20 0.73 l
0.19 0.69 l
0.20 0.65 l
0.20 0.61 l
0.20 0.58 l
0.19 0.54 l
0.20 0.51 l
0.20 0.47 l
0.20 0.44 l
0.19 0.41 l
0.20 0.37 l
0.20 0.35 l
0.20 0.31 l
0.19 0.29 l
0.20 0.25 l
0.20 0.23 l
0.20 0.20 l
0.19 0.18 l
0.20 0.15 l
0.20 0.13 l
0.20 0.10 l
0.19 0.08 l
74.16 145.97 lineto
0.20 0.04 l
0.20 0.01 l
0.19 -0.01 l
0.20 -0.03 l
0.20 -0.04 l
0.20 -0.07 l
0.19 -0.08 l
0.20 -0.10 l
0.20 -0.12 l
0.20 -0.13 l
0.19 -0.15 l
0.20 -0.17 l
0.20 -0.18 l
0.20 -0.19 l
0.19 -0.21 l
0.20 -0.22 l
0.20 -0.23 l
0.20 -0.24 l
0.19 -0.26 l
0.20 -0.27 l
0.20 -0.28 l
0.20 -0.29 l
0.19 -0.29 l
0.20 -0.31 l
0.20 -0.32 l
0.19 -0.33 l
0.20 -0.33 l
0.20 -0.34 l
0.20 -0.36 l
0.19 -0.35 l
0.20 -0.37 l
0.20 -0.37 l
0.20 -0.38 l
0.19 -0.39 l
0.20 -0.39 l
0.20 -0.39 l
0.20 -0.41 l
0.19 -0.40 l
0.20 -0.42 l
0.20 -0.41 l
0.20 -0.42 l
0.19 -0.43 l
0.20 -0.43 l
0.20 -0.43 l
0.20 -0.44 l
0.19 -0.44 l
0.20 -0.44 l
0.20 -0.45 l
0.20 -0.45 l
0.19 -0.45 l
0.20 -0.45 l
0.20 -0.46 l
0.20 -0.46 l
0.19 -0.46 l
0.20 -0.46 l
0.20 -0.46 l
0.20 -0.47 l
0.19 -0.46 l
0.20 -0.47 l
0.20 -0.47 l
0.20 -0.47 l
0.19 -0.47 l
0.20 -0.47 l
0.20 -0.47 l
0.20 -0.47 l
0.19 -0.47 l
0.20 -0.48 l
0.20 -0.47 l
0.20 -0.47 l
0.19 -0.48 l
0.20 -0.47 l
0.20 -0.47 l
0.20 -0.47 l
0.19 -0.47 l
0.20 -0.48 l
0.20 -0.47 l
0.20 -0.47 l
0.19 -0.47 l
0.20 -0.46 l
0.20 -0.47 l
0.20 -0.47 l
0.19 -0.47 l
0.20 -0.46 l
0.20 -0.46 l
0.20 -0.47 l
0.19 -0.46 l
0.20 -0.46 l
0.20 -0.46 l
0.20 -0.46 l
0.19 -0.45 l
0.20 -0.46 l
0.20 -0.45 l
0.20 -0.46 l
0.19 -0.45 l
0.20 -0.45 l
0.20 -0.44 l
0.20 -0.45 l
0.19 -0.44 l
0.20 -0.45 l
93.91 108.66 lineto
0.20 -0.44 l
0.19 -0.43 l
0.20 -0.44 l
0.20 -0.43 l
0.20 -0.44 l
0.19 -0.43 l
0.20 -0.42 l
0.20 -0.43 l
0.20 -0.42 l
0.19 -0.43 l
0.20 -0.42 l
0.20 -0.42 l
0.20 -0.41 l
0.19 -0.42 l
0.20 -0.41 l
0.20 -0.41 l
0.20 -0.41 l
0.19 -0.40 l
0.20 -0.41 l
0.20 -0.40 l
0.20 -0.40 l
0.19 -0.40 l
0.20 -0.39 l
0.20 -0.39 l
0.20 -0.40 l
0.19 -0.38 l
0.20 -0.39 l
0.20 -0.39 l
0.20 -0.38 l
0.19 -0.38 l
0.20 -0.38 l
0.20 -0.37 l
0.20 -0.38 l
0.19 -0.37 l
0.20 -0.37 l
0.20 -0.36 l
0.20 -0.37 l
0.19 -0.36 l
0.20 -0.36 l
0.20 -0.36 l
0.20 -0.36 l
0.19 -0.35 l
0.20 -0.35 l
0.20 -0.35 l
0.20 -0.35 l
0.19 -0.34 l
0.20 -0.35 l
0.20 -0.34 l
0.20 -0.34 l
0.19 -0.33 l
0.20 -0.34 l
0.20 -0.33 l
0.20 -0.33 l
0.19 -0.33 l
0.20 -0.32 l
0.20 -0.33 l
0.20 -0.32 l
0.19 -0.32 l
0.20 -0.31 l
0.20 -0.32 l
0.20 -0.31 l
0.19 -0.31 l
0.20 -0.31 l
0.20 -0.31 l
0.20 -0.30 l
0.19 -0.30 l
0.20 -0.30 l
0.20 -0.30 l
0.20 -0.30 l
0.19 -0.29 l
0.20 -0.29 l
0.20 -0.29 l
0.20 -0.29 l
0.19 -0.29 l
0.20 -0.28 l
0.20 -0.28 l
0.20 -0.28 l
0.19 -0.28 l
0.20 -0.28 l
0.20 -0.27 l
0.20 -0.27 l
0.19 -0.27 l
0.20 -0.27 l
0.20 -0.27 l
0.20 -0.26 l
0.19 -0.27 l
0.20 -0.26 l
0.20 -0.25 l
0.20 -0.26 l
0.19 -0.26 l
0.20 -0.25 l
0.20 -0.25 l
0.20 -0.25 l
0.19 -0.25 l
0.20 -0.24 l
0.20 -0.25 l
0.20 -0.24 l
0.19 -0.24 l
0.20 -0.24 l
113.66 75.01 lineto
0.20 -0.24 l
0.19 -0.23 l
0.20 -0.23 l
0.20 -0.23 l
0.20 -0.23 l
0.19 -0.23 l
0.20 -0.22 l
0.20 -0.23 l
0.20 -0.22 l
0.19 -0.22 l
0.20 -0.21 l
0.20 -0.22 l
0.20 -0.22 l
0.19 -0.21 l
0.20 -0.21 l
0.20 -0.21 l
0.20 -0.21 l
0.19 -0.20 l
0.20 -0.21 l
0.20 -0.20 l
0.20 -0.20 l
0.19 -0.21 l
0.20 -0.19 l
0.20 -0.20 l
0.19 -0.20 l
0.20 -0.19 l
0.20 -0.19 l
0.20 -0.20 l
0.19 -0.19 l
0.20 -0.18 l
0.20 -0.19 l
0.20 -0.19 l
0.19 -0.18 l
0.20 -0.18 l
0.20 -0.19 l
0.20 -0.18 l
0.19 -0.17 l
0.20 -0.18 l
0.20 -0.18 l
0.20 -0.17 l
0.19 -0.18 l
0.20 -0.17 l
0.20 -0.17 l
0.20 -0.17 l
0.19 -0.16 l
0.20 -0.17 l
0.20 -0.17 l
0.20 -0.16 l
0.19 -0.16 l
0.20 -0.17 l
0.20 -0.16 l
0.20 -0.15 l
0.19 -0.16 l
0.20 -0.16 l
0.20 -0.15 l
0.20 -0.16 l
0.19 -0.15 l
0.20 -0.15 l
0.20 -0.15 l
0.20 -0.15 l
0.19 -0.15 l
0.20 -0.15 l
0.20 -0.15 l
0.20 -0.14 l
0.19 -0.14 l
0.20 -0.15 l
0.20 -0.14 l
0.20 -0.14 l
0.19 -0.14 l
0.20 -0.14 l
0.20 -0.13 l
0.20 -0.14 l
0.19 -0.14 l
0.20 -0.13 l
0.20 -0.13 l
0.20 -0.14 l
0.19 -0.13 l
0.20 -0.13 l
0.20 -0.13 l
0.20 -0.12 l
0.19 -0.13 l
0.20 -0.13 l
0.20 -0.12 l
0.20 -0.13 l
0.19 -0.12 l
0.20 -0.12 l
0.20 -0.12 l
0.20 -0.12 l
0.19 -0.12 l
0.20 -0.12 l
0.20 -0.12 l
0.20 -0.12 l
0.19 -0.11 l
0.20 -0.12 l
0.20 -0.11 l
0.20 -0.12 l
0.19 -0.11 l
0.20 -0.11 l
0.20 -0.11 l
133.41 58.52 lineto
0.19 -0.11 l
0.20 -0.11 l
0.20 -0.11 l
0.20 -0.10 l
0.19 -0.11 l
0.20 -0.11 l
0.20 -0.10 l
0.20 -0.10 l
0.19 -0.11 l
0.20 -0.10 l
0.20 -0.10 l
0.20 -0.10 l
0.19 -0.10 l
0.20 -0.10 l
0.20 -0.10 l
0.20 -0.10 l
0.19 -0.09 l
0.20 -0.10 l
0.20 -0.09 l
0.20 -0.10 l
0.19 -0.09 l
0.20 -0.10 l
0.20 -0.09 l
0.20 -0.09 l
0.19 -0.09 l
0.20 -0.09 l
0.20 -0.09 l
0.20 -0.09 l
0.19 -0.09 l
0.20 -0.09 l
0.20 -0.09 l
0.20 -0.08 l
0.19 -0.09 l
0.20 -0.09 l
0.20 -0.08 l
0.20 -0.09 l
0.19 -0.08 l
0.20 -0.08 l
0.20 -0.09 l
0.20 -0.08 l
0.19 -0.08 l
0.20 -0.08 l
0.20 -0.08 l
0.20 -0.08 l
0.19 -0.08 l
0.20 -0.08 l
0.20 -0.08 l
0.20 -0.08 l
0.19 -0.07 l
0.20 -0.08 l
0.20 -0.07 l
0.20 -0.08 l
0.19 -0.08 l
0.20 -0.07 l
0.20 -0.07 l
0.20 -0.08 l
0.19 -0.07 l
0.20 -0.07 l
0.20 -0.08 l
0.20 -0.07 l
0.19 -0.07 l
0.20 -0.07 l
0.20 -0.07 l
0.20 -0.07 l
0.19 -0.07 l
0.20 -0.07 l
0.20 -0.06 l
0.20 -0.07 l
0.19 -0.07 l
0.20 -0.07 l
0.20 -0.06 l
0.20 -0.07 l
0.19 -0.06 l
0.20 -0.07 l
0.20 -0.06 l
0.20 -0.07 l
0.19 -0.06 l
0.20 -0.07 l
0.20 -0.06 l
0.20 -0.06 l
0.19 -0.06 l
0.20 -0.07 l
0.20 -0.06 l
0.20 -0.06 l
0.19 -0.06 l
0.20 -0.06 l
0.20 -0.06 l
0.20 -0.06 l
0.19 -0.06 l
0.20 -0.06 l
0.20 -0.06 l
0.20 -0.06 l
0.19 -0.05 l
0.20 -0.06 l
0.20 -0.06 l
0.20 -0.06 l
0.19 -0.05 l
0.20 -0.06 l
0.20 -0.05 l
153.16 50.68 lineto
0.19 -0.05 l
0.20 -0.06 l
0.20 -0.05 l
0.20 -0.06 l
0.19 -0.05 l
0.20 -0.06 l
0.20 -0.05 l
0.20 -0.05 l
0.19 -0.05 l
0.20 -0.06 l
0.20 -0.05 l
0.20 -0.05 l
0.19 -0.05 l
0.20 -0.05 l
0.20 -0.05 l
0.20 -0.05 l
0.19 -0.05 l
0.20 -0.05 l
0.20 -0.05 l
0.20 -0.05 l
0.19 -0.05 l
0.20 -0.05 l
0.20 -0.05 l
0.19 -0.05 l
0.20 -0.05 l
0.20 -0.05 l
0.20 -0.04 l
0.19 -0.05 l
0.20 -0.05 l
0.20 -0.04 l
0.20 -0.05 l
0.19 -0.05 l
0.20 -0.04 l
0.20 -0.05 l
0.20 -0.05 l
0.19 -0.04 l
0.20 -0.05 l
0.20 -0.04 l
0.20 -0.05 l
0.19 -0.04 l
0.20 -0.05 l
0.20 -0.04 l
0.20 -0.04 l
0.19 -0.05 l
0.20 -0.04 l
0.20 -0.04 l
0.20 -0.05 l
0.19 -0.04 l
0.20 -0.04 l
0.20 -0.04 l
0.20 -0.05 l
0.19 -0.04 l
0.20 -0.04 l
0.20 -0.04 l
0.20 -0.04 l
0.19 -0.04 l
0.20 -0.05 l
0.20 -0.04 l
0.20 -0.04 l
0.19 -0.04 l
0.20 -0.04 l
0.20 -0.04 l
0.20 -0.04 l
0.19 -0.04 l
0.20 -0.04 l
0.20 -0.04 l
0.20 -0.04 l
0.19 -0.04 l
0.20 -0.03 l
0.20 -0.04 l
0.20 -0.04 l
0.19 -0.04 l
0.20 -0.04 l
0.20 -0.04 l
0.20 -0.03 l
0.19 -0.04 l
0.20 -0.04 l
0.20 -0.04 l
0.20 -0.03 l
0.19 -0.04 l
0.20 -0.04 l
0.20 -0.04 l
0.20 -0.03 l
0.19 -0.04 l
0.20 -0.04 l
0.20 -0.03 l
0.20 -0.04 l
0.19 -0.03 l
0.20 -0.04 l
0.20 -0.03 l
0.20 -0.04 l
0.19 -0.04 l
0.20 -0.03 l
0.20 -0.04 l
0.20 -0.03 l
0.19 -0.04 l
0.20 -0.03 l
0.20 -0.04 l
0.20 -0.03 l
172.90 46.37 lineto
0.20 -0.04 l
0.20 -0.03 l
0.20 -0.04 l
0.19 -0.03 l
0.20 -0.03 l
0.20 -0.04 l
0.20 -0.03 l
0.19 -0.04 l
0.20 -0.03 l
0.20 -0.03 l
0.20 -0.03 l
0.19 -0.04 l
0.20 -0.03 l
0.20 -0.03 l
0.20 -0.04 l
0.19 -0.03 l
0.20 -0.03 l
0.20 -0.03 l
0.20 -0.04 l
0.19 -0.03 l
0.20 -0.03 l
0.20 -0.03 l
0.20 -0.03 l
0.19 -0.03 l
0.20 -0.04 l
0.20 -0.03 l
0.20 -0.03 l
0.19 -0.03 l
0.20 -0.03 l
0.20 -0.03 l
0.20 -0.03 l
0.19 -0.03 l
0.20 -0.04 l
0.20 -0.03 l
0.20 -0.03 l
0.19 -0.03 l
0.20 -0.03 l
0.20 -0.03 l
0.20 -0.03 l
0.19 -0.03 l
0.20 -0.03 l
0.20 -0.03 l
0.20 -0.03 l
0.19 -0.03 l
0.20 -0.03 l
0.20 -0.03 l
0.20 -0.03 l
0.19 -0.03 l
0.20 -0.03 l
0.20 -0.03 l
0.20 -0.03 l
0.19 -0.03 l
0.20 -0.02 l
0.20 -0.03 l
0.20 -0.03 l
0.19 -0.03 l
0.20 -0.03 l
0.20 -0.03 l
0.20 -0.03 l
0.19 -0.03 l
0.20 -0.02 l
0.20 -0.03 l
0.20 -0.03 l
0.19 -0.03 l
0.20 -0.03 l
0.20 -0.03 l
0.20 -0.02 l
0.19 -0.03 l
0.20 -0.03 l
0.20 -0.03 l
0.20 -0.03 l
0.19 -0.02 l
0.20 -0.03 l
0.20 -0.03 l
0.20 -0.03 l
0.19 -0.03 l
0.20 -0.02 l
0.20 -0.03 l
0.20 -0.03 l
0.19 -0.03 l
0.20 -0.02 l
0.20 -0.03 l
0.20 -0.03 l
0.19 -0.02 l
0.20 -0.03 l
0.20 -0.03 l
0.20 -0.02 l
0.19 -0.03 l
0.20 -0.03 l
0.20 -0.03 l
0.20 -0.02 l
0.19 -0.03 l
0.20 -0.03 l
0.20 -0.02 l
0.20 -0.03 l
0.19 -0.02 l
0.20 -0.03 l
0.20 -0.03 l
0.20 -0.02 l
192.65 43.40 lineto
0.20 -0.03 l
0.20 -0.02 l
0.20 -0.03 l
0.19 -0.02 l
0.20 -0.03 l
0.20 -0.03 l
0.20 -0.02 l
0.19 -0.03 l
0.20 -0.02 l
0.20 -0.03 l
0.20 -0.03 l
0.19 -0.02 l
0.20 -0.03 l
0.20 -0.02 l
0.20 -0.03 l
0.19 -0.02 l
0.20 -0.03 l
0.20 -0.02 l
0.20 -0.03 l
0.19 -0.02 l
0.20 -0.03 l
0.20 -0.03 l
0.19 -0.02 l
0.20 -0.03 l
0.20 -0.02 l
0.20 -0.03 l
0.19 -0.02 l
0.20 -0.03 l
0.20 -0.02 l
0.20 -0.03 l
0.19 -0.02 l
0.20 -0.03 l
0.20 -0.02 l
0.20 -0.02 l
0.19 -0.03 l
0.20 -0.02 l
0.20 -0.03 l
0.20 -0.02 l
0.19 -0.03 l
0.20 -0.02 l
0.20 -0.03 l
0.20 -0.02 l
0.19 -0.03 l
0.20 -0.02 l
0.20 -0.02 l
0.20 -0.03 l
0.19 -0.02 l
0.20 -0.03 l
0.20 -0.02 l
0.20 -0.03 l
0.19 -0.02 l
0.20 -0.02 l
0.20 -0.03 l
0.20 -0.02 l
0.19 -0.03 l
0.20 -0.02 l
0.20 -0.02 l
0.20 -0.03 l
0.19 -0.02 l
0.20 -0.03 l
0.20 -0.02 l
0.20 -0.02 l
0.19 -0.03 l
0.20 -0.02 l
0.20 -0.02 l
0.20 -0.03 l
0.19 -0.02 l
0.20 -0.03 l
0.20 -0.02 l
0.20 -0.02 l
0.19 -0.03 l
0.20 -0.02 l
0.20 -0.02 l
0.20 -0.03 l
0.19 -0.02 l
0.20 -0.02 l
0.20 -0.03 l
0.20 -0.02 l
0.19 -0.02 l
0.20 -0.03 l
0.20 -0.02 l
0.20 -0.02 l
0.19 -0.03 l
0.20 -0.02 l
0.20 -0.02 l
0.20 -0.03 l
0.19 -0.02 l
0.20 -0.02 l
0.20 -0.02 l
0.20 -0.03 l
0.19 -0.02 l
0.20 -0.02 l
0.20 -0.03 l
0.20 -0.02 l
0.19 -0.02 l
0.20 -0.02 l
0.20 -0.03 l
0.20 -0.02 l
0.19 -0.02 l
o
0.3804 0.6118 1 srgb
np
54.41 62.49 m
0.20 0 l
0.20 0 l
0.19 0 l
0.20 0 l
0.20 0 l
0.20 0 l
0.19 0 l
0.20 0 l
0.20 0 l
0.20 0 l
0.19 0 l
0.20 0 l
0.20 0 l
0.20 0 l
0.19 0 l
0.20 0 l
0.20 0 l
0.20 0 l
0.19 0 l
0.20 0 l
0.20 0 l
0.20 0 l
0.19 0 l
0.20 0 l
0.20 0 l
0.20 0 l
0.19 -0.01 l
0.20 0 l
0.20 0 l
0.20 0 l
0.19 -0.01 l
0.20 0 l
0.20 -0.01 l
0.20 0 l
0.19 -0.01 l
0.20 -0.01 l
0.20 -0.01 l
0.20 -0.01 l
0.19 -0.01 l
0.20 -0.01 l
0.20 -0.01 l
0.20 -0.01 l
0.19 -0.02 l
0.20 -0.01 l
0.20 -0.02 l
0.20 -0.02 l
0.19 -0.02 l
0.20 -0.02 l
0.20 -0.02 l
0.20 -0.02 l
0.19 -0.02 l
0.20 -0.03 l
0.20 -0.02 l
0.20 -0.03 l
0.19 -0.02 l
0.20 -0.03 l
0.20 -0.03 l
0.20 -0.03 l
0.19 -0.03 l
0.20 -0.04 l
0.20 -0.03 l
0.20 -0.03 l
0.19 -0.04 l
0.20 -0.03 l
0.20 -0.04 l
0.20 -0.04 l
0.19 -0.04 l
0.20 -0.04 l
0.20 -0.04 l
0.20 -0.04 l
0.19 -0.04 l
0.20 -0.04 l
0.20 -0.05 l
0.20 -0.04 l
0.19 -0.04 l
0.20 -0.05 l
0.20 -0.05 l
0.20 -0.04 l
0.19 -0.05 l
0.20 -0.05 l
0.20 -0.05 l
0.20 -0.04 l
0.19 -0.05 l
0.20 -0.05 l
0.20 -0.05 l
0.20 -0.05 l
0.19 -0.06 l
0.20 -0.05 l
0.20 -0.05 l
0.20 -0.05 l
0.19 -0.05 l
0.20 -0.06 l
0.20 -0.05 l
0.20 -0.05 l
0.19 -0.06 l
0.20 -0.05 l
0.20 -0.06 l
0.20 -0.05 l
0.19 -0.06 l
74.16 60.09 lineto
0.20 -0.06 l
0.20 -0.05 l
0.19 -0.06 l
0.20 -0.06 l
0.20 -0.05 l
0.20 -0.06 l
0.19 -0.06 l
0.20 -0.05 l
0.20 -0.06 l
0.20 -0.06 l
0.19 -0.05 l
0.20 -0.06 l
0.20 -0.06 l
0.20 -0.06 l
0.19 -0.05 l
0.20 -0.06 l
0.20 -0.06 l
0.20 -0.06 l
0.19 -0.06 l
0.20 -0.05 l
0.20 -0.06 l
0.20 -0.06 l
0.19 -0.06 l
0.20 -0.06 l
0.20 -0.05 l
0.19 -0.06 l
0.20 -0.06 l
0.20 -0.06 l
0.20 -0.06 l
0.19 -0.05 l
0.20 -0.06 l
0.20 -0.06 l
0.20 -0.06 l
0.19 -0.06 l
0.20 -0.05 l
0.20 -0.06 l
0.20 -0.06 l
0.19 -0.06 l
0.20 -0.05 l
0.20 -0.06 l
0.20 -0.06 l
0.19 -0.06 l
0.20 -0.05 l
0.20 -0.06 l
0.20 -0.06 l
0.19 -0.06 l
0.20 -0.05 l
0.20 -0.06 l
0.20 -0.06 l
0.19 -0.05 l
0.20 -0.06 l
0.20 -0.06 l
0.20 -0.05 l
0.19 -0.06 l
0.20 -0.05 l
0.20 -0.06 l
0.20 -0.06 l
0.19 -0.05 l
0.20 -0.06 l
0.20 -0.05 l
0.20 -0.06 l
0.19 -0.05 l
0.20 -0.06 l
0.20 -0.05 l
0.20 -0.06 l
0.19 -0.05 l
0.20 -0.06 l
0.20 -0.05 l
0.20 -0.06 l
0.19 -0.05 l
0.20 -0.05 l
0.20 -0.06 l
0.20 -0.05 l
0.19 -0.05 l
0.20 -0.06 l
0.20 -0.05 l
0.20 -0.05 l
0.19 -0.06 l
0.20 -0.05 l
0.20 -0.05 l
0.20 -0.06 l
0.19 -0.05 l
0.20 -0.05 l
0.20 -0.05 l
0.20 -0.05 l
0.19 -0.06 l
0.20 -0.05 l
0.20 -0.05 l
0.20 -0.05 l
0.19 -0.05 l
0.20 -0.05 l
0.20 -0.05 l
0.20 -0.05 l
0.19 -0.05 l
0.20 -0.05 l
0.20 -0.05 l
0.20 -0.05 l
0.19 -0.05 l
0.20 -0.05 l
93.91 54.56 lineto
0.20 -0.05 l
0.19 -0.05 l
0.20 -0.05 l
0.20 -0.05 l
0.20 -0.05 l
0.19 -0.05 l
0.20 -0.05 l
0.20 -0.04 l
0.20 -0.05 l
0.19 -0.05 l
0.20 -0.05 l
0.20 -0.05 l
0.20 -0.04 l
0.19 -0.05 l
0.20 -0.05 l
0.20 -0.05 l
0.20 -0.04 l
0.19 -0.05 l
0.20 -0.05 l
0.20 -0.04 l
0.20 -0.05 l
0.19 -0.04 l
0.20 -0.05 l
0.20 -0.05 l
0.20 -0.04 l
0.19 -0.05 l
0.20 -0.04 l
0.20 -0.05 l
0.20 -0.04 l
0.19 -0.05 l
0.20 -0.04 l
0.20 -0.05 l
0.20 -0.04 l
0.19 -0.05 l
0.20 -0.04 l
0.20 -0.05 l
0.20 -0.04 l
0.19 -0.04 l
0.20 -0.05 l
0.20 -0.04 l
0.20 -0.04 l
0.19 -0.05 l
0.20 -0.04 l
0.20 -0.04 l
0.20 -0.05 l
0.19 -0.04 l
0.20 -0.04 l
0.20 -0.04 l
0.20 -0.05 l
0.19 -0.04 l
0.20 -0.04 l
0.20 -0.04 l
0.20 -0.04 l
0.19 -0.05 l
0.20 -0.04 l
0.20 -0.04 l
0.20 -0.04 l
0.19 -0.04 l
0.20 -0.04 l
0.20 -0.04 l
0.20 -0.04 l
0.19 -0.05 l
0.20 -0.04 l
0.20 -0.04 l
0.20 -0.04 l
0.19 -0.04 l
0.20 -0.04 l
0.20 -0.04 l
0.20 -0.04 l
0.19 -0.04 l
0.20 -0.04 l
0.20 -0.03 l
0.20 -0.04 l
0.19 -0.04 l
0.20 -0.04 l
0.20 -0.04 l
0.20 -0.04 l
0.19 -0.04 l
0.20 -0.04 l
0.20 -0.04 l
0.20 -0.03 l
0.19 -0.04 l
0.20 -0.04 l
0.20 -0.04 l
0.20 -0.04 l
0.19 -0.03 l
0.20 -0.04 l
0.20 -0.04 l
0.20 -0.04 l
0.19 -0.03 l
0.20 -0.04 l
0.20 -0.04 l
0.20 -0.04 l
0.19 -0.03 l
0.20 -0.04 l
0.20 -0.04 l
0.20 -0.03 l
0.19 -0.04 l
0.20 -0.04 l
113.66 50.32 lineto
0.20 -0.04 l
0.19 -0.04 l
0.20 -0.03 l
0.20 -0.04 l
0.20 -0.03 l
0.19 -0.04 l
0.20 -0.03 l
0.20 -0.04 l
0.20 -0.04 l
0.19 -0.03 l
0.20 -0.04 l
0.20 -0.03 l
0.20 -0.04 l
0.19 -0.03 l
0.20 -0.04 l
0.20 -0.03 l
0.20 -0.04 l
0.19 -0.03 l
0.20 -0.04 l
0.20 -0.03 l
0.20 -0.03 l
0.19 -0.04 l
0.20 -0.03 l
0.20 -0.04 l
0.19 -0.03 l
0.20 -0.03 l
0.20 -0.04 l
0.20 -0.03 l
0.19 -0.04 l
0.20 -0.03 l
0.20 -0.03 l
0.20 -0.04 l
0.19 -0.03 l
0.20 -0.03 l
0.20 -0.04 l
0.20 -0.03 l
0.19 -0.03 l
0.20 -0.04 l
0.20 -0.03 l
0.20 -0.03 l
0.19 -0.03 l
0.20 -0.04 l
0.20 -0.03 l
0.20 -0.03 l
0.19 -0.03 l
0.20 -0.04 l
0.20 -0.03 l
0.20 -0.03 l
0.19 -0.03 l
0.20 -0.04 l
0.20 -0.03 l
0.20 -0.03 l
0.19 -0.03 l
0.20 -0.03 l
0.20 -0.03 l
0.20 -0.04 l
0.19 -0.03 l
0.20 -0.03 l
0.20 -0.03 l
0.20 -0.03 l
0.19 -0.03 l
0.20 -0.04 l
0.20 -0.03 l
0.20 -0.03 l
0.19 -0.03 l
0.20 -0.03 l
0.20 -0.03 l
0.20 -0.03 l
0.19 -0.03 l
0.20 -0.03 l
0.20 -0.03 l
0.20 -0.03 l
0.19 -0.03 l
0.20 -0.04 l
0.20 -0.03 l
0.20 -0.03 l
0.19 -0.03 l
0.20 -0.03 l
0.20 -0.03 l
0.20 -0.03 l
0.19 -0.03 l
0.20 -0.03 l
0.20 -0.03 l
0.20 -0.03 l
0.19 -0.03 l
0.20 -0.03 l
0.20 -0.03 l
0.20 -0.03 l
0.19 -0.03 l
0.20 -0.03 l
0.20 -0.02 l
0.20 -0.03 l
0.19 -0.03 l
0.20 -0.03 l
0.20 -0.03 l
0.20 -0.03 l
0.19 -0.03 l
0.20 -0.03 l
0.20 -0.03 l
133.41 47.09 lineto
0.19 -0.03 l
0.20 -0.03 l
0.20 -0.03 l
0.20 -0.02 l
0.19 -0.03 l
0.20 -0.03 l
0.20 -0.03 l
0.20 -0.03 l
0.19 -0.03 l
0.20 -0.03 l
0.20 -0.02 l
0.20 -0.03 l
0.19 -0.03 l
0.20 -0.03 l
0.20 -0.03 l
0.20 -0.03 l
0.19 -0.03 l
0.20 -0.02 l
0.20 -0.03 l
0.20 -0.03 l
0.19 -0.03 l
0.20 -0.03 l
0.20 -0.02 l
0.20 -0.03 l
0.19 -0.03 l
0.20 -0.03 l
0.20 -0.03 l
0.20 -0.02 l
0.19 -0.03 l
0.20 -0.03 l
0.20 -0.03 l
0.20 -0.02 l
0.19 -0.03 l
0.20 -0.03 l
0.20 -0.03 l
0.20 -0.02 l
0.19 -0.03 l
0.20 -0.03 l
0.20 -0.03 l
0.20 -0.02 l
0.19 -0.03 l
0.20 -0.03 l
0.20 -0.03 l
0.20 -0.02 l
0.19 -0.03 l
0.20 -0.03 l
0.20 -0.02 l
0.20 -0.03 l
0.19 -0.03 l
0.20 -0.02 l
0.20 -0.03 l
0.20 -0.03 l
0.19 -0.03 l
0.20 -0.02 l
0.20 -0.03 l
0.20 -0.03 l
0.19 -0.02 l
0.20 -0.03 l
0.20 -0.03 l
0.20 -0.02 l
0.19 -0.03 l
0.20 -0.02 l
0.20 -0.03 l
0.20 -0.03 l
0.19 -0.02 l
0.20 -0.03 l
0.20 -0.03 l
0.20 -0.02 l
0.19 -0.03 l
0.20 -0.03 l
0.20 -0.02 l
0.20 -0.03 l
0.19 -0.02 l
0.20 -0.03 l
0.20 -0.03 l
0.20 -0.02 l
0.19 -0.03 l
0.20 -0.02 l
0.20 -0.03 l
0.20 -0.03 l
0.19 -0.02 l
0.20 -0.03 l
0.20 -0.02 l
0.20 -0.03 l
0.19 -0.03 l
0.20 -0.02 l
0.20 -0.03 l
0.20 -0.02 l
0.19 -0.03 l
0.20 -0.02 l
0.20 -0.03 l
0.20 -0.03 l
0.19 -0.02 l
0.20 -0.03 l
0.20 -0.02 l
0.20 -0.03 l
0.19 -0.02 l
0.20 -0.03 l
0.20 -0.02 l
153.16 44.39 lineto
0.19 -0.02 l
0.20 -0.03 l
0.20 -0.03 l
0.20 -0.02 l
0.19 -0.03 l
0.20 -0.02 l
0.20 -0.03 l
0.20 -0.02 l
0.19 -0.03 l
0.20 -0.02 l
0.20 -0.03 l
0.20 -0.02 l
0.19 -0.03 l
0.20 -0.02 l
0.20 -0.03 l
0.20 -0.02 l
0.19 -0.03 l
0.20 -0.02 l
0.20 -0.03 l
0.20 -0.02 l
0.19 -0.03 l
0.20 -0.02 l
0.20 -0.03 l
0.19 -0.02 l
0.20 -0.03 l
0.20 -0.02 l
0.20 -0.03 l
0.19 -0.02 l
0.20 -0.02 l
0.20 -0.03 l
0.20 -0.02 l
0.19 -0.03 l
0.20 -0.02 l
0.20 -0.03 l
0.20 -0.02 l
0.19 -0.03 l
0.20 -0.02 l
0.20 -0.03 l
0.20 -0.02 l
0.19 -0.02 l
0.20 -0.03 l
0.20 -0.02 l
0.20 -0.03 l
0.19 -0.02 l
0.20 -0.03 l
0.20 -0.02 l
0.20 -0.02 l
0.19 -0.03 l
0.20 -0.02 l
0.20 -0.03 l
0.20 -0.02 l
0.19 -0.03 l
0.20 -0.02 l
0.20 -0.02 l
0.20 -0.03 l
0.19 -0.02 l
0.20 -0.03 l
0.20 -0.02 l
0.20 -0.02 l
0.19 -0.03 l
0.20 -0.02 l
0.20 -0.03 l
0.20 -0.02 l
0.19 -0.02 l
0.20 -0.03 l
0.20 -0.02 l
0.20 -0.03 l
0.19 -0.02 l
0.20 -0.02 l
0.20 -0.03 l
0.20 -0.02 l
0.19 -0.02 l
0.20 -0.03 l
0.20 -0.02 l
0.20 -0.03 l
0.19 -0.02 l
0.20 -0.02 l
0.20 -0.03 l
0.20 -0.02 l
0.19 -0.02 l
0.20 -0.03 l
0.20 -0.02 l
0.20 -0.02 l
0.19 -0.03 l
0.20 -0.02 l
0.20 -0.03 l
0.20 -0.02 l
0.19 -0.02 l
0.20 -0.03 l
0.20 -0.02 l
0.20 -0.02 l
0.19 -0.03 l
0.20 -0.02 l
0.20 -0.02 l
0.20 -0.03 l
0.19 -0.02 l
0.20 -0.02 l
0.20 -0.03 l
0.20 -0.02 l
172.90 41.97 lineto
0.20 -0.03 l
0.20 -0.02 l
0.20 -0.02 l
0.19 -0.02 l
0.20 -0.03 l
0.20 -0.02 l
0.20 -0.02 l
0.19 -0.03 l
0.20 -0.02 l
0.20 -0.02 l
0.20 -0.03 l
0.19 -0.02 l
0.20 -0.02 l
0.20 -0.03 l
0.20 -0.02 l
0.19 -0.02 l
0.20 -0.02 l
0.20 -0.03 l
0.20 -0.02 l
0.19 -0.02 l
0.20 -0.03 l
0.20 -0.02 l
0.20 -0.02 l
0.19 -0.02 l
0.20 -0.03 l
0.20 -0.02 l
0.20 -0.02 l
0.19 -0.03 l
0.20 -0.02 l
0.20 -0.02 l
0.20 -0.02 l
0.19 -0.03 l
0.20 -0.02 l
0.20 -0.02 l
0.20 -0.03 l
0.19 -0.02 l
0.20 -0.02 l
0.20 -0.02 l
0.20 -0.03 l
0.19 -0.02 l
0.20 -0.02 l
0.20 -0.02 l
0.20 -0.03 l
0.19 -0.02 l
0.20 -0.02 l
0.20 -0.02 l
0.20 -0.03 l
0.19 -0.02 l
0.20 -0.02 l
0.20 -0.02 l
0.20 -0.03 l
0.19 -0.02 l
0.20 -0.02 l
0.20 -0.02 l
0.20 -0.03 l
0.19 -0.02 l
0.20 -0.02 l
0.20 -0.02 l
0.20 -0.02 l
0.19 -0.03 l
0.20 -0.02 l
0.20 -0.02 l
0.20 -0.02 l
0.19 -0.03 l
0.20 -0.02 l
0.20 -0.02 l
0.20 -0.02 l
0.19 -0.02 l
0.20 -0.03 l
0.20 -0.02 l
0.20 -0.02 l
0.19 -0.02 l
0.20 -0.03 l
0.20 -0.02 l
0.20 -0.02 l
0.19 -0.02 l
0.20 -0.02 l
0.20 -0.03 l
0.20 -0.02 l
0.19 -0.02 l
0.20 -0.02 l
0.20 -0.02 l
0.20 -0.03 l
0.19 -0.02 l
0.20 -0.02 l
0.20 -0.02 l
0.20 -0.02 l
0.19 -0.03 l
0.20 -0.02 l
0.20 -0.02 l
0.20 -0.02 l
0.19 -0.02 l
0.20 -0.02 l
0.20 -0.03 l
0.20 -0.02 l
0.19 -0.02 l
0.20 -0.02 l
0.20 -0.02 l
0.20 -0.03 l
192.65 39.72 lineto
0.20 -0.02 l
0.20 -0.02 l
0.20 -0.02 l
0.19 -0.02 l
0.20 -0.03 l
0.20 -0.02 l
0.20 -0.02 l
0.19 -0.02 l
0.20 -0.02 l
0.20 -0.02 l
0.20 -0.02 l
0.19 -0.03 l
0.20 -0.02 l
0.20 -0.02 l
0.20 -0.02 l
0.19 -0.02 l
0.20 -0.02 l
0.20 -0.03 l
0.20 -0.02 l
0.19 -0.02 l
0.20 -0.02 l
0.20 -0.02 l
0.19 -0.02 l
0.20 -0.02 l
0.20 -0.03 l
0.20 -0.02 l
0.19 -0.02 l
0.20 -0.02 l
0.20 -0.02 l
0.20 -0.02 l
0.19 -0.02 l
0.20 -0.02 l
0.20 -0.03 l
0.20 -0.02 l
0.19 -0.02 l
0.20 -0.02 l
0.20 -0.02 l
0.20 -0.02 l
0.19 -0.02 l
0.20 -0.02 l
0.20 -0.03 l
0.20 -0.02 l
0.19 -0.02 l
0.20 -0.02 l
0.20 -0.02 l
0.20 -0.02 l
0.19 -0.02 l
0.20 -0.02 l
0.20 -0.03 l
0.20 -0.02 l
0.19 -0.02 l
0.20 -0.02 l
0.20 -0.02 l
0.20 -0.02 l
0.19 -0.02 l
0.20 -0.02 l
0.20 -0.02 l
0.20 -0.02 l
0.19 -0.03 l
0.20 -0.02 l
0.20 -0.02 l
0.20 -0.02 l
0.19 -0.02 l
0.20 -0.02 l
0.20 -0.02 l
0.20 -0.02 l
0.19 -0.02 l
0.20 -0.02 l
0.20 -0.02 l
0.20 -0.02 l
0.19 -0.03 l
0.20 -0.02 l
0.20 -0.02 l
0.20 -0.02 l
0.19 -0.02 l
0.20 -0.02 l
0.20 -0.02 l
0.20 -0.02 l
0.19 -0.02 l
0.20 -0.02 l
0.20 -0.02 l
0.20 -0.02 l
0.19 -0.02 l
0.20 -0.02 l
0.20 -0.03 l
0.20 -0.02 l
0.19 -0.02 l
0.20 -0.02 l
0.20 -0.02 l
0.20 -0.02 l
0.19 -0.02 l
0.20 -0.02 l
0.20 -0.02 l
0.20 -0.02 l
0.19 -0.02 l
0.20 -0.02 l
0.20 -0.02 l
0.20 -0.02 l
0.19 -0.02 l
o
0.2000 0.2000 0.2000 srgb
1 setlinecap
10.00 setmiterlimit
46.52 30.40 173.57 159.12 r p1
0.00 0.00 300.00 195.00 cl
0.00 0.00 300.00 195.00 cl
0.00 0.00 300.00 195.00 cl
0.00 0.00 300.00 195.00 cl
0.00 0.00 300.00 195.00 cl
0.00 0.00 300.00 195.00 cl
0.00 0.00 300.00 195.00 cl
0.00 0.00 300.00 195.00 cl
0.00 0.00 300.00 195.00 cl
0.00 0.00 300.00 195.00 cl
0.00 0.00 300.00 195.00 cl
0.00 0.00 300.00 195.00 cl
0.00 0.00 300.00 195.00 cl
0.00 0.00 300.00 195.00 cl
0.00 0.00 300.00 195.00 cl
0.00 0.00 300.00 195.00 cl
/Font1 findfont 9 s
0.3020 0.3020 0.3020 srgb
41.59 31.60 (-0.2) 1 0 t
41.59 59.26 (0.0) 1 0 t
41.59 86.92 (0.2) 1 0 t
41.59 114.58 (0.4) 1 0 t
41.59 142.24 (0.6) 1 0 t
41.59 169.90 (0.8) 1 0 t
0.00 0.00 300.00 195.00 cl
0.00 0.00 300.00 195.00 cl
0.2000 0.2000 0.2000 srgb
1.07 setlinewidth
[] 0 setdash
0 setlinecap
1 setlinejoin
10.00 setmiterlimit
np
43.78 34.83 m
2.74 0 l
o
np
43.78 62.49 m
2.74 0 l
o
np
43.78 90.15 m
2.74 0 l
o
np
43.78 117.81 m
2.74 0 l
o
np
43.78 145.47 m
2.74 0 l
o
np
43.78 173.13 m
2.74 0 l
o
0.00 0.00 300.00 195.00 cl
0.00 0.00 300.00 195.00 cl
0.00 0.00 300.00 195.00 cl
0.00 0.00 300.00 195.00 cl
0.00 0.00 300.00 195.00 cl
0.00 0.00 300.00 195.00 cl
0.00 0.00 300.00 195.00 cl
0.00 0.00 300.00 195.00 cl
0.00 0.00 300.00 195.00 cl
0.00 0.00 300.00 195.00 cl
0.2000 0.2000 0.2000 srgb
1.07 setlinewidth
[] 0 setdash
0 setlinecap
1 setlinejoin
10.00 setmiterlimit
np
54.25 27.66 m
0 2.74 l
o
np
93.74 27.66 m
0 2.74 l
o
np
133.23 27.66 m
0 2.74 l
o
np
172.72 27.66 m
0 2.74 l
o
np
212.20 27.66 m
0 2.74 l
o
0.00 0.00 300.00 195.00 cl
0.00 0.00 300.00 195.00 cl
/Font1 findfont 9 s
0.3020 0.3020 0.3020 srgb
54.25 19.01 (0.00) .5 0 t
93.74 19.01 (0.25) .5 0 t
133.23 19.01 (0.50) .5 0 t
172.72 19.01 (0.75) .5 0 t
212.20 19.01 (1.00) .5 0 t
0.00 0.00 300.00 195.00 cl
0.00 0.00 300.00 195.00 cl
0.00 0.00 300.00 195.00 cl
0.00 0.00 300.00 195.00 cl
0.00 0.00 300.00 195.00 cl
0.00 0.00 300.00 195.00 cl
/Font5 findfont 11 s
0 0 0 srgb
124.92 5.63 ( ) 0 0 t
/Font3 findfont 11 s
127.67 5.63 (F) 0 0 t
135.58 5.63 (o) 0 0 t
0.00 0.00 300.00 195.00 cl
0.00 0.00 300.00 195.00 cl
/Font5 findfont 11 s
0 0 0 srgb
13.59 77.99 ( ) 0 90 t
/Font3 findfont 11 s
13.59 80.74 (S) 0 90 t
/Font3 findfont 8 s
15.60 89.29 (a) 0 90 t
/Font3 findfont 11 s
13.59 94.38 (,) 0 90 t
/Font5 findfont 11 s
13.59 97.44 ( ) 0 90 t
/Font3 findfont 11 s
13.59 100.19 (S) 0 90 t
/Font3 findfont 8 s
15.60 108.74 (T) 0 90 t
15.60 114.49 (m) 0 90 t
/Font3 findfont 11 s
13.59 121.80 (,) 0 90 t
/Font5 findfont 11 s
13.59 124.86 ( ) 0 90 t
/Font3 findfont 11 s
13.59 127.61 (S) 0 90 t
/Font3 findfont 8 s
15.60 136.16 (H) 0 90 t
0.00 0.00 300.00 195.00 cl
0.00 0.00 300.00 195.00 cl
0.00 0.00 300.00 195.00 cl
0.00 0.00 300.00 195.00 cl
0.00 0.00 300.00 195.00 cl
0.00 0.00 300.00 195.00 cl
0.00 0.00 300.00 195.00 cl
0.00 0.00 300.00 195.00 cl
/bg { 1 1 1 srgb } def
231.43 71.71 63.09 76.50 r p2
0.00 0.00 300.00 195.00 cl
0.00 0.00 300.00 195.00 cl
/Font1 findfont 11 s
0 0 0 srgb
237.10 134.09 (P) 0 ta
-0.440 (ar) tb
-0.110 (ameter) tb gr
0.00 0.00 300.00 195.00 cl
0.00 0.00 300.00 195.00 cl
/bg { 1 1 1 srgb } def
237.10 111.94 17.28 17.28 r p2
0.00 0.00 300.00 195.00 cl
0.00 0.00 300.00 195.00 cl
0.9725 0.4627 0.4275 srgb
1.07 setlinewidth
[] 0 setdash
0 setlinecap
1 setlinejoin
10.00 setmiterlimit
np
238.83 120.58 m
13.82 0 l
o
0.00 0.00 300.00 195.00 cl
0.00 0.00 300.00 195.00 cl
/bg { 1 1 1 srgb } def
237.10 94.66 17.28 17.28 r p2
0.00 0.00 300.00 195.00 cl
0.00 0.00 300.00 195.00 cl
0 0.7294 0.2196 srgb
1.07 setlinewidth
[] 0 setdash
0 setlinecap
1 setlinejoin
10.00 setmiterlimit
np
238.83 103.30 m
13.82 0 l
o
0.00 0.00 300.00 195.00 cl
0.00 0.00 300.00 195.00 cl
/bg { 1 1 1 srgb } def
237.10 77.38 17.28 17.28 r p2
0.00 0.00 300.00 195.00 cl
0.00 0.00 300.00 195.00 cl
0.3804 0.6118 1 srgb
1.07 setlinewidth
[] 0 setdash
0 setlinecap
1 setlinejoin
10.00 setmiterlimit
np
238.83 86.02 m
13.82 0 l
o
0.00 0.00 300.00 195.00 cl
0.00 0.00 300.00 195.00 cl
/Font1 findfont 9 s
0 0 0 srgb
256.54 117.35 (Tm) 0 0 t
0.00 0.00 300.00 195.00 cl
0.00 0.00 300.00 195.00 cl
/Font1 findfont 9 s
0 0 0 srgb
256.54 100.07 (a) 0 0 t
0.00 0.00 300.00 195.00 cl
0.00 0.00 300.00 195.00 cl
/Font1 findfont 9 s
0 0 0 srgb
256.54 82.79 (H) 0 0 t
0.00 0.00 300.00 195.00 cl
0.00 0.00 300.00 195.00 cl
0.00 0.00 300.00 195.00 cl
0.00 0.00 300.00 195.00 cl
0.00 0.00 300.00 195.00 cl
0.00 0.00 300.00 195.00 cl
0.00 0.00 300.00 195.00 cl
0.00 0.00 300.00 195.00 cl
0.00 0.00 300.00 195.00 cl
0.00 0.00 300.00 195.00 cl
ep
%%Trailer
%%Pages: 1
%%EOF
