%!PS-Adobe-3.0 EPSF-3.0
%%DocumentNeededResources: font Helvetica
%%+ font Helvetica-Bold
%%+ font Helvetica-Oblique
%%+ font Helvetica-BoldOblique
%%+ font Symbol
%%Title: R Graphics Output
%%Creator: R Software
%%Pages: (atend)
%%BoundingBox: 0 0 300 188
%%EndComments
%%BeginProlog
/bp  { gs sRGB gs } def
% begin .ps.prolog
/gs  { gsave } bind def
/gr  { grestore } bind def
/ep  { showpage gr gr } bind def
/m   { moveto } bind def
/l  { rlineto } bind def
/np  { newpath } bind def
/cp  { closepath } bind def
/f   { fill } bind def
/o   { stroke } bind def
/c   { newpath 0 360 arc } bind def
/r   { 4 2 roll moveto 1 copy 3 -1 roll exch 0 exch rlineto 0 rlineto -1 mul 0 exch rlineto closepath } bind def
/p1  { stroke } bind def
/p2  { gsave bg fill grestore newpath } bind def
/p3  { gsave bg fill grestore stroke } bind def
/p6  { gsave bg eofill grestore newpath } bind def
/p7  { gsave bg eofill grestore stroke } bind def
/t   { 5 -2 roll moveto gsave rotate
       1 index stringwidth pop
       mul neg 0 rmoveto show grestore } bind def
/ta  { 4 -2 roll moveto gsave rotate show } bind def
/tb  { 2 -1 roll 0 rmoveto show } bind def
/cl  { grestore gsave newpath 3 index 3 index moveto 1 index
       4 -1 roll lineto  exch 1 index lineto lineto
       closepath clip newpath } bind def
/rgb { setrgbcolor } bind def
/s   { scalefont setfont } bind def
% end   .ps.prolog
/sRGB { [ /CIEBasedABC
          << /DecodeLMN
               [ { dup 0.03928 le
                        {12.92321 div}
                        {0.055 add 1.055 div 2.4 exp }
                     ifelse
                 } bind dup dup
               ]
             /MatrixLMN [0.412457 0.212673 0.019334
                         0.357576 0.715152 0.119192
                         0.180437 0.072175 0.950301]
             /WhitePoint [0.9505 1.0 1.0890]
           >>
         ] setcolorspace } bind def
/srgb { setcolor } bind def
% begin encoding
/WinAnsiEncoding [
 /.notdef /.notdef /.notdef /.notdef /.notdef /.notdef /.notdef /.notdef
 /.notdef /.notdef /.notdef /.notdef /.notdef /.notdef /.notdef /.notdef
 /.notdef /.notdef /.notdef /.notdef /.notdef /.notdef /.notdef /.notdef
 /.notdef /.notdef /.notdef /.notdef /.notdef /.notdef /.notdef /.notdef
 /space /exclam /quotedbl /numbersign /dollar /percent /ampersand /quoteright
 /parenleft /parenright /asterisk /plus /comma /minus /period /slash
 /zero /one /two /three /four /five /six /seven
 /eight /nine /colon /semicolon /less /equal /greater /question
 /at /A /B /C /D /E /F /G
 /H /I /J /K /L /M /N /O
 /P /Q /R /S /T /U /V /W
 /X /Y /Z /bracketleft /backslash /bracketright /asciicircum /underscore
 /grave /a /b /c /d /e /f /g
 /h /i /j /k /l /m /n /o
 /p /q /r /s /t /u /v /w
 /x /y /z /braceleft /bar /braceright /asciitilde /.notdef
 /Euro /.notdef /quotesinglbase /florin /quotedblbase /ellipsis /dagger /daggerdbl
 /circumflex /perthousand /Scaron /guilsinglleft /OE /.notdef /Zcaron /.notdef
 /.notdef /quoteleft /quoteright /quotedblleft /quotedblright /bullet /endash /emdash
 /tilde /trademark /scaron /guilsinglright /oe /.notdef /zcaron /Ydieresis
 /space /exclamdown /cent /sterling /currency /yen /brokenbar /section
 /dieresis /copyright /ordfeminine /guillemotleft /logicalnot /hyphen /registered /macron
 /degree /plusminus /twosuperior /threesuperior /acute /mu /paragraph /periodcentered
 /cedilla /onesuperior /ordmasculine /guillemotright /onequarter /onehalf /threequarters /questiondown
 /Agrave /Aacute /Acircumflex /Atilde /Adieresis /Aring /AE /Ccedilla
 /Egrave /Eacute /Ecircumflex /Edieresis /Igrave /Iacute /Icircumflex /Idieresis
 /Eth /Ntilde /Ograve /Oacute /Ocircumflex /Otilde /Odieresis /multiply
 /Oslash /Ugrave /Uacute /Ucircumflex /Udieresis /Yacute /Thorn /germandbls
 /agrave /aacute /acircumflex /atilde /adieresis /aring /ae /ccedilla
 /egrave /eacute /ecircumflex /edieresis /igrave /iacute /icircumflex /idieresis
 /eth /ntilde /ograve /oacute /ocircumflex /otilde /odieresis /divide
 /oslash /ugrave /uacute /ucircumflex /udieresis /yacute /thorn /ydieresis
]
 def
% end encoding
%%IncludeResource: font Helvetica
/Helvetica findfont
dup length dict begin
  {1 index /FID ne {def} {pop pop} ifelse} forall
  /Encoding WinAnsiEncoding def
  currentdict
  end
/Font1 exch definefont pop
%%IncludeResource: font Helvetica-Bold
/Helvetica-Bold findfont
dup length dict begin
  {1 index /FID ne {def} {pop pop} ifelse} forall
  /Encoding WinAnsiEncoding def
  currentdict
  end
/Font2 exch definefont pop
%%IncludeResource: font Helvetica-Oblique
/Helvetica-Oblique findfont
dup length dict begin
  {1 index /FID ne {def} {pop pop} ifelse} forall
  /Encoding WinAnsiEncoding def
  currentdict
  end
/Font3 exch definefont pop
%%IncludeResource: font Helvetica-BoldOblique
/Helvetica-BoldOblique findfont
dup length dict begin
  {1 index /FID ne {def} {pop pop} ifelse} forall
  /Encoding WinAnsiEncoding def
  currentdict
  end
/Font4 exch definefont pop
%%IncludeResource: font Symbol
/Symbol findfont
dup length dict begin
  {1 index /FID ne {def} {pop pop} ifelse} forall
  currentdict
  end
/Font5 exch definefont pop
%%EndProlog
%%Page: 1 1
bp
0.00 0.00 300.00 187.50 cl
0.00 0.00 300.00 187.50 cl
0.00 0.00 300.00 187.50 cl
0.00 0.00 300.00 187.50 cl
0.00 0.00 300.00 187.50 cl
0.00 0.00 300.00 187.50 cl
0.00 0.00 300.00 187.50 cl
0.00 0.00 300.00 187.50 cl
0.00 0.00 300.00 187.50 cl
/bg { 1 1 1 srgb } def
1 1 1 srgb
1.07 setlinewidth
[] 0 setdash
1 setlinecap
1 setlinejoin
10.00 setmiterlimit
0.00 0.00 300.00 187.50 r p3
0.00 0.00 300.00 187.50 cl
0.00 0.00 300.00 187.50 cl
0.00 0.00 300.00 187.50 cl
44.41 31.35 231.57 182.02 cl
/bg { 0.9216 0.9216 0.9216 srgb } def
44.41 31.35 187.16 150.67 r p2
1 1 1 srgb
0.53 setlinewidth
[] 0 setdash
0 setlinecap
1 setlinejoin
10.00 setmiterlimit
np
44.41 55.50 m
187.16 0 l
o
np
44.41 89.74 m
187.16 0 l
o
np
44.41 123.98 m
187.16 0 l
o
np
44.41 158.21 m
187.16 0 l
o
np
79.41 31.35 m
0 150.67 l
o
np
132.62 31.35 m
0 150.67 l
o
np
185.82 31.35 m
0 150.67 l
o
1.07 setlinewidth
[] 0 setdash
np
44.41 38.38 m
187.16 0 l
o
np
44.41 72.62 m
187.16 0 l
o
np
44.41 106.86 m
187.16 0 l
o
np
44.41 141.10 m
187.16 0 l
o
np
44.41 175.33 m
187.16 0 l
o
np
52.81 31.35 m
0 150.67 l
o
np
106.02 31.35 m
0 150.67 l
o
np
159.22 31.35 m
0 150.67 l
o
np
212.42 31.35 m
0 150.67 l
o
0.5294 0.8078 0.9216 srgb
1.00 setmiterlimit
np
52.92 38.38 m
0.34 0 l
0.34 0 l
0.34 0 l
0.34 0 l
0.34 0 l
0.34 0 l
0.35 0 l
0.34 0 l
0.34 0 l
0.34 0 l
0.34 0 l
0.34 0.01 l
0.34 0 l
0.34 0.01 l
0.34 0.02 l
0.34 0.03 l
0.35 0.04 l
0.34 0.07 l
0.34 0.09 l
0.34 0.13 l
0.34 0.15 l
0.34 0.20 l
0.34 0.24 l
0.34 0.29 l
0.34 0.34 l
0.34 0.38 l
0.35 0.44 l
0.34 0.49 l
0.34 0.55 l
0.34 0.60 l
0.34 0.65 l
0.34 0.70 l
0.34 0.75 l
0.34 0.80 l
0.34 0.85 l
0.34 0.89 l
0.34 0.93 l
0.35 0.97 l
0.34 1.01 l
0.34 1.05 l
0.34 1.07 l
0.34 1.11 l
0.34 1.13 l
0.34 1.16 l
0.34 1.18 l
0.34 1.20 l
0.34 1.21 l
0.35 1.24 l
0.34 1.25 l
0.34 1.26 l
0.34 1.27 l
0.34 1.28 l
0.34 1.28 l
0.34 1.30 l
0.34 1.29 l
0.34 1.30 l
0.34 1.30 l
0.35 1.30 l
0.34 1.30 l
0.34 1.29 l
0.34 1.29 l
0.34 1.29 l
0.34 1.28 l
0.34 1.28 l
0.34 1.27 l
0.34 1.27 l
0.34 1.25 l
0.34 1.25 l
0.35 1.24 l
0.34 1.22 l
0.34 1.22 l
0.34 1.21 l
0.34 1.20 l
0.34 1.19 l
0.34 1.17 l
0.34 1.16 l
0.34 1.16 l
0.34 1.14 l
0.35 1.12 l
0.34 1.12 l
0.34 1.10 l
0.34 1.09 l
0.34 1.08 l
0.34 1.06 l
0.34 1.05 l
0.34 1.04 l
0.34 1.03 l
0.34 1.01 l
0.35 1.00 l
0.34 0.99 l
0.34 0.98 l
0.34 0.96 l
0.34 0.95 l
0.34 0.93 l
0.34 0.93 l
0.34 0.91 l
0.34 0.90 l
0.34 0.88 l
0.34 0.88 l
87.02 119.74 lineto
0.34 0.85 l
0.34 0.84 l
0.34 0.82 l
0.34 0.82 l
0.34 0.80 l
0.34 0.79 l
0.34 0.78 l
0.34 0.77 l
0.34 0.76 l
0.35 0.74 l
0.34 0.74 l
0.34 0.72 l
0.34 0.72 l
0.34 0.70 l
0.34 0.69 l
0.34 0.69 l
0.34 0.67 l
0.34 0.66 l
0.34 0.65 l
0.35 0.64 l
0.34 0.64 l
0.34 0.62 l
0.34 0.61 l
0.34 0.61 l
0.34 0.59 l
0.34 0.59 l
0.34 0.58 l
0.34 0.56 l
0.34 0.56 l
0.34 0.56 l
0.35 0.54 l
0.34 0.53 l
0.34 0.53 l
0.34 0.52 l
0.34 0.51 l
0.34 0.50 l
0.34 0.49 l
0.34 0.49 l
0.34 0.48 l
0.34 0.47 l
0.35 0.47 l
0.34 0.46 l
0.34 0.45 l
0.34 0.44 l
0.34 0.44 l
0.34 0.43 l
0.34 0.42 l
0.34 0.42 l
0.34 0.41 l
0.34 0.40 l
0.35 0.40 l
0.34 0.39 l
0.34 0.38 l
0.34 0.38 l
0.34 0.38 l
0.34 0.36 l
0.34 0.37 l
0.34 0.35 l
0.34 0.35 l
0.34 0.35 l
0.34 0.34 l
0.35 0.33 l
0.34 0.33 l
0.34 0.33 l
0.34 0.31 l
0.34 0.32 l
0.34 0.31 l
0.34 0.30 l
0.34 0.30 l
0.34 0.30 l
0.34 0.29 l
0.35 0.28 l
0.34 0.28 l
0.34 0.28 l
0.34 0.27 l
0.34 0.27 l
0.34 0.27 l
0.34 0.26 l
0.34 0.25 l
0.34 0.25 l
0.34 0.25 l
0.35 0.25 l
0.34 0.24 l
0.34 0.23 l
0.34 0.23 l
0.34 0.23 l
0.34 0.23 l
0.34 0.22 l
0.34 0.22 l
0.34 0.21 l
0.34 0.22 l
0.34 0.20 l
0.35 0.21 l
0.34 0.20 l
0.34 0.20 l
0.34 0.20 l
0.34 0.19 l
0.34 0.19 l
0.34 0.18 l
121.11 163.78 lineto
0.34 0.18 l
0.34 0.18 l
0.35 0.17 l
0.34 0.17 l
0.34 0.17 l
0.34 0.17 l
0.34 0.17 l
0.34 0.16 l
0.34 0.16 l
0.34 0.15 l
0.34 0.16 l
0.34 0.15 l
0.35 0.15 l
0.34 0.15 l
0.34 0.14 l
0.34 0.14 l
0.34 0.14 l
0.34 0.14 l
0.34 0.14 l
0.34 0.13 l
0.34 0.13 l
0.34 0.13 l
0.34 0.13 l
0.35 0.13 l
0.34 0.12 l
0.34 0.12 l
0.34 0.12 l
0.34 0.12 l
0.34 0.12 l
0.34 0.11 l
0.34 0.11 l
0.34 0.11 l
0.34 0.11 l
0.35 0.11 l
0.34 0.10 l
0.34 0.11 l
0.34 0.10 l
0.34 0.10 l
0.34 0.10 l
0.34 0.10 l
0.34 0.09 l
0.34 0.10 l
0.34 0.09 l
0.35 0.09 l
0.34 0.09 l
0.34 0.09 l
0.34 0.09 l
0.34 0.09 l
0.34 0.08 l
0.34 0.08 l
0.34 0.08 l
0.34 0.09 l
0.34 0.07 l
0.34 0.08 l
0.35 0.08 l
0.34 0.08 l
0.34 0.07 l
0.34 0.07 l
0.34 0.08 l
0.34 0.07 l
0.34 0.07 l
0.34 0.07 l
0.34 0.06 l
0.34 0.07 l
0.35 0.07 l
0.34 0.06 l
0.34 0.06 l
0.34 0.07 l
0.34 0.06 l
0.34 0.06 l
0.34 0.06 l
0.34 0.06 l
0.34 0.05 l
0.34 0.06 l
0.35 0.06 l
0.34 0.05 l
0.34 0.06 l
0.34 0.05 l
0.34 0.05 l
0.34 0.05 l
0.34 0.06 l
0.34 0.05 l
0.34 0.05 l
0.34 0.04 l
0.34 0.05 l
0.35 0.05 l
0.34 0.04 l
0.34 0.05 l
0.34 0.05 l
0.34 0.04 l
0.34 0.04 l
0.34 0.05 l
0.34 0.04 l
0.34 0.04 l
0.34 0.04 l
0.35 0.04 l
0.34 0.04 l
0.34 0.04 l
0.34 0.04 l
155.21 172.92 lineto
0.34 0.04 l
0.34 0.04 l
0.34 0.03 l
0.34 0.04 l
0.34 0.03 l
0.35 0.04 l
0.34 0.03 l
0.34 0.04 l
0.34 0.03 l
0.34 0.03 l
0.34 0.03 l
0.34 0.03 l
0.34 0.03 l
0.34 0.03 l
0.34 0.03 l
0.34 0.03 l
0.35 0.03 l
0.34 0.03 l
0.34 0.03 l
0.34 0.03 l
0.34 0.02 l
0.34 0.03 l
0.34 0.03 l
0.34 0.02 l
0.34 0.03 l
0.34 0.02 l
0.35 0.03 l
0.34 0.02 l
0.34 0.02 l
0.34 0.03 l
0.34 0.02 l
0.34 0.02 l
0.34 0.03 l
0.34 0.02 l
0.34 0.02 l
0.34 0.02 l
0.35 0.02 l
0.34 0.02 l
0.34 0.02 l
0.34 0.02 l
0.34 0.02 l
0.34 0.02 l
0.34 0.02 l
0.34 0.02 l
0.34 0.02 l
0.34 0.02 l
0.34 0.01 l
0.35 0.02 l
0.34 0.02 l
0.34 0.02 l
0.34 0.01 l
0.34 0.02 l
0.34 0.01 l
0.34 0.02 l
0.34 0.02 l
0.34 0.01 l
0.34 0.02 l
0.35 0.01 l
0.34 0.02 l
0.34 0.01 l
0.34 0.02 l
0.34 0.01 l
0.34 0.01 l
0.34 0.02 l
0.34 0.01 l
0.34 0.01 l
0.34 0.02 l
0.35 0.01 l
0.34 0.01 l
0.34 0.01 l
0.34 0.02 l
0.34 0.01 l
0.34 0.01 l
0.34 0.01 l
0.34 0.01 l
0.34 0.01 l
0.34 0.02 l
0.34 0.01 l
0.35 0.01 l
0.34 0.01 l
0.34 0.01 l
0.34 0.01 l
0.34 0.01 l
0.34 0.01 l
0.34 0.01 l
0.34 0.01 l
0.34 0.01 l
0.34 0.01 l
0.35 0.01 l
0.34 0 l
0.34 0.01 l
0.34 0.01 l
0.34 0.01 l
0.34 0.01 l
0.34 0.01 l
0.34 0.01 l
0.34 0 l
0.34 0.01 l
0.35 0.01 l
189.31 174.80 lineto
0.34 0 l
0.34 0.01 l
0.34 0.01 l
0.34 0.01 l
0.34 0 l
0.34 0.01 l
0.34 0.01 l
0.34 0 l
0.34 0.01 l
0.35 0.01 l
0.34 0 l
0.34 0.01 l
0.34 0.01 l
0.34 0 l
0.34 0.01 l
0.34 0 l
0.34 0.01 l
0.34 0.01 l
0.34 0 l
0.35 0.01 l
0.34 0 l
0.34 0.01 l
0.34 0 l
0.34 0.01 l
0.34 0 l
0.34 0.01 l
0.34 0 l
0.34 0.01 l
0.34 0 l
0.35 0.01 l
0.34 0 l
0.34 0.01 l
0.34 0 l
0.34 0.01 l
0.34 0 l
0.34 0 l
0.34 0.01 l
0.34 0 l
0.34 0.01 l
0.34 0 l
0.35 0.01 l
0.34 0 l
0.34 0 l
0.34 0.01 l
0.34 0 l
0.34 0 l
0.34 0.01 l
0.34 0 l
0.34 0 l
0.34 0.01 l
0.35 0 l
0.34 0 l
0.34 0.01 l
0.34 0 l
0.34 0 l
0.34 0.01 l
0.34 0 l
0.34 0 l
0.34 0.01 l
0.34 0 l
0.35 0 l
0.34 0.01 l
0.34 0 l
0.34 0 l
0.34 0 l
0.34 0.01 l
0.34 0 l
0.34 0 l
0.34 0 l
0.34 0.01 l
0.34 0 l
0.35 0 l
0.34 0 l
0.34 0.01 l
0.34 0 l
0.34 0 l
0.34 0 l
0.34 0 l
0.34 0.01 l
0.34 0 l
0.34 0 l
0.35 0 l
0.34 0 l
0.34 0.01 l
0.34 0 l
0.34 0 l
0.34 0 l
0.34 0 l
0.34 0.01 l
0.34 0 l
0.34 0 l
0.35 0 l
0.34 0 l
0.34 0 l
0.34 0.01 l
0.34 0 l
0.34 0 l
0.34 0 l
0.34 0 l
o
0.9137 0.5882 0.4784 srgb
np
52.92 38.37 m
0.34 -0.03 l
0.34 -0.04 l
0.34 -0.03 l
0.34 -0.04 l
0.34 -0.03 l
0.34 0.18 l
0.35 0 l
0.34 0 l
0.34 0 l
0.34 0 l
0.34 0 l
0.34 0 l
0.34 0 l
0.34 0.01 l
0.34 0 l
0.34 0.01 l
0.35 0.01 l
0.34 0.02 l
0.34 0.04 l
0.34 0.05 l
0.34 0.07 l
0.34 0.10 l
0.34 0.13 l
0.34 0.16 l
0.34 0.20 l
0.34 0.24 l
0.35 0.28 l
0.34 0.33 l
0.34 0.39 l
0.34 0.43 l
0.34 0.49 l
0.34 0.54 l
0.34 0.59 l
0.34 0.64 l
0.34 0.70 l
0.34 0.74 l
0.34 0.79 l
0.35 0.84 l
0.34 0.88 l
0.34 0.92 l
0.34 0.97 l
0.34 1.00 l
0.34 1.03 l
0.34 1.07 l
0.34 1.10 l
0.34 1.12 l
0.34 1.15 l
0.35 1.18 l
0.34 1.19 l
0.34 1.21 l
0.34 1.23 l
0.34 1.25 l
0.34 1.25 l
0.34 1.27 l
0.34 1.27 l
0.34 1.29 l
0.34 1.29 l
0.35 1.29 l
0.34 1.29 l
0.34 1.30 l
0.34 1.30 l
0.34 1.30 l
0.34 1.29 l
0.34 1.29 l
0.34 1.29 l
0.34 1.28 l
0.34 1.28 l
0.34 1.27 l
0.35 1.26 l
0.34 1.26 l
0.34 1.24 l
0.34 1.24 l
0.34 1.23 l
0.34 1.22 l
0.34 1.21 l
0.34 1.20 l
0.34 1.18 l
0.34 1.18 l
0.35 1.17 l
0.34 1.15 l
0.34 1.14 l
0.34 1.13 l
0.34 1.11 l
0.34 1.11 l
0.34 1.09 l
0.34 1.08 l
0.34 1.06 l
0.34 1.06 l
0.35 1.04 l
0.34 1.03 l
0.34 1.01 l
0.34 1.00 l
0.34 0.99 l
0.34 0.98 l
0.34 0.96 l
0.34 0.95 l
0.34 0.94 l
0.34 0.93 l
0.34 0.91 l
87.02 116.99 lineto
0.34 0.89 l
0.34 0.87 l
0.34 0.87 l
0.34 0.85 l
0.34 0.84 l
0.34 0.83 l
0.34 0.81 l
0.34 0.81 l
0.34 0.79 l
0.35 0.78 l
0.34 0.77 l
0.34 0.76 l
0.34 0.75 l
0.34 0.73 l
0.34 0.73 l
0.34 0.71 l
0.34 0.71 l
0.34 0.69 l
0.34 0.69 l
0.35 0.67 l
0.34 0.66 l
0.34 0.66 l
0.34 0.64 l
0.34 0.64 l
0.34 0.62 l
0.34 0.61 l
0.34 0.61 l
0.34 0.60 l
0.34 0.58 l
0.34 0.58 l
0.35 0.57 l
0.34 0.56 l
0.34 0.56 l
0.34 0.54 l
0.34 0.54 l
0.34 0.52 l
0.34 0.52 l
0.34 0.51 l
0.34 0.51 l
0.34 0.49 l
0.35 0.49 l
0.34 0.48 l
0.34 0.47 l
0.34 0.47 l
0.34 0.46 l
0.34 0.45 l
0.34 0.44 l
0.34 0.44 l
0.34 0.43 l
0.34 0.43 l
0.35 0.42 l
0.34 0.41 l
0.34 0.40 l
0.34 0.40 l
0.34 0.39 l
0.34 0.39 l
0.34 0.38 l
0.34 0.37 l
0.34 0.37 l
0.34 0.36 l
0.34 0.36 l
0.35 0.35 l
0.34 0.35 l
0.34 0.34 l
0.34 0.33 l
0.34 0.33 l
0.34 0.33 l
0.34 0.32 l
0.34 0.31 l
0.34 0.31 l
0.34 0.31 l
0.35 0.30 l
0.34 0.29 l
0.34 0.29 l
0.34 0.29 l
0.34 0.28 l
0.34 0.28 l
0.34 0.27 l
0.34 0.27 l
0.34 0.27 l
0.34 0.26 l
0.35 0.25 l
0.34 0.26 l
0.34 0.25 l
0.34 0.24 l
0.34 0.24 l
0.34 0.24 l
0.34 0.23 l
0.34 0.23 l
0.34 0.23 l
0.34 0.22 l
0.34 0.22 l
0.35 0.21 l
0.34 0.22 l
0.34 0.20 l
0.34 0.21 l
0.34 0.20 l
0.34 0.20 l
0.34 0.20 l
121.11 163.19 lineto
0.34 0.19 l
0.34 0.19 l
0.35 0.18 l
0.34 0.18 l
0.34 0.18 l
0.34 0.18 l
0.34 0.17 l
0.34 0.17 l
0.34 0.17 l
0.34 0.16 l
0.34 0.16 l
0.34 0.16 l
0.35 0.16 l
0.34 0.16 l
0.34 0.15 l
0.34 0.15 l
0.34 0.14 l
0.34 0.15 l
0.34 0.14 l
0.34 0.14 l
0.34 0.14 l
0.34 0.14 l
0.34 0.13 l
0.35 0.13 l
0.34 0.13 l
0.34 0.13 l
0.34 0.13 l
0.34 0.12 l
0.34 0.12 l
0.34 0.12 l
0.34 0.12 l
0.34 0.12 l
0.34 0.11 l
0.35 0.12 l
0.34 0.11 l
0.34 0.11 l
0.34 0.10 l
0.34 0.11 l
0.34 0.10 l
0.34 0.11 l
0.34 0.10 l
0.34 0.10 l
0.34 0.09 l
0.35 0.10 l
0.34 0.09 l
0.34 0.10 l
0.34 0.09 l
0.34 0.09 l
0.34 0.09 l
0.34 0.09 l
0.34 0.08 l
0.34 0.09 l
0.34 0.08 l
0.34 0.08 l
0.35 0.08 l
0.34 0.08 l
0.34 0.08 l
0.34 0.08 l
0.34 0.07 l
0.34 0.08 l
0.34 0.07 l
0.34 0.08 l
0.34 0.07 l
0.34 0.07 l
0.35 0.07 l
0.34 0.06 l
0.34 0.07 l
0.34 0.07 l
0.34 0.06 l
0.34 0.06 l
0.34 0.07 l
0.34 0.06 l
0.34 0.06 l
0.34 0.06 l
0.35 0.06 l
0.34 0.06 l
0.34 0.05 l
0.34 0.06 l
0.34 0.05 l
0.34 0.06 l
0.34 0.05 l
0.34 0.06 l
0.34 0.05 l
0.34 0.05 l
0.34 0.05 l
0.35 0.05 l
0.34 0.05 l
0.34 0.04 l
0.34 0.05 l
0.34 0.05 l
0.34 0.04 l
0.34 0.05 l
0.34 0.04 l
0.34 0.05 l
0.34 0.04 l
0.35 0.04 l
0.34 0.04 l
0.34 0.04 l
0.34 0.04 l
155.21 172.80 lineto
0.34 0.04 l
0.34 0.04 l
0.34 0.04 l
0.34 0.04 l
0.34 0.03 l
0.35 0.04 l
0.34 0.03 l
0.34 0.04 l
0.34 0.03 l
0.34 0.04 l
0.34 0.03 l
0.34 0.03 l
0.34 0.04 l
0.34 0.03 l
0.34 0.03 l
0.34 0.03 l
0.35 0.03 l
0.34 0.03 l
0.34 0.03 l
0.34 0.03 l
0.34 0.03 l
0.34 0.02 l
0.34 0.03 l
0.34 0.03 l
0.34 0.03 l
0.34 0.02 l
0.35 0.03 l
0.34 0.02 l
0.34 0.03 l
0.34 0.02 l
0.34 0.03 l
0.34 0.02 l
0.34 0.02 l
0.34 0.03 l
0.34 0.02 l
0.34 0.02 l
0.35 0.02 l
0.34 0.03 l
0.34 0.02 l
0.34 0.02 l
0.34 0.02 l
0.34 0.02 l
0.34 0.02 l
0.34 0.02 l
0.34 0.02 l
0.34 0.02 l
0.34 0.02 l
0.35 0.01 l
0.34 0.02 l
0.34 0.02 l
0.34 0.02 l
0.34 0.02 l
0.34 0.01 l
0.34 0.02 l
0.34 0.02 l
0.34 0.01 l
0.34 0.02 l
0.35 0.01 l
0.34 0.02 l
0.34 0.01 l
0.34 0.02 l
0.34 0.01 l
0.34 0.02 l
0.34 0.01 l
0.34 0.02 l
0.34 0.01 l
0.34 0.02 l
0.35 0.01 l
0.34 0.01 l
0.34 0.01 l
0.34 0.02 l
0.34 0.01 l
0.34 0.01 l
0.34 0.01 l
0.34 0.02 l
0.34 0.01 l
0.34 0.01 l
0.34 0.01 l
0.35 0.01 l
0.34 0.01 l
0.34 0.02 l
0.34 0.01 l
0.34 0.01 l
0.34 0.01 l
0.34 0.01 l
0.34 0.01 l
0.34 0.01 l
0.34 0.01 l
0.35 0.01 l
0.34 0.01 l
0.34 0.01 l
0.34 0 l
0.34 0.01 l
0.34 0.01 l
0.34 0.01 l
0.34 0.01 l
0.34 0.01 l
0.34 0.01 l
0.35 0 l
189.31 174.77 lineto
0.34 0.01 l
0.34 0.01 l
0.34 0.01 l
0.34 0 l
0.34 0.01 l
0.34 0.01 l
0.34 0.01 l
0.34 0 l
0.34 0.01 l
0.35 0.01 l
0.34 0 l
0.34 0.01 l
0.34 0.01 l
0.34 0 l
0.34 0.01 l
0.34 0.01 l
0.34 0 l
0.34 0.01 l
0.34 0 l
0.35 0.01 l
0.34 0.01 l
0.34 0 l
0.34 0.01 l
0.34 0 l
0.34 0.01 l
0.34 0 l
0.34 0.01 l
0.34 0 l
0.34 0.01 l
0.35 0 l
0.34 0.01 l
0.34 0 l
0.34 0.01 l
0.34 0 l
0.34 0.01 l
0.34 0 l
0.34 0.01 l
0.34 0 l
0.34 0 l
0.34 0.01 l
0.35 0 l
0.34 0.01 l
0.34 0 l
0.34 0 l
0.34 0.01 l
0.34 0 l
0.34 0.01 l
0.34 0 l
0.34 0 l
0.34 0.01 l
0.35 0 l
0.34 0 l
0.34 0.01 l
0.34 0 l
0.34 0 l
0.34 0.01 l
0.34 0 l
0.34 0 l
0.34 0.01 l
0.34 0 l
0.35 0 l
0.34 0.01 l
0.34 0 l
0.34 0 l
0.34 0 l
0.34 0.01 l
0.34 0 l
0.34 0 l
0.34 0.01 l
0.34 0 l
0.34 0 l
0.35 0 l
0.34 0.01 l
0.34 0 l
0.34 0 l
0.34 0 l
0.34 0.01 l
0.34 0 l
0.34 0 l
0.34 0 l
0.34 0 l
0.35 0.01 l
0.34 0 l
0.34 0 l
0.34 0 l
0.34 0 l
0.34 0.01 l
0.34 0 l
0.34 0 l
0.34 0 l
0.34 0 l
0.35 0.01 l
0.34 0 l
0.34 0 l
0.34 0 l
0.34 0 l
0.34 0 l
0.34 0.01 l
0.34 0 l
o
1 0.5490 0 srgb
np
52.92 38.38 m
0.34 0 l
0.34 0 l
0.34 0 l
0.34 0 l
0.34 -0.01 l
0.34 0 l
0.35 0 l
0.34 0 l
0.34 0 l
0.34 0 l
0.34 0 l
0.34 -0.01 l
0.34 0 l
0.34 0 l
0.34 0 l
0.34 0 l
0.35 0 l
0.34 0 l
0.34 0.01 l
0.34 0 l
0.34 0.01 l
0.34 0.02 l
0.34 0.02 l
0.34 0.03 l
0.34 0.04 l
0.34 0.05 l
0.35 0.07 l
0.34 0.09 l
0.34 0.10 l
0.34 0.13 l
0.34 0.21 l
0.34 0.16 l
0.34 0.18 l
0.34 0.21 l
0.34 0.24 l
0.34 0.27 l
0.34 0.29 l
0.35 0.33 l
0.34 0.35 l
0.34 0.39 l
0.34 0.42 l
0.34 0.46 l
0.34 0.50 l
0.34 0.53 l
0.34 0.57 l
0.34 0.60 l
0.34 0.64 l
0.35 0.69 l
0.34 0.72 l
0.34 0.75 l
0.34 0.80 l
0.34 0.83 l
0.34 0.87 l
0.34 0.90 l
0.34 0.94 l
0.34 0.96 l
0.34 1.00 l
0.35 1.03 l
0.34 1.05 l
0.34 1.08 l
0.34 1.10 l
0.34 1.13 l
0.34 1.14 l
0.34 1.16 l
0.34 1.18 l
0.34 1.19 l
0.34 1.21 l
0.34 1.21 l
0.35 1.23 l
0.34 1.23 l
0.34 1.24 l
0.34 1.25 l
0.34 1.25 l
0.34 1.25 l
0.34 1.26 l
0.34 1.25 l
0.34 1.25 l
0.34 1.25 l
0.35 1.25 l
0.34 1.25 l
0.34 1.23 l
0.34 1.24 l
0.34 1.23 l
0.34 1.22 l
0.34 1.21 l
0.34 1.21 l
0.34 1.20 l
0.34 1.19 l
0.35 1.17 l
0.34 1.17 l
0.34 1.16 l
0.34 1.15 l
0.34 1.14 l
0.34 1.13 l
0.34 1.11 l
0.34 1.11 l
0.34 1.09 l
0.34 1.08 l
0.34 1.07 l
87.02 104.35 lineto
0.34 1.04 l
0.34 1.04 l
0.34 1.02 l
0.34 1.01 l
0.34 0.99 l
0.34 0.98 l
0.34 0.98 l
0.34 0.95 l
0.34 0.95 l
0.35 0.93 l
0.34 0.93 l
0.34 0.91 l
0.34 0.89 l
0.34 0.89 l
0.34 0.87 l
0.34 0.86 l
0.34 0.85 l
0.34 0.84 l
0.34 0.82 l
0.35 0.82 l
0.34 0.80 l
0.34 0.79 l
0.34 0.78 l
0.34 0.77 l
0.34 0.76 l
0.34 0.75 l
0.34 0.73 l
0.34 0.73 l
0.34 0.71 l
0.34 0.70 l
0.35 0.70 l
0.34 0.68 l
0.34 0.67 l
0.34 0.67 l
0.34 0.65 l
0.34 0.65 l
0.34 0.63 l
0.34 0.62 l
0.34 0.62 l
0.34 0.60 l
0.35 0.60 l
0.34 0.59 l
0.34 0.58 l
0.34 0.57 l
0.34 0.56 l
0.34 0.55 l
0.34 0.55 l
0.34 0.53 l
0.34 0.53 l
0.34 0.52 l
0.35 0.51 l
0.34 0.50 l
0.34 0.50 l
0.34 0.49 l
0.34 0.48 l
0.34 0.47 l
0.34 0.47 l
0.34 0.46 l
0.34 0.45 l
0.34 0.45 l
0.34 0.43 l
0.35 0.43 l
0.34 0.43 l
0.34 0.42 l
0.34 0.41 l
0.34 0.40 l
0.34 0.40 l
0.34 0.40 l
0.34 0.38 l
0.34 0.38 l
0.34 0.38 l
0.35 0.37 l
0.34 0.36 l
0.34 0.36 l
0.34 0.35 l
0.34 0.35 l
0.34 0.34 l
0.34 0.33 l
0.34 0.33 l
0.34 0.33 l
0.34 0.32 l
0.35 0.31 l
0.34 0.31 l
0.34 0.31 l
0.34 0.30 l
0.34 0.30 l
0.34 0.29 l
0.34 0.28 l
0.34 0.29 l
0.34 0.27 l
0.34 0.28 l
0.34 0.27 l
0.35 0.26 l
0.34 0.26 l
0.34 0.26 l
0.34 0.25 l
0.34 0.25 l
0.34 0.25 l
0.34 0.24 l
121.11 160.40 lineto
0.34 0.24 l
0.34 0.23 l
0.35 0.22 l
0.34 0.23 l
0.34 0.22 l
0.34 0.21 l
0.34 0.22 l
0.34 0.20 l
0.34 0.21 l
0.34 0.20 l
0.34 0.20 l
0.34 0.20 l
0.35 0.19 l
0.34 0.19 l
0.34 0.19 l
0.34 0.18 l
0.34 0.19 l
0.34 0.17 l
0.34 0.18 l
0.34 0.17 l
0.34 0.17 l
0.34 0.17 l
0.34 0.17 l
0.35 0.16 l
0.34 0.16 l
0.34 0.16 l
0.34 0.15 l
0.34 0.15 l
0.34 0.15 l
0.34 0.15 l
0.34 0.15 l
0.34 0.14 l
0.34 0.14 l
0.35 0.14 l
0.34 0.13 l
0.34 0.14 l
0.34 0.13 l
0.34 0.13 l
0.34 0.13 l
0.34 0.13 l
0.34 0.12 l
0.34 0.12 l
0.34 0.12 l
0.35 0.12 l
0.34 0.12 l
0.34 0.11 l
0.34 0.11 l
0.34 0.12 l
0.34 0.11 l
0.34 0.10 l
0.34 0.11 l
0.34 0.10 l
0.34 0.11 l
0.34 0.10 l
0.35 0.10 l
0.34 0.09 l
0.34 0.10 l
0.34 0.10 l
0.34 0.09 l
0.34 0.09 l
0.34 0.09 l
0.34 0.09 l
0.34 0.09 l
0.34 0.08 l
0.35 0.09 l
0.34 0.08 l
0.34 0.08 l
0.34 0.09 l
0.34 0.08 l
0.34 0.07 l
0.34 0.08 l
0.34 0.08 l
0.34 0.07 l
0.34 0.08 l
0.35 0.07 l
0.34 0.07 l
0.34 0.07 l
0.34 0.07 l
0.34 0.07 l
0.34 0.06 l
0.34 0.07 l
0.34 0.06 l
0.34 0.07 l
0.34 0.06 l
0.34 0.06 l
0.35 0.06 l
0.34 0.06 l
0.34 0.06 l
0.34 0.06 l
0.34 0.06 l
0.34 0.05 l
0.34 0.06 l
0.34 0.05 l
0.34 0.06 l
0.34 0.05 l
0.35 0.05 l
0.34 0.05 l
0.34 0.05 l
0.34 0.05 l
155.21 172.23 lineto
0.34 0.05 l
0.34 0.05 l
0.34 0.04 l
0.34 0.05 l
0.34 0.04 l
0.35 0.05 l
0.34 0.04 l
0.34 0.05 l
0.34 0.04 l
0.34 0.04 l
0.34 0.04 l
0.34 0.04 l
0.34 0.04 l
0.34 0.04 l
0.34 0.04 l
0.34 0.04 l
0.35 0.03 l
0.34 0.04 l
0.34 0.04 l
0.34 0.03 l
0.34 0.04 l
0.34 0.03 l
0.34 0.03 l
0.34 0.04 l
0.34 0.03 l
0.34 0.03 l
0.35 0.03 l
0.34 0.04 l
0.34 0.03 l
0.34 0.03 l
0.34 0.03 l
0.34 0.03 l
0.34 0.02 l
0.34 0.03 l
0.34 0.03 l
0.34 0.03 l
0.35 0.03 l
0.34 0.02 l
0.34 0.03 l
0.34 0.02 l
0.34 0.03 l
0.34 0.03 l
0.34 0.02 l
0.34 0.02 l
0.34 0.03 l
0.34 0.02 l
0.34 0.02 l
0.35 0.03 l
0.34 0.02 l
0.34 0.02 l
0.34 0.02 l
0.34 0.02 l
0.34 0.03 l
0.34 0.02 l
0.34 0.02 l
0.34 0.02 l
0.34 0.02 l
0.35 0.02 l
0.34 0.02 l
0.34 0.01 l
0.34 0.02 l
0.34 0.02 l
0.34 0.02 l
0.34 0.02 l
0.34 0.01 l
0.34 0.02 l
0.34 0.02 l
0.35 0.01 l
0.34 0.02 l
0.34 0.02 l
0.34 0.01 l
0.34 0.02 l
0.34 0.01 l
0.34 0.02 l
0.34 0.01 l
0.34 0.02 l
0.34 0.01 l
0.34 0.02 l
0.35 0.01 l
0.34 0.01 l
0.34 0.02 l
0.34 0.01 l
0.34 0.01 l
0.34 0.02 l
0.34 0.01 l
0.34 0.01 l
0.34 0.01 l
0.34 0.02 l
0.35 0.01 l
0.34 0.01 l
0.34 0.01 l
0.34 0.01 l
0.34 0.01 l
0.34 0.01 l
0.34 0.01 l
0.34 0.02 l
0.34 0.01 l
0.34 0.01 l
0.35 0.01 l
189.31 174.66 lineto
0.34 0.01 l
0.34 0.01 l
0.34 0.01 l
0.34 0 l
0.34 0.01 l
0.34 0.01 l
0.34 0.01 l
0.34 0.01 l
0.34 0.01 l
0.35 0.01 l
0.34 0.01 l
0.34 0 l
0.34 0.01 l
0.34 0.01 l
0.34 0.01 l
0.34 0.01 l
0.34 0 l
0.34 0.01 l
0.34 0.01 l
0.35 0 l
0.34 0.01 l
0.34 0.01 l
0.34 0.01 l
0.34 0 l
0.34 0.01 l
0.34 0.01 l
0.34 0 l
0.34 0.01 l
0.34 0 l
0.35 0.01 l
0.34 0.01 l
0.34 0 l
0.34 0.01 l
0.34 0 l
0.34 0.01 l
0.34 0.01 l
0.34 0 l
0.34 0.01 l
0.34 0 l
0.34 0.01 l
0.35 0 l
0.34 0.01 l
0.34 0 l
0.34 0.01 l
0.34 0 l
0.34 0.01 l
0.34 0 l
0.34 0.01 l
0.34 0 l
0.34 0.01 l
0.35 0 l
0.34 0 l
0.34 0.01 l
0.34 0 l
0.34 0.01 l
0.34 0 l
0.34 0 l
0.34 0.01 l
0.34 0 l
0.34 0.01 l
0.35 0 l
0.34 0 l
0.34 0.01 l
0.34 0 l
0.34 0 l
0.34 0.01 l
0.34 0 l
0.34 0 l
0.34 0.01 l
0.34 0 l
0.34 0 l
0.35 0.01 l
0.34 0 l
0.34 0 l
0.34 0.01 l
0.34 0 l
0.34 0 l
0.34 0 l
0.34 0.01 l
0.34 0 l
0.34 0 l
0.35 0.01 l
0.34 0 l
0.34 0 l
0.34 0 l
0.34 0.01 l
0.34 0 l
0.34 0 l
0.34 0 l
0.34 0 l
0.34 0.01 l
0.35 0 l
0.34 0 l
0.34 0 l
0.34 0.01 l
0.34 0 l
0.34 0 l
0.34 0 l
0.34 0 l
o
0.9333 0.7059 0.1333 srgb
np
52.92 38.38 m
0.34 0 l
0.34 0 l
0.34 0 l
0.34 0 l
0.34 0 l
0.34 0 l
0.35 0 l
0.34 0 l
0.34 0 l
0.34 0 l
0.34 0 l
0.34 0 l
0.34 0 l
0.34 0 l
0.34 0 l
0.34 0 l
0.35 0 l
0.34 0 l
0.34 0 l
0.34 0 l
0.34 0 l
0.34 0.01 l
0.34 0 l
0.34 0.01 l
0.34 0.01 l
0.34 0.01 l
0.35 0.02 l
0.34 0.02 l
0.34 0.03 l
0.34 0.03 l
0.34 0.04 l
0.34 0.05 l
0.34 0.05 l
0.34 0.07 l
0.34 0.08 l
0.34 0.09 l
0.34 0.10 l
0.35 0.12 l
0.34 0.13 l
0.34 0.14 l
0.34 0.17 l
0.34 0.18 l
0.34 0.21 l
0.34 0.22 l
0.34 0.25 l
0.34 0.27 l
0.34 0.29 l
0.35 0.32 l
0.34 0.35 l
0.34 0.37 l
0.34 0.41 l
0.34 0.43 l
0.34 0.46 l
0.34 0.50 l
0.34 0.53 l
0.34 0.56 l
0.34 0.60 l
0.35 0.64 l
0.34 0.67 l
0.34 0.71 l
0.34 0.76 l
0.34 0.79 l
0.34 0.69 l
0.34 0.67 l
0.34 0.69 l
0.34 0.71 l
0.34 0.73 l
0.34 0.76 l
0.35 0.77 l
0.34 0.79 l
0.34 0.81 l
0.34 0.83 l
0.34 0.85 l
0.34 0.87 l
0.34 0.89 l
0.34 0.91 l
0.34 0.92 l
0.34 0.95 l
0.35 0.96 l
0.34 0.97 l
0.34 1.00 l
0.34 1.01 l
0.34 1.03 l
0.34 1.04 l
0.34 1.05 l
0.34 1.07 l
0.34 1.08 l
0.34 1.09 l
0.35 1.10 l
0.34 1.11 l
0.34 1.11 l
0.34 1.13 l
0.34 1.13 l
0.34 1.13 l
0.34 1.14 l
0.34 1.14 l
0.34 1.14 l
0.34 1.14 l
0.34 1.14 l
87.02 85.77 lineto
0.34 1.14 l
0.34 1.14 l
0.34 1.13 l
0.34 1.13 l
0.34 1.12 l
0.34 1.12 l
0.34 1.11 l
0.34 1.11 l
0.34 1.10 l
0.35 1.09 l
0.34 1.08 l
0.34 1.08 l
0.34 1.06 l
0.34 1.06 l
0.34 1.05 l
0.34 1.04 l
0.34 1.03 l
0.34 1.01 l
0.34 1.01 l
0.35 1.00 l
0.34 0.99 l
0.34 0.97 l
0.34 0.97 l
0.34 0.95 l
0.34 0.95 l
0.34 0.93 l
0.34 0.92 l
0.34 0.91 l
0.34 0.90 l
0.34 0.89 l
0.35 0.87 l
0.34 0.87 l
0.34 0.85 l
0.34 0.85 l
0.34 0.83 l
0.34 0.82 l
0.34 0.81 l
0.34 0.80 l
0.34 0.79 l
0.34 0.77 l
0.35 0.77 l
0.34 0.76 l
0.34 0.74 l
0.34 0.74 l
0.34 0.72 l
0.34 0.72 l
0.34 0.70 l
0.34 0.69 l
0.34 0.69 l
0.34 0.67 l
0.35 0.67 l
0.34 0.65 l
0.34 0.64 l
0.34 0.64 l
0.34 0.63 l
0.34 0.61 l
0.34 0.61 l
0.34 0.60 l
0.34 0.59 l
0.34 0.58 l
0.34 0.57 l
0.35 0.57 l
0.34 0.55 l
0.34 0.55 l
0.34 0.54 l
0.34 0.53 l
0.34 0.52 l
0.34 0.51 l
0.34 0.51 l
0.34 0.50 l
0.34 0.49 l
0.35 0.48 l
0.34 0.48 l
0.34 0.47 l
0.34 0.46 l
0.34 0.45 l
0.34 0.45 l
0.34 0.44 l
0.34 0.44 l
0.34 0.42 l
0.34 0.42 l
0.35 0.42 l
0.34 0.41 l
0.34 0.40 l
0.34 0.39 l
0.34 0.39 l
0.34 0.39 l
0.34 0.37 l
0.34 0.38 l
0.34 0.36 l
0.34 0.36 l
0.34 0.36 l
0.35 0.34 l
0.34 0.35 l
0.34 0.34 l
0.34 0.33 l
0.34 0.33 l
0.34 0.32 l
0.34 0.32 l
121.11 155.66 lineto
0.34 0.31 l
0.34 0.30 l
0.35 0.30 l
0.34 0.29 l
0.34 0.29 l
0.34 0.28 l
0.34 0.28 l
0.34 0.28 l
0.34 0.27 l
0.34 0.27 l
0.34 0.26 l
0.34 0.26 l
0.35 0.26 l
0.34 0.25 l
0.34 0.24 l
0.34 0.25 l
0.34 0.24 l
0.34 0.23 l
0.34 0.23 l
0.34 0.23 l
0.34 0.22 l
0.34 0.23 l
0.34 0.21 l
0.35 0.22 l
0.34 0.21 l
0.34 0.21 l
0.34 0.20 l
0.34 0.20 l
0.34 0.20 l
0.34 0.19 l
0.34 0.20 l
0.34 0.18 l
0.34 0.19 l
0.35 0.18 l
0.34 0.18 l
0.34 0.18 l
0.34 0.17 l
0.34 0.18 l
0.34 0.17 l
0.34 0.16 l
0.34 0.17 l
0.34 0.16 l
0.34 0.16 l
0.35 0.15 l
0.34 0.16 l
0.34 0.15 l
0.34 0.15 l
0.34 0.14 l
0.34 0.15 l
0.34 0.14 l
0.34 0.14 l
0.34 0.14 l
0.34 0.13 l
0.34 0.13 l
0.35 0.14 l
0.34 0.12 l
0.34 0.13 l
0.34 0.13 l
0.34 0.12 l
0.34 0.12 l
0.34 0.12 l
0.34 0.12 l
0.34 0.11 l
0.34 0.12 l
0.35 0.11 l
0.34 0.11 l
0.34 0.11 l
0.34 0.11 l
0.34 0.10 l
0.34 0.10 l
0.34 0.11 l
0.34 0.10 l
0.34 0.09 l
0.34 0.10 l
0.35 0.10 l
0.34 0.09 l
0.34 0.09 l
0.34 0.10 l
0.34 0.08 l
0.34 0.09 l
0.34 0.09 l
0.34 0.09 l
0.34 0.08 l
0.34 0.08 l
0.34 0.08 l
0.35 0.08 l
0.34 0.08 l
0.34 0.08 l
0.34 0.08 l
0.34 0.07 l
0.34 0.08 l
0.34 0.07 l
0.34 0.07 l
0.34 0.07 l
0.34 0.07 l
0.35 0.07 l
0.34 0.07 l
0.34 0.07 l
0.34 0.06 l
155.21 171.26 lineto
0.34 0.06 l
0.34 0.06 l
0.34 0.06 l
0.34 0.06 l
0.34 0.06 l
0.35 0.06 l
0.34 0.06 l
0.34 0.06 l
0.34 0.05 l
0.34 0.06 l
0.34 0.05 l
0.34 0.05 l
0.34 0.06 l
0.34 0.05 l
0.34 0.05 l
0.34 0.05 l
0.35 0.05 l
0.34 0.05 l
0.34 0.04 l
0.34 0.05 l
0.34 0.05 l
0.34 0.04 l
0.34 0.05 l
0.34 0.04 l
0.34 0.04 l
0.34 0.05 l
0.35 0.04 l
0.34 0.04 l
0.34 0.04 l
0.34 0.04 l
0.34 0.04 l
0.34 0.04 l
0.34 0.04 l
0.34 0.03 l
0.34 0.04 l
0.34 0.04 l
0.35 0.03 l
0.34 0.04 l
0.34 0.03 l
0.34 0.04 l
0.34 0.03 l
0.34 0.03 l
0.34 0.04 l
0.34 0.03 l
0.34 0.03 l
0.34 0.03 l
0.34 0.03 l
0.35 0.03 l
0.34 0.03 l
0.34 0.03 l
0.34 0.03 l
0.34 0.03 l
0.34 0.02 l
0.34 0.03 l
0.34 0.03 l
0.34 0.03 l
0.34 0.02 l
0.35 0.03 l
0.34 0.02 l
0.34 0.03 l
0.34 0.02 l
0.34 0.03 l
0.34 0.02 l
0.34 0.02 l
0.34 0.03 l
0.34 0.02 l
0.34 0.02 l
0.35 0.02 l
0.34 0.02 l
0.34 0.03 l
0.34 0.02 l
0.34 0.02 l
0.34 0.02 l
0.34 0.02 l
0.34 0.02 l
0.34 0.02 l
0.34 0.01 l
0.34 0.02 l
0.35 0.02 l
0.34 0.02 l
0.34 0.02 l
0.34 0.01 l
0.34 0.02 l
0.34 0.02 l
0.34 0.02 l
0.34 0.01 l
0.34 0.02 l
0.34 0.01 l
0.35 0.02 l
0.34 0.02 l
0.34 0.01 l
0.34 0.02 l
0.34 0.01 l
0.34 0.01 l
0.34 0.02 l
0.34 0.01 l
0.34 0.02 l
0.34 0.01 l
0.35 0.01 l
189.31 174.46 lineto
0.34 0.01 l
0.34 0.01 l
0.34 0.01 l
0.34 0.02 l
0.34 0.01 l
0.34 0.01 l
0.34 0.01 l
0.34 0.01 l
0.34 0.02 l
0.35 0.01 l
0.34 0.01 l
0.34 0.01 l
0.34 0.01 l
0.34 0.01 l
0.34 0.01 l
0.34 0.01 l
0.34 0.01 l
0.34 0.01 l
0.34 0.01 l
0.35 0.01 l
0.34 0.01 l
0.34 0.01 l
0.34 0.01 l
0.34 0.01 l
0.34 0.01 l
0.34 0 l
0.34 0.01 l
0.34 0.01 l
0.34 0.01 l
0.35 0.01 l
0.34 0.01 l
0.34 0 l
0.34 0.01 l
0.34 0.01 l
0.34 0.01 l
0.34 0 l
0.34 0.01 l
0.34 0.01 l
0.34 0.01 l
0.34 0 l
0.35 0.01 l
0.34 0.01 l
0.34 0 l
0.34 0.01 l
0.34 0.01 l
0.34 0 l
0.34 0.01 l
0.34 0 l
0.34 0.01 l
0.34 0.01 l
0.35 0 l
0.34 0.01 l
0.34 0 l
0.34 0.01 l
0.34 0 l
0.34 0.01 l
0.34 0 l
0.34 0.01 l
0.34 0 l
0.34 0.01 l
0.35 0 l
0.34 0.01 l
0.34 0 l
0.34 0.01 l
0.34 0 l
0.34 0.01 l
0.34 0 l
0.34 0.01 l
0.34 0 l
0.34 0.01 l
0.34 0 l
0.35 0 l
0.34 0.01 l
0.34 0 l
0.34 0.01 l
0.34 0 l
0.34 0 l
0.34 0.01 l
0.34 0 l
0.34 0 l
0.34 0.01 l
0.35 0 l
0.34 0.01 l
0.34 0 l
0.34 0 l
0.34 0.01 l
0.34 0 l
0.34 0 l
0.34 0 l
0.34 0.01 l
0.34 0 l
0.35 0 l
0.34 0.01 l
0.34 0 l
0.34 0 l
0.34 0.01 l
0.34 0 l
0.34 0 l
0.34 0 l
o
0.8667 0.6275 0.8667 srgb
np
52.92 38.38 m
0.34 0 l
0.34 0 l
0.34 0 l
0.34 0 l
0.34 0 l
0.34 0 l
0.35 0 l
0.34 0 l
0.34 0 l
0.34 0 l
0.34 0 l
0.34 0 l
0.34 0 l
0.34 0 l
0.34 0 l
0.34 0 l
0.35 0 l
0.34 0 l
0.34 0 l
0.34 0 l
0.34 0 l
0.34 0 l
0.34 0.01 l
0.34 0 l
0.34 0 l
0.34 0.01 l
0.35 0.01 l
0.34 0.01 l
0.34 0.01 l
0.34 0.01 l
0.34 0.02 l
0.34 0.02 l
0.34 0.03 l
0.34 0.03 l
0.34 0.03 l
0.34 0.04 l
0.34 0.05 l
0.35 0.05 l
0.34 0.06 l
0.34 0.06 l
0.34 0.08 l
0.34 0.08 l
0.34 0.09 l
0.34 0.10 l
0.34 0.11 l
0.34 0.12 l
0.34 0.13 l
0.35 0.14 l
0.34 0.15 l
0.34 0.17 l
0.34 0.18 l
0.34 0.19 l
0.34 0.21 l
0.34 0.22 l
0.34 0.23 l
0.34 0.26 l
0.34 0.26 l
0.35 0.28 l
0.34 0.30 l
0.34 0.32 l
0.34 0.33 l
0.34 0.35 l
0.34 0.37 l
0.34 0.39 l
0.34 0.41 l
0.34 0.43 l
0.34 0.44 l
0.34 0.47 l
0.35 0.49 l
0.34 0.51 l
0.34 0.53 l
0.34 0.55 l
0.34 0.57 l
0.34 0.60 l
0.34 0.61 l
0.34 0.64 l
0.34 0.67 l
0.34 0.68 l
0.35 0.71 l
0.34 0.74 l
0.34 0.76 l
0.34 0.78 l
0.34 0.81 l
0.34 0.83 l
0.34 0.86 l
0.34 0.89 l
0.34 0.91 l
0.34 0.93 l
0.35 0.96 l
0.34 0.99 l
0.34 1.02 l
0.34 1.04 l
0.34 1.07 l
0.34 0.91 l
0.34 0.81 l
0.34 0.83 l
0.34 0.84 l
0.34 0.84 l
0.34 0.86 l
87.02 70.74 lineto
0.34 0.87 l
0.34 0.89 l
0.34 0.89 l
0.34 0.90 l
0.34 0.91 l
0.34 0.92 l
0.34 0.92 l
0.34 0.93 l
0.34 0.95 l
0.35 0.95 l
0.34 0.95 l
0.34 0.97 l
0.34 0.97 l
0.34 0.97 l
0.34 0.99 l
0.34 0.99 l
0.34 0.99 l
0.34 1.00 l
0.34 1.00 l
0.35 1.00 l
0.34 1.01 l
0.34 1.00 l
0.34 1.01 l
0.34 1.01 l
0.34 1.01 l
0.34 1.00 l
0.34 1.01 l
0.34 1.00 l
0.34 1.00 l
0.34 1.00 l
0.35 0.99 l
0.34 0.98 l
0.34 0.99 l
0.34 0.97 l
0.34 0.97 l
0.34 0.97 l
0.34 0.96 l
0.34 0.95 l
0.34 0.94 l
0.34 0.94 l
0.35 0.92 l
0.34 0.92 l
0.34 0.91 l
0.34 0.90 l
0.34 0.90 l
0.34 0.88 l
0.34 0.88 l
0.34 0.86 l
0.34 0.86 l
0.34 0.85 l
0.35 0.83 l
0.34 0.83 l
0.34 0.82 l
0.34 0.81 l
0.34 0.79 l
0.34 0.79 l
0.34 0.78 l
0.34 0.77 l
0.34 0.76 l
0.34 0.75 l
0.34 0.74 l
0.35 0.73 l
0.34 0.72 l
0.34 0.71 l
0.34 0.70 l
0.34 0.69 l
0.34 0.68 l
0.34 0.67 l
0.34 0.67 l
0.34 0.65 l
0.34 0.65 l
0.35 0.63 l
0.34 0.63 l
0.34 0.62 l
0.34 0.60 l
0.34 0.60 l
0.34 0.60 l
0.34 0.58 l
0.34 0.57 l
0.34 0.57 l
0.34 0.55 l
0.35 0.55 l
0.34 0.54 l
0.34 0.54 l
0.34 0.52 l
0.34 0.52 l
0.34 0.51 l
0.34 0.50 l
0.34 0.50 l
0.34 0.48 l
0.34 0.48 l
0.34 0.48 l
0.35 0.46 l
0.34 0.46 l
0.34 0.45 l
0.34 0.44 l
0.34 0.44 l
0.34 0.43 l
0.34 0.43 l
121.11 148.92 lineto
0.34 0.42 l
0.34 0.40 l
0.35 0.40 l
0.34 0.39 l
0.34 0.39 l
0.34 0.38 l
0.34 0.38 l
0.34 0.36 l
0.34 0.37 l
0.34 0.36 l
0.34 0.35 l
0.34 0.35 l
0.35 0.34 l
0.34 0.33 l
0.34 0.33 l
0.34 0.33 l
0.34 0.32 l
0.34 0.32 l
0.34 0.31 l
0.34 0.30 l
0.34 0.30 l
0.34 0.30 l
0.34 0.29 l
0.35 0.29 l
0.34 0.28 l
0.34 0.28 l
0.34 0.28 l
0.34 0.27 l
0.34 0.26 l
0.34 0.26 l
0.34 0.26 l
0.34 0.26 l
0.34 0.24 l
0.35 0.25 l
0.34 0.24 l
0.34 0.24 l
0.34 0.23 l
0.34 0.24 l
0.34 0.22 l
0.34 0.23 l
0.34 0.22 l
0.34 0.21 l
0.34 0.22 l
0.35 0.21 l
0.34 0.20 l
0.34 0.21 l
0.34 0.20 l
0.34 0.19 l
0.34 0.20 l
0.34 0.19 l
0.34 0.19 l
0.34 0.18 l
0.34 0.18 l
0.34 0.18 l
0.35 0.18 l
0.34 0.17 l
0.34 0.17 l
0.34 0.17 l
0.34 0.17 l
0.34 0.16 l
0.34 0.16 l
0.34 0.16 l
0.34 0.15 l
0.34 0.16 l
0.35 0.15 l
0.34 0.15 l
0.34 0.14 l
0.34 0.14 l
0.34 0.15 l
0.34 0.14 l
0.34 0.13 l
0.34 0.14 l
0.34 0.13 l
0.34 0.13 l
0.35 0.13 l
0.34 0.13 l
0.34 0.12 l
0.34 0.12 l
0.34 0.12 l
0.34 0.12 l
0.34 0.12 l
0.34 0.11 l
0.34 0.12 l
0.34 0.11 l
0.34 0.11 l
0.35 0.11 l
0.34 0.10 l
0.34 0.11 l
0.34 0.10 l
0.34 0.10 l
0.34 0.10 l
0.34 0.10 l
0.34 0.10 l
0.34 0.09 l
0.34 0.10 l
0.35 0.09 l
0.34 0.09 l
0.34 0.09 l
0.34 0.09 l
155.21 169.86 lineto
0.34 0.09 l
0.34 0.08 l
0.34 0.08 l
0.34 0.09 l
0.34 0.08 l
0.35 0.07 l
0.34 0.08 l
0.34 0.08 l
0.34 0.07 l
0.34 0.08 l
0.34 0.07 l
0.34 0.07 l
0.34 0.07 l
0.34 0.07 l
0.34 0.07 l
0.34 0.07 l
0.35 0.06 l
0.34 0.07 l
0.34 0.06 l
0.34 0.07 l
0.34 0.06 l
0.34 0.06 l
0.34 0.06 l
0.34 0.06 l
0.34 0.06 l
0.34 0.05 l
0.35 0.06 l
0.34 0.06 l
0.34 0.05 l
0.34 0.05 l
0.34 0.06 l
0.34 0.05 l
0.34 0.05 l
0.34 0.05 l
0.34 0.05 l
0.34 0.05 l
0.35 0.05 l
0.34 0.05 l
0.34 0.04 l
0.34 0.05 l
0.34 0.04 l
0.34 0.05 l
0.34 0.04 l
0.34 0.04 l
0.34 0.05 l
0.34 0.04 l
0.34 0.04 l
0.35 0.04 l
0.34 0.04 l
0.34 0.04 l
0.34 0.04 l
0.34 0.04 l
0.34 0.03 l
0.34 0.04 l
0.34 0.04 l
0.34 0.03 l
0.34 0.04 l
0.35 0.03 l
0.34 0.04 l
0.34 0.03 l
0.34 0.03 l
0.34 0.03 l
0.34 0.04 l
0.34 0.03 l
0.34 0.03 l
0.34 0.03 l
0.34 0.03 l
0.35 0.03 l
0.34 0.03 l
0.34 0.03 l
0.34 0.02 l
0.34 0.03 l
0.34 0.03 l
0.34 0.03 l
0.34 0.02 l
0.34 0.03 l
0.34 0.02 l
0.34 0.03 l
0.35 0.02 l
0.34 0.03 l
0.34 0.02 l
0.34 0.03 l
0.34 0.02 l
0.34 0.02 l
0.34 0.02 l
0.34 0.03 l
0.34 0.02 l
0.34 0.02 l
0.35 0.02 l
0.34 0.02 l
0.34 0.02 l
0.34 0.02 l
0.34 0.02 l
0.34 0.02 l
0.34 0.02 l
0.34 0.02 l
0.34 0.02 l
0.34 0.02 l
0.35 0.01 l
189.31 174.17 lineto
0.34 0.02 l
0.34 0.02 l
0.34 0.01 l
0.34 0.02 l
0.34 0.02 l
0.34 0.01 l
0.34 0.02 l
0.34 0.01 l
0.34 0.02 l
0.35 0.01 l
0.34 0.02 l
0.34 0.01 l
0.34 0.02 l
0.34 0.01 l
0.34 0.02 l
0.34 0.01 l
0.34 0.01 l
0.34 0.02 l
0.34 0.01 l
0.35 0.01 l
0.34 0.02 l
0.34 0.01 l
0.34 0.01 l
0.34 0.01 l
0.34 0.01 l
0.34 0.02 l
0.34 0.01 l
0.34 0.01 l
0.34 0.01 l
0.35 0.01 l
0.34 0.01 l
0.34 0.01 l
0.34 0.01 l
0.34 0.01 l
0.34 0.01 l
0.34 0.01 l
0.34 0.01 l
0.34 0.01 l
0.34 0.01 l
0.34 0.01 l
0.35 0.01 l
0.34 0.01 l
0.34 0.01 l
0.34 0.01 l
0.34 0.01 l
0.34 0 l
0.34 0.01 l
0.34 0.01 l
0.34 0.01 l
0.34 0.01 l
0.35 0.01 l
0.34 0 l
0.34 0.01 l
0.34 0.01 l
0.34 0.01 l
0.34 0 l
0.34 0.01 l
0.34 0.01 l
0.34 0 l
0.34 0.01 l
0.35 0.01 l
0.34 0 l
0.34 0.01 l
0.34 0.01 l
0.34 0 l
0.34 0.01 l
0.34 0.01 l
0.34 0 l
0.34 0.01 l
0.34 0 l
0.34 0.01 l
0.35 0 l
0.34 0.01 l
0.34 0 l
0.34 0.01 l
0.34 0.01 l
0.34 0 l
0.34 0.01 l
0.34 0 l
0.34 0.01 l
0.34 0 l
0.35 0.01 l
0.34 0 l
0.34 0 l
0.34 0.01 l
0.34 0 l
0.34 0.01 l
0.34 0 l
0.34 0.01 l
0.34 0 l
0.34 0 l
0.35 0.01 l
0.34 0 l
0.34 0.01 l
0.34 0 l
0.34 0 l
0.34 0.01 l
0.34 0 l
0.34 0.01 l
o
0.9333 0.6039 0.2863 srgb
np
52.92 38.38 m
0.34 0 l
0.34 0 l
0.34 0 l
0.34 0 l
0.34 0 l
0.34 0 l
0.35 0 l
0.34 0 l
0.34 0 l
0.34 0 l
0.34 0 l
0.34 0 l
0.34 0 l
0.34 0 l
0.34 0 l
0.34 0 l
0.35 0 l
0.34 0 l
0.34 0 l
0.34 0 l
0.34 0 l
0.34 0 l
0.34 0 l
0.34 0.01 l
0.34 0 l
0.34 0 l
0.35 0.01 l
0.34 0 l
0.34 0.01 l
0.34 0.01 l
0.34 0.01 l
0.34 0.01 l
0.34 0.01 l
0.34 0.02 l
0.34 0.02 l
0.34 0.02 l
0.34 0.03 l
0.35 0.03 l
0.34 0.03 l
0.34 0.04 l
0.34 0.04 l
0.34 0.04 l
0.34 0.05 l
0.34 0.06 l
0.34 0.06 l
0.34 0.07 l
0.34 0.07 l
0.35 0.08 l
0.34 0.09 l
0.34 0.09 l
0.34 0.10 l
0.34 0.11 l
0.34 0.12 l
0.34 0.12 l
0.34 0.13 l
0.34 0.15 l
0.34 0.15 l
0.35 0.15 l
0.34 0.17 l
0.34 0.18 l
0.34 0.19 l
0.34 0.20 l
0.34 0.20 l
0.34 0.22 l
0.34 0.23 l
0.34 0.24 l
0.34 0.25 l
0.34 0.26 l
0.35 0.28 l
0.34 0.29 l
0.34 0.29 l
0.34 0.31 l
0.34 0.33 l
0.34 0.33 l
0.34 0.35 l
0.34 0.36 l
0.34 0.37 l
0.34 0.39 l
0.35 0.40 l
0.34 0.41 l
0.34 0.43 l
0.34 0.44 l
0.34 0.45 l
0.34 0.47 l
0.34 0.48 l
0.34 0.50 l
0.34 0.51 l
0.34 0.53 l
0.35 0.54 l
0.34 0.56 l
0.34 0.57 l
0.34 0.58 l
0.34 0.60 l
0.34 0.62 l
0.34 0.63 l
0.34 0.65 l
0.34 0.66 l
0.34 0.68 l
0.34 0.70 l
87.02 57.88 lineto
0.34 0.72 l
0.34 0.74 l
0.34 0.76 l
0.34 0.78 l
0.34 0.79 l
0.34 0.80 l
0.34 0.83 l
0.34 0.84 l
0.34 0.85 l
0.35 0.88 l
0.34 0.89 l
0.34 0.90 l
0.34 0.93 l
0.34 0.94 l
0.34 0.96 l
0.34 0.97 l
0.34 0.99 l
0.34 1.01 l
0.34 1.03 l
0.35 1.04 l
0.34 1.06 l
0.34 1.08 l
0.34 1.09 l
0.34 1.12 l
0.34 0.97 l
0.34 0.80 l
0.34 0.80 l
0.34 0.81 l
0.34 0.81 l
0.34 0.82 l
0.35 0.82 l
0.34 0.82 l
0.34 0.83 l
0.34 0.83 l
0.34 0.84 l
0.34 0.84 l
0.34 0.85 l
0.34 0.85 l
0.34 0.85 l
0.34 0.85 l
0.35 0.86 l
0.34 0.87 l
0.34 0.86 l
0.34 0.87 l
0.34 0.88 l
0.34 0.87 l
0.34 0.88 l
0.34 0.88 l
0.34 0.87 l
0.34 0.88 l
0.35 0.88 l
0.34 0.88 l
0.34 0.88 l
0.34 0.88 l
0.34 0.88 l
0.34 0.87 l
0.34 0.87 l
0.34 0.87 l
0.34 0.87 l
0.34 0.86 l
0.34 0.86 l
0.35 0.85 l
0.34 0.85 l
0.34 0.84 l
0.34 0.83 l
0.34 0.83 l
0.34 0.83 l
0.34 0.82 l
0.34 0.81 l
0.34 0.80 l
0.34 0.80 l
0.35 0.79 l
0.34 0.78 l
0.34 0.77 l
0.34 0.77 l
0.34 0.75 l
0.34 0.75 l
0.34 0.75 l
0.34 0.73 l
0.34 0.72 l
0.34 0.72 l
0.35 0.71 l
0.34 0.70 l
0.34 0.69 l
0.34 0.68 l
0.34 0.68 l
0.34 0.66 l
0.34 0.66 l
0.34 0.65 l
0.34 0.64 l
0.34 0.63 l
0.34 0.62 l
0.35 0.62 l
0.34 0.61 l
0.34 0.59 l
0.34 0.59 l
0.34 0.59 l
0.34 0.57 l
0.34 0.57 l
121.11 139.39 lineto
0.34 0.55 l
0.34 0.55 l
0.35 0.53 l
0.34 0.53 l
0.34 0.52 l
0.34 0.51 l
0.34 0.50 l
0.34 0.50 l
0.34 0.49 l
0.34 0.48 l
0.34 0.48 l
0.34 0.47 l
0.35 0.46 l
0.34 0.45 l
0.34 0.45 l
0.34 0.44 l
0.34 0.44 l
0.34 0.42 l
0.34 0.43 l
0.34 0.41 l
0.34 0.41 l
0.34 0.40 l
0.34 0.40 l
0.35 0.39 l
0.34 0.39 l
0.34 0.37 l
0.34 0.38 l
0.34 0.36 l
0.34 0.37 l
0.34 0.35 l
0.34 0.35 l
0.34 0.35 l
0.34 0.34 l
0.35 0.33 l
0.34 0.33 l
0.34 0.33 l
0.34 0.32 l
0.34 0.31 l
0.34 0.31 l
0.34 0.31 l
0.34 0.30 l
0.34 0.29 l
0.34 0.29 l
0.35 0.29 l
0.34 0.28 l
0.34 0.28 l
0.34 0.27 l
0.34 0.27 l
0.34 0.27 l
0.34 0.26 l
0.34 0.26 l
0.34 0.25 l
0.34 0.25 l
0.34 0.24 l
0.35 0.24 l
0.34 0.24 l
0.34 0.23 l
0.34 0.23 l
0.34 0.23 l
0.34 0.22 l
0.34 0.22 l
0.34 0.22 l
0.34 0.21 l
0.34 0.21 l
0.35 0.21 l
0.34 0.20 l
0.34 0.20 l
0.34 0.20 l
0.34 0.19 l
0.34 0.19 l
0.34 0.19 l
0.34 0.18 l
0.34 0.18 l
0.34 0.18 l
0.35 0.18 l
0.34 0.17 l
0.34 0.17 l
0.34 0.17 l
0.34 0.17 l
0.34 0.16 l
0.34 0.16 l
0.34 0.16 l
0.34 0.15 l
0.34 0.15 l
0.34 0.15 l
0.35 0.15 l
0.34 0.15 l
0.34 0.14 l
0.34 0.14 l
0.34 0.14 l
0.34 0.14 l
0.34 0.13 l
0.34 0.13 l
0.34 0.14 l
0.34 0.12 l
0.35 0.13 l
0.34 0.12 l
0.34 0.13 l
0.34 0.12 l
155.21 167.86 lineto
0.34 0.11 l
0.34 0.12 l
0.34 0.11 l
0.34 0.11 l
0.34 0.11 l
0.35 0.11 l
0.34 0.11 l
0.34 0.10 l
0.34 0.10 l
0.34 0.10 l
0.34 0.10 l
0.34 0.10 l
0.34 0.10 l
0.34 0.09 l
0.34 0.10 l
0.34 0.09 l
0.35 0.09 l
0.34 0.09 l
0.34 0.09 l
0.34 0.08 l
0.34 0.09 l
0.34 0.08 l
0.34 0.08 l
0.34 0.08 l
0.34 0.08 l
0.34 0.08 l
0.35 0.08 l
0.34 0.08 l
0.34 0.07 l
0.34 0.08 l
0.34 0.07 l
0.34 0.07 l
0.34 0.07 l
0.34 0.07 l
0.34 0.07 l
0.34 0.06 l
0.35 0.07 l
0.34 0.07 l
0.34 0.06 l
0.34 0.06 l
0.34 0.06 l
0.34 0.07 l
0.34 0.06 l
0.34 0.05 l
0.34 0.06 l
0.34 0.06 l
0.34 0.06 l
0.35 0.05 l
0.34 0.06 l
0.34 0.05 l
0.34 0.05 l
0.34 0.05 l
0.34 0.06 l
0.34 0.05 l
0.34 0.05 l
0.34 0.04 l
0.34 0.05 l
0.35 0.05 l
0.34 0.05 l
0.34 0.04 l
0.34 0.05 l
0.34 0.04 l
0.34 0.05 l
0.34 0.04 l
0.34 0.04 l
0.34 0.04 l
0.34 0.04 l
0.35 0.04 l
0.34 0.04 l
0.34 0.04 l
0.34 0.04 l
0.34 0.04 l
0.34 0.04 l
0.34 0.03 l
0.34 0.04 l
0.34 0.04 l
0.34 0.03 l
0.34 0.04 l
0.35 0.03 l
0.34 0.03 l
0.34 0.04 l
0.34 0.03 l
0.34 0.03 l
0.34 0.03 l
0.34 0.03 l
0.34 0.03 l
0.34 0.03 l
0.34 0.03 l
0.35 0.03 l
0.34 0.03 l
0.34 0.03 l
0.34 0.02 l
0.34 0.03 l
0.34 0.03 l
0.34 0.02 l
0.34 0.03 l
0.34 0.03 l
0.34 0.02 l
0.35 0.03 l
189.31 173.76 lineto
0.34 0.02 l
0.34 0.03 l
0.34 0.02 l
0.34 0.02 l
0.34 0.03 l
0.34 0.02 l
0.34 0.02 l
0.34 0.02 l
0.34 0.02 l
0.35 0.02 l
0.34 0.02 l
0.34 0.02 l
0.34 0.02 l
0.34 0.02 l
0.34 0.02 l
0.34 0.02 l
0.34 0.02 l
0.34 0.02 l
0.34 0.02 l
0.35 0.01 l
0.34 0.02 l
0.34 0.02 l
0.34 0.01 l
0.34 0.02 l
0.34 0.02 l
0.34 0.01 l
0.34 0.02 l
0.34 0.02 l
0.34 0.01 l
0.35 0.02 l
0.34 0.01 l
0.34 0.01 l
0.34 0.02 l
0.34 0.01 l
0.34 0.02 l
0.34 0.01 l
0.34 0.01 l
0.34 0.02 l
0.34 0.01 l
0.34 0.01 l
0.35 0.02 l
0.34 0.01 l
0.34 0.01 l
0.34 0.01 l
0.34 0.02 l
0.34 0.01 l
0.34 0.01 l
0.34 0.01 l
0.34 0.01 l
0.34 0.01 l
0.35 0.01 l
0.34 0.01 l
0.34 0.01 l
0.34 0.01 l
0.34 0.01 l
0.34 0.01 l
0.34 0.01 l
0.34 0.01 l
0.34 0.01 l
0.34 0.01 l
0.35 0.01 l
0.34 0.01 l
0.34 0.01 l
0.34 0.01 l
0.34 0.01 l
0.34 0.01 l
0.34 0 l
0.34 0.01 l
0.34 0.01 l
0.34 0.01 l
0.34 0.01 l
0.35 0 l
0.34 0.01 l
0.34 0.01 l
0.34 0.01 l
0.34 0 l
0.34 0.01 l
0.34 0.01 l
0.34 0 l
0.34 0.01 l
0.34 0.01 l
0.35 0 l
0.34 0.01 l
0.34 0.01 l
0.34 0 l
0.34 0.01 l
0.34 0.01 l
0.34 0 l
0.34 0.01 l
0.34 0 l
0.34 0.01 l
0.35 0 l
0.34 0.01 l
0.34 0.01 l
0.34 0 l
0.34 0.01 l
0.34 0 l
0.34 0.01 l
0.34 0 l
o
0 0.8078 0.8196 srgb
np
52.92 38.38 m
0.34 0 l
0.34 0 l
0.34 0 l
0.34 0 l
0.34 0 l
0.34 0 l
0.35 0 l
0.34 0 l
0.34 0 l
0.34 0 l
0.34 0 l
0.34 0 l
0.34 0 l
0.34 0 l
0.34 0 l
0.34 0 l
0.35 0 l
0.34 0 l
0.34 0 l
0.34 0 l
0.34 0 l
0.34 0 l
0.34 0 l
0.34 0 l
0.34 0.01 l
0.34 0 l
0.35 0 l
0.34 0 l
0.34 0.01 l
0.34 0 l
0.34 0.01 l
0.34 0.01 l
0.34 0.01 l
0.34 0.01 l
0.34 0.01 l
0.34 0.01 l
0.34 0.02 l
0.35 0.02 l
0.34 0.02 l
0.34 0.02 l
0.34 0.03 l
0.34 0.03 l
0.34 0.03 l
0.34 0.04 l
0.34 0.04 l
0.34 0.04 l
0.34 0.05 l
0.35 0.05 l
0.34 0.05 l
0.34 0.06 l
0.34 0.07 l
0.34 0.07 l
0.34 0.07 l
0.34 0.08 l
0.34 0.09 l
0.34 0.09 l
0.34 0.09 l
0.35 0.10 l
0.34 0.11 l
0.34 0.12 l
0.34 0.12 l
0.34 0.12 l
0.34 0.14 l
0.34 0.14 l
0.34 0.14 l
0.34 0.16 l
0.34 0.16 l
0.34 0.17 l
0.35 0.17 l
0.34 0.18 l
0.34 0.19 l
0.34 0.20 l
0.34 0.21 l
0.34 0.21 l
0.34 0.23 l
0.34 0.23 l
0.34 0.24 l
0.34 0.24 l
0.35 0.26 l
0.34 0.26 l
0.34 0.28 l
0.34 0.28 l
0.34 0.29 l
0.34 0.30 l
0.34 0.31 l
0.34 0.32 l
0.34 0.32 l
0.34 0.34 l
0.35 0.35 l
0.34 0.35 l
0.34 0.37 l
0.34 0.37 l
0.34 0.39 l
0.34 0.39 l
0.34 0.41 l
0.34 0.41 l
0.34 0.43 l
0.34 0.43 l
0.34 0.44 l
87.02 50.86 lineto
0.34 0.46 l
0.34 0.48 l
0.34 0.48 l
0.34 0.50 l
0.34 0.50 l
0.34 0.52 l
0.34 0.53 l
0.34 0.54 l
0.34 0.54 l
0.35 0.56 l
0.34 0.57 l
0.34 0.58 l
0.34 0.59 l
0.34 0.61 l
0.34 0.61 l
0.34 0.62 l
0.34 0.64 l
0.34 0.64 l
0.34 0.66 l
0.35 0.67 l
0.34 0.68 l
0.34 0.68 l
0.34 0.71 l
0.34 0.71 l
0.34 0.72 l
0.34 0.73 l
0.34 0.75 l
0.34 0.76 l
0.34 0.77 l
0.34 0.77 l
0.35 0.80 l
0.34 0.80 l
0.34 0.81 l
0.34 0.83 l
0.34 0.83 l
0.34 0.85 l
0.34 0.86 l
0.34 0.87 l
0.34 0.88 l
0.34 0.89 l
0.35 0.91 l
0.34 0.91 l
0.34 0.93 l
0.34 0.94 l
0.34 0.95 l
0.34 0.97 l
0.34 0.97 l
0.34 0.99 l
0.34 0.99 l
0.34 1.01 l
0.35 1.02 l
0.34 1.04 l
0.34 1.04 l
0.34 1.06 l
0.34 1.06 l
0.34 0.99 l
0.34 0.73 l
0.34 0.74 l
0.34 0.73 l
0.34 0.74 l
0.34 0.74 l
0.35 0.74 l
0.34 0.74 l
0.34 0.75 l
0.34 0.75 l
0.34 0.75 l
0.34 0.75 l
0.34 0.75 l
0.34 0.76 l
0.34 0.76 l
0.34 0.76 l
0.35 0.76 l
0.34 0.76 l
0.34 0.77 l
0.34 0.76 l
0.34 0.77 l
0.34 0.77 l
0.34 0.76 l
0.34 0.77 l
0.34 0.77 l
0.34 0.77 l
0.35 0.76 l
0.34 0.77 l
0.34 0.77 l
0.34 0.76 l
0.34 0.76 l
0.34 0.76 l
0.34 0.75 l
0.34 0.75 l
0.34 0.75 l
0.34 0.75 l
0.34 0.74 l
0.35 0.73 l
0.34 0.73 l
0.34 0.73 l
0.34 0.72 l
0.34 0.71 l
0.34 0.71 l
0.34 0.71 l
121.11 126.54 lineto
0.34 0.70 l
0.34 0.68 l
0.35 0.68 l
0.34 0.67 l
0.34 0.66 l
0.34 0.66 l
0.34 0.65 l
0.34 0.64 l
0.34 0.64 l
0.34 0.63 l
0.34 0.62 l
0.34 0.61 l
0.35 0.61 l
0.34 0.60 l
0.34 0.59 l
0.34 0.58 l
0.34 0.58 l
0.34 0.57 l
0.34 0.56 l
0.34 0.56 l
0.34 0.55 l
0.34 0.54 l
0.34 0.53 l
0.35 0.53 l
0.34 0.51 l
0.34 0.52 l
0.34 0.50 l
0.34 0.50 l
0.34 0.49 l
0.34 0.48 l
0.34 0.48 l
0.34 0.47 l
0.34 0.46 l
0.35 0.46 l
0.34 0.45 l
0.34 0.44 l
0.34 0.44 l
0.34 0.43 l
0.34 0.43 l
0.34 0.41 l
0.34 0.42 l
0.34 0.40 l
0.34 0.40 l
0.35 0.40 l
0.34 0.38 l
0.34 0.39 l
0.34 0.37 l
0.34 0.37 l
0.34 0.37 l
0.34 0.36 l
0.34 0.35 l
0.34 0.35 l
0.34 0.35 l
0.34 0.33 l
0.35 0.34 l
0.34 0.33 l
0.34 0.32 l
0.34 0.32 l
0.34 0.31 l
0.34 0.31 l
0.34 0.30 l
0.34 0.30 l
0.34 0.30 l
0.34 0.29 l
0.35 0.28 l
0.34 0.28 l
0.34 0.28 l
0.34 0.27 l
0.34 0.27 l
0.34 0.27 l
0.34 0.26 l
0.34 0.25 l
0.34 0.26 l
0.34 0.24 l
0.35 0.25 l
0.34 0.24 l
0.34 0.24 l
0.34 0.23 l
0.34 0.23 l
0.34 0.23 l
0.34 0.22 l
0.34 0.22 l
0.34 0.21 l
0.34 0.21 l
0.34 0.21 l
0.35 0.21 l
0.34 0.20 l
0.34 0.20 l
0.34 0.20 l
0.34 0.19 l
0.34 0.19 l
0.34 0.19 l
0.34 0.18 l
0.34 0.18 l
0.34 0.18 l
0.35 0.18 l
0.34 0.17 l
0.34 0.17 l
0.34 0.17 l
155.21 164.93 lineto
0.34 0.17 l
0.34 0.16 l
0.34 0.15 l
0.34 0.16 l
0.34 0.15 l
0.35 0.15 l
0.34 0.15 l
0.34 0.15 l
0.34 0.14 l
0.34 0.14 l
0.34 0.14 l
0.34 0.13 l
0.34 0.14 l
0.34 0.13 l
0.34 0.13 l
0.34 0.13 l
0.35 0.13 l
0.34 0.12 l
0.34 0.12 l
0.34 0.12 l
0.34 0.12 l
0.34 0.12 l
0.34 0.11 l
0.34 0.12 l
0.34 0.11 l
0.34 0.11 l
0.35 0.10 l
0.34 0.11 l
0.34 0.10 l
0.34 0.11 l
0.34 0.10 l
0.34 0.10 l
0.34 0.10 l
0.34 0.09 l
0.34 0.10 l
0.34 0.09 l
0.35 0.09 l
0.34 0.09 l
0.34 0.09 l
0.34 0.09 l
0.34 0.09 l
0.34 0.08 l
0.34 0.09 l
0.34 0.08 l
0.34 0.08 l
0.34 0.08 l
0.34 0.08 l
0.35 0.07 l
0.34 0.08 l
0.34 0.07 l
0.34 0.08 l
0.34 0.07 l
0.34 0.07 l
0.34 0.07 l
0.34 0.07 l
0.34 0.07 l
0.34 0.07 l
0.35 0.06 l
0.34 0.07 l
0.34 0.06 l
0.34 0.06 l
0.34 0.07 l
0.34 0.06 l
0.34 0.06 l
0.34 0.06 l
0.34 0.05 l
0.34 0.06 l
0.35 0.06 l
0.34 0.05 l
0.34 0.06 l
0.34 0.05 l
0.34 0.05 l
0.34 0.06 l
0.34 0.05 l
0.34 0.05 l
0.34 0.05 l
0.34 0.05 l
0.34 0.04 l
0.35 0.05 l
0.34 0.05 l
0.34 0.04 l
0.34 0.05 l
0.34 0.04 l
0.34 0.05 l
0.34 0.04 l
0.34 0.04 l
0.34 0.04 l
0.34 0.05 l
0.35 0.04 l
0.34 0.04 l
0.34 0.03 l
0.34 0.04 l
0.34 0.04 l
0.34 0.04 l
0.34 0.04 l
0.34 0.03 l
0.34 0.04 l
0.34 0.03 l
0.35 0.04 l
189.31 173.16 lineto
0.34 0.03 l
0.34 0.04 l
0.34 0.03 l
0.34 0.03 l
0.34 0.03 l
0.34 0.03 l
0.34 0.03 l
0.34 0.03 l
0.34 0.03 l
0.35 0.03 l
0.34 0.03 l
0.34 0.03 l
0.34 0.03 l
0.34 0.02 l
0.34 0.03 l
0.34 0.03 l
0.34 0.02 l
0.34 0.03 l
0.34 0.02 l
0.35 0.03 l
0.34 0.02 l
0.34 0.02 l
0.34 0.03 l
0.34 0.02 l
0.34 0.02 l
0.34 0.03 l
0.34 0.02 l
0.34 0.02 l
0.34 0.02 l
0.35 0.02 l
0.34 0.02 l
0.34 0.02 l
0.34 0.02 l
0.34 0.02 l
0.34 0.02 l
0.34 0.02 l
0.34 0.02 l
0.34 0.02 l
0.34 0.02 l
0.34 0.02 l
0.35 0.01 l
0.34 0.02 l
0.34 0.02 l
0.34 0.01 l
0.34 0.02 l
0.34 0.02 l
0.34 0.01 l
0.34 0.02 l
0.34 0.02 l
0.34 0.01 l
0.35 0.02 l
0.34 0.01 l
0.34 0.02 l
0.34 0.01 l
0.34 0.01 l
0.34 0.02 l
0.34 0.01 l
0.34 0.01 l
0.34 0.02 l
0.34 0.01 l
0.35 0.01 l
0.34 0.02 l
0.34 0.01 l
0.34 0.01 l
0.34 0.01 l
0.34 0.02 l
0.34 0.01 l
0.34 0.01 l
0.34 0.01 l
0.34 0.01 l
0.34 0.01 l
0.35 0.01 l
0.34 0.01 l
0.34 0.01 l
0.34 0.01 l
0.34 0.01 l
0.34 0.01 l
0.34 0.01 l
0.34 0.01 l
0.34 0.01 l
0.34 0.01 l
0.35 0.01 l
0.34 0.01 l
0.34 0.01 l
0.34 0.01 l
0.34 0.01 l
0.34 0.01 l
0.34 0 l
0.34 0.01 l
0.34 0.01 l
0.34 0.01 l
0.35 0.01 l
0.34 0 l
0.34 0.01 l
0.34 0.01 l
0.34 0.01 l
0.34 0 l
0.34 0.01 l
0.34 0.01 l
o
0.00 0.00 300.00 187.50 cl
0.00 0.00 300.00 187.50 cl
0.00 0.00 300.00 187.50 cl
0.00 0.00 300.00 187.50 cl
0.00 0.00 300.00 187.50 cl
0.00 0.00 300.00 187.50 cl
/Font1 findfont 9 s
0.3020 0.3020 0.3020 srgb
39.48 35.15 (0.00) 1 0 t
39.48 69.39 (0.25) 1 0 t
39.48 103.63 (0.50) 1 0 t
39.48 137.86 (0.75) 1 0 t
39.48 172.10 (1.00) 1 0 t
0.00 0.00 300.00 187.50 cl
0.00 0.00 300.00 187.50 cl
0.2000 0.2000 0.2000 srgb
1.07 setlinewidth
[] 0 setdash
0 setlinecap
1 setlinejoin
10.00 setmiterlimit
np
41.67 38.38 m
2.74 0 l
o
np
41.67 72.62 m
2.74 0 l
o
np
41.67 106.86 m
2.74 0 l
o
np
41.67 141.10 m
2.74 0 l
o
np
41.67 175.33 m
2.74 0 l
o
0.00 0.00 300.00 187.50 cl
0.00 0.00 300.00 187.50 cl
0.00 0.00 300.00 187.50 cl
0.00 0.00 300.00 187.50 cl
0.00 0.00 300.00 187.50 cl
0.00 0.00 300.00 187.50 cl
0.00 0.00 300.00 187.50 cl
0.00 0.00 300.00 187.50 cl
0.2000 0.2000 0.2000 srgb
1.07 setlinewidth
[] 0 setdash
0 setlinecap
1 setlinejoin
10.00 setmiterlimit
np
52.81 28.61 m
0 2.74 l
o
np
106.02 28.61 m
0 2.74 l
o
np
159.22 28.61 m
0 2.74 l
o
np
212.42 28.61 m
0 2.74 l
o
0.00 0.00 300.00 187.50 cl
0.00 0.00 300.00 187.50 cl
/Font1 findfont 9 s
0.3020 0.3020 0.3020 srgb
52.81 19.95 (0.0) .5 0 t
106.02 19.95 (0.5) .5 0 t
159.22 19.95 (1.0) .5 0 t
212.42 19.95 (1.5) .5 0 t
0.00 0.00 300.00 187.50 cl
0.00 0.00 300.00 187.50 cl
0.00 0.00 300.00 187.50 cl
0.00 0.00 300.00 187.50 cl
/Font1 findfont 11 s
0 0 0 srgb
137.99 7.67 (time) .5 0 t
0.00 0.00 300.00 187.50 cl
0.00 0.00 300.00 187.50 cl
/Font1 findfont 11 s
0 0 0 srgb
15.57 101.90 (V) 0 90 t
/Font1 findfont 8 s
17.58 109.24 (f) 0 90 t
0.00 0.00 300.00 187.50 cl
0.00 0.00 300.00 187.50 cl
0.00 0.00 300.00 187.50 cl
0.00 0.00 300.00 187.50 cl
/bg { 1 1 1 srgb } def
240.07 39.79 45.94 133.78 r p2
0.00 0.00 300.00 187.50 cl
0.00 0.00 300.00 187.50 cl
/Font5 findfont 11 s
0 0 0 srgb
244.32 166.68 (t) 0 0 t
0.00 0.00 300.00 187.50 cl
0.00 0.00 300.00 187.50 cl
/bg { 0.9490 0.9490 0.9490 srgb } def
1 1 1 srgb
1.07 setlinewidth
[] 0 setdash
1 setlinecap
1 setlinejoin
10.00 setmiterlimit
244.32 147.72 17.28 17.28 r p3
0.00 0.00 300.00 187.50 cl
0.00 0.00 300.00 187.50 cl
0.5294 0.8078 0.9216 srgb
1.07 setlinewidth
[] 0 setdash
0 setlinecap
1 setlinejoin
10.00 setmiterlimit
np
246.05 156.36 m
13.83 0 l
o
0.00 0.00 300.00 187.50 cl
0.00 0.00 300.00 187.50 cl
/bg { 0.9490 0.9490 0.9490 srgb } def
1 1 1 srgb
1.07 setlinewidth
[] 0 setdash
1 setlinecap
1 setlinejoin
10.00 setmiterlimit
244.32 130.44 17.28 17.28 r p3
0.00 0.00 300.00 187.50 cl
0.00 0.00 300.00 187.50 cl
0.9137 0.5882 0.4784 srgb
1.07 setlinewidth
[] 0 setdash
0 setlinecap
1 setlinejoin
10.00 setmiterlimit
np
246.05 139.08 m
13.83 0 l
o
0.00 0.00 300.00 187.50 cl
0.00 0.00 300.00 187.50 cl
/bg { 0.9490 0.9490 0.9490 srgb } def
1 1 1 srgb
1.07 setlinewidth
[] 0 setdash
1 setlinecap
1 setlinejoin
10.00 setmiterlimit
244.32 113.16 17.28 17.28 r p3
0.00 0.00 300.00 187.50 cl
0.00 0.00 300.00 187.50 cl
1 0.5490 0 srgb
1.07 setlinewidth
[] 0 setdash
0 setlinecap
1 setlinejoin
10.00 setmiterlimit
np
246.05 121.80 m
13.83 0 l
o
0.00 0.00 300.00 187.50 cl
0.00 0.00 300.00 187.50 cl
/bg { 0.9490 0.9490 0.9490 srgb } def
1 1 1 srgb
1.07 setlinewidth
[] 0 setdash
1 setlinecap
1 setlinejoin
10.00 setmiterlimit
244.32 95.88 17.28 17.28 r p3
0.00 0.00 300.00 187.50 cl
0.00 0.00 300.00 187.50 cl
0.9333 0.7059 0.1333 srgb
1.07 setlinewidth
[] 0 setdash
0 setlinecap
1 setlinejoin
10.00 setmiterlimit
np
246.05 104.52 m
13.83 0 l
o
0.00 0.00 300.00 187.50 cl
0.00 0.00 300.00 187.50 cl
/bg { 0.9490 0.9490 0.9490 srgb } def
1 1 1 srgb
1.07 setlinewidth
[] 0 setdash
1 setlinecap
1 setlinejoin
10.00 setmiterlimit
244.32 78.60 17.28 17.28 r p3
0.00 0.00 300.00 187.50 cl
0.00 0.00 300.00 187.50 cl
0.8667 0.6275 0.8667 srgb
1.07 setlinewidth
[] 0 setdash
0 setlinecap
1 setlinejoin
10.00 setmiterlimit
np
246.05 87.24 m
13.83 0 l
o
0.00 0.00 300.00 187.50 cl
0.00 0.00 300.00 187.50 cl
/bg { 0.9490 0.9490 0.9490 srgb } def
1 1 1 srgb
1.07 setlinewidth
[] 0 setdash
1 setlinecap
1 setlinejoin
10.00 setmiterlimit
244.32 61.32 17.28 17.28 r p3
0.00 0.00 300.00 187.50 cl
0.00 0.00 300.00 187.50 cl
0.9333 0.6039 0.2863 srgb
1.07 setlinewidth
[] 0 setdash
0 setlinecap
1 setlinejoin
10.00 setmiterlimit
np
246.05 69.96 m
13.83 0 l
o
0.00 0.00 300.00 187.50 cl
0.00 0.00 300.00 187.50 cl
/bg { 0.9490 0.9490 0.9490 srgb } def
1 1 1 srgb
1.07 setlinewidth
[] 0 setdash
1 setlinecap
1 setlinejoin
10.00 setmiterlimit
244.32 44.04 17.28 17.28 r p3
0.00 0.00 300.00 187.50 cl
0.00 0.00 300.00 187.50 cl
0 0.8078 0.8196 srgb
1.07 setlinewidth
[] 0 setdash
0 setlinecap
1 setlinejoin
10.00 setmiterlimit
np
246.05 52.68 m
13.83 0 l
o
0.00 0.00 300.00 187.50 cl
0.00 0.00 300.00 187.50 cl
/Font1 findfont 9 s
0 0 0 srgb
263.76 153.13 (0) 0 0 t
0.00 0.00 300.00 187.50 cl
0.00 0.00 300.00 187.50 cl
/Font1 findfont 9 s
0 0 0 srgb
263.76 135.85 (0.02) 0 0 t
0.00 0.00 300.00 187.50 cl
0.00 0.00 300.00 187.50 cl
/Font1 findfont 9 s
0 0 0 srgb
263.76 118.57 (0.1) 0 0 t
0.00 0.00 300.00 187.50 cl
0.00 0.00 300.00 187.50 cl
/Font1 findfont 9 s
0 0 0 srgb
263.76 101.29 (0.2) 0 0 t
0.00 0.00 300.00 187.50 cl
0.00 0.00 300.00 187.50 cl
/Font1 findfont 9 s
0 0 0 srgb
263.76 84.01 (0.3) 0 0 t
0.00 0.00 300.00 187.50 cl
0.00 0.00 300.00 187.50 cl
/Font1 findfont 9 s
0 0 0 srgb
263.76 66.73 (0.4) 0 0 t
0.00 0.00 300.00 187.50 cl
0.00 0.00 300.00 187.50 cl
/Font1 findfont 9 s
0 0 0 srgb
263.76 49.45 (0.5) 0 0 t
0.00 0.00 300.00 187.50 cl
0.00 0.00 300.00 187.50 cl
0.00 0.00 300.00 187.50 cl
0.00 0.00 300.00 187.50 cl
0.00 0.00 300.00 187.50 cl
0.00 0.00 300.00 187.50 cl
ep
%%Trailer
%%Pages: 1
%%EOF
