%!PS-Adobe-3.0 EPSF-3.0
%%DocumentNeededResources: font Helvetica
%%+ font Helvetica-Bold
%%+ font Helvetica-Oblique
%%+ font Helvetica-BoldOblique
%%+ font Symbol
%%Title: R Graphics Output
%%Creator: R Software
%%Pages: (atend)
%%BoundingBox: 0 0 335 275
%%EndComments
%%BeginProlog
/bp  { gs sRGB gs } def
% begin .ps.prolog
/gs  { gsave } bind def
/gr  { grestore } bind def
/ep  { showpage gr gr } bind def
/m   { moveto } bind def
/l  { rlineto } bind def
/np  { newpath } bind def
/cp  { closepath } bind def
/f   { fill } bind def
/o   { stroke } bind def
/c   { newpath 0 360 arc } bind def
/r   { 4 2 roll moveto 1 copy 3 -1 roll exch 0 exch rlineto 0 rlineto -1 mul 0 exch rlineto closepath } bind def
/p1  { stroke } bind def
/p2  { gsave bg fill grestore newpath } bind def
/p3  { gsave bg fill grestore stroke } bind def
/p6  { gsave bg eofill grestore newpath } bind def
/p7  { gsave bg eofill grestore stroke } bind def
/t   { 5 -2 roll moveto gsave rotate
       1 index stringwidth pop
       mul neg 0 rmoveto show grestore } bind def
/ta  { 4 -2 roll moveto gsave rotate show } bind def
/tb  { 2 -1 roll 0 rmoveto show } bind def
/cl  { grestore gsave newpath 3 index 3 index moveto 1 index
       4 -1 roll lineto  exch 1 index lineto lineto
       closepath clip newpath } bind def
/rgb { setrgbcolor } bind def
/s   { scalefont setfont } bind def
% end   .ps.prolog
/sRGB { [ /CIEBasedABC
          << /DecodeLMN
               [ { dup 0.03928 le
                        {12.92321 div}
                        {0.055 add 1.055 div 2.4 exp }
                     ifelse
                 } bind dup dup
               ]
             /MatrixLMN [0.412457 0.212673 0.019334
                         0.357576 0.715152 0.119192
                         0.180437 0.072175 0.950301]
             /WhitePoint [0.9505 1.0 1.0890]
           >>
         ] setcolorspace } bind def
/srgb { setcolor } bind def
% begin encoding
/WinAnsiEncoding [
 /.notdef /.notdef /.notdef /.notdef /.notdef /.notdef /.notdef /.notdef
 /.notdef /.notdef /.notdef /.notdef /.notdef /.notdef /.notdef /.notdef
 /.notdef /.notdef /.notdef /.notdef /.notdef /.notdef /.notdef /.notdef
 /.notdef /.notdef /.notdef /.notdef /.notdef /.notdef /.notdef /.notdef
 /space /exclam /quotedbl /numbersign /dollar /percent /ampersand /quoteright
 /parenleft /parenright /asterisk /plus /comma /minus /period /slash
 /zero /one /two /three /four /five /six /seven
 /eight /nine /colon /semicolon /less /equal /greater /question
 /at /A /B /C /D /E /F /G
 /H /I /J /K /L /M /N /O
 /P /Q /R /S /T /U /V /W
 /X /Y /Z /bracketleft /backslash /bracketright /asciicircum /underscore
 /grave /a /b /c /d /e /f /g
 /h /i /j /k /l /m /n /o
 /p /q /r /s /t /u /v /w
 /x /y /z /braceleft /bar /braceright /asciitilde /.notdef
 /Euro /.notdef /quotesinglbase /florin /quotedblbase /ellipsis /dagger /daggerdbl
 /circumflex /perthousand /Scaron /guilsinglleft /OE /.notdef /Zcaron /.notdef
 /.notdef /quoteleft /quoteright /quotedblleft /quotedblright /bullet /endash /emdash
 /tilde /trademark /scaron /guilsinglright /oe /.notdef /zcaron /Ydieresis
 /space /exclamdown /cent /sterling /currency /yen /brokenbar /section
 /dieresis /copyright /ordfeminine /guillemotleft /logicalnot /hyphen /registered /macron
 /degree /plusminus /twosuperior /threesuperior /acute /mu /paragraph /periodcentered
 /cedilla /onesuperior /ordmasculine /guillemotright /onequarter /onehalf /threequarters /questiondown
 /Agrave /Aacute /Acircumflex /Atilde /Adieresis /Aring /AE /Ccedilla
 /Egrave /Eacute /Ecircumflex /Edieresis /Igrave /Iacute /Icircumflex /Idieresis
 /Eth /Ntilde /Ograve /Oacute /Ocircumflex /Otilde /Odieresis /multiply
 /Oslash /Ugrave /Uacute /Ucircumflex /Udieresis /Yacute /Thorn /germandbls
 /agrave /aacute /acircumflex /atilde /adieresis /aring /ae /ccedilla
 /egrave /eacute /ecircumflex /edieresis /igrave /iacute /icircumflex /idieresis
 /eth /ntilde /ograve /oacute /ocircumflex /otilde /odieresis /divide
 /oslash /ugrave /uacute /ucircumflex /udieresis /yacute /thorn /ydieresis
]
 def
% end encoding
%%IncludeResource: font Helvetica
/Helvetica findfont
dup length dict begin
  {1 index /FID ne {def} {pop pop} ifelse} forall
  /Encoding WinAnsiEncoding def
  currentdict
  end
/Font1 exch definefont pop
%%IncludeResource: font Helvetica-Bold
/Helvetica-Bold findfont
dup length dict begin
  {1 index /FID ne {def} {pop pop} ifelse} forall
  /Encoding WinAnsiEncoding def
  currentdict
  end
/Font2 exch definefont pop
%%IncludeResource: font Helvetica-Oblique
/Helvetica-Oblique findfont
dup length dict begin
  {1 index /FID ne {def} {pop pop} ifelse} forall
  /Encoding WinAnsiEncoding def
  currentdict
  end
/Font3 exch definefont pop
%%IncludeResource: font Helvetica-BoldOblique
/Helvetica-BoldOblique findfont
dup length dict begin
  {1 index /FID ne {def} {pop pop} ifelse} forall
  /Encoding WinAnsiEncoding def
  currentdict
  end
/Font4 exch definefont pop
%%IncludeResource: font Symbol
/Symbol findfont
dup length dict begin
  {1 index /FID ne {def} {pop pop} ifelse} forall
  currentdict
  end
/Font5 exch definefont pop
%%EndProlog
%%Page: 1 1
bp
0.00 0.00 335.25 274.50 cl
0.00 0.00 335.25 274.50 cl
0.00 0.00 335.25 274.50 cl
0.00 0.00 335.25 274.50 cl
0.00 0.00 335.25 274.50 cl
0.00 0.00 335.25 274.50 cl
0.00 0.00 335.25 274.50 cl
0.00 0.00 335.25 274.50 cl
0.00 0.00 335.25 274.50 cl
/bg { 1 1 1 srgb } def
1 1 1 srgb
1.07 setlinewidth
[] 0 setdash
1 setlinecap
1 setlinejoin
10.00 setmiterlimit
0.00 0.00 335.25 274.50 r p3
0.00 0.00 335.25 274.50 cl
41.30 30.25 269.65 269.02 cl
/bg { 0.9216 0.9216 0.9216 srgb } def
41.30 30.25 228.35 238.77 r p2
1 1 1 srgb
0.53 setlinewidth
[] 0 setdash
0 setlinecap
1 setlinejoin
10.00 setmiterlimit
np
41.30 68.24 m
228.35 0 l
o
np
41.30 122.50 m
228.35 0 l
o
np
41.30 176.77 m
228.35 0 l
o
np
41.30 231.03 m
228.35 0 l
o
np
69.45 30.25 m
0 238.77 l
o
np
126.65 30.25 m
0 238.77 l
o
np
183.85 30.25 m
0 238.77 l
o
np
241.05 30.25 m
0 238.77 l
o
1.07 setlinewidth
[] 0 setdash
np
41.30 41.10 m
228.35 0 l
o
np
41.30 95.37 m
228.35 0 l
o
np
41.30 149.64 m
228.35 0 l
o
np
41.30 203.90 m
228.35 0 l
o
np
41.30 258.17 m
228.35 0 l
o
np
98.05 30.25 m
0 238.77 l
o
np
155.25 30.25 m
0 238.77 l
o
np
212.45 30.25 m
0 238.77 l
o
1 0.6275 0.4784 srgb
1.00 setmiterlimit
np
41.53 41.10 m
0.69 0 l
0.68 0 l
0.69 0 l
0.69 0 l
0.68 0 l
0.69 0 l
0.69 0 l
0.68 0 l
0.69 0 l
0.69 0 l
0.68 0 l
0.69 0 l
0.68 0 l
0.69 0 l
0.69 0 l
0.68 0 l
0.69 0 l
0.69 0 l
0.68 0 l
0.69 0 l
0.69 0.01 l
0.68 0 l
0.69 0 l
0.69 0 l
0.68 0.01 l
0.69 0.01 l
0.68 0.01 l
0.69 0.02 l
0.69 0.03 l
0.68 0.04 l
0.69 0.04 l
0.69 0.06 l
0.68 0.07 l
0.69 0.09 l
0.69 0.11 l
0.68 0.12 l
0.69 0.16 l
0.69 0.17 l
0.68 0.21 l
0.69 0.24 l
0.68 0.27 l
0.69 0.30 l
0.69 0.34 l
0.68 0.38 l
0.69 0.42 l
0.69 0.46 l
0.68 0.50 l
0.69 0.55 l
0.69 0.60 l
0.68 0.64 l
0.69 0.69 l
0.69 0.74 l
0.68 0.78 l
0.69 0.84 l
0.68 0.88 l
0.69 0.93 l
0.69 0.98 l
0.68 1.03 l
0.69 1.07 l
0.69 1.13 l
0.68 1.16 l
0.69 1.22 l
0.69 1.26 l
0.68 1.30 l
0.69 1.35 l
0.69 1.38 l
0.68 1.43 l
0.69 1.47 l
0.68 1.50 l
0.69 1.54 l
0.69 1.58 l
0.68 1.61 l
0.69 1.64 l
0.69 1.67 l
0.68 1.70 l
0.69 1.73 l
0.69 1.76 l
0.68 1.78 l
0.69 1.81 l
0.69 1.83 l
0.68 1.85 l
0.69 1.87 l
0.68 1.88 l
0.69 1.91 l
0.69 1.91 l
0.68 1.94 l
0.69 1.94 l
0.69 1.96 l
0.68 1.96 l
0.69 1.98 l
0.69 1.98 l
0.68 1.99 l
0.69 1.99 l
0.69 2.00 l
0.68 2.00 l
0.69 2.00 l
0.68 2.01 l
0.69 2.00 l
0.69 2.00 l
110.17 125.93 lineto
0.69 1.99 l
0.69 2.00 l
0.68 1.99 l
0.69 1.98 l
0.69 1.98 l
0.68 1.97 l
0.69 1.96 l
0.69 1.96 l
0.68 1.94 l
0.69 1.94 l
0.68 1.92 l
0.69 1.92 l
0.69 1.90 l
0.68 1.89 l
0.69 1.88 l
0.69 1.86 l
0.68 1.86 l
0.69 1.83 l
0.69 1.83 l
0.68 1.81 l
0.69 1.79 l
0.69 1.78 l
0.68 1.76 l
0.69 1.74 l
0.68 1.73 l
0.69 1.72 l
0.69 1.69 l
0.68 1.68 l
0.69 1.66 l
0.69 1.64 l
0.68 1.63 l
0.69 1.61 l
0.69 1.59 l
0.68 1.57 l
0.69 1.55 l
0.69 1.53 l
0.68 1.52 l
0.69 1.49 l
0.68 1.48 l
0.69 1.46 l
0.69 1.44 l
0.68 1.41 l
0.69 1.40 l
0.69 1.39 l
0.68 1.36 l
0.69 1.34 l
0.69 1.32 l
0.68 1.31 l
0.69 1.28 l
0.69 1.27 l
0.68 1.24 l
0.69 1.23 l
0.68 1.21 l
0.69 1.19 l
0.69 1.17 l
0.68 1.15 l
0.69 1.13 l
0.69 1.11 l
0.68 1.09 l
0.69 1.08 l
0.69 1.05 l
0.68 1.04 l
0.69 1.02 l
0.69 1.00 l
0.68 0.98 l
0.69 0.97 l
0.68 0.94 l
0.69 0.93 l
0.69 0.91 l
0.68 0.89 l
0.69 0.88 l
0.69 0.86 l
0.68 0.84 l
0.69 0.82 l
0.69 0.80 l
0.68 0.79 l
0.69 0.77 l
0.69 0.76 l
0.68 0.73 l
0.69 0.73 l
0.68 0.70 l
0.69 0.69 l
0.69 0.67 l
0.68 0.66 l
0.69 0.64 l
0.69 0.62 l
0.68 0.61 l
0.69 0.60 l
0.69 0.58 l
0.68 0.56 l
0.69 0.55 l
0.68 0.53 l
0.69 0.52 l
0.69 0.50 l
0.68 0.49 l
0.69 0.48 l
0.69 0.46 l
0.68 0.45 l
0.69 0.43 l
178.82 250.95 lineto
0.68 0.41 l
0.69 0.39 l
0.69 0.38 l
0.68 0.37 l
0.69 0.36 l
0.68 0.34 l
0.69 0.32 l
0.69 0.32 l
0.68 0.30 l
0.69 0.30 l
0.69 0.27 l
0.68 0.27 l
0.69 0.26 l
0.69 0.24 l
0.68 0.23 l
0.69 0.22 l
0.69 0.21 l
0.68 0.20 l
0.69 0.19 l
0.68 0.17 l
0.69 0.17 l
0.69 0.16 l
0.68 0.14 l
0.69 0.13 l
0.69 0.13 l
0.68 0.11 l
0.69 0.11 l
0.69 0.09 l
0.68 0.08 l
0.69 0.08 l
0.69 0.06 l
0.68 0.06 l
0.69 0.05 l
0.68 0.04 l
0.69 0.02 l
0.69 0.02 l
0.68 0.01 l
0.69 0.01 l
0.69 -0.01 l
0.68 -0.01 l
0.69 -0.03 l
0.69 -0.03 l
0.68 -0.04 l
0.69 -0.04 l
0.69 -0.06 l
0.68 -0.06 l
0.69 -0.07 l
0.68 -0.08 l
0.69 -0.08 l
0.69 -0.09 l
0.68 -0.10 l
0.69 -0.11 l
0.69 -0.11 l
0.68 -0.12 l
0.69 -0.13 l
0.69 -0.13 l
0.68 -0.14 l
0.69 -0.15 l
0.69 -0.15 l
0.68 -0.16 l
0.69 -0.17 l
0.68 -0.17 l
0.69 -0.17 l
0.69 -0.19 l
0.68 -0.19 l
0.69 -0.19 l
0.69 -0.20 l
0.68 -0.21 l
0.69 -0.21 l
0.69 -0.22 l
0.68 -0.22 l
0.69 -0.23 l
0.69 -0.23 l
0.68 -0.24 l
0.69 -0.24 l
0.68 -0.25 l
0.69 -0.25 l
0.69 -0.25 l
0.68 -0.27 l
0.69 -0.26 l
0.69 -0.27 l
0.68 -0.28 l
0.69 -0.28 l
0.69 -0.28 l
0.68 -0.29 l
0.69 -0.29 l
0.69 -0.29 l
0.68 -0.30 l
0.69 -0.31 l
0.68 -0.31 l
0.69 -0.31 l
0.69 -0.31 l
0.68 -0.32 l
0.69 -0.32 l
0.69 -0.33 l
0.68 -0.33 l
0.69 -0.33 l
0.69 -0.33 l
0.68 -0.34 l
247.46 245.74 lineto
0.69 -0.34 l
0.68 -0.35 l
0.69 -0.35 l
0.68 -0.35 l
0.69 -0.36 l
0.69 -0.36 l
0.68 -0.36 l
0.69 -0.37 l
0.69 -0.37 l
0.68 -0.37 l
0.69 -0.37 l
0.69 -0.38 l
0.68 -0.37 l
0.69 -0.38 l
0.69 -0.39 l
0.68 -0.38 l
0.69 -0.39 l
0.68 -0.39 l
0.69 -0.39 l
0.69 -0.40 l
0.68 -0.39 l
0.69 -0.40 l
0.69 -0.40 l
0.68 -0.40 l
0.69 -0.40 l
0.69 -0.41 l
0.68 -0.41 l
0.69 -0.41 l
0.69 -0.41 l
0.68 -0.41 l
0.69 -0.41 l
0.68 -0.42 l
o
0.8039 0.7451 0.4392 srgb
np
41.53 41.10 m
0.69 0 l
0.68 0 l
0.69 0 l
0.69 0 l
0.68 0 l
0.69 0 l
0.69 0 l
0.68 0 l
0.69 0 l
0.69 0 l
0.68 0 l
0.69 0 l
0.68 0 l
0.69 0 l
0.69 0 l
0.68 0 l
0.69 0 l
0.69 0 l
0.68 0 l
0.69 0 l
0.69 0.01 l
0.68 0 l
0.69 0 l
0.69 0.01 l
0.68 0.01 l
0.69 0.01 l
0.68 0.02 l
0.69 0.02 l
0.69 0.04 l
0.68 0.05 l
0.69 0.06 l
0.69 0.07 l
0.68 0.10 l
0.69 0.11 l
0.69 0.15 l
0.68 0.16 l
0.69 0.20 l
0.69 0.24 l
0.68 0.27 l
0.69 0.31 l
0.68 0.35 l
0.69 0.40 l
0.69 0.45 l
0.68 0.50 l
0.69 0.55 l
0.69 0.60 l
0.68 0.66 l
0.69 0.71 l
0.69 0.78 l
0.68 0.83 l
0.69 0.90 l
0.69 0.95 l
0.68 1.02 l
0.69 1.07 l
0.68 1.14 l
0.69 1.20 l
0.69 1.26 l
0.68 1.32 l
0.69 1.37 l
0.69 1.44 l
0.68 1.49 l
0.69 1.54 l
0.69 1.60 l
0.68 1.65 l
0.69 1.70 l
0.69 1.75 l
0.68 1.80 l
0.69 1.84 l
0.68 1.88 l
0.69 1.93 l
0.69 1.96 l
0.68 2.00 l
0.69 2.04 l
0.69 2.07 l
0.68 2.10 l
0.69 2.13 l
0.69 2.15 l
0.68 2.19 l
0.69 2.20 l
0.69 2.22 l
0.68 2.25 l
0.69 2.26 l
0.68 2.27 l
0.69 2.29 l
0.69 2.30 l
0.68 2.31 l
0.69 2.31 l
0.69 2.33 l
0.68 2.32 l
0.69 2.33 l
0.69 2.33 l
0.68 2.33 l
0.69 2.33 l
0.69 2.32 l
0.68 2.32 l
0.69 2.32 l
0.68 2.30 l
0.69 2.30 l
0.69 2.29 l
110.17 144.76 lineto
0.69 2.27 l
0.69 2.25 l
0.68 2.24 l
0.69 2.22 l
0.69 2.21 l
0.68 2.19 l
0.69 2.17 l
0.69 2.16 l
0.68 2.13 l
0.69 2.12 l
0.68 2.09 l
0.69 2.08 l
0.69 2.05 l
0.68 2.03 l
0.69 2.01 l
0.69 1.98 l
0.68 1.96 l
0.69 1.94 l
0.69 1.91 l
0.68 1.89 l
0.69 1.87 l
0.69 1.83 l
0.68 1.81 l
0.69 1.79 l
0.68 1.76 l
0.69 1.74 l
0.69 1.70 l
0.68 1.68 l
0.69 1.66 l
0.69 1.63 l
0.68 1.60 l
0.69 1.57 l
0.69 1.55 l
0.68 1.52 l
0.69 1.49 l
0.69 1.46 l
0.68 1.44 l
0.69 1.42 l
0.68 1.38 l
0.69 1.36 l
0.69 1.33 l
0.68 1.30 l
0.69 1.28 l
0.69 1.25 l
0.68 1.23 l
0.69 1.20 l
0.69 1.17 l
0.68 1.15 l
0.69 1.12 l
0.69 1.09 l
0.68 1.07 l
0.69 1.05 l
0.68 1.02 l
0.69 0.99 l
0.69 0.97 l
0.68 0.95 l
0.69 0.92 l
0.69 0.90 l
0.68 0.87 l
0.69 0.85 l
0.69 0.82 l
0.68 0.81 l
0.69 0.78 l
0.69 0.75 l
0.68 0.74 l
0.69 0.71 l
0.68 0.69 l
0.69 0.67 l
0.69 0.64 l
0.68 0.63 l
0.69 0.60 l
0.69 0.58 l
0.68 0.57 l
0.69 0.54 l
0.69 0.52 l
0.68 0.50 l
0.69 0.48 l
0.69 0.46 l
0.68 0.45 l
0.69 0.42 l
0.68 0.41 l
0.69 0.39 l
0.69 0.36 l
0.68 0.36 l
0.69 0.33 l
0.69 0.32 l
0.68 0.29 l
0.69 0.29 l
0.69 0.26 l
0.68 0.25 l
0.69 0.23 l
0.68 0.22 l
0.69 0.20 l
0.69 0.18 l
0.68 0.17 l
0.69 0.16 l
0.69 0.14 l
0.68 0.12 l
0.69 0.11 l
178.82 257.88 lineto
0.68 0.08 l
0.69 0.07 l
0.69 0.05 l
0.68 0.04 l
0.69 0.03 l
0.68 0.01 l
0.69 0.01 l
0.69 -0.01 l
0.68 -0.03 l
0.69 -0.03 l
0.69 -0.05 l
0.68 -0.05 l
0.69 -0.07 l
0.69 -0.09 l
0.68 -0.09 l
0.69 -0.10 l
0.69 -0.11 l
0.68 -0.13 l
0.69 -0.13 l
0.68 -0.15 l
0.69 -0.15 l
0.69 -0.17 l
0.68 -0.17 l
0.69 -0.19 l
0.69 -0.19 l
0.68 -0.20 l
0.69 -0.22 l
0.69 -0.22 l
0.68 -0.22 l
0.69 -0.24 l
0.69 -0.25 l
0.68 -0.25 l
0.69 -0.26 l
0.68 -0.27 l
0.69 -0.28 l
0.69 -0.29 l
0.68 -0.29 l
0.69 -0.30 l
0.69 -0.31 l
0.68 -0.31 l
0.69 -0.32 l
0.69 -0.33 l
0.68 -0.33 l
0.69 -0.34 l
0.69 -0.35 l
0.68 -0.35 l
0.69 -0.36 l
0.68 -0.37 l
0.69 -0.37 l
0.69 -0.38 l
0.68 -0.38 l
0.69 -0.39 l
0.69 -0.39 l
0.68 -0.40 l
0.69 -0.40 l
0.69 -0.41 l
0.68 -0.41 l
0.69 -0.42 l
0.69 -0.42 l
0.68 -0.43 l
0.69 -0.43 l
0.68 -0.43 l
0.69 -0.44 l
0.69 -0.45 l
0.68 -0.45 l
0.69 -0.45 l
0.69 -0.45 l
0.68 -0.46 l
0.69 -0.47 l
0.69 -0.46 l
0.68 -0.47 l
0.69 -0.48 l
0.69 -0.47 l
0.68 -0.48 l
0.69 -0.48 l
0.68 -0.49 l
0.69 -0.49 l
0.69 -0.49 l
0.68 -0.49 l
0.69 -0.50 l
0.69 -0.50 l
0.68 -0.50 l
0.69 -0.51 l
0.69 -0.50 l
0.68 -0.51 l
0.69 -0.52 l
0.69 -0.51 l
0.68 -0.51 l
0.69 -0.52 l
0.68 -0.52 l
0.69 -0.52 l
0.69 -0.53 l
0.68 -0.52 l
0.69 -0.53 l
0.69 -0.53 l
0.68 -0.53 l
0.69 -0.53 l
0.69 -0.53 l
0.68 -0.54 l
247.46 225.08 lineto
0.69 -0.54 l
0.68 -0.54 l
0.69 -0.54 l
0.68 -0.54 l
0.69 -0.54 l
0.69 -0.54 l
0.68 -0.54 l
0.69 -0.55 l
0.69 -0.54 l
0.68 -0.55 l
0.69 -0.55 l
0.69 -0.54 l
0.68 -0.55 l
0.69 -0.55 l
0.69 -0.55 l
0.68 -0.55 l
0.69 -0.55 l
0.68 -0.55 l
0.69 -0.55 l
0.69 -0.56 l
0.68 -0.55 l
0.69 -0.55 l
0.69 -0.55 l
0.68 -0.55 l
0.69 -0.56 l
0.69 -0.55 l
0.68 -0.55 l
0.69 -0.56 l
0.69 -0.55 l
0.68 -0.55 l
0.69 -0.56 l
0.68 -0.55 l
o
0.5294 0.8078 0.9804 srgb
np
41.53 41.10 m
0.69 0 l
0.68 0 l
0.69 0 l
0.69 0 l
0.68 0 l
0.69 0 l
0.69 0 l
0.68 0 l
0.69 0 l
0.69 0 l
0.68 0 l
0.69 0 l
0.68 0 l
0.69 0 l
0.69 0 l
0.68 0 l
0.69 0 l
0.69 0 l
0.68 0 l
0.69 0 l
0.69 0.01 l
0.68 0 l
0.69 0 l
0.69 0.01 l
0.68 0.01 l
0.69 0.01 l
0.68 0.02 l
0.69 0.03 l
0.69 0.04 l
0.68 0.05 l
0.69 0.06 l
0.69 0.09 l
0.68 0.10 l
0.69 0.13 l
0.69 0.15 l
0.68 0.18 l
0.69 0.21 l
0.69 0.26 l
0.68 0.29 l
0.69 0.33 l
0.68 0.38 l
0.69 0.42 l
0.69 0.48 l
0.68 0.53 l
0.69 0.58 l
0.69 0.64 l
0.68 0.70 l
0.69 0.76 l
0.69 0.82 l
0.68 0.88 l
0.69 0.94 l
0.69 1.01 l
0.68 1.07 l
0.69 1.13 l
0.68 1.20 l
0.69 1.25 l
0.69 1.32 l
0.68 1.38 l
0.69 1.44 l
0.69 1.50 l
0.68 1.55 l
0.69 1.61 l
0.69 1.67 l
0.68 1.71 l
0.69 1.77 l
0.69 1.82 l
0.68 1.86 l
0.69 1.90 l
0.68 1.95 l
0.69 1.99 l
0.69 2.03 l
0.68 2.07 l
0.69 2.10 l
0.69 2.13 l
0.68 2.16 l
0.69 2.19 l
0.69 2.21 l
0.68 2.24 l
0.69 2.25 l
0.69 2.28 l
0.68 2.30 l
0.69 2.31 l
0.68 2.32 l
0.69 2.34 l
0.69 2.34 l
0.68 2.35 l
0.69 2.36 l
0.69 2.36 l
0.68 2.37 l
0.69 2.36 l
0.69 2.37 l
0.68 2.36 l
0.69 2.36 l
0.69 2.35 l
0.68 2.35 l
0.69 2.34 l
0.68 2.33 l
0.69 2.32 l
0.69 2.31 l
110.17 147.79 lineto
0.69 2.28 l
0.69 2.27 l
0.68 2.25 l
0.69 2.23 l
0.69 2.22 l
0.68 2.20 l
0.69 2.18 l
0.69 2.16 l
0.68 2.13 l
0.69 2.12 l
0.68 2.10 l
0.69 2.07 l
0.69 2.05 l
0.68 2.02 l
0.69 2.01 l
0.69 1.97 l
0.68 1.96 l
0.69 1.92 l
0.69 1.91 l
0.68 1.87 l
0.69 1.85 l
0.69 1.82 l
0.68 1.80 l
0.69 1.77 l
0.68 1.74 l
0.69 1.72 l
0.69 1.68 l
0.68 1.66 l
0.69 1.64 l
0.69 1.60 l
0.68 1.58 l
0.69 1.55 l
0.69 1.52 l
0.68 1.49 l
0.69 1.47 l
0.69 1.44 l
0.68 1.41 l
0.69 1.38 l
0.68 1.35 l
0.69 1.33 l
0.69 1.30 l
0.68 1.27 l
0.69 1.25 l
0.69 1.22 l
0.68 1.19 l
0.69 1.16 l
0.69 1.14 l
0.68 1.11 l
0.69 1.09 l
0.69 1.06 l
0.68 1.03 l
0.69 1.01 l
0.68 0.98 l
0.69 0.96 l
0.69 0.93 l
0.68 0.91 l
0.69 0.88 l
0.69 0.86 l
0.68 0.83 l
0.69 0.81 l
0.69 0.79 l
0.68 0.76 l
0.69 0.74 l
0.69 0.72 l
0.68 0.69 l
0.69 0.67 l
0.68 0.65 l
0.69 0.63 l
0.69 0.60 l
0.68 0.59 l
0.69 0.56 l
0.69 0.54 l
0.68 0.52 l
0.69 0.50 l
0.69 0.48 l
0.68 0.46 l
0.69 0.44 l
0.69 0.42 l
0.68 0.40 l
0.69 0.38 l
0.68 0.37 l
0.69 0.34 l
0.69 0.33 l
0.68 0.31 l
0.69 0.29 l
0.69 0.27 l
0.68 0.26 l
0.69 0.24 l
0.69 0.22 l
0.68 0.21 l
0.69 0.19 l
0.68 0.17 l
0.69 0.16 l
0.69 0.14 l
0.68 0.13 l
0.69 0.11 l
0.69 0.10 l
0.68 0.08 l
0.69 0.07 l
178.82 258.09 lineto
0.68 0.04 l
0.69 0.02 l
0.69 0.02 l
0.68 0 l
0.69 -0.02 l
0.68 -0.02 l
0.69 -0.04 l
0.69 -0.05 l
0.68 -0.06 l
0.69 -0.08 l
0.69 -0.08 l
0.68 -0.10 l
0.69 -0.11 l
0.69 -0.12 l
0.68 -0.13 l
0.69 -0.15 l
0.69 -0.15 l
0.68 -0.16 l
0.69 -0.18 l
0.68 -0.18 l
0.69 -0.19 l
0.69 -0.21 l
0.68 -0.21 l
0.69 -0.22 l
0.69 -0.23 l
0.68 -0.24 l
0.69 -0.25 l
0.69 -0.26 l
0.68 -0.26 l
0.69 -0.28 l
0.69 -0.28 l
0.68 -0.29 l
0.69 -0.30 l
0.68 -0.31 l
0.69 -0.31 l
0.69 -0.32 l
0.68 -0.33 l
0.69 -0.33 l
0.69 -0.34 l
0.68 -0.35 l
0.69 -0.36 l
0.69 -0.36 l
0.68 -0.37 l
0.69 -0.37 l
0.69 -0.38 l
0.68 -0.39 l
0.69 -0.39 l
0.68 -0.40 l
0.69 -0.40 l
0.69 -0.41 l
0.68 -0.42 l
0.69 -0.42 l
0.69 -0.42 l
0.68 -0.43 l
0.69 -0.44 l
0.69 -0.44 l
0.68 -0.44 l
0.69 -0.45 l
0.69 -0.45 l
0.68 -0.46 l
0.69 -0.46 l
0.68 -0.46 l
0.69 -0.47 l
0.69 -0.48 l
0.68 -0.47 l
0.69 -0.48 l
0.69 -0.49 l
0.68 -0.49 l
0.69 -0.49 l
0.69 -0.49 l
0.68 -0.50 l
0.69 -0.50 l
0.69 -0.51 l
0.68 -0.50 l
0.69 -0.51 l
0.68 -0.51 l
0.69 -0.52 l
0.69 -0.52 l
0.68 -0.52 l
0.69 -0.52 l
0.69 -0.53 l
0.68 -0.52 l
0.69 -0.53 l
0.69 -0.53 l
0.68 -0.54 l
0.69 -0.53 l
0.69 -0.54 l
0.68 -0.54 l
0.69 -0.54 l
0.68 -0.55 l
0.69 -0.54 l
0.69 -0.55 l
0.68 -0.55 l
0.69 -0.55 l
0.69 -0.55 l
0.68 -0.55 l
0.69 -0.55 l
0.69 -0.56 l
0.68 -0.55 l
247.46 222.08 lineto
0.69 -0.56 l
0.68 -0.56 l
0.69 -0.56 l
0.68 -0.56 l
0.69 -0.56 l
0.69 -0.56 l
0.68 -0.57 l
0.69 -0.56 l
0.69 -0.57 l
0.68 -0.56 l
0.69 -0.57 l
0.69 -0.57 l
0.68 -0.56 l
0.69 -0.57 l
0.69 -0.57 l
0.68 -0.57 l
0.69 -0.56 l
0.68 -0.57 l
0.69 -0.57 l
0.69 -0.57 l
0.68 -0.57 l
0.69 -0.57 l
0.69 -0.57 l
0.68 -0.57 l
0.69 -0.57 l
0.69 -0.57 l
0.68 -0.57 l
0.69 -0.57 l
0.69 -0.56 l
0.68 -0.57 l
0.69 -0.57 l
0.68 -0.57 l
o
0.6078 0.8039 0.6078 srgb
np
41.53 41.10 m
0.69 0 l
0.68 0 l
0.69 0 l
0.69 0 l
0.68 0 l
0.69 0 l
0.69 0 l
0.68 0 l
0.69 0 l
0.69 0 l
0.68 0 l
0.69 0 l
0.68 0 l
0.69 0 l
0.69 0 l
0.68 0 l
0.69 0 l
0.69 0 l
0.68 0 l
0.69 0 l
0.69 0.01 l
0.68 0 l
0.69 0 l
0.69 0.01 l
0.68 0 l
0.69 0.02 l
0.68 0.01 l
0.69 0.02 l
0.69 0.04 l
0.68 0.04 l
0.69 0.05 l
0.69 0.07 l
0.68 0.08 l
0.69 0.10 l
0.69 0.13 l
0.68 0.15 l
0.69 0.17 l
0.69 0.21 l
0.68 0.24 l
0.69 0.28 l
0.68 0.31 l
0.69 0.35 l
0.69 0.40 l
0.68 0.44 l
0.69 0.49 l
0.69 0.53 l
0.68 0.59 l
0.69 0.64 l
0.69 0.69 l
0.68 0.75 l
0.69 0.80 l
0.69 0.85 l
0.68 0.91 l
0.69 0.97 l
0.68 1.02 l
0.69 1.08 l
0.69 1.14 l
0.68 1.19 l
0.69 1.24 l
0.69 1.30 l
0.68 1.35 l
0.69 1.40 l
0.69 1.46 l
0.68 1.50 l
0.69 1.55 l
0.69 1.60 l
0.68 1.64 l
0.69 1.69 l
0.68 1.73 l
0.69 1.76 l
0.69 1.81 l
0.68 1.85 l
0.69 1.88 l
0.69 1.91 l
0.68 1.94 l
0.69 1.98 l
0.69 2.00 l
0.68 2.03 l
0.69 2.05 l
0.69 2.08 l
0.68 2.10 l
0.69 2.11 l
0.68 2.14 l
0.69 2.15 l
0.69 2.16 l
0.68 2.18 l
0.69 2.19 l
0.69 2.19 l
0.68 2.21 l
0.69 2.21 l
0.69 2.22 l
0.68 2.21 l
0.69 2.23 l
0.69 2.22 l
0.68 2.22 l
0.69 2.22 l
0.68 2.21 l
0.69 2.22 l
0.69 2.20 l
110.17 137.42 lineto
0.69 2.20 l
0.69 2.18 l
0.68 2.17 l
0.69 2.17 l
0.69 2.15 l
0.68 2.14 l
0.69 2.12 l
0.69 2.11 l
0.68 2.10 l
0.69 2.08 l
0.68 2.07 l
0.69 2.05 l
0.69 2.03 l
0.68 2.01 l
0.69 2.00 l
0.69 1.97 l
0.68 1.96 l
0.69 1.93 l
0.69 1.92 l
0.68 1.89 l
0.69 1.88 l
0.69 1.85 l
0.68 1.83 l
0.69 1.80 l
0.68 1.79 l
0.69 1.76 l
0.69 1.74 l
0.68 1.71 l
0.69 1.69 l
0.69 1.67 l
0.68 1.64 l
0.69 1.62 l
0.69 1.60 l
0.68 1.57 l
0.69 1.55 l
0.69 1.52 l
0.68 1.50 l
0.69 1.47 l
0.68 1.45 l
0.69 1.43 l
0.69 1.40 l
0.68 1.37 l
0.69 1.35 l
0.69 1.33 l
0.68 1.30 l
0.69 1.28 l
0.69 1.26 l
0.68 1.23 l
0.69 1.20 l
0.69 1.18 l
0.68 1.16 l
0.69 1.13 l
0.68 1.11 l
0.69 1.09 l
0.69 1.06 l
0.68 1.04 l
0.69 1.02 l
0.69 1.00 l
0.68 0.97 l
0.69 0.95 l
0.69 0.92 l
0.68 0.90 l
0.69 0.89 l
0.69 0.86 l
0.68 0.83 l
0.69 0.82 l
0.68 0.79 l
0.69 0.78 l
0.69 0.75 l
0.68 0.73 l
0.69 0.71 l
0.69 0.69 l
0.68 0.67 l
0.69 0.65 l
0.69 0.63 l
0.68 0.62 l
0.69 0.59 l
0.69 0.57 l
0.68 0.55 l
0.69 0.54 l
0.68 0.51 l
0.69 0.50 l
0.69 0.48 l
0.68 0.46 l
0.69 0.45 l
0.69 0.42 l
0.68 0.41 l
0.69 0.39 l
0.69 0.38 l
0.68 0.36 l
0.69 0.34 l
0.68 0.33 l
0.69 0.30 l
0.69 0.30 l
0.68 0.28 l
0.69 0.26 l
0.69 0.25 l
0.68 0.23 l
0.69 0.22 l
178.82 256.73 lineto
0.68 0.19 l
0.69 0.18 l
0.69 0.16 l
0.68 0.14 l
0.69 0.14 l
0.68 0.12 l
0.69 0.10 l
0.69 0.10 l
0.68 0.08 l
0.69 0.07 l
0.69 0.05 l
0.68 0.05 l
0.69 0.03 l
0.69 0.02 l
0.68 0.01 l
0.69 -0.01 l
0.69 -0.01 l
0.68 -0.03 l
0.69 -0.03 l
0.68 -0.05 l
0.69 -0.06 l
0.69 -0.07 l
0.68 -0.08 l
0.69 -0.09 l
0.69 -0.09 l
0.68 -0.11 l
0.69 -0.12 l
0.69 -0.13 l
0.68 -0.14 l
0.69 -0.14 l
0.69 -0.16 l
0.68 -0.16 l
0.69 -0.18 l
0.68 -0.18 l
0.69 -0.19 l
0.69 -0.20 l
0.68 -0.20 l
0.69 -0.22 l
0.69 -0.22 l
0.68 -0.23 l
0.69 -0.24 l
0.69 -0.24 l
0.68 -0.25 l
0.69 -0.26 l
0.69 -0.27 l
0.68 -0.27 l
0.69 -0.28 l
0.68 -0.29 l
0.69 -0.29 l
0.69 -0.30 l
0.68 -0.30 l
0.69 -0.32 l
0.69 -0.31 l
0.68 -0.33 l
0.69 -0.33 l
0.69 -0.33 l
0.68 -0.34 l
0.69 -0.35 l
0.69 -0.35 l
0.68 -0.35 l
0.69 -0.36 l
0.68 -0.37 l
0.69 -0.37 l
0.69 -0.38 l
0.68 -0.38 l
0.69 -0.38 l
0.69 -0.39 l
0.68 -0.40 l
0.69 -0.40 l
0.69 -0.40 l
0.68 -0.41 l
0.69 -0.41 l
0.69 -0.41 l
0.68 -0.42 l
0.69 -0.42 l
0.68 -0.43 l
0.69 -0.43 l
0.69 -0.43 l
0.68 -0.44 l
0.69 -0.44 l
0.69 -0.44 l
0.68 -0.44 l
0.69 -0.45 l
0.69 -0.46 l
0.68 -0.45 l
0.69 -0.46 l
0.69 -0.46 l
0.68 -0.46 l
0.69 -0.47 l
0.68 -0.47 l
0.69 -0.47 l
0.69 -0.47 l
0.68 -0.48 l
0.69 -0.47 l
0.69 -0.48 l
0.68 -0.49 l
0.69 -0.48 l
0.69 -0.49 l
0.68 -0.49 l
247.46 231.63 lineto
0.69 -0.49 l
0.68 -0.49 l
0.69 -0.50 l
0.68 -0.49 l
0.69 -0.50 l
0.69 -0.50 l
0.68 -0.51 l
0.69 -0.50 l
0.69 -0.50 l
0.68 -0.51 l
0.69 -0.51 l
0.69 -0.51 l
0.68 -0.51 l
0.69 -0.51 l
0.69 -0.51 l
0.68 -0.51 l
0.69 -0.52 l
0.68 -0.51 l
0.69 -0.52 l
0.69 -0.51 l
0.68 -0.52 l
0.69 -0.52 l
0.69 -0.52 l
0.68 -0.52 l
0.69 -0.52 l
0.69 -0.52 l
0.68 -0.52 l
0.69 -0.52 l
0.69 -0.52 l
0.68 -0.53 l
0.69 -0.52 l
0.68 -0.52 l
o
1 0.6275 0.4784 srgb
1.07 setlinewidth
[ 4.27 4.27] 0 setdash
np
41.53 41.10 m
0.69 0 l
0.68 0 l
0.69 0 l
0.69 0 l
0.68 0 l
0.69 0 l
0.69 0 l
0.68 0 l
0.69 0 l
0.69 0 l
0.68 0 l
0.69 0 l
0.68 0 l
0.69 0 l
0.69 0 l
0.68 0 l
0.69 0 l
0.69 0 l
0.68 0 l
0.69 0 l
0.69 0.01 l
0.68 0 l
0.69 0 l
0.69 0 l
0.68 0.01 l
0.69 0.01 l
0.68 0.02 l
0.69 0.02 l
0.69 0.02 l
0.68 0.04 l
0.69 0.05 l
0.69 0.05 l
0.68 0.08 l
0.69 0.09 l
0.69 0.11 l
0.68 0.13 l
0.69 0.16 l
0.69 0.18 l
0.68 0.21 l
0.69 0.24 l
0.68 0.28 l
0.69 0.31 l
0.69 0.35 l
0.68 0.39 l
0.69 0.43 l
0.69 0.48 l
0.68 0.52 l
0.69 0.56 l
0.69 0.61 l
0.68 0.66 l
0.69 0.71 l
0.69 0.76 l
0.68 0.80 l
0.69 0.86 l
0.68 0.91 l
0.69 0.95 l
0.69 1.01 l
0.68 1.06 l
0.69 1.10 l
0.69 1.15 l
0.68 1.20 l
0.69 1.25 l
0.69 1.29 l
0.68 1.34 l
0.69 1.38 l
0.69 1.43 l
0.68 1.46 l
0.69 1.51 l
0.68 1.55 l
0.69 1.58 l
0.69 1.62 l
0.68 1.65 l
0.69 1.69 l
0.69 1.71 l
0.68 1.75 l
0.69 1.78 l
0.69 1.80 l
0.68 1.83 l
0.69 1.86 l
0.69 1.87 l
0.68 1.90 l
0.69 1.92 l
0.68 1.93 l
0.69 1.96 l
0.69 1.97 l
0.68 1.98 l
0.69 1.99 l
0.69 2.01 l
0.68 2.01 l
0.69 2.03 l
0.69 2.03 l
0.68 2.04 l
0.69 2.04 l
0.69 2.05 l
0.68 2.05 l
0.69 2.05 l
0.68 2.06 l
0.69 2.05 l
0.69 2.05 l
110.17 128.15 lineto
0.69 2.04 l
0.69 2.04 l
0.68 2.04 l
0.69 2.02 l
0.69 2.03 l
0.68 2.01 l
0.69 2.01 l
0.69 1.99 l
0.68 1.99 l
0.69 1.98 l
0.68 1.96 l
0.69 1.95 l
0.69 1.94 l
0.68 1.93 l
0.69 1.92 l
0.69 1.90 l
0.68 1.88 l
0.69 1.87 l
0.69 1.86 l
0.68 1.84 l
0.69 1.82 l
0.69 1.81 l
0.68 1.78 l
0.69 1.78 l
0.68 1.75 l
0.69 1.74 l
0.69 1.72 l
0.68 1.70 l
0.69 1.68 l
0.69 1.66 l
0.68 1.64 l
0.69 1.63 l
0.69 1.60 l
0.68 1.59 l
0.69 1.56 l
0.69 1.55 l
0.68 1.52 l
0.69 1.51 l
0.68 1.49 l
0.69 1.46 l
0.69 1.45 l
0.68 1.42 l
0.69 1.40 l
0.69 1.39 l
0.68 1.36 l
0.69 1.34 l
0.69 1.32 l
0.68 1.31 l
0.69 1.28 l
0.69 1.26 l
0.68 1.24 l
0.69 1.22 l
0.68 1.20 l
0.69 1.18 l
0.69 1.15 l
0.68 1.14 l
0.69 1.12 l
0.69 1.10 l
0.68 1.08 l
0.69 1.06 l
0.69 1.04 l
0.68 1.02 l
0.69 1.00 l
0.69 0.98 l
0.68 0.96 l
0.69 0.94 l
0.68 0.92 l
0.69 0.91 l
0.69 0.88 l
0.68 0.87 l
0.69 0.84 l
0.69 0.83 l
0.68 0.81 l
0.69 0.79 l
0.69 0.78 l
0.68 0.76 l
0.69 0.73 l
0.69 0.72 l
0.68 0.71 l
0.69 0.68 l
0.68 0.67 l
0.69 0.65 l
0.69 0.64 l
0.68 0.62 l
0.69 0.60 l
0.69 0.58 l
0.68 0.57 l
0.69 0.55 l
0.69 0.54 l
0.68 0.52 l
0.69 0.51 l
0.68 0.49 l
0.69 0.47 l
0.69 0.46 l
0.68 0.45 l
0.69 0.42 l
0.69 0.42 l
0.68 0.40 l
0.69 0.39 l
178.82 252.85 lineto
0.68 0.35 l
0.69 0.35 l
0.69 0.33 l
0.68 0.32 l
0.69 0.30 l
0.68 0.29 l
0.69 0.27 l
0.69 0.27 l
0.68 0.25 l
0.69 0.24 l
0.69 0.22 l
0.68 0.22 l
0.69 0.20 l
0.69 0.19 l
0.68 0.17 l
0.69 0.17 l
0.69 0.15 l
0.68 0.15 l
0.69 0.13 l
0.68 0.12 l
0.69 0.11 l
0.69 0.10 l
0.68 0.08 l
0.69 0.08 l
0.69 0.07 l
0.68 0.05 l
0.69 0.05 l
0.69 0.04 l
0.68 0.02 l
0.69 0.02 l
0.69 0.01 l
0.68 0 l
0.69 -0.02 l
0.68 -0.02 l
0.69 -0.03 l
0.69 -0.04 l
0.68 -0.04 l
0.69 -0.06 l
0.69 -0.06 l
0.68 -0.08 l
0.69 -0.08 l
0.69 -0.09 l
0.68 -0.10 l
0.69 -0.10 l
0.69 -0.11 l
0.68 -0.13 l
0.69 -0.12 l
0.68 -0.14 l
0.69 -0.14 l
0.69 -0.15 l
0.68 -0.16 l
0.69 -0.17 l
0.69 -0.17 l
0.68 -0.18 l
0.69 -0.18 l
0.69 -0.19 l
0.68 -0.20 l
0.69 -0.21 l
0.69 -0.21 l
0.68 -0.21 l
0.69 -0.23 l
0.68 -0.23 l
0.69 -0.23 l
0.69 -0.24 l
0.68 -0.25 l
0.69 -0.25 l
0.69 -0.26 l
0.68 -0.26 l
0.69 -0.27 l
0.69 -0.27 l
0.68 -0.28 l
0.69 -0.28 l
0.69 -0.29 l
0.68 -0.29 l
0.69 -0.30 l
0.68 -0.30 l
0.69 -0.31 l
0.69 -0.31 l
0.68 -0.32 l
0.69 -0.32 l
0.69 -0.32 l
0.68 -0.33 l
0.69 -0.33 l
0.69 -0.34 l
0.68 -0.34 l
0.69 -0.34 l
0.69 -0.35 l
0.68 -0.35 l
0.69 -0.36 l
0.68 -0.36 l
0.69 -0.36 l
0.69 -0.37 l
0.68 -0.37 l
0.69 -0.37 l
0.69 -0.37 l
0.68 -0.38 l
0.69 -0.39 l
0.69 -0.38 l
0.68 -0.39 l
247.46 242.10 lineto
0.69 -0.39 l
0.68 -0.40 l
0.69 -0.40 l
0.68 -0.40 l
0.69 -0.41 l
0.69 -0.40 l
0.68 -0.41 l
0.69 -0.41 l
0.69 -0.42 l
0.68 -0.41 l
0.69 -0.42 l
0.69 -0.42 l
0.68 -0.43 l
0.69 -0.42 l
0.69 -0.43 l
0.68 -0.43 l
0.69 -0.43 l
0.68 -0.43 l
0.69 -0.44 l
0.69 -0.43 l
0.68 -0.44 l
0.69 -0.44 l
0.69 -0.44 l
0.68 -0.45 l
0.69 -0.44 l
0.69 -0.45 l
0.68 -0.45 l
0.69 -0.45 l
0.69 -0.45 l
0.68 -0.45 l
0.69 -0.45 l
0.68 -0.46 l
o
0.8039 0.7451 0.4392 srgb
np
41.53 41.10 m
0.69 0 l
0.68 0 l
0.69 0 l
0.69 0 l
0.68 0 l
0.69 0 l
0.69 0 l
0.68 0 l
0.69 0 l
0.69 0 l
0.68 0 l
0.69 0 l
0.68 0 l
0.69 0 l
0.69 0 l
0.68 0 l
0.69 0 l
0.69 0 l
0.68 0 l
0.69 0 l
0.69 0.01 l
0.68 0 l
0.69 0 l
0.69 0.01 l
0.68 0.01 l
0.69 0.01 l
0.68 0.02 l
0.69 0.03 l
0.69 0.03 l
0.68 0.05 l
0.69 0.06 l
0.69 0.08 l
0.68 0.10 l
0.69 0.12 l
0.69 0.15 l
0.68 0.18 l
0.69 0.20 l
0.69 0.25 l
0.68 0.28 l
0.69 0.32 l
0.68 0.37 l
0.69 0.41 l
0.69 0.46 l
0.68 0.52 l
0.69 0.56 l
0.69 0.63 l
0.68 0.68 l
0.69 0.73 l
0.69 0.80 l
0.68 0.86 l
0.69 0.92 l
0.69 0.99 l
0.68 1.04 l
0.69 1.11 l
0.68 1.17 l
0.69 1.23 l
0.69 1.29 l
0.68 1.36 l
0.69 1.41 l
0.69 1.47 l
0.68 1.52 l
0.69 1.59 l
0.69 1.63 l
0.68 1.69 l
0.69 1.74 l
0.69 1.79 l
0.68 1.83 l
0.69 1.88 l
0.68 1.92 l
0.69 1.96 l
0.69 2.00 l
0.68 2.04 l
0.69 2.08 l
0.69 2.10 l
0.68 2.14 l
0.69 2.16 l
0.69 2.19 l
0.68 2.21 l
0.69 2.24 l
0.69 2.25 l
0.68 2.28 l
0.69 2.29 l
0.68 2.30 l
0.69 2.32 l
0.69 2.32 l
0.68 2.34 l
0.69 2.34 l
0.69 2.34 l
0.68 2.35 l
0.69 2.35 l
0.69 2.35 l
0.68 2.35 l
0.69 2.35 l
0.69 2.34 l
0.68 2.33 l
0.69 2.33 l
0.68 2.32 l
0.69 2.31 l
0.69 2.30 l
110.17 146.47 lineto
0.69 2.28 l
0.69 2.26 l
0.68 2.24 l
0.69 2.23 l
0.69 2.21 l
0.68 2.20 l
0.69 2.17 l
0.69 2.16 l
0.68 2.14 l
0.69 2.11 l
0.68 2.10 l
0.69 2.07 l
0.69 2.05 l
0.68 2.03 l
0.69 2.00 l
0.69 1.98 l
0.68 1.96 l
0.69 1.93 l
0.69 1.90 l
0.68 1.88 l
0.69 1.86 l
0.69 1.82 l
0.68 1.81 l
0.69 1.77 l
0.68 1.75 l
0.69 1.72 l
0.69 1.70 l
0.68 1.67 l
0.69 1.64 l
0.69 1.61 l
0.68 1.59 l
0.69 1.56 l
0.69 1.53 l
0.68 1.50 l
0.69 1.48 l
0.69 1.45 l
0.68 1.42 l
0.69 1.39 l
0.68 1.37 l
0.69 1.34 l
0.69 1.31 l
0.68 1.29 l
0.69 1.26 l
0.69 1.23 l
0.68 1.20 l
0.69 1.18 l
0.69 1.16 l
0.68 1.12 l
0.69 1.10 l
0.69 1.08 l
0.68 1.05 l
0.69 1.02 l
0.68 1.00 l
0.69 0.97 l
0.69 0.95 l
0.68 0.92 l
0.69 0.90 l
0.69 0.88 l
0.68 0.85 l
0.69 0.83 l
0.69 0.80 l
0.68 0.78 l
0.69 0.76 l
0.69 0.73 l
0.68 0.71 l
0.69 0.69 l
0.68 0.67 l
0.69 0.64 l
0.69 0.63 l
0.68 0.60 l
0.69 0.58 l
0.69 0.56 l
0.68 0.54 l
0.69 0.52 l
0.69 0.50 l
0.68 0.48 l
0.69 0.45 l
0.69 0.44 l
0.68 0.43 l
0.69 0.40 l
0.68 0.38 l
0.69 0.36 l
0.69 0.35 l
0.68 0.33 l
0.69 0.31 l
0.69 0.29 l
0.68 0.28 l
0.69 0.26 l
0.69 0.24 l
0.68 0.23 l
0.69 0.21 l
0.68 0.19 l
0.69 0.18 l
0.69 0.16 l
0.68 0.15 l
0.69 0.13 l
0.69 0.12 l
0.68 0.11 l
0.69 0.08 l
178.82 258.00 lineto
0.68 0.06 l
0.69 0.05 l
0.69 0.03 l
0.68 0.02 l
0.69 0.01 l
0.68 -0.01 l
0.69 -0.02 l
0.69 -0.03 l
0.68 -0.04 l
0.69 -0.06 l
0.69 -0.06 l
0.68 -0.08 l
0.69 -0.09 l
0.69 -0.10 l
0.68 -0.11 l
0.69 -0.13 l
0.69 -0.13 l
0.68 -0.14 l
0.69 -0.16 l
0.68 -0.16 l
0.69 -0.18 l
0.69 -0.18 l
0.68 -0.19 l
0.69 -0.21 l
0.69 -0.21 l
0.68 -0.22 l
0.69 -0.23 l
0.69 -0.24 l
0.68 -0.25 l
0.69 -0.25 l
0.69 -0.27 l
0.68 -0.27 l
0.69 -0.28 l
0.68 -0.29 l
0.69 -0.29 l
0.69 -0.30 l
0.68 -0.31 l
0.69 -0.32 l
0.69 -0.32 l
0.68 -0.34 l
0.69 -0.33 l
0.69 -0.35 l
0.68 -0.35 l
0.69 -0.36 l
0.69 -0.36 l
0.68 -0.37 l
0.69 -0.37 l
0.68 -0.38 l
0.69 -0.39 l
0.69 -0.39 l
0.68 -0.40 l
0.69 -0.40 l
0.69 -0.41 l
0.68 -0.42 l
0.69 -0.41 l
0.69 -0.43 l
0.68 -0.42 l
0.69 -0.44 l
0.69 -0.43 l
0.68 -0.44 l
0.69 -0.45 l
0.68 -0.45 l
0.69 -0.45 l
0.69 -0.46 l
0.68 -0.46 l
0.69 -0.47 l
0.69 -0.47 l
0.68 -0.47 l
0.69 -0.48 l
0.69 -0.48 l
0.68 -0.48 l
0.69 -0.49 l
0.69 -0.49 l
0.68 -0.49 l
0.69 -0.49 l
0.68 -0.50 l
0.69 -0.50 l
0.69 -0.51 l
0.68 -0.50 l
0.69 -0.51 l
0.69 -0.52 l
0.68 -0.51 l
0.69 -0.52 l
0.69 -0.51 l
0.68 -0.53 l
0.69 -0.52 l
0.69 -0.52 l
0.68 -0.53 l
0.69 -0.53 l
0.68 -0.53 l
0.69 -0.53 l
0.69 -0.54 l
0.68 -0.53 l
0.69 -0.54 l
0.69 -0.54 l
0.68 -0.54 l
0.69 -0.54 l
0.69 -0.54 l
0.68 -0.55 l
247.46 223.63 lineto
0.69 -0.54 l
0.68 -0.55 l
0.69 -0.55 l
0.68 -0.55 l
0.69 -0.55 l
0.69 -0.55 l
0.68 -0.56 l
0.69 -0.55 l
0.69 -0.55 l
0.68 -0.56 l
0.69 -0.55 l
0.69 -0.56 l
0.68 -0.56 l
0.69 -0.55 l
0.69 -0.56 l
0.68 -0.56 l
0.69 -0.56 l
0.68 -0.56 l
0.69 -0.56 l
0.69 -0.56 l
0.68 -0.56 l
0.69 -0.56 l
0.69 -0.56 l
0.68 -0.56 l
0.69 -0.56 l
0.69 -0.56 l
0.68 -0.56 l
0.69 -0.56 l
0.69 -0.56 l
0.68 -0.56 l
0.69 -0.56 l
0.68 -0.56 l
o
0.5294 0.8078 0.9804 srgb
np
41.53 41.10 m
0.69 0 l
0.68 0 l
0.69 0 l
0.69 0 l
0.68 0 l
0.69 0 l
0.69 0 l
0.68 0 l
0.69 0 l
0.69 0 l
0.68 0 l
0.69 0 l
0.68 0 l
0.69 0 l
0.69 0 l
0.68 0 l
0.69 0 l
0.69 0 l
0.68 0 l
0.69 0 l
0.69 0.01 l
0.68 0 l
0.69 0 l
0.69 0.01 l
0.68 0.01 l
0.69 0.01 l
0.68 0.02 l
0.69 0.03 l
0.69 0.04 l
0.68 0.05 l
0.69 0.07 l
0.69 0.08 l
0.68 0.11 l
0.69 0.12 l
0.69 0.16 l
0.68 0.18 l
0.69 0.22 l
0.69 0.26 l
0.68 0.29 l
0.69 0.34 l
0.68 0.38 l
0.69 0.43 l
0.69 0.48 l
0.68 0.54 l
0.69 0.59 l
0.69 0.65 l
0.68 0.70 l
0.69 0.77 l
0.69 0.83 l
0.68 0.89 l
0.69 0.95 l
0.69 1.02 l
0.68 1.08 l
0.69 1.14 l
0.68 1.20 l
0.69 1.27 l
0.69 1.33 l
0.68 1.39 l
0.69 1.45 l
0.69 1.51 l
0.68 1.57 l
0.69 1.62 l
0.69 1.67 l
0.68 1.73 l
0.69 1.78 l
0.69 1.82 l
0.68 1.88 l
0.69 1.91 l
0.68 1.96 l
0.69 2.01 l
0.69 2.03 l
0.68 2.08 l
0.69 2.11 l
0.69 2.14 l
0.68 2.17 l
0.69 2.20 l
0.69 2.22 l
0.68 2.25 l
0.69 2.27 l
0.69 2.28 l
0.68 2.31 l
0.69 2.32 l
0.68 2.33 l
0.69 2.34 l
0.69 2.36 l
0.68 2.36 l
0.69 2.36 l
0.69 2.37 l
0.68 2.37 l
0.69 2.37 l
0.69 2.37 l
0.68 2.37 l
0.69 2.37 l
0.69 2.36 l
0.68 2.35 l
0.69 2.34 l
0.68 2.34 l
0.69 2.32 l
0.69 2.31 l
110.17 148.33 lineto
0.69 2.29 l
0.69 2.27 l
0.68 2.25 l
0.69 2.24 l
0.69 2.22 l
0.68 2.20 l
0.69 2.18 l
0.69 2.16 l
0.68 2.14 l
0.69 2.12 l
0.68 2.10 l
0.69 2.07 l
0.69 2.05 l
0.68 2.03 l
0.69 2.00 l
0.69 1.98 l
0.68 1.95 l
0.69 1.93 l
0.69 1.90 l
0.68 1.87 l
0.69 1.85 l
0.69 1.82 l
0.68 1.80 l
0.69 1.77 l
0.68 1.74 l
0.69 1.71 l
0.69 1.68 l
0.68 1.66 l
0.69 1.63 l
0.69 1.60 l
0.68 1.58 l
0.69 1.54 l
0.69 1.52 l
0.68 1.49 l
0.69 1.46 l
0.69 1.43 l
0.68 1.41 l
0.69 1.38 l
0.68 1.35 l
0.69 1.32 l
0.69 1.30 l
0.68 1.26 l
0.69 1.24 l
0.69 1.22 l
0.68 1.18 l
0.69 1.16 l
0.69 1.13 l
0.68 1.11 l
0.69 1.08 l
0.69 1.05 l
0.68 1.03 l
0.69 1.00 l
0.68 0.98 l
0.69 0.95 l
0.69 0.92 l
0.68 0.90 l
0.69 0.88 l
0.69 0.85 l
0.68 0.82 l
0.69 0.81 l
0.69 0.77 l
0.68 0.76 l
0.69 0.73 l
0.69 0.71 l
0.68 0.68 l
0.69 0.67 l
0.68 0.64 l
0.69 0.62 l
0.69 0.59 l
0.68 0.58 l
0.69 0.55 l
0.69 0.53 l
0.68 0.52 l
0.69 0.49 l
0.69 0.47 l
0.68 0.45 l
0.69 0.43 l
0.69 0.41 l
0.68 0.39 l
0.69 0.38 l
0.68 0.35 l
0.69 0.34 l
0.69 0.32 l
0.68 0.30 l
0.69 0.28 l
0.69 0.26 l
0.68 0.25 l
0.69 0.23 l
0.69 0.21 l
0.68 0.20 l
0.69 0.18 l
0.68 0.17 l
0.69 0.14 l
0.69 0.14 l
0.68 0.12 l
0.69 0.10 l
0.69 0.09 l
0.68 0.07 l
0.69 0.06 l
178.82 258.11 lineto
0.68 0.04 l
0.69 0.01 l
0.69 0.01 l
0.68 -0.01 l
0.69 -0.02 l
0.68 -0.04 l
0.69 -0.05 l
0.69 -0.06 l
0.68 -0.07 l
0.69 -0.08 l
0.69 -0.10 l
0.68 -0.11 l
0.69 -0.12 l
0.69 -0.13 l
0.68 -0.14 l
0.69 -0.15 l
0.69 -0.16 l
0.68 -0.17 l
0.69 -0.19 l
0.68 -0.19 l
0.69 -0.20 l
0.69 -0.21 l
0.68 -0.23 l
0.69 -0.23 l
0.69 -0.24 l
0.68 -0.25 l
0.69 -0.25 l
0.69 -0.27 l
0.68 -0.28 l
0.69 -0.28 l
0.69 -0.29 l
0.68 -0.30 l
0.69 -0.31 l
0.68 -0.31 l
0.69 -0.32 l
0.69 -0.33 l
0.68 -0.34 l
0.69 -0.34 l
0.69 -0.35 l
0.68 -0.36 l
0.69 -0.36 l
0.69 -0.37 l
0.68 -0.38 l
0.69 -0.38 l
0.69 -0.39 l
0.68 -0.40 l
0.69 -0.40 l
0.68 -0.41 l
0.69 -0.41 l
0.69 -0.41 l
0.68 -0.43 l
0.69 -0.42 l
0.69 -0.44 l
0.68 -0.43 l
0.69 -0.45 l
0.69 -0.44 l
0.68 -0.46 l
0.69 -0.45 l
0.69 -0.46 l
0.68 -0.47 l
0.69 -0.47 l
0.68 -0.47 l
0.69 -0.48 l
0.69 -0.48 l
0.68 -0.48 l
0.69 -0.49 l
0.69 -0.49 l
0.68 -0.50 l
0.69 -0.49 l
0.69 -0.51 l
0.68 -0.50 l
0.69 -0.51 l
0.69 -0.51 l
0.68 -0.51 l
0.69 -0.52 l
0.68 -0.52 l
0.69 -0.52 l
0.69 -0.52 l
0.68 -0.53 l
0.69 -0.53 l
0.69 -0.53 l
0.68 -0.54 l
0.69 -0.53 l
0.69 -0.54 l
0.68 -0.54 l
0.69 -0.54 l
0.69 -0.55 l
0.68 -0.54 l
0.69 -0.55 l
0.68 -0.55 l
0.69 -0.55 l
0.69 -0.55 l
0.68 -0.56 l
0.69 -0.55 l
0.69 -0.56 l
0.68 -0.56 l
0.69 -0.56 l
0.69 -0.56 l
0.68 -0.56 l
247.46 221.32 lineto
0.69 -0.57 l
0.68 -0.56 l
0.69 -0.57 l
0.68 -0.56 l
0.69 -0.57 l
0.69 -0.57 l
0.68 -0.57 l
0.69 -0.57 l
0.69 -0.57 l
0.68 -0.57 l
0.69 -0.57 l
0.69 -0.57 l
0.68 -0.57 l
0.69 -0.57 l
0.69 -0.58 l
0.68 -0.57 l
0.69 -0.57 l
0.68 -0.57 l
0.69 -0.58 l
0.69 -0.57 l
0.68 -0.58 l
0.69 -0.57 l
0.69 -0.57 l
0.68 -0.58 l
0.69 -0.57 l
0.69 -0.57 l
0.68 -0.58 l
0.69 -0.57 l
0.69 -0.57 l
0.68 -0.58 l
0.69 -0.57 l
0.68 -0.57 l
o
0.6078 0.8039 0.6078 srgb
np
41.53 41.10 m
0.69 0 l
0.68 0 l
0.69 0 l
0.69 0 l
0.68 0 l
0.69 0 l
0.69 0 l
0.68 0 l
0.69 0 l
0.69 0 l
0.68 0 l
0.69 0 l
0.68 0 l
0.69 0 l
0.69 0 l
0.68 0 l
0.69 0 l
0.69 0 l
0.68 0 l
0.69 0 l
0.69 0.01 l
0.68 0 l
0.69 0 l
0.69 0.01 l
0.68 0 l
0.69 0.02 l
0.68 0.01 l
0.69 0.03 l
0.69 0.03 l
0.68 0.04 l
0.69 0.06 l
0.69 0.07 l
0.68 0.09 l
0.69 0.11 l
0.69 0.13 l
0.68 0.15 l
0.69 0.19 l
0.69 0.22 l
0.68 0.25 l
0.69 0.29 l
0.68 0.33 l
0.69 0.37 l
0.69 0.42 l
0.68 0.46 l
0.69 0.51 l
0.69 0.56 l
0.68 0.62 l
0.69 0.67 l
0.69 0.73 l
0.68 0.78 l
0.69 0.84 l
0.69 0.89 l
0.68 0.96 l
0.69 1.01 l
0.68 1.07 l
0.69 1.13 l
0.69 1.19 l
0.68 1.25 l
0.69 1.30 l
0.69 1.36 l
0.68 1.41 l
0.69 1.46 l
0.69 1.52 l
0.68 1.57 l
0.69 1.62 l
0.69 1.66 l
0.68 1.71 l
0.69 1.76 l
0.68 1.80 l
0.69 1.84 l
0.69 1.88 l
0.68 1.92 l
0.69 1.95 l
0.69 1.99 l
0.68 2.02 l
0.69 2.04 l
0.69 2.08 l
0.68 2.10 l
0.69 2.13 l
0.69 2.15 l
0.68 2.17 l
0.69 2.18 l
0.68 2.21 l
0.69 2.22 l
0.69 2.23 l
0.68 2.24 l
0.69 2.25 l
0.69 2.26 l
0.68 2.27 l
0.69 2.27 l
0.69 2.28 l
0.68 2.28 l
0.69 2.28 l
0.69 2.27 l
0.68 2.28 l
0.69 2.27 l
0.68 2.26 l
0.69 2.26 l
0.69 2.26 l
110.17 140.85 lineto
0.69 2.23 l
0.69 2.23 l
0.68 2.21 l
0.69 2.20 l
0.69 2.18 l
0.68 2.18 l
0.69 2.15 l
0.69 2.14 l
0.68 2.12 l
0.69 2.11 l
0.68 2.09 l
0.69 2.07 l
0.69 2.05 l
0.68 2.02 l
0.69 2.01 l
0.69 1.99 l
0.68 1.97 l
0.69 1.94 l
0.69 1.92 l
0.68 1.90 l
0.69 1.87 l
0.69 1.86 l
0.68 1.82 l
0.69 1.81 l
0.68 1.78 l
0.69 1.75 l
0.69 1.73 l
0.68 1.71 l
0.69 1.68 l
0.69 1.65 l
0.68 1.63 l
0.69 1.60 l
0.69 1.58 l
0.68 1.55 l
0.69 1.53 l
0.69 1.50 l
0.68 1.47 l
0.69 1.45 l
0.68 1.42 l
0.69 1.40 l
0.69 1.37 l
0.68 1.34 l
0.69 1.32 l
0.69 1.30 l
0.68 1.27 l
0.69 1.24 l
0.69 1.22 l
0.68 1.19 l
0.69 1.17 l
0.69 1.14 l
0.68 1.12 l
0.69 1.09 l
0.68 1.07 l
0.69 1.04 l
0.69 1.02 l
0.68 1.00 l
0.69 0.97 l
0.69 0.95 l
0.68 0.92 l
0.69 0.91 l
0.69 0.87 l
0.68 0.86 l
0.69 0.83 l
0.69 0.81 l
0.68 0.79 l
0.69 0.77 l
0.68 0.74 l
0.69 0.72 l
0.69 0.70 l
0.68 0.68 l
0.69 0.66 l
0.69 0.64 l
0.68 0.62 l
0.69 0.59 l
0.69 0.58 l
0.68 0.56 l
0.69 0.54 l
0.69 0.51 l
0.68 0.50 l
0.69 0.48 l
0.68 0.46 l
0.69 0.45 l
0.69 0.42 l
0.68 0.41 l
0.69 0.39 l
0.69 0.37 l
0.68 0.35 l
0.69 0.34 l
0.69 0.32 l
0.68 0.30 l
0.69 0.29 l
0.68 0.27 l
0.69 0.25 l
0.69 0.24 l
0.68 0.22 l
0.69 0.21 l
0.69 0.19 l
0.68 0.18 l
0.69 0.17 l
178.82 257.42 lineto
0.68 0.14 l
0.69 0.12 l
0.69 0.11 l
0.68 0.09 l
0.69 0.08 l
0.68 0.07 l
0.69 0.05 l
0.69 0.04 l
0.68 0.03 l
0.69 0.01 l
0.69 0.01 l
0.68 -0.01 l
0.69 -0.02 l
0.69 -0.03 l
0.68 -0.05 l
0.69 -0.05 l
0.69 -0.07 l
0.68 -0.07 l
0.69 -0.09 l
0.68 -0.10 l
0.69 -0.11 l
0.69 -0.11 l
0.68 -0.13 l
0.69 -0.14 l
0.69 -0.15 l
0.68 -0.15 l
0.69 -0.17 l
0.69 -0.18 l
0.68 -0.18 l
0.69 -0.19 l
0.69 -0.21 l
0.68 -0.21 l
0.69 -0.22 l
0.68 -0.22 l
0.69 -0.24 l
0.69 -0.24 l
0.68 -0.25 l
0.69 -0.26 l
0.69 -0.27 l
0.68 -0.27 l
0.69 -0.28 l
0.69 -0.29 l
0.68 -0.29 l
0.69 -0.30 l
0.69 -0.31 l
0.68 -0.31 l
0.69 -0.32 l
0.68 -0.33 l
0.69 -0.33 l
0.69 -0.34 l
0.68 -0.35 l
0.69 -0.35 l
0.69 -0.35 l
0.68 -0.36 l
0.69 -0.37 l
0.69 -0.37 l
0.68 -0.38 l
0.69 -0.38 l
0.69 -0.39 l
0.68 -0.39 l
0.69 -0.40 l
0.68 -0.40 l
0.69 -0.41 l
0.69 -0.41 l
0.68 -0.41 l
0.69 -0.42 l
0.69 -0.43 l
0.68 -0.42 l
0.69 -0.44 l
0.69 -0.43 l
0.68 -0.44 l
0.69 -0.44 l
0.69 -0.45 l
0.68 -0.45 l
0.69 -0.45 l
0.68 -0.46 l
0.69 -0.46 l
0.69 -0.46 l
0.68 -0.46 l
0.69 -0.47 l
0.69 -0.47 l
0.68 -0.48 l
0.69 -0.48 l
0.69 -0.48 l
0.68 -0.48 l
0.69 -0.48 l
0.69 -0.49 l
0.68 -0.49 l
0.69 -0.49 l
0.68 -0.50 l
0.69 -0.49 l
0.69 -0.50 l
0.68 -0.50 l
0.69 -0.50 l
0.69 -0.51 l
0.68 -0.50 l
0.69 -0.51 l
0.69 -0.51 l
0.68 -0.51 l
247.46 228.39 lineto
0.69 -0.51 l
0.68 -0.52 l
0.69 -0.51 l
0.68 -0.52 l
0.69 -0.52 l
0.69 -0.52 l
0.68 -0.53 l
0.69 -0.52 l
0.69 -0.52 l
0.68 -0.53 l
0.69 -0.53 l
0.69 -0.52 l
0.68 -0.53 l
0.69 -0.53 l
0.69 -0.53 l
0.68 -0.53 l
0.69 -0.54 l
0.68 -0.53 l
0.69 -0.53 l
0.69 -0.54 l
0.68 -0.53 l
0.69 -0.53 l
0.69 -0.54 l
0.68 -0.54 l
0.69 -0.53 l
0.69 -0.54 l
0.68 -0.54 l
0.69 -0.53 l
0.69 -0.54 l
0.68 -0.54 l
0.69 -0.53 l
0.68 -0.54 l
o
/Font3 findfont 11 s
0 0 0 srgb
115.19 85.01 (L) 0 0 t
/Font5 findfont 11 s
125.04 85.01 (=) 0 0 t
/Font1 findfont 11 s
133.62 85.01 (4) 0 0 t
/Font5 findfont 11 s
139.74 85.01 ( ) 0 0 t
/Font1 findfont 11 s
142.49 85.01 (m) 0 0 t
151.65 85.01 (m) 0 0 t
/Font5 findfont 11 s
160.81 85.01 ( ) 0 0 t
163.56 85.01 ( ) 0 0 t
166.31 85.01 ( ) 0 0 t
/Font3 findfont 11 s
169.06 85.01 (b) 0 0 t
/Font5 findfont 11 s
178.91 85.01 (=) 0 0 t
187.49 85.01 ( ) 0 0 t
/Font3 findfont 11 s
190.24 85.01 (c) 0 0 t
/Font5 findfont 11 s
199.18 85.01 (=) 0 0 t
/Font1 findfont 11 s
207.76 85.01 (10) 0 0 t
/Font5 findfont 11 s
219.99 85.01 ( ) 0 0 t
/Font1 findfont 11 s
222.74 85.01 (m) 0 0 t
231.91 85.01 (m) 0 0 t
/Font3 findfont 11 s
127.47 69.82 (L) 0 0 t
/Font5 findfont 11 s
137.32 69.82 (=) 0 0 t
/Font1 findfont 11 s
145.90 69.82 (4) 0 0 t
/Font5 findfont 11 s
152.02 69.82 ( ) 0 0 t
/Font1 findfont 11 s
154.77 69.82 (m) 0 0 t
163.93 69.82 (m) 0 0 t
/Font5 findfont 11 s
173.09 69.82 ( ) 0 0 t
175.84 69.82 ( ) 0 0 t
178.59 69.82 ( ) 0 0 t
/Font3 findfont 11 s
181.34 69.82 (R) 0 0 t
/Font5 findfont 11 s
193.01 69.82 (=) 0 0 t
/Font1 findfont 11 s
201.60 69.82 (5) 0 0 t
/Font5 findfont 11 s
207.71 69.82 ( ) 0 0 t
/Font1 findfont 11 s
210.46 69.82 (m) 0 0 t
219.63 69.82 (m) 0 0 t
/Font3 findfont 11 s
142.88 53.62 (h) 0 0 t
/Font5 findfont 11 s
152.73 53.62 (=) 0 0 t
/Font1 findfont 11 s
161.31 53.62 (10) 0 0 t
/Font5 findfont 11 s
173.54 53.62 ( ) 0 0 t
/Font1 findfont 11 s
176.29 53.62 (W) 0 0 t
0.75 setlinewidth
[] 0 setdash
1 setlinecap
10.00 setmiterlimit
np
188.12 52.23 m
2.87 10.68 l
o
192.43 53.62 (m) 0 0 t
/Font1 findfont 8 s
201.59 59.08 (2) 0 0 t
/Font1 findfont 11 s
206.04 53.62 (K) 0 0 t
0.00 0.00 335.25 274.50 cl
0.00 0.00 335.25 274.50 cl
0.00 0.00 335.25 274.50 cl
0.00 0.00 335.25 274.50 cl
0.00 0.00 335.25 274.50 cl
0.00 0.00 335.25 274.50 cl
0.00 0.00 335.25 274.50 cl
0.00 0.00 335.25 274.50 cl
0.00 0.00 335.25 274.50 cl
0.00 0.00 335.25 274.50 cl
0.00 0.00 335.25 274.50 cl
0.00 0.00 335.25 274.50 cl
0.00 0.00 335.25 274.50 cl
0.00 0.00 335.25 274.50 cl
0.00 0.00 335.25 274.50 cl
0.00 0.00 335.25 274.50 cl
/Font1 findfont 9 s
0.3020 0.3020 0.3020 srgb
36.37 37.87 (0.00) 1 0 t
36.37 92.14 (0.25) 1 0 t
36.37 146.40 (0.50) 1 0 t
36.37 200.67 (0.75) 1 0 t
36.37 254.94 (1.00) 1 0 t
0.00 0.00 335.25 274.50 cl
0.00 0.00 335.25 274.50 cl
0.2000 0.2000 0.2000 srgb
1.07 setlinewidth
[] 0 setdash
0 setlinecap
1 setlinejoin
10.00 setmiterlimit
np
38.56 41.10 m
2.74 0 l
o
np
38.56 95.37 m
2.74 0 l
o
np
38.56 149.64 m
2.74 0 l
o
np
38.56 203.90 m
2.74 0 l
o
np
38.56 258.17 m
2.74 0 l
o
0.00 0.00 335.25 274.50 cl
0.00 0.00 335.25 274.50 cl
0.00 0.00 335.25 274.50 cl
0.00 0.00 335.25 274.50 cl
0.00 0.00 335.25 274.50 cl
0.00 0.00 335.25 274.50 cl
0.00 0.00 335.25 274.50 cl
0.00 0.00 335.25 274.50 cl
0.00 0.00 335.25 274.50 cl
0.00 0.00 335.25 274.50 cl
0.2000 0.2000 0.2000 srgb
1.07 setlinewidth
[] 0 setdash
0 setlinecap
1 setlinejoin
10.00 setmiterlimit
np
98.05 27.51 m
0 2.74 l
o
np
155.25 27.51 m
0 2.74 l
o
np
212.45 27.51 m
0 2.74 l
o
0.00 0.00 335.25 274.50 cl
0.00 0.00 335.25 274.50 cl
/Font1 findfont 9 s
0.3020 0.3020 0.3020 srgb
98.05 18.86 (0.05) .5 0 t
155.25 18.86 (0.10) .5 0 t
212.45 18.86 (0.15) .5 0 t
0.00 0.00 335.25 274.50 cl
0.00 0.00 335.25 274.50 cl
0.00 0.00 335.25 274.50 cl
0.00 0.00 335.25 274.50 cl
0.00 0.00 335.25 274.50 cl
0.00 0.00 335.25 274.50 cl
/Font1 findfont 11 s
0 0 0 srgb
155.48 5.48 (time) .5 0 t
0.00 0.00 335.25 274.50 cl
0.00 0.00 335.25 274.50 cl
/Font1 findfont 11 s
0 0 0 srgb
13.38 149.64 (V) .5 90 t
0.00 0.00 335.25 274.50 cl
0.00 0.00 335.25 274.50 cl
0.00 0.00 335.25 274.50 cl
0.00 0.00 335.25 274.50 cl
0.00 0.00 335.25 274.50 cl
0.00 0.00 335.25 274.50 cl
0.00 0.00 335.25 274.50 cl
0.00 0.00 335.25 274.50 cl
/bg { 1 1 1 srgb } def
280.99 104.25 48.78 90.78 r p2
0.00 0.00 335.25 274.50 cl
0.00 0.00 335.25 274.50 cl
/Font5 findfont 11 s
0 0 0 srgb
286.66 183.30 ( ) 0 0 t
289.41 183.30 ( ) 0 0 t
292.16 183.30 (l) 0 0 t
/Font3 findfont 8 s
298.20 181.28 (L) 0 0 t
/Font5 findfont 11 s
302.65 183.30 ( ) 0 0 t
305.40 183.30 (l) 0 0 t
/Font3 findfont 8 s
311.44 181.28 (r) 0 0 t
0.00 0.00 335.25 274.50 cl
0.00 0.00 335.25 274.50 cl
/bg { 0.9490 0.9490 0.9490 srgb } def
1 1 1 srgb
1.07 setlinewidth
[] 0 setdash
1 setlinecap
1 setlinejoin
10.00 setmiterlimit
286.66 161.76 17.28 17.28 r p3
0.00 0.00 335.25 274.50 cl
0.00 0.00 335.25 274.50 cl
1 0.6275 0.4784 srgb
1.07 setlinewidth
[] 0 setdash
0 setlinecap
1 setlinejoin
10.00 setmiterlimit
np
288.39 170.40 m
13.82 0 l
o
0.00 0.00 335.25 274.50 cl
0.00 0.00 335.25 274.50 cl
1 0.6275 0.4784 srgb
1.07 setlinewidth
[] 0 setdash
0 setlinecap
1 setlinejoin
10.00 setmiterlimit
np
288.39 170.40 m
13.82 0 l
o
0.00 0.00 335.25 274.50 cl
0.00 0.00 335.25 274.50 cl
1 0.6275 0.4784 srgb
1.07 setlinewidth
[] 0 setdash
0 setlinecap
1 setlinejoin
10.00 setmiterlimit
np
288.39 170.40 m
13.82 0 l
o
0.00 0.00 335.25 274.50 cl
0.00 0.00 335.25 274.50 cl
1 0.6275 0.4784 srgb
1.07 setlinewidth
[] 0 setdash
0 setlinecap
1 setlinejoin
10.00 setmiterlimit
np
288.39 170.40 m
13.82 0 l
o
0.00 0.00 335.25 274.50 cl
0.00 0.00 335.25 274.50 cl
1 0.6275 0.4784 srgb
1.07 setlinewidth
[ 4.27 4.27] 0 setdash
0 setlinecap
1 setlinejoin
10.00 setmiterlimit
np
288.39 170.40 m
13.82 0 l
o
0.00 0.00 335.25 274.50 cl
0.00 0.00 335.25 274.50 cl
1 0.6275 0.4784 srgb
1.07 setlinewidth
[ 4.27 4.27] 0 setdash
0 setlinecap
1 setlinejoin
10.00 setmiterlimit
np
288.39 170.40 m
13.82 0 l
o
0.00 0.00 335.25 274.50 cl
0.00 0.00 335.25 274.50 cl
1 0.6275 0.4784 srgb
1.07 setlinewidth
[ 4.27 4.27] 0 setdash
0 setlinecap
1 setlinejoin
10.00 setmiterlimit
np
288.39 170.40 m
13.82 0 l
o
0.00 0.00 335.25 274.50 cl
0.00 0.00 335.25 274.50 cl
1 0.6275 0.4784 srgb
1.07 setlinewidth
[ 4.27 4.27] 0 setdash
0 setlinecap
1 setlinejoin
10.00 setmiterlimit
np
288.39 170.40 m
13.82 0 l
o
0.00 0.00 335.25 274.50 cl
0.00 0.00 335.25 274.50 cl
/bg { 0.9490 0.9490 0.9490 srgb } def
1 1 1 srgb
1.07 setlinewidth
[] 0 setdash
1 setlinecap
1 setlinejoin
10.00 setmiterlimit
286.66 144.48 17.28 17.28 r p3
0.00 0.00 335.25 274.50 cl
0.00 0.00 335.25 274.50 cl
0.6078 0.8039 0.6078 srgb
1.07 setlinewidth
[] 0 setdash
0 setlinecap
1 setlinejoin
10.00 setmiterlimit
np
288.39 153.12 m
13.82 0 l
o
0.00 0.00 335.25 274.50 cl
0.00 0.00 335.25 274.50 cl
0.6078 0.8039 0.6078 srgb
1.07 setlinewidth
[] 0 setdash
0 setlinecap
1 setlinejoin
10.00 setmiterlimit
np
288.39 153.12 m
13.82 0 l
o
0.00 0.00 335.25 274.50 cl
0.00 0.00 335.25 274.50 cl
0.6078 0.8039 0.6078 srgb
1.07 setlinewidth
[] 0 setdash
0 setlinecap
1 setlinejoin
10.00 setmiterlimit
np
288.39 153.12 m
13.82 0 l
o
0.00 0.00 335.25 274.50 cl
0.00 0.00 335.25 274.50 cl
0.6078 0.8039 0.6078 srgb
1.07 setlinewidth
[] 0 setdash
0 setlinecap
1 setlinejoin
10.00 setmiterlimit
np
288.39 153.12 m
13.82 0 l
o
0.00 0.00 335.25 274.50 cl
0.00 0.00 335.25 274.50 cl
0.6078 0.8039 0.6078 srgb
1.07 setlinewidth
[ 4.27 4.27] 0 setdash
0 setlinecap
1 setlinejoin
10.00 setmiterlimit
np
288.39 153.12 m
13.82 0 l
o
0.00 0.00 335.25 274.50 cl
0.00 0.00 335.25 274.50 cl
0.6078 0.8039 0.6078 srgb
1.07 setlinewidth
[ 4.27 4.27] 0 setdash
0 setlinecap
1 setlinejoin
10.00 setmiterlimit
np
288.39 153.12 m
13.82 0 l
o
0.00 0.00 335.25 274.50 cl
0.00 0.00 335.25 274.50 cl
0.6078 0.8039 0.6078 srgb
1.07 setlinewidth
[ 4.27 4.27] 0 setdash
0 setlinecap
1 setlinejoin
10.00 setmiterlimit
np
288.39 153.12 m
13.82 0 l
o
0.00 0.00 335.25 274.50 cl
0.00 0.00 335.25 274.50 cl
0.6078 0.8039 0.6078 srgb
1.07 setlinewidth
[ 4.27 4.27] 0 setdash
0 setlinecap
1 setlinejoin
10.00 setmiterlimit
np
288.39 153.12 m
13.82 0 l
o
0.00 0.00 335.25 274.50 cl
0.00 0.00 335.25 274.50 cl
/bg { 0.9490 0.9490 0.9490 srgb } def
1 1 1 srgb
1.07 setlinewidth
[] 0 setdash
1 setlinecap
1 setlinejoin
10.00 setmiterlimit
286.66 127.20 17.28 17.28 r p3
0.00 0.00 335.25 274.50 cl
0.00 0.00 335.25 274.50 cl
0.8039 0.7451 0.4392 srgb
1.07 setlinewidth
[] 0 setdash
0 setlinecap
1 setlinejoin
10.00 setmiterlimit
np
288.39 135.84 m
13.82 0 l
o
0.00 0.00 335.25 274.50 cl
0.00 0.00 335.25 274.50 cl
0.8039 0.7451 0.4392 srgb
1.07 setlinewidth
[] 0 setdash
0 setlinecap
1 setlinejoin
10.00 setmiterlimit
np
288.39 135.84 m
13.82 0 l
o
0.00 0.00 335.25 274.50 cl
0.00 0.00 335.25 274.50 cl
0.8039 0.7451 0.4392 srgb
1.07 setlinewidth
[] 0 setdash
0 setlinecap
1 setlinejoin
10.00 setmiterlimit
np
288.39 135.84 m
13.82 0 l
o
0.00 0.00 335.25 274.50 cl
0.00 0.00 335.25 274.50 cl
0.8039 0.7451 0.4392 srgb
1.07 setlinewidth
[] 0 setdash
0 setlinecap
1 setlinejoin
10.00 setmiterlimit
np
288.39 135.84 m
13.82 0 l
o
0.00 0.00 335.25 274.50 cl
0.00 0.00 335.25 274.50 cl
0.8039 0.7451 0.4392 srgb
1.07 setlinewidth
[ 4.27 4.27] 0 setdash
0 setlinecap
1 setlinejoin
10.00 setmiterlimit
np
288.39 135.84 m
13.82 0 l
o
0.00 0.00 335.25 274.50 cl
0.00 0.00 335.25 274.50 cl
0.8039 0.7451 0.4392 srgb
1.07 setlinewidth
[ 4.27 4.27] 0 setdash
0 setlinecap
1 setlinejoin
10.00 setmiterlimit
np
288.39 135.84 m
13.82 0 l
o
0.00 0.00 335.25 274.50 cl
0.00 0.00 335.25 274.50 cl
0.8039 0.7451 0.4392 srgb
1.07 setlinewidth
[ 4.27 4.27] 0 setdash
0 setlinecap
1 setlinejoin
10.00 setmiterlimit
np
288.39 135.84 m
13.82 0 l
o
0.00 0.00 335.25 274.50 cl
0.00 0.00 335.25 274.50 cl
0.8039 0.7451 0.4392 srgb
1.07 setlinewidth
[ 4.27 4.27] 0 setdash
0 setlinecap
1 setlinejoin
10.00 setmiterlimit
np
288.39 135.84 m
13.82 0 l
o
0.00 0.00 335.25 274.50 cl
0.00 0.00 335.25 274.50 cl
/bg { 0.9490 0.9490 0.9490 srgb } def
1 1 1 srgb
1.07 setlinewidth
[] 0 setdash
1 setlinecap
1 setlinejoin
10.00 setmiterlimit
286.66 109.92 17.28 17.28 r p3
0.00 0.00 335.25 274.50 cl
0.00 0.00 335.25 274.50 cl
0.5294 0.8078 0.9804 srgb
1.07 setlinewidth
[] 0 setdash
0 setlinecap
1 setlinejoin
10.00 setmiterlimit
np
288.39 118.56 m
13.82 0 l
o
0.00 0.00 335.25 274.50 cl
0.00 0.00 335.25 274.50 cl
0.5294 0.8078 0.9804 srgb
1.07 setlinewidth
[] 0 setdash
0 setlinecap
1 setlinejoin
10.00 setmiterlimit
np
288.39 118.56 m
13.82 0 l
o
0.00 0.00 335.25 274.50 cl
0.00 0.00 335.25 274.50 cl
0.5294 0.8078 0.9804 srgb
1.07 setlinewidth
[] 0 setdash
0 setlinecap
1 setlinejoin
10.00 setmiterlimit
np
288.39 118.56 m
13.82 0 l
o
0.00 0.00 335.25 274.50 cl
0.00 0.00 335.25 274.50 cl
0.5294 0.8078 0.9804 srgb
1.07 setlinewidth
[] 0 setdash
0 setlinecap
1 setlinejoin
10.00 setmiterlimit
np
288.39 118.56 m
13.82 0 l
o
0.00 0.00 335.25 274.50 cl
0.00 0.00 335.25 274.50 cl
0.5294 0.8078 0.9804 srgb
1.07 setlinewidth
[ 4.27 4.27] 0 setdash
0 setlinecap
1 setlinejoin
10.00 setmiterlimit
np
288.39 118.56 m
13.82 0 l
o
0.00 0.00 335.25 274.50 cl
0.00 0.00 335.25 274.50 cl
0.5294 0.8078 0.9804 srgb
1.07 setlinewidth
[ 4.27 4.27] 0 setdash
0 setlinecap
1 setlinejoin
10.00 setmiterlimit
np
288.39 118.56 m
13.82 0 l
o
0.00 0.00 335.25 274.50 cl
0.00 0.00 335.25 274.50 cl
0.5294 0.8078 0.9804 srgb
1.07 setlinewidth
[ 4.27 4.27] 0 setdash
0 setlinecap
1 setlinejoin
10.00 setmiterlimit
np
288.39 118.56 m
13.82 0 l
o
0.00 0.00 335.25 274.50 cl
0.00 0.00 335.25 274.50 cl
0.5294 0.8078 0.9804 srgb
1.07 setlinewidth
[ 4.27 4.27] 0 setdash
0 setlinecap
1 setlinejoin
10.00 setmiterlimit
np
288.39 118.56 m
13.82 0 l
o
0.00 0.00 335.25 274.50 cl
0.00 0.00 335.25 274.50 cl
/Font1 findfont 9 s
0 0 0 srgb
306.10 167.16 (2 2) 0 0 t
0.00 0.00 335.25 274.50 cl
0.00 0.00 335.25 274.50 cl
/Font1 findfont 9 s
0 0 0 srgb
306.10 149.88 (2 5) 0 0 t
0.00 0.00 335.25 274.50 cl
0.00 0.00 335.25 274.50 cl
/Font1 findfont 9 s
0 0 0 srgb
306.10 132.60 (2 10) 0 0 t
0.00 0.00 335.25 274.50 cl
0.00 0.00 335.25 274.50 cl
/Font1 findfont 9 s
0 0 0 srgb
306.10 115.32 (2 20) 0 0 t
0.00 0.00 335.25 274.50 cl
0.00 0.00 335.25 274.50 cl
0.00 0.00 335.25 274.50 cl
0.00 0.00 335.25 274.50 cl
0.00 0.00 335.25 274.50 cl
0.00 0.00 335.25 274.50 cl
0.00 0.00 335.25 274.50 cl
0.00 0.00 335.25 274.50 cl
0.00 0.00 335.25 274.50 cl
0.00 0.00 335.25 274.50 cl
ep
%%Trailer
%%Pages: 1
%%EOF
