%!PS-Adobe-3.0 EPSF-3.0
%%DocumentNeededResources: font Helvetica
%%+ font Helvetica-Bold
%%+ font Helvetica-Oblique
%%+ font Helvetica-BoldOblique
%%+ font Symbol
%%Title: R Graphics Output
%%Creator: R Software
%%Pages: (atend)
%%BoundingBox: 0 0 450 300
%%EndComments
%%BeginProlog
/bp  { gs sRGB gs } def
% begin .ps.prolog
/gs  { gsave } bind def
/gr  { grestore } bind def
/ep  { showpage gr gr } bind def
/m   { moveto } bind def
/l  { rlineto } bind def
/np  { newpath } bind def
/cp  { closepath } bind def
/f   { fill } bind def
/o   { stroke } bind def
/c   { newpath 0 360 arc } bind def
/r   { 4 2 roll moveto 1 copy 3 -1 roll exch 0 exch rlineto 0 rlineto -1 mul 0 exch rlineto closepath } bind def
/p1  { stroke } bind def
/p2  { gsave bg fill grestore newpath } bind def
/p3  { gsave bg fill grestore stroke } bind def
/p6  { gsave bg eofill grestore newpath } bind def
/p7  { gsave bg eofill grestore stroke } bind def
/t   { 5 -2 roll moveto gsave rotate
       1 index stringwidth pop
       mul neg 0 rmoveto show grestore } bind def
/ta  { 4 -2 roll moveto gsave rotate show } bind def
/tb  { 2 -1 roll 0 rmoveto show } bind def
/cl  { grestore gsave newpath 3 index 3 index moveto 1 index
       4 -1 roll lineto  exch 1 index lineto lineto
       closepath clip newpath } bind def
/rgb { setrgbcolor } bind def
/s   { scalefont setfont } bind def
% end   .ps.prolog
/sRGB { [ /CIEBasedABC
          << /DecodeLMN
               [ { dup 0.03928 le
                        {12.92321 div}
                        {0.055 add 1.055 div 2.4 exp }
                     ifelse
                 } bind dup dup
               ]
             /MatrixLMN [0.412457 0.212673 0.019334
                         0.357576 0.715152 0.119192
                         0.180437 0.072175 0.950301]
             /WhitePoint [0.9505 1.0 1.0890]
           >>
         ] setcolorspace } bind def
/srgb { setcolor } bind def
% begin encoding
/WinAnsiEncoding [
 /.notdef /.notdef /.notdef /.notdef /.notdef /.notdef /.notdef /.notdef
 /.notdef /.notdef /.notdef /.notdef /.notdef /.notdef /.notdef /.notdef
 /.notdef /.notdef /.notdef /.notdef /.notdef /.notdef /.notdef /.notdef
 /.notdef /.notdef /.notdef /.notdef /.notdef /.notdef /.notdef /.notdef
 /space /exclam /quotedbl /numbersign /dollar /percent /ampersand /quoteright
 /parenleft /parenright /asterisk /plus /comma /minus /period /slash
 /zero /one /two /three /four /five /six /seven
 /eight /nine /colon /semicolon /less /equal /greater /question
 /at /A /B /C /D /E /F /G
 /H /I /J /K /L /M /N /O
 /P /Q /R /S /T /U /V /W
 /X /Y /Z /bracketleft /backslash /bracketright /asciicircum /underscore
 /grave /a /b /c /d /e /f /g
 /h /i /j /k /l /m /n /o
 /p /q /r /s /t /u /v /w
 /x /y /z /braceleft /bar /braceright /asciitilde /.notdef
 /Euro /.notdef /quotesinglbase /florin /quotedblbase /ellipsis /dagger /daggerdbl
 /circumflex /perthousand /Scaron /guilsinglleft /OE /.notdef /Zcaron /.notdef
 /.notdef /quoteleft /quoteright /quotedblleft /quotedblright /bullet /endash /emdash
 /tilde /trademark /scaron /guilsinglright /oe /.notdef /zcaron /Ydieresis
 /space /exclamdown /cent /sterling /currency /yen /brokenbar /section
 /dieresis /copyright /ordfeminine /guillemotleft /logicalnot /hyphen /registered /macron
 /degree /plusminus /twosuperior /threesuperior /acute /mu /paragraph /periodcentered
 /cedilla /onesuperior /ordmasculine /guillemotright /onequarter /onehalf /threequarters /questiondown
 /Agrave /Aacute /Acircumflex /Atilde /Adieresis /Aring /AE /Ccedilla
 /Egrave /Eacute /Ecircumflex /Edieresis /Igrave /Iacute /Icircumflex /Idieresis
 /Eth /Ntilde /Ograve /Oacute /Ocircumflex /Otilde /Odieresis /multiply
 /Oslash /Ugrave /Uacute /Ucircumflex /Udieresis /Yacute /Thorn /germandbls
 /agrave /aacute /acircumflex /atilde /adieresis /aring /ae /ccedilla
 /egrave /eacute /ecircumflex /edieresis /igrave /iacute /icircumflex /idieresis
 /eth /ntilde /ograve /oacute /ocircumflex /otilde /odieresis /divide
 /oslash /ugrave /uacute /ucircumflex /udieresis /yacute /thorn /ydieresis
]
 def
% end encoding
%%IncludeResource: font Helvetica
/Helvetica findfont
dup length dict begin
  {1 index /FID ne {def} {pop pop} ifelse} forall
  /Encoding WinAnsiEncoding def
  currentdict
  end
/Font1 exch definefont pop
%%IncludeResource: font Helvetica-Bold
/Helvetica-Bold findfont
dup length dict begin
  {1 index /FID ne {def} {pop pop} ifelse} forall
  /Encoding WinAnsiEncoding def
  currentdict
  end
/Font2 exch definefont pop
%%IncludeResource: font Helvetica-Oblique
/Helvetica-Oblique findfont
dup length dict begin
  {1 index /FID ne {def} {pop pop} ifelse} forall
  /Encoding WinAnsiEncoding def
  currentdict
  end
/Font3 exch definefont pop
%%IncludeResource: font Helvetica-BoldOblique
/Helvetica-BoldOblique findfont
dup length dict begin
  {1 index /FID ne {def} {pop pop} ifelse} forall
  /Encoding WinAnsiEncoding def
  currentdict
  end
/Font4 exch definefont pop
%%IncludeResource: font Symbol
/Symbol findfont
dup length dict begin
  {1 index /FID ne {def} {pop pop} ifelse} forall
  currentdict
  end
/Font5 exch definefont pop
%%EndProlog
%%Page: 1 1
bp
0.00 0.00 450.00 300.00 cl
0.00 0.00 450.00 300.00 cl
0.00 0.00 450.00 300.00 cl
0.00 0.00 450.00 300.00 cl
0.00 0.00 450.00 300.00 cl
0.00 0.00 450.00 300.00 cl
0.00 0.00 450.00 300.00 cl
0.00 0.00 450.00 300.00 cl
0.00 0.00 450.00 300.00 cl
/bg { 1 1 1 srgb } def
1 1 1 srgb
1.07 setlinewidth
[] 0 setdash
1 setlinecap
1 setlinejoin
10.00 setmiterlimit
0.00 0.00 450.00 300.00 r p3
0.00 0.00 450.00 300.00 cl
41.30 30.25 382.15 294.52 cl
/bg { 0.9216 0.9216 0.9216 srgb } def
41.30 30.25 340.85 264.27 r p2
1 1 1 srgb
0.53 setlinewidth
[] 0 setdash
0 setlinecap
1 setlinejoin
10.00 setmiterlimit
np
41.30 72.29 m
340.85 0 l
o
np
41.30 132.35 m
340.85 0 l
o
np
41.30 192.42 m
340.85 0 l
o
np
41.30 252.48 m
340.85 0 l
o
np
83.31 30.25 m
0 264.27 l
o
np
168.69 30.25 m
0 264.27 l
o
np
254.08 30.25 m
0 264.27 l
o
np
339.46 30.25 m
0 264.27 l
o
1.07 setlinewidth
[] 0 setdash
np
41.30 42.26 m
340.85 0 l
o
np
41.30 102.32 m
340.85 0 l
o
np
41.30 162.39 m
340.85 0 l
o
np
41.30 222.45 m
340.85 0 l
o
np
41.30 282.51 m
340.85 0 l
o
np
126.00 30.25 m
0 264.27 l
o
np
211.39 30.25 m
0 264.27 l
o
np
296.77 30.25 m
0 264.27 l
o
0.5294 0.8078 0.9804 srgb
2.13 setlinewidth
[] 0 setdash
1.00 setmiterlimit
np
41.64 42.26 m
1.03 0 l
1.02 0 l
1.03 0 l
1.02 0 l
1.03 0 l
1.02 0 l
1.03 0 l
1.02 0 l
1.03 0 l
1.02 0 l
1.02 0 l
1.03 0 l
1.02 0 l
1.03 0 l
1.02 0 l
1.03 0 l
1.02 0 l
1.03 0 l
1.02 0 l
1.03 0 l
1.02 0 l
1.03 0.01 l
1.02 0 l
1.02 0 l
1.03 0.01 l
1.02 0.01 l
1.03 0.02 l
1.02 0.02 l
1.03 0.03 l
1.02 0.04 l
1.03 0.05 l
1.02 0.06 l
1.03 0.08 l
1.02 0.10 l
1.03 0.12 l
1.02 0.14 l
1.02 0.17 l
1.03 0.19 l
1.02 0.23 l
1.03 0.26 l
1.02 0.30 l
1.03 0.34 l
1.02 0.37 l
1.03 0.42 l
1.02 0.47 l
1.03 0.51 l
1.02 0.56 l
1.02 0.61 l
1.03 0.66 l
1.02 0.71 l
1.03 0.76 l
1.02 0.81 l
1.03 0.87 l
1.02 0.93 l
1.03 0.97 l
1.02 1.03 l
1.03 1.09 l
1.02 1.14 l
1.03 1.19 l
1.02 1.24 l
1.02 1.29 l
1.03 1.35 l
1.02 1.39 l
1.03 1.44 l
1.02 1.49 l
1.03 1.53 l
1.02 1.58 l
1.03 1.63 l
1.02 1.66 l
1.03 1.71 l
1.02 1.74 l
1.03 1.78 l
1.02 1.82 l
1.02 1.85 l
1.03 1.89 l
1.02 1.91 l
1.03 1.95 l
1.02 1.97 l
1.03 2.00 l
1.02 2.02 l
1.03 2.05 l
1.02 2.07 l
1.03 2.08 l
1.02 2.11 l
1.03 2.12 l
1.02 2.14 l
1.02 2.16 l
1.03 2.16 l
1.02 2.18 l
1.03 2.18 l
1.02 2.20 l
1.03 2.20 l
1.02 2.20 l
1.03 2.22 l
1.02 2.21 l
1.03 2.22 l
1.02 2.21 l
1.02 2.22 l
1.03 2.22 l
144.10 136.14 lineto
1.03 2.21 l
1.02 2.21 l
1.03 2.20 l
1.02 2.20 l
1.03 2.19 l
1.02 2.18 l
1.03 2.17 l
1.02 2.17 l
1.03 2.15 l
1.02 2.14 l
1.02 2.13 l
1.03 2.12 l
1.02 2.11 l
1.03 2.09 l
1.02 2.08 l
1.03 2.06 l
1.02 2.05 l
1.03 2.04 l
1.02 2.01 l
1.03 2.01 l
1.02 1.98 l
1.03 1.97 l
1.02 1.95 l
1.02 1.93 l
1.03 1.91 l
1.02 1.90 l
1.03 1.88 l
1.02 1.85 l
1.03 1.84 l
1.02 1.82 l
1.03 1.80 l
1.02 1.78 l
1.03 1.76 l
1.02 1.74 l
1.03 1.71 l
1.02 1.70 l
1.02 1.68 l
1.03 1.65 l
1.02 1.64 l
1.03 1.61 l
1.02 1.59 l
1.03 1.57 l
1.02 1.55 l
1.03 1.53 l
1.02 1.51 l
1.03 1.49 l
1.02 1.46 l
1.03 1.44 l
1.02 1.42 l
1.02 1.40 l
1.03 1.38 l
1.02 1.36 l
1.03 1.34 l
1.02 1.31 l
1.03 1.30 l
1.02 1.27 l
1.03 1.25 l
1.02 1.23 l
1.03 1.22 l
1.02 1.18 l
1.02 1.17 l
1.03 1.15 l
1.02 1.13 l
1.03 1.11 l
1.02 1.08 l
1.03 1.07 l
1.02 1.05 l
1.03 1.03 l
1.02 1.00 l
1.03 0.99 l
1.02 0.97 l
1.03 0.95 l
1.02 0.93 l
1.02 0.91 l
1.03 0.89 l
1.02 0.87 l
1.03 0.85 l
1.02 0.84 l
1.03 0.82 l
1.02 0.79 l
1.03 0.78 l
1.02 0.77 l
1.03 0.74 l
1.02 0.73 l
1.03 0.71 l
1.02 0.69 l
1.02 0.67 l
1.03 0.66 l
1.02 0.64 l
1.03 0.62 l
1.02 0.61 l
1.03 0.59 l
1.02 0.58 l
1.03 0.55 l
1.02 0.55 l
1.03 0.52 l
1.02 0.51 l
1.03 0.50 l
1.02 0.48 l
246.56 274.53 lineto
1.03 0.45 l
1.02 0.43 l
1.03 0.42 l
1.02 0.41 l
1.03 0.39 l
1.02 0.38 l
1.03 0.36 l
1.02 0.35 l
1.03 0.34 l
1.02 0.32 l
1.02 0.31 l
1.03 0.29 l
1.02 0.29 l
1.03 0.27 l
1.02 0.25 l
1.03 0.25 l
1.02 0.23 l
1.03 0.22 l
1.02 0.20 l
1.03 0.20 l
1.02 0.18 l
1.03 0.17 l
1.02 0.16 l
1.02 0.15 l
1.03 0.14 l
1.02 0.13 l
1.03 0.11 l
1.02 0.11 l
1.03 0.09 l
1.02 0.08 l
1.03 0.07 l
1.02 0.07 l
1.03 0.05 l
1.02 0.04 l
1.03 0.03 l
1.02 0.02 l
1.02 0.02 l
1.03 0 l
1.02 -0.01 l
1.03 -0.01 l
1.02 -0.03 l
1.03 -0.03 l
1.02 -0.05 l
1.03 -0.05 l
1.02 -0.06 l
1.03 -0.07 l
1.02 -0.07 l
1.03 -0.09 l
1.02 -0.09 l
1.02 -0.11 l
1.03 -0.11 l
1.02 -0.11 l
1.03 -0.13 l
1.02 -0.13 l
1.03 -0.14 l
1.02 -0.15 l
1.03 -0.15 l
1.02 -0.17 l
1.03 -0.17 l
1.02 -0.17 l
1.03 -0.18 l
1.02 -0.19 l
1.02 -0.20 l
1.03 -0.20 l
1.02 -0.21 l
1.03 -0.22 l
1.02 -0.22 l
1.03 -0.23 l
1.02 -0.23 l
1.03 -0.24 l
1.02 -0.25 l
1.03 -0.25 l
1.02 -0.26 l
1.02 -0.26 l
1.03 -0.27 l
1.02 -0.27 l
1.03 -0.28 l
1.02 -0.29 l
1.03 -0.28 l
1.02 -0.30 l
1.03 -0.30 l
1.02 -0.30 l
1.03 -0.31 l
1.02 -0.32 l
1.03 -0.31 l
1.02 -0.33 l
1.02 -0.32 l
1.03 -0.34 l
1.02 -0.33 l
1.03 -0.34 l
1.02 -0.35 l
1.03 -0.34 l
1.02 -0.36 l
1.03 -0.35 l
1.02 -0.36 l
1.03 -0.37 l
1.02 -0.37 l
1.03 -0.37 l
1.02 -0.37 l
349.02 268.76 lineto
1.03 -0.38 l
1.02 -0.39 l
1.03 -0.39 l
1.02 -0.39 l
1.03 -0.39 l
1.02 -0.40 l
1.03 -0.40 l
1.02 -0.41 l
1.03 -0.41 l
1.02 -0.41 l
1.03 -0.41 l
1.02 -0.41 l
1.02 -0.42 l
1.03 -0.42 l
1.02 -0.43 l
1.03 -0.42 l
1.02 -0.43 l
1.03 -0.43 l
1.02 -0.44 l
1.03 -0.43 l
1.02 -0.44 l
1.03 -0.44 l
1.02 -0.44 l
1.03 -0.45 l
1.02 -0.45 l
1.02 -0.44 l
1.03 -0.45 l
1.02 -0.46 l
1.03 -0.45 l
1.02 -0.46 l
1.03 -0.46 l
1.02 -0.46 l
o
1 0.6275 0.4784 srgb
1.07 setlinewidth
[] 0 setdash
np
41.64 42.26 m
1.03 0 l
1.02 0 l
1.03 0 l
1.02 0 l
1.03 0 l
1.02 0 l
1.03 0 l
1.02 0 l
1.03 0 l
1.02 0 l
1.02 0 l
1.03 0 l
1.02 0 l
1.03 0 l
1.02 0 l
1.03 0 l
1.02 0 l
1.03 0 l
1.02 0 l
1.03 0 l
1.02 0.01 l
1.03 0 l
1.02 0 l
1.02 0.01 l
1.03 0.01 l
1.02 0.01 l
1.03 0.02 l
1.02 0.03 l
1.03 0.04 l
1.02 0.05 l
1.03 0.07 l
1.02 0.08 l
1.03 0.11 l
1.02 0.13 l
1.03 0.15 l
1.02 0.19 l
1.02 0.22 l
1.03 0.26 l
1.02 0.30 l
1.03 0.35 l
1.02 0.39 l
1.03 0.44 l
1.02 0.49 l
1.03 0.55 l
1.02 0.61 l
1.03 0.67 l
1.02 0.73 l
1.02 0.79 l
1.03 0.86 l
1.02 0.92 l
1.03 0.99 l
1.02 1.06 l
1.03 1.12 l
1.02 1.19 l
1.03 1.26 l
1.02 1.33 l
1.03 1.39 l
1.02 1.46 l
1.03 1.52 l
1.02 1.59 l
1.02 1.65 l
1.03 1.71 l
1.02 1.77 l
1.03 1.83 l
1.02 1.88 l
1.03 1.93 l
1.02 1.99 l
1.03 2.04 l
1.02 2.08 l
1.03 2.14 l
1.02 2.17 l
1.03 2.22 l
1.02 2.25 l
1.02 2.29 l
1.03 2.32 l
1.02 2.36 l
1.03 2.39 l
1.02 2.41 l
1.03 2.44 l
1.02 2.46 l
1.03 2.48 l
1.02 2.51 l
1.03 2.51 l
1.02 2.54 l
1.03 2.54 l
1.02 2.56 l
1.02 2.56 l
1.03 2.57 l
1.02 2.57 l
1.03 2.58 l
1.02 2.58 l
1.03 2.58 l
1.02 2.58 l
1.03 2.57 l
1.02 2.57 l
1.03 2.56 l
1.02 2.55 l
1.02 2.54 l
1.03 2.53 l
144.10 156.99 lineto
1.03 2.51 l
1.02 2.49 l
1.03 2.48 l
1.02 2.46 l
1.03 2.44 l
1.02 2.43 l
1.03 2.40 l
1.02 2.39 l
1.03 2.36 l
1.02 2.34 l
1.02 2.32 l
1.03 2.30 l
1.02 2.27 l
1.03 2.25 l
1.02 2.22 l
1.03 2.20 l
1.02 2.17 l
1.03 2.14 l
1.02 2.12 l
1.03 2.09 l
1.02 2.06 l
1.03 2.03 l
1.02 2.01 l
1.02 1.98 l
1.03 1.94 l
1.02 1.92 l
1.03 1.89 l
1.02 1.86 l
1.03 1.83 l
1.02 1.80 l
1.03 1.78 l
1.02 1.74 l
1.03 1.71 l
1.02 1.68 l
1.03 1.65 l
1.02 1.63 l
1.02 1.59 l
1.03 1.56 l
1.02 1.53 l
1.03 1.51 l
1.02 1.47 l
1.03 1.45 l
1.02 1.41 l
1.03 1.38 l
1.02 1.36 l
1.03 1.33 l
1.02 1.30 l
1.03 1.27 l
1.02 1.24 l
1.02 1.21 l
1.03 1.18 l
1.02 1.16 l
1.03 1.13 l
1.02 1.10 l
1.03 1.07 l
1.02 1.05 l
1.03 1.02 l
1.02 0.99 l
1.03 0.97 l
1.02 0.94 l
1.02 0.91 l
1.03 0.89 l
1.02 0.86 l
1.03 0.84 l
1.02 0.81 l
1.03 0.79 l
1.02 0.76 l
1.03 0.74 l
1.02 0.72 l
1.03 0.69 l
1.02 0.67 l
1.03 0.64 l
1.02 0.62 l
1.02 0.60 l
1.03 0.58 l
1.02 0.56 l
1.03 0.53 l
1.02 0.51 l
1.03 0.49 l
1.02 0.47 l
1.03 0.45 l
1.02 0.43 l
1.03 0.41 l
1.02 0.39 l
1.03 0.37 l
1.02 0.34 l
1.02 0.34 l
1.03 0.31 l
1.02 0.29 l
1.03 0.28 l
1.02 0.25 l
1.03 0.24 l
1.02 0.22 l
1.03 0.21 l
1.02 0.19 l
1.03 0.17 l
1.02 0.15 l
1.03 0.14 l
1.02 0.12 l
246.56 282.19 lineto
1.03 0.09 l
1.02 0.07 l
1.03 0.06 l
1.02 0.05 l
1.03 0.03 l
1.02 0.02 l
1.03 0 l
1.02 -0.01 l
1.03 -0.03 l
1.02 -0.04 l
1.02 -0.05 l
1.03 -0.06 l
1.02 -0.08 l
1.03 -0.09 l
1.02 -0.10 l
1.03 -0.11 l
1.02 -0.13 l
1.03 -0.14 l
1.02 -0.15 l
1.03 -0.16 l
1.02 -0.17 l
1.03 -0.18 l
1.02 -0.20 l
1.02 -0.20 l
1.03 -0.21 l
1.02 -0.23 l
1.03 -0.23 l
1.02 -0.25 l
1.03 -0.25 l
1.02 -0.26 l
1.03 -0.28 l
1.02 -0.28 l
1.03 -0.29 l
1.02 -0.30 l
1.03 -0.30 l
1.02 -0.32 l
1.02 -0.32 l
1.03 -0.33 l
1.02 -0.34 l
1.03 -0.35 l
1.02 -0.36 l
1.03 -0.36 l
1.02 -0.37 l
1.03 -0.38 l
1.02 -0.38 l
1.03 -0.39 l
1.02 -0.40 l
1.03 -0.40 l
1.02 -0.41 l
1.02 -0.42 l
1.03 -0.42 l
1.02 -0.43 l
1.03 -0.44 l
1.02 -0.44 l
1.03 -0.44 l
1.02 -0.46 l
1.03 -0.45 l
1.02 -0.46 l
1.03 -0.47 l
1.02 -0.47 l
1.03 -0.48 l
1.02 -0.48 l
1.02 -0.49 l
1.03 -0.49 l
1.02 -0.50 l
1.03 -0.50 l
1.02 -0.50 l
1.03 -0.51 l
1.02 -0.51 l
1.03 -0.52 l
1.02 -0.52 l
1.03 -0.52 l
1.02 -0.53 l
1.02 -0.53 l
1.03 -0.53 l
1.02 -0.54 l
1.03 -0.54 l
1.02 -0.55 l
1.03 -0.54 l
1.02 -0.55 l
1.03 -0.56 l
1.02 -0.55 l
1.03 -0.56 l
1.02 -0.56 l
1.03 -0.57 l
1.02 -0.56 l
1.02 -0.57 l
1.03 -0.57 l
1.02 -0.57 l
1.03 -0.58 l
1.02 -0.58 l
1.03 -0.58 l
1.02 -0.58 l
1.03 -0.58 l
1.02 -0.59 l
1.03 -0.58 l
1.02 -0.59 l
1.03 -0.59 l
1.02 -0.59 l
349.02 245.89 lineto
1.03 -0.60 l
1.02 -0.59 l
1.03 -0.60 l
1.02 -0.60 l
1.03 -0.60 l
1.02 -0.60 l
1.03 -0.60 l
1.02 -0.60 l
1.03 -0.61 l
1.02 -0.60 l
1.03 -0.61 l
1.02 -0.60 l
1.02 -0.61 l
1.03 -0.61 l
1.02 -0.61 l
1.03 -0.60 l
1.02 -0.61 l
1.03 -0.61 l
1.02 -0.61 l
1.03 -0.61 l
1.02 -0.61 l
1.03 -0.62 l
1.02 -0.61 l
1.03 -0.61 l
1.02 -0.61 l
1.02 -0.61 l
1.03 -0.62 l
1.02 -0.61 l
1.03 -0.61 l
1.02 -0.61 l
1.03 -0.61 l
1.02 -0.62 l
o
0.8039 0.7451 0.4392 srgb
np
41.64 42.26 m
1.03 0 l
1.02 0 l
1.03 0 l
1.02 0 l
1.03 0 l
1.02 0 l
1.03 0 l
1.02 0 l
1.03 0 l
1.02 0 l
1.02 0 l
1.03 0 l
1.02 0 l
1.03 0 l
1.02 0 l
1.03 0 l
1.02 0 l
1.03 0 l
1.02 0 l
1.03 0 l
1.02 0 l
1.03 0.01 l
1.02 0 l
1.02 0 l
1.03 0.01 l
1.02 0.01 l
1.03 0.02 l
1.02 0.02 l
1.03 0.02 l
1.02 0.04 l
1.03 0.05 l
1.02 0.06 l
1.03 0.07 l
1.02 0.09 l
1.03 0.12 l
1.02 0.13 l
1.02 0.16 l
1.03 0.18 l
1.02 0.22 l
1.03 0.25 l
1.02 0.28 l
1.03 0.32 l
1.02 0.35 l
1.03 0.40 l
1.02 0.44 l
1.03 0.48 l
1.02 0.53 l
1.02 0.58 l
1.03 0.62 l
1.02 0.67 l
1.03 0.73 l
1.02 0.77 l
1.03 0.82 l
1.02 0.88 l
1.03 0.92 l
1.02 0.98 l
1.03 1.03 l
1.02 1.08 l
1.03 1.13 l
1.02 1.18 l
1.02 1.22 l
1.03 1.28 l
1.02 1.32 l
1.03 1.37 l
1.02 1.41 l
1.03 1.46 l
1.02 1.50 l
1.03 1.54 l
1.02 1.58 l
1.03 1.62 l
1.02 1.66 l
1.03 1.69 l
1.02 1.72 l
1.02 1.76 l
1.03 1.79 l
1.02 1.82 l
1.03 1.85 l
1.02 1.87 l
1.03 1.90 l
1.02 1.93 l
1.03 1.94 l
1.02 1.97 l
1.03 1.98 l
1.02 2.00 l
1.03 2.02 l
1.02 2.04 l
1.02 2.04 l
1.03 2.06 l
1.02 2.07 l
1.03 2.08 l
1.02 2.09 l
1.03 2.09 l
1.02 2.10 l
1.03 2.11 l
1.02 2.11 l
1.03 2.11 l
1.02 2.11 l
1.02 2.11 l
1.03 2.12 l
144.10 131.46 lineto
1.03 2.10 l
1.02 2.11 l
1.03 2.10 l
1.02 2.09 l
1.03 2.09 l
1.02 2.08 l
1.03 2.08 l
1.02 2.06 l
1.03 2.06 l
1.02 2.05 l
1.02 2.04 l
1.03 2.02 l
1.02 2.02 l
1.03 2.00 l
1.02 1.99 l
1.03 1.98 l
1.02 1.96 l
1.03 1.95 l
1.02 1.94 l
1.03 1.92 l
1.02 1.91 l
1.03 1.89 l
1.02 1.87 l
1.02 1.86 l
1.03 1.85 l
1.02 1.82 l
1.03 1.81 l
1.02 1.79 l
1.03 1.78 l
1.02 1.76 l
1.03 1.74 l
1.02 1.72 l
1.03 1.70 l
1.02 1.69 l
1.03 1.66 l
1.02 1.65 l
1.02 1.63 l
1.03 1.61 l
1.02 1.59 l
1.03 1.58 l
1.02 1.55 l
1.03 1.54 l
1.02 1.51 l
1.03 1.50 l
1.02 1.48 l
1.03 1.46 l
1.02 1.44 l
1.03 1.42 l
1.02 1.40 l
1.02 1.39 l
1.03 1.36 l
1.02 1.34 l
1.03 1.33 l
1.02 1.31 l
1.03 1.29 l
1.02 1.27 l
1.03 1.25 l
1.02 1.23 l
1.03 1.22 l
1.02 1.19 l
1.02 1.18 l
1.03 1.16 l
1.02 1.14 l
1.03 1.12 l
1.02 1.11 l
1.03 1.09 l
1.02 1.07 l
1.03 1.05 l
1.02 1.03 l
1.03 1.02 l
1.02 1.00 l
1.03 0.98 l
1.02 0.97 l
1.02 0.95 l
1.03 0.93 l
1.02 0.91 l
1.03 0.90 l
1.02 0.89 l
1.03 0.86 l
1.02 0.85 l
1.03 0.84 l
1.02 0.81 l
1.03 0.81 l
1.02 0.78 l
1.03 0.77 l
1.02 0.76 l
1.02 0.74 l
1.03 0.73 l
1.02 0.71 l
1.03 0.70 l
1.02 0.68 l
1.03 0.66 l
1.02 0.66 l
1.03 0.64 l
1.02 0.62 l
1.03 0.61 l
1.02 0.60 l
1.03 0.58 l
1.02 0.57 l
246.56 268.53 lineto
1.03 0.54 l
1.02 0.53 l
1.03 0.52 l
1.02 0.51 l
1.03 0.49 l
1.02 0.48 l
1.03 0.47 l
1.02 0.45 l
1.03 0.45 l
1.02 0.43 l
1.02 0.42 l
1.03 0.40 l
1.02 0.40 l
1.03 0.39 l
1.02 0.37 l
1.03 0.36 l
1.02 0.35 l
1.03 0.34 l
1.02 0.33 l
1.03 0.32 l
1.02 0.31 l
1.03 0.30 l
1.02 0.29 l
1.02 0.28 l
1.03 0.27 l
1.02 0.25 l
1.03 0.25 l
1.02 0.24 l
1.03 0.23 l
1.02 0.22 l
1.03 0.21 l
1.02 0.20 l
1.03 0.19 l
1.02 0.19 l
1.03 0.17 l
1.02 0.17 l
1.02 0.16 l
1.03 0.14 l
1.02 0.15 l
1.03 0.13 l
1.02 0.12 l
1.03 0.12 l
1.02 0.11 l
1.03 0.10 l
1.02 0.09 l
1.03 0.08 l
1.02 0.08 l
1.03 0.07 l
1.02 0.06 l
1.02 0.06 l
1.03 0.04 l
1.02 0.05 l
1.03 0.03 l
1.02 0.03 l
1.03 0.02 l
1.02 0.01 l
1.03 0.01 l
1.02 0 l
1.03 -0.01 l
1.02 -0.01 l
1.03 -0.02 l
1.02 -0.02 l
1.02 -0.03 l
1.03 -0.04 l
1.02 -0.04 l
1.03 -0.05 l
1.02 -0.05 l
1.03 -0.06 l
1.02 -0.07 l
1.03 -0.07 l
1.02 -0.08 l
1.03 -0.08 l
1.02 -0.08 l
1.02 -0.10 l
1.03 -0.09 l
1.02 -0.11 l
1.03 -0.10 l
1.02 -0.12 l
1.03 -0.11 l
1.02 -0.12 l
1.03 -0.13 l
1.02 -0.13 l
1.03 -0.14 l
1.02 -0.14 l
1.03 -0.14 l
1.02 -0.15 l
1.02 -0.15 l
1.03 -0.16 l
1.02 -0.16 l
1.03 -0.17 l
1.02 -0.16 l
1.03 -0.18 l
1.02 -0.17 l
1.03 -0.19 l
1.02 -0.18 l
1.03 -0.19 l
1.02 -0.19 l
1.03 -0.20 l
1.02 -0.20 l
349.02 277.72 lineto
1.03 -0.21 l
1.02 -0.21 l
1.03 -0.21 l
1.02 -0.22 l
1.03 -0.21 l
1.02 -0.23 l
1.03 -0.22 l
1.02 -0.23 l
1.03 -0.23 l
1.02 -0.24 l
1.03 -0.24 l
1.02 -0.24 l
1.02 -0.24 l
1.03 -0.25 l
1.02 -0.25 l
1.03 -0.25 l
1.02 -0.25 l
1.03 -0.26 l
1.02 -0.26 l
1.03 -0.26 l
1.02 -0.27 l
1.03 -0.26 l
1.02 -0.27 l
1.03 -0.28 l
1.02 -0.27 l
1.02 -0.28 l
1.03 -0.27 l
1.02 -0.29 l
1.03 -0.28 l
1.02 -0.28 l
1.03 -0.29 l
1.02 -0.29 l
o
0.6078 0.8039 0.6078 srgb
np
41.64 42.26 m
1.03 0 l
1.02 0 l
1.03 0 l
1.02 0 l
1.03 0 l
1.02 0 l
1.03 0 l
1.02 0 l
1.03 0 l
1.02 0 l
1.02 0 l
1.03 0 l
1.02 0 l
1.03 0 l
1.02 0 l
1.03 0 l
1.02 0 l
1.03 0 l
1.02 0 l
1.03 0 l
1.02 0.01 l
1.03 0 l
1.02 0 l
1.02 0.01 l
1.03 0.01 l
1.02 0.02 l
1.03 0.02 l
1.02 0.03 l
1.03 0.04 l
1.02 0.06 l
1.03 0.07 l
1.02 0.09 l
1.03 0.11 l
1.02 0.14 l
1.03 0.17 l
1.02 0.20 l
1.02 0.24 l
1.03 0.28 l
1.02 0.32 l
1.03 0.37 l
1.02 0.42 l
1.03 0.47 l
1.02 0.52 l
1.03 0.59 l
1.02 0.65 l
1.03 0.70 l
1.02 0.78 l
1.02 0.84 l
1.03 0.90 l
1.02 0.98 l
1.03 1.04 l
1.02 1.12 l
1.03 1.18 l
1.02 1.26 l
1.03 1.32 l
1.02 1.39 l
1.03 1.46 l
1.02 1.53 l
1.03 1.59 l
1.02 1.66 l
1.02 1.72 l
1.03 1.78 l
1.02 1.84 l
1.03 1.90 l
1.02 1.96 l
1.03 2.00 l
1.02 2.07 l
1.03 2.11 l
1.02 2.15 l
1.03 2.21 l
1.02 2.24 l
1.03 2.29 l
1.02 2.32 l
1.02 2.36 l
1.03 2.39 l
1.02 2.42 l
1.03 2.45 l
1.02 2.48 l
1.03 2.50 l
1.02 2.52 l
1.03 2.54 l
1.02 2.56 l
1.03 2.57 l
1.02 2.58 l
1.03 2.60 l
1.02 2.60 l
1.02 2.61 l
1.03 2.62 l
1.02 2.61 l
1.03 2.62 l
1.02 2.62 l
1.03 2.61 l
1.02 2.61 l
1.03 2.61 l
1.02 2.59 l
1.03 2.59 l
1.02 2.58 l
1.02 2.57 l
1.03 2.55 l
144.10 160.34 lineto
1.03 2.53 l
1.02 2.51 l
1.03 2.49 l
1.02 2.47 l
1.03 2.45 l
1.02 2.44 l
1.03 2.41 l
1.02 2.39 l
1.03 2.36 l
1.02 2.35 l
1.02 2.32 l
1.03 2.29 l
1.02 2.27 l
1.03 2.24 l
1.02 2.22 l
1.03 2.19 l
1.02 2.16 l
1.03 2.13 l
1.02 2.11 l
1.03 2.07 l
1.02 2.05 l
1.03 2.02 l
1.02 1.98 l
1.02 1.96 l
1.03 1.93 l
1.02 1.90 l
1.03 1.87 l
1.02 1.83 l
1.03 1.81 l
1.02 1.78 l
1.03 1.74 l
1.02 1.72 l
1.03 1.68 l
1.02 1.65 l
1.03 1.63 l
1.02 1.59 l
1.02 1.56 l
1.03 1.53 l
1.02 1.50 l
1.03 1.47 l
1.02 1.44 l
1.03 1.40 l
1.02 1.38 l
1.03 1.35 l
1.02 1.32 l
1.03 1.29 l
1.02 1.26 l
1.03 1.23 l
1.02 1.20 l
1.02 1.17 l
1.03 1.15 l
1.02 1.11 l
1.03 1.09 l
1.02 1.06 l
1.03 1.03 l
1.02 1.01 l
1.03 0.97 l
1.02 0.95 l
1.03 0.92 l
1.02 0.90 l
1.02 0.87 l
1.03 0.84 l
1.02 0.82 l
1.03 0.80 l
1.02 0.76 l
1.03 0.75 l
1.02 0.71 l
1.03 0.70 l
1.02 0.67 l
1.03 0.64 l
1.02 0.63 l
1.03 0.59 l
1.02 0.58 l
1.02 0.55 l
1.03 0.53 l
1.02 0.51 l
1.03 0.49 l
1.02 0.47 l
1.03 0.44 l
1.02 0.42 l
1.03 0.41 l
1.02 0.38 l
1.03 0.36 l
1.02 0.34 l
1.03 0.32 l
1.02 0.31 l
1.02 0.28 l
1.03 0.26 l
1.02 0.25 l
1.03 0.23 l
1.02 0.21 l
1.03 0.19 l
1.02 0.18 l
1.03 0.16 l
1.02 0.14 l
1.03 0.12 l
1.02 0.11 l
1.03 0.09 l
1.02 0.08 l
246.56 282.42 lineto
1.03 0.04 l
1.02 0.03 l
1.03 0.02 l
1.02 0 l
1.03 -0.02 l
1.02 -0.02 l
1.03 -0.05 l
1.02 -0.05 l
1.03 -0.07 l
1.02 -0.08 l
1.02 -0.10 l
1.03 -0.11 l
1.02 -0.12 l
1.03 -0.13 l
1.02 -0.15 l
1.03 -0.16 l
1.02 -0.17 l
1.03 -0.18 l
1.02 -0.19 l
1.03 -0.20 l
1.02 -0.22 l
1.03 -0.22 l
1.02 -0.24 l
1.02 -0.24 l
1.03 -0.26 l
1.02 -0.26 l
1.03 -0.28 l
1.02 -0.28 l
1.03 -0.30 l
1.02 -0.30 l
1.03 -0.31 l
1.02 -0.33 l
1.03 -0.33 l
1.02 -0.33 l
1.03 -0.35 l
1.02 -0.36 l
1.02 -0.36 l
1.03 -0.37 l
1.02 -0.38 l
1.03 -0.38 l
1.02 -0.40 l
1.03 -0.40 l
1.02 -0.41 l
1.03 -0.41 l
1.02 -0.42 l
1.03 -0.43 l
1.02 -0.43 l
1.03 -0.44 l
1.02 -0.45 l
1.02 -0.45 l
1.03 -0.46 l
1.02 -0.47 l
1.03 -0.47 l
1.02 -0.47 l
1.03 -0.48 l
1.02 -0.49 l
1.03 -0.49 l
1.02 -0.50 l
1.03 -0.50 l
1.02 -0.50 l
1.03 -0.51 l
1.02 -0.52 l
1.02 -0.52 l
1.03 -0.52 l
1.02 -0.53 l
1.03 -0.53 l
1.02 -0.54 l
1.03 -0.54 l
1.02 -0.54 l
1.03 -0.55 l
1.02 -0.55 l
1.03 -0.56 l
1.02 -0.55 l
1.02 -0.56 l
1.03 -0.57 l
1.02 -0.57 l
1.03 -0.57 l
1.02 -0.57 l
1.03 -0.57 l
1.02 -0.58 l
1.03 -0.58 l
1.02 -0.59 l
1.03 -0.58 l
1.02 -0.59 l
1.03 -0.59 l
1.02 -0.60 l
1.02 -0.59 l
1.03 -0.60 l
1.02 -0.60 l
1.03 -0.60 l
1.02 -0.60 l
1.03 -0.61 l
1.02 -0.61 l
1.03 -0.60 l
1.02 -0.61 l
1.03 -0.62 l
1.02 -0.61 l
1.03 -0.61 l
1.02 -0.62 l
349.02 242.57 lineto
1.03 -0.62 l
1.02 -0.62 l
1.03 -0.62 l
1.02 -0.62 l
1.03 -0.62 l
1.02 -0.63 l
1.03 -0.62 l
1.02 -0.63 l
1.03 -0.62 l
1.02 -0.63 l
1.03 -0.62 l
1.02 -0.63 l
1.02 -0.63 l
1.03 -0.63 l
1.02 -0.62 l
1.03 -0.63 l
1.02 -0.63 l
1.03 -0.63 l
1.02 -0.63 l
1.03 -0.63 l
1.02 -0.63 l
1.03 -0.63 l
1.02 -0.63 l
1.03 -0.63 l
1.02 -0.63 l
1.02 -0.63 l
1.03 -0.63 l
1.02 -0.63 l
1.03 -0.63 l
1.02 -0.63 l
1.03 -0.63 l
1.02 -0.63 l
o
0.5922 1 1 srgb
np
41.64 42.26 m
1.03 0 l
1.02 0 l
1.03 0 l
1.02 0 l
1.03 0 l
1.02 0 l
1.03 0 l
1.02 0 l
1.03 0 l
1.02 0 l
1.02 0 l
1.03 0 l
1.02 0 l
1.03 0 l
1.02 0 l
1.03 0 l
1.02 0 l
1.03 0 l
1.02 0 l
1.03 0 l
1.02 0.01 l
1.03 0 l
1.02 0 l
1.02 0.01 l
1.03 0.01 l
1.02 0.01 l
1.03 0.02 l
1.02 0.02 l
1.03 0.04 l
1.02 0.04 l
1.03 0.06 l
1.02 0.07 l
1.03 0.10 l
1.02 0.11 l
1.03 0.14 l
1.02 0.16 l
1.02 0.20 l
1.03 0.23 l
1.02 0.26 l
1.03 0.31 l
1.02 0.34 l
1.03 0.40 l
1.02 0.43 l
1.03 0.49 l
1.02 0.54 l
1.03 0.60 l
1.02 0.65 l
1.02 0.70 l
1.03 0.77 l
1.02 0.82 l
1.03 0.89 l
1.02 0.95 l
1.03 1.00 l
1.02 1.07 l
1.03 1.14 l
1.02 1.19 l
1.03 1.26 l
1.02 1.31 l
1.03 1.38 l
1.02 1.44 l
1.02 1.49 l
1.03 1.56 l
1.02 1.60 l
1.03 1.67 l
1.02 1.71 l
1.03 1.77 l
1.02 1.82 l
1.03 1.87 l
1.02 1.91 l
1.03 1.96 l
1.02 2.00 l
1.03 2.04 l
1.02 2.08 l
1.02 2.12 l
1.03 2.15 l
1.02 2.19 l
1.03 2.21 l
1.02 2.25 l
1.03 2.27 l
1.02 2.30 l
1.03 2.32 l
1.02 2.34 l
1.03 2.37 l
1.02 2.38 l
1.03 2.39 l
1.02 2.41 l
1.02 2.42 l
1.03 2.43 l
1.02 2.44 l
1.03 2.45 l
1.02 2.45 l
1.03 2.46 l
1.02 2.46 l
1.03 2.46 l
1.02 2.45 l
1.03 2.46 l
1.02 2.45 l
1.02 2.45 l
1.03 2.44 l
144.10 148.87 lineto
1.03 2.43 l
1.02 2.41 l
1.03 2.41 l
1.02 2.39 l
1.03 2.38 l
1.02 2.37 l
1.03 2.35 l
1.02 2.34 l
1.03 2.32 l
1.02 2.31 l
1.02 2.28 l
1.03 2.27 l
1.02 2.25 l
1.03 2.23 l
1.02 2.21 l
1.03 2.18 l
1.02 2.17 l
1.03 2.14 l
1.02 2.12 l
1.03 2.10 l
1.02 2.07 l
1.03 2.05 l
1.02 2.02 l
1.02 2.00 l
1.03 1.98 l
1.02 1.95 l
1.03 1.92 l
1.02 1.90 l
1.03 1.87 l
1.02 1.84 l
1.03 1.82 l
1.02 1.80 l
1.03 1.76 l
1.02 1.74 l
1.03 1.71 l
1.02 1.69 l
1.02 1.66 l
1.03 1.63 l
1.02 1.60 l
1.03 1.58 l
1.02 1.55 l
1.03 1.52 l
1.02 1.50 l
1.03 1.47 l
1.02 1.44 l
1.03 1.41 l
1.02 1.39 l
1.03 1.36 l
1.02 1.34 l
1.02 1.30 l
1.03 1.28 l
1.02 1.26 l
1.03 1.23 l
1.02 1.20 l
1.03 1.18 l
1.02 1.15 l
1.03 1.12 l
1.02 1.11 l
1.03 1.07 l
1.02 1.05 l
1.02 1.02 l
1.03 1.00 l
1.02 0.98 l
1.03 0.95 l
1.02 0.93 l
1.03 0.90 l
1.02 0.88 l
1.03 0.86 l
1.02 0.83 l
1.03 0.81 l
1.02 0.79 l
1.03 0.76 l
1.02 0.74 l
1.02 0.72 l
1.03 0.70 l
1.02 0.68 l
1.03 0.65 l
1.02 0.64 l
1.03 0.61 l
1.02 0.59 l
1.03 0.57 l
1.02 0.55 l
1.03 0.53 l
1.02 0.51 l
1.03 0.49 l
1.02 0.48 l
1.02 0.45 l
1.03 0.43 l
1.02 0.42 l
1.03 0.40 l
1.02 0.37 l
1.03 0.36 l
1.02 0.35 l
1.03 0.32 l
1.02 0.31 l
1.03 0.29 l
1.02 0.28 l
1.03 0.25 l
1.02 0.24 l
246.56 280.92 lineto
1.03 0.21 l
1.02 0.19 l
1.03 0.18 l
1.02 0.16 l
1.03 0.15 l
1.02 0.13 l
1.03 0.12 l
1.02 0.11 l
1.03 0.09 l
1.02 0.07 l
1.02 0.06 l
1.03 0.05 l
1.02 0.04 l
1.03 0.02 l
1.02 0.01 l
1.03 -0.01 l
1.02 -0.01 l
1.03 -0.03 l
1.02 -0.04 l
1.03 -0.05 l
1.02 -0.07 l
1.03 -0.07 l
1.02 -0.09 l
1.02 -0.10 l
1.03 -0.11 l
1.02 -0.12 l
1.03 -0.13 l
1.02 -0.14 l
1.03 -0.15 l
1.02 -0.17 l
1.03 -0.17 l
1.02 -0.18 l
1.03 -0.19 l
1.02 -0.20 l
1.03 -0.21 l
1.02 -0.22 l
1.02 -0.23 l
1.03 -0.24 l
1.02 -0.24 l
1.03 -0.26 l
1.02 -0.26 l
1.03 -0.27 l
1.02 -0.28 l
1.03 -0.29 l
1.02 -0.29 l
1.03 -0.30 l
1.02 -0.31 l
1.03 -0.32 l
1.02 -0.32 l
1.02 -0.34 l
1.03 -0.33 l
1.02 -0.35 l
1.03 -0.35 l
1.02 -0.36 l
1.03 -0.36 l
1.02 -0.37 l
1.03 -0.38 l
1.02 -0.38 l
1.03 -0.39 l
1.02 -0.39 l
1.03 -0.40 l
1.02 -0.41 l
1.02 -0.41 l
1.03 -0.42 l
1.02 -0.42 l
1.03 -0.42 l
1.02 -0.44 l
1.03 -0.43 l
1.02 -0.44 l
1.03 -0.45 l
1.02 -0.45 l
1.03 -0.45 l
1.02 -0.46 l
1.02 -0.47 l
1.03 -0.46 l
1.02 -0.47 l
1.03 -0.48 l
1.02 -0.48 l
1.03 -0.48 l
1.02 -0.49 l
1.03 -0.49 l
1.02 -0.49 l
1.03 -0.50 l
1.02 -0.50 l
1.03 -0.50 l
1.02 -0.51 l
1.02 -0.51 l
1.03 -0.51 l
1.02 -0.52 l
1.03 -0.52 l
1.02 -0.52 l
1.03 -0.52 l
1.02 -0.53 l
1.03 -0.53 l
1.02 -0.53 l
1.03 -0.53 l
1.02 -0.54 l
1.03 -0.54 l
1.02 -0.54 l
349.02 253.14 lineto
1.03 -0.54 l
1.02 -0.55 l
1.03 -0.55 l
1.02 -0.55 l
1.03 -0.55 l
1.02 -0.55 l
1.03 -0.56 l
1.02 -0.56 l
1.03 -0.56 l
1.02 -0.56 l
1.03 -0.56 l
1.02 -0.56 l
1.02 -0.56 l
1.03 -0.57 l
1.02 -0.57 l
1.03 -0.56 l
1.02 -0.57 l
1.03 -0.57 l
1.02 -0.57 l
1.03 -0.58 l
1.02 -0.57 l
1.03 -0.57 l
1.02 -0.58 l
1.03 -0.57 l
1.02 -0.58 l
1.02 -0.57 l
1.03 -0.58 l
1.02 -0.58 l
1.03 -0.58 l
1.02 -0.58 l
1.03 -0.58 l
1.02 -0.57 l
o
0.5294 0.8078 0.9804 srgb
2.13 setlinewidth
[ 8.54 8.54] 0 setdash
np
41.64 42.26 m
1.03 0 l
1.02 0 l
1.03 0 l
1.02 0 l
1.03 0 l
1.02 0 l
1.03 0 l
1.02 0 l
1.03 0 l
1.02 0 l
1.02 0 l
1.03 0 l
1.02 0 l
1.03 0 l
1.02 0 l
1.03 0 l
1.02 0 l
1.03 0 l
1.02 0 l
1.03 0 l
1.02 0 l
1.03 0.01 l
1.02 0 l
1.02 0 l
1.03 0.01 l
1.02 0.01 l
1.03 0.02 l
1.02 0.02 l
1.03 0.03 l
1.02 0.04 l
1.03 0.05 l
1.02 0.07 l
1.03 0.08 l
1.02 0.10 l
1.03 0.12 l
1.02 0.15 l
1.02 0.17 l
1.03 0.20 l
1.02 0.24 l
1.03 0.27 l
1.02 0.30 l
1.03 0.35 l
1.02 0.38 l
1.03 0.44 l
1.02 0.47 l
1.03 0.53 l
1.02 0.57 l
1.02 0.63 l
1.03 0.67 l
1.02 0.73 l
1.03 0.79 l
1.02 0.83 l
1.03 0.90 l
1.02 0.95 l
1.03 1.00 l
1.02 1.06 l
1.03 1.11 l
1.02 1.17 l
1.03 1.22 l
1.02 1.28 l
1.02 1.33 l
1.03 1.38 l
1.02 1.43 l
1.03 1.48 l
1.02 1.53 l
1.03 1.58 l
1.02 1.62 l
1.03 1.67 l
1.02 1.71 l
1.03 1.75 l
1.02 1.79 l
1.03 1.83 l
1.02 1.87 l
1.02 1.90 l
1.03 1.93 l
1.02 1.97 l
1.03 1.99 l
1.02 2.03 l
1.03 2.05 l
1.02 2.08 l
1.03 2.10 l
1.02 2.12 l
1.03 2.14 l
1.02 2.17 l
1.03 2.17 l
1.02 2.20 l
1.02 2.21 l
1.03 2.22 l
1.02 2.23 l
1.03 2.24 l
1.02 2.25 l
1.03 2.25 l
1.02 2.27 l
1.03 2.26 l
1.02 2.27 l
1.03 2.27 l
1.02 2.27 l
1.02 2.28 l
1.03 2.27 l
144.10 138.60 lineto
1.03 2.26 l
1.02 2.26 l
1.03 2.25 l
1.02 2.25 l
1.03 2.24 l
1.02 2.23 l
1.03 2.22 l
1.02 2.21 l
1.03 2.20 l
1.02 2.18 l
1.02 2.18 l
1.03 2.16 l
1.02 2.15 l
1.03 2.13 l
1.02 2.12 l
1.03 2.10 l
1.02 2.09 l
1.03 2.07 l
1.02 2.05 l
1.03 2.04 l
1.02 2.02 l
1.03 1.99 l
1.02 1.99 l
1.02 1.96 l
1.03 1.94 l
1.02 1.92 l
1.03 1.90 l
1.02 1.88 l
1.03 1.87 l
1.02 1.84 l
1.03 1.81 l
1.02 1.80 l
1.03 1.78 l
1.02 1.75 l
1.03 1.74 l
1.02 1.71 l
1.02 1.68 l
1.03 1.67 l
1.02 1.64 l
1.03 1.63 l
1.02 1.59 l
1.03 1.58 l
1.02 1.56 l
1.03 1.53 l
1.02 1.50 l
1.03 1.49 l
1.02 1.46 l
1.03 1.44 l
1.02 1.42 l
1.02 1.40 l
1.03 1.37 l
1.02 1.35 l
1.03 1.33 l
1.02 1.30 l
1.03 1.29 l
1.02 1.26 l
1.03 1.23 l
1.02 1.22 l
1.03 1.19 l
1.02 1.17 l
1.02 1.15 l
1.03 1.13 l
1.02 1.11 l
1.03 1.08 l
1.02 1.07 l
1.03 1.04 l
1.02 1.02 l
1.03 1.00 l
1.02 0.98 l
1.03 0.96 l
1.02 0.94 l
1.03 0.91 l
1.02 0.90 l
1.02 0.88 l
1.03 0.86 l
1.02 0.83 l
1.03 0.82 l
1.02 0.80 l
1.03 0.78 l
1.02 0.76 l
1.03 0.74 l
1.02 0.72 l
1.03 0.70 l
1.02 0.68 l
1.03 0.67 l
1.02 0.65 l
1.02 0.63 l
1.03 0.61 l
1.02 0.59 l
1.03 0.58 l
1.02 0.56 l
1.03 0.54 l
1.02 0.52 l
1.03 0.51 l
1.02 0.49 l
1.03 0.48 l
1.02 0.46 l
1.03 0.44 l
1.02 0.43 l
246.56 276.62 lineto
1.03 0.40 l
1.02 0.38 l
1.03 0.36 l
1.02 0.35 l
1.03 0.34 l
1.02 0.32 l
1.03 0.30 l
1.02 0.30 l
1.03 0.27 l
1.02 0.27 l
1.02 0.25 l
1.03 0.23 l
1.02 0.23 l
1.03 0.21 l
1.02 0.19 l
1.03 0.19 l
1.02 0.17 l
1.03 0.15 l
1.02 0.15 l
1.03 0.13 l
1.02 0.12 l
1.03 0.11 l
1.02 0.10 l
1.02 0.08 l
1.03 0.08 l
1.02 0.06 l
1.03 0.05 l
1.02 0.04 l
1.03 0.03 l
1.02 0.02 l
1.03 0.01 l
1.02 0 l
1.03 -0.02 l
1.02 -0.02 l
1.03 -0.03 l
1.02 -0.05 l
1.02 -0.05 l
1.03 -0.06 l
1.02 -0.07 l
1.03 -0.08 l
1.02 -0.09 l
1.03 -0.10 l
1.02 -0.11 l
1.03 -0.12 l
1.02 -0.12 l
1.03 -0.14 l
1.02 -0.14 l
1.03 -0.15 l
1.02 -0.16 l
1.02 -0.17 l
1.03 -0.17 l
1.02 -0.18 l
1.03 -0.19 l
1.02 -0.20 l
1.03 -0.20 l
1.02 -0.22 l
1.03 -0.22 l
1.02 -0.22 l
1.03 -0.24 l
1.02 -0.24 l
1.03 -0.24 l
1.02 -0.26 l
1.02 -0.26 l
1.03 -0.26 l
1.02 -0.27 l
1.03 -0.28 l
1.02 -0.29 l
1.03 -0.29 l
1.02 -0.29 l
1.03 -0.31 l
1.02 -0.30 l
1.03 -0.32 l
1.02 -0.32 l
1.02 -0.32 l
1.03 -0.33 l
1.02 -0.34 l
1.03 -0.33 l
1.02 -0.35 l
1.03 -0.35 l
1.02 -0.35 l
1.03 -0.36 l
1.02 -0.37 l
1.03 -0.36 l
1.02 -0.38 l
1.03 -0.37 l
1.02 -0.38 l
1.02 -0.39 l
1.03 -0.39 l
1.02 -0.39 l
1.03 -0.40 l
1.02 -0.40 l
1.03 -0.41 l
1.02 -0.41 l
1.03 -0.41 l
1.02 -0.41 l
1.03 -0.42 l
1.02 -0.43 l
1.03 -0.42 l
1.02 -0.43 l
349.02 264.73 lineto
1.03 -0.44 l
1.02 -0.44 l
1.03 -0.44 l
1.02 -0.45 l
1.03 -0.44 l
1.02 -0.45 l
1.03 -0.46 l
1.02 -0.45 l
1.03 -0.46 l
1.02 -0.46 l
1.03 -0.47 l
1.02 -0.46 l
1.02 -0.47 l
1.03 -0.47 l
1.02 -0.47 l
1.03 -0.48 l
1.02 -0.48 l
1.03 -0.48 l
1.02 -0.48 l
1.03 -0.48 l
1.02 -0.48 l
1.03 -0.49 l
1.02 -0.49 l
1.03 -0.49 l
1.02 -0.49 l
1.02 -0.50 l
1.03 -0.49 l
1.02 -0.50 l
1.03 -0.50 l
1.02 -0.50 l
1.03 -0.50 l
1.02 -0.50 l
o
0.8039 0.7451 0.4392 srgb
1.07 setlinewidth
[ 4.27 4.27] 0 setdash
np
41.64 42.26 m
1.03 0 l
1.02 0 l
1.03 0 l
1.02 0 l
1.03 0 l
1.02 0 l
1.03 0 l
1.02 0 l
1.03 0 l
1.02 0 l
1.02 0 l
1.03 0 l
1.02 0 l
1.03 0 l
1.02 0 l
1.03 0 l
1.02 0 l
1.03 0 l
1.02 0 l
1.03 0 l
1.02 0 l
1.03 0.01 l
1.02 0 l
1.02 0 l
1.03 0.01 l
1.02 0.01 l
1.03 0.02 l
1.02 0.02 l
1.03 0.02 l
1.02 0.04 l
1.03 0.05 l
1.02 0.06 l
1.03 0.07 l
1.02 0.10 l
1.03 0.11 l
1.02 0.14 l
1.02 0.15 l
1.03 0.19 l
1.02 0.22 l
1.03 0.25 l
1.02 0.28 l
1.03 0.32 l
1.02 0.36 l
1.03 0.39 l
1.02 0.45 l
1.03 0.48 l
1.02 0.53 l
1.02 0.58 l
1.03 0.62 l
1.02 0.68 l
1.03 0.72 l
1.02 0.78 l
1.03 0.82 l
1.02 0.88 l
1.03 0.93 l
1.02 0.98 l
1.03 1.03 l
1.02 1.08 l
1.03 1.13 l
1.02 1.18 l
1.02 1.22 l
1.03 1.28 l
1.02 1.32 l
1.03 1.37 l
1.02 1.42 l
1.03 1.45 l
1.02 1.50 l
1.03 1.55 l
1.02 1.58 l
1.03 1.62 l
1.02 1.65 l
1.03 1.70 l
1.02 1.72 l
1.02 1.76 l
1.03 1.79 l
1.02 1.82 l
1.03 1.85 l
1.02 1.87 l
1.03 1.90 l
1.02 1.92 l
1.03 1.95 l
1.02 1.96 l
1.03 1.99 l
1.02 2.00 l
1.03 2.02 l
1.02 2.03 l
1.02 2.05 l
1.03 2.06 l
1.02 2.06 l
1.03 2.08 l
1.02 2.09 l
1.03 2.09 l
1.02 2.10 l
1.03 2.11 l
1.02 2.11 l
1.03 2.11 l
1.02 2.11 l
1.02 2.11 l
1.03 2.11 l
144.10 131.49 lineto
1.03 2.11 l
1.02 2.10 l
1.03 2.10 l
1.02 2.09 l
1.03 2.09 l
1.02 2.08 l
1.03 2.08 l
1.02 2.06 l
1.03 2.06 l
1.02 2.04 l
1.02 2.04 l
1.03 2.03 l
1.02 2.01 l
1.03 2.00 l
1.02 1.99 l
1.03 1.98 l
1.02 1.97 l
1.03 1.94 l
1.02 1.94 l
1.03 1.92 l
1.02 1.91 l
1.03 1.89 l
1.02 1.87 l
1.02 1.86 l
1.03 1.84 l
1.02 1.83 l
1.03 1.81 l
1.02 1.79 l
1.03 1.77 l
1.02 1.76 l
1.03 1.74 l
1.02 1.72 l
1.03 1.70 l
1.02 1.69 l
1.03 1.66 l
1.02 1.65 l
1.02 1.63 l
1.03 1.61 l
1.02 1.59 l
1.03 1.58 l
1.02 1.55 l
1.03 1.54 l
1.02 1.51 l
1.03 1.50 l
1.02 1.48 l
1.03 1.46 l
1.02 1.44 l
1.03 1.42 l
1.02 1.40 l
1.02 1.38 l
1.03 1.37 l
1.02 1.34 l
1.03 1.33 l
1.02 1.30 l
1.03 1.29 l
1.02 1.27 l
1.03 1.25 l
1.02 1.24 l
1.03 1.21 l
1.02 1.20 l
1.02 1.17 l
1.03 1.16 l
1.02 1.15 l
1.03 1.12 l
1.02 1.10 l
1.03 1.09 l
1.02 1.07 l
1.03 1.05 l
1.02 1.04 l
1.03 1.01 l
1.02 1.00 l
1.03 0.99 l
1.02 0.96 l
1.02 0.95 l
1.03 0.93 l
1.02 0.92 l
1.03 0.90 l
1.02 0.88 l
1.03 0.86 l
1.02 0.85 l
1.03 0.84 l
1.02 0.82 l
1.03 0.80 l
1.02 0.78 l
1.03 0.78 l
1.02 0.75 l
1.02 0.74 l
1.03 0.73 l
1.02 0.71 l
1.03 0.70 l
1.02 0.68 l
1.03 0.67 l
1.02 0.65 l
1.03 0.64 l
1.02 0.62 l
1.03 0.61 l
1.02 0.60 l
1.03 0.58 l
1.02 0.57 l
246.56 268.53 lineto
1.03 0.54 l
1.02 0.54 l
1.03 0.51 l
1.02 0.51 l
1.03 0.49 l
1.02 0.48 l
1.03 0.47 l
1.02 0.45 l
1.03 0.45 l
1.02 0.43 l
1.02 0.42 l
1.03 0.41 l
1.02 0.39 l
1.03 0.39 l
1.02 0.37 l
1.03 0.36 l
1.02 0.35 l
1.03 0.34 l
1.02 0.33 l
1.03 0.32 l
1.02 0.31 l
1.03 0.30 l
1.02 0.29 l
1.02 0.28 l
1.03 0.27 l
1.02 0.25 l
1.03 0.25 l
1.02 0.24 l
1.03 0.23 l
1.02 0.22 l
1.03 0.21 l
1.02 0.20 l
1.03 0.19 l
1.02 0.19 l
1.03 0.17 l
1.02 0.17 l
1.02 0.16 l
1.03 0.14 l
1.02 0.15 l
1.03 0.13 l
1.02 0.12 l
1.03 0.12 l
1.02 0.11 l
1.03 0.10 l
1.02 0.09 l
1.03 0.08 l
1.02 0.08 l
1.03 0.07 l
1.02 0.06 l
1.02 0.06 l
1.03 0.04 l
1.02 0.05 l
1.03 0.03 l
1.02 0.03 l
1.03 0.02 l
1.02 0.01 l
1.03 0.01 l
1.02 0 l
1.03 -0.01 l
1.02 -0.01 l
1.03 -0.02 l
1.02 -0.02 l
1.02 -0.03 l
1.03 -0.04 l
1.02 -0.04 l
1.03 -0.05 l
1.02 -0.05 l
1.03 -0.06 l
1.02 -0.07 l
1.03 -0.07 l
1.02 -0.08 l
1.03 -0.08 l
1.02 -0.08 l
1.02 -0.10 l
1.03 -0.09 l
1.02 -0.11 l
1.03 -0.10 l
1.02 -0.12 l
1.03 -0.11 l
1.02 -0.12 l
1.03 -0.13 l
1.02 -0.13 l
1.03 -0.14 l
1.02 -0.14 l
1.03 -0.14 l
1.02 -0.15 l
1.02 -0.15 l
1.03 -0.16 l
1.02 -0.16 l
1.03 -0.17 l
1.02 -0.16 l
1.03 -0.18 l
1.02 -0.17 l
1.03 -0.19 l
1.02 -0.18 l
1.03 -0.19 l
1.02 -0.19 l
1.03 -0.20 l
1.02 -0.20 l
349.02 277.72 lineto
1.03 -0.21 l
1.02 -0.21 l
1.03 -0.21 l
1.02 -0.22 l
1.03 -0.21 l
1.02 -0.23 l
1.03 -0.22 l
1.02 -0.23 l
1.03 -0.23 l
1.02 -0.24 l
1.03 -0.24 l
1.02 -0.24 l
1.02 -0.24 l
1.03 -0.25 l
1.02 -0.25 l
1.03 -0.25 l
1.02 -0.25 l
1.03 -0.26 l
1.02 -0.26 l
1.03 -0.26 l
1.02 -0.27 l
1.03 -0.26 l
1.02 -0.27 l
1.03 -0.28 l
1.02 -0.27 l
1.02 -0.28 l
1.03 -0.27 l
1.02 -0.29 l
1.03 -0.28 l
1.02 -0.28 l
1.03 -0.29 l
1.02 -0.29 l
o
1 0.6275 0.4784 srgb
np
41.64 42.26 m
1.03 0 l
1.02 0 l
1.03 0 l
1.02 0 l
1.03 0 l
1.02 0 l
1.03 0 l
1.02 0 l
1.03 0 l
1.02 0 l
1.02 0 l
1.03 0 l
1.02 0 l
1.03 0 l
1.02 0 l
1.03 0 l
1.02 0 l
1.03 0 l
1.02 0 l
1.03 0 l
1.02 0.01 l
1.03 0 l
1.02 0 l
1.02 0.01 l
1.03 0.01 l
1.02 0.01 l
1.03 0.03 l
1.02 0.03 l
1.03 0.04 l
1.02 0.05 l
1.03 0.07 l
1.02 0.09 l
1.03 0.11 l
1.02 0.13 l
1.03 0.16 l
1.02 0.20 l
1.02 0.23 l
1.03 0.27 l
1.02 0.31 l
1.03 0.35 l
1.02 0.41 l
1.03 0.46 l
1.02 0.51 l
1.03 0.57 l
1.02 0.62 l
1.03 0.69 l
1.02 0.76 l
1.02 0.81 l
1.03 0.89 l
1.02 0.95 l
1.03 1.02 l
1.02 1.09 l
1.03 1.15 l
1.02 1.23 l
1.03 1.30 l
1.02 1.36 l
1.03 1.43 l
1.02 1.50 l
1.03 1.56 l
1.02 1.62 l
1.02 1.69 l
1.03 1.75 l
1.02 1.82 l
1.03 1.86 l
1.02 1.93 l
1.03 1.98 l
1.02 2.03 l
1.03 2.08 l
1.02 2.12 l
1.03 2.17 l
1.02 2.22 l
1.03 2.26 l
1.02 2.29 l
1.02 2.33 l
1.03 2.36 l
1.02 2.40 l
1.03 2.42 l
1.02 2.45 l
1.03 2.48 l
1.02 2.49 l
1.03 2.52 l
1.02 2.53 l
1.03 2.55 l
1.02 2.56 l
1.03 2.58 l
1.02 2.58 l
1.02 2.59 l
1.03 2.60 l
1.02 2.60 l
1.03 2.60 l
1.02 2.60 l
1.03 2.60 l
1.02 2.60 l
1.03 2.59 l
1.02 2.58 l
1.03 2.58 l
1.02 2.57 l
1.02 2.55 l
1.03 2.55 l
144.10 158.89 lineto
1.03 2.51 l
1.02 2.51 l
1.03 2.48 l
1.02 2.47 l
1.03 2.45 l
1.02 2.42 l
1.03 2.41 l
1.02 2.39 l
1.03 2.36 l
1.02 2.35 l
1.02 2.31 l
1.03 2.30 l
1.02 2.27 l
1.03 2.24 l
1.02 2.22 l
1.03 2.19 l
1.02 2.16 l
1.03 2.14 l
1.02 2.11 l
1.03 2.08 l
1.02 2.05 l
1.03 2.02 l
1.02 2.00 l
1.02 1.96 l
1.03 1.94 l
1.02 1.91 l
1.03 1.87 l
1.02 1.85 l
1.03 1.81 l
1.02 1.79 l
1.03 1.76 l
1.02 1.72 l
1.03 1.70 l
1.02 1.66 l
1.03 1.63 l
1.02 1.61 l
1.02 1.57 l
1.03 1.55 l
1.02 1.51 l
1.03 1.48 l
1.02 1.45 l
1.03 1.43 l
1.02 1.39 l
1.03 1.36 l
1.02 1.34 l
1.03 1.30 l
1.02 1.28 l
1.03 1.25 l
1.02 1.21 l
1.02 1.19 l
1.03 1.16 l
1.02 1.14 l
1.03 1.10 l
1.02 1.08 l
1.03 1.05 l
1.02 1.02 l
1.03 1.00 l
1.02 0.96 l
1.03 0.95 l
1.02 0.91 l
1.02 0.89 l
1.03 0.86 l
1.02 0.84 l
1.03 0.82 l
1.02 0.78 l
1.03 0.77 l
1.02 0.73 l
1.03 0.72 l
1.02 0.69 l
1.03 0.66 l
1.02 0.65 l
1.03 0.62 l
1.02 0.59 l
1.02 0.58 l
1.03 0.55 l
1.02 0.53 l
1.03 0.51 l
1.02 0.49 l
1.03 0.46 l
1.02 0.45 l
1.03 0.42 l
1.02 0.40 l
1.03 0.39 l
1.02 0.36 l
1.03 0.35 l
1.02 0.32 l
1.02 0.31 l
1.03 0.28 l
1.02 0.27 l
1.03 0.25 l
1.02 0.23 l
1.03 0.22 l
1.02 0.20 l
1.03 0.18 l
1.02 0.16 l
1.03 0.15 l
1.02 0.13 l
1.03 0.11 l
1.02 0.10 l
246.56 282.32 lineto
1.03 0.07 l
1.02 0.05 l
1.03 0.04 l
1.02 0.02 l
1.03 0.01 l
1.02 -0.01 l
1.03 -0.02 l
1.02 -0.03 l
1.03 -0.05 l
1.02 -0.06 l
1.02 -0.07 l
1.03 -0.09 l
1.02 -0.10 l
1.03 -0.11 l
1.02 -0.13 l
1.03 -0.13 l
1.02 -0.15 l
1.03 -0.16 l
1.02 -0.17 l
1.03 -0.18 l
1.02 -0.19 l
1.03 -0.21 l
1.02 -0.21 l
1.02 -0.23 l
1.03 -0.23 l
1.02 -0.25 l
1.03 -0.25 l
1.02 -0.27 l
1.03 -0.27 l
1.02 -0.28 l
1.03 -0.29 l
1.02 -0.31 l
1.03 -0.31 l
1.02 -0.31 l
1.03 -0.33 l
1.02 -0.34 l
1.02 -0.34 l
1.03 -0.35 l
1.02 -0.36 l
1.03 -0.36 l
1.02 -0.38 l
1.03 -0.38 l
1.02 -0.39 l
1.03 -0.39 l
1.02 -0.40 l
1.03 -0.41 l
1.02 -0.42 l
1.03 -0.42 l
1.02 -0.43 l
1.02 -0.43 l
1.03 -0.44 l
1.02 -0.45 l
1.03 -0.45 l
1.02 -0.46 l
1.03 -0.46 l
1.02 -0.47 l
1.03 -0.47 l
1.02 -0.48 l
1.03 -0.48 l
1.02 -0.49 l
1.03 -0.50 l
1.02 -0.49 l
1.02 -0.51 l
1.03 -0.50 l
1.02 -0.51 l
1.03 -0.52 l
1.02 -0.52 l
1.03 -0.52 l
1.02 -0.53 l
1.03 -0.53 l
1.02 -0.54 l
1.03 -0.53 l
1.02 -0.55 l
1.02 -0.54 l
1.03 -0.55 l
1.02 -0.55 l
1.03 -0.56 l
1.02 -0.55 l
1.03 -0.56 l
1.02 -0.57 l
1.03 -0.56 l
1.02 -0.57 l
1.03 -0.57 l
1.02 -0.58 l
1.03 -0.57 l
1.02 -0.58 l
1.02 -0.58 l
1.03 -0.59 l
1.02 -0.58 l
1.03 -0.59 l
1.02 -0.59 l
1.03 -0.59 l
1.02 -0.59 l
1.03 -0.60 l
1.02 -0.60 l
1.03 -0.59 l
1.02 -0.60 l
1.03 -0.61 l
1.02 -0.60 l
349.02 244.29 lineto
1.03 -0.61 l
1.02 -0.60 l
1.03 -0.61 l
1.02 -0.61 l
1.03 -0.61 l
1.02 -0.61 l
1.03 -0.61 l
1.02 -0.62 l
1.03 -0.61 l
1.02 -0.61 l
1.03 -0.62 l
1.02 -0.61 l
1.02 -0.62 l
1.03 -0.62 l
1.02 -0.62 l
1.03 -0.61 l
1.02 -0.62 l
1.03 -0.62 l
1.02 -0.62 l
1.03 -0.62 l
1.02 -0.62 l
1.03 -0.62 l
1.02 -0.62 l
1.03 -0.62 l
1.02 -0.62 l
1.02 -0.62 l
1.03 -0.62 l
1.02 -0.62 l
1.03 -0.62 l
1.02 -0.62 l
1.03 -0.62 l
1.02 -0.62 l
o
0.6078 0.8039 0.6078 srgb
np
41.64 42.26 m
1.03 0 l
1.02 0 l
1.03 0 l
1.02 0 l
1.03 0 l
1.02 0 l
1.03 0 l
1.02 0 l
1.03 0 l
1.02 0 l
1.02 0 l
1.03 0 l
1.02 0 l
1.03 0 l
1.02 0 l
1.03 0 l
1.02 0 l
1.03 0 l
1.02 0 l
1.03 0 l
1.02 0.01 l
1.03 0 l
1.02 0 l
1.02 0.01 l
1.03 0.01 l
1.02 0.02 l
1.03 0.02 l
1.02 0.03 l
1.03 0.04 l
1.02 0.06 l
1.03 0.07 l
1.02 0.10 l
1.03 0.11 l
1.02 0.14 l
1.03 0.18 l
1.02 0.20 l
1.02 0.24 l
1.03 0.28 l
1.02 0.33 l
1.03 0.37 l
1.02 0.43 l
1.03 0.47 l
1.02 0.54 l
1.03 0.59 l
1.02 0.65 l
1.03 0.72 l
1.02 0.78 l
1.02 0.85 l
1.03 0.91 l
1.02 0.99 l
1.03 1.05 l
1.02 1.13 l
1.03 1.19 l
1.02 1.27 l
1.03 1.33 l
1.02 1.41 l
1.03 1.47 l
1.02 1.54 l
1.03 1.60 l
1.02 1.67 l
1.02 1.73 l
1.03 1.80 l
1.02 1.85 l
1.03 1.91 l
1.02 1.97 l
1.03 2.02 l
1.02 2.08 l
1.03 2.12 l
1.02 2.17 l
1.03 2.21 l
1.02 2.26 l
1.03 2.30 l
1.02 2.33 l
1.02 2.37 l
1.03 2.40 l
1.02 2.44 l
1.03 2.46 l
1.02 2.48 l
1.03 2.51 l
1.02 2.53 l
1.03 2.55 l
1.02 2.57 l
1.03 2.58 l
1.02 2.60 l
1.03 2.60 l
1.02 2.61 l
1.02 2.62 l
1.03 2.62 l
1.02 2.63 l
1.03 2.62 l
1.02 2.63 l
1.03 2.62 l
1.02 2.62 l
1.03 2.61 l
1.02 2.60 l
1.03 2.59 l
1.02 2.59 l
1.02 2.57 l
1.03 2.56 l
144.10 160.94 lineto
1.03 2.53 l
1.02 2.52 l
1.03 2.49 l
1.02 2.48 l
1.03 2.45 l
1.02 2.44 l
1.03 2.41 l
1.02 2.39 l
1.03 2.37 l
1.02 2.35 l
1.02 2.32 l
1.03 2.29 l
1.02 2.27 l
1.03 2.25 l
1.02 2.21 l
1.03 2.19 l
1.02 2.16 l
1.03 2.14 l
1.02 2.10 l
1.03 2.07 l
1.02 2.05 l
1.03 2.02 l
1.02 1.98 l
1.02 1.96 l
1.03 1.93 l
1.02 1.89 l
1.03 1.87 l
1.02 1.83 l
1.03 1.80 l
1.02 1.78 l
1.03 1.74 l
1.02 1.71 l
1.03 1.68 l
1.02 1.65 l
1.03 1.62 l
1.02 1.58 l
1.02 1.56 l
1.03 1.52 l
1.02 1.50 l
1.03 1.46 l
1.02 1.44 l
1.03 1.40 l
1.02 1.37 l
1.03 1.34 l
1.02 1.32 l
1.03 1.28 l
1.02 1.25 l
1.03 1.23 l
1.02 1.19 l
1.02 1.17 l
1.03 1.13 l
1.02 1.11 l
1.03 1.08 l
1.02 1.05 l
1.03 1.03 l
1.02 0.99 l
1.03 0.97 l
1.02 0.94 l
1.03 0.92 l
1.02 0.88 l
1.02 0.87 l
1.03 0.83 l
1.02 0.81 l
1.03 0.79 l
1.02 0.75 l
1.03 0.74 l
1.02 0.71 l
1.03 0.68 l
1.02 0.66 l
1.03 0.64 l
1.02 0.61 l
1.03 0.59 l
1.02 0.57 l
1.02 0.54 l
1.03 0.52 l
1.02 0.50 l
1.03 0.48 l
1.02 0.45 l
1.03 0.44 l
1.02 0.41 l
1.03 0.39 l
1.02 0.37 l
1.03 0.36 l
1.02 0.33 l
1.03 0.31 l
1.02 0.29 l
1.02 0.28 l
1.03 0.25 l
1.02 0.24 l
1.03 0.22 l
1.02 0.20 l
1.03 0.18 l
1.02 0.16 l
1.03 0.15 l
1.02 0.13 l
1.03 0.12 l
1.02 0.09 l
1.03 0.08 l
1.02 0.07 l
246.56 282.45 lineto
1.03 0.03 l
1.02 0.02 l
1.03 0.01 l
1.02 -0.01 l
1.03 -0.03 l
1.02 -0.04 l
1.03 -0.05 l
1.02 -0.06 l
1.03 -0.08 l
1.02 -0.10 l
1.02 -0.10 l
1.03 -0.12 l
1.02 -0.13 l
1.03 -0.15 l
1.02 -0.15 l
1.03 -0.17 l
1.02 -0.18 l
1.03 -0.19 l
1.02 -0.20 l
1.03 -0.22 l
1.02 -0.22 l
1.03 -0.24 l
1.02 -0.24 l
1.02 -0.26 l
1.03 -0.26 l
1.02 -0.28 l
1.03 -0.29 l
1.02 -0.29 l
1.03 -0.31 l
1.02 -0.31 l
1.03 -0.32 l
1.02 -0.33 l
1.03 -0.34 l
1.02 -0.35 l
1.03 -0.36 l
1.02 -0.36 l
1.02 -0.37 l
1.03 -0.38 l
1.02 -0.39 l
1.03 -0.40 l
1.02 -0.40 l
1.03 -0.41 l
1.02 -0.42 l
1.03 -0.42 l
1.02 -0.43 l
1.03 -0.44 l
1.02 -0.44 l
1.03 -0.45 l
1.02 -0.46 l
1.02 -0.46 l
1.03 -0.47 l
1.02 -0.47 l
1.03 -0.48 l
1.02 -0.48 l
1.03 -0.49 l
1.02 -0.50 l
1.03 -0.50 l
1.02 -0.50 l
1.03 -0.51 l
1.02 -0.52 l
1.03 -0.52 l
1.02 -0.52 l
1.02 -0.53 l
1.03 -0.53 l
1.02 -0.54 l
1.03 -0.54 l
1.02 -0.54 l
1.03 -0.55 l
1.02 -0.55 l
1.03 -0.55 l
1.02 -0.56 l
1.03 -0.57 l
1.02 -0.56 l
1.02 -0.57 l
1.03 -0.57 l
1.02 -0.58 l
1.03 -0.57 l
1.02 -0.58 l
1.03 -0.59 l
1.02 -0.58 l
1.03 -0.59 l
1.02 -0.59 l
1.03 -0.60 l
1.02 -0.59 l
1.03 -0.60 l
1.02 -0.60 l
1.02 -0.60 l
1.03 -0.61 l
1.02 -0.60 l
1.03 -0.61 l
1.02 -0.61 l
1.03 -0.61 l
1.02 -0.61 l
1.03 -0.62 l
1.02 -0.62 l
1.03 -0.61 l
1.02 -0.62 l
1.03 -0.62 l
1.02 -0.62 l
349.02 241.72 lineto
1.03 -0.62 l
1.02 -0.63 l
1.03 -0.62 l
1.02 -0.63 l
1.03 -0.63 l
1.02 -0.63 l
1.03 -0.62 l
1.02 -0.63 l
1.03 -0.64 l
1.02 -0.63 l
1.03 -0.63 l
1.02 -0.63 l
1.02 -0.63 l
1.03 -0.64 l
1.02 -0.63 l
1.03 -0.64 l
1.02 -0.63 l
1.03 -0.63 l
1.02 -0.64 l
1.03 -0.63 l
1.02 -0.64 l
1.03 -0.63 l
1.02 -0.64 l
1.03 -0.63 l
1.02 -0.64 l
1.02 -0.63 l
1.03 -0.64 l
1.02 -0.63 l
1.03 -0.64 l
1.02 -0.63 l
1.03 -0.63 l
1.02 -0.64 l
o
0.5922 1 1 srgb
np
41.64 42.26 m
1.03 0 l
1.02 0 l
1.03 0 l
1.02 0 l
1.03 0 l
1.02 0 l
1.03 0 l
1.02 0 l
1.03 0 l
1.02 0 l
1.02 0 l
1.03 0 l
1.02 0 l
1.03 0 l
1.02 0 l
1.03 0 l
1.02 0 l
1.03 0 l
1.02 0 l
1.03 0 l
1.02 0.01 l
1.03 0 l
1.02 0 l
1.02 0.01 l
1.03 0.01 l
1.02 0.01 l
1.03 0.02 l
1.02 0.03 l
1.03 0.03 l
1.02 0.05 l
1.03 0.06 l
1.02 0.08 l
1.03 0.10 l
1.02 0.12 l
1.03 0.14 l
1.02 0.17 l
1.02 0.21 l
1.03 0.24 l
1.02 0.28 l
1.03 0.32 l
1.02 0.36 l
1.03 0.41 l
1.02 0.47 l
1.03 0.51 l
1.02 0.57 l
1.03 0.62 l
1.02 0.68 l
1.02 0.74 l
1.03 0.81 l
1.02 0.86 l
1.03 0.93 l
1.02 0.99 l
1.03 1.06 l
1.02 1.12 l
1.03 1.19 l
1.02 1.25 l
1.03 1.31 l
1.02 1.38 l
1.03 1.44 l
1.02 1.50 l
1.02 1.57 l
1.03 1.62 l
1.02 1.68 l
1.03 1.73 l
1.02 1.79 l
1.03 1.85 l
1.02 1.89 l
1.03 1.95 l
1.02 1.99 l
1.03 2.03 l
1.02 2.09 l
1.03 2.12 l
1.02 2.16 l
1.02 2.20 l
1.03 2.23 l
1.02 2.27 l
1.03 2.30 l
1.02 2.32 l
1.03 2.36 l
1.02 2.37 l
1.03 2.40 l
1.02 2.43 l
1.03 2.43 l
1.02 2.46 l
1.03 2.47 l
1.02 2.48 l
1.02 2.50 l
1.03 2.50 l
1.02 2.51 l
1.03 2.51 l
1.02 2.52 l
1.03 2.52 l
1.02 2.53 l
1.03 2.52 l
1.02 2.51 l
1.03 2.52 l
1.02 2.50 l
1.02 2.50 l
1.03 2.50 l
144.10 152.66 lineto
1.03 2.47 l
1.02 2.47 l
1.03 2.44 l
1.02 2.44 l
1.03 2.42 l
1.02 2.40 l
1.03 2.39 l
1.02 2.36 l
1.03 2.35 l
1.02 2.34 l
1.02 2.31 l
1.03 2.29 l
1.02 2.26 l
1.03 2.25 l
1.02 2.22 l
1.03 2.20 l
1.02 2.18 l
1.03 2.15 l
1.02 2.12 l
1.03 2.11 l
1.02 2.07 l
1.03 2.05 l
1.02 2.02 l
1.02 2.00 l
1.03 1.97 l
1.02 1.94 l
1.03 1.92 l
1.02 1.88 l
1.03 1.86 l
1.02 1.83 l
1.03 1.80 l
1.02 1.78 l
1.03 1.74 l
1.02 1.72 l
1.03 1.69 l
1.02 1.66 l
1.02 1.63 l
1.03 1.61 l
1.02 1.57 l
1.03 1.55 l
1.02 1.51 l
1.03 1.49 l
1.02 1.46 l
1.03 1.44 l
1.02 1.40 l
1.03 1.38 l
1.02 1.34 l
1.03 1.32 l
1.02 1.30 l
1.02 1.26 l
1.03 1.24 l
1.02 1.21 l
1.03 1.18 l
1.02 1.16 l
1.03 1.12 l
1.02 1.11 l
1.03 1.07 l
1.02 1.05 l
1.03 1.02 l
1.02 1.00 l
1.02 0.97 l
1.03 0.95 l
1.02 0.92 l
1.03 0.90 l
1.02 0.87 l
1.03 0.85 l
1.02 0.82 l
1.03 0.80 l
1.02 0.78 l
1.03 0.75 l
1.02 0.73 l
1.03 0.71 l
1.02 0.68 l
1.02 0.66 l
1.03 0.64 l
1.02 0.61 l
1.03 0.60 l
1.02 0.57 l
1.03 0.55 l
1.02 0.54 l
1.03 0.51 l
1.02 0.49 l
1.03 0.47 l
1.02 0.45 l
1.03 0.43 l
1.02 0.41 l
1.02 0.39 l
1.03 0.37 l
1.02 0.36 l
1.03 0.33 l
1.02 0.32 l
1.03 0.30 l
1.02 0.28 l
1.03 0.26 l
1.02 0.25 l
1.03 0.23 l
1.02 0.21 l
1.03 0.20 l
1.02 0.18 l
246.56 281.69 lineto
1.03 0.14 l
1.02 0.14 l
1.03 0.12 l
1.02 0.10 l
1.03 0.09 l
1.02 0.07 l
1.03 0.06 l
1.02 0.05 l
1.03 0.03 l
1.02 0.01 l
1.02 0.01 l
1.03 -0.01 l
1.02 -0.02 l
1.03 -0.04 l
1.02 -0.05 l
1.03 -0.06 l
1.02 -0.07 l
1.03 -0.08 l
1.02 -0.10 l
1.03 -0.11 l
1.02 -0.12 l
1.03 -0.13 l
1.02 -0.14 l
1.02 -0.15 l
1.03 -0.17 l
1.02 -0.17 l
1.03 -0.18 l
1.02 -0.20 l
1.03 -0.20 l
1.02 -0.22 l
1.03 -0.22 l
1.02 -0.23 l
1.03 -0.25 l
1.02 -0.25 l
1.03 -0.26 l
1.02 -0.27 l
1.02 -0.27 l
1.03 -0.29 l
1.02 -0.29 l
1.03 -0.31 l
1.02 -0.31 l
1.03 -0.31 l
1.02 -0.33 l
1.03 -0.33 l
1.02 -0.34 l
1.03 -0.35 l
1.02 -0.36 l
1.03 -0.36 l
1.02 -0.37 l
1.02 -0.37 l
1.03 -0.38 l
1.02 -0.39 l
1.03 -0.39 l
1.02 -0.40 l
1.03 -0.41 l
1.02 -0.41 l
1.03 -0.42 l
1.02 -0.42 l
1.03 -0.43 l
1.02 -0.44 l
1.03 -0.44 l
1.02 -0.44 l
1.02 -0.45 l
1.03 -0.46 l
1.02 -0.45 l
1.03 -0.47 l
1.02 -0.47 l
1.03 -0.47 l
1.02 -0.48 l
1.03 -0.48 l
1.02 -0.48 l
1.03 -0.49 l
1.02 -0.50 l
1.02 -0.50 l
1.03 -0.50 l
1.02 -0.50 l
1.03 -0.51 l
1.02 -0.51 l
1.03 -0.52 l
1.02 -0.52 l
1.03 -0.52 l
1.02 -0.52 l
1.03 -0.53 l
1.02 -0.53 l
1.03 -0.54 l
1.02 -0.53 l
1.02 -0.54 l
1.03 -0.54 l
1.02 -0.55 l
1.03 -0.55 l
1.02 -0.54 l
1.03 -0.56 l
1.02 -0.55 l
1.03 -0.56 l
1.02 -0.55 l
1.03 -0.56 l
1.02 -0.57 l
1.03 -0.56 l
1.02 -0.57 l
349.02 249.56 lineto
1.03 -0.57 l
1.02 -0.58 l
1.03 -0.57 l
1.02 -0.57 l
1.03 -0.58 l
1.02 -0.57 l
1.03 -0.58 l
1.02 -0.58 l
1.03 -0.58 l
1.02 -0.58 l
1.03 -0.59 l
1.02 -0.58 l
1.02 -0.59 l
1.03 -0.58 l
1.02 -0.59 l
1.03 -0.59 l
1.02 -0.59 l
1.03 -0.59 l
1.02 -0.59 l
1.03 -0.59 l
1.02 -0.59 l
1.03 -0.59 l
1.02 -0.59 l
1.03 -0.60 l
1.02 -0.59 l
1.02 -0.59 l
1.03 -0.60 l
1.02 -0.59 l
1.03 -0.60 l
1.02 -0.59 l
1.03 -0.60 l
1.02 -0.59 l
o
/Font3 findfont 11 s
0 0 0 srgb
182.60 91.27 (L) 0 0 t
/Font5 findfont 11 s
192.45 91.27 (=) 0 0 t
/Font1 findfont 11 s
201.03 91.27 (4) 0 0 t
/Font5 findfont 11 s
207.15 91.27 ( ) 0 0 t
/Font1 findfont 11 s
209.90 91.27 (m) 0 0 t
219.06 91.27 (m) 0 0 t
/Font5 findfont 11 s
228.22 91.27 ( ) 0 0 t
230.97 91.27 ( ) 0 0 t
233.72 91.27 ( ) 0 0 t
/Font3 findfont 11 s
236.47 91.27 (b) 0 0 t
/Font5 findfont 11 s
246.32 91.27 (=) 0 0 t
254.90 91.27 ( ) 0 0 t
/Font3 findfont 11 s
257.65 91.27 (c) 0 0 t
/Font5 findfont 11 s
266.59 91.27 (=) 0 0 t
/Font1 findfont 11 s
275.17 91.27 (10) 0 0 t
/Font5 findfont 11 s
287.40 91.27 ( ) 0 0 t
/Font1 findfont 11 s
290.15 91.27 (m) 0 0 t
299.32 91.27 (m) 0 0 t
/Font3 findfont 11 s
194.88 74.46 (L) 0 0 t
/Font5 findfont 11 s
204.73 74.46 (=) 0 0 t
/Font1 findfont 11 s
213.31 74.46 (4) 0 0 t
/Font5 findfont 11 s
219.43 74.46 ( ) 0 0 t
/Font1 findfont 11 s
222.18 74.46 (m) 0 0 t
231.34 74.46 (m) 0 0 t
/Font5 findfont 11 s
240.50 74.46 ( ) 0 0 t
243.25 74.46 ( ) 0 0 t
246.00 74.46 ( ) 0 0 t
/Font3 findfont 11 s
248.75 74.46 (R) 0 0 t
/Font5 findfont 11 s
260.42 74.46 (=) 0 0 t
/Font1 findfont 11 s
269.01 74.46 (5) 0 0 t
/Font5 findfont 11 s
275.12 74.46 ( ) 0 0 t
/Font1 findfont 11 s
277.87 74.46 (m) 0 0 t
287.04 74.46 (m) 0 0 t
/Font3 findfont 11 s
210.29 56.63 (h) 0 0 t
/Font5 findfont 11 s
220.14 56.63 (=) 0 0 t
/Font1 findfont 11 s
228.72 56.63 (10) 0 0 t
/Font5 findfont 11 s
240.95 56.63 ( ) 0 0 t
/Font1 findfont 11 s
243.70 56.63 (W) 0 0 t
0.75 setlinewidth
[] 0 setdash
1 setlinecap
10.00 setmiterlimit
np
255.53 55.24 m
2.87 10.68 l
o
259.84 56.63 (m) 0 0 t
/Font1 findfont 8 s
269.00 62.10 (2) 0 0 t
/Font1 findfont 11 s
273.45 56.63 (K) 0 0 t
0.00 0.00 450.00 300.00 cl
0.00 0.00 450.00 300.00 cl
0.00 0.00 450.00 300.00 cl
0.00 0.00 450.00 300.00 cl
0.00 0.00 450.00 300.00 cl
0.00 0.00 450.00 300.00 cl
0.00 0.00 450.00 300.00 cl
0.00 0.00 450.00 300.00 cl
0.00 0.00 450.00 300.00 cl
0.00 0.00 450.00 300.00 cl
0.00 0.00 450.00 300.00 cl
0.00 0.00 450.00 300.00 cl
0.00 0.00 450.00 300.00 cl
0.00 0.00 450.00 300.00 cl
0.00 0.00 450.00 300.00 cl
0.00 0.00 450.00 300.00 cl
/Font1 findfont 9 s
0.3020 0.3020 0.3020 srgb
36.37 39.03 (0.00) 1 0 t
36.37 99.09 (0.25) 1 0 t
36.37 159.15 (0.50) 1 0 t
36.37 219.22 (0.75) 1 0 t
36.37 279.28 (1.00) 1 0 t
0.00 0.00 450.00 300.00 cl
0.00 0.00 450.00 300.00 cl
0.2000 0.2000 0.2000 srgb
1.07 setlinewidth
[] 0 setdash
0 setlinecap
1 setlinejoin
10.00 setmiterlimit
np
38.56 42.26 m
2.74 0 l
o
np
38.56 102.32 m
2.74 0 l
o
np
38.56 162.39 m
2.74 0 l
o
np
38.56 222.45 m
2.74 0 l
o
np
38.56 282.51 m
2.74 0 l
o
0.00 0.00 450.00 300.00 cl
0.00 0.00 450.00 300.00 cl
0.00 0.00 450.00 300.00 cl
0.00 0.00 450.00 300.00 cl
0.00 0.00 450.00 300.00 cl
0.00 0.00 450.00 300.00 cl
0.00 0.00 450.00 300.00 cl
0.00 0.00 450.00 300.00 cl
0.00 0.00 450.00 300.00 cl
0.00 0.00 450.00 300.00 cl
0.2000 0.2000 0.2000 srgb
1.07 setlinewidth
[] 0 setdash
0 setlinecap
1 setlinejoin
10.00 setmiterlimit
np
126.00 27.51 m
0 2.74 l
o
np
211.39 27.51 m
0 2.74 l
o
np
296.77 27.51 m
0 2.74 l
o
0.00 0.00 450.00 300.00 cl
0.00 0.00 450.00 300.00 cl
/Font1 findfont 9 s
0.3020 0.3020 0.3020 srgb
126.00 18.86 (0.05) .5 0 t
211.39 18.86 (0.10) .5 0 t
296.77 18.86 (0.15) .5 0 t
0.00 0.00 450.00 300.00 cl
0.00 0.00 450.00 300.00 cl
0.00 0.00 450.00 300.00 cl
0.00 0.00 450.00 300.00 cl
0.00 0.00 450.00 300.00 cl
0.00 0.00 450.00 300.00 cl
/Font1 findfont 11 s
0 0 0 srgb
211.73 5.48 (time) .5 0 t
0.00 0.00 450.00 300.00 cl
0.00 0.00 450.00 300.00 cl
/Font1 findfont 11 s
0 0 0 srgb
13.38 162.39 (V) .5 90 t
0.00 0.00 450.00 300.00 cl
0.00 0.00 450.00 300.00 cl
0.00 0.00 450.00 300.00 cl
0.00 0.00 450.00 300.00 cl
0.00 0.00 450.00 300.00 cl
0.00 0.00 450.00 300.00 cl
0.00 0.00 450.00 300.00 cl
0.00 0.00 450.00 300.00 cl
/bg { 1 1 1 srgb } def
393.49 108.36 51.03 108.06 r p2
0.00 0.00 450.00 300.00 cl
0.00 0.00 450.00 300.00 cl
/Font5 findfont 11 s
0 0 0 srgb
399.16 204.69 ( ) 0 0 t
401.91 204.69 ( ) 0 0 t
404.66 204.69 (l) 0 0 t
/Font3 findfont 8 s
410.70 202.67 (L) 0 0 t
/Font5 findfont 11 s
415.15 204.69 ( ) 0 0 t
417.90 204.69 (l) 0 0 t
/Font3 findfont 8 s
423.94 202.67 (r) 0 0 t
0.00 0.00 450.00 300.00 cl
0.00 0.00 450.00 300.00 cl
/bg { 0.9490 0.9490 0.9490 srgb } def
1 1 1 srgb
1.07 setlinewidth
[] 0 setdash
1 setlinecap
1 setlinejoin
10.00 setmiterlimit
399.16 183.15 17.28 17.28 r p3
0.00 0.00 450.00 300.00 cl
0.00 0.00 450.00 300.00 cl
0.8039 0.7451 0.4392 srgb
2.13 setlinewidth
[] 0 setdash
0 setlinecap
1 setlinejoin
10.00 setmiterlimit
np
400.89 191.79 m
13.82 0 l
o
0.00 0.00 450.00 300.00 cl
0.00 0.00 450.00 300.00 cl
0.8039 0.7451 0.4392 srgb
1.07 setlinewidth
[] 0 setdash
0 setlinecap
1 setlinejoin
10.00 setmiterlimit
np
400.89 191.79 m
13.82 0 l
o
0.00 0.00 450.00 300.00 cl
0.00 0.00 450.00 300.00 cl
0.8039 0.7451 0.4392 srgb
1.07 setlinewidth
[] 0 setdash
0 setlinecap
1 setlinejoin
10.00 setmiterlimit
np
400.89 191.79 m
13.82 0 l
o
0.00 0.00 450.00 300.00 cl
0.00 0.00 450.00 300.00 cl
0.8039 0.7451 0.4392 srgb
1.07 setlinewidth
[] 0 setdash
0 setlinecap
1 setlinejoin
10.00 setmiterlimit
np
400.89 191.79 m
13.82 0 l
o
0.00 0.00 450.00 300.00 cl
0.00 0.00 450.00 300.00 cl
0.8039 0.7451 0.4392 srgb
1.07 setlinewidth
[] 0 setdash
0 setlinecap
1 setlinejoin
10.00 setmiterlimit
np
400.89 191.79 m
13.82 0 l
o
0.00 0.00 450.00 300.00 cl
0.00 0.00 450.00 300.00 cl
0.8039 0.7451 0.4392 srgb
2.13 setlinewidth
[ 8.54 8.54] 0 setdash
0 setlinecap
1 setlinejoin
10.00 setmiterlimit
np
400.89 191.79 m
13.82 0 l
o
0.00 0.00 450.00 300.00 cl
0.00 0.00 450.00 300.00 cl
0.8039 0.7451 0.4392 srgb
1.07 setlinewidth
[ 4.27 4.27] 0 setdash
0 setlinecap
1 setlinejoin
10.00 setmiterlimit
np
400.89 191.79 m
13.82 0 l
o
0.00 0.00 450.00 300.00 cl
0.00 0.00 450.00 300.00 cl
0.8039 0.7451 0.4392 srgb
1.07 setlinewidth
[ 4.27 4.27] 0 setdash
0 setlinecap
1 setlinejoin
10.00 setmiterlimit
np
400.89 191.79 m
13.82 0 l
o
0.00 0.00 450.00 300.00 cl
0.00 0.00 450.00 300.00 cl
0.8039 0.7451 0.4392 srgb
1.07 setlinewidth
[ 4.27 4.27] 0 setdash
0 setlinecap
1 setlinejoin
10.00 setmiterlimit
np
400.89 191.79 m
13.82 0 l
o
0.00 0.00 450.00 300.00 cl
0.00 0.00 450.00 300.00 cl
0.8039 0.7451 0.4392 srgb
1.07 setlinewidth
[ 4.27 4.27] 0 setdash
0 setlinecap
1 setlinejoin
10.00 setmiterlimit
np
400.89 191.79 m
13.82 0 l
o
0.00 0.00 450.00 300.00 cl
0.00 0.00 450.00 300.00 cl
/bg { 0.9490 0.9490 0.9490 srgb } def
1 1 1 srgb
1.07 setlinewidth
[] 0 setdash
1 setlinecap
1 setlinejoin
10.00 setmiterlimit
399.16 165.87 17.28 17.28 r p3
0.00 0.00 450.00 300.00 cl
0.00 0.00 450.00 300.00 cl
0.5294 0.8078 0.9804 srgb
2.13 setlinewidth
[] 0 setdash
0 setlinecap
1 setlinejoin
10.00 setmiterlimit
np
400.89 174.51 m
13.82 0 l
o
0.00 0.00 450.00 300.00 cl
0.00 0.00 450.00 300.00 cl
0.5294 0.8078 0.9804 srgb
1.07 setlinewidth
[] 0 setdash
0 setlinecap
1 setlinejoin
10.00 setmiterlimit
np
400.89 174.51 m
13.82 0 l
o
0.00 0.00 450.00 300.00 cl
0.00 0.00 450.00 300.00 cl
0.5294 0.8078 0.9804 srgb
1.07 setlinewidth
[] 0 setdash
0 setlinecap
1 setlinejoin
10.00 setmiterlimit
np
400.89 174.51 m
13.82 0 l
o
0.00 0.00 450.00 300.00 cl
0.00 0.00 450.00 300.00 cl
0.5294 0.8078 0.9804 srgb
1.07 setlinewidth
[] 0 setdash
0 setlinecap
1 setlinejoin
10.00 setmiterlimit
np
400.89 174.51 m
13.82 0 l
o
0.00 0.00 450.00 300.00 cl
0.00 0.00 450.00 300.00 cl
0.5294 0.8078 0.9804 srgb
1.07 setlinewidth
[] 0 setdash
0 setlinecap
1 setlinejoin
10.00 setmiterlimit
np
400.89 174.51 m
13.82 0 l
o
0.00 0.00 450.00 300.00 cl
0.00 0.00 450.00 300.00 cl
0.5294 0.8078 0.9804 srgb
2.13 setlinewidth
[ 8.54 8.54] 0 setdash
0 setlinecap
1 setlinejoin
10.00 setmiterlimit
np
400.89 174.51 m
13.82 0 l
o
0.00 0.00 450.00 300.00 cl
0.00 0.00 450.00 300.00 cl
0.5294 0.8078 0.9804 srgb
1.07 setlinewidth
[ 4.27 4.27] 0 setdash
0 setlinecap
1 setlinejoin
10.00 setmiterlimit
np
400.89 174.51 m
13.82 0 l
o
0.00 0.00 450.00 300.00 cl
0.00 0.00 450.00 300.00 cl
0.5294 0.8078 0.9804 srgb
1.07 setlinewidth
[ 4.27 4.27] 0 setdash
0 setlinecap
1 setlinejoin
10.00 setmiterlimit
np
400.89 174.51 m
13.82 0 l
o
0.00 0.00 450.00 300.00 cl
0.00 0.00 450.00 300.00 cl
0.5294 0.8078 0.9804 srgb
1.07 setlinewidth
[ 4.27 4.27] 0 setdash
0 setlinecap
1 setlinejoin
10.00 setmiterlimit
np
400.89 174.51 m
13.82 0 l
o
0.00 0.00 450.00 300.00 cl
0.00 0.00 450.00 300.00 cl
0.5294 0.8078 0.9804 srgb
1.07 setlinewidth
[ 4.27 4.27] 0 setdash
0 setlinecap
1 setlinejoin
10.00 setmiterlimit
np
400.89 174.51 m
13.82 0 l
o
0.00 0.00 450.00 300.00 cl
0.00 0.00 450.00 300.00 cl
/bg { 0.9490 0.9490 0.9490 srgb } def
1 1 1 srgb
1.07 setlinewidth
[] 0 setdash
1 setlinecap
1 setlinejoin
10.00 setmiterlimit
399.16 148.59 17.28 17.28 r p3
0.00 0.00 450.00 300.00 cl
0.00 0.00 450.00 300.00 cl
0.5922 1 1 srgb
2.13 setlinewidth
[] 0 setdash
0 setlinecap
1 setlinejoin
10.00 setmiterlimit
np
400.89 157.23 m
13.82 0 l
o
0.00 0.00 450.00 300.00 cl
0.00 0.00 450.00 300.00 cl
0.5922 1 1 srgb
1.07 setlinewidth
[] 0 setdash
0 setlinecap
1 setlinejoin
10.00 setmiterlimit
np
400.89 157.23 m
13.82 0 l
o
0.00 0.00 450.00 300.00 cl
0.00 0.00 450.00 300.00 cl
0.5922 1 1 srgb
1.07 setlinewidth
[] 0 setdash
0 setlinecap
1 setlinejoin
10.00 setmiterlimit
np
400.89 157.23 m
13.82 0 l
o
0.00 0.00 450.00 300.00 cl
0.00 0.00 450.00 300.00 cl
0.5922 1 1 srgb
1.07 setlinewidth
[] 0 setdash
0 setlinecap
1 setlinejoin
10.00 setmiterlimit
np
400.89 157.23 m
13.82 0 l
o
0.00 0.00 450.00 300.00 cl
0.00 0.00 450.00 300.00 cl
0.5922 1 1 srgb
1.07 setlinewidth
[] 0 setdash
0 setlinecap
1 setlinejoin
10.00 setmiterlimit
np
400.89 157.23 m
13.82 0 l
o
0.00 0.00 450.00 300.00 cl
0.00 0.00 450.00 300.00 cl
0.5922 1 1 srgb
2.13 setlinewidth
[ 8.54 8.54] 0 setdash
0 setlinecap
1 setlinejoin
10.00 setmiterlimit
np
400.89 157.23 m
13.82 0 l
o
0.00 0.00 450.00 300.00 cl
0.00 0.00 450.00 300.00 cl
0.5922 1 1 srgb
1.07 setlinewidth
[ 4.27 4.27] 0 setdash
0 setlinecap
1 setlinejoin
10.00 setmiterlimit
np
400.89 157.23 m
13.82 0 l
o
0.00 0.00 450.00 300.00 cl
0.00 0.00 450.00 300.00 cl
0.5922 1 1 srgb
1.07 setlinewidth
[ 4.27 4.27] 0 setdash
0 setlinecap
1 setlinejoin
10.00 setmiterlimit
np
400.89 157.23 m
13.82 0 l
o
0.00 0.00 450.00 300.00 cl
0.00 0.00 450.00 300.00 cl
0.5922 1 1 srgb
1.07 setlinewidth
[ 4.27 4.27] 0 setdash
0 setlinecap
1 setlinejoin
10.00 setmiterlimit
np
400.89 157.23 m
13.82 0 l
o
0.00 0.00 450.00 300.00 cl
0.00 0.00 450.00 300.00 cl
0.5922 1 1 srgb
1.07 setlinewidth
[ 4.27 4.27] 0 setdash
0 setlinecap
1 setlinejoin
10.00 setmiterlimit
np
400.89 157.23 m
13.82 0 l
o
0.00 0.00 450.00 300.00 cl
0.00 0.00 450.00 300.00 cl
/bg { 0.9490 0.9490 0.9490 srgb } def
1 1 1 srgb
1.07 setlinewidth
[] 0 setdash
1 setlinecap
1 setlinejoin
10.00 setmiterlimit
399.16 131.31 17.28 17.28 r p3
0.00 0.00 450.00 300.00 cl
0.00 0.00 450.00 300.00 cl
1 0.6275 0.4784 srgb
2.13 setlinewidth
[] 0 setdash
0 setlinecap
1 setlinejoin
10.00 setmiterlimit
np
400.89 139.95 m
13.82 0 l
o
0.00 0.00 450.00 300.00 cl
0.00 0.00 450.00 300.00 cl
1 0.6275 0.4784 srgb
1.07 setlinewidth
[] 0 setdash
0 setlinecap
1 setlinejoin
10.00 setmiterlimit
np
400.89 139.95 m
13.82 0 l
o
0.00 0.00 450.00 300.00 cl
0.00 0.00 450.00 300.00 cl
1 0.6275 0.4784 srgb
1.07 setlinewidth
[] 0 setdash
0 setlinecap
1 setlinejoin
10.00 setmiterlimit
np
400.89 139.95 m
13.82 0 l
o
0.00 0.00 450.00 300.00 cl
0.00 0.00 450.00 300.00 cl
1 0.6275 0.4784 srgb
1.07 setlinewidth
[] 0 setdash
0 setlinecap
1 setlinejoin
10.00 setmiterlimit
np
400.89 139.95 m
13.82 0 l
o
0.00 0.00 450.00 300.00 cl
0.00 0.00 450.00 300.00 cl
1 0.6275 0.4784 srgb
1.07 setlinewidth
[] 0 setdash
0 setlinecap
1 setlinejoin
10.00 setmiterlimit
np
400.89 139.95 m
13.82 0 l
o
0.00 0.00 450.00 300.00 cl
0.00 0.00 450.00 300.00 cl
1 0.6275 0.4784 srgb
2.13 setlinewidth
[ 8.54 8.54] 0 setdash
0 setlinecap
1 setlinejoin
10.00 setmiterlimit
np
400.89 139.95 m
13.82 0 l
o
0.00 0.00 450.00 300.00 cl
0.00 0.00 450.00 300.00 cl
1 0.6275 0.4784 srgb
1.07 setlinewidth
[ 4.27 4.27] 0 setdash
0 setlinecap
1 setlinejoin
10.00 setmiterlimit
np
400.89 139.95 m
13.82 0 l
o
0.00 0.00 450.00 300.00 cl
0.00 0.00 450.00 300.00 cl
1 0.6275 0.4784 srgb
1.07 setlinewidth
[ 4.27 4.27] 0 setdash
0 setlinecap
1 setlinejoin
10.00 setmiterlimit
np
400.89 139.95 m
13.82 0 l
o
0.00 0.00 450.00 300.00 cl
0.00 0.00 450.00 300.00 cl
1 0.6275 0.4784 srgb
1.07 setlinewidth
[ 4.27 4.27] 0 setdash
0 setlinecap
1 setlinejoin
10.00 setmiterlimit
np
400.89 139.95 m
13.82 0 l
o
0.00 0.00 450.00 300.00 cl
0.00 0.00 450.00 300.00 cl
1 0.6275 0.4784 srgb
1.07 setlinewidth
[ 4.27 4.27] 0 setdash
0 setlinecap
1 setlinejoin
10.00 setmiterlimit
np
400.89 139.95 m
13.82 0 l
o
0.00 0.00 450.00 300.00 cl
0.00 0.00 450.00 300.00 cl
/bg { 0.9490 0.9490 0.9490 srgb } def
1 1 1 srgb
1.07 setlinewidth
[] 0 setdash
1 setlinecap
1 setlinejoin
10.00 setmiterlimit
399.16 114.03 17.28 17.28 r p3
0.00 0.00 450.00 300.00 cl
0.00 0.00 450.00 300.00 cl
0.6078 0.8039 0.6078 srgb
2.13 setlinewidth
[] 0 setdash
0 setlinecap
1 setlinejoin
10.00 setmiterlimit
np
400.89 122.67 m
13.82 0 l
o
0.00 0.00 450.00 300.00 cl
0.00 0.00 450.00 300.00 cl
0.6078 0.8039 0.6078 srgb
1.07 setlinewidth
[] 0 setdash
0 setlinecap
1 setlinejoin
10.00 setmiterlimit
np
400.89 122.67 m
13.82 0 l
o
0.00 0.00 450.00 300.00 cl
0.00 0.00 450.00 300.00 cl
0.6078 0.8039 0.6078 srgb
1.07 setlinewidth
[] 0 setdash
0 setlinecap
1 setlinejoin
10.00 setmiterlimit
np
400.89 122.67 m
13.82 0 l
o
0.00 0.00 450.00 300.00 cl
0.00 0.00 450.00 300.00 cl
0.6078 0.8039 0.6078 srgb
1.07 setlinewidth
[] 0 setdash
0 setlinecap
1 setlinejoin
10.00 setmiterlimit
np
400.89 122.67 m
13.82 0 l
o
0.00 0.00 450.00 300.00 cl
0.00 0.00 450.00 300.00 cl
0.6078 0.8039 0.6078 srgb
1.07 setlinewidth
[] 0 setdash
0 setlinecap
1 setlinejoin
10.00 setmiterlimit
np
400.89 122.67 m
13.82 0 l
o
0.00 0.00 450.00 300.00 cl
0.00 0.00 450.00 300.00 cl
0.6078 0.8039 0.6078 srgb
2.13 setlinewidth
[ 8.54 8.54] 0 setdash
0 setlinecap
1 setlinejoin
10.00 setmiterlimit
np
400.89 122.67 m
13.82 0 l
o
0.00 0.00 450.00 300.00 cl
0.00 0.00 450.00 300.00 cl
0.6078 0.8039 0.6078 srgb
1.07 setlinewidth
[ 4.27 4.27] 0 setdash
0 setlinecap
1 setlinejoin
10.00 setmiterlimit
np
400.89 122.67 m
13.82 0 l
o
0.00 0.00 450.00 300.00 cl
0.00 0.00 450.00 300.00 cl
0.6078 0.8039 0.6078 srgb
1.07 setlinewidth
[ 4.27 4.27] 0 setdash
0 setlinecap
1 setlinejoin
10.00 setmiterlimit
np
400.89 122.67 m
13.82 0 l
o
0.00 0.00 450.00 300.00 cl
0.00 0.00 450.00 300.00 cl
0.6078 0.8039 0.6078 srgb
1.07 setlinewidth
[ 4.27 4.27] 0 setdash
0 setlinecap
1 setlinejoin
10.00 setmiterlimit
np
400.89 122.67 m
13.82 0 l
o
0.00 0.00 450.00 300.00 cl
0.00 0.00 450.00 300.00 cl
0.6078 0.8039 0.6078 srgb
1.07 setlinewidth
[ 4.27 4.27] 0 setdash
0 setlinecap
1 setlinejoin
10.00 setmiterlimit
np
400.89 122.67 m
13.82 0 l
o
0.00 0.00 450.00 300.00 cl
0.00 0.00 450.00 300.00 cl
/Font1 findfont 9 s
0 0 0 srgb
418.60 188.55 (2 0.2) 0 0 t
0.00 0.00 450.00 300.00 cl
0.00 0.00 450.00 300.00 cl
/Font1 findfont 9 s
0 0 0 srgb
418.60 171.27 (2 2) 0 0 t
0.00 0.00 450.00 300.00 cl
0.00 0.00 450.00 300.00 cl
/Font1 findfont 9 s
0 0 0 srgb
418.60 153.99 (2 5) 0 0 t
0.00 0.00 450.00 300.00 cl
0.00 0.00 450.00 300.00 cl
/Font1 findfont 9 s
0 0 0 srgb
418.60 136.71 (2 10) 0 0 t
0.00 0.00 450.00 300.00 cl
0.00 0.00 450.00 300.00 cl
/Font1 findfont 9 s
0 0 0 srgb
418.60 119.43 (2 20) 0 0 t
0.00 0.00 450.00 300.00 cl
0.00 0.00 450.00 300.00 cl
0.00 0.00 450.00 300.00 cl
0.00 0.00 450.00 300.00 cl
0.00 0.00 450.00 300.00 cl
0.00 0.00 450.00 300.00 cl
0.00 0.00 450.00 300.00 cl
0.00 0.00 450.00 300.00 cl
0.00 0.00 450.00 300.00 cl
0.00 0.00 450.00 300.00 cl
ep
%%Trailer
%%Pages: 1
%%EOF
