%!PS-Adobe-3.0 EPSF-3.0
%%DocumentNeededResources: font Helvetica
%%+ font Helvetica-Bold
%%+ font Helvetica-Oblique
%%+ font Helvetica-BoldOblique
%%+ font Symbol
%%Title: R Graphics Output
%%Creator: R Software
%%Pages: (atend)
%%BoundingBox: 0 0 450 262
%%EndComments
%%BeginProlog
/bp  { gs sRGB gs } def
% begin .ps.prolog
/gs  { gsave } bind def
/gr  { grestore } bind def
/ep  { showpage gr gr } bind def
/m   { moveto } bind def
/l  { rlineto } bind def
/np  { newpath } bind def
/cp  { closepath } bind def
/f   { fill } bind def
/o   { stroke } bind def
/c   { newpath 0 360 arc } bind def
/r   { 4 2 roll moveto 1 copy 3 -1 roll exch 0 exch rlineto 0 rlineto -1 mul 0 exch rlineto closepath } bind def
/p1  { stroke } bind def
/p2  { gsave bg fill grestore newpath } bind def
/p3  { gsave bg fill grestore stroke } bind def
/p6  { gsave bg eofill grestore newpath } bind def
/p7  { gsave bg eofill grestore stroke } bind def
/t   { 5 -2 roll moveto gsave rotate
       1 index stringwidth pop
       mul neg 0 rmoveto show grestore } bind def
/ta  { 4 -2 roll moveto gsave rotate show } bind def
/tb  { 2 -1 roll 0 rmoveto show } bind def
/cl  { grestore gsave newpath 3 index 3 index moveto 1 index
       4 -1 roll lineto  exch 1 index lineto lineto
       closepath clip newpath } bind def
/rgb { setrgbcolor } bind def
/s   { scalefont setfont } bind def
% end   .ps.prolog
/sRGB { [ /CIEBasedABC
          << /DecodeLMN
               [ { dup 0.03928 le
                        {12.92321 div}
                        {0.055 add 1.055 div 2.4 exp }
                     ifelse
                 } bind dup dup
               ]
             /MatrixLMN [0.412457 0.212673 0.019334
                         0.357576 0.715152 0.119192
                         0.180437 0.072175 0.950301]
             /WhitePoint [0.9505 1.0 1.0890]
           >>
         ] setcolorspace } bind def
/srgb { setcolor } bind def
% begin encoding
/WinAnsiEncoding [
 /.notdef /.notdef /.notdef /.notdef /.notdef /.notdef /.notdef /.notdef
 /.notdef /.notdef /.notdef /.notdef /.notdef /.notdef /.notdef /.notdef
 /.notdef /.notdef /.notdef /.notdef /.notdef /.notdef /.notdef /.notdef
 /.notdef /.notdef /.notdef /.notdef /.notdef /.notdef /.notdef /.notdef
 /space /exclam /quotedbl /numbersign /dollar /percent /ampersand /quoteright
 /parenleft /parenright /asterisk /plus /comma /minus /period /slash
 /zero /one /two /three /four /five /six /seven
 /eight /nine /colon /semicolon /less /equal /greater /question
 /at /A /B /C /D /E /F /G
 /H /I /J /K /L /M /N /O
 /P /Q /R /S /T /U /V /W
 /X /Y /Z /bracketleft /backslash /bracketright /asciicircum /underscore
 /grave /a /b /c /d /e /f /g
 /h /i /j /k /l /m /n /o
 /p /q /r /s /t /u /v /w
 /x /y /z /braceleft /bar /braceright /asciitilde /.notdef
 /Euro /.notdef /quotesinglbase /florin /quotedblbase /ellipsis /dagger /daggerdbl
 /circumflex /perthousand /Scaron /guilsinglleft /OE /.notdef /Zcaron /.notdef
 /.notdef /quoteleft /quoteright /quotedblleft /quotedblright /bullet /endash /emdash
 /tilde /trademark /scaron /guilsinglright /oe /.notdef /zcaron /Ydieresis
 /space /exclamdown /cent /sterling /currency /yen /brokenbar /section
 /dieresis /copyright /ordfeminine /guillemotleft /logicalnot /hyphen /registered /macron
 /degree /plusminus /twosuperior /threesuperior /acute /mu /paragraph /periodcentered
 /cedilla /onesuperior /ordmasculine /guillemotright /onequarter /onehalf /threequarters /questiondown
 /Agrave /Aacute /Acircumflex /Atilde /Adieresis /Aring /AE /Ccedilla
 /Egrave /Eacute /Ecircumflex /Edieresis /Igrave /Iacute /Icircumflex /Idieresis
 /Eth /Ntilde /Ograve /Oacute /Ocircumflex /Otilde /Odieresis /multiply
 /Oslash /Ugrave /Uacute /Ucircumflex /Udieresis /Yacute /Thorn /germandbls
 /agrave /aacute /acircumflex /atilde /adieresis /aring /ae /ccedilla
 /egrave /eacute /ecircumflex /edieresis /igrave /iacute /icircumflex /idieresis
 /eth /ntilde /ograve /oacute /ocircumflex /otilde /odieresis /divide
 /oslash /ugrave /uacute /ucircumflex /udieresis /yacute /thorn /ydieresis
]
 def
% end encoding
%%IncludeResource: font Helvetica
/Helvetica findfont
dup length dict begin
  {1 index /FID ne {def} {pop pop} ifelse} forall
  /Encoding WinAnsiEncoding def
  currentdict
  end
/Font1 exch definefont pop
%%IncludeResource: font Helvetica-Bold
/Helvetica-Bold findfont
dup length dict begin
  {1 index /FID ne {def} {pop pop} ifelse} forall
  /Encoding WinAnsiEncoding def
  currentdict
  end
/Font2 exch definefont pop
%%IncludeResource: font Helvetica-Oblique
/Helvetica-Oblique findfont
dup length dict begin
  {1 index /FID ne {def} {pop pop} ifelse} forall
  /Encoding WinAnsiEncoding def
  currentdict
  end
/Font3 exch definefont pop
%%IncludeResource: font Helvetica-BoldOblique
/Helvetica-BoldOblique findfont
dup length dict begin
  {1 index /FID ne {def} {pop pop} ifelse} forall
  /Encoding WinAnsiEncoding def
  currentdict
  end
/Font4 exch definefont pop
%%IncludeResource: font Symbol
/Symbol findfont
dup length dict begin
  {1 index /FID ne {def} {pop pop} ifelse} forall
  currentdict
  end
/Font5 exch definefont pop
%%EndProlog
%%Page: 1 1
bp
0.00 0.00 450.00 262.50 cl
0.00 0.00 450.00 262.50 cl
0.00 0.00 450.00 262.50 cl
0.00 0.00 450.00 262.50 cl
0.00 0.00 450.00 262.50 cl
0.00 0.00 450.00 262.50 cl
0.00 0.00 450.00 262.50 cl
0.00 0.00 450.00 262.50 cl
0.00 0.00 450.00 262.50 cl
/bg { 1 1 1 srgb } def
1 1 1 srgb
1.07 setlinewidth
[] 0 setdash
1 setlinecap
1 setlinejoin
10.00 setmiterlimit
0.00 0.00 450.00 262.50 r p3
0.00 0.00 450.00 262.50 cl
41.30 30.25 384.40 257.02 cl
/bg { 0.9216 0.9216 0.9216 srgb } def
41.30 30.25 343.10 226.77 r p2
1 1 1 srgb
0.53 setlinewidth
[] 0 setdash
0 setlinecap
1 setlinejoin
10.00 setmiterlimit
np
41.30 66.33 m
343.10 0 l
o
np
41.30 117.87 m
343.10 0 l
o
np
41.30 169.40 m
343.10 0 l
o
np
41.30 220.94 m
343.10 0 l
o
np
83.59 30.25 m
0 226.77 l
o
np
169.54 30.25 m
0 226.77 l
o
np
255.48 30.25 m
0 226.77 l
o
np
341.43 30.25 m
0 226.77 l
o
1.07 setlinewidth
[] 0 setdash
np
41.30 40.56 m
343.10 0 l
o
np
41.30 92.10 m
343.10 0 l
o
np
41.30 143.64 m
343.10 0 l
o
np
41.30 195.17 m
343.10 0 l
o
np
41.30 246.71 m
343.10 0 l
o
np
126.56 30.25 m
0 226.77 l
o
np
212.51 30.25 m
0 226.77 l
o
np
298.46 30.25 m
0 226.77 l
o
1 0.6275 0.4784 srgb
1.00 setmiterlimit
np
41.65 40.56 m
1.03 0 l
1.03 0 l
1.03 0 l
1.03 0 l
1.03 0 l
1.03 0 l
1.04 0 l
1.03 0 l
1.03 0 l
1.03 0 l
1.03 0 l
1.03 0 l
1.03 0 l
1.04 0 l
1.03 0 l
1.03 0 l
1.03 0 l
1.03 0 l
1.03 0 l
1.03 0 l
1.03 0 l
1.04 0 l
1.03 0 l
1.03 0.01 l
1.03 0 l
1.03 0.01 l
1.03 0.02 l
1.03 0.02 l
1.04 0.02 l
1.03 0.03 l
1.03 0.05 l
1.03 0.05 l
1.03 0.07 l
1.03 0.08 l
1.03 0.11 l
1.04 0.12 l
1.03 0.14 l
1.03 0.17 l
1.03 0.20 l
1.03 0.22 l
1.03 0.26 l
1.03 0.28 l
1.03 0.33 l
1.04 0.36 l
1.03 0.40 l
1.03 0.43 l
1.03 0.48 l
1.03 0.53 l
1.03 0.56 l
1.03 0.61 l
1.04 0.66 l
1.03 0.70 l
1.03 0.74 l
1.03 0.79 l
1.03 0.84 l
1.03 0.89 l
1.03 0.93 l
1.04 0.97 l
1.03 1.02 l
1.03 1.07 l
1.03 1.11 l
1.03 1.15 l
1.03 1.20 l
1.03 1.24 l
1.03 1.27 l
1.04 1.32 l
1.03 1.36 l
1.03 1.39 l
1.03 1.43 l
1.03 1.46 l
1.03 1.50 l
1.03 1.53 l
1.04 1.56 l
1.03 1.59 l
1.03 1.61 l
1.03 1.65 l
1.03 1.66 l
1.03 1.70 l
1.03 1.71 l
1.04 1.74 l
1.03 1.75 l
1.03 1.78 l
1.03 1.79 l
1.03 1.81 l
1.03 1.82 l
1.03 1.84 l
1.04 1.84 l
1.03 1.86 l
1.03 1.87 l
1.03 1.87 l
1.03 1.89 l
1.03 1.88 l
1.03 1.90 l
1.03 1.90 l
1.04 1.90 l
1.03 1.90 l
1.03 1.90 l
1.03 1.90 l
1.03 1.91 l
144.78 121.12 lineto
1.03 1.89 l
1.04 1.90 l
1.03 1.89 l
1.03 1.88 l
1.03 1.88 l
1.03 1.87 l
1.03 1.87 l
1.03 1.85 l
1.04 1.85 l
1.03 1.84 l
1.03 1.83 l
1.03 1.82 l
1.03 1.80 l
1.03 1.80 l
1.03 1.78 l
1.03 1.77 l
1.04 1.76 l
1.03 1.75 l
1.03 1.73 l
1.03 1.72 l
1.03 1.70 l
1.03 1.69 l
1.03 1.67 l
1.04 1.66 l
1.03 1.64 l
1.03 1.63 l
1.03 1.61 l
1.03 1.59 l
1.03 1.58 l
1.03 1.56 l
1.04 1.54 l
1.03 1.53 l
1.03 1.51 l
1.03 1.49 l
1.03 1.48 l
1.03 1.45 l
1.03 1.44 l
1.03 1.42 l
1.04 1.40 l
1.03 1.39 l
1.03 1.36 l
1.03 1.35 l
1.03 1.33 l
1.03 1.31 l
1.03 1.30 l
1.04 1.27 l
1.03 1.26 l
1.03 1.24 l
1.03 1.22 l
1.03 1.20 l
1.03 1.18 l
1.03 1.17 l
1.04 1.14 l
1.03 1.13 l
1.03 1.11 l
1.03 1.10 l
1.03 1.07 l
1.03 1.06 l
1.03 1.04 l
1.03 1.02 l
1.04 1.00 l
1.03 0.99 l
1.03 0.96 l
1.03 0.95 l
1.03 0.94 l
1.03 0.91 l
1.03 0.90 l
1.04 0.88 l
1.03 0.87 l
1.03 0.84 l
1.03 0.83 l
1.03 0.82 l
1.03 0.80 l
1.03 0.78 l
1.04 0.76 l
1.03 0.75 l
1.03 0.73 l
1.03 0.72 l
1.03 0.70 l
1.03 0.68 l
1.03 0.67 l
1.03 0.66 l
1.04 0.64 l
1.03 0.62 l
1.03 0.61 l
1.03 0.59 l
1.03 0.58 l
1.03 0.56 l
1.03 0.55 l
1.04 0.54 l
1.03 0.52 l
1.03 0.51 l
1.03 0.49 l
1.03 0.48 l
1.03 0.47 l
1.03 0.45 l
1.04 0.44 l
1.03 0.42 l
1.03 0.41 l
247.92 239.86 lineto
1.03 0.39 l
1.03 0.37 l
1.03 0.36 l
1.03 0.35 l
1.04 0.34 l
1.03 0.32 l
1.03 0.31 l
1.03 0.30 l
1.03 0.29 l
1.03 0.28 l
1.03 0.26 l
1.04 0.26 l
1.03 0.24 l
1.03 0.23 l
1.03 0.22 l
1.03 0.21 l
1.03 0.20 l
1.03 0.19 l
1.04 0.18 l
1.03 0.16 l
1.03 0.16 l
1.03 0.15 l
1.03 0.14 l
1.03 0.12 l
1.03 0.12 l
1.03 0.11 l
1.04 0.10 l
1.03 0.09 l
1.03 0.08 l
1.03 0.07 l
1.03 0.06 l
1.03 0.05 l
1.03 0.05 l
1.04 0.03 l
1.03 0.03 l
1.03 0.02 l
1.03 0.01 l
1.03 0 l
1.03 0 l
1.03 -0.02 l
1.04 -0.02 l
1.03 -0.03 l
1.03 -0.03 l
1.03 -0.05 l
1.03 -0.05 l
1.03 -0.06 l
1.03 -0.07 l
1.03 -0.07 l
1.04 -0.08 l
1.03 -0.09 l
1.03 -0.09 l
1.03 -0.10 l
1.03 -0.11 l
1.03 -0.11 l
1.03 -0.12 l
1.04 -0.13 l
1.03 -0.13 l
1.03 -0.14 l
1.03 -0.15 l
1.03 -0.15 l
1.03 -0.16 l
1.03 -0.16 l
1.04 -0.17 l
1.03 -0.17 l
1.03 -0.18 l
1.03 -0.19 l
1.03 -0.19 l
1.03 -0.19 l
1.03 -0.20 l
1.03 -0.21 l
1.04 -0.21 l
1.03 -0.22 l
1.03 -0.22 l
1.03 -0.22 l
1.03 -0.23 l
1.03 -0.24 l
1.03 -0.24 l
1.04 -0.24 l
1.03 -0.25 l
1.03 -0.25 l
1.03 -0.26 l
1.03 -0.26 l
1.03 -0.26 l
1.03 -0.27 l
1.04 -0.28 l
1.03 -0.27 l
1.03 -0.29 l
1.03 -0.28 l
1.03 -0.29 l
1.03 -0.29 l
1.03 -0.30 l
1.03 -0.29 l
1.04 -0.31 l
1.03 -0.30 l
1.03 -0.31 l
1.03 -0.31 l
1.03 -0.32 l
1.03 -0.32 l
1.03 -0.32 l
351.06 234.91 lineto
1.03 -0.32 l
1.03 -0.33 l
1.03 -0.34 l
1.03 -0.33 l
1.03 -0.34 l
1.03 -0.34 l
1.04 -0.35 l
1.03 -0.35 l
1.03 -0.35 l
1.03 -0.35 l
1.03 -0.35 l
1.03 -0.36 l
1.03 -0.36 l
1.04 -0.36 l
1.03 -0.36 l
1.03 -0.37 l
1.03 -0.37 l
1.03 -0.37 l
1.03 -0.37 l
1.03 -0.37 l
1.03 -0.38 l
1.04 -0.38 l
1.03 -0.38 l
1.03 -0.38 l
1.03 -0.38 l
1.03 -0.39 l
1.03 -0.38 l
1.03 -0.39 l
1.04 -0.39 l
1.03 -0.39 l
1.03 -0.40 l
1.03 -0.39 l
o
0.8039 0.7451 0.4392 srgb
np
41.65 40.56 m
1.03 0 l
1.03 0 l
1.03 0 l
1.03 0 l
1.03 0 l
1.03 0 l
1.04 0 l
1.03 0 l
1.03 0 l
1.03 0 l
1.03 0 l
1.03 0 l
1.03 0 l
1.04 0 l
1.03 0 l
1.03 0 l
1.03 0 l
1.03 0 l
1.03 0 l
1.03 0 l
1.03 0 l
1.04 0 l
1.03 0.01 l
1.03 0 l
1.03 0.01 l
1.03 0.01 l
1.03 0.02 l
1.03 0.02 l
1.04 0.04 l
1.03 0.04 l
1.03 0.06 l
1.03 0.07 l
1.03 0.09 l
1.03 0.11 l
1.03 0.14 l
1.04 0.16 l
1.03 0.19 l
1.03 0.22 l
1.03 0.26 l
1.03 0.29 l
1.03 0.34 l
1.03 0.38 l
1.03 0.42 l
1.04 0.47 l
1.03 0.52 l
1.03 0.58 l
1.03 0.62 l
1.03 0.68 l
1.03 0.74 l
1.03 0.79 l
1.04 0.85 l
1.03 0.91 l
1.03 0.96 l
1.03 1.02 l
1.03 1.09 l
1.03 1.13 l
1.03 1.20 l
1.04 1.25 l
1.03 1.31 l
1.03 1.36 l
1.03 1.41 l
1.03 1.47 l
1.03 1.52 l
1.03 1.57 l
1.03 1.61 l
1.04 1.66 l
1.03 1.71 l
1.03 1.75 l
1.03 1.79 l
1.03 1.83 l
1.03 1.86 l
1.03 1.90 l
1.04 1.94 l
1.03 1.96 l
1.03 2.00 l
1.03 2.02 l
1.03 2.05 l
1.03 2.07 l
1.03 2.09 l
1.04 2.11 l
1.03 2.13 l
1.03 2.15 l
1.03 2.16 l
1.03 2.17 l
1.03 2.19 l
1.03 2.19 l
1.04 2.20 l
1.03 2.21 l
1.03 2.21 l
1.03 2.21 l
1.03 2.21 l
1.03 2.21 l
1.03 2.21 l
1.03 2.21 l
1.04 2.20 l
1.03 2.20 l
1.03 2.19 l
1.03 2.18 l
1.03 2.18 l
144.78 139.01 lineto
1.03 2.15 l
1.04 2.14 l
1.03 2.12 l
1.03 2.12 l
1.03 2.09 l
1.03 2.08 l
1.03 2.07 l
1.03 2.04 l
1.04 2.03 l
1.03 2.01 l
1.03 1.99 l
1.03 1.97 l
1.03 1.95 l
1.03 1.93 l
1.03 1.90 l
1.03 1.89 l
1.04 1.86 l
1.03 1.84 l
1.03 1.82 l
1.03 1.79 l
1.03 1.77 l
1.03 1.75 l
1.03 1.72 l
1.04 1.69 l
1.03 1.67 l
1.03 1.65 l
1.03 1.62 l
1.03 1.60 l
1.03 1.57 l
1.03 1.55 l
1.04 1.52 l
1.03 1.49 l
1.03 1.47 l
1.03 1.44 l
1.03 1.42 l
1.03 1.39 l
1.03 1.37 l
1.03 1.34 l
1.04 1.32 l
1.03 1.29 l
1.03 1.26 l
1.03 1.24 l
1.03 1.21 l
1.03 1.19 l
1.03 1.17 l
1.04 1.13 l
1.03 1.12 l
1.03 1.09 l
1.03 1.06 l
1.03 1.04 l
1.03 1.02 l
1.03 0.99 l
1.04 0.97 l
1.03 0.94 l
1.03 0.92 l
1.03 0.90 l
1.03 0.88 l
1.03 0.85 l
1.03 0.83 l
1.03 0.80 l
1.04 0.79 l
1.03 0.76 l
1.03 0.74 l
1.03 0.72 l
1.03 0.70 l
1.03 0.67 l
1.03 0.66 l
1.04 0.63 l
1.03 0.62 l
1.03 0.59 l
1.03 0.57 l
1.03 0.56 l
1.03 0.53 l
1.03 0.51 l
1.04 0.50 l
1.03 0.48 l
1.03 0.45 l
1.03 0.44 l
1.03 0.42 l
1.03 0.41 l
1.03 0.38 l
1.03 0.37 l
1.04 0.35 l
1.03 0.34 l
1.03 0.31 l
1.03 0.30 l
1.03 0.29 l
1.03 0.26 l
1.03 0.25 l
1.04 0.24 l
1.03 0.22 l
1.03 0.21 l
1.03 0.19 l
1.03 0.17 l
1.03 0.16 l
1.03 0.15 l
1.04 0.13 l
1.03 0.12 l
1.03 0.10 l
247.92 246.44 lineto
1.03 0.07 l
1.03 0.07 l
1.03 0.05 l
1.03 0.04 l
1.04 0.03 l
1.03 0.01 l
1.03 0 l
1.03 -0.01 l
1.03 -0.02 l
1.03 -0.03 l
1.03 -0.05 l
1.04 -0.05 l
1.03 -0.07 l
1.03 -0.07 l
1.03 -0.09 l
1.03 -0.10 l
1.03 -0.11 l
1.03 -0.12 l
1.04 -0.12 l
1.03 -0.14 l
1.03 -0.15 l
1.03 -0.16 l
1.03 -0.16 l
1.03 -0.18 l
1.03 -0.18 l
1.03 -0.19 l
1.04 -0.20 l
1.03 -0.21 l
1.03 -0.22 l
1.03 -0.23 l
1.03 -0.23 l
1.03 -0.24 l
1.03 -0.25 l
1.04 -0.26 l
1.03 -0.26 l
1.03 -0.27 l
1.03 -0.28 l
1.03 -0.28 l
1.03 -0.30 l
1.03 -0.29 l
1.04 -0.31 l
1.03 -0.31 l
1.03 -0.32 l
1.03 -0.32 l
1.03 -0.33 l
1.03 -0.34 l
1.03 -0.34 l
1.03 -0.34 l
1.04 -0.36 l
1.03 -0.35 l
1.03 -0.37 l
1.03 -0.36 l
1.03 -0.38 l
1.03 -0.38 l
1.03 -0.38 l
1.04 -0.39 l
1.03 -0.39 l
1.03 -0.39 l
1.03 -0.41 l
1.03 -0.40 l
1.03 -0.41 l
1.03 -0.41 l
1.04 -0.42 l
1.03 -0.42 l
1.03 -0.43 l
1.03 -0.43 l
1.03 -0.43 l
1.03 -0.44 l
1.03 -0.44 l
1.03 -0.44 l
1.04 -0.45 l
1.03 -0.45 l
1.03 -0.45 l
1.03 -0.45 l
1.03 -0.46 l
1.03 -0.46 l
1.03 -0.47 l
1.04 -0.46 l
1.03 -0.47 l
1.03 -0.48 l
1.03 -0.47 l
1.03 -0.48 l
1.03 -0.48 l
1.03 -0.48 l
1.04 -0.48 l
1.03 -0.49 l
1.03 -0.48 l
1.03 -0.49 l
1.03 -0.50 l
1.03 -0.49 l
1.03 -0.50 l
1.03 -0.49 l
1.04 -0.50 l
1.03 -0.50 l
1.03 -0.50 l
1.03 -0.51 l
1.03 -0.50 l
1.03 -0.51 l
1.03 -0.50 l
351.06 215.29 lineto
1.03 -0.51 l
1.03 -0.51 l
1.03 -0.52 l
1.03 -0.51 l
1.03 -0.51 l
1.03 -0.52 l
1.04 -0.52 l
1.03 -0.51 l
1.03 -0.52 l
1.03 -0.52 l
1.03 -0.52 l
1.03 -0.52 l
1.03 -0.52 l
1.04 -0.52 l
1.03 -0.52 l
1.03 -0.53 l
1.03 -0.52 l
1.03 -0.52 l
1.03 -0.52 l
1.03 -0.53 l
1.03 -0.52 l
1.04 -0.53 l
1.03 -0.52 l
1.03 -0.53 l
1.03 -0.52 l
1.03 -0.53 l
1.03 -0.52 l
1.03 -0.53 l
1.04 -0.52 l
1.03 -0.53 l
1.03 -0.52 l
1.03 -0.53 l
o
0.5294 0.8078 0.9804 srgb
np
41.65 40.56 m
1.03 0 l
1.03 0 l
1.03 0 l
1.03 0 l
1.03 0 l
1.03 0 l
1.04 0 l
1.03 0 l
1.03 0 l
1.03 0 l
1.03 0 l
1.03 0 l
1.03 0 l
1.04 0 l
1.03 0 l
1.03 0 l
1.03 0 l
1.03 0 l
1.03 0 l
1.03 0 l
1.03 0 l
1.04 0 l
1.03 0.01 l
1.03 0 l
1.03 0.01 l
1.03 0.02 l
1.03 0.01 l
1.03 0.03 l
1.04 0.04 l
1.03 0.05 l
1.03 0.06 l
1.03 0.08 l
1.03 0.09 l
1.03 0.12 l
1.03 0.15 l
1.04 0.17 l
1.03 0.20 l
1.03 0.24 l
1.03 0.28 l
1.03 0.31 l
1.03 0.36 l
1.03 0.41 l
1.03 0.45 l
1.04 0.50 l
1.03 0.56 l
1.03 0.60 l
1.03 0.67 l
1.03 0.72 l
1.03 0.78 l
1.03 0.83 l
1.04 0.90 l
1.03 0.95 l
1.03 1.02 l
1.03 1.08 l
1.03 1.13 l
1.03 1.20 l
1.03 1.25 l
1.04 1.31 l
1.03 1.36 l
1.03 1.43 l
1.03 1.47 l
1.03 1.53 l
1.03 1.58 l
1.03 1.63 l
1.03 1.68 l
1.04 1.73 l
1.03 1.76 l
1.03 1.81 l
1.03 1.86 l
1.03 1.89 l
1.03 1.92 l
1.03 1.96 l
1.04 2.00 l
1.03 2.02 l
1.03 2.05 l
1.03 2.08 l
1.03 2.10 l
1.03 2.13 l
1.03 2.14 l
1.04 2.17 l
1.03 2.18 l
1.03 2.19 l
1.03 2.21 l
1.03 2.22 l
1.03 2.22 l
1.03 2.24 l
1.04 2.24 l
1.03 2.24 l
1.03 2.24 l
1.03 2.25 l
1.03 2.25 l
1.03 2.24 l
1.03 2.24 l
1.03 2.24 l
1.04 2.22 l
1.03 2.23 l
1.03 2.21 l
1.03 2.20 l
1.03 2.19 l
144.78 141.88 lineto
1.03 2.17 l
1.04 2.15 l
1.03 2.14 l
1.03 2.12 l
1.03 2.11 l
1.03 2.08 l
1.03 2.07 l
1.03 2.05 l
1.04 2.04 l
1.03 2.01 l
1.03 1.99 l
1.03 1.96 l
1.03 1.95 l
1.03 1.93 l
1.03 1.90 l
1.03 1.87 l
1.04 1.86 l
1.03 1.83 l
1.03 1.81 l
1.03 1.78 l
1.03 1.75 l
1.03 1.74 l
1.03 1.70 l
1.04 1.68 l
1.03 1.66 l
1.03 1.62 l
1.03 1.61 l
1.03 1.57 l
1.03 1.55 l
1.03 1.53 l
1.04 1.50 l
1.03 1.47 l
1.03 1.44 l
1.03 1.42 l
1.03 1.39 l
1.03 1.37 l
1.03 1.34 l
1.03 1.31 l
1.04 1.29 l
1.03 1.26 l
1.03 1.23 l
1.03 1.21 l
1.03 1.18 l
1.03 1.16 l
1.03 1.13 l
1.04 1.11 l
1.03 1.08 l
1.03 1.06 l
1.03 1.03 l
1.03 1.00 l
1.03 0.99 l
1.03 0.95 l
1.04 0.94 l
1.03 0.90 l
1.03 0.89 l
1.03 0.86 l
1.03 0.84 l
1.03 0.81 l
1.03 0.80 l
1.03 0.77 l
1.04 0.74 l
1.03 0.73 l
1.03 0.70 l
1.03 0.68 l
1.03 0.66 l
1.03 0.63 l
1.03 0.62 l
1.04 0.60 l
1.03 0.57 l
1.03 0.55 l
1.03 0.54 l
1.03 0.51 l
1.03 0.50 l
1.03 0.47 l
1.04 0.46 l
1.03 0.43 l
1.03 0.42 l
1.03 0.40 l
1.03 0.38 l
1.03 0.36 l
1.03 0.35 l
1.03 0.33 l
1.04 0.31 l
1.03 0.29 l
1.03 0.28 l
1.03 0.26 l
1.03 0.24 l
1.03 0.23 l
1.03 0.21 l
1.04 0.20 l
1.03 0.18 l
1.03 0.16 l
1.03 0.15 l
1.03 0.14 l
1.03 0.12 l
1.03 0.11 l
1.04 0.09 l
1.03 0.08 l
1.03 0.06 l
247.92 246.64 lineto
1.03 0.03 l
1.03 0.03 l
1.03 0.01 l
1.03 0 l
1.04 -0.01 l
1.03 -0.02 l
1.03 -0.04 l
1.03 -0.05 l
1.03 -0.06 l
1.03 -0.07 l
1.03 -0.08 l
1.04 -0.09 l
1.03 -0.11 l
1.03 -0.11 l
1.03 -0.13 l
1.03 -0.13 l
1.03 -0.15 l
1.03 -0.15 l
1.04 -0.17 l
1.03 -0.17 l
1.03 -0.19 l
1.03 -0.19 l
1.03 -0.20 l
1.03 -0.21 l
1.03 -0.22 l
1.03 -0.23 l
1.04 -0.24 l
1.03 -0.24 l
1.03 -0.25 l
1.03 -0.26 l
1.03 -0.27 l
1.03 -0.28 l
1.03 -0.28 l
1.04 -0.29 l
1.03 -0.30 l
1.03 -0.30 l
1.03 -0.31 l
1.03 -0.32 l
1.03 -0.33 l
1.03 -0.33 l
1.04 -0.34 l
1.03 -0.34 l
1.03 -0.35 l
1.03 -0.36 l
1.03 -0.36 l
1.03 -0.36 l
1.03 -0.38 l
1.03 -0.37 l
1.04 -0.39 l
1.03 -0.39 l
1.03 -0.39 l
1.03 -0.40 l
1.03 -0.40 l
1.03 -0.41 l
1.03 -0.41 l
1.04 -0.42 l
1.03 -0.42 l
1.03 -0.43 l
1.03 -0.43 l
1.03 -0.43 l
1.03 -0.44 l
1.03 -0.44 l
1.04 -0.45 l
1.03 -0.45 l
1.03 -0.45 l
1.03 -0.46 l
1.03 -0.46 l
1.03 -0.46 l
1.03 -0.47 l
1.03 -0.47 l
1.04 -0.47 l
1.03 -0.47 l
1.03 -0.48 l
1.03 -0.48 l
1.03 -0.49 l
1.03 -0.49 l
1.03 -0.48 l
1.04 -0.50 l
1.03 -0.49 l
1.03 -0.50 l
1.03 -0.50 l
1.03 -0.50 l
1.03 -0.50 l
1.03 -0.51 l
1.04 -0.50 l
1.03 -0.51 l
1.03 -0.51 l
1.03 -0.51 l
1.03 -0.52 l
1.03 -0.52 l
1.03 -0.51 l
1.03 -0.52 l
1.04 -0.52 l
1.03 -0.52 l
1.03 -0.53 l
1.03 -0.52 l
1.03 -0.53 l
1.03 -0.53 l
1.03 -0.52 l
351.06 212.44 lineto
1.03 -0.53 l
1.03 -0.53 l
1.03 -0.54 l
1.03 -0.53 l
1.03 -0.53 l
1.03 -0.54 l
1.04 -0.53 l
1.03 -0.54 l
1.03 -0.53 l
1.03 -0.54 l
1.03 -0.54 l
1.03 -0.54 l
1.03 -0.54 l
1.04 -0.53 l
1.03 -0.54 l
1.03 -0.54 l
1.03 -0.54 l
1.03 -0.54 l
1.03 -0.54 l
1.03 -0.54 l
1.03 -0.54 l
1.04 -0.55 l
1.03 -0.54 l
1.03 -0.54 l
1.03 -0.54 l
1.03 -0.54 l
1.03 -0.54 l
1.03 -0.54 l
1.04 -0.54 l
1.03 -0.54 l
1.03 -0.54 l
1.03 -0.54 l
o
0.6078 0.8039 0.6078 srgb
np
41.65 40.56 m
1.03 0 l
1.03 0 l
1.03 0 l
1.03 0 l
1.03 0 l
1.03 0 l
1.04 0 l
1.03 0 l
1.03 0 l
1.03 0 l
1.03 0 l
1.03 0 l
1.03 0 l
1.04 0 l
1.03 0 l
1.03 0 l
1.03 0 l
1.03 0 l
1.03 0 l
1.03 0 l
1.03 0 l
1.04 0 l
1.03 0.01 l
1.03 0 l
1.03 0.01 l
1.03 0.01 l
1.03 0.01 l
1.03 0.03 l
1.04 0.02 l
1.03 0.04 l
1.03 0.05 l
1.03 0.07 l
1.03 0.08 l
1.03 0.09 l
1.03 0.12 l
1.04 0.15 l
1.03 0.16 l
1.03 0.20 l
1.03 0.23 l
1.03 0.26 l
1.03 0.30 l
1.03 0.33 l
1.03 0.38 l
1.04 0.42 l
1.03 0.46 l
1.03 0.51 l
1.03 0.56 l
1.03 0.60 l
1.03 0.66 l
1.03 0.71 l
1.04 0.76 l
1.03 0.81 l
1.03 0.87 l
1.03 0.92 l
1.03 0.97 l
1.03 1.02 l
1.03 1.08 l
1.04 1.13 l
1.03 1.18 l
1.03 1.23 l
1.03 1.29 l
1.03 1.33 l
1.03 1.38 l
1.03 1.43 l
1.03 1.47 l
1.04 1.52 l
1.03 1.56 l
1.03 1.60 l
1.03 1.64 l
1.03 1.68 l
1.03 1.72 l
1.03 1.75 l
1.04 1.78 l
1.03 1.82 l
1.03 1.85 l
1.03 1.87 l
1.03 1.91 l
1.03 1.92 l
1.03 1.95 l
1.04 1.98 l
1.03 1.99 l
1.03 2.01 l
1.03 2.02 l
1.03 2.05 l
1.03 2.05 l
1.03 2.07 l
1.04 2.08 l
1.03 2.08 l
1.03 2.10 l
1.03 2.10 l
1.03 2.10 l
1.03 2.11 l
1.03 2.11 l
1.03 2.11 l
1.04 2.11 l
1.03 2.11 l
1.03 2.10 l
1.03 2.10 l
1.03 2.10 l
144.78 132.04 lineto
1.03 2.08 l
1.04 2.07 l
1.03 2.07 l
1.03 2.05 l
1.03 2.05 l
1.03 2.03 l
1.03 2.02 l
1.03 2.00 l
1.04 1.99 l
1.03 1.98 l
1.03 1.96 l
1.03 1.95 l
1.03 1.93 l
1.03 1.91 l
1.03 1.89 l
1.03 1.88 l
1.04 1.86 l
1.03 1.84 l
1.03 1.82 l
1.03 1.79 l
1.03 1.78 l
1.03 1.76 l
1.03 1.74 l
1.04 1.71 l
1.03 1.70 l
1.03 1.67 l
1.03 1.65 l
1.03 1.63 l
1.03 1.61 l
1.03 1.58 l
1.04 1.56 l
1.03 1.54 l
1.03 1.52 l
1.03 1.49 l
1.03 1.47 l
1.03 1.44 l
1.03 1.43 l
1.03 1.40 l
1.04 1.37 l
1.03 1.36 l
1.03 1.33 l
1.03 1.30 l
1.03 1.29 l
1.03 1.26 l
1.03 1.23 l
1.04 1.22 l
1.03 1.19 l
1.03 1.17 l
1.03 1.14 l
1.03 1.12 l
1.03 1.10 l
1.03 1.08 l
1.04 1.05 l
1.03 1.04 l
1.03 1.01 l
1.03 0.98 l
1.03 0.97 l
1.03 0.94 l
1.03 0.93 l
1.03 0.90 l
1.04 0.88 l
1.03 0.85 l
1.03 0.84 l
1.03 0.82 l
1.03 0.79 l
1.03 0.78 l
1.03 0.75 l
1.04 0.74 l
1.03 0.71 l
1.03 0.70 l
1.03 0.67 l
1.03 0.66 l
1.03 0.64 l
1.03 0.61 l
1.04 0.60 l
1.03 0.58 l
1.03 0.56 l
1.03 0.55 l
1.03 0.52 l
1.03 0.51 l
1.03 0.49 l
1.03 0.47 l
1.04 0.46 l
1.03 0.44 l
1.03 0.42 l
1.03 0.40 l
1.03 0.39 l
1.03 0.37 l
1.03 0.36 l
1.04 0.34 l
1.03 0.33 l
1.03 0.31 l
1.03 0.29 l
1.03 0.28 l
1.03 0.26 l
1.03 0.25 l
1.04 0.24 l
1.03 0.22 l
1.03 0.21 l
247.92 245.35 lineto
1.03 0.18 l
1.03 0.16 l
1.03 0.16 l
1.03 0.14 l
1.04 0.12 l
1.03 0.12 l
1.03 0.10 l
1.03 0.09 l
1.03 0.08 l
1.03 0.06 l
1.03 0.05 l
1.04 0.05 l
1.03 0.03 l
1.03 0.01 l
1.03 0.01 l
1.03 0 l
1.03 -0.01 l
1.03 -0.03 l
1.04 -0.03 l
1.03 -0.05 l
1.03 -0.05 l
1.03 -0.07 l
1.03 -0.07 l
1.03 -0.09 l
1.03 -0.09 l
1.03 -0.11 l
1.04 -0.11 l
1.03 -0.12 l
1.03 -0.13 l
1.03 -0.14 l
1.03 -0.15 l
1.03 -0.15 l
1.03 -0.17 l
1.04 -0.17 l
1.03 -0.18 l
1.03 -0.19 l
1.03 -0.20 l
1.03 -0.20 l
1.03 -0.21 l
1.03 -0.22 l
1.04 -0.22 l
1.03 -0.24 l
1.03 -0.23 l
1.03 -0.25 l
1.03 -0.25 l
1.03 -0.26 l
1.03 -0.27 l
1.03 -0.27 l
1.04 -0.28 l
1.03 -0.28 l
1.03 -0.29 l
1.03 -0.30 l
1.03 -0.30 l
1.03 -0.31 l
1.03 -0.31 l
1.04 -0.32 l
1.03 -0.32 l
1.03 -0.33 l
1.03 -0.33 l
1.03 -0.34 l
1.03 -0.34 l
1.03 -0.35 l
1.04 -0.35 l
1.03 -0.36 l
1.03 -0.36 l
1.03 -0.37 l
1.03 -0.37 l
1.03 -0.37 l
1.03 -0.38 l
1.03 -0.38 l
1.04 -0.39 l
1.03 -0.39 l
1.03 -0.39 l
1.03 -0.40 l
1.03 -0.40 l
1.03 -0.41 l
1.03 -0.41 l
1.04 -0.41 l
1.03 -0.41 l
1.03 -0.42 l
1.03 -0.42 l
1.03 -0.42 l
1.03 -0.43 l
1.03 -0.43 l
1.04 -0.43 l
1.03 -0.43 l
1.03 -0.44 l
1.03 -0.44 l
1.03 -0.44 l
1.03 -0.45 l
1.03 -0.45 l
1.03 -0.45 l
1.04 -0.45 l
1.03 -0.45 l
1.03 -0.46 l
1.03 -0.46 l
1.03 -0.46 l
1.03 -0.46 l
1.03 -0.46 l
351.06 221.51 lineto
1.03 -0.46 l
1.03 -0.47 l
1.03 -0.47 l
1.03 -0.48 l
1.03 -0.47 l
1.03 -0.48 l
1.04 -0.47 l
1.03 -0.48 l
1.03 -0.48 l
1.03 -0.48 l
1.03 -0.48 l
1.03 -0.49 l
1.03 -0.48 l
1.04 -0.48 l
1.03 -0.49 l
1.03 -0.49 l
1.03 -0.49 l
1.03 -0.48 l
1.03 -0.49 l
1.03 -0.50 l
1.03 -0.49 l
1.04 -0.49 l
1.03 -0.49 l
1.03 -0.50 l
1.03 -0.49 l
1.03 -0.49 l
1.03 -0.50 l
1.03 -0.50 l
1.04 -0.49 l
1.03 -0.50 l
1.03 -0.50 l
1.03 -0.49 l
o
1 0.6275 0.4784 srgb
1.07 setlinewidth
[ 4.27 4.27] 0 setdash
np
41.65 40.56 m
1.03 0 l
1.03 0 l
1.03 0 l
1.03 0 l
1.03 0 l
1.03 0 l
1.04 0 l
1.03 0 l
1.03 0 l
1.03 0 l
1.03 0 l
1.03 0 l
1.03 0 l
1.04 0 l
1.03 0 l
1.03 0 l
1.03 0 l
1.03 0 l
1.03 0 l
1.03 0 l
1.03 0 l
1.04 0 l
1.03 0 l
1.03 0.01 l
1.03 0.01 l
1.03 0 l
1.03 0.02 l
1.03 0.02 l
1.04 0.02 l
1.03 0.04 l
1.03 0.04 l
1.03 0.06 l
1.03 0.07 l
1.03 0.08 l
1.03 0.11 l
1.04 0.12 l
1.03 0.15 l
1.03 0.18 l
1.03 0.20 l
1.03 0.23 l
1.03 0.26 l
1.03 0.30 l
1.03 0.33 l
1.04 0.37 l
1.03 0.41 l
1.03 0.45 l
1.03 0.49 l
1.03 0.54 l
1.03 0.58 l
1.03 0.62 l
1.04 0.68 l
1.03 0.71 l
1.03 0.77 l
1.03 0.81 l
1.03 0.87 l
1.03 0.90 l
1.03 0.96 l
1.04 1.00 l
1.03 1.05 l
1.03 1.10 l
1.03 1.14 l
1.03 1.18 l
1.03 1.23 l
1.03 1.27 l
1.03 1.31 l
1.04 1.36 l
1.03 1.39 l
1.03 1.43 l
1.03 1.47 l
1.03 1.50 l
1.03 1.54 l
1.03 1.57 l
1.04 1.60 l
1.03 1.63 l
1.03 1.66 l
1.03 1.69 l
1.03 1.71 l
1.03 1.74 l
1.03 1.76 l
1.04 1.78 l
1.03 1.80 l
1.03 1.83 l
1.03 1.83 l
1.03 1.86 l
1.03 1.87 l
1.03 1.88 l
1.04 1.89 l
1.03 1.91 l
1.03 1.92 l
1.03 1.92 l
1.03 1.93 l
1.03 1.93 l
1.03 1.95 l
1.03 1.94 l
1.04 1.95 l
1.03 1.95 l
1.03 1.95 l
1.03 1.94 l
1.03 1.95 l
144.78 123.23 lineto
1.03 1.94 l
1.04 1.94 l
1.03 1.93 l
1.03 1.93 l
1.03 1.92 l
1.03 1.91 l
1.03 1.90 l
1.03 1.90 l
1.04 1.89 l
1.03 1.87 l
1.03 1.87 l
1.03 1.85 l
1.03 1.85 l
1.03 1.83 l
1.03 1.82 l
1.03 1.80 l
1.04 1.79 l
1.03 1.78 l
1.03 1.76 l
1.03 1.75 l
1.03 1.73 l
1.03 1.71 l
1.03 1.70 l
1.04 1.69 l
1.03 1.66 l
1.03 1.65 l
1.03 1.63 l
1.03 1.62 l
1.03 1.59 l
1.03 1.58 l
1.04 1.56 l
1.03 1.55 l
1.03 1.52 l
1.03 1.51 l
1.03 1.48 l
1.03 1.47 l
1.03 1.45 l
1.03 1.43 l
1.04 1.41 l
1.03 1.39 l
1.03 1.37 l
1.03 1.36 l
1.03 1.33 l
1.03 1.31 l
1.03 1.30 l
1.04 1.27 l
1.03 1.26 l
1.03 1.24 l
1.03 1.21 l
1.03 1.20 l
1.03 1.18 l
1.03 1.16 l
1.04 1.13 l
1.03 1.12 l
1.03 1.10 l
1.03 1.09 l
1.03 1.06 l
1.03 1.04 l
1.03 1.03 l
1.03 1.00 l
1.04 0.99 l
1.03 0.97 l
1.03 0.95 l
1.03 0.93 l
1.03 0.91 l
1.03 0.89 l
1.03 0.88 l
1.04 0.86 l
1.03 0.84 l
1.03 0.82 l
1.03 0.81 l
1.03 0.78 l
1.03 0.77 l
1.03 0.76 l
1.04 0.73 l
1.03 0.72 l
1.03 0.70 l
1.03 0.69 l
1.03 0.66 l
1.03 0.65 l
1.03 0.64 l
1.03 0.62 l
1.04 0.60 l
1.03 0.59 l
1.03 0.57 l
1.03 0.56 l
1.03 0.54 l
1.03 0.52 l
1.03 0.51 l
1.04 0.50 l
1.03 0.47 l
1.03 0.47 l
1.03 0.45 l
1.03 0.44 l
1.03 0.42 l
1.03 0.41 l
1.04 0.39 l
1.03 0.38 l
1.03 0.37 l
247.92 241.66 lineto
1.03 0.34 l
1.03 0.33 l
1.03 0.31 l
1.03 0.30 l
1.04 0.29 l
1.03 0.27 l
1.03 0.27 l
1.03 0.25 l
1.03 0.23 l
1.03 0.23 l
1.03 0.21 l
1.04 0.21 l
1.03 0.19 l
1.03 0.18 l
1.03 0.17 l
1.03 0.15 l
1.03 0.15 l
1.03 0.14 l
1.04 0.12 l
1.03 0.12 l
1.03 0.10 l
1.03 0.09 l
1.03 0.09 l
1.03 0.07 l
1.03 0.06 l
1.03 0.06 l
1.04 0.04 l
1.03 0.03 l
1.03 0.03 l
1.03 0.02 l
1.03 0 l
1.03 0 l
1.03 -0.01 l
1.04 -0.02 l
1.03 -0.03 l
1.03 -0.04 l
1.03 -0.04 l
1.03 -0.05 l
1.03 -0.07 l
1.03 -0.06 l
1.04 -0.08 l
1.03 -0.09 l
1.03 -0.09 l
1.03 -0.10 l
1.03 -0.11 l
1.03 -0.11 l
1.03 -0.12 l
1.03 -0.13 l
1.04 -0.14 l
1.03 -0.14 l
1.03 -0.15 l
1.03 -0.16 l
1.03 -0.16 l
1.03 -0.17 l
1.03 -0.18 l
1.04 -0.18 l
1.03 -0.19 l
1.03 -0.19 l
1.03 -0.20 l
1.03 -0.21 l
1.03 -0.21 l
1.03 -0.22 l
1.04 -0.22 l
1.03 -0.23 l
1.03 -0.23 l
1.03 -0.24 l
1.03 -0.25 l
1.03 -0.25 l
1.03 -0.25 l
1.03 -0.26 l
1.04 -0.26 l
1.03 -0.27 l
1.03 -0.28 l
1.03 -0.27 l
1.03 -0.29 l
1.03 -0.28 l
1.03 -0.30 l
1.04 -0.29 l
1.03 -0.30 l
1.03 -0.31 l
1.03 -0.30 l
1.03 -0.32 l
1.03 -0.31 l
1.03 -0.32 l
1.04 -0.32 l
1.03 -0.33 l
1.03 -0.33 l
1.03 -0.34 l
1.03 -0.33 l
1.03 -0.34 l
1.03 -0.35 l
1.03 -0.35 l
1.04 -0.35 l
1.03 -0.35 l
1.03 -0.36 l
1.03 -0.36 l
1.03 -0.36 l
1.03 -0.37 l
1.03 -0.37 l
351.06 231.45 lineto
1.03 -0.37 l
1.03 -0.38 l
1.03 -0.38 l
1.03 -0.38 l
1.03 -0.38 l
1.03 -0.39 l
1.04 -0.39 l
1.03 -0.39 l
1.03 -0.39 l
1.03 -0.40 l
1.03 -0.40 l
1.03 -0.40 l
1.03 -0.40 l
1.04 -0.40 l
1.03 -0.41 l
1.03 -0.40 l
1.03 -0.41 l
1.03 -0.42 l
1.03 -0.41 l
1.03 -0.41 l
1.03 -0.42 l
1.04 -0.42 l
1.03 -0.42 l
1.03 -0.42 l
1.03 -0.42 l
1.03 -0.42 l
1.03 -0.43 l
1.03 -0.43 l
1.04 -0.42 l
1.03 -0.43 l
1.03 -0.43 l
1.03 -0.44 l
o
0.8039 0.7451 0.4392 srgb
np
41.65 40.56 m
1.03 0 l
1.03 0 l
1.03 0 l
1.03 0 l
1.03 0 l
1.03 0 l
1.04 0 l
1.03 0 l
1.03 0 l
1.03 0 l
1.03 0 l
1.03 0 l
1.03 0 l
1.04 0 l
1.03 0 l
1.03 0 l
1.03 0 l
1.03 0 l
1.03 0 l
1.03 0 l
1.03 0 l
1.04 0 l
1.03 0.01 l
1.03 0 l
1.03 0.01 l
1.03 0.01 l
1.03 0.02 l
1.03 0.03 l
1.04 0.03 l
1.03 0.05 l
1.03 0.06 l
1.03 0.07 l
1.03 0.10 l
1.03 0.11 l
1.03 0.14 l
1.04 0.17 l
1.03 0.20 l
1.03 0.23 l
1.03 0.26 l
1.03 0.31 l
1.03 0.35 l
1.03 0.39 l
1.03 0.44 l
1.04 0.49 l
1.03 0.53 l
1.03 0.60 l
1.03 0.64 l
1.03 0.70 l
1.03 0.76 l
1.03 0.82 l
1.04 0.87 l
1.03 0.94 l
1.03 0.99 l
1.03 1.05 l
1.03 1.11 l
1.03 1.17 l
1.03 1.23 l
1.04 1.29 l
1.03 1.34 l
1.03 1.39 l
1.03 1.45 l
1.03 1.50 l
1.03 1.56 l
1.03 1.60 l
1.03 1.65 l
1.04 1.70 l
1.03 1.74 l
1.03 1.79 l
1.03 1.82 l
1.03 1.86 l
1.03 1.91 l
1.03 1.93 l
1.04 1.97 l
1.03 2.00 l
1.03 2.03 l
1.03 2.05 l
1.03 2.08 l
1.03 2.10 l
1.03 2.13 l
1.04 2.14 l
1.03 2.16 l
1.03 2.17 l
1.03 2.19 l
1.03 2.20 l
1.03 2.21 l
1.03 2.22 l
1.04 2.22 l
1.03 2.23 l
1.03 2.23 l
1.03 2.23 l
1.03 2.23 l
1.03 2.23 l
1.03 2.23 l
1.03 2.22 l
1.04 2.22 l
1.03 2.21 l
1.03 2.20 l
1.03 2.20 l
1.03 2.18 l
144.78 140.63 lineto
1.03 2.16 l
1.04 2.15 l
1.03 2.13 l
1.03 2.12 l
1.03 2.10 l
1.03 2.08 l
1.03 2.07 l
1.03 2.05 l
1.04 2.03 l
1.03 2.01 l
1.03 1.99 l
1.03 1.96 l
1.03 1.95 l
1.03 1.93 l
1.03 1.90 l
1.03 1.88 l
1.04 1.86 l
1.03 1.83 l
1.03 1.81 l
1.03 1.79 l
1.03 1.76 l
1.03 1.73 l
1.03 1.71 l
1.04 1.69 l
1.03 1.66 l
1.03 1.64 l
1.03 1.61 l
1.03 1.58 l
1.03 1.56 l
1.03 1.53 l
1.04 1.51 l
1.03 1.48 l
1.03 1.45 l
1.03 1.43 l
1.03 1.40 l
1.03 1.38 l
1.03 1.35 l
1.03 1.32 l
1.04 1.30 l
1.03 1.28 l
1.03 1.24 l
1.03 1.22 l
1.03 1.20 l
1.03 1.17 l
1.03 1.14 l
1.04 1.12 l
1.03 1.10 l
1.03 1.07 l
1.03 1.04 l
1.03 1.02 l
1.03 1.00 l
1.03 0.97 l
1.04 0.95 l
1.03 0.92 l
1.03 0.91 l
1.03 0.87 l
1.03 0.86 l
1.03 0.83 l
1.03 0.81 l
1.03 0.78 l
1.04 0.76 l
1.03 0.74 l
1.03 0.72 l
1.03 0.70 l
1.03 0.68 l
1.03 0.65 l
1.03 0.64 l
1.04 0.61 l
1.03 0.59 l
1.03 0.57 l
1.03 0.55 l
1.03 0.54 l
1.03 0.51 l
1.03 0.49 l
1.04 0.47 l
1.03 0.46 l
1.03 0.44 l
1.03 0.41 l
1.03 0.40 l
1.03 0.38 l
1.03 0.37 l
1.03 0.34 l
1.04 0.33 l
1.03 0.32 l
1.03 0.29 l
1.03 0.28 l
1.03 0.26 l
1.03 0.25 l
1.03 0.23 l
1.04 0.21 l
1.03 0.20 l
1.03 0.19 l
1.03 0.17 l
1.03 0.15 l
1.03 0.14 l
1.03 0.13 l
1.04 0.11 l
1.03 0.10 l
1.03 0.08 l
247.92 246.55 lineto
1.03 0.06 l
1.03 0.04 l
1.03 0.04 l
1.03 0.02 l
1.04 0 l
1.03 0 l
1.03 -0.02 l
1.03 -0.03 l
1.03 -0.04 l
1.03 -0.05 l
1.03 -0.07 l
1.04 -0.07 l
1.03 -0.09 l
1.03 -0.09 l
1.03 -0.11 l
1.03 -0.11 l
1.03 -0.13 l
1.03 -0.14 l
1.04 -0.14 l
1.03 -0.16 l
1.03 -0.17 l
1.03 -0.17 l
1.03 -0.18 l
1.03 -0.20 l
1.03 -0.20 l
1.03 -0.21 l
1.04 -0.22 l
1.03 -0.22 l
1.03 -0.24 l
1.03 -0.24 l
1.03 -0.25 l
1.03 -0.26 l
1.03 -0.27 l
1.04 -0.27 l
1.03 -0.28 l
1.03 -0.29 l
1.03 -0.29 l
1.03 -0.30 l
1.03 -0.31 l
1.03 -0.32 l
1.04 -0.32 l
1.03 -0.32 l
1.03 -0.34 l
1.03 -0.34 l
1.03 -0.34 l
1.03 -0.35 l
1.03 -0.36 l
1.03 -0.36 l
1.04 -0.37 l
1.03 -0.37 l
1.03 -0.38 l
1.03 -0.38 l
1.03 -0.39 l
1.03 -0.39 l
1.03 -0.40 l
1.04 -0.40 l
1.03 -0.40 l
1.03 -0.42 l
1.03 -0.41 l
1.03 -0.42 l
1.03 -0.42 l
1.03 -0.43 l
1.04 -0.43 l
1.03 -0.44 l
1.03 -0.43 l
1.03 -0.45 l
1.03 -0.44 l
1.03 -0.45 l
1.03 -0.45 l
1.03 -0.46 l
1.04 -0.46 l
1.03 -0.46 l
1.03 -0.47 l
1.03 -0.46 l
1.03 -0.47 l
1.03 -0.48 l
1.03 -0.47 l
1.04 -0.48 l
1.03 -0.48 l
1.03 -0.49 l
1.03 -0.48 l
1.03 -0.49 l
1.03 -0.49 l
1.03 -0.49 l
1.04 -0.50 l
1.03 -0.49 l
1.03 -0.50 l
1.03 -0.50 l
1.03 -0.51 l
1.03 -0.50 l
1.03 -0.51 l
1.03 -0.50 l
1.04 -0.51 l
1.03 -0.51 l
1.03 -0.52 l
1.03 -0.51 l
1.03 -0.51 l
1.03 -0.52 l
1.03 -0.52 l
351.06 213.92 lineto
1.03 -0.52 l
1.03 -0.52 l
1.03 -0.53 l
1.03 -0.52 l
1.03 -0.52 l
1.03 -0.53 l
1.04 -0.52 l
1.03 -0.53 l
1.03 -0.52 l
1.03 -0.53 l
1.03 -0.53 l
1.03 -0.53 l
1.03 -0.53 l
1.04 -0.53 l
1.03 -0.52 l
1.03 -0.54 l
1.03 -0.53 l
1.03 -0.53 l
1.03 -0.53 l
1.03 -0.53 l
1.03 -0.53 l
1.04 -0.53 l
1.03 -0.54 l
1.03 -0.53 l
1.03 -0.53 l
1.03 -0.53 l
1.03 -0.54 l
1.03 -0.53 l
1.04 -0.53 l
1.03 -0.53 l
1.03 -0.53 l
1.03 -0.54 l
o
0.5294 0.8078 0.9804 srgb
np
41.65 40.56 m
1.03 0 l
1.03 0 l
1.03 0 l
1.03 0 l
1.03 0 l
1.03 0 l
1.04 0 l
1.03 0 l
1.03 0 l
1.03 0 l
1.03 0 l
1.03 0 l
1.03 0 l
1.04 0 l
1.03 0 l
1.03 0 l
1.03 0 l
1.03 0 l
1.03 0 l
1.03 0 l
1.03 0 l
1.04 0 l
1.03 0.01 l
1.03 0 l
1.03 0.01 l
1.03 0.02 l
1.03 0.02 l
1.03 0.02 l
1.04 0.04 l
1.03 0.05 l
1.03 0.06 l
1.03 0.08 l
1.03 0.10 l
1.03 0.12 l
1.03 0.15 l
1.04 0.17 l
1.03 0.21 l
1.03 0.24 l
1.03 0.28 l
1.03 0.32 l
1.03 0.37 l
1.03 0.41 l
1.03 0.45 l
1.04 0.51 l
1.03 0.56 l
1.03 0.62 l
1.03 0.67 l
1.03 0.73 l
1.03 0.78 l
1.03 0.85 l
1.04 0.90 l
1.03 0.97 l
1.03 1.02 l
1.03 1.09 l
1.03 1.14 l
1.03 1.21 l
1.03 1.26 l
1.04 1.32 l
1.03 1.38 l
1.03 1.43 l
1.03 1.49 l
1.03 1.54 l
1.03 1.59 l
1.03 1.64 l
1.03 1.69 l
1.04 1.73 l
1.03 1.78 l
1.03 1.82 l
1.03 1.86 l
1.03 1.90 l
1.03 1.94 l
1.03 1.97 l
1.04 2.00 l
1.03 2.04 l
1.03 2.06 l
1.03 2.09 l
1.03 2.11 l
1.03 2.13 l
1.03 2.16 l
1.04 2.17 l
1.03 2.19 l
1.03 2.20 l
1.03 2.21 l
1.03 2.23 l
1.03 2.23 l
1.03 2.24 l
1.04 2.25 l
1.03 2.25 l
1.03 2.25 l
1.03 2.26 l
1.03 2.25 l
1.03 2.25 l
1.03 2.24 l
1.03 2.24 l
1.04 2.24 l
1.03 2.22 l
1.03 2.22 l
1.03 2.21 l
1.03 2.19 l
144.78 142.40 lineto
1.03 2.17 l
1.04 2.15 l
1.03 2.15 l
1.03 2.12 l
1.03 2.11 l
1.03 2.09 l
1.03 2.07 l
1.03 2.05 l
1.04 2.03 l
1.03 2.02 l
1.03 1.99 l
1.03 1.97 l
1.03 1.94 l
1.03 1.93 l
1.03 1.90 l
1.03 1.88 l
1.04 1.85 l
1.03 1.83 l
1.03 1.81 l
1.03 1.78 l
1.03 1.76 l
1.03 1.73 l
1.03 1.70 l
1.04 1.68 l
1.03 1.65 l
1.03 1.63 l
1.03 1.60 l
1.03 1.57 l
1.03 1.55 l
1.03 1.52 l
1.04 1.50 l
1.03 1.46 l
1.03 1.45 l
1.03 1.41 l
1.03 1.39 l
1.03 1.36 l
1.03 1.34 l
1.03 1.30 l
1.04 1.29 l
1.03 1.25 l
1.03 1.23 l
1.03 1.21 l
1.03 1.17 l
1.03 1.16 l
1.03 1.12 l
1.04 1.10 l
1.03 1.08 l
1.03 1.05 l
1.03 1.02 l
1.03 1.00 l
1.03 0.98 l
1.03 0.95 l
1.04 0.93 l
1.03 0.90 l
1.03 0.88 l
1.03 0.85 l
1.03 0.83 l
1.03 0.81 l
1.03 0.79 l
1.03 0.76 l
1.04 0.74 l
1.03 0.72 l
1.03 0.69 l
1.03 0.67 l
1.03 0.65 l
1.03 0.63 l
1.03 0.61 l
1.04 0.59 l
1.03 0.57 l
1.03 0.54 l
1.03 0.53 l
1.03 0.50 l
1.03 0.49 l
1.03 0.47 l
1.04 0.44 l
1.03 0.43 l
1.03 0.41 l
1.03 0.39 l
1.03 0.37 l
1.03 0.36 l
1.03 0.34 l
1.03 0.31 l
1.04 0.31 l
1.03 0.28 l
1.03 0.27 l
1.03 0.25 l
1.03 0.23 l
1.03 0.22 l
1.03 0.21 l
1.04 0.18 l
1.03 0.18 l
1.03 0.15 l
1.03 0.14 l
1.03 0.13 l
1.03 0.11 l
1.03 0.10 l
1.04 0.08 l
1.03 0.07 l
1.03 0.06 l
247.92 246.66 lineto
1.03 0.03 l
1.03 0.02 l
1.03 0 l
1.03 -0.01 l
1.04 -0.02 l
1.03 -0.03 l
1.03 -0.05 l
1.03 -0.05 l
1.03 -0.07 l
1.03 -0.08 l
1.03 -0.09 l
1.04 -0.10 l
1.03 -0.12 l
1.03 -0.12 l
1.03 -0.13 l
1.03 -0.15 l
1.03 -0.15 l
1.03 -0.17 l
1.04 -0.17 l
1.03 -0.18 l
1.03 -0.20 l
1.03 -0.20 l
1.03 -0.21 l
1.03 -0.22 l
1.03 -0.23 l
1.03 -0.23 l
1.04 -0.25 l
1.03 -0.25 l
1.03 -0.26 l
1.03 -0.27 l
1.03 -0.28 l
1.03 -0.28 l
1.03 -0.29 l
1.04 -0.30 l
1.03 -0.31 l
1.03 -0.31 l
1.03 -0.32 l
1.03 -0.33 l
1.03 -0.33 l
1.03 -0.34 l
1.04 -0.35 l
1.03 -0.35 l
1.03 -0.35 l
1.03 -0.37 l
1.03 -0.37 l
1.03 -0.37 l
1.03 -0.38 l
1.03 -0.39 l
1.04 -0.39 l
1.03 -0.40 l
1.03 -0.40 l
1.03 -0.40 l
1.03 -0.41 l
1.03 -0.42 l
1.03 -0.42 l
1.04 -0.43 l
1.03 -0.42 l
1.03 -0.44 l
1.03 -0.43 l
1.03 -0.45 l
1.03 -0.44 l
1.03 -0.45 l
1.04 -0.45 l
1.03 -0.46 l
1.03 -0.46 l
1.03 -0.46 l
1.03 -0.47 l
1.03 -0.47 l
1.03 -0.47 l
1.03 -0.48 l
1.04 -0.48 l
1.03 -0.48 l
1.03 -0.49 l
1.03 -0.49 l
1.03 -0.49 l
1.03 -0.49 l
1.03 -0.49 l
1.04 -0.50 l
1.03 -0.50 l
1.03 -0.51 l
1.03 -0.50 l
1.03 -0.51 l
1.03 -0.51 l
1.03 -0.51 l
1.04 -0.51 l
1.03 -0.52 l
1.03 -0.51 l
1.03 -0.52 l
1.03 -0.52 l
1.03 -0.52 l
1.03 -0.53 l
1.03 -0.52 l
1.04 -0.53 l
1.03 -0.53 l
1.03 -0.52 l
1.03 -0.53 l
1.03 -0.54 l
1.03 -0.53 l
1.03 -0.53 l
351.06 211.71 lineto
1.03 -0.53 l
1.03 -0.54 l
1.03 -0.53 l
1.03 -0.54 l
1.03 -0.54 l
1.03 -0.54 l
1.04 -0.54 l
1.03 -0.54 l
1.03 -0.54 l
1.03 -0.54 l
1.03 -0.55 l
1.03 -0.54 l
1.03 -0.54 l
1.04 -0.55 l
1.03 -0.54 l
1.03 -0.54 l
1.03 -0.55 l
1.03 -0.54 l
1.03 -0.55 l
1.03 -0.54 l
1.03 -0.55 l
1.04 -0.54 l
1.03 -0.55 l
1.03 -0.54 l
1.03 -0.55 l
1.03 -0.54 l
1.03 -0.54 l
1.03 -0.55 l
1.04 -0.54 l
1.03 -0.55 l
1.03 -0.54 l
1.03 -0.54 l
o
0.6078 0.8039 0.6078 srgb
np
41.65 40.56 m
1.03 0 l
1.03 0 l
1.03 0 l
1.03 0 l
1.03 0 l
1.03 0 l
1.04 0 l
1.03 0 l
1.03 0 l
1.03 0 l
1.03 0 l
1.03 0 l
1.03 0 l
1.04 0 l
1.03 0 l
1.03 0 l
1.03 0 l
1.03 0 l
1.03 0 l
1.03 0 l
1.03 0 l
1.04 0 l
1.03 0.01 l
1.03 0 l
1.03 0.01 l
1.03 0.01 l
1.03 0.02 l
1.03 0.02 l
1.04 0.03 l
1.03 0.04 l
1.03 0.05 l
1.03 0.07 l
1.03 0.08 l
1.03 0.11 l
1.03 0.12 l
1.04 0.15 l
1.03 0.18 l
1.03 0.20 l
1.03 0.24 l
1.03 0.28 l
1.03 0.31 l
1.03 0.35 l
1.03 0.40 l
1.04 0.44 l
1.03 0.48 l
1.03 0.54 l
1.03 0.58 l
1.03 0.64 l
1.03 0.69 l
1.03 0.74 l
1.04 0.80 l
1.03 0.85 l
1.03 0.91 l
1.03 0.96 l
1.03 1.02 l
1.03 1.07 l
1.03 1.13 l
1.04 1.18 l
1.03 1.24 l
1.03 1.29 l
1.03 1.34 l
1.03 1.39 l
1.03 1.44 l
1.03 1.49 l
1.03 1.54 l
1.04 1.58 l
1.03 1.62 l
1.03 1.67 l
1.03 1.71 l
1.03 1.75 l
1.03 1.79 l
1.03 1.82 l
1.04 1.85 l
1.03 1.89 l
1.03 1.92 l
1.03 1.94 l
1.03 1.97 l
1.03 2.00 l
1.03 2.02 l
1.04 2.04 l
1.03 2.06 l
1.03 2.08 l
1.03 2.09 l
1.03 2.11 l
1.03 2.12 l
1.03 2.13 l
1.04 2.14 l
1.03 2.14 l
1.03 2.16 l
1.03 2.16 l
1.03 2.16 l
1.03 2.16 l
1.03 2.16 l
1.03 2.17 l
1.04 2.16 l
1.03 2.15 l
1.03 2.15 l
1.03 2.15 l
1.03 2.14 l
144.78 135.29 lineto
1.03 2.12 l
1.04 2.11 l
1.03 2.11 l
1.03 2.08 l
1.03 2.08 l
1.03 2.06 l
1.03 2.05 l
1.03 2.03 l
1.04 2.02 l
1.03 2.00 l
1.03 1.98 l
1.03 1.97 l
1.03 1.94 l
1.03 1.93 l
1.03 1.91 l
1.03 1.88 l
1.04 1.87 l
1.03 1.85 l
1.03 1.82 l
1.03 1.80 l
1.03 1.79 l
1.03 1.75 l
1.03 1.74 l
1.04 1.71 l
1.03 1.69 l
1.03 1.67 l
1.03 1.64 l
1.03 1.62 l
1.03 1.60 l
1.03 1.57 l
1.04 1.54 l
1.03 1.53 l
1.03 1.49 l
1.03 1.48 l
1.03 1.45 l
1.03 1.42 l
1.03 1.40 l
1.03 1.38 l
1.04 1.35 l
1.03 1.33 l
1.03 1.30 l
1.03 1.28 l
1.03 1.25 l
1.03 1.23 l
1.03 1.20 l
1.04 1.18 l
1.03 1.16 l
1.03 1.13 l
1.03 1.11 l
1.03 1.09 l
1.03 1.06 l
1.03 1.04 l
1.04 1.01 l
1.03 0.99 l
1.03 0.97 l
1.03 0.95 l
1.03 0.92 l
1.03 0.90 l
1.03 0.88 l
1.03 0.85 l
1.04 0.84 l
1.03 0.81 l
1.03 0.79 l
1.03 0.77 l
1.03 0.75 l
1.03 0.73 l
1.03 0.70 l
1.04 0.69 l
1.03 0.67 l
1.03 0.64 l
1.03 0.63 l
1.03 0.60 l
1.03 0.59 l
1.03 0.57 l
1.04 0.54 l
1.03 0.53 l
1.03 0.51 l
1.03 0.50 l
1.03 0.47 l
1.03 0.45 l
1.03 0.44 l
1.03 0.42 l
1.04 0.41 l
1.03 0.38 l
1.03 0.37 l
1.03 0.35 l
1.03 0.34 l
1.03 0.32 l
1.03 0.30 l
1.04 0.29 l
1.03 0.27 l
1.03 0.26 l
1.03 0.24 l
1.03 0.23 l
1.03 0.21 l
1.03 0.20 l
1.04 0.18 l
1.03 0.17 l
1.03 0.16 l
247.92 246.01 lineto
1.03 0.12 l
1.03 0.12 l
1.03 0.10 l
1.03 0.09 l
1.04 0.07 l
1.03 0.07 l
1.03 0.05 l
1.03 0.04 l
1.03 0.02 l
1.03 0.02 l
1.03 0 l
1.04 -0.01 l
1.03 -0.01 l
1.03 -0.03 l
1.03 -0.05 l
1.03 -0.05 l
1.03 -0.06 l
1.03 -0.07 l
1.04 -0.09 l
1.03 -0.09 l
1.03 -0.10 l
1.03 -0.11 l
1.03 -0.12 l
1.03 -0.14 l
1.03 -0.14 l
1.03 -0.14 l
1.04 -0.16 l
1.03 -0.17 l
1.03 -0.17 l
1.03 -0.19 l
1.03 -0.19 l
1.03 -0.20 l
1.03 -0.21 l
1.04 -0.21 l
1.03 -0.23 l
1.03 -0.23 l
1.03 -0.24 l
1.03 -0.24 l
1.03 -0.25 l
1.03 -0.26 l
1.04 -0.27 l
1.03 -0.27 l
1.03 -0.28 l
1.03 -0.29 l
1.03 -0.29 l
1.03 -0.30 l
1.03 -0.30 l
1.03 -0.31 l
1.04 -0.32 l
1.03 -0.32 l
1.03 -0.33 l
1.03 -0.33 l
1.03 -0.34 l
1.03 -0.34 l
1.03 -0.35 l
1.04 -0.35 l
1.03 -0.36 l
1.03 -0.37 l
1.03 -0.36 l
1.03 -0.38 l
1.03 -0.37 l
1.03 -0.39 l
1.04 -0.38 l
1.03 -0.39 l
1.03 -0.40 l
1.03 -0.39 l
1.03 -0.41 l
1.03 -0.40 l
1.03 -0.41 l
1.03 -0.41 l
1.04 -0.42 l
1.03 -0.42 l
1.03 -0.42 l
1.03 -0.43 l
1.03 -0.43 l
1.03 -0.44 l
1.03 -0.43 l
1.04 -0.44 l
1.03 -0.44 l
1.03 -0.45 l
1.03 -0.45 l
1.03 -0.45 l
1.03 -0.45 l
1.03 -0.46 l
1.04 -0.45 l
1.03 -0.46 l
1.03 -0.47 l
1.03 -0.46 l
1.03 -0.47 l
1.03 -0.47 l
1.03 -0.47 l
1.03 -0.47 l
1.04 -0.48 l
1.03 -0.48 l
1.03 -0.47 l
1.03 -0.49 l
1.03 -0.48 l
1.03 -0.48 l
1.03 -0.49 l
351.06 218.44 lineto
1.03 -0.49 l
1.03 -0.49 l
1.03 -0.49 l
1.03 -0.50 l
1.03 -0.49 l
1.03 -0.50 l
1.04 -0.49 l
1.03 -0.50 l
1.03 -0.50 l
1.03 -0.50 l
1.03 -0.50 l
1.03 -0.50 l
1.03 -0.50 l
1.04 -0.50 l
1.03 -0.51 l
1.03 -0.50 l
1.03 -0.51 l
1.03 -0.50 l
1.03 -0.51 l
1.03 -0.51 l
1.03 -0.50 l
1.04 -0.51 l
1.03 -0.51 l
1.03 -0.51 l
1.03 -0.51 l
1.03 -0.51 l
1.03 -0.51 l
1.03 -0.51 l
1.04 -0.51 l
1.03 -0.51 l
1.03 -0.51 l
1.03 -0.51 l
o
/Font3 findfont 11 s
0 0 0 srgb
183.95 82.07 (L) 0 0 t
/Font5 findfont 11 s
193.80 82.07 (=) 0 0 t
/Font1 findfont 11 s
202.38 82.07 (4) 0 0 t
/Font5 findfont 11 s
208.50 82.07 ( ) 0 0 t
/Font1 findfont 11 s
211.25 82.07 (m) 0 0 t
220.41 82.07 (m) 0 0 t
/Font5 findfont 11 s
229.57 82.07 ( ) 0 0 t
232.32 82.07 ( ) 0 0 t
235.07 82.07 ( ) 0 0 t
/Font3 findfont 11 s
237.82 82.07 (b) 0 0 t
/Font5 findfont 11 s
247.67 82.07 (=) 0 0 t
256.25 82.07 ( ) 0 0 t
/Font3 findfont 11 s
259.00 82.07 (c) 0 0 t
/Font5 findfont 11 s
267.93 82.07 (=) 0 0 t
/Font1 findfont 11 s
276.52 82.07 (10) 0 0 t
/Font5 findfont 11 s
288.75 82.07 ( ) 0 0 t
/Font1 findfont 11 s
291.50 82.07 (m) 0 0 t
300.66 82.07 (m) 0 0 t
/Font3 findfont 11 s
196.23 67.64 (L) 0 0 t
/Font5 findfont 11 s
206.07 67.64 (=) 0 0 t
/Font1 findfont 11 s
214.66 67.64 (4) 0 0 t
/Font5 findfont 11 s
220.77 67.64 ( ) 0 0 t
/Font1 findfont 11 s
223.52 67.64 (m) 0 0 t
232.69 67.64 (m) 0 0 t
/Font5 findfont 11 s
241.85 67.64 ( ) 0 0 t
244.60 67.64 ( ) 0 0 t
247.35 67.64 ( ) 0 0 t
/Font3 findfont 11 s
250.10 67.64 (R) 0 0 t
/Font5 findfont 11 s
261.77 67.64 (=) 0 0 t
/Font1 findfont 11 s
270.36 67.64 (5) 0 0 t
/Font5 findfont 11 s
276.47 67.64 ( ) 0 0 t
/Font1 findfont 11 s
279.22 67.64 (m) 0 0 t
288.39 67.64 (m) 0 0 t
/Font3 findfont 11 s
211.64 52.20 (h) 0 0 t
/Font5 findfont 11 s
221.49 52.20 (=) 0 0 t
/Font1 findfont 11 s
230.07 52.20 (10) 0 0 t
/Font5 findfont 11 s
242.30 52.20 ( ) 0 0 t
/Font1 findfont 11 s
245.05 52.20 (W) 0 0 t
0.75 setlinewidth
[] 0 setdash
1 setlinecap
10.00 setmiterlimit
np
256.87 50.81 m
2.88 10.68 l
o
261.19 52.20 (m) 0 0 t
/Font1 findfont 8 s
270.35 57.67 (2) 0 0 t
/Font1 findfont 11 s
274.80 52.20 (K) 0 0 t
0.00 0.00 450.00 262.50 cl
0.00 0.00 450.00 262.50 cl
0.00 0.00 450.00 262.50 cl
0.00 0.00 450.00 262.50 cl
0.00 0.00 450.00 262.50 cl
0.00 0.00 450.00 262.50 cl
0.00 0.00 450.00 262.50 cl
0.00 0.00 450.00 262.50 cl
0.00 0.00 450.00 262.50 cl
0.00 0.00 450.00 262.50 cl
0.00 0.00 450.00 262.50 cl
0.00 0.00 450.00 262.50 cl
0.00 0.00 450.00 262.50 cl
0.00 0.00 450.00 262.50 cl
0.00 0.00 450.00 262.50 cl
0.00 0.00 450.00 262.50 cl
/Font1 findfont 9 s
0.3020 0.3020 0.3020 srgb
36.37 37.33 (0.00) 1 0 t
36.37 88.87 (0.25) 1 0 t
36.37 140.40 (0.50) 1 0 t
36.37 191.94 (0.75) 1 0 t
36.37 243.48 (1.00) 1 0 t
0.00 0.00 450.00 262.50 cl
0.00 0.00 450.00 262.50 cl
0.2000 0.2000 0.2000 srgb
1.07 setlinewidth
[] 0 setdash
0 setlinecap
1 setlinejoin
10.00 setmiterlimit
np
38.56 40.56 m
2.74 0 l
o
np
38.56 92.10 m
2.74 0 l
o
np
38.56 143.64 m
2.74 0 l
o
np
38.56 195.17 m
2.74 0 l
o
np
38.56 246.71 m
2.74 0 l
o
0.00 0.00 450.00 262.50 cl
0.00 0.00 450.00 262.50 cl
0.00 0.00 450.00 262.50 cl
0.00 0.00 450.00 262.50 cl
0.00 0.00 450.00 262.50 cl
0.00 0.00 450.00 262.50 cl
0.00 0.00 450.00 262.50 cl
0.00 0.00 450.00 262.50 cl
0.00 0.00 450.00 262.50 cl
0.00 0.00 450.00 262.50 cl
0.2000 0.2000 0.2000 srgb
1.07 setlinewidth
[] 0 setdash
0 setlinecap
1 setlinejoin
10.00 setmiterlimit
np
126.56 27.51 m
0 2.74 l
o
np
212.51 27.51 m
0 2.74 l
o
np
298.46 27.51 m
0 2.74 l
o
0.00 0.00 450.00 262.50 cl
0.00 0.00 450.00 262.50 cl
/Font1 findfont 9 s
0.3020 0.3020 0.3020 srgb
126.56 18.86 (0.05) .5 0 t
212.51 18.86 (0.10) .5 0 t
298.46 18.86 (0.15) .5 0 t
0.00 0.00 450.00 262.50 cl
0.00 0.00 450.00 262.50 cl
0.00 0.00 450.00 262.50 cl
0.00 0.00 450.00 262.50 cl
0.00 0.00 450.00 262.50 cl
0.00 0.00 450.00 262.50 cl
/Font1 findfont 11 s
0 0 0 srgb
212.85 5.48 (time) .5 0 t
0.00 0.00 450.00 262.50 cl
0.00 0.00 450.00 262.50 cl
/Font1 findfont 11 s
0 0 0 srgb
13.38 143.64 (V) .5 90 t
0.00 0.00 450.00 262.50 cl
0.00 0.00 450.00 262.50 cl
0.00 0.00 450.00 262.50 cl
0.00 0.00 450.00 262.50 cl
0.00 0.00 450.00 262.50 cl
0.00 0.00 450.00 262.50 cl
0.00 0.00 450.00 262.50 cl
0.00 0.00 450.00 262.50 cl
/bg { 1 1 1 srgb } def
395.74 98.25 48.78 90.78 r p2
0.00 0.00 450.00 262.50 cl
0.00 0.00 450.00 262.50 cl
/Font5 findfont 11 s
0 0 0 srgb
401.41 177.30 ( ) 0 0 t
404.16 177.30 ( ) 0 0 t
406.91 177.30 (l) 0 0 t
/Font3 findfont 8 s
412.95 175.28 (L) 0 0 t
/Font5 findfont 11 s
417.40 177.30 ( ) 0 0 t
420.15 177.30 (l) 0 0 t
/Font3 findfont 8 s
426.19 175.28 (r) 0 0 t
0.00 0.00 450.00 262.50 cl
0.00 0.00 450.00 262.50 cl
/bg { 0.9490 0.9490 0.9490 srgb } def
1 1 1 srgb
1.07 setlinewidth
[] 0 setdash
1 setlinecap
1 setlinejoin
10.00 setmiterlimit
401.41 155.76 17.28 17.28 r p3
0.00 0.00 450.00 262.50 cl
0.00 0.00 450.00 262.50 cl
1 0.6275 0.4784 srgb
1.07 setlinewidth
[] 0 setdash
0 setlinecap
1 setlinejoin
10.00 setmiterlimit
np
403.14 164.40 m
13.82 0 l
o
0.00 0.00 450.00 262.50 cl
0.00 0.00 450.00 262.50 cl
1 0.6275 0.4784 srgb
1.07 setlinewidth
[] 0 setdash
0 setlinecap
1 setlinejoin
10.00 setmiterlimit
np
403.14 164.40 m
13.82 0 l
o
0.00 0.00 450.00 262.50 cl
0.00 0.00 450.00 262.50 cl
1 0.6275 0.4784 srgb
1.07 setlinewidth
[] 0 setdash
0 setlinecap
1 setlinejoin
10.00 setmiterlimit
np
403.14 164.40 m
13.82 0 l
o
0.00 0.00 450.00 262.50 cl
0.00 0.00 450.00 262.50 cl
1 0.6275 0.4784 srgb
1.07 setlinewidth
[] 0 setdash
0 setlinecap
1 setlinejoin
10.00 setmiterlimit
np
403.14 164.40 m
13.82 0 l
o
0.00 0.00 450.00 262.50 cl
0.00 0.00 450.00 262.50 cl
1 0.6275 0.4784 srgb
1.07 setlinewidth
[ 4.27 4.27] 0 setdash
0 setlinecap
1 setlinejoin
10.00 setmiterlimit
np
403.14 164.40 m
13.82 0 l
o
0.00 0.00 450.00 262.50 cl
0.00 0.00 450.00 262.50 cl
1 0.6275 0.4784 srgb
1.07 setlinewidth
[ 4.27 4.27] 0 setdash
0 setlinecap
1 setlinejoin
10.00 setmiterlimit
np
403.14 164.40 m
13.82 0 l
o
0.00 0.00 450.00 262.50 cl
0.00 0.00 450.00 262.50 cl
1 0.6275 0.4784 srgb
1.07 setlinewidth
[ 4.27 4.27] 0 setdash
0 setlinecap
1 setlinejoin
10.00 setmiterlimit
np
403.14 164.40 m
13.82 0 l
o
0.00 0.00 450.00 262.50 cl
0.00 0.00 450.00 262.50 cl
1 0.6275 0.4784 srgb
1.07 setlinewidth
[ 4.27 4.27] 0 setdash
0 setlinecap
1 setlinejoin
10.00 setmiterlimit
np
403.14 164.40 m
13.82 0 l
o
0.00 0.00 450.00 262.50 cl
0.00 0.00 450.00 262.50 cl
/bg { 0.9490 0.9490 0.9490 srgb } def
1 1 1 srgb
1.07 setlinewidth
[] 0 setdash
1 setlinecap
1 setlinejoin
10.00 setmiterlimit
401.41 138.48 17.28 17.28 r p3
0.00 0.00 450.00 262.50 cl
0.00 0.00 450.00 262.50 cl
0.6078 0.8039 0.6078 srgb
1.07 setlinewidth
[] 0 setdash
0 setlinecap
1 setlinejoin
10.00 setmiterlimit
np
403.14 147.12 m
13.82 0 l
o
0.00 0.00 450.00 262.50 cl
0.00 0.00 450.00 262.50 cl
0.6078 0.8039 0.6078 srgb
1.07 setlinewidth
[] 0 setdash
0 setlinecap
1 setlinejoin
10.00 setmiterlimit
np
403.14 147.12 m
13.82 0 l
o
0.00 0.00 450.00 262.50 cl
0.00 0.00 450.00 262.50 cl
0.6078 0.8039 0.6078 srgb
1.07 setlinewidth
[] 0 setdash
0 setlinecap
1 setlinejoin
10.00 setmiterlimit
np
403.14 147.12 m
13.82 0 l
o
0.00 0.00 450.00 262.50 cl
0.00 0.00 450.00 262.50 cl
0.6078 0.8039 0.6078 srgb
1.07 setlinewidth
[] 0 setdash
0 setlinecap
1 setlinejoin
10.00 setmiterlimit
np
403.14 147.12 m
13.82 0 l
o
0.00 0.00 450.00 262.50 cl
0.00 0.00 450.00 262.50 cl
0.6078 0.8039 0.6078 srgb
1.07 setlinewidth
[ 4.27 4.27] 0 setdash
0 setlinecap
1 setlinejoin
10.00 setmiterlimit
np
403.14 147.12 m
13.82 0 l
o
0.00 0.00 450.00 262.50 cl
0.00 0.00 450.00 262.50 cl
0.6078 0.8039 0.6078 srgb
1.07 setlinewidth
[ 4.27 4.27] 0 setdash
0 setlinecap
1 setlinejoin
10.00 setmiterlimit
np
403.14 147.12 m
13.82 0 l
o
0.00 0.00 450.00 262.50 cl
0.00 0.00 450.00 262.50 cl
0.6078 0.8039 0.6078 srgb
1.07 setlinewidth
[ 4.27 4.27] 0 setdash
0 setlinecap
1 setlinejoin
10.00 setmiterlimit
np
403.14 147.12 m
13.82 0 l
o
0.00 0.00 450.00 262.50 cl
0.00 0.00 450.00 262.50 cl
0.6078 0.8039 0.6078 srgb
1.07 setlinewidth
[ 4.27 4.27] 0 setdash
0 setlinecap
1 setlinejoin
10.00 setmiterlimit
np
403.14 147.12 m
13.82 0 l
o
0.00 0.00 450.00 262.50 cl
0.00 0.00 450.00 262.50 cl
/bg { 0.9490 0.9490 0.9490 srgb } def
1 1 1 srgb
1.07 setlinewidth
[] 0 setdash
1 setlinecap
1 setlinejoin
10.00 setmiterlimit
401.41 121.20 17.28 17.28 r p3
0.00 0.00 450.00 262.50 cl
0.00 0.00 450.00 262.50 cl
0.8039 0.7451 0.4392 srgb
1.07 setlinewidth
[] 0 setdash
0 setlinecap
1 setlinejoin
10.00 setmiterlimit
np
403.14 129.84 m
13.82 0 l
o
0.00 0.00 450.00 262.50 cl
0.00 0.00 450.00 262.50 cl
0.8039 0.7451 0.4392 srgb
1.07 setlinewidth
[] 0 setdash
0 setlinecap
1 setlinejoin
10.00 setmiterlimit
np
403.14 129.84 m
13.82 0 l
o
0.00 0.00 450.00 262.50 cl
0.00 0.00 450.00 262.50 cl
0.8039 0.7451 0.4392 srgb
1.07 setlinewidth
[] 0 setdash
0 setlinecap
1 setlinejoin
10.00 setmiterlimit
np
403.14 129.84 m
13.82 0 l
o
0.00 0.00 450.00 262.50 cl
0.00 0.00 450.00 262.50 cl
0.8039 0.7451 0.4392 srgb
1.07 setlinewidth
[] 0 setdash
0 setlinecap
1 setlinejoin
10.00 setmiterlimit
np
403.14 129.84 m
13.82 0 l
o
0.00 0.00 450.00 262.50 cl
0.00 0.00 450.00 262.50 cl
0.8039 0.7451 0.4392 srgb
1.07 setlinewidth
[ 4.27 4.27] 0 setdash
0 setlinecap
1 setlinejoin
10.00 setmiterlimit
np
403.14 129.84 m
13.82 0 l
o
0.00 0.00 450.00 262.50 cl
0.00 0.00 450.00 262.50 cl
0.8039 0.7451 0.4392 srgb
1.07 setlinewidth
[ 4.27 4.27] 0 setdash
0 setlinecap
1 setlinejoin
10.00 setmiterlimit
np
403.14 129.84 m
13.82 0 l
o
0.00 0.00 450.00 262.50 cl
0.00 0.00 450.00 262.50 cl
0.8039 0.7451 0.4392 srgb
1.07 setlinewidth
[ 4.27 4.27] 0 setdash
0 setlinecap
1 setlinejoin
10.00 setmiterlimit
np
403.14 129.84 m
13.82 0 l
o
0.00 0.00 450.00 262.50 cl
0.00 0.00 450.00 262.50 cl
0.8039 0.7451 0.4392 srgb
1.07 setlinewidth
[ 4.27 4.27] 0 setdash
0 setlinecap
1 setlinejoin
10.00 setmiterlimit
np
403.14 129.84 m
13.82 0 l
o
0.00 0.00 450.00 262.50 cl
0.00 0.00 450.00 262.50 cl
/bg { 0.9490 0.9490 0.9490 srgb } def
1 1 1 srgb
1.07 setlinewidth
[] 0 setdash
1 setlinecap
1 setlinejoin
10.00 setmiterlimit
401.41 103.92 17.28 17.28 r p3
0.00 0.00 450.00 262.50 cl
0.00 0.00 450.00 262.50 cl
0.5294 0.8078 0.9804 srgb
1.07 setlinewidth
[] 0 setdash
0 setlinecap
1 setlinejoin
10.00 setmiterlimit
np
403.14 112.56 m
13.82 0 l
o
0.00 0.00 450.00 262.50 cl
0.00 0.00 450.00 262.50 cl
0.5294 0.8078 0.9804 srgb
1.07 setlinewidth
[] 0 setdash
0 setlinecap
1 setlinejoin
10.00 setmiterlimit
np
403.14 112.56 m
13.82 0 l
o
0.00 0.00 450.00 262.50 cl
0.00 0.00 450.00 262.50 cl
0.5294 0.8078 0.9804 srgb
1.07 setlinewidth
[] 0 setdash
0 setlinecap
1 setlinejoin
10.00 setmiterlimit
np
403.14 112.56 m
13.82 0 l
o
0.00 0.00 450.00 262.50 cl
0.00 0.00 450.00 262.50 cl
0.5294 0.8078 0.9804 srgb
1.07 setlinewidth
[] 0 setdash
0 setlinecap
1 setlinejoin
10.00 setmiterlimit
np
403.14 112.56 m
13.82 0 l
o
0.00 0.00 450.00 262.50 cl
0.00 0.00 450.00 262.50 cl
0.5294 0.8078 0.9804 srgb
1.07 setlinewidth
[ 4.27 4.27] 0 setdash
0 setlinecap
1 setlinejoin
10.00 setmiterlimit
np
403.14 112.56 m
13.82 0 l
o
0.00 0.00 450.00 262.50 cl
0.00 0.00 450.00 262.50 cl
0.5294 0.8078 0.9804 srgb
1.07 setlinewidth
[ 4.27 4.27] 0 setdash
0 setlinecap
1 setlinejoin
10.00 setmiterlimit
np
403.14 112.56 m
13.82 0 l
o
0.00 0.00 450.00 262.50 cl
0.00 0.00 450.00 262.50 cl
0.5294 0.8078 0.9804 srgb
1.07 setlinewidth
[ 4.27 4.27] 0 setdash
0 setlinecap
1 setlinejoin
10.00 setmiterlimit
np
403.14 112.56 m
13.82 0 l
o
0.00 0.00 450.00 262.50 cl
0.00 0.00 450.00 262.50 cl
0.5294 0.8078 0.9804 srgb
1.07 setlinewidth
[ 4.27 4.27] 0 setdash
0 setlinecap
1 setlinejoin
10.00 setmiterlimit
np
403.14 112.56 m
13.82 0 l
o
0.00 0.00 450.00 262.50 cl
0.00 0.00 450.00 262.50 cl
/Font1 findfont 9 s
0 0 0 srgb
420.85 161.16 (2 2) 0 0 t
0.00 0.00 450.00 262.50 cl
0.00 0.00 450.00 262.50 cl
/Font1 findfont 9 s
0 0 0 srgb
420.85 143.88 (2 5) 0 0 t
0.00 0.00 450.00 262.50 cl
0.00 0.00 450.00 262.50 cl
/Font1 findfont 9 s
0 0 0 srgb
420.85 126.60 (2 10) 0 0 t
0.00 0.00 450.00 262.50 cl
0.00 0.00 450.00 262.50 cl
/Font1 findfont 9 s
0 0 0 srgb
420.85 109.32 (2 20) 0 0 t
0.00 0.00 450.00 262.50 cl
0.00 0.00 450.00 262.50 cl
0.00 0.00 450.00 262.50 cl
0.00 0.00 450.00 262.50 cl
0.00 0.00 450.00 262.50 cl
0.00 0.00 450.00 262.50 cl
0.00 0.00 450.00 262.50 cl
0.00 0.00 450.00 262.50 cl
0.00 0.00 450.00 262.50 cl
0.00 0.00 450.00 262.50 cl
ep
%%Trailer
%%Pages: 1
%%EOF
