%!PS-Adobe-3.0 EPSF-3.0
%%DocumentNeededResources: font Helvetica
%%+ font Helvetica-Bold
%%+ font Helvetica-Oblique
%%+ font Helvetica-BoldOblique
%%+ font Symbol
%%Title: R Graphics Output
%%Creator: R Software
%%Pages: (atend)
%%BoundingBox: 0 0 509 282
%%EndComments
%%BeginProlog
/bp  { gs sRGB gs } def
% begin .ps.prolog
/gs  { gsave } bind def
/gr  { grestore } bind def
/ep  { showpage gr gr } bind def
/m   { moveto } bind def
/l  { rlineto } bind def
/np  { newpath } bind def
/cp  { closepath } bind def
/f   { fill } bind def
/o   { stroke } bind def
/c   { newpath 0 360 arc } bind def
/r   { 4 2 roll moveto 1 copy 3 -1 roll exch 0 exch rlineto 0 rlineto -1 mul 0 exch rlineto closepath } bind def
/p1  { stroke } bind def
/p2  { gsave bg fill grestore newpath } bind def
/p3  { gsave bg fill grestore stroke } bind def
/p6  { gsave bg eofill grestore newpath } bind def
/p7  { gsave bg eofill grestore stroke } bind def
/t   { 5 -2 roll moveto gsave rotate
       1 index stringwidth pop
       mul neg 0 rmoveto show grestore } bind def
/ta  { 4 -2 roll moveto gsave rotate show } bind def
/tb  { 2 -1 roll 0 rmoveto show } bind def
/cl  { grestore gsave newpath 3 index 3 index moveto 1 index
       4 -1 roll lineto  exch 1 index lineto lineto
       closepath clip newpath } bind def
/rgb { setrgbcolor } bind def
/s   { scalefont setfont } bind def
% end   .ps.prolog
/sRGB { [ /CIEBasedABC
          << /DecodeLMN
               [ { dup 0.03928 le
                        {12.92321 div}
                        {0.055 add 1.055 div 2.4 exp }
                     ifelse
                 } bind dup dup
               ]
             /MatrixLMN [0.412457 0.212673 0.019334
                         0.357576 0.715152 0.119192
                         0.180437 0.072175 0.950301]
             /WhitePoint [0.9505 1.0 1.0890]
           >>
         ] setcolorspace } bind def
/srgb { setcolor } bind def
% begin encoding
/WinAnsiEncoding [
 /.notdef /.notdef /.notdef /.notdef /.notdef /.notdef /.notdef /.notdef
 /.notdef /.notdef /.notdef /.notdef /.notdef /.notdef /.notdef /.notdef
 /.notdef /.notdef /.notdef /.notdef /.notdef /.notdef /.notdef /.notdef
 /.notdef /.notdef /.notdef /.notdef /.notdef /.notdef /.notdef /.notdef
 /space /exclam /quotedbl /numbersign /dollar /percent /ampersand /quoteright
 /parenleft /parenright /asterisk /plus /comma /minus /period /slash
 /zero /one /two /three /four /five /six /seven
 /eight /nine /colon /semicolon /less /equal /greater /question
 /at /A /B /C /D /E /F /G
 /H /I /J /K /L /M /N /O
 /P /Q /R /S /T /U /V /W
 /X /Y /Z /bracketleft /backslash /bracketright /asciicircum /underscore
 /grave /a /b /c /d /e /f /g
 /h /i /j /k /l /m /n /o
 /p /q /r /s /t /u /v /w
 /x /y /z /braceleft /bar /braceright /asciitilde /.notdef
 /Euro /.notdef /quotesinglbase /florin /quotedblbase /ellipsis /dagger /daggerdbl
 /circumflex /perthousand /Scaron /guilsinglleft /OE /.notdef /Zcaron /.notdef
 /.notdef /quoteleft /quoteright /quotedblleft /quotedblright /bullet /endash /emdash
 /tilde /trademark /scaron /guilsinglright /oe /.notdef /zcaron /Ydieresis
 /space /exclamdown /cent /sterling /currency /yen /brokenbar /section
 /dieresis /copyright /ordfeminine /guillemotleft /logicalnot /hyphen /registered /macron
 /degree /plusminus /twosuperior /threesuperior /acute /mu /paragraph /periodcentered
 /cedilla /onesuperior /ordmasculine /guillemotright /onequarter /onehalf /threequarters /questiondown
 /Agrave /Aacute /Acircumflex /Atilde /Adieresis /Aring /AE /Ccedilla
 /Egrave /Eacute /Ecircumflex /Edieresis /Igrave /Iacute /Icircumflex /Idieresis
 /Eth /Ntilde /Ograve /Oacute /Ocircumflex /Otilde /Odieresis /multiply
 /Oslash /Ugrave /Uacute /Ucircumflex /Udieresis /Yacute /Thorn /germandbls
 /agrave /aacute /acircumflex /atilde /adieresis /aring /ae /ccedilla
 /egrave /eacute /ecircumflex /edieresis /igrave /iacute /icircumflex /idieresis
 /eth /ntilde /ograve /oacute /ocircumflex /otilde /odieresis /divide
 /oslash /ugrave /uacute /ucircumflex /udieresis /yacute /thorn /ydieresis
]
 def
% end encoding
%%IncludeResource: font Helvetica
/Helvetica findfont
dup length dict begin
  {1 index /FID ne {def} {pop pop} ifelse} forall
  /Encoding WinAnsiEncoding def
  currentdict
  end
/Font1 exch definefont pop
%%IncludeResource: font Helvetica-Bold
/Helvetica-Bold findfont
dup length dict begin
  {1 index /FID ne {def} {pop pop} ifelse} forall
  /Encoding WinAnsiEncoding def
  currentdict
  end
/Font2 exch definefont pop
%%IncludeResource: font Helvetica-Oblique
/Helvetica-Oblique findfont
dup length dict begin
  {1 index /FID ne {def} {pop pop} ifelse} forall
  /Encoding WinAnsiEncoding def
  currentdict
  end
/Font3 exch definefont pop
%%IncludeResource: font Helvetica-BoldOblique
/Helvetica-BoldOblique findfont
dup length dict begin
  {1 index /FID ne {def} {pop pop} ifelse} forall
  /Encoding WinAnsiEncoding def
  currentdict
  end
/Font4 exch definefont pop
%%IncludeResource: font Symbol
/Symbol findfont
dup length dict begin
  {1 index /FID ne {def} {pop pop} ifelse} forall
  currentdict
  end
/Font5 exch definefont pop
%%EndProlog
%%Page: 1 1
bp
0.00 0.00 509.25 282.00 cl
0.00 0.00 509.25 282.00 cl
0.00 0.00 509.25 282.00 cl
0.00 0.00 509.25 282.00 cl
0.00 0.00 509.25 282.00 cl
0.00 0.00 509.25 282.00 cl
0.00 0.00 509.25 282.00 cl
0.00 0.00 509.25 282.00 cl
0.00 0.00 509.25 282.00 cl
/bg { 1 1 1 srgb } def
1 1 1 srgb
1.07 setlinewidth
[] 0 setdash
1 setlinecap
1 setlinejoin
10.00 setmiterlimit
-0.00 0.00 509.25 282.00 r p3
0.00 0.00 509.25 282.00 cl
41.30 32.50 433.15 276.52 cl
/bg { 1 1 1 srgb } def
41.30 32.50 391.85 244.02 r p2
0.9216 0.9216 0.9216 srgb
0.53 setlinewidth
[] 0 setdash
0 setlinecap
1 setlinejoin
10.00 setmiterlimit
np
41.30 71.32 m
391.85 0 l
o
np
41.30 126.78 m
391.85 0 l
o
np
41.30 182.24 m
391.85 0 l
o
np
41.30 237.70 m
391.85 0 l
o
np
106.61 32.50 m
0 244.02 l
o
np
237.23 32.50 m
0 244.02 l
o
np
367.85 32.50 m
0 244.02 l
o
1.07 setlinewidth
[] 0 setdash
np
41.30 43.59 m
391.85 0 l
o
np
41.30 99.05 m
391.85 0 l
o
np
41.30 154.51 m
391.85 0 l
o
np
41.30 209.97 m
391.85 0 l
o
np
41.30 265.43 m
391.85 0 l
o
np
41.30 32.50 m
0 244.02 l
o
np
171.92 32.50 m
0 244.02 l
o
np
302.54 32.50 m
0 244.02 l
o
0.9725 0.4627 0.4275 srgb
1.00 setmiterlimit
np
42.09 43.59 m
0.78 0 l
0.78 0 l
0.79 0 l
0.78 0 l
0.78 0 l
0.79 0 l
0.78 0 l
0.79 0 l
0.78 0 l
0.78 0 l
0.79 0 l
0.78 0 l
0.78 0 l
0.79 0 l
0.78 0 l
0.79 0 l
0.78 0 l
0.78 0 l
0.79 0 l
0.78 0 l
0.78 0.01 l
0.79 0 l
0.78 0 l
0.78 0.01 l
0.79 0.01 l
0.78 0.01 l
0.79 0.02 l
0.78 0.03 l
0.78 0.04 l
0.79 0.06 l
0.78 0.06 l
0.78 0.09 l
0.79 0.11 l
0.78 0.13 l
0.79 0.15 l
0.78 0.19 l
0.78 0.23 l
0.79 0.26 l
0.78 0.30 l
0.78 0.34 l
0.79 0.39 l
0.78 0.44 l
0.79 0.50 l
0.78 0.54 l
0.78 0.61 l
0.79 0.66 l
0.78 0.72 l
0.78 0.78 l
0.79 0.85 l
0.78 0.91 l
0.78 0.97 l
0.79 1.04 l
0.78 1.10 l
0.79 1.17 l
0.78 1.23 l
0.78 1.30 l
0.79 1.36 l
0.78 1.42 l
0.78 1.48 l
0.79 1.54 l
0.78 1.60 l
0.79 1.66 l
0.78 1.71 l
0.78 1.77 l
0.79 1.81 l
0.78 1.87 l
0.78 1.91 l
0.79 1.96 l
0.78 2.01 l
0.79 2.04 l
0.78 2.09 l
0.78 2.12 l
0.79 2.15 l
0.78 2.19 l
0.78 2.22 l
0.79 2.25 l
0.78 2.27 l
0.78 2.29 l
0.79 2.32 l
0.78 2.34 l
0.79 2.35 l
0.78 2.37 l
0.78 2.39 l
0.79 2.39 l
0.78 2.41 l
0.78 2.41 l
0.79 2.42 l
0.78 2.42 l
0.79 2.42 l
0.78 2.43 l
0.78 2.42 l
0.79 2.42 l
0.78 2.42 l
0.78 2.41 l
0.79 2.40 l
0.78 2.40 l
0.79 2.38 l
0.78 2.38 l
0.78 2.36 l
120.46 153.18 lineto
0.78 2.33 l
0.78 2.32 l
0.79 2.31 l
0.78 2.28 l
0.78 2.27 l
0.79 2.25 l
0.78 2.23 l
0.79 2.21 l
0.78 2.19 l
0.78 2.16 l
0.79 2.15 l
0.78 2.11 l
0.78 2.10 l
0.79 2.07 l
0.78 2.05 l
0.79 2.02 l
0.78 1.99 l
0.78 1.97 l
0.79 1.95 l
0.78 1.91 l
0.78 1.89 l
0.79 1.86 l
0.78 1.84 l
0.79 1.80 l
0.78 1.78 l
0.78 1.75 l
0.79 1.72 l
0.78 1.70 l
0.78 1.66 l
0.79 1.64 l
0.78 1.61 l
0.78 1.58 l
0.79 1.55 l
0.78 1.52 l
0.79 1.50 l
0.78 1.46 l
0.78 1.44 l
0.79 1.41 l
0.78 1.38 l
0.78 1.35 l
0.79 1.32 l
0.78 1.30 l
0.79 1.26 l
0.78 1.24 l
0.78 1.22 l
0.79 1.18 l
0.78 1.16 l
0.78 1.13 l
0.79 1.10 l
0.78 1.08 l
0.79 1.05 l
0.78 1.02 l
0.78 1.00 l
0.79 0.97 l
0.78 0.94 l
0.78 0.92 l
0.79 0.90 l
0.78 0.87 l
0.78 0.84 l
0.79 0.82 l
0.78 0.80 l
0.79 0.77 l
0.78 0.75 l
0.78 0.72 l
0.79 0.70 l
0.78 0.68 l
0.78 0.65 l
0.79 0.63 l
0.78 0.61 l
0.79 0.59 l
0.78 0.57 l
0.78 0.54 l
0.79 0.53 l
0.78 0.50 l
0.78 0.48 l
0.79 0.46 l
0.78 0.44 l
0.79 0.42 l
0.78 0.40 l
0.78 0.38 l
0.79 0.37 l
0.78 0.34 l
0.78 0.32 l
0.79 0.31 l
0.78 0.29 l
0.78 0.27 l
0.79 0.25 l
0.78 0.24 l
0.79 0.21 l
0.78 0.21 l
0.78 0.18 l
0.79 0.17 l
0.78 0.15 l
0.78 0.14 l
0.79 0.12 l
0.78 0.10 l
0.79 0.09 l
0.78 0.08 l
0.78 0.06 l
198.83 265.38 lineto
0.78 0.03 l
0.78 0.01 l
0.79 0.01 l
0.78 -0.01 l
0.79 -0.02 l
0.78 -0.04 l
0.78 -0.05 l
0.79 -0.06 l
0.78 -0.07 l
0.78 -0.09 l
0.79 -0.10 l
0.78 -0.11 l
0.78 -0.12 l
0.79 -0.13 l
0.78 -0.14 l
0.79 -0.16 l
0.78 -0.17 l
0.78 -0.17 l
0.79 -0.19 l
0.78 -0.20 l
0.78 -0.20 l
0.79 -0.22 l
0.78 -0.23 l
0.79 -0.23 l
0.78 -0.25 l
0.78 -0.25 l
0.79 -0.27 l
0.78 -0.27 l
0.78 -0.28 l
0.79 -0.29 l
0.78 -0.30 l
0.79 -0.30 l
0.78 -0.32 l
0.78 -0.32 l
0.79 -0.33 l
0.78 -0.33 l
0.78 -0.35 l
0.79 -0.35 l
0.78 -0.36 l
0.78 -0.36 l
0.79 -0.38 l
0.78 -0.37 l
0.79 -0.39 l
0.78 -0.39 l
0.78 -0.40 l
0.79 -0.40 l
0.78 -0.41 l
0.78 -0.42 l
0.79 -0.42 l
0.78 -0.42 l
0.79 -0.43 l
0.78 -0.44 l
0.78 -0.44 l
0.79 -0.45 l
0.78 -0.45 l
0.78 -0.46 l
0.79 -0.46 l
0.78 -0.47 l
0.79 -0.47 l
0.78 -0.47 l
0.78 -0.48 l
0.79 -0.49 l
0.78 -0.48 l
0.78 -0.49 l
0.79 -0.50 l
0.78 -0.50 l
0.78 -0.50 l
0.79 -0.51 l
0.78 -0.51 l
0.79 -0.51 l
0.78 -0.51 l
0.78 -0.52 l
0.79 -0.53 l
0.78 -0.52 l
0.78 -0.53 l
0.79 -0.53 l
0.78 -0.53 l
0.79 -0.54 l
0.78 -0.54 l
0.78 -0.54 l
0.79 -0.54 l
0.78 -0.55 l
0.78 -0.55 l
0.79 -0.55 l
0.78 -0.55 l
0.79 -0.55 l
0.78 -0.56 l
0.78 -0.56 l
0.79 -0.56 l
0.78 -0.56 l
0.78 -0.56 l
0.79 -0.56 l
0.78 -0.57 l
0.78 -0.57 l
0.79 -0.57 l
0.78 -0.57 l
0.79 -0.57 l
0.78 -0.57 l
0.78 -0.58 l
277.20 227.77 lineto
0.78 -0.58 l
0.78 -0.57 l
0.79 -0.58 l
0.78 -0.58 l
0.79 -0.58 l
0.78 -0.58 l
0.78 -0.58 l
0.79 -0.58 l
0.78 -0.59 l
0.78 -0.58 l
0.79 -0.58 l
0.78 -0.59 l
0.78 -0.58 l
0.79 -0.59 l
0.78 -0.58 l
0.79 -0.59 l
0.78 -0.58 l
0.78 -0.59 l
0.79 -0.58 l
0.78 -0.59 l
0.78 -0.59 l
0.79 -0.58 l
0.78 -0.59 l
0.79 -0.59 l
0.78 -0.58 l
0.78 -0.59 l
0.79 -0.58 l
0.78 -0.59 l
0.78 -0.59 l
0.79 -0.58 l
0.78 -0.59 l
0.79 -0.58 l
0.78 -0.58 l
0.78 -0.59 l
0.79 -0.58 l
0.78 -0.59 l
0.78 -0.58 l
0.79 -0.58 l
0.78 -0.58 l
0.78 -0.58 l
0.79 -0.58 l
0.78 -0.58 l
0.79 -0.58 l
0.78 -0.58 l
0.78 -0.58 l
0.79 -0.58 l
0.78 -0.57 l
0.78 -0.58 l
0.79 -0.57 l
0.78 -0.58 l
0.79 -0.57 l
0.78 -0.58 l
0.78 -0.57 l
0.79 -0.57 l
0.78 -0.57 l
0.78 -0.57 l
0.79 -0.56 l
0.78 -0.57 l
0.79 -0.57 l
0.78 -0.56 l
0.78 -0.57 l
0.79 -0.56 l
0.78 -0.56 l
0.78 -0.56 l
0.79 -0.56 l
0.78 -0.56 l
0.78 -0.56 l
0.79 -0.56 l
0.78 -0.55 l
0.79 -0.56 l
0.78 -0.55 l
0.78 -0.55 l
0.79 -0.55 l
0.78 -0.55 l
0.78 -0.55 l
0.79 -0.55 l
0.78 -0.54 l
0.79 -0.55 l
0.78 -0.54 l
0.78 -0.54 l
0.79 -0.54 l
0.78 -0.54 l
0.78 -0.54 l
0.79 -0.54 l
0.78 -0.53 l
0.79 -0.54 l
0.78 -0.53 l
0.78 -0.53 l
0.79 -0.53 l
0.78 -0.53 l
0.78 -0.53 l
0.79 -0.53 l
0.78 -0.52 l
0.78 -0.52 l
0.79 -0.52 l
0.78 -0.53 l
0.79 -0.51 l
0.78 -0.52 l
0.78 -0.52 l
355.57 171.33 lineto
0.78 -0.52 l
0.78 -0.51 l
0.79 -0.51 l
0.78 -0.51 l
0.79 -0.50 l
0.78 -0.51 l
0.78 -0.50 l
0.79 -0.51 l
0.78 -0.50 l
0.78 -0.50 l
0.79 -0.50 l
0.78 -0.49 l
0.79 -0.50 l
0.78 -0.49 l
0.78 -0.49 l
0.79 -0.49 l
0.78 -0.49 l
0.78 -0.49 l
0.79 -0.49 l
0.78 -0.48 l
0.78 -0.48 l
0.79 -0.49 l
0.78 -0.48 l
0.79 -0.47 l
0.78 -0.48 l
0.78 -0.48 l
0.79 -0.47 l
0.78 -0.47 l
0.78 -0.47 l
0.79 -0.47 l
0.78 -0.47 l
0.79 -0.47 l
0.78 -0.46 l
0.78 -0.46 l
0.79 -0.47 l
0.78 -0.46 l
0.78 -0.45 l
0.79 -0.46 l
0.78 -0.46 l
0.79 -0.45 l
0.78 -0.45 l
0.78 -0.45 l
0.79 -0.45 l
0.78 -0.45 l
0.78 -0.44 l
0.79 -0.45 l
0.78 -0.44 l
0.78 -0.44 l
0.79 -0.44 l
0.78 -0.44 l
0.79 -0.44 l
0.78 -0.43 l
0.78 -0.44 l
0.79 -0.43 l
0.78 -0.43 l
0.78 -0.43 l
0.79 -0.42 l
0.78 -0.43 l
0.79 -0.42 l
0.78 -0.43 l
0.78 -0.42 l
0.79 -0.42 l
0.78 -0.41 l
0.78 -0.42 l
0.79 -0.42 l
0.78 -0.41 l
0.79 -0.41 l
0.78 -0.41 l
0.78 -0.41 l
0.79 -0.41 l
0.78 -0.40 l
0.78 -0.41 l
0.79 -0.40 l
0.78 -0.40 l
0.78 -0.40 l
0.79 -0.40 l
0.78 -0.40 l
0.79 -0.39 l
0.78 -0.40 l
0.78 -0.39 l
0.79 -0.39 l
0.78 -0.39 l
0.78 -0.39 l
0.79 -0.38 l
0.78 -0.39 l
0.79 -0.38 l
0.78 -0.38 l
0.78 -0.39 l
0.79 -0.37 l
0.78 -0.38 l
0.78 -0.38 l
0.79 -0.37 l
0.78 -0.38 l
0.79 -0.37 l
0.78 -0.37 l
0.78 -0.37 l
0.79 -0.36 l
0.78 -0.37 l
0.78 -0.36 l
o
1.07 setlinewidth
[ 2.13 2.13] 0 setdash
np
42.09 43.59 m
0.78 0 l
0.78 0 l
0.79 0 l
0.78 0 l
0.78 0 l
0.79 0 l
0.78 0 l
0.79 0 l
0.78 0 l
0.78 0 l
0.79 0 l
0.78 0 l
0.78 0 l
0.79 0 l
0.78 0 l
0.79 0 l
0.78 0 l
0.78 0 l
0.79 0 l
0.78 0 l
0.78 0 l
0.79 0.01 l
0.78 0 l
0.78 0 l
0.79 0.01 l
0.78 0.01 l
0.79 0.02 l
0.78 0.02 l
0.78 0.02 l
0.79 0.04 l
0.78 0.05 l
0.78 0.06 l
0.79 0.07 l
0.78 0.10 l
0.79 0.11 l
0.78 0.13 l
0.78 0.16 l
0.79 0.19 l
0.78 0.22 l
0.78 0.24 l
0.79 0.29 l
0.78 0.32 l
0.79 0.35 l
0.78 0.40 l
0.78 0.44 l
0.79 0.49 l
0.78 0.53 l
0.78 0.57 l
0.79 0.63 l
0.78 0.67 l
0.78 0.73 l
0.79 0.77 l
0.78 0.82 l
0.79 0.88 l
0.78 0.93 l
0.78 0.97 l
0.79 1.03 l
0.78 1.08 l
0.78 1.13 l
0.79 1.18 l
0.78 1.23 l
0.79 1.27 l
0.78 1.32 l
0.78 1.37 l
0.79 1.41 l
0.78 1.46 l
0.78 1.50 l
0.79 1.54 l
0.78 1.57 l
0.79 1.62 l
0.78 1.66 l
0.78 1.68 l
0.79 1.73 l
0.78 1.75 l
0.78 1.79 l
0.79 1.82 l
0.78 1.84 l
0.78 1.87 l
0.79 1.89 l
0.78 1.92 l
0.79 1.94 l
0.78 1.96 l
0.78 1.98 l
0.79 2.00 l
0.78 2.01 l
0.78 2.02 l
0.79 2.04 l
0.78 2.05 l
0.79 2.06 l
0.78 2.07 l
0.78 2.08 l
0.79 2.08 l
0.78 2.09 l
0.78 2.09 l
0.79 2.10 l
0.78 2.10 l
0.79 2.09 l
0.78 2.10 l
0.78 2.10 l
120.46 132.55 lineto
0.78 2.09 l
0.78 2.08 l
0.79 2.08 l
0.78 2.08 l
0.78 2.06 l
0.79 2.06 l
0.78 2.05 l
0.79 2.04 l
0.78 2.03 l
0.78 2.02 l
0.79 2.01 l
0.78 2.00 l
0.78 1.98 l
0.79 1.97 l
0.78 1.95 l
0.79 1.95 l
0.78 1.92 l
0.78 1.91 l
0.79 1.90 l
0.78 1.88 l
0.78 1.86 l
0.79 1.85 l
0.78 1.83 l
0.79 1.81 l
0.78 1.79 l
0.78 1.78 l
0.79 1.75 l
0.78 1.74 l
0.78 1.72 l
0.79 1.70 l
0.78 1.68 l
0.78 1.66 l
0.79 1.64 l
0.78 1.62 l
0.79 1.60 l
0.78 1.58 l
0.78 1.56 l
0.79 1.54 l
0.78 1.51 l
0.78 1.50 l
0.79 1.48 l
0.78 1.45 l
0.79 1.44 l
0.78 1.41 l
0.78 1.39 l
0.79 1.38 l
0.78 1.35 l
0.78 1.33 l
0.79 1.31 l
0.78 1.28 l
0.79 1.27 l
0.78 1.25 l
0.78 1.22 l
0.79 1.21 l
0.78 1.18 l
0.78 1.17 l
0.79 1.14 l
0.78 1.12 l
0.78 1.11 l
0.79 1.08 l
0.78 1.06 l
0.79 1.04 l
0.78 1.02 l
0.78 1.01 l
0.79 0.98 l
0.78 0.96 l
0.78 0.94 l
0.79 0.93 l
0.78 0.90 l
0.79 0.89 l
0.78 0.86 l
0.78 0.85 l
0.79 0.83 l
0.78 0.81 l
0.78 0.79 l
0.79 0.77 l
0.78 0.76 l
0.79 0.73 l
0.78 0.72 l
0.78 0.70 l
0.79 0.68 l
0.78 0.67 l
0.78 0.65 l
0.79 0.63 l
0.78 0.62 l
0.78 0.59 l
0.79 0.59 l
0.78 0.56 l
0.79 0.55 l
0.78 0.53 l
0.78 0.52 l
0.79 0.50 l
0.78 0.48 l
0.78 0.47 l
0.79 0.46 l
0.78 0.43 l
0.79 0.43 l
0.78 0.41 l
0.78 0.39 l
198.83 259.99 lineto
0.78 0.37 l
0.78 0.35 l
0.79 0.34 l
0.78 0.32 l
0.79 0.31 l
0.78 0.30 l
0.78 0.28 l
0.79 0.27 l
0.78 0.25 l
0.78 0.25 l
0.79 0.23 l
0.78 0.22 l
0.78 0.20 l
0.79 0.20 l
0.78 0.18 l
0.79 0.17 l
0.78 0.15 l
0.78 0.15 l
0.79 0.13 l
0.78 0.13 l
0.78 0.11 l
0.79 0.10 l
0.78 0.09 l
0.79 0.08 l
0.78 0.07 l
0.78 0.05 l
0.79 0.05 l
0.78 0.04 l
0.78 0.02 l
0.79 0.02 l
0.78 0.01 l
0.79 0 l
0.78 -0.02 l
0.78 -0.02 l
0.79 -0.03 l
0.78 -0.04 l
0.78 -0.04 l
0.79 -0.06 l
0.78 -0.07 l
0.78 -0.07 l
0.79 -0.09 l
0.78 -0.09 l
0.79 -0.10 l
0.78 -0.11 l
0.78 -0.11 l
0.79 -0.13 l
0.78 -0.13 l
0.78 -0.14 l
0.79 -0.14 l
0.78 -0.16 l
0.79 -0.16 l
0.78 -0.17 l
0.78 -0.17 l
0.79 -0.18 l
0.78 -0.19 l
0.78 -0.20 l
0.79 -0.20 l
0.78 -0.21 l
0.79 -0.22 l
0.78 -0.22 l
0.78 -0.23 l
0.79 -0.23 l
0.78 -0.24 l
0.78 -0.25 l
0.79 -0.25 l
0.78 -0.25 l
0.78 -0.27 l
0.79 -0.27 l
0.78 -0.27 l
0.79 -0.28 l
0.78 -0.28 l
0.78 -0.29 l
0.79 -0.30 l
0.78 -0.30 l
0.78 -0.30 l
0.79 -0.31 l
0.78 -0.31 l
0.79 -0.32 l
0.78 -0.32 l
0.78 -0.33 l
0.79 -0.33 l
0.78 -0.34 l
0.78 -0.34 l
0.79 -0.34 l
0.78 -0.35 l
0.79 -0.35 l
0.78 -0.36 l
0.78 -0.36 l
0.79 -0.36 l
0.78 -0.37 l
0.78 -0.37 l
0.79 -0.37 l
0.78 -0.38 l
0.78 -0.38 l
0.79 -0.38 l
0.78 -0.39 l
0.79 -0.39 l
0.78 -0.40 l
0.78 -0.39 l
277.20 249.01 lineto
0.78 -0.40 l
0.78 -0.41 l
0.79 -0.41 l
0.78 -0.41 l
0.79 -0.41 l
0.78 -0.42 l
0.78 -0.42 l
0.79 -0.42 l
0.78 -0.42 l
0.78 -0.43 l
0.79 -0.42 l
0.78 -0.43 l
0.78 -0.44 l
0.79 -0.43 l
0.78 -0.44 l
0.79 -0.44 l
0.78 -0.44 l
0.78 -0.44 l
0.79 -0.44 l
0.78 -0.45 l
0.78 -0.45 l
0.79 -0.45 l
0.78 -0.45 l
0.79 -0.45 l
0.78 -0.46 l
0.78 -0.45 l
0.79 -0.46 l
0.78 -0.46 l
0.78 -0.46 l
0.79 -0.46 l
0.78 -0.46 l
0.79 -0.47 l
0.78 -0.46 l
0.78 -0.47 l
0.79 -0.47 l
0.78 -0.47 l
0.78 -0.47 l
0.79 -0.47 l
0.78 -0.47 l
0.78 -0.48 l
0.79 -0.47 l
0.78 -0.47 l
0.79 -0.48 l
0.78 -0.48 l
0.78 -0.47 l
0.79 -0.48 l
0.78 -0.48 l
0.78 -0.48 l
0.79 -0.48 l
0.78 -0.48 l
0.79 -0.48 l
0.78 -0.49 l
0.78 -0.48 l
0.79 -0.48 l
0.78 -0.48 l
0.78 -0.49 l
0.79 -0.48 l
0.78 -0.49 l
0.79 -0.48 l
0.78 -0.49 l
0.78 -0.48 l
0.79 -0.49 l
0.78 -0.49 l
0.78 -0.48 l
0.79 -0.49 l
0.78 -0.49 l
0.78 -0.48 l
0.79 -0.49 l
0.78 -0.49 l
0.79 -0.48 l
0.78 -0.49 l
0.78 -0.49 l
0.79 -0.48 l
0.78 -0.49 l
0.78 -0.49 l
0.79 -0.49 l
0.78 -0.48 l
0.79 -0.49 l
0.78 -0.49 l
0.78 -0.48 l
0.79 -0.49 l
0.78 -0.48 l
0.78 -0.49 l
0.79 -0.49 l
0.78 -0.48 l
0.79 -0.49 l
0.78 -0.48 l
0.78 -0.49 l
0.79 -0.48 l
0.78 -0.48 l
0.78 -0.49 l
0.79 -0.48 l
0.78 -0.48 l
0.78 -0.49 l
0.79 -0.48 l
0.78 -0.48 l
0.79 -0.48 l
0.78 -0.48 l
0.78 -0.48 l
355.57 202.24 lineto
0.78 -0.48 l
0.78 -0.48 l
0.79 -0.48 l
0.78 -0.47 l
0.79 -0.48 l
0.78 -0.48 l
0.78 -0.47 l
0.79 -0.48 l
0.78 -0.47 l
0.78 -0.48 l
0.79 -0.47 l
0.78 -0.47 l
0.79 -0.48 l
0.78 -0.47 l
0.78 -0.47 l
0.79 -0.47 l
0.78 -0.47 l
0.78 -0.47 l
0.79 -0.46 l
0.78 -0.47 l
0.78 -0.47 l
0.79 -0.46 l
0.78 -0.47 l
0.79 -0.46 l
0.78 -0.46 l
0.78 -0.47 l
0.79 -0.46 l
0.78 -0.46 l
0.78 -0.46 l
0.79 -0.46 l
0.78 -0.46 l
0.79 -0.45 l
0.78 -0.46 l
0.78 -0.46 l
0.79 -0.45 l
0.78 -0.46 l
0.78 -0.45 l
0.79 -0.45 l
0.78 -0.45 l
0.79 -0.45 l
0.78 -0.45 l
0.78 -0.45 l
0.79 -0.45 l
0.78 -0.45 l
0.78 -0.44 l
0.79 -0.45 l
0.78 -0.44 l
0.78 -0.45 l
0.79 -0.44 l
0.78 -0.44 l
0.79 -0.44 l
0.78 -0.44 l
0.78 -0.44 l
0.79 -0.44 l
0.78 -0.43 l
0.78 -0.44 l
0.79 -0.43 l
0.78 -0.44 l
0.79 -0.43 l
0.78 -0.43 l
0.78 -0.43 l
0.79 -0.43 l
0.78 -0.43 l
0.78 -0.43 l
0.79 -0.43 l
0.78 -0.42 l
0.79 -0.43 l
0.78 -0.42 l
0.78 -0.42 l
0.79 -0.42 l
0.78 -0.42 l
0.78 -0.42 l
0.79 -0.42 l
0.78 -0.42 l
0.78 -0.42 l
0.79 -0.41 l
0.78 -0.42 l
0.79 -0.41 l
0.78 -0.41 l
0.78 -0.41 l
0.79 -0.41 l
0.78 -0.41 l
0.78 -0.41 l
0.79 -0.41 l
0.78 -0.40 l
0.79 -0.41 l
0.78 -0.40 l
0.78 -0.40 l
0.79 -0.41 l
0.78 -0.40 l
0.78 -0.40 l
0.79 -0.39 l
0.78 -0.40 l
0.79 -0.40 l
0.78 -0.39 l
0.78 -0.40 l
0.79 -0.39 l
0.78 -0.39 l
0.78 -0.39 l
o
0.4863 0.6824 0 srgb
1.07 setlinewidth
[] 0 setdash
np
42.35 43.59 m
1.04 0 l
1.05 0 l
1.04 0 l
1.05 0 l
1.04 0 l
1.05 0 l
1.04 0 l
1.05 0 l
1.04 0 l
1.05 0 l
1.04 0 l
1.05 0 l
1.04 0 l
1.05 0 l
1.04 0 l
1.05 0.01 l
1.04 0.01 l
1.05 0.01 l
1.04 0.02 l
1.05 0.04 l
1.04 0.05 l
1.05 0.09 l
1.04 0.11 l
1.05 0.16 l
1.04 0.22 l
1.05 0.27 l
1.04 0.35 l
1.05 0.43 l
1.04 0.52 l
1.05 0.63 l
1.04 0.73 l
1.05 0.85 l
1.04 0.98 l
1.05 1.10 l
1.04 1.24 l
1.05 1.38 l
1.04 1.52 l
1.04 1.66 l
1.05 1.80 l
1.04 1.95 l
1.05 2.08 l
1.04 2.22 l
1.05 2.35 l
1.04 2.48 l
1.05 2.61 l
1.04 2.72 l
1.05 2.84 l
1.04 2.94 l
1.05 3.05 l
1.04 3.13 l
1.05 3.22 l
1.04 3.31 l
1.05 3.37 l
1.04 3.44 l
1.05 3.49 l
1.04 3.55 l
1.05 3.59 l
1.04 3.63 l
1.05 3.65 l
1.04 3.68 l
1.05 3.70 l
1.04 3.70 l
1.05 3.71 l
1.04 3.71 l
1.05 3.71 l
1.04 3.69 l
1.05 3.67 l
1.04 3.66 l
1.05 3.62 l
1.04 3.60 l
1.05 3.57 l
1.04 3.52 l
1.05 3.49 l
1.04 3.44 l
1.05 3.39 l
1.04 3.35 l
1.05 3.29 l
1.04 3.24 l
1.05 3.18 l
1.04 3.12 l
1.05 3.06 l
1.04 2.99 l
1.05 2.94 l
1.04 2.87 l
1.05 2.80 l
1.04 2.74 l
1.05 2.67 l
1.04 2.60 l
1.05 2.53 l
1.04 2.46 l
1.05 2.40 l
1.04 2.32 l
1.05 2.26 l
1.04 2.18 l
1.05 2.12 l
1.04 2.04 l
1.05 1.98 l
1.04 1.91 l
1.05 1.84 l
146.84 239.91 lineto
1.05 1.70 l
1.04 1.64 l
1.05 1.57 l
1.04 1.50 l
1.05 1.45 l
1.04 1.37 l
1.05 1.32 l
1.04 1.25 l
1.05 1.19 l
1.04 1.12 l
1.05 1.07 l
1.04 1.01 l
1.05 0.96 l
1.04 0.89 l
1.05 0.84 l
1.04 0.78 l
1.04 0.73 l
1.05 0.68 l
1.04 0.62 l
1.05 0.58 l
1.04 0.52 l
1.05 0.47 l
1.04 0.43 l
1.05 0.38 l
1.04 0.33 l
1.05 0.29 l
1.04 0.24 l
1.05 0.20 l
1.04 0.16 l
1.05 0.12 l
1.04 0.07 l
1.05 0.04 l
1.04 0 l
1.05 -0.04 l
1.04 -0.08 l
1.05 -0.11 l
1.04 -0.14 l
1.05 -0.18 l
1.04 -0.21 l
1.05 -0.25 l
1.04 -0.27 l
1.05 -0.31 l
1.04 -0.34 l
1.05 -0.36 l
1.04 -0.39 l
1.05 -0.42 l
1.04 -0.45 l
1.05 -0.47 l
1.04 -0.49 l
1.05 -0.52 l
1.04 -0.54 l
1.05 -0.57 l
1.04 -0.59 l
1.05 -0.60 l
1.04 -0.63 l
1.05 -0.65 l
1.04 -0.67 l
1.05 -0.69 l
1.04 -0.70 l
1.05 -0.72 l
1.04 -0.74 l
1.05 -0.75 l
1.04 -0.77 l
1.05 -0.79 l
1.04 -0.80 l
1.05 -0.81 l
1.04 -0.83 l
1.05 -0.84 l
1.04 -0.85 l
1.05 -0.86 l
1.04 -0.88 l
1.05 -0.88 l
1.04 -0.90 l
1.05 -0.90 l
1.04 -0.92 l
1.05 -0.92 l
1.04 -0.93 l
1.05 -0.94 l
1.04 -0.95 l
1.05 -0.96 l
1.04 -0.96 l
1.05 -0.97 l
1.04 -0.98 l
1.05 -0.98 l
1.04 -0.99 l
1.05 -0.99 l
1.04 -1.00 l
1.05 -1.00 l
1.04 -1.00 l
1.05 -1.01 l
1.04 -1.02 l
1.05 -1.02 l
1.04 -1.02 l
1.05 -1.02 l
1.04 -1.02 l
1.04 -1.03 l
1.05 -1.03 l
1.04 -1.03 l
1.05 -1.04 l
251.33 216.68 lineto
1.05 -1.04 l
1.04 -1.03 l
1.05 -1.04 l
1.04 -1.04 l
1.05 -1.04 l
1.04 -1.03 l
1.05 -1.04 l
1.04 -1.04 l
1.05 -1.04 l
1.04 -1.03 l
1.05 -1.04 l
1.04 -1.03 l
1.05 -1.03 l
1.04 -1.04 l
1.05 -1.03 l
1.04 -1.02 l
1.05 -1.03 l
1.04 -1.03 l
1.05 -1.02 l
1.04 -1.02 l
1.05 -1.02 l
1.04 -1.01 l
1.05 -1.02 l
1.04 -1.01 l
1.05 -1.01 l
1.04 -1.00 l
1.05 -1.00 l
1.04 -1.00 l
1.05 -1.00 l
1.04 -0.99 l
1.05 -0.99 l
1.04 -0.99 l
1.05 -0.98 l
1.04 -0.98 l
1.05 -0.97 l
1.04 -0.97 l
1.05 -0.97 l
1.04 -0.96 l
1.05 -0.96 l
1.04 -0.96 l
1.05 -0.95 l
1.04 -0.95 l
1.05 -0.94 l
1.04 -0.94 l
1.05 -0.94 l
1.04 -0.93 l
1.05 -0.93 l
1.04 -0.92 l
1.05 -0.92 l
1.04 -0.91 l
1.05 -0.91 l
1.04 -0.90 l
1.05 -0.90 l
1.04 -0.90 l
1.05 -0.89 l
1.04 -0.88 l
1.05 -0.88 l
1.04 -0.88 l
1.05 -0.87 l
1.04 -0.87 l
1.05 -0.86 l
1.04 -0.86 l
1.05 -0.85 l
1.04 -0.85 l
1.05 -0.84 l
1.04 -0.84 l
1.05 -0.83 l
1.04 -0.83 l
1.05 -0.83 l
1.04 -0.82 l
1.05 -0.81 l
1.04 -0.81 l
1.05 -0.80 l
1.04 -0.80 l
1.04 -0.80 l
1.05 -0.79 l
1.04 -0.78 l
1.05 -0.78 l
1.04 -0.78 l
1.05 -0.77 l
1.04 -0.76 l
1.05 -0.76 l
1.04 -0.76 l
1.05 -0.75 l
1.04 -0.74 l
1.05 -0.74 l
1.04 -0.74 l
1.05 -0.73 l
1.04 -0.73 l
1.05 -0.72 l
1.04 -0.71 l
1.05 -0.72 l
1.04 -0.70 l
1.05 -0.71 l
1.04 -0.69 l
1.05 -0.70 l
1.04 -0.68 l
1.05 -0.69 l
1.04 -0.68 l
355.83 127.31 lineto
1.04 -0.67 l
1.05 -0.66 l
1.04 -0.66 l
1.05 -0.66 l
1.04 -0.65 l
1.05 -0.65 l
1.04 -0.64 l
1.05 -0.63 l
1.04 -0.64 l
1.05 -0.62 l
1.04 -0.63 l
1.05 -0.62 l
1.04 -0.61 l
1.05 -0.61 l
1.04 -0.61 l
1.05 -0.60 l
1.04 -0.59 l
1.05 -0.60 l
1.04 -0.59 l
1.05 -0.58 l
1.04 -0.58 l
1.05 -0.57 l
1.04 -0.57 l
1.05 -0.57 l
1.04 -0.56 l
1.05 -0.56 l
1.04 -0.56 l
1.05 -0.55 l
1.04 -0.54 l
1.05 -0.54 l
1.04 -0.54 l
1.05 -0.54 l
1.04 -0.52 l
1.05 -0.53 l
1.04 -0.52 l
1.05 -0.52 l
1.04 -0.51 l
1.05 -0.51 l
1.04 -0.51 l
1.05 -0.50 l
1.04 -0.50 l
1.05 -0.49 l
1.04 -0.49 l
1.05 -0.49 l
1.04 -0.48 l
1.05 -0.48 l
1.04 -0.48 l
1.05 -0.47 l
1.04 -0.47 l
1.05 -0.46 l
1.04 -0.46 l
1.05 -0.46 l
1.04 -0.46 l
1.04 -0.45 l
1.05 -0.44 l
1.04 -0.44 l
1.05 -0.44 l
1.04 -0.44 l
1.05 -0.43 l
1.04 -0.43 l
1.05 -0.43 l
1.04 -0.42 l
1.05 -0.42 l
1.04 -0.42 l
1.05 -0.41 l
1.04 -0.41 l
1.05 -0.40 l
1.04 -0.41 l
1.05 -0.40 l
1.04 -0.39 l
1.05 -0.40 l
1.04 -0.39 l
1.05 -0.38 l
1.04 -0.39 l
o
1.07 setlinewidth
[ 2.13 2.13] 0 setdash
np
42.35 43.59 m
0 0 l
0 0 l
1.04 0 l
0 0 l
0 0 l
1.05 0 l
0 0 l
0 0 l
1.04 0 l
0 0 l
0 0 l
1.05 0 l
0 0 l
0 0 l
1.04 0 l
0 0 l
0 0 l
1.05 0 l
0 0 l
0 0 l
1.04 0 l
0 0 l
0 0 l
1.05 0 l
0 0 l
0 0 l
1.04 0 l
0 0 l
0 0 l
1.05 0 l
0 0 l
0 0 l
1.04 0 l
0 0 l
0 0 l
1.05 0 l
0 0 l
0 0 l
1.04 0 l
0 0 l
0 0 l
1.05 0 l
0 0 l
0 0 l
1.04 0 l
0 0 l
0 0 l
1.05 0.01 l
0 0 l
0 0 l
1.04 0 l
0 0 l
0 0 l
1.05 0.01 l
0 0 l
0 0 l
1.04 0.01 l
0 0 l
0 0 l
1.05 0.02 l
0 0 l
0 0 l
1.04 0.03 l
0 0 l
0 0 l
1.05 0.04 l
0 0 l
0 0 l
1.04 0.06 l
0 0 l
0 0 l
1.05 0.09 l
0 0 l
0 0 l
1.04 0.12 l
0 0 l
0 0 l
1.05 0.15 l
0 0 l
0 0 l
1.04 0.19 l
0 0 l
0 0 l
1.05 0.24 l
0 0 l
0 0 l
1.04 0.29 l
0 0 l
0 0 l
1.05 0.35 l
0 0 l
0 0 l
1.04 0.41 l
0 0 l
0 0 l
1.05 0.49 l
0 0 l
0 0 l
1.04 0.56 l
76.83 46.66 lineto
0 0 l
1.05 0.64 l
0 0 l
0 0 l
1.04 0.72 l
0 0 l
0 0 l
1.05 0.81 l
0 0 l
0 0 l
1.04 0.89 l
0 0 l
0 0 l
1.04 0.99 l
0 0 l
0 0 l
1.05 1.08 l
0 0 l
0 0 l
1.04 1.17 l
0 0 l
0 0 l
1.05 1.27 l
0 0 l
0 0 l
1.04 1.36 l
0 0 l
0 0 l
1.05 1.46 l
0 0 l
0 0 l
1.04 1.55 l
0 0 l
0 0 l
1.05 1.63 l
0 0 l
0 0 l
1.04 1.73 l
0 0 l
0 0 l
1.05 1.82 l
0 0 l
0 0 l
1.04 1.89 l
0 0 l
0 0 l
1.05 1.98 l
0 0 l
0 0 l
1.04 2.06 l
0 0 l
0 0 l
1.05 2.14 l
0 0 l
0 0 l
1.04 2.20 l
0 0 l
0 0 l
1.05 2.28 l
0 0 l
0 0 l
1.04 2.34 l
0 0 l
0 0 l
1.05 2.40 l
0 0 l
0 0 l
1.04 2.46 l
0 0 l
0 0 l
1.05 2.51 l
0 0 l
0 0 l
1.04 2.56 l
0 0 l
0 0 l
1.05 2.61 l
0 0 l
0 0 l
1.04 2.65 l
0 0 l
0 0 l
1.05 2.69 l
0 0 l
0 0 l
1.04 2.72 l
0 0 l
0 0 l
1.05 2.76 l
0 0 l
0 0 l
1.04 2.78 l
0 0 l
0 0 l
1.05 2.81 l
0 0 l
0 0 l
1.04 2.83 l
0 0 l
111.31 110.45 lineto
1.05 2.84 l
0 0 l
0 0 l
1.04 2.86 l
0 0 l
0 0 l
1.05 2.87 l
0 0 l
0 0 l
1.04 2.88 l
0 0 l
0 0 l
1.05 2.88 l
0 0 l
0 0 l
1.04 2.89 l
0 0 l
0 0 l
1.05 2.88 l
0 0 l
0 0 l
1.04 2.88 l
0 0 l
0 0 l
1.05 2.88 l
0 0 l
0 0 l
1.04 2.87 l
0 0 l
0 0 l
1.05 2.85 l
0 0 l
0 0 l
1.04 2.85 l
0 0 l
0 0 l
1.05 2.83 l
0 0 l
0 0 l
1.04 2.81 l
0 0 l
0 0 l
1.05 2.79 l
0 0 l
0 0 l
1.04 2.78 l
0 0 l
0 0 l
1.05 2.75 l
0 0 l
0 0 l
1.04 2.73 l
0 0 l
0 0 l
1.05 2.70 l
0 0 l
0 0 l
1.04 2.68 l
0 0 l
0 0 l
1.05 2.65 l
0 0 l
0 0 l
1.04 2.61 l
0 0 l
0 0 l
1.05 2.59 l
0 0 l
0 0 l
1.04 2.56 l
0 0 l
0 0 l
1.05 2.53 l
0 0 l
0 0 l
1.04 2.49 l
0 0 l
0 0 l
1.05 2.45 l
0 0 l
0 0 l
1.04 2.43 l
0 0 l
0 0 l
1.05 2.38 l
0 0 l
0 0 l
1.04 2.35 l
0 0 l
0 0 l
1.05 2.32 l
0 0 l
0 0 l
1.04 2.27 l
0 0 l
0 0 l
1.05 2.24 l
0 0 l
0 0 l
146.84 201.02 lineto
0 0 l
0 0 l
1.05 2.16 l
0 0 l
0 0 l
1.04 2.12 l
0 0 l
0 0 l
1.05 2.08 l
0 0 l
0 0 l
1.04 2.04 l
0 0 l
0 0 l
1.05 2.01 l
0 0 l
0 0 l
1.04 1.96 l
0 0 l
0 0 l
1.05 1.92 l
0 0 l
0 0 l
1.04 1.88 l
0 0 l
0 0 l
1.05 1.84 l
0 0 l
0 0 l
1.04 1.80 l
0 0 l
0 0 l
1.05 1.76 l
0 0 l
0 0 l
1.04 1.72 l
0 0 l
0 0 l
1.05 1.69 l
0 0 l
0 0 l
1.04 1.64 l
0 0 l
0 0 l
1.05 1.60 l
0 0 l
0 0 l
1.04 1.56 l
0 0 l
0 0 l
1.04 1.52 l
0 0 l
0 0 l
1.05 1.48 l
0 0 l
0 0 l
1.04 1.44 l
0 0 l
0 0 l
1.05 1.40 l
0 0 l
0 0 l
1.04 1.37 l
0 0 l
0 0 l
1.05 1.33 l
0 0 l
0 0 l
1.04 1.28 l
0 0 l
0 0 l
1.05 1.25 l
0 0 l
0 0 l
1.04 1.22 l
0 0 l
0 0 l
1.05 1.17 l
0 0 l
0 0 l
1.04 1.14 l
0 0 l
0 0 l
1.05 1.10 l
0 0 l
0 0 l
1.04 1.07 l
0 0 l
0 0 l
1.05 1.03 l
0 0 l
0 0 l
1.04 1.00 l
0 0 l
0 0 l
1.05 0.96 l
0 0 l
0 0 l
1.04 0.92 l
181.32 251.48 lineto
0 0 l
1.05 0.89 l
0 0 l
0 0 l
1.04 0.86 l
0 0 l
0 0 l
1.05 0.83 l
0 0 l
0 0 l
1.04 0.79 l
0 0 l
0 0 l
1.05 0.76 l
0 0 l
0 0 l
1.04 0.73 l
0 0 l
0 0 l
1.05 0.69 l
0 0 l
0 0 l
1.04 0.67 l
0 0 l
0 0 l
1.05 0.63 l
0 0 l
0 0 l
1.04 0.60 l
0 0 l
0 0 l
1.05 0.58 l
0 0 l
0 0 l
1.04 0.54 l
0 0 l
0 0 l
1.05 0.51 l
0 0 l
0 0 l
1.04 0.49 l
0 0 l
0 0 l
1.05 0.46 l
0 0 l
0 0 l
1.04 0.43 l
0 0 l
0 0 l
1.05 0.40 l
0 0 l
0 0 l
1.04 0.38 l
0 0 l
0 0 l
1.05 0.35 l
0 0 l
0 0 l
1.04 0.32 l
0 0 l
0 0 l
1.05 0.30 l
0 0 l
0 0 l
1.04 0.27 l
0 0 l
0 0 l
1.05 0.25 l
0 0 l
0 0 l
1.04 0.22 l
0 0 l
0 0 l
1.05 0.20 l
0 0 l
0 0 l
1.04 0.18 l
0 0 l
0 0 l
1.05 0.15 l
0 0 l
0 0 l
1.04 0.14 l
0 0 l
0 0 l
1.05 0.10 l
0 0 l
0 0 l
1.04 0.09 l
0 0 l
0 0 l
1.05 0.07 l
0 0 l
0 0 l
1.04 0.04 l
0 0 l
0 0 l
1.05 0.03 l
0 0 l
215.81 265.43 lineto
1.04 0 l
0 0 l
0 0 l
1.05 -0.02 l
0 0 l
0 0 l
1.04 -0.03 l
0 0 l
0 0 l
1.05 -0.06 l
0 0 l
0 0 l
1.04 -0.07 l
0 0 l
0 0 l
1.05 -0.09 l
0 0 l
0 0 l
1.04 -0.11 l
0 0 l
0 0 l
1.05 -0.13 l
0 0 l
0 0 l
1.04 -0.14 l
0 0 l
0 0 l
1.05 -0.17 l
0 0 l
0 0 l
1.04 -0.17 l
0 0 l
0 0 l
1.05 -0.20 l
0 0 l
0 0 l
1.04 -0.21 l
0 0 l
0 0 l
1.05 -0.22 l
0 0 l
0 0 l
1.04 -0.25 l
0 0 l
0 0 l
1.05 -0.25 l
0 0 l
0 0 l
1.04 -0.27 l
0 0 l
0 0 l
1.05 -0.29 l
0 0 l
0 0 l
1.04 -0.29 l
0 0 l
0 0 l
1.05 -0.32 l
0 0 l
0 0 l
1.04 -0.32 l
0 0 l
0 0 l
1.05 -0.34 l
0 0 l
0 0 l
1.04 -0.35 l
0 0 l
0 0 l
1.05 -0.36 l
0 0 l
0 0 l
1.04 -0.38 l
0 0 l
0 0 l
1.05 -0.39 l
0 0 l
0 0 l
1.04 -0.39 l
0 0 l
0 0 l
1.05 -0.41 l
0 0 l
0 0 l
1.04 -0.42 l
0 0 l
0 0 l
1.04 -0.44 l
0 0 l
0 0 l
1.05 -0.44 l
0 0 l
0 0 l
1.04 -0.45 l
0 0 l
0 0 l
1.05 -0.46 l
0 0 l
0 0 l
251.33 256.52 lineto
0 0 l
0 0 l
1.05 -0.48 l
0 0 l
0 0 l
1.04 -0.50 l
0 0 l
0 0 l
1.05 -0.49 l
0 0 l
0 0 l
1.04 -0.51 l
0 0 l
0 0 l
1.05 -0.52 l
0 0 l
0 0 l
1.04 -0.52 l
0 0 l
0 0 l
1.05 -0.54 l
0 0 l
0 0 l
1.04 -0.54 l
0 0 l
0 0 l
1.05 -0.54 l
0 0 l
0 0 l
1.04 -0.56 l
0 0 l
0 0 l
1.05 -0.56 l
0 0 l
0 0 l
1.04 -0.57 l
0 0 l
0 0 l
1.05 -0.58 l
0 0 l
0 0 l
1.04 -0.58 l
0 0 l
0 0 l
1.05 -0.59 l
0 0 l
0 0 l
1.04 -0.59 l
0 0 l
0 0 l
1.05 -0.61 l
0 0 l
0 0 l
1.04 -0.60 l
0 0 l
0 0 l
1.05 -0.62 l
0 0 l
0 0 l
1.04 -0.61 l
0 0 l
0 0 l
1.05 -0.63 l
0 0 l
0 0 l
1.04 -0.62 l
0 0 l
0 0 l
1.05 -0.64 l
0 0 l
0 0 l
1.04 -0.64 l
0 0 l
0 0 l
1.05 -0.64 l
0 0 l
0 0 l
1.04 -0.64 l
0 0 l
0 0 l
1.05 -0.66 l
0 0 l
0 0 l
1.04 -0.65 l
0 0 l
0 0 l
1.05 -0.66 l
0 0 l
0 0 l
1.04 -0.66 l
0 0 l
0 0 l
1.05 -0.67 l
0 0 l
0 0 l
1.04 -0.67 l
0 0 l
0 0 l
1.05 -0.67 l
285.82 236.96 lineto
0 0 l
1.04 -0.68 l
0 0 l
0 0 l
1.05 -0.68 l
0 0 l
0 0 l
1.04 -0.68 l
0 0 l
0 0 l
1.05 -0.69 l
0 0 l
0 0 l
1.04 -0.68 l
0 0 l
0 0 l
1.05 -0.69 l
0 0 l
0 0 l
1.04 -0.70 l
0 0 l
0 0 l
1.05 -0.69 l
0 0 l
0 0 l
1.04 -0.70 l
0 0 l
0 0 l
1.05 -0.70 l
0 0 l
0 0 l
1.04 -0.70 l
0 0 l
0 0 l
1.05 -0.70 l
0 0 l
0 0 l
1.04 -0.71 l
0 0 l
0 0 l
1.05 -0.71 l
0 0 l
0 0 l
1.04 -0.70 l
0 0 l
0 0 l
1.05 -0.71 l
0 0 l
0 0 l
1.04 -0.71 l
0 0 l
0 0 l
1.05 -0.72 l
0 0 l
0 0 l
1.04 -0.71 l
0 0 l
0 0 l
1.05 -0.71 l
0 0 l
0 0 l
1.04 -0.72 l
0 0 l
0 0 l
1.05 -0.72 l
0 0 l
0 0 l
1.04 -0.71 l
0 0 l
0 0 l
1.05 -0.72 l
0 0 l
0 0 l
1.04 -0.72 l
0 0 l
0 0 l
1.05 -0.72 l
0 0 l
0 0 l
1.04 -0.72 l
0 0 l
0 0 l
1.05 -0.72 l
0 0 l
0 0 l
1.04 -0.72 l
0 0 l
0 0 l
1.05 -0.72 l
0 0 l
0 0 l
1.04 -0.72 l
0 0 l
0 0 l
1.05 -0.72 l
0 0 l
0 0 l
1.04 -0.72 l
0 0 l
320.30 213.64 lineto
1.05 -0.72 l
0 0 l
0 0 l
1.04 -0.72 l
0 0 l
0 0 l
1.05 -0.72 l
0 0 l
0 0 l
1.04 -0.72 l
0 0 l
0 0 l
1.05 -0.72 l
0 0 l
0 0 l
1.04 -0.72 l
0 0 l
0 0 l
1.05 -0.71 l
0 0 l
0 0 l
1.04 -0.72 l
0 0 l
0 0 l
1.04 -0.72 l
0 0 l
0 0 l
1.05 -0.72 l
0 0 l
0 0 l
1.04 -0.71 l
0 0 l
0 0 l
1.05 -0.72 l
0 0 l
0 0 l
1.04 -0.71 l
0 0 l
0 0 l
1.05 -0.72 l
0 0 l
0 0 l
1.04 -0.71 l
0 0 l
0 0 l
1.05 -0.71 l
0 0 l
0 0 l
1.04 -0.71 l
0 0 l
0 0 l
1.05 -0.71 l
0 0 l
0 0 l
1.04 -0.71 l
0 0 l
0 0 l
1.05 -0.71 l
0 0 l
0 0 l
1.04 -0.70 l
0 0 l
0 0 l
1.05 -0.71 l
0 0 l
0 0 l
1.04 -0.70 l
0 0 l
0 0 l
1.05 -0.70 l
0 0 l
0 0 l
1.04 -0.71 l
0 0 l
0 0 l
1.05 -0.69 l
0 0 l
0 0 l
1.04 -0.70 l
0 0 l
0 0 l
1.05 -0.70 l
0 0 l
0 0 l
1.04 -0.70 l
0 0 l
0 0 l
1.05 -0.69 l
0 0 l
0 0 l
1.04 -0.69 l
0 0 l
0 0 l
1.05 -0.69 l
0 0 l
0 0 l
1.04 -0.69 l
0 0 l
0 0 l
355.83 189.57 lineto
0 0 l
0 0 l
1.04 -0.69 l
0 0 l
0 0 l
1.05 -0.68 l
0 0 l
0 0 l
1.04 -0.68 l
0 0 l
0 0 l
1.05 -0.68 l
0 0 l
0 0 l
1.04 -0.68 l
0 0 l
0 0 l
1.05 -0.68 l
0 0 l
0 0 l
1.04 -0.67 l
0 0 l
0 0 l
1.05 -0.68 l
0 0 l
0 0 l
1.04 -0.67 l
0 0 l
0 0 l
1.05 -0.67 l
0 0 l
0 0 l
1.04 -0.67 l
0 0 l
0 0 l
1.05 -0.66 l
0 0 l
0 0 l
1.04 -0.67 l
0 0 l
0 0 l
1.05 -0.66 l
0 0 l
0 0 l
1.04 -0.66 l
0 0 l
0 0 l
1.05 -0.66 l
0 0 l
0 0 l
1.04 -0.65 l
0 0 l
0 0 l
1.05 -0.66 l
0 0 l
0 0 l
1.04 -0.65 l
0 0 l
0 0 l
1.05 -0.65 l
0 0 l
0 0 l
1.04 -0.65 l
0 0 l
0 0 l
1.05 -0.64 l
0 0 l
0 0 l
1.04 -0.64 l
0 0 l
0 0 l
1.05 -0.65 l
0 0 l
0 0 l
1.04 -0.64 l
0 0 l
0 0 l
1.05 -0.63 l
0 0 l
0 0 l
1.04 -0.64 l
0 0 l
0 0 l
1.05 -0.63 l
0 0 l
0 0 l
1.04 -0.63 l
0 0 l
0 0 l
1.05 -0.63 l
0 0 l
0 0 l
1.04 -0.62 l
0 0 l
0 0 l
1.05 -0.63 l
0 0 l
0 0 l
1.04 -0.62 l
390.31 167.95 lineto
0 0 l
1.05 -0.62 l
0 0 l
0 0 l
1.04 -0.61 l
0 0 l
0 0 l
1.05 -0.62 l
0 0 l
0 0 l
1.04 -0.61 l
0 0 l
0 0 l
1.05 -0.61 l
0 0 l
0 0 l
1.04 -0.61 l
0 0 l
0 0 l
1.05 -0.61 l
0 0 l
0 0 l
1.04 -0.60 l
0 0 l
0 0 l
1.05 -0.60 l
0 0 l
0 0 l
1.04 -0.60 l
0 0 l
0 0 l
1.05 -0.59 l
0 0 l
0 0 l
1.04 -0.60 l
0 0 l
0 0 l
1.05 -0.59 l
0 0 l
0 0 l
1.04 -0.59 l
0 0 l
0 0 l
1.05 -0.59 l
0 0 l
0 0 l
1.04 -0.58 l
0 0 l
0 0 l
1.05 -0.58 l
0 0 l
0 0 l
1.04 -0.58 l
0 0 l
0 0 l
1.05 -0.58 l
0 0 l
0 0 l
1.04 -0.57 l
0 0 l
0 0 l
1.04 -0.58 l
0 0 l
0 0 l
1.05 -0.57 l
0 0 l
0 0 l
1.04 -0.57 l
0 0 l
0 0 l
1.05 -0.56 l
0 0 l
0 0 l
1.04 -0.57 l
0 0 l
0 0 l
1.05 -0.56 l
0 0 l
0 0 l
1.04 -0.56 l
0 0 l
0 0 l
1.05 -0.55 l
0 0 l
0 0 l
1.04 -0.56 l
0 0 l
0 0 l
1.05 -0.55 l
0 0 l
0 0 l
1.04 -0.55 l
0 0 l
0 0 l
1.05 -0.54 l
0 0 l
0 0 l
1.04 -0.55 l
0 0 l
424.79 148.74 lineto
1.05 -0.54 l
0 0 l
0 0 l
1.04 -0.54 l
0 0 l
0 0 l
1.05 -0.54 l
0 0 l
0 0 l
1.04 -0.53 l
0 0 l
0 0 l
1.05 -0.54 l
0 0 l
0 0 l
1.04 -0.53 l
0 0 l
0 0 l
1.05 -0.52 l
0 0 l
0 0 l
1.04 -0.53 l
0 0 l
0 0 l
o
1.07 setlinewidth
[ 4.27 2.13] 0 setdash
np
42.35 43.59 m
1.04 0 l
1.05 0 l
1.04 0 l
1.05 0 l
1.04 0 l
1.05 0 l
1.04 0 l
1.05 0 l
1.04 0 l
1.05 0 l
1.04 0 l
1.05 0 l
1.04 0 l
1.05 0 l
1.04 0 l
1.05 0.01 l
1.04 0.01 l
1.05 0.01 l
1.04 0.02 l
1.05 0.04 l
1.04 0.06 l
1.05 0.09 l
1.04 0.12 l
1.05 0.17 l
1.04 0.23 l
1.05 0.29 l
1.04 0.36 l
1.05 0.46 l
1.04 0.54 l
1.05 0.66 l
1.04 0.76 l
1.05 0.89 l
1.04 1.02 l
1.05 1.16 l
1.04 1.29 l
1.05 1.43 l
1.04 1.58 l
1.04 1.73 l
1.05 1.87 l
1.04 2.02 l
1.05 2.15 l
1.04 2.30 l
1.05 2.44 l
1.04 2.56 l
1.05 2.69 l
1.04 2.82 l
1.05 2.92 l
1.04 3.04 l
1.05 3.13 l
1.04 3.23 l
1.05 3.31 l
1.04 3.40 l
1.05 3.46 l
1.04 3.53 l
1.05 3.59 l
1.04 3.63 l
1.05 3.68 l
1.04 3.71 l
1.05 3.73 l
1.04 3.76 l
1.05 3.77 l
1.04 3.78 l
1.05 3.79 l
1.04 3.77 l
1.05 3.77 l
1.04 3.75 l
1.05 3.73 l
1.04 3.71 l
1.05 3.68 l
1.04 3.64 l
1.05 3.61 l
1.04 3.56 l
1.05 3.52 l
1.04 3.47 l
1.05 3.42 l
1.04 3.36 l
1.05 3.31 l
1.04 3.25 l
1.05 3.19 l
1.04 3.13 l
1.05 3.06 l
1.04 2.99 l
1.05 2.93 l
1.04 2.86 l
1.05 2.79 l
1.04 2.72 l
1.05 2.65 l
1.04 2.57 l
1.05 2.51 l
1.04 2.43 l
1.05 2.36 l
1.04 2.28 l
1.05 2.21 l
1.04 2.14 l
1.05 2.07 l
1.04 2.00 l
1.05 1.92 l
1.04 1.85 l
1.05 1.79 l
146.84 242.54 lineto
1.05 1.64 l
1.04 1.57 l
1.05 1.50 l
1.04 1.44 l
1.05 1.37 l
1.04 1.30 l
1.05 1.24 l
1.04 1.18 l
1.05 1.11 l
1.04 1.04 l
1.05 0.99 l
1.04 0.93 l
1.05 0.87 l
1.04 0.81 l
1.05 0.75 l
1.04 0.70 l
1.04 0.64 l
1.05 0.59 l
1.04 0.53 l
1.05 0.48 l
1.04 0.43 l
1.05 0.39 l
1.04 0.33 l
1.05 0.29 l
1.04 0.23 l
1.05 0.20 l
1.04 0.15 l
1.05 0.10 l
1.04 0.07 l
1.05 0.02 l
1.04 -0.02 l
1.05 -0.06 l
1.04 -0.09 l
1.05 -0.14 l
1.04 -0.17 l
1.05 -0.20 l
1.04 -0.24 l
1.05 -0.27 l
1.04 -0.31 l
1.05 -0.34 l
1.04 -0.36 l
1.05 -0.40 l
1.04 -0.43 l
1.05 -0.45 l
1.04 -0.49 l
1.05 -0.51 l
1.04 -0.53 l
1.05 -0.56 l
1.04 -0.58 l
1.05 -0.61 l
1.04 -0.63 l
1.05 -0.65 l
1.04 -0.68 l
1.05 -0.69 l
1.04 -0.71 l
1.05 -0.73 l
1.04 -0.76 l
1.05 -0.76 l
1.04 -0.79 l
1.05 -0.80 l
1.04 -0.82 l
1.05 -0.83 l
1.04 -0.85 l
1.05 -0.86 l
1.04 -0.87 l
1.05 -0.89 l
1.04 -0.90 l
1.05 -0.91 l
1.04 -0.93 l
1.05 -0.93 l
1.04 -0.95 l
1.05 -0.95 l
1.04 -0.96 l
1.05 -0.98 l
1.04 -0.98 l
1.05 -0.99 l
1.04 -0.99 l
1.05 -1.01 l
1.04 -1.01 l
1.05 -1.02 l
1.04 -1.02 l
1.05 -1.03 l
1.04 -1.03 l
1.05 -1.04 l
1.04 -1.05 l
1.05 -1.04 l
1.04 -1.06 l
1.05 -1.05 l
1.04 -1.06 l
1.05 -1.06 l
1.04 -1.07 l
1.05 -1.06 l
1.04 -1.07 l
1.05 -1.07 l
1.04 -1.08 l
1.04 -1.07 l
1.05 -1.08 l
1.04 -1.07 l
1.05 -1.08 l
251.33 211.68 lineto
1.05 -1.08 l
1.04 -1.08 l
1.05 -1.07 l
1.04 -1.08 l
1.05 -1.08 l
1.04 -1.07 l
1.05 -1.07 l
1.04 -1.08 l
1.05 -1.07 l
1.04 -1.07 l
1.05 -1.06 l
1.04 -1.07 l
1.05 -1.06 l
1.04 -1.07 l
1.05 -1.05 l
1.04 -1.06 l
1.05 -1.06 l
1.04 -1.05 l
1.05 -1.05 l
1.04 -1.04 l
1.05 -1.04 l
1.04 -1.04 l
1.05 -1.04 l
1.04 -1.03 l
1.05 -1.03 l
1.04 -1.03 l
1.05 -1.02 l
1.04 -1.02 l
1.05 -1.01 l
1.04 -1.01 l
1.05 -1.01 l
1.04 -1.00 l
1.05 -1.00 l
1.04 -0.99 l
1.05 -0.99 l
1.04 -0.99 l
1.05 -0.98 l
1.04 -0.97 l
1.05 -0.97 l
1.04 -0.97 l
1.05 -0.96 l
1.04 -0.96 l
1.05 -0.95 l
1.04 -0.95 l
1.05 -0.94 l
1.04 -0.94 l
1.05 -0.94 l
1.04 -0.92 l
1.05 -0.93 l
1.04 -0.92 l
1.05 -0.91 l
1.04 -0.91 l
1.05 -0.90 l
1.04 -0.90 l
1.05 -0.89 l
1.04 -0.89 l
1.05 -0.88 l
1.04 -0.88 l
1.05 -0.87 l
1.04 -0.87 l
1.05 -0.86 l
1.04 -0.86 l
1.05 -0.85 l
1.04 -0.85 l
1.05 -0.84 l
1.04 -0.84 l
1.05 -0.83 l
1.04 -0.82 l
1.05 -0.82 l
1.04 -0.82 l
1.05 -0.81 l
1.04 -0.80 l
1.05 -0.80 l
1.04 -0.79 l
1.04 -0.79 l
1.05 -0.78 l
1.04 -0.78 l
1.05 -0.77 l
1.04 -0.77 l
1.05 -0.76 l
1.04 -0.76 l
1.05 -0.75 l
1.04 -0.75 l
1.05 -0.74 l
1.04 -0.74 l
1.05 -0.73 l
1.04 -0.72 l
1.05 -0.73 l
1.04 -0.71 l
1.05 -0.71 l
1.04 -0.71 l
1.05 -0.70 l
1.04 -0.69 l
1.05 -0.69 l
1.04 -0.69 l
1.05 -0.68 l
1.04 -0.67 l
1.05 -0.68 l
1.04 -0.66 l
355.83 121.50 lineto
1.04 -0.66 l
1.05 -0.65 l
1.04 -0.64 l
1.05 -0.64 l
1.04 -0.64 l
1.05 -0.63 l
1.04 -0.63 l
1.05 -0.62 l
1.04 -0.62 l
1.05 -0.61 l
1.04 -0.61 l
1.05 -0.60 l
1.04 -0.60 l
1.05 -0.60 l
1.04 -0.58 l
1.05 -0.59 l
1.04 -0.58 l
1.05 -0.58 l
1.04 -0.57 l
1.05 -0.56 l
1.04 -0.57 l
1.05 -0.55 l
1.04 -0.56 l
1.05 -0.55 l
1.04 -0.54 l
1.05 -0.54 l
1.04 -0.54 l
1.05 -0.53 l
1.04 -0.53 l
1.05 -0.52 l
1.04 -0.52 l
1.05 -0.52 l
1.04 -0.51 l
1.05 -0.51 l
1.04 -0.50 l
1.05 -0.50 l
1.04 -0.49 l
1.05 -0.49 l
1.04 -0.49 l
1.05 -0.48 l
1.04 -0.48 l
1.05 -0.48 l
1.04 -0.47 l
1.05 -0.47 l
1.04 -0.46 l
1.05 -0.46 l
1.04 -0.46 l
1.05 -0.45 l
1.04 -0.45 l
1.05 -0.44 l
1.04 -0.44 l
1.05 -0.44 l
1.04 -0.44 l
1.04 -0.43 l
1.05 -0.42 l
1.04 -0.43 l
1.05 -0.42 l
1.04 -0.41 l
1.05 -0.41 l
1.04 -0.41 l
1.05 -0.41 l
1.04 -0.40 l
1.05 -0.40 l
1.04 -0.40 l
1.05 -0.39 l
1.04 -0.39 l
1.05 -0.39 l
1.04 -0.38 l
1.05 -0.38 l
1.04 -0.37 l
1.05 -0.38 l
1.04 -0.37 l
1.05 -0.36 l
1.04 -0.37 l
o
1.07 setlinewidth
[ 4.27 4.27] 0 setdash
np
42.35 43.59 m
1.04 0 l
1.05 0 l
1.04 0 l
1.05 0 l
1.04 0 l
1.05 0 l
1.04 0 l
1.05 0 l
1.04 0 l
1.05 0 l
1.04 0 l
1.05 0 l
1.04 0 l
1.05 0 l
1.04 0 l
1.05 0.01 l
1.04 0.01 l
1.05 0.01 l
1.04 0.03 l
1.05 0.03 l
1.04 0.07 l
1.05 0.08 l
1.04 0.13 l
1.05 0.17 l
1.04 0.23 l
1.05 0.30 l
1.04 0.37 l
1.05 0.46 l
1.04 0.55 l
1.05 0.66 l
1.04 0.78 l
1.05 0.91 l
1.04 1.03 l
1.05 1.17 l
1.04 1.31 l
1.05 1.45 l
1.04 1.60 l
1.04 1.75 l
1.05 1.89 l
1.04 2.05 l
1.05 2.18 l
1.04 2.33 l
1.05 2.46 l
1.04 2.60 l
1.05 2.72 l
1.04 2.84 l
1.05 2.96 l
1.04 3.07 l
1.05 3.17 l
1.04 3.26 l
1.05 3.35 l
1.04 3.42 l
1.05 3.50 l
1.04 3.56 l
1.05 3.62 l
1.04 3.66 l
1.05 3.71 l
1.04 3.74 l
1.05 3.77 l
1.04 3.78 l
1.05 3.80 l
1.04 3.81 l
1.05 3.81 l
1.04 3.80 l
1.05 3.79 l
1.04 3.77 l
1.05 3.75 l
1.04 3.73 l
1.05 3.69 l
1.04 3.66 l
1.05 3.62 l
1.04 3.58 l
1.05 3.53 l
1.04 3.48 l
1.05 3.43 l
1.04 3.37 l
1.05 3.31 l
1.04 3.25 l
1.05 3.20 l
1.04 3.12 l
1.05 3.06 l
1.04 3.00 l
1.05 2.92 l
1.04 2.86 l
1.05 2.78 l
1.04 2.71 l
1.05 2.64 l
1.04 2.57 l
1.05 2.49 l
1.04 2.42 l
1.05 2.34 l
1.04 2.27 l
1.05 2.20 l
1.04 2.13 l
1.05 2.05 l
1.04 1.97 l
1.05 1.91 l
1.04 1.83 l
1.05 1.76 l
146.84 243.44 lineto
1.05 1.61 l
1.04 1.55 l
1.05 1.48 l
1.04 1.41 l
1.05 1.34 l
1.04 1.28 l
1.05 1.21 l
1.04 1.15 l
1.05 1.08 l
1.04 1.02 l
1.05 0.96 l
1.04 0.90 l
1.05 0.83 l
1.04 0.78 l
1.05 0.72 l
1.04 0.67 l
1.04 0.61 l
1.05 0.55 l
1.04 0.51 l
1.05 0.45 l
1.04 0.39 l
1.05 0.35 l
1.04 0.30 l
1.05 0.26 l
1.04 0.20 l
1.05 0.16 l
1.04 0.12 l
1.05 0.07 l
1.04 0.03 l
1.05 -0.01 l
1.04 -0.05 l
1.05 -0.10 l
1.04 -0.13 l
1.05 -0.16 l
1.04 -0.21 l
1.05 -0.23 l
1.04 -0.28 l
1.05 -0.30 l
1.04 -0.34 l
1.05 -0.37 l
1.04 -0.40 l
1.05 -0.43 l
1.04 -0.46 l
1.05 -0.49 l
1.04 -0.51 l
1.05 -0.55 l
1.04 -0.56 l
1.05 -0.59 l
1.04 -0.62 l
1.05 -0.64 l
1.04 -0.66 l
1.05 -0.68 l
1.04 -0.70 l
1.05 -0.72 l
1.04 -0.75 l
1.05 -0.76 l
1.04 -0.78 l
1.05 -0.79 l
1.04 -0.82 l
1.05 -0.83 l
1.04 -0.84 l
1.05 -0.86 l
1.04 -0.88 l
1.05 -0.88 l
1.04 -0.91 l
1.05 -0.91 l
1.04 -0.93 l
1.05 -0.93 l
1.04 -0.95 l
1.05 -0.96 l
1.04 -0.97 l
1.05 -0.98 l
1.04 -0.98 l
1.05 -1.00 l
1.04 -1.00 l
1.05 -1.01 l
1.04 -1.02 l
1.05 -1.03 l
1.04 -1.03 l
1.05 -1.04 l
1.04 -1.04 l
1.05 -1.05 l
1.04 -1.06 l
1.05 -1.06 l
1.04 -1.06 l
1.05 -1.07 l
1.04 -1.07 l
1.05 -1.07 l
1.04 -1.08 l
1.05 -1.08 l
1.04 -1.08 l
1.05 -1.08 l
1.04 -1.09 l
1.05 -1.08 l
1.04 -1.09 l
1.04 -1.09 l
1.05 -1.09 l
1.04 -1.09 l
1.05 -1.09 l
251.33 209.89 lineto
1.05 -1.09 l
1.04 -1.09 l
1.05 -1.09 l
1.04 -1.09 l
1.05 -1.09 l
1.04 -1.09 l
1.05 -1.08 l
1.04 -1.09 l
1.05 -1.08 l
1.04 -1.08 l
1.05 -1.08 l
1.04 -1.07 l
1.05 -1.08 l
1.04 -1.07 l
1.05 -1.07 l
1.04 -1.06 l
1.05 -1.06 l
1.04 -1.06 l
1.05 -1.06 l
1.04 -1.05 l
1.05 -1.05 l
1.04 -1.05 l
1.05 -1.04 l
1.04 -1.04 l
1.05 -1.04 l
1.04 -1.03 l
1.05 -1.03 l
1.04 -1.02 l
1.05 -1.02 l
1.04 -1.02 l
1.05 -1.01 l
1.04 -1.01 l
1.05 -1.00 l
1.04 -1.00 l
1.05 -0.99 l
1.04 -0.99 l
1.05 -0.98 l
1.04 -0.98 l
1.05 -0.98 l
1.04 -0.97 l
1.05 -0.96 l
1.04 -0.96 l
1.05 -0.96 l
1.04 -0.95 l
1.05 -0.94 l
1.04 -0.94 l
1.05 -0.94 l
1.04 -0.93 l
1.05 -0.92 l
1.04 -0.92 l
1.05 -0.92 l
1.04 -0.91 l
1.05 -0.90 l
1.04 -0.90 l
1.05 -0.89 l
1.04 -0.89 l
1.05 -0.88 l
1.04 -0.88 l
1.05 -0.87 l
1.04 -0.87 l
1.05 -0.86 l
1.04 -0.86 l
1.05 -0.85 l
1.04 -0.84 l
1.05 -0.84 l
1.04 -0.83 l
1.05 -0.83 l
1.04 -0.83 l
1.05 -0.81 l
1.04 -0.82 l
1.05 -0.80 l
1.04 -0.81 l
1.05 -0.79 l
1.04 -0.79 l
1.04 -0.79 l
1.05 -0.78 l
1.04 -0.77 l
1.05 -0.77 l
1.04 -0.77 l
1.05 -0.76 l
1.04 -0.75 l
1.05 -0.75 l
1.04 -0.74 l
1.05 -0.74 l
1.04 -0.73 l
1.05 -0.73 l
1.04 -0.72 l
1.05 -0.72 l
1.04 -0.71 l
1.05 -0.70 l
1.04 -0.70 l
1.05 -0.70 l
1.04 -0.69 l
1.05 -0.69 l
1.04 -0.68 l
1.05 -0.67 l
1.04 -0.67 l
1.05 -0.67 l
1.04 -0.66 l
355.83 119.51 lineto
1.04 -0.65 l
1.05 -0.65 l
1.04 -0.64 l
1.05 -0.64 l
1.04 -0.63 l
1.05 -0.62 l
1.04 -0.62 l
1.05 -0.62 l
1.04 -0.61 l
1.05 -0.61 l
1.04 -0.60 l
1.05 -0.60 l
1.04 -0.59 l
1.05 -0.59 l
1.04 -0.58 l
1.05 -0.58 l
1.04 -0.57 l
1.05 -0.57 l
1.04 -0.57 l
1.05 -0.56 l
1.04 -0.55 l
1.05 -0.56 l
1.04 -0.54 l
1.05 -0.55 l
1.04 -0.53 l
1.05 -0.54 l
1.04 -0.53 l
1.05 -0.52 l
1.04 -0.52 l
1.05 -0.52 l
1.04 -0.51 l
1.05 -0.51 l
1.04 -0.51 l
1.05 -0.50 l
1.04 -0.49 l
1.05 -0.50 l
1.04 -0.48 l
1.05 -0.49 l
1.04 -0.48 l
1.05 -0.47 l
1.04 -0.48 l
1.05 -0.46 l
1.04 -0.47 l
1.05 -0.46 l
1.04 -0.46 l
1.05 -0.45 l
1.04 -0.45 l
1.05 -0.44 l
1.04 -0.44 l
1.05 -0.44 l
1.04 -0.44 l
1.05 -0.43 l
1.04 -0.42 l
1.04 -0.43 l
1.05 -0.42 l
1.04 -0.41 l
1.05 -0.41 l
1.04 -0.41 l
1.05 -0.41 l
1.04 -0.40 l
1.05 -0.40 l
1.04 -0.40 l
1.05 -0.39 l
1.04 -0.39 l
1.05 -0.38 l
1.04 -0.38 l
1.05 -0.38 l
1.04 -0.38 l
1.05 -0.37 l
1.04 -0.37 l
1.05 -0.36 l
1.04 -0.37 l
1.05 -0.36 l
1.04 -0.35 l
o
0 0.7490 0.7686 srgb
1.07 setlinewidth
[] 0 setdash
np
42.35 43.59 m
1.04 0 l
1.05 0 l
1.04 0 l
1.05 0 l
1.04 0 l
1.05 0 l
1.04 0 l
1.05 0 l
1.04 0 l
1.05 0 l
1.04 0 l
1.05 0 l
1.04 0 l
1.05 0 l
1.04 0.01 l
1.05 0 l
1.04 0.02 l
1.05 0.02 l
1.04 0.04 l
1.05 0.07 l
1.04 0.10 l
1.05 0.15 l
1.04 0.20 l
1.05 0.29 l
1.04 0.37 l
1.05 0.48 l
1.04 0.60 l
1.05 0.74 l
1.04 0.89 l
1.05 1.06 l
1.04 1.23 l
1.05 1.42 l
1.04 1.61 l
1.05 1.81 l
1.04 2.02 l
1.05 2.22 l
1.04 2.43 l
1.04 2.64 l
1.05 2.83 l
1.04 3.02 l
1.05 3.22 l
1.04 3.39 l
1.05 3.57 l
1.04 3.72 l
1.05 3.87 l
1.04 4.01 l
1.05 4.13 l
1.04 4.25 l
1.05 4.34 l
1.04 4.43 l
1.05 4.51 l
1.04 4.56 l
1.05 4.62 l
1.04 4.65 l
1.05 4.67 l
1.04 4.69 l
1.05 4.69 l
1.04 4.68 l
1.05 4.66 l
1.04 4.63 l
1.05 4.59 l
1.04 4.55 l
1.05 4.49 l
1.04 4.43 l
1.05 4.36 l
1.04 4.28 l
1.05 4.21 l
1.04 4.11 l
1.05 4.02 l
1.04 3.93 l
1.05 3.83 l
1.04 3.72 l
1.05 3.61 l
1.04 3.50 l
1.05 3.40 l
1.04 3.27 l
1.05 3.16 l
1.04 3.05 l
1.05 2.93 l
1.04 2.80 l
1.05 2.69 l
1.04 2.57 l
1.05 2.45 l
1.04 2.34 l
1.05 2.21 l
1.04 2.10 l
1.05 1.98 l
1.04 1.86 l
1.05 1.76 l
1.04 1.63 l
1.05 1.53 l
1.04 1.42 l
1.05 1.31 l
1.04 1.21 l
1.05 1.10 l
1.04 1.00 l
1.05 0.90 l
1.04 0.80 l
1.05 0.71 l
146.84 263.57 lineto
1.05 0.52 l
1.04 0.43 l
1.05 0.35 l
1.04 0.26 l
1.05 0.18 l
1.04 0.10 l
1.05 0.02 l
1.04 -0.06 l
1.05 -0.12 l
1.04 -0.20 l
1.05 -0.27 l
1.04 -0.33 l
1.05 -0.40 l
1.04 -0.46 l
1.05 -0.52 l
1.04 -0.58 l
1.04 -0.64 l
1.05 -0.69 l
1.04 -0.74 l
1.05 -0.79 l
1.04 -0.83 l
1.05 -0.89 l
1.04 -0.92 l
1.05 -0.97 l
1.04 -1.02 l
1.05 -1.04 l
1.04 -1.09 l
1.05 -1.12 l
1.04 -1.16 l
1.05 -1.18 l
1.04 -1.22 l
1.05 -1.25 l
1.04 -1.27 l
1.05 -1.30 l
1.04 -1.32 l
1.05 -1.35 l
1.04 -1.37 l
1.05 -1.39 l
1.04 -1.41 l
1.05 -1.42 l
1.04 -1.45 l
1.05 -1.45 l
1.04 -1.48 l
1.05 -1.48 l
1.04 -1.50 l
1.05 -1.51 l
1.04 -1.52 l
1.05 -1.53 l
1.04 -1.54 l
1.05 -1.55 l
1.04 -1.55 l
1.05 -1.56 l
1.04 -1.56 l
1.05 -1.57 l
1.04 -1.57 l
1.05 -1.57 l
1.04 -1.57 l
1.05 -1.58 l
1.04 -1.58 l
1.05 -1.58 l
1.04 -1.57 l
1.05 -1.58 l
1.04 -1.57 l
1.05 -1.57 l
1.04 -1.57 l
1.05 -1.57 l
1.04 -1.56 l
1.05 -1.55 l
1.04 -1.56 l
1.05 -1.54 l
1.04 -1.55 l
1.05 -1.53 l
1.04 -1.53 l
1.05 -1.53 l
1.04 -1.51 l
1.05 -1.51 l
1.04 -1.50 l
1.05 -1.50 l
1.04 -1.48 l
1.05 -1.48 l
1.04 -1.47 l
1.05 -1.46 l
1.04 -1.45 l
1.05 -1.44 l
1.04 -1.43 l
1.05 -1.43 l
1.04 -1.41 l
1.05 -1.40 l
1.04 -1.40 l
1.05 -1.38 l
1.04 -1.37 l
1.05 -1.36 l
1.04 -1.36 l
1.05 -1.34 l
1.04 -1.33 l
1.04 -1.31 l
1.05 -1.31 l
1.04 -1.30 l
1.05 -1.29 l
251.33 147.14 lineto
1.05 -1.26 l
1.04 -1.26 l
1.05 -1.24 l
1.04 -1.23 l
1.05 -1.21 l
1.04 -1.21 l
1.05 -1.20 l
1.04 -1.18 l
1.05 -1.17 l
1.04 -1.17 l
1.05 -1.15 l
1.04 -1.13 l
1.05 -1.13 l
1.04 -1.12 l
1.05 -1.10 l
1.04 -1.09 l
1.05 -1.09 l
1.04 -1.07 l
1.05 -1.06 l
1.04 -1.04 l
1.05 -1.04 l
1.04 -1.03 l
1.05 -1.01 l
1.04 -1.01 l
1.05 -0.99 l
1.04 -0.98 l
1.05 -0.97 l
1.04 -0.96 l
1.05 -0.95 l
1.04 -0.94 l
1.05 -0.93 l
1.04 -0.92 l
1.05 -0.91 l
1.04 -0.89 l
1.05 -0.89 l
1.04 -0.88 l
1.05 -0.86 l
1.04 -0.86 l
1.05 -0.85 l
1.04 -0.83 l
1.05 -0.83 l
1.04 -0.82 l
1.05 -0.80 l
1.04 -0.80 l
1.05 -0.79 l
1.04 -0.78 l
1.05 -0.77 l
1.04 -0.76 l
1.05 -0.75 l
1.04 -0.74 l
1.05 -0.73 l
1.04 -0.72 l
1.05 -0.72 l
1.04 -0.70 l
1.05 -0.70 l
1.04 -0.69 l
1.05 -0.67 l
1.04 -0.68 l
1.05 -0.66 l
1.04 -0.65 l
1.05 -0.65 l
1.04 -0.63 l
1.05 -0.63 l
1.04 -0.63 l
1.05 -0.61 l
1.04 -0.60 l
1.05 -0.60 l
1.04 -0.59 l
1.05 -0.58 l
1.04 -0.58 l
1.05 -0.57 l
1.04 -0.56 l
1.05 -0.55 l
1.04 -0.55 l
1.04 -0.54 l
1.05 -0.53 l
1.04 -0.52 l
1.05 -0.52 l
1.04 -0.51 l
1.05 -0.50 l
1.04 -0.50 l
1.05 -0.49 l
1.04 -0.49 l
1.05 -0.48 l
1.04 -0.47 l
1.05 -0.46 l
1.04 -0.46 l
1.05 -0.45 l
1.04 -0.45 l
1.05 -0.44 l
1.04 -0.44 l
1.05 -0.43 l
1.04 -0.42 l
1.05 -0.42 l
1.04 -0.41 l
1.05 -0.41 l
1.04 -0.40 l
1.05 -0.39 l
1.04 -0.39 l
355.83 70.33 lineto
1.04 -0.38 l
1.05 -0.37 l
1.04 -0.37 l
1.05 -0.37 l
1.04 -0.36 l
1.05 -0.35 l
1.04 -0.35 l
1.05 -0.34 l
1.04 -0.34 l
1.05 -0.34 l
1.04 -0.33 l
1.05 -0.33 l
1.04 -0.32 l
1.05 -0.32 l
1.04 -0.31 l
1.05 -0.31 l
1.04 -0.30 l
1.05 -0.30 l
1.04 -0.30 l
1.05 -0.29 l
1.04 -0.29 l
1.05 -0.28 l
1.04 -0.28 l
1.05 -0.28 l
1.04 -0.27 l
1.05 -0.27 l
1.04 -0.26 l
1.05 -0.26 l
1.04 -0.26 l
1.05 -0.25 l
1.04 -0.25 l
1.05 -0.25 l
1.04 -0.24 l
1.05 -0.24 l
1.04 -0.24 l
1.05 -0.23 l
1.04 -0.23 l
1.05 -0.23 l
1.04 -0.22 l
1.05 -0.22 l
1.04 -0.22 l
1.05 -0.21 l
1.04 -0.21 l
1.05 -0.21 l
1.04 -0.20 l
1.05 -0.21 l
1.04 -0.20 l
1.05 -0.19 l
1.04 -0.20 l
1.05 -0.19 l
1.04 -0.18 l
1.05 -0.19 l
1.04 -0.18 l
1.04 -0.18 l
1.05 -0.18 l
1.04 -0.17 l
1.05 -0.18 l
1.04 -0.17 l
1.05 -0.16 l
1.04 -0.17 l
1.05 -0.16 l
1.04 -0.16 l
1.05 -0.16 l
1.04 -0.16 l
1.05 -0.15 l
1.04 -0.15 l
1.05 -0.15 l
1.04 -0.15 l
1.05 -0.14 l
1.04 -0.15 l
1.05 -0.14 l
1.04 -0.14 l
1.05 -0.14 l
1.04 -0.13 l
o
1.07 setlinewidth
[ 2.13 2.13] 0 setdash
np
42.35 43.59 m
0 0 l
0 0 l
1.04 0 l
0 0 l
0 0 l
1.05 0 l
0 0 l
0 0 l
1.04 0 l
0 0 l
0 0 l
1.05 0 l
0 0 l
0 0 l
1.04 0 l
0 0 l
0 0 l
1.05 0 l
0 0 l
0 0 l
1.04 0 l
0 0 l
0 0 l
1.05 0 l
0 0 l
0 0 l
1.04 0 l
0 0 l
0 0 l
1.05 0 l
0 0 l
0 0 l
1.04 0 l
0 0 l
0 0 l
1.05 0 l
0 0 l
0 0 l
1.04 0 l
0 0 l
0 0 l
1.05 0 l
0 0 l
0 0 l
1.04 0 l
0 0 l
0 0 l
1.05 0.01 l
0 0 l
0 0 l
1.04 0 l
0 0 l
0 0 l
1.05 0.01 l
0 0 l
0 0 l
1.04 0.01 l
0 0 l
0 0 l
1.05 0.02 l
0 0 l
0 0 l
1.04 0.03 l
0 0 l
0 0 l
1.05 0.05 l
0 0 l
0 0 l
1.04 0.06 l
0 0 l
0 0 l
1.05 0.09 l
0 0 l
0 0 l
1.04 0.12 l
0 0 l
0 0 l
1.05 0.16 l
0 0 l
0 0 l
1.04 0.20 l
0 0 l
0 0 l
1.05 0.25 l
0 0 l
0 0 l
1.04 0.30 l
0 0 l
0 0 l
1.05 0.37 l
0 0 l
0 0 l
1.04 0.43 l
0 0 l
0 0 l
1.05 0.51 l
0 0 l
0 0 l
1.04 0.58 l
76.83 46.79 lineto
0 0 l
1.05 0.67 l
0 0 l
0 0 l
1.04 0.75 l
0 0 l
0 0 l
1.05 0.84 l
0 0 l
0 0 l
1.04 0.94 l
0 0 l
0 0 l
1.04 1.03 l
0 0 l
0 0 l
1.05 1.13 l
0 0 l
0 0 l
1.04 1.22 l
0 0 l
0 0 l
1.05 1.32 l
0 0 l
0 0 l
1.04 1.42 l
0 0 l
0 0 l
1.05 1.52 l
0 0 l
0 0 l
1.04 1.61 l
0 0 l
0 0 l
1.05 1.71 l
0 0 l
0 0 l
1.04 1.81 l
0 0 l
0 0 l
1.05 1.89 l
0 0 l
0 0 l
1.04 1.98 l
0 0 l
0 0 l
1.05 2.06 l
0 0 l
0 0 l
1.04 2.15 l
0 0 l
0 0 l
1.05 2.22 l
0 0 l
0 0 l
1.04 2.30 l
0 0 l
0 0 l
1.05 2.37 l
0 0 l
0 0 l
1.04 2.44 l
0 0 l
0 0 l
1.05 2.51 l
0 0 l
0 0 l
1.04 2.56 l
0 0 l
0 0 l
1.05 2.61 l
0 0 l
0 0 l
1.04 2.67 l
0 0 l
0 0 l
1.05 2.72 l
0 0 l
0 0 l
1.04 2.76 l
0 0 l
0 0 l
1.05 2.80 l
0 0 l
0 0 l
1.04 2.83 l
0 0 l
0 0 l
1.05 2.87 l
0 0 l
0 0 l
1.04 2.90 l
0 0 l
0 0 l
1.05 2.91 l
0 0 l
0 0 l
1.04 2.94 l
0 0 l
111.31 113.25 lineto
1.05 2.96 l
0 0 l
0 0 l
1.04 2.97 l
0 0 l
0 0 l
1.05 2.98 l
0 0 l
0 0 l
1.04 2.99 l
0 0 l
0 0 l
1.05 2.99 l
0 0 l
0 0 l
1.04 2.99 l
0 0 l
0 0 l
1.05 2.99 l
0 0 l
0 0 l
1.04 2.98 l
0 0 l
0 0 l
1.05 2.98 l
0 0 l
0 0 l
1.04 2.96 l
0 0 l
0 0 l
1.05 2.96 l
0 0 l
0 0 l
1.04 2.93 l
0 0 l
0 0 l
1.05 2.93 l
0 0 l
0 0 l
1.04 2.90 l
0 0 l
0 0 l
1.05 2.88 l
0 0 l
0 0 l
1.04 2.85 l
0 0 l
0 0 l
1.05 2.84 l
0 0 l
0 0 l
1.04 2.80 l
0 0 l
0 0 l
1.05 2.78 l
0 0 l
0 0 l
1.04 2.74 l
0 0 l
0 0 l
1.05 2.72 l
0 0 l
0 0 l
1.04 2.68 l
0 0 l
0 0 l
1.05 2.65 l
0 0 l
0 0 l
1.04 2.61 l
0 0 l
0 0 l
1.05 2.58 l
0 0 l
0 0 l
1.04 2.54 l
0 0 l
0 0 l
1.05 2.50 l
0 0 l
0 0 l
1.04 2.46 l
0 0 l
0 0 l
1.05 2.42 l
0 0 l
0 0 l
1.04 2.39 l
0 0 l
0 0 l
1.05 2.34 l
0 0 l
0 0 l
1.04 2.30 l
0 0 l
0 0 l
1.05 2.26 l
0 0 l
0 0 l
146.84 206.31 lineto
0 0 l
0 0 l
1.05 2.17 l
0 0 l
0 0 l
1.04 2.13 l
0 0 l
0 0 l
1.05 2.09 l
0 0 l
0 0 l
1.04 2.04 l
0 0 l
0 0 l
1.05 2.00 l
0 0 l
0 0 l
1.04 1.95 l
0 0 l
0 0 l
1.05 1.91 l
0 0 l
0 0 l
1.04 1.87 l
0 0 l
0 0 l
1.05 1.82 l
0 0 l
0 0 l
1.04 1.78 l
0 0 l
0 0 l
1.05 1.73 l
0 0 l
0 0 l
1.04 1.69 l
0 0 l
0 0 l
1.05 1.65 l
0 0 l
0 0 l
1.04 1.60 l
0 0 l
0 0 l
1.05 1.55 l
0 0 l
0 0 l
1.04 1.52 l
0 0 l
0 0 l
1.04 1.47 l
0 0 l
0 0 l
1.05 1.43 l
0 0 l
0 0 l
1.04 1.39 l
0 0 l
0 0 l
1.05 1.34 l
0 0 l
0 0 l
1.04 1.30 l
0 0 l
0 0 l
1.05 1.26 l
0 0 l
0 0 l
1.04 1.22 l
0 0 l
0 0 l
1.05 1.18 l
0 0 l
0 0 l
1.04 1.14 l
0 0 l
0 0 l
1.05 1.10 l
0 0 l
0 0 l
1.04 1.05 l
0 0 l
0 0 l
1.05 1.02 l
0 0 l
0 0 l
1.04 0.98 l
0 0 l
0 0 l
1.05 0.94 l
0 0 l
0 0 l
1.04 0.91 l
0 0 l
0 0 l
1.05 0.86 l
0 0 l
0 0 l
1.04 0.83 l
181.32 255.23 lineto
0 0 l
1.05 0.79 l
0 0 l
0 0 l
1.04 0.76 l
0 0 l
0 0 l
1.05 0.72 l
0 0 l
0 0 l
1.04 0.69 l
0 0 l
0 0 l
1.05 0.65 l
0 0 l
0 0 l
1.04 0.62 l
0 0 l
0 0 l
1.05 0.58 l
0 0 l
0 0 l
1.04 0.55 l
0 0 l
0 0 l
1.05 0.52 l
0 0 l
0 0 l
1.04 0.48 l
0 0 l
0 0 l
1.05 0.46 l
0 0 l
0 0 l
1.04 0.42 l
0 0 l
0 0 l
1.05 0.39 l
0 0 l
0 0 l
1.04 0.37 l
0 0 l
0 0 l
1.05 0.33 l
0 0 l
0 0 l
1.04 0.30 l
0 0 l
0 0 l
1.05 0.28 l
0 0 l
0 0 l
1.04 0.25 l
0 0 l
0 0 l
1.05 0.21 l
0 0 l
0 0 l
1.04 0.20 l
0 0 l
0 0 l
1.05 0.16 l
0 0 l
0 0 l
1.04 0.14 l
0 0 l
0 0 l
1.05 0.12 l
0 0 l
0 0 l
1.04 0.09 l
0 0 l
0 0 l
1.05 0.06 l
0 0 l
0 0 l
1.04 0.04 l
0 0 l
0 0 l
1.05 0.02 l
0 0 l
0 0 l
1.04 -0.01 l
0 0 l
0 0 l
1.05 -0.03 l
0 0 l
0 0 l
1.04 -0.05 l
0 0 l
0 0 l
1.05 -0.07 l
0 0 l
0 0 l
1.04 -0.10 l
0 0 l
0 0 l
1.05 -0.11 l
0 0 l
215.81 265.06 lineto
1.04 -0.14 l
0 0 l
0 0 l
1.05 -0.15 l
0 0 l
0 0 l
1.04 -0.18 l
0 0 l
0 0 l
1.05 -0.20 l
0 0 l
0 0 l
1.04 -0.21 l
0 0 l
0 0 l
1.05 -0.23 l
0 0 l
0 0 l
1.04 -0.25 l
0 0 l
0 0 l
1.05 -0.27 l
0 0 l
0 0 l
1.04 -0.29 l
0 0 l
0 0 l
1.05 -0.30 l
0 0 l
0 0 l
1.04 -0.32 l
0 0 l
0 0 l
1.05 -0.33 l
0 0 l
0 0 l
1.04 -0.35 l
0 0 l
0 0 l
1.05 -0.37 l
0 0 l
0 0 l
1.04 -0.38 l
0 0 l
0 0 l
1.05 -0.39 l
0 0 l
0 0 l
1.04 -0.41 l
0 0 l
0 0 l
1.05 -0.42 l
0 0 l
0 0 l
1.04 -0.44 l
0 0 l
0 0 l
1.05 -0.45 l
0 0 l
0 0 l
1.04 -0.46 l
0 0 l
0 0 l
1.05 -0.47 l
0 0 l
0 0 l
1.04 -0.49 l
0 0 l
0 0 l
1.05 -0.50 l
0 0 l
0 0 l
1.04 -0.51 l
0 0 l
0 0 l
1.05 -0.52 l
0 0 l
0 0 l
1.04 -0.53 l
0 0 l
0 0 l
1.05 -0.54 l
0 0 l
0 0 l
1.04 -0.56 l
0 0 l
0 0 l
1.04 -0.56 l
0 0 l
0 0 l
1.05 -0.57 l
0 0 l
0 0 l
1.04 -0.58 l
0 0 l
0 0 l
1.05 -0.59 l
0 0 l
0 0 l
251.33 251.50 lineto
0 0 l
0 0 l
1.05 -0.61 l
0 0 l
0 0 l
1.04 -0.62 l
0 0 l
0 0 l
1.05 -0.62 l
0 0 l
0 0 l
1.04 -0.64 l
0 0 l
0 0 l
1.05 -0.64 l
0 0 l
0 0 l
1.04 -0.65 l
0 0 l
0 0 l
1.05 -0.65 l
0 0 l
0 0 l
1.04 -0.66 l
0 0 l
0 0 l
1.05 -0.67 l
0 0 l
0 0 l
1.04 -0.67 l
0 0 l
0 0 l
1.05 -0.69 l
0 0 l
0 0 l
1.04 -0.68 l
0 0 l
0 0 l
1.05 -0.70 l
0 0 l
0 0 l
1.04 -0.69 l
0 0 l
0 0 l
1.05 -0.71 l
0 0 l
0 0 l
1.04 -0.71 l
0 0 l
0 0 l
1.05 -0.71 l
0 0 l
0 0 l
1.04 -0.72 l
0 0 l
0 0 l
1.05 -0.72 l
0 0 l
0 0 l
1.04 -0.73 l
0 0 l
0 0 l
1.05 -0.73 l
0 0 l
0 0 l
1.04 -0.73 l
0 0 l
0 0 l
1.05 -0.74 l
0 0 l
0 0 l
1.04 -0.75 l
0 0 l
0 0 l
1.05 -0.74 l
0 0 l
0 0 l
1.04 -0.75 l
0 0 l
0 0 l
1.05 -0.75 l
0 0 l
0 0 l
1.04 -0.76 l
0 0 l
0 0 l
1.05 -0.76 l
0 0 l
0 0 l
1.04 -0.76 l
0 0 l
0 0 l
1.05 -0.76 l
0 0 l
0 0 l
1.04 -0.77 l
0 0 l
0 0 l
1.05 -0.77 l
285.82 228.24 lineto
0 0 l
1.04 -0.77 l
0 0 l
0 0 l
1.05 -0.77 l
0 0 l
0 0 l
1.04 -0.78 l
0 0 l
0 0 l
1.05 -0.77 l
0 0 l
0 0 l
1.04 -0.78 l
0 0 l
0 0 l
1.05 -0.78 l
0 0 l
0 0 l
1.04 -0.78 l
0 0 l
0 0 l
1.05 -0.78 l
0 0 l
0 0 l
1.04 -0.79 l
0 0 l
0 0 l
1.05 -0.78 l
0 0 l
0 0 l
1.04 -0.78 l
0 0 l
0 0 l
1.05 -0.79 l
0 0 l
0 0 l
1.04 -0.79 l
0 0 l
0 0 l
1.05 -0.78 l
0 0 l
0 0 l
1.04 -0.79 l
0 0 l
0 0 l
1.05 -0.79 l
0 0 l
0 0 l
1.04 -0.79 l
0 0 l
0 0 l
1.05 -0.78 l
0 0 l
0 0 l
1.04 -0.79 l
0 0 l
0 0 l
1.05 -0.79 l
0 0 l
0 0 l
1.04 -0.79 l
0 0 l
0 0 l
1.05 -0.79 l
0 0 l
0 0 l
1.04 -0.78 l
0 0 l
0 0 l
1.05 -0.79 l
0 0 l
0 0 l
1.04 -0.79 l
0 0 l
0 0 l
1.05 -0.78 l
0 0 l
0 0 l
1.04 -0.79 l
0 0 l
0 0 l
1.05 -0.78 l
0 0 l
0 0 l
1.04 -0.79 l
0 0 l
0 0 l
1.05 -0.78 l
0 0 l
0 0 l
1.04 -0.78 l
0 0 l
0 0 l
1.05 -0.79 l
0 0 l
0 0 l
1.04 -0.78 l
0 0 l
320.30 202.38 lineto
1.05 -0.78 l
0 0 l
0 0 l
1.04 -0.77 l
0 0 l
0 0 l
1.05 -0.78 l
0 0 l
0 0 l
1.04 -0.78 l
0 0 l
0 0 l
1.05 -0.77 l
0 0 l
0 0 l
1.04 -0.77 l
0 0 l
0 0 l
1.05 -0.78 l
0 0 l
0 0 l
1.04 -0.77 l
0 0 l
0 0 l
1.04 -0.76 l
0 0 l
0 0 l
1.05 -0.77 l
0 0 l
0 0 l
1.04 -0.77 l
0 0 l
0 0 l
1.05 -0.76 l
0 0 l
0 0 l
1.04 -0.76 l
0 0 l
0 0 l
1.05 -0.76 l
0 0 l
0 0 l
1.04 -0.76 l
0 0 l
0 0 l
1.05 -0.76 l
0 0 l
0 0 l
1.04 -0.75 l
0 0 l
0 0 l
1.05 -0.75 l
0 0 l
0 0 l
1.04 -0.75 l
0 0 l
0 0 l
1.05 -0.75 l
0 0 l
0 0 l
1.04 -0.75 l
0 0 l
0 0 l
1.05 -0.74 l
0 0 l
0 0 l
1.04 -0.75 l
0 0 l
0 0 l
1.05 -0.74 l
0 0 l
0 0 l
1.04 -0.74 l
0 0 l
0 0 l
1.05 -0.73 l
0 0 l
0 0 l
1.04 -0.73 l
0 0 l
0 0 l
1.05 -0.74 l
0 0 l
0 0 l
1.04 -0.73 l
0 0 l
0 0 l
1.05 -0.72 l
0 0 l
0 0 l
1.04 -0.73 l
0 0 l
0 0 l
1.05 -0.72 l
0 0 l
0 0 l
1.04 -0.72 l
0 0 l
0 0 l
355.83 176.83 lineto
0 0 l
0 0 l
1.04 -0.72 l
0 0 l
0 0 l
1.05 -0.71 l
0 0 l
0 0 l
1.04 -0.71 l
0 0 l
0 0 l
1.05 -0.71 l
0 0 l
0 0 l
1.04 -0.70 l
0 0 l
0 0 l
1.05 -0.71 l
0 0 l
0 0 l
1.04 -0.69 l
0 0 l
0 0 l
1.05 -0.70 l
0 0 l
0 0 l
1.04 -0.70 l
0 0 l
0 0 l
1.05 -0.69 l
0 0 l
0 0 l
1.04 -0.69 l
0 0 l
0 0 l
1.05 -0.68 l
0 0 l
0 0 l
1.04 -0.69 l
0 0 l
0 0 l
1.05 -0.68 l
0 0 l
0 0 l
1.04 -0.68 l
0 0 l
0 0 l
1.05 -0.67 l
0 0 l
0 0 l
1.04 -0.68 l
0 0 l
0 0 l
1.05 -0.67 l
0 0 l
0 0 l
1.04 -0.66 l
0 0 l
0 0 l
1.05 -0.67 l
0 0 l
0 0 l
1.04 -0.66 l
0 0 l
0 0 l
1.05 -0.66 l
0 0 l
0 0 l
1.04 -0.66 l
0 0 l
0 0 l
1.05 -0.65 l
0 0 l
0 0 l
1.04 -0.65 l
0 0 l
0 0 l
1.05 -0.65 l
0 0 l
0 0 l
1.04 -0.64 l
0 0 l
0 0 l
1.05 -0.65 l
0 0 l
0 0 l
1.04 -0.64 l
0 0 l
0 0 l
1.05 -0.63 l
0 0 l
0 0 l
1.04 -0.64 l
0 0 l
0 0 l
1.05 -0.63 l
0 0 l
0 0 l
1.04 -0.63 l
390.31 154.63 lineto
0 0 l
1.05 -0.62 l
0 0 l
0 0 l
1.04 -0.63 l
0 0 l
0 0 l
1.05 -0.62 l
0 0 l
0 0 l
1.04 -0.61 l
0 0 l
0 0 l
1.05 -0.62 l
0 0 l
0 0 l
1.04 -0.61 l
0 0 l
0 0 l
1.05 -0.61 l
0 0 l
0 0 l
1.04 -0.61 l
0 0 l
0 0 l
1.05 -0.60 l
0 0 l
0 0 l
1.04 -0.60 l
0 0 l
0 0 l
1.05 -0.60 l
0 0 l
0 0 l
1.04 -0.59 l
0 0 l
0 0 l
1.05 -0.59 l
0 0 l
0 0 l
1.04 -0.59 l
0 0 l
0 0 l
1.05 -0.59 l
0 0 l
0 0 l
1.04 -0.58 l
0 0 l
0 0 l
1.05 -0.58 l
0 0 l
0 0 l
1.04 -0.58 l
0 0 l
0 0 l
1.05 -0.58 l
0 0 l
0 0 l
1.04 -0.57 l
0 0 l
0 0 l
1.04 -0.57 l
0 0 l
0 0 l
1.05 -0.56 l
0 0 l
0 0 l
1.04 -0.57 l
0 0 l
0 0 l
1.05 -0.56 l
0 0 l
0 0 l
1.04 -0.56 l
0 0 l
0 0 l
1.05 -0.55 l
0 0 l
0 0 l
1.04 -0.56 l
0 0 l
0 0 l
1.05 -0.54 l
0 0 l
0 0 l
1.04 -0.55 l
0 0 l
0 0 l
1.05 -0.55 l
0 0 l
0 0 l
1.04 -0.54 l
0 0 l
0 0 l
1.05 -0.54 l
0 0 l
0 0 l
1.04 -0.53 l
0 0 l
424.79 135.47 lineto
1.05 -0.54 l
0 0 l
0 0 l
1.04 -0.53 l
0 0 l
0 0 l
1.05 -0.53 l
0 0 l
0 0 l
1.04 -0.52 l
0 0 l
0 0 l
1.05 -0.52 l
0 0 l
0 0 l
1.04 -0.52 l
0 0 l
0 0 l
1.05 -0.52 l
0 0 l
0 0 l
1.04 -0.51 l
0 0 l
0 0 l
o
1.07 setlinewidth
[ 4.27 2.13] 0 setdash
np
42.35 43.59 m
1.04 0 l
1.05 0 l
1.04 0 l
1.05 0 l
1.04 0 l
1.05 0 l
1.04 0 l
1.05 0 l
1.04 0 l
1.05 0 l
1.04 0 l
1.05 0 l
1.04 0 l
1.05 0 l
1.04 0.01 l
1.05 0.01 l
1.04 0.01 l
1.05 0.03 l
1.04 0.05 l
1.05 0.09 l
1.04 0.12 l
1.05 0.18 l
1.04 0.25 l
1.05 0.35 l
1.04 0.45 l
1.05 0.57 l
1.04 0.72 l
1.05 0.88 l
1.04 1.05 l
1.05 1.24 l
1.04 1.45 l
1.05 1.66 l
1.04 1.87 l
1.05 2.10 l
1.04 2.33 l
1.05 2.56 l
1.04 2.78 l
1.04 3.01 l
1.05 3.22 l
1.04 3.43 l
1.05 3.63 l
1.04 3.82 l
1.05 4.00 l
1.04 4.15 l
1.05 4.31 l
1.04 4.44 l
1.05 4.57 l
1.04 4.67 l
1.05 4.76 l
1.04 4.84 l
1.05 4.89 l
1.04 4.95 l
1.05 4.97 l
1.04 4.99 l
1.05 5.00 l
1.04 4.99 l
1.05 4.96 l
1.04 4.94 l
1.05 4.89 l
1.04 4.83 l
1.05 4.78 l
1.04 4.70 l
1.05 4.61 l
1.04 4.53 l
1.05 4.44 l
1.04 4.33 l
1.05 4.22 l
1.04 4.10 l
1.05 3.99 l
1.04 3.87 l
1.05 3.74 l
1.04 3.61 l
1.05 3.48 l
1.04 3.35 l
1.05 3.21 l
1.04 3.08 l
1.05 2.93 l
1.04 2.80 l
1.05 2.67 l
1.04 2.52 l
1.05 2.39 l
1.04 2.25 l
1.05 2.11 l
1.04 1.98 l
1.05 1.85 l
1.04 1.72 l
1.05 1.59 l
1.04 1.46 l
1.05 1.34 l
1.04 1.21 l
1.05 1.09 l
1.04 0.98 l
1.05 0.86 l
1.04 0.74 l
1.05 0.64 l
1.04 0.52 l
1.05 0.43 l
1.04 0.32 l
1.05 0.22 l
146.84 265.40 lineto
1.05 0.03 l
1.04 -0.06 l
1.05 -0.15 l
1.04 -0.23 l
1.05 -0.31 l
1.04 -0.39 l
1.05 -0.47 l
1.04 -0.54 l
1.05 -0.62 l
1.04 -0.68 l
1.05 -0.75 l
1.04 -0.81 l
1.05 -0.87 l
1.04 -0.93 l
1.05 -0.98 l
1.04 -1.04 l
1.04 -1.09 l
1.05 -1.14 l
1.04 -1.18 l
1.05 -1.23 l
1.04 -1.27 l
1.05 -1.30 l
1.04 -1.35 l
1.05 -1.38 l
1.04 -1.42 l
1.05 -1.44 l
1.04 -1.48 l
1.05 -1.50 l
1.04 -1.53 l
1.05 -1.55 l
1.04 -1.58 l
1.05 -1.60 l
1.04 -1.61 l
1.05 -1.64 l
1.04 -1.65 l
1.05 -1.67 l
1.04 -1.68 l
1.05 -1.69 l
1.04 -1.70 l
1.05 -1.72 l
1.04 -1.72 l
1.05 -1.73 l
1.04 -1.73 l
1.05 -1.75 l
1.04 -1.74 l
1.05 -1.75 l
1.04 -1.75 l
1.05 -1.76 l
1.04 -1.75 l
1.05 -1.76 l
1.04 -1.75 l
1.05 -1.75 l
1.04 -1.75 l
1.05 -1.74 l
1.04 -1.74 l
1.05 -1.74 l
1.04 -1.73 l
1.05 -1.73 l
1.04 -1.72 l
1.05 -1.71 l
1.04 -1.70 l
1.05 -1.70 l
1.04 -1.69 l
1.05 -1.68 l
1.04 -1.67 l
1.05 -1.66 l
1.04 -1.65 l
1.05 -1.64 l
1.04 -1.63 l
1.05 -1.62 l
1.04 -1.61 l
1.05 -1.60 l
1.04 -1.58 l
1.05 -1.57 l
1.04 -1.56 l
1.05 -1.55 l
1.04 -1.54 l
1.05 -1.52 l
1.04 -1.51 l
1.05 -1.49 l
1.04 -1.49 l
1.05 -1.47 l
1.04 -1.45 l
1.05 -1.44 l
1.04 -1.43 l
1.05 -1.42 l
1.04 -1.40 l
1.05 -1.38 l
1.04 -1.38 l
1.05 -1.35 l
1.04 -1.35 l
1.05 -1.33 l
1.04 -1.32 l
1.05 -1.30 l
1.04 -1.29 l
1.04 -1.27 l
1.05 -1.26 l
1.04 -1.24 l
1.05 -1.24 l
251.33 127.21 lineto
1.05 -1.21 l
1.04 -1.19 l
1.05 -1.17 l
1.04 -1.16 l
1.05 -1.15 l
1.04 -1.14 l
1.05 -1.12 l
1.04 -1.10 l
1.05 -1.10 l
1.04 -1.08 l
1.05 -1.06 l
1.04 -1.06 l
1.05 -1.04 l
1.04 -1.02 l
1.05 -1.02 l
1.04 -1.00 l
1.05 -0.98 l
1.04 -0.98 l
1.05 -0.96 l
1.04 -0.95 l
1.05 -0.94 l
1.04 -0.92 l
1.05 -0.91 l
1.04 -0.91 l
1.05 -0.88 l
1.04 -0.88 l
1.05 -0.86 l
1.04 -0.86 l
1.05 -0.84 l
1.04 -0.83 l
1.05 -0.82 l
1.04 -0.80 l
1.05 -0.80 l
1.04 -0.78 l
1.05 -0.78 l
1.04 -0.76 l
1.05 -0.75 l
1.04 -0.74 l
1.05 -0.73 l
1.04 -0.73 l
1.05 -0.71 l
1.04 -0.70 l
1.05 -0.69 l
1.04 -0.68 l
1.05 -0.67 l
1.04 -0.66 l
1.05 -0.65 l
1.04 -0.64 l
1.05 -0.63 l
1.04 -0.63 l
1.05 -0.61 l
1.04 -0.61 l
1.05 -0.59 l
1.04 -0.59 l
1.05 -0.58 l
1.04 -0.57 l
1.05 -0.56 l
1.04 -0.55 l
1.05 -0.55 l
1.04 -0.54 l
1.05 -0.53 l
1.04 -0.52 l
1.05 -0.51 l
1.04 -0.51 l
1.05 -0.49 l
1.04 -0.49 l
1.05 -0.49 l
1.04 -0.47 l
1.05 -0.47 l
1.04 -0.46 l
1.05 -0.46 l
1.04 -0.44 l
1.05 -0.44 l
1.04 -0.44 l
1.04 -0.42 l
1.05 -0.42 l
1.04 -0.42 l
1.05 -0.41 l
1.04 -0.40 l
1.05 -0.39 l
1.04 -0.39 l
1.05 -0.38 l
1.04 -0.38 l
1.05 -0.37 l
1.04 -0.37 l
1.05 -0.36 l
1.04 -0.35 l
1.05 -0.35 l
1.04 -0.34 l
1.05 -0.34 l
1.04 -0.33 l
1.05 -0.33 l
1.04 -0.32 l
1.05 -0.32 l
1.04 -0.31 l
1.05 -0.31 l
1.04 -0.30 l
1.05 -0.30 l
1.04 -0.29 l
355.83 60.88 lineto
1.04 -0.28 l
1.05 -0.28 l
1.04 -0.27 l
1.05 -0.27 l
1.04 -0.27 l
1.05 -0.26 l
1.04 -0.26 l
1.05 -0.25 l
1.04 -0.25 l
1.05 -0.24 l
1.04 -0.25 l
1.05 -0.23 l
1.04 -0.24 l
1.05 -0.23 l
1.04 -0.22 l
1.05 -0.23 l
1.04 -0.21 l
1.05 -0.22 l
1.04 -0.21 l
1.05 -0.21 l
1.04 -0.21 l
1.05 -0.20 l
1.04 -0.20 l
1.05 -0.19 l
1.04 -0.19 l
1.05 -0.19 l
1.04 -0.19 l
1.05 -0.18 l
1.04 -0.18 l
1.05 -0.18 l
1.04 -0.17 l
1.05 -0.17 l
1.04 -0.17 l
1.05 -0.17 l
1.04 -0.16 l
1.05 -0.16 l
1.04 -0.16 l
1.05 -0.15 l
1.04 -0.16 l
1.05 -0.15 l
1.04 -0.15 l
1.05 -0.14 l
1.04 -0.14 l
1.05 -0.14 l
1.04 -0.14 l
1.05 -0.14 l
1.04 -0.13 l
1.05 -0.13 l
1.04 -0.13 l
1.05 -0.13 l
1.04 -0.13 l
1.05 -0.12 l
1.04 -0.12 l
1.04 -0.12 l
1.05 -0.12 l
1.04 -0.11 l
1.05 -0.12 l
1.04 -0.11 l
1.05 -0.11 l
1.04 -0.10 l
1.05 -0.11 l
1.04 -0.10 l
1.05 -0.11 l
1.04 -0.10 l
1.05 -0.10 l
1.04 -0.09 l
1.05 -0.10 l
1.04 -0.10 l
1.05 -0.09 l
1.04 -0.09 l
1.05 -0.09 l
1.04 -0.09 l
1.05 -0.08 l
1.04 -0.09 l
o
1.07 setlinewidth
[ 4.27 4.27] 0 setdash
np
42.35 43.59 m
1.04 0 l
1.05 0 l
1.04 0 l
1.05 0 l
1.04 0 l
1.05 0 l
1.04 0 l
1.05 0 l
1.04 0 l
1.05 0 l
1.04 0 l
1.05 0 l
1.04 0 l
1.05 0 l
1.04 0.01 l
1.05 0.01 l
1.04 0.02 l
1.05 0.03 l
1.04 0.05 l
1.05 0.09 l
1.04 0.13 l
1.05 0.20 l
1.04 0.27 l
1.05 0.36 l
1.04 0.48 l
1.05 0.61 l
1.04 0.77 l
1.05 0.93 l
1.04 1.12 l
1.05 1.32 l
1.04 1.53 l
1.05 1.75 l
1.04 1.98 l
1.05 2.22 l
1.04 2.45 l
1.05 2.69 l
1.04 2.93 l
1.04 3.15 l
1.05 3.38 l
1.04 3.59 l
1.05 3.79 l
1.04 3.99 l
1.05 4.16 l
1.04 4.33 l
1.05 4.48 l
1.04 4.61 l
1.05 4.73 l
1.04 4.84 l
1.05 4.91 l
1.04 4.99 l
1.05 5.05 l
1.04 5.08 l
1.05 5.11 l
1.04 5.12 l
1.05 5.11 l
1.04 5.09 l
1.05 5.06 l
1.04 5.02 l
1.05 4.97 l
1.04 4.90 l
1.05 4.83 l
1.04 4.74 l
1.05 4.65 l
1.04 4.55 l
1.05 4.44 l
1.04 4.33 l
1.05 4.21 l
1.04 4.08 l
1.05 3.96 l
1.04 3.82 l
1.05 3.68 l
1.04 3.55 l
1.05 3.41 l
1.04 3.26 l
1.05 3.12 l
1.04 2.98 l
1.05 2.83 l
1.04 2.68 l
1.05 2.54 l
1.04 2.39 l
1.05 2.25 l
1.04 2.11 l
1.05 1.97 l
1.04 1.82 l
1.05 1.69 l
1.04 1.55 l
1.05 1.42 l
1.04 1.29 l
1.05 1.16 l
1.04 1.03 l
1.05 0.91 l
1.04 0.79 l
1.05 0.67 l
1.04 0.56 l
1.05 0.44 l
1.04 0.34 l
1.05 0.23 l
1.04 0.12 l
1.05 0.03 l
146.84 265.36 lineto
1.05 -0.16 l
1.04 -0.26 l
1.05 -0.34 l
1.04 -0.42 l
1.05 -0.51 l
1.04 -0.58 l
1.05 -0.66 l
1.04 -0.73 l
1.05 -0.80 l
1.04 -0.87 l
1.05 -0.93 l
1.04 -0.99 l
1.05 -1.05 l
1.04 -1.11 l
1.05 -1.16 l
1.04 -1.21 l
1.04 -1.25 l
1.05 -1.31 l
1.04 -1.34 l
1.05 -1.39 l
1.04 -1.42 l
1.05 -1.47 l
1.04 -1.49 l
1.05 -1.53 l
1.04 -1.56 l
1.05 -1.58 l
1.04 -1.62 l
1.05 -1.63 l
1.04 -1.66 l
1.05 -1.68 l
1.04 -1.70 l
1.05 -1.72 l
1.04 -1.73 l
1.05 -1.75 l
1.04 -1.76 l
1.05 -1.78 l
1.04 -1.78 l
1.05 -1.79 l
1.04 -1.80 l
1.05 -1.81 l
1.04 -1.81 l
1.05 -1.82 l
1.04 -1.82 l
1.05 -1.82 l
1.04 -1.82 l
1.05 -1.82 l
1.04 -1.82 l
1.05 -1.83 l
1.04 -1.81 l
1.05 -1.82 l
1.04 -1.81 l
1.05 -1.80 l
1.04 -1.80 l
1.05 -1.80 l
1.04 -1.78 l
1.05 -1.78 l
1.04 -1.78 l
1.05 -1.76 l
1.04 -1.75 l
1.05 -1.75 l
1.04 -1.73 l
1.05 -1.73 l
1.04 -1.71 l
1.05 -1.70 l
1.04 -1.69 l
1.05 -1.68 l
1.04 -1.67 l
1.05 -1.65 l
1.04 -1.64 l
1.05 -1.63 l
1.04 -1.62 l
1.05 -1.60 l
1.04 -1.58 l
1.05 -1.58 l
1.04 -1.56 l
1.05 -1.54 l
1.04 -1.53 l
1.05 -1.52 l
1.04 -1.50 l
1.05 -1.48 l
1.04 -1.47 l
1.05 -1.46 l
1.04 -1.44 l
1.05 -1.43 l
1.04 -1.41 l
1.05 -1.39 l
1.04 -1.38 l
1.05 -1.37 l
1.04 -1.35 l
1.05 -1.33 l
1.04 -1.32 l
1.05 -1.31 l
1.04 -1.28 l
1.05 -1.28 l
1.04 -1.26 l
1.04 -1.24 l
1.05 -1.23 l
1.04 -1.21 l
1.05 -1.20 l
251.33 120.15 lineto
1.05 -1.17 l
1.04 -1.15 l
1.05 -1.14 l
1.04 -1.13 l
1.05 -1.11 l
1.04 -1.09 l
1.05 -1.08 l
1.04 -1.07 l
1.05 -1.05 l
1.04 -1.04 l
1.05 -1.02 l
1.04 -1.02 l
1.05 -0.99 l
1.04 -0.99 l
1.05 -0.97 l
1.04 -0.95 l
1.05 -0.95 l
1.04 -0.93 l
1.05 -0.91 l
1.04 -0.91 l
1.05 -0.89 l
1.04 -0.88 l
1.05 -0.86 l
1.04 -0.86 l
1.05 -0.84 l
1.04 -0.83 l
1.05 -0.82 l
1.04 -0.80 l
1.05 -0.80 l
1.04 -0.78 l
1.05 -0.77 l
1.04 -0.76 l
1.05 -0.75 l
1.04 -0.73 l
1.05 -0.73 l
1.04 -0.72 l
1.05 -0.70 l
1.04 -0.69 l
1.05 -0.69 l
1.04 -0.67 l
1.05 -0.66 l
1.04 -0.66 l
1.05 -0.64 l
1.04 -0.63 l
1.05 -0.63 l
1.04 -0.61 l
1.05 -0.60 l
1.04 -0.60 l
1.05 -0.58 l
1.04 -0.58 l
1.05 -0.57 l
1.04 -0.56 l
1.05 -0.55 l
1.04 -0.54 l
1.05 -0.53 l
1.04 -0.53 l
1.05 -0.51 l
1.04 -0.51 l
1.05 -0.50 l
1.04 -0.49 l
1.05 -0.49 l
1.04 -0.47 l
1.05 -0.47 l
1.04 -0.46 l
1.05 -0.46 l
1.04 -0.45 l
1.05 -0.44 l
1.04 -0.43 l
1.05 -0.42 l
1.04 -0.42 l
1.05 -0.41 l
1.04 -0.41 l
1.05 -0.40 l
1.04 -0.39 l
1.04 -0.39 l
1.05 -0.38 l
1.04 -0.37 l
1.05 -0.37 l
1.04 -0.36 l
1.05 -0.35 l
1.04 -0.35 l
1.05 -0.35 l
1.04 -0.34 l
1.05 -0.33 l
1.04 -0.33 l
1.05 -0.32 l
1.04 -0.31 l
1.05 -0.32 l
1.04 -0.30 l
1.05 -0.30 l
1.04 -0.30 l
1.05 -0.29 l
1.04 -0.29 l
1.05 -0.28 l
1.04 -0.27 l
1.05 -0.28 l
1.04 -0.26 l
1.05 -0.27 l
1.04 -0.26 l
355.83 58.09 lineto
1.04 -0.25 l
1.05 -0.25 l
1.04 -0.24 l
1.05 -0.24 l
1.04 -0.23 l
1.05 -0.23 l
1.04 -0.22 l
1.05 -0.23 l
1.04 -0.21 l
1.05 -0.22 l
1.04 -0.21 l
1.05 -0.21 l
1.04 -0.20 l
1.05 -0.20 l
1.04 -0.20 l
1.05 -0.19 l
1.04 -0.19 l
1.05 -0.19 l
1.04 -0.19 l
1.05 -0.18 l
1.04 -0.17 l
1.05 -0.18 l
1.04 -0.17 l
1.05 -0.17 l
1.04 -0.17 l
1.05 -0.16 l
1.04 -0.16 l
1.05 -0.16 l
1.04 -0.15 l
1.05 -0.15 l
1.04 -0.15 l
1.05 -0.15 l
1.04 -0.14 l
1.05 -0.15 l
1.04 -0.14 l
1.05 -0.13 l
1.04 -0.14 l
1.05 -0.13 l
1.04 -0.13 l
1.05 -0.13 l
1.04 -0.13 l
1.05 -0.12 l
1.04 -0.12 l
1.05 -0.12 l
1.04 -0.12 l
1.05 -0.11 l
1.04 -0.12 l
1.05 -0.11 l
1.04 -0.11 l
1.05 -0.10 l
1.04 -0.11 l
1.05 -0.10 l
1.04 -0.11 l
1.04 -0.10 l
1.05 -0.09 l
1.04 -0.10 l
1.05 -0.10 l
1.04 -0.09 l
1.05 -0.09 l
1.04 -0.09 l
1.05 -0.09 l
1.04 -0.09 l
1.05 -0.08 l
1.04 -0.09 l
1.05 -0.08 l
1.04 -0.08 l
1.05 -0.08 l
1.04 -0.08 l
1.05 -0.08 l
1.04 -0.07 l
1.05 -0.08 l
1.04 -0.07 l
1.05 -0.07 l
1.04 -0.07 l
o
0.7804 0.4863 1 srgb
1.07 setlinewidth
[] 0 setdash
np
42.35 43.59 m
1.04 0 l
1.05 0 l
1.04 0 l
1.05 0 l
1.04 0 l
1.05 0 l
1.04 0 l
1.05 0 l
1.04 0 l
1.05 0 l
1.04 0 l
1.05 0 l
1.04 0 l
1.05 0.01 l
1.04 0 l
1.05 0.01 l
1.04 0.02 l
1.05 0.04 l
1.04 0.07 l
1.05 0.11 l
1.04 0.17 l
1.05 0.24 l
1.04 0.34 l
1.05 0.46 l
1.04 0.60 l
1.05 0.76 l
1.04 0.95 l
1.05 1.16 l
1.04 1.38 l
1.05 1.62 l
1.04 1.88 l
1.05 2.15 l
1.04 2.42 l
1.05 2.70 l
1.04 2.97 l
1.05 3.24 l
1.04 3.51 l
1.04 3.77 l
1.05 4.01 l
1.04 4.25 l
1.05 4.46 l
1.04 4.67 l
1.05 4.85 l
1.04 5.01 l
1.05 5.15 l
1.04 5.28 l
1.05 5.38 l
1.04 5.47 l
1.05 5.52 l
1.04 5.57 l
1.05 5.59 l
1.04 5.60 l
1.05 5.58 l
1.04 5.55 l
1.05 5.51 l
1.04 5.44 l
1.05 5.37 l
1.04 5.28 l
1.05 5.18 l
1.04 5.06 l
1.05 4.94 l
1.04 4.81 l
1.05 4.67 l
1.04 4.53 l
1.05 4.36 l
1.04 4.21 l
1.05 4.04 l
1.04 3.88 l
1.05 3.70 l
1.04 3.53 l
1.05 3.35 l
1.04 3.18 l
1.05 2.99 l
1.04 2.82 l
1.05 2.64 l
1.04 2.47 l
1.05 2.29 l
1.04 2.11 l
1.05 1.94 l
1.04 1.78 l
1.05 1.60 l
1.04 1.45 l
1.05 1.28 l
1.04 1.12 l
1.05 0.97 l
1.04 0.83 l
1.05 0.67 l
1.04 0.53 l
1.05 0.40 l
1.04 0.26 l
1.05 0.13 l
1.04 0 l
1.05 -0.12 l
1.04 -0.23 l
1.05 -0.35 l
1.04 -0.46 l
1.05 -0.56 l
1.04 -0.66 l
1.05 -0.76 l
146.84 261.44 lineto
1.05 -0.94 l
1.04 -1.03 l
1.05 -1.10 l
1.04 -1.18 l
1.05 -1.25 l
1.04 -1.32 l
1.05 -1.39 l
1.04 -1.45 l
1.05 -1.50 l
1.04 -1.57 l
1.05 -1.61 l
1.04 -1.66 l
1.05 -1.71 l
1.04 -1.75 l
1.05 -1.79 l
1.04 -1.82 l
1.04 -1.86 l
1.05 -1.89 l
1.04 -1.92 l
1.05 -1.94 l
1.04 -1.97 l
1.05 -1.99 l
1.04 -2.01 l
1.05 -2.03 l
1.04 -2.04 l
1.05 -2.05 l
1.04 -2.07 l
1.05 -2.07 l
1.04 -2.08 l
1.05 -2.09 l
1.04 -2.09 l
1.05 -2.09 l
1.04 -2.10 l
1.05 -2.09 l
1.04 -2.10 l
1.05 -2.09 l
1.04 -2.08 l
1.05 -2.08 l
1.04 -2.08 l
1.05 -2.07 l
1.04 -2.05 l
1.05 -2.05 l
1.04 -2.04 l
1.05 -2.03 l
1.04 -2.02 l
1.05 -2.00 l
1.04 -1.99 l
1.05 -1.98 l
1.04 -1.96 l
1.05 -1.95 l
1.04 -1.93 l
1.05 -1.92 l
1.04 -1.89 l
1.05 -1.89 l
1.04 -1.86 l
1.05 -1.85 l
1.04 -1.83 l
1.05 -1.81 l
1.04 -1.79 l
1.05 -1.77 l
1.04 -1.75 l
1.05 -1.74 l
1.04 -1.71 l
1.05 -1.70 l
1.04 -1.67 l
1.05 -1.66 l
1.04 -1.63 l
1.05 -1.62 l
1.04 -1.59 l
1.05 -1.57 l
1.04 -1.56 l
1.05 -1.53 l
1.04 -1.51 l
1.05 -1.50 l
1.04 -1.47 l
1.05 -1.45 l
1.04 -1.44 l
1.05 -1.41 l
1.04 -1.39 l
1.05 -1.37 l
1.04 -1.36 l
1.05 -1.33 l
1.04 -1.31 l
1.05 -1.30 l
1.04 -1.27 l
1.05 -1.26 l
1.04 -1.24 l
1.05 -1.21 l
1.04 -1.20 l
1.05 -1.18 l
1.04 -1.16 l
1.05 -1.15 l
1.04 -1.12 l
1.05 -1.11 l
1.04 -1.09 l
1.04 -1.07 l
1.05 -1.06 l
1.04 -1.03 l
1.05 -1.02 l
251.33 96.13 lineto
1.05 -0.99 l
1.04 -0.97 l
1.05 -0.95 l
1.04 -0.94 l
1.05 -0.92 l
1.04 -0.91 l
1.05 -0.89 l
1.04 -0.87 l
1.05 -0.87 l
1.04 -0.84 l
1.05 -0.83 l
1.04 -0.82 l
1.05 -0.80 l
1.04 -0.79 l
1.05 -0.77 l
1.04 -0.77 l
1.05 -0.74 l
1.04 -0.74 l
1.05 -0.72 l
1.04 -0.71 l
1.05 -0.69 l
1.04 -0.68 l
1.05 -0.67 l
1.04 -0.66 l
1.05 -0.65 l
1.04 -0.63 l
1.05 -0.63 l
1.04 -0.61 l
1.05 -0.60 l
1.04 -0.59 l
1.05 -0.57 l
1.04 -0.57 l
1.05 -0.56 l
1.04 -0.55 l
1.05 -0.53 l
1.04 -0.53 l
1.05 -0.51 l
1.04 -0.51 l
1.05 -0.50 l
1.04 -0.49 l
1.05 -0.47 l
1.04 -0.47 l
1.05 -0.46 l
1.04 -0.46 l
1.05 -0.44 l
1.04 -0.43 l
1.05 -0.43 l
1.04 -0.42 l
1.05 -0.41 l
1.04 -0.40 l
1.05 -0.40 l
1.04 -0.38 l
1.05 -0.38 l
1.04 -0.37 l
1.05 -0.37 l
1.04 -0.36 l
1.05 -0.35 l
1.04 -0.34 l
1.05 -0.34 l
1.04 -0.33 l
1.05 -0.32 l
1.04 -0.32 l
1.05 -0.31 l
1.04 -0.31 l
1.05 -0.30 l
1.04 -0.29 l
1.05 -0.29 l
1.04 -0.28 l
1.05 -0.28 l
1.04 -0.27 l
1.05 -0.27 l
1.04 -0.26 l
1.05 -0.25 l
1.04 -0.25 l
1.04 -0.25 l
1.05 -0.24 l
1.04 -0.23 l
1.05 -0.23 l
1.04 -0.23 l
1.05 -0.22 l
1.04 -0.22 l
1.05 -0.21 l
1.04 -0.21 l
1.05 -0.20 l
1.04 -0.20 l
1.05 -0.20 l
1.04 -0.19 l
1.05 -0.19 l
1.04 -0.19 l
1.05 -0.18 l
1.04 -0.17 l
1.05 -0.18 l
1.04 -0.17 l
1.05 -0.16 l
1.04 -0.17 l
1.05 -0.16 l
1.04 -0.15 l
1.05 -0.16 l
1.04 -0.15 l
355.83 50.54 lineto
1.04 -0.14 l
1.05 -0.14 l
1.04 -0.14 l
1.05 -0.14 l
1.04 -0.13 l
1.05 -0.13 l
1.04 -0.13 l
1.05 -0.12 l
1.04 -0.12 l
1.05 -0.12 l
1.04 -0.12 l
1.05 -0.12 l
1.04 -0.11 l
1.05 -0.11 l
1.04 -0.11 l
1.05 -0.10 l
1.04 -0.11 l
1.05 -0.10 l
1.04 -0.10 l
1.05 -0.10 l
1.04 -0.09 l
1.05 -0.09 l
1.04 -0.10 l
1.05 -0.09 l
1.04 -0.08 l
1.05 -0.09 l
1.04 -0.08 l
1.05 -0.09 l
1.04 -0.08 l
1.05 -0.08 l
1.04 -0.07 l
1.05 -0.08 l
1.04 -0.07 l
1.05 -0.08 l
1.04 -0.07 l
1.05 -0.07 l
1.04 -0.07 l
1.05 -0.06 l
1.04 -0.07 l
1.05 -0.06 l
1.04 -0.06 l
1.05 -0.07 l
1.04 -0.06 l
1.05 -0.06 l
1.04 -0.05 l
1.05 -0.06 l
1.04 -0.05 l
1.05 -0.06 l
1.04 -0.05 l
1.05 -0.05 l
1.04 -0.05 l
1.05 -0.05 l
1.04 -0.05 l
1.04 -0.05 l
1.05 -0.05 l
1.04 -0.04 l
1.05 -0.05 l
1.04 -0.04 l
1.05 -0.05 l
1.04 -0.04 l
1.05 -0.04 l
1.04 -0.04 l
1.05 -0.04 l
1.04 -0.04 l
1.05 -0.03 l
1.04 -0.04 l
1.05 -0.04 l
1.04 -0.03 l
1.05 -0.04 l
1.04 -0.03 l
1.05 -0.04 l
1.04 -0.03 l
1.05 -0.03 l
1.04 -0.03 l
o
1.07 setlinewidth
[ 2.13 2.13] 0 setdash
np
42.35 43.59 m
0 0 l
0 0 l
1.04 0 l
0 0 l
0 0 l
1.05 0 l
0 0 l
0 0 l
1.04 0 l
0 0 l
0 0 l
1.05 0 l
0 0 l
0 0 l
1.04 0 l
0 0 l
0 0 l
1.05 0 l
0 0 l
0 0 l
1.04 0 l
0 0 l
0 0 l
1.05 0 l
0 0 l
0 0 l
1.04 0 l
0 0 l
0 0 l
1.05 0 l
0 0 l
0 0 l
1.04 0 l
0 0 l
0 0 l
1.05 0 l
0 0 l
0 0 l
1.04 0 l
0 0 l
0 0 l
1.05 0 l
0 0 l
0 0 l
1.04 0 l
0 0 l
0 0 l
1.05 0.01 l
0 0 l
0 0 l
1.04 0 l
0 0 l
0 0 l
1.05 0.01 l
0 0 l
0 0 l
1.04 0.01 l
0 0 l
0 0 l
1.05 0.02 l
0 0 l
0 0 l
1.04 0.03 l
0 0 l
0 0 l
1.05 0.05 l
0 0 l
0 0 l
1.04 0.07 l
0 0 l
0 0 l
1.05 0.09 l
0 0 l
0 0 l
1.04 0.12 l
0 0 l
0 0 l
1.05 0.16 l
0 0 l
0 0 l
1.04 0.21 l
0 0 l
0 0 l
1.05 0.25 l
0 0 l
0 0 l
1.04 0.31 l
0 0 l
0 0 l
1.05 0.38 l
0 0 l
0 0 l
1.04 0.44 l
0 0 l
0 0 l
1.05 0.52 l
0 0 l
0 0 l
1.04 0.59 l
76.83 46.86 lineto
0 0 l
1.05 0.69 l
0 0 l
0 0 l
1.04 0.76 l
0 0 l
0 0 l
1.05 0.87 l
0 0 l
0 0 l
1.04 0.95 l
0 0 l
0 0 l
1.04 1.06 l
0 0 l
0 0 l
1.05 1.15 l
0 0 l
0 0 l
1.04 1.25 l
0 0 l
0 0 l
1.05 1.35 l
0 0 l
0 0 l
1.04 1.46 l
0 0 l
0 0 l
1.05 1.55 l
0 0 l
0 0 l
1.04 1.65 l
0 0 l
0 0 l
1.05 1.74 l
0 0 l
0 0 l
1.04 1.85 l
0 0 l
0 0 l
1.05 1.93 l
0 0 l
0 0 l
1.04 2.02 l
0 0 l
0 0 l
1.05 2.12 l
0 0 l
0 0 l
1.04 2.19 l
0 0 l
0 0 l
1.05 2.27 l
0 0 l
0 0 l
1.04 2.35 l
0 0 l
0 0 l
1.05 2.43 l
0 0 l
0 0 l
1.04 2.49 l
0 0 l
0 0 l
1.05 2.56 l
0 0 l
0 0 l
1.04 2.61 l
0 0 l
0 0 l
1.05 2.68 l
0 0 l
0 0 l
1.04 2.72 l
0 0 l
0 0 l
1.05 2.78 l
0 0 l
0 0 l
1.04 2.81 l
0 0 l
0 0 l
1.05 2.86 l
0 0 l
0 0 l
1.04 2.90 l
0 0 l
0 0 l
1.05 2.92 l
0 0 l
0 0 l
1.04 2.95 l
0 0 l
0 0 l
1.05 2.98 l
0 0 l
0 0 l
1.04 3.00 l
0 0 l
111.31 114.76 lineto
1.05 3.01 l
0 0 l
0 0 l
1.04 3.03 l
0 0 l
0 0 l
1.05 3.04 l
0 0 l
0 0 l
1.04 3.04 l
0 0 l
0 0 l
1.05 3.04 l
0 0 l
0 0 l
1.04 3.05 l
0 0 l
0 0 l
1.05 3.04 l
0 0 l
0 0 l
1.04 3.04 l
0 0 l
0 0 l
1.05 3.02 l
0 0 l
0 0 l
1.04 3.02 l
0 0 l
0 0 l
1.05 3.00 l
0 0 l
0 0 l
1.04 2.98 l
0 0 l
0 0 l
1.05 2.97 l
0 0 l
0 0 l
1.04 2.94 l
0 0 l
0 0 l
1.05 2.92 l
0 0 l
0 0 l
1.04 2.90 l
0 0 l
0 0 l
1.05 2.87 l
0 0 l
0 0 l
1.04 2.84 l
0 0 l
0 0 l
1.05 2.81 l
0 0 l
0 0 l
1.04 2.78 l
0 0 l
0 0 l
1.05 2.74 l
0 0 l
0 0 l
1.04 2.71 l
0 0 l
0 0 l
1.05 2.67 l
0 0 l
0 0 l
1.04 2.64 l
0 0 l
0 0 l
1.05 2.60 l
0 0 l
0 0 l
1.04 2.56 l
0 0 l
0 0 l
1.05 2.51 l
0 0 l
0 0 l
1.04 2.48 l
0 0 l
0 0 l
1.05 2.44 l
0 0 l
0 0 l
1.04 2.39 l
0 0 l
0 0 l
1.05 2.35 l
0 0 l
0 0 l
1.04 2.30 l
0 0 l
0 0 l
1.05 2.26 l
0 0 l
0 0 l
146.84 208.97 lineto
0 0 l
0 0 l
1.05 2.17 l
0 0 l
0 0 l
1.04 2.13 l
0 0 l
0 0 l
1.05 2.08 l
0 0 l
0 0 l
1.04 2.03 l
0 0 l
0 0 l
1.05 1.99 l
0 0 l
0 0 l
1.04 1.94 l
0 0 l
0 0 l
1.05 1.90 l
0 0 l
0 0 l
1.04 1.85 l
0 0 l
0 0 l
1.05 1.80 l
0 0 l
0 0 l
1.04 1.76 l
0 0 l
0 0 l
1.05 1.71 l
0 0 l
0 0 l
1.04 1.67 l
0 0 l
0 0 l
1.05 1.61 l
0 0 l
0 0 l
1.04 1.58 l
0 0 l
0 0 l
1.05 1.53 l
0 0 l
0 0 l
1.04 1.48 l
0 0 l
0 0 l
1.04 1.44 l
0 0 l
0 0 l
1.05 1.39 l
0 0 l
0 0 l
1.04 1.35 l
0 0 l
0 0 l
1.05 1.31 l
0 0 l
0 0 l
1.04 1.26 l
0 0 l
0 0 l
1.05 1.22 l
0 0 l
0 0 l
1.04 1.18 l
0 0 l
0 0 l
1.05 1.14 l
0 0 l
0 0 l
1.04 1.09 l
0 0 l
0 0 l
1.05 1.05 l
0 0 l
0 0 l
1.04 1.01 l
0 0 l
0 0 l
1.05 0.97 l
0 0 l
0 0 l
1.04 0.93 l
0 0 l
0 0 l
1.05 0.89 l
0 0 l
0 0 l
1.04 0.85 l
0 0 l
0 0 l
1.05 0.81 l
0 0 l
0 0 l
1.04 0.78 l
181.32 256.87 lineto
0 0 l
1.05 0.73 l
0 0 l
0 0 l
1.04 0.70 l
0 0 l
0 0 l
1.05 0.67 l
0 0 l
0 0 l
1.04 0.63 l
0 0 l
0 0 l
1.05 0.59 l
0 0 l
0 0 l
1.04 0.56 l
0 0 l
0 0 l
1.05 0.52 l
0 0 l
0 0 l
1.04 0.49 l
0 0 l
0 0 l
1.05 0.45 l
0 0 l
0 0 l
1.04 0.43 l
0 0 l
0 0 l
1.05 0.39 l
0 0 l
0 0 l
1.04 0.36 l
0 0 l
0 0 l
1.05 0.33 l
0 0 l
0 0 l
1.04 0.29 l
0 0 l
0 0 l
1.05 0.27 l
0 0 l
0 0 l
1.04 0.24 l
0 0 l
0 0 l
1.05 0.21 l
0 0 l
0 0 l
1.04 0.18 l
0 0 l
0 0 l
1.05 0.15 l
0 0 l
0 0 l
1.04 0.13 l
0 0 l
0 0 l
1.05 0.10 l
0 0 l
0 0 l
1.04 0.07 l
0 0 l
0 0 l
1.05 0.05 l
0 0 l
0 0 l
1.04 0.02 l
0 0 l
0 0 l
1.05 0 l
0 0 l
0 0 l
1.04 -0.03 l
0 0 l
0 0 l
1.05 -0.05 l
0 0 l
0 0 l
1.04 -0.08 l
0 0 l
0 0 l
1.05 -0.09 l
0 0 l
0 0 l
1.04 -0.12 l
0 0 l
0 0 l
1.05 -0.15 l
0 0 l
0 0 l
1.04 -0.16 l
0 0 l
0 0 l
1.05 -0.18 l
0 0 l
215.81 264.57 lineto
1.04 -0.21 l
0 0 l
0 0 l
1.05 -0.22 l
0 0 l
0 0 l
1.04 -0.24 l
0 0 l
0 0 l
1.05 -0.27 l
0 0 l
0 0 l
1.04 -0.28 l
0 0 l
0 0 l
1.05 -0.30 l
0 0 l
0 0 l
1.04 -0.31 l
0 0 l
0 0 l
1.05 -0.34 l
0 0 l
0 0 l
1.04 -0.35 l
0 0 l
0 0 l
1.05 -0.37 l
0 0 l
0 0 l
1.04 -0.38 l
0 0 l
0 0 l
1.05 -0.40 l
0 0 l
0 0 l
1.04 -0.42 l
0 0 l
0 0 l
1.05 -0.43 l
0 0 l
0 0 l
1.04 -0.44 l
0 0 l
0 0 l
1.05 -0.46 l
0 0 l
0 0 l
1.04 -0.47 l
0 0 l
0 0 l
1.05 -0.49 l
0 0 l
0 0 l
1.04 -0.50 l
0 0 l
0 0 l
1.05 -0.51 l
0 0 l
0 0 l
1.04 -0.53 l
0 0 l
0 0 l
1.05 -0.53 l
0 0 l
0 0 l
1.04 -0.55 l
0 0 l
0 0 l
1.05 -0.56 l
0 0 l
0 0 l
1.04 -0.57 l
0 0 l
0 0 l
1.05 -0.58 l
0 0 l
0 0 l
1.04 -0.59 l
0 0 l
0 0 l
1.05 -0.60 l
0 0 l
0 0 l
1.04 -0.61 l
0 0 l
0 0 l
1.04 -0.62 l
0 0 l
0 0 l
1.05 -0.63 l
0 0 l
0 0 l
1.04 -0.64 l
0 0 l
0 0 l
1.05 -0.65 l
0 0 l
0 0 l
251.33 248.86 lineto
0 0 l
0 0 l
1.05 -0.66 l
0 0 l
0 0 l
1.04 -0.67 l
0 0 l
0 0 l
1.05 -0.68 l
0 0 l
0 0 l
1.04 -0.69 l
0 0 l
0 0 l
1.05 -0.69 l
0 0 l
0 0 l
1.04 -0.70 l
0 0 l
0 0 l
1.05 -0.71 l
0 0 l
0 0 l
1.04 -0.71 l
0 0 l
0 0 l
1.05 -0.72 l
0 0 l
0 0 l
1.04 -0.73 l
0 0 l
0 0 l
1.05 -0.73 l
0 0 l
0 0 l
1.04 -0.73 l
0 0 l
0 0 l
1.05 -0.74 l
0 0 l
0 0 l
1.04 -0.75 l
0 0 l
0 0 l
1.05 -0.75 l
0 0 l
0 0 l
1.04 -0.76 l
0 0 l
0 0 l
1.05 -0.76 l
0 0 l
0 0 l
1.04 -0.76 l
0 0 l
0 0 l
1.05 -0.77 l
0 0 l
0 0 l
1.04 -0.77 l
0 0 l
0 0 l
1.05 -0.78 l
0 0 l
0 0 l
1.04 -0.78 l
0 0 l
0 0 l
1.05 -0.78 l
0 0 l
0 0 l
1.04 -0.78 l
0 0 l
0 0 l
1.05 -0.79 l
0 0 l
0 0 l
1.04 -0.79 l
0 0 l
0 0 l
1.05 -0.79 l
0 0 l
0 0 l
1.04 -0.80 l
0 0 l
0 0 l
1.05 -0.80 l
0 0 l
0 0 l
1.04 -0.80 l
0 0 l
0 0 l
1.05 -0.80 l
0 0 l
0 0 l
1.04 -0.81 l
0 0 l
0 0 l
1.05 -0.80 l
285.82 224.08 lineto
0 0 l
1.04 -0.81 l
0 0 l
0 0 l
1.05 -0.81 l
0 0 l
0 0 l
1.04 -0.81 l
0 0 l
0 0 l
1.05 -0.81 l
0 0 l
0 0 l
1.04 -0.81 l
0 0 l
0 0 l
1.05 -0.81 l
0 0 l
0 0 l
1.04 -0.82 l
0 0 l
0 0 l
1.05 -0.81 l
0 0 l
0 0 l
1.04 -0.82 l
0 0 l
0 0 l
1.05 -0.81 l
0 0 l
0 0 l
1.04 -0.82 l
0 0 l
0 0 l
1.05 -0.82 l
0 0 l
0 0 l
1.04 -0.81 l
0 0 l
0 0 l
1.05 -0.82 l
0 0 l
0 0 l
1.04 -0.81 l
0 0 l
0 0 l
1.05 -0.82 l
0 0 l
0 0 l
1.04 -0.82 l
0 0 l
0 0 l
1.05 -0.81 l
0 0 l
0 0 l
1.04 -0.82 l
0 0 l
0 0 l
1.05 -0.81 l
0 0 l
0 0 l
1.04 -0.81 l
0 0 l
0 0 l
1.05 -0.82 l
0 0 l
0 0 l
1.04 -0.81 l
0 0 l
0 0 l
1.05 -0.81 l
0 0 l
0 0 l
1.04 -0.81 l
0 0 l
0 0 l
1.05 -0.81 l
0 0 l
0 0 l
1.04 -0.81 l
0 0 l
0 0 l
1.05 -0.81 l
0 0 l
0 0 l
1.04 -0.80 l
0 0 l
0 0 l
1.05 -0.81 l
0 0 l
0 0 l
1.04 -0.80 l
0 0 l
0 0 l
1.05 -0.80 l
0 0 l
0 0 l
1.04 -0.80 l
0 0 l
320.30 197.30 lineto
1.05 -0.80 l
0 0 l
0 0 l
1.04 -0.80 l
0 0 l
0 0 l
1.05 -0.80 l
0 0 l
0 0 l
1.04 -0.79 l
0 0 l
0 0 l
1.05 -0.79 l
0 0 l
0 0 l
1.04 -0.79 l
0 0 l
0 0 l
1.05 -0.79 l
0 0 l
0 0 l
1.04 -0.79 l
0 0 l
0 0 l
1.04 -0.78 l
0 0 l
0 0 l
1.05 -0.79 l
0 0 l
0 0 l
1.04 -0.78 l
0 0 l
0 0 l
1.05 -0.77 l
0 0 l
0 0 l
1.04 -0.78 l
0 0 l
0 0 l
1.05 -0.77 l
0 0 l
0 0 l
1.04 -0.78 l
0 0 l
0 0 l
1.05 -0.77 l
0 0 l
0 0 l
1.04 -0.76 l
0 0 l
0 0 l
1.05 -0.77 l
0 0 l
0 0 l
1.04 -0.76 l
0 0 l
0 0 l
1.05 -0.76 l
0 0 l
0 0 l
1.04 -0.76 l
0 0 l
0 0 l
1.05 -0.76 l
0 0 l
0 0 l
1.04 -0.75 l
0 0 l
0 0 l
1.05 -0.75 l
0 0 l
0 0 l
1.04 -0.75 l
0 0 l
0 0 l
1.05 -0.74 l
0 0 l
0 0 l
1.04 -0.74 l
0 0 l
0 0 l
1.05 -0.74 l
0 0 l
0 0 l
1.04 -0.74 l
0 0 l
0 0 l
1.05 -0.74 l
0 0 l
0 0 l
1.04 -0.73 l
0 0 l
0 0 l
1.05 -0.73 l
0 0 l
0 0 l
1.04 -0.72 l
0 0 l
0 0 l
355.83 171.30 lineto
0 0 l
0 0 l
1.04 -0.72 l
0 0 l
0 0 l
1.05 -0.72 l
0 0 l
0 0 l
1.04 -0.71 l
0 0 l
0 0 l
1.05 -0.71 l
0 0 l
0 0 l
1.04 -0.71 l
0 0 l
0 0 l
1.05 -0.71 l
0 0 l
0 0 l
1.04 -0.71 l
0 0 l
0 0 l
1.05 -0.70 l
0 0 l
0 0 l
1.04 -0.69 l
0 0 l
0 0 l
1.05 -0.70 l
0 0 l
0 0 l
1.04 -0.69 l
0 0 l
0 0 l
1.05 -0.69 l
0 0 l
0 0 l
1.04 -0.69 l
0 0 l
0 0 l
1.05 -0.68 l
0 0 l
0 0 l
1.04 -0.68 l
0 0 l
0 0 l
1.05 -0.68 l
0 0 l
0 0 l
1.04 -0.67 l
0 0 l
0 0 l
1.05 -0.68 l
0 0 l
0 0 l
1.04 -0.66 l
0 0 l
0 0 l
1.05 -0.67 l
0 0 l
0 0 l
1.04 -0.66 l
0 0 l
0 0 l
1.05 -0.66 l
0 0 l
0 0 l
1.04 -0.66 l
0 0 l
0 0 l
1.05 -0.65 l
0 0 l
0 0 l
1.04 -0.65 l
0 0 l
0 0 l
1.05 -0.65 l
0 0 l
0 0 l
1.04 -0.65 l
0 0 l
0 0 l
1.05 -0.64 l
0 0 l
0 0 l
1.04 -0.64 l
0 0 l
0 0 l
1.05 -0.63 l
0 0 l
0 0 l
1.04 -0.63 l
0 0 l
0 0 l
1.05 -0.63 l
0 0 l
0 0 l
1.04 -0.63 l
390.31 149.05 lineto
0 0 l
1.05 -0.62 l
0 0 l
0 0 l
1.04 -0.62 l
0 0 l
0 0 l
1.05 -0.62 l
0 0 l
0 0 l
1.04 -0.61 l
0 0 l
0 0 l
1.05 -0.62 l
0 0 l
0 0 l
1.04 -0.60 l
0 0 l
0 0 l
1.05 -0.61 l
0 0 l
0 0 l
1.04 -0.60 l
0 0 l
0 0 l
1.05 -0.60 l
0 0 l
0 0 l
1.04 -0.60 l
0 0 l
0 0 l
1.05 -0.59 l
0 0 l
0 0 l
1.04 -0.59 l
0 0 l
0 0 l
1.05 -0.59 l
0 0 l
0 0 l
1.04 -0.58 l
0 0 l
0 0 l
1.05 -0.58 l
0 0 l
0 0 l
1.04 -0.58 l
0 0 l
0 0 l
1.05 -0.57 l
0 0 l
0 0 l
1.04 -0.58 l
0 0 l
0 0 l
1.05 -0.57 l
0 0 l
0 0 l
1.04 -0.56 l
0 0 l
0 0 l
1.04 -0.56 l
0 0 l
0 0 l
1.05 -0.57 l
0 0 l
0 0 l
1.04 -0.55 l
0 0 l
0 0 l
1.05 -0.56 l
0 0 l
0 0 l
1.04 -0.55 l
0 0 l
0 0 l
1.05 -0.55 l
0 0 l
0 0 l
1.04 -0.54 l
0 0 l
0 0 l
1.05 -0.55 l
0 0 l
0 0 l
1.04 -0.53 l
0 0 l
0 0 l
1.05 -0.54 l
0 0 l
0 0 l
1.04 -0.54 l
0 0 l
0 0 l
1.05 -0.53 l
0 0 l
0 0 l
1.04 -0.53 l
0 0 l
424.79 130.06 lineto
1.05 -0.52 l
0 0 l
0 0 l
1.04 -0.52 l
0 0 l
0 0 l
1.05 -0.52 l
0 0 l
0 0 l
1.04 -0.52 l
0 0 l
0 0 l
1.05 -0.51 l
0 0 l
0 0 l
1.04 -0.51 l
0 0 l
0 0 l
1.05 -0.51 l
0 0 l
0 0 l
1.04 -0.51 l
0 0 l
0 0 l
o
1.07 setlinewidth
[ 4.27 2.13] 0 setdash
np
42.35 43.59 m
1.04 0 l
1.05 0 l
1.04 0 l
1.05 0 l
1.04 0 l
1.05 0 l
1.04 0 l
1.05 0 l
1.04 0 l
1.05 0 l
1.04 0 l
1.05 0 l
1.04 0 l
1.05 0.01 l
1.04 0.01 l
1.05 0.01 l
1.04 0.04 l
1.05 0.07 l
1.04 0.11 l
1.05 0.17 l
1.04 0.27 l
1.05 0.37 l
1.04 0.52 l
1.05 0.70 l
1.04 0.90 l
1.05 1.14 l
1.04 1.39 l
1.05 1.69 l
1.04 1.99 l
1.05 2.32 l
1.04 2.65 l
1.05 3.00 l
1.04 3.34 l
1.05 3.69 l
1.04 4.02 l
1.05 4.35 l
1.04 4.65 l
1.04 4.95 l
1.05 5.21 l
1.04 5.46 l
1.05 5.67 l
1.04 5.86 l
1.05 6.03 l
1.04 6.15 l
1.05 6.26 l
1.04 6.34 l
1.05 6.37 l
1.04 6.40 l
1.05 6.39 l
1.04 6.35 l
1.05 6.29 l
1.04 6.21 l
1.05 6.11 l
1.04 5.98 l
1.05 5.84 l
1.04 5.68 l
1.05 5.51 l
1.04 5.33 l
1.05 5.12 l
1.04 4.92 l
1.05 4.70 l
1.04 4.48 l
1.05 4.25 l
1.04 4.01 l
1.05 3.77 l
1.04 3.54 l
1.05 3.29 l
1.04 3.05 l
1.05 2.81 l
1.04 2.57 l
1.05 2.33 l
1.04 2.10 l
1.05 1.87 l
1.04 1.64 l
1.05 1.41 l
1.04 1.21 l
1.05 0.99 l
1.04 0.78 l
1.05 0.58 l
1.04 0.39 l
1.05 0.21 l
1.04 0.02 l
1.05 -0.15 l
1.04 -0.32 l
1.05 -0.48 l
1.04 -0.63 l
1.05 -0.78 l
1.04 -0.92 l
1.05 -1.06 l
1.04 -1.17 l
1.05 -1.30 l
1.04 -1.42 l
1.05 -1.52 l
1.04 -1.62 l
1.05 -1.71 l
1.04 -1.80 l
1.05 -1.89 l
1.04 -1.96 l
1.05 -2.04 l
146.84 242.56 lineto
1.05 -2.16 l
1.04 -2.22 l
1.05 -2.27 l
1.04 -2.31 l
1.05 -2.36 l
1.04 -2.40 l
1.05 -2.43 l
1.04 -2.45 l
1.05 -2.49 l
1.04 -2.51 l
1.05 -2.52 l
1.04 -2.54 l
1.05 -2.55 l
1.04 -2.56 l
1.05 -2.57 l
1.04 -2.57 l
1.04 -2.57 l
1.05 -2.57 l
1.04 -2.57 l
1.05 -2.56 l
1.04 -2.55 l
1.05 -2.54 l
1.04 -2.53 l
1.05 -2.51 l
1.04 -2.50 l
1.05 -2.48 l
1.04 -2.47 l
1.05 -2.44 l
1.04 -2.43 l
1.05 -2.40 l
1.04 -2.38 l
1.05 -2.35 l
1.04 -2.33 l
1.05 -2.31 l
1.04 -2.27 l
1.05 -2.26 l
1.04 -2.22 l
1.05 -2.19 l
1.04 -2.17 l
1.05 -2.14 l
1.04 -2.11 l
1.05 -2.07 l
1.04 -2.05 l
1.05 -2.02 l
1.04 -1.99 l
1.05 -1.95 l
1.04 -1.93 l
1.05 -1.90 l
1.04 -1.86 l
1.05 -1.83 l
1.04 -1.81 l
1.05 -1.77 l
1.04 -1.74 l
1.05 -1.72 l
1.04 -1.68 l
1.05 -1.65 l
1.04 -1.62 l
1.05 -1.59 l
1.04 -1.56 l
1.05 -1.54 l
1.04 -1.50 l
1.05 -1.48 l
1.04 -1.45 l
1.05 -1.41 l
1.04 -1.40 l
1.05 -1.36 l
1.04 -1.34 l
1.05 -1.31 l
1.04 -1.28 l
1.05 -1.26 l
1.04 -1.23 l
1.05 -1.20 l
1.04 -1.18 l
1.05 -1.16 l
1.04 -1.13 l
1.05 -1.11 l
1.04 -1.08 l
1.05 -1.06 l
1.04 -1.04 l
1.05 -1.02 l
1.04 -0.99 l
1.05 -0.97 l
1.04 -0.95 l
1.05 -0.93 l
1.04 -0.91 l
1.05 -0.89 l
1.04 -0.86 l
1.05 -0.85 l
1.04 -0.83 l
1.05 -0.81 l
1.04 -0.79 l
1.05 -0.78 l
1.04 -0.75 l
1.05 -0.74 l
1.04 -0.72 l
1.04 -0.71 l
1.05 -0.69 l
1.04 -0.67 l
1.05 -0.66 l
251.33 68.38 lineto
1.05 -0.62 l
1.04 -0.61 l
1.05 -0.60 l
1.04 -0.58 l
1.05 -0.57 l
1.04 -0.56 l
1.05 -0.54 l
1.04 -0.53 l
1.05 -0.51 l
1.04 -0.50 l
1.05 -0.50 l
1.04 -0.47 l
1.05 -0.47 l
1.04 -0.46 l
1.05 -0.44 l
1.04 -0.44 l
1.05 -0.42 l
1.04 -0.41 l
1.05 -0.40 l
1.04 -0.40 l
1.05 -0.38 l
1.04 -0.37 l
1.05 -0.37 l
1.04 -0.35 l
1.05 -0.35 l
1.04 -0.33 l
1.05 -0.33 l
1.04 -0.32 l
1.05 -0.32 l
1.04 -0.30 l
1.05 -0.30 l
1.04 -0.29 l
1.05 -0.28 l
1.04 -0.27 l
1.05 -0.27 l
1.04 -0.26 l
1.05 -0.26 l
1.04 -0.25 l
1.05 -0.24 l
1.04 -0.23 l
1.05 -0.23 l
1.04 -0.23 l
1.05 -0.21 l
1.04 -0.22 l
1.05 -0.20 l
1.04 -0.20 l
1.05 -0.20 l
1.04 -0.19 l
1.05 -0.19 l
1.04 -0.18 l
1.05 -0.18 l
1.04 -0.17 l
1.05 -0.16 l
1.04 -0.17 l
1.05 -0.16 l
1.04 -0.15 l
1.05 -0.15 l
1.04 -0.15 l
1.05 -0.14 l
1.04 -0.14 l
1.05 -0.14 l
1.04 -0.13 l
1.05 -0.13 l
1.04 -0.12 l
1.05 -0.13 l
1.04 -0.11 l
1.05 -0.12 l
1.04 -0.11 l
1.05 -0.11 l
1.04 -0.11 l
1.05 -0.10 l
1.04 -0.10 l
1.05 -0.10 l
1.04 -0.10 l
1.04 -0.09 l
1.05 -0.09 l
1.04 -0.09 l
1.05 -0.09 l
1.04 -0.08 l
1.05 -0.08 l
1.04 -0.08 l
1.05 -0.08 l
1.04 -0.07 l
1.05 -0.08 l
1.04 -0.07 l
1.05 -0.07 l
1.04 -0.06 l
1.05 -0.07 l
1.04 -0.06 l
1.05 -0.07 l
1.04 -0.06 l
1.05 -0.06 l
1.04 -0.05 l
1.05 -0.06 l
1.04 -0.05 l
1.05 -0.06 l
1.04 -0.05 l
1.05 -0.05 l
1.04 -0.05 l
355.83 45.29 lineto
1.04 -0.05 l
1.05 -0.04 l
1.04 -0.05 l
1.05 -0.04 l
1.04 -0.04 l
1.05 -0.04 l
1.04 -0.04 l
1.05 -0.04 l
1.04 -0.04 l
1.05 -0.03 l
1.04 -0.04 l
1.05 -0.03 l
1.04 -0.03 l
1.05 -0.04 l
1.04 -0.03 l
1.05 -0.03 l
1.04 -0.03 l
1.05 -0.03 l
1.04 -0.03 l
1.05 -0.02 l
1.04 -0.03 l
1.05 -0.03 l
1.04 -0.02 l
1.05 -0.03 l
1.04 -0.02 l
1.05 -0.02 l
1.04 -0.03 l
1.05 -0.02 l
1.04 -0.02 l
1.05 -0.02 l
1.04 -0.02 l
1.05 -0.02 l
1.04 -0.02 l
1.05 -0.02 l
1.04 -0.02 l
1.05 -0.01 l
1.04 -0.02 l
1.05 -0.02 l
1.04 -0.01 l
1.05 -0.02 l
1.04 -0.01 l
1.05 -0.02 l
1.04 -0.01 l
1.05 -0.02 l
1.04 -0.01 l
1.05 -0.01 l
1.04 -0.02 l
1.05 -0.01 l
1.04 -0.01 l
1.05 -0.01 l
1.04 -0.02 l
1.05 -0.01 l
1.04 -0.01 l
1.04 -0.01 l
1.05 -0.01 l
1.04 -0.01 l
1.05 -0.01 l
1.04 -0.01 l
1.05 -0.01 l
1.04 -0.01 l
1.05 -0.01 l
1.04 -0.01 l
1.05 0 l
1.04 -0.01 l
1.05 -0.01 l
1.04 -0.01 l
1.05 0 l
1.04 -0.01 l
1.05 -0.01 l
1.04 -0.01 l
1.05 0 l
1.04 -0.01 l
1.05 -0.01 l
1.04 0 l
o
1.07 setlinewidth
[ 4.27 4.27] 0 setdash
np
42.35 43.59 m
1.04 0 l
1.05 0 l
1.04 0 l
1.05 0 l
1.04 0 l
1.05 0 l
1.04 0 l
1.05 0 l
1.04 0 l
1.05 0 l
1.04 0 l
1.05 0 l
1.04 0 l
1.05 0.01 l
1.04 0.01 l
1.05 0.02 l
1.04 0.05 l
1.05 0.08 l
1.04 0.13 l
1.05 0.21 l
1.04 0.31 l
1.05 0.45 l
1.04 0.62 l
1.05 0.82 l
1.04 1.06 l
1.05 1.33 l
1.04 1.63 l
1.05 1.95 l
1.04 2.31 l
1.05 2.66 l
1.04 3.05 l
1.05 3.42 l
1.04 3.80 l
1.05 4.17 l
1.04 4.54 l
1.05 4.87 l
1.04 5.20 l
1.04 5.49 l
1.05 5.76 l
1.04 6.01 l
1.05 6.21 l
1.04 6.38 l
1.05 6.53 l
1.04 6.63 l
1.05 6.70 l
1.04 6.75 l
1.05 6.75 l
1.04 6.73 l
1.05 6.67 l
1.04 6.60 l
1.05 6.49 l
1.04 6.35 l
1.05 6.21 l
1.04 6.03 l
1.05 5.84 l
1.04 5.63 l
1.05 5.41 l
1.04 5.18 l
1.05 4.93 l
1.04 4.68 l
1.05 4.41 l
1.04 4.16 l
1.05 3.88 l
1.04 3.61 l
1.05 3.34 l
1.04 3.06 l
1.05 2.79 l
1.04 2.52 l
1.05 2.26 l
1.04 1.99 l
1.05 1.74 l
1.04 1.48 l
1.05 1.23 l
1.04 1.00 l
1.05 0.76 l
1.04 0.53 l
1.05 0.31 l
1.04 0.11 l
1.05 -0.10 l
1.04 -0.29 l
1.05 -0.49 l
1.04 -0.65 l
1.05 -0.83 l
1.04 -1.00 l
1.05 -1.14 l
1.04 -1.29 l
1.05 -1.43 l
1.04 -1.56 l
1.05 -1.68 l
1.04 -1.80 l
1.05 -1.90 l
1.04 -2.00 l
1.05 -2.09 l
1.04 -2.18 l
1.05 -2.26 l
1.04 -2.33 l
1.05 -2.39 l
1.04 -2.46 l
1.05 -2.51 l
146.84 230.50 lineto
1.05 -2.61 l
1.04 -2.63 l
1.05 -2.68 l
1.04 -2.70 l
1.05 -2.72 l
1.04 -2.75 l
1.05 -2.76 l
1.04 -2.77 l
1.05 -2.78 l
1.04 -2.78 l
1.05 -2.79 l
1.04 -2.78 l
1.05 -2.78 l
1.04 -2.77 l
1.05 -2.76 l
1.04 -2.75 l
1.04 -2.73 l
1.05 -2.72 l
1.04 -2.69 l
1.05 -2.68 l
1.04 -2.65 l
1.05 -2.63 l
1.04 -2.61 l
1.05 -2.58 l
1.04 -2.55 l
1.05 -2.52 l
1.04 -2.49 l
1.05 -2.45 l
1.04 -2.43 l
1.05 -2.39 l
1.04 -2.36 l
1.05 -2.33 l
1.04 -2.29 l
1.05 -2.26 l
1.04 -2.22 l
1.05 -2.19 l
1.04 -2.15 l
1.05 -2.11 l
1.04 -2.08 l
1.05 -2.05 l
1.04 -2.00 l
1.05 -1.97 l
1.04 -1.94 l
1.05 -1.90 l
1.04 -1.86 l
1.05 -1.82 l
1.04 -1.80 l
1.05 -1.75 l
1.04 -1.72 l
1.05 -1.69 l
1.04 -1.65 l
1.05 -1.62 l
1.04 -1.59 l
1.05 -1.55 l
1.04 -1.51 l
1.05 -1.49 l
1.04 -1.45 l
1.05 -1.43 l
1.04 -1.39 l
1.05 -1.36 l
1.04 -1.32 l
1.05 -1.30 l
1.04 -1.27 l
1.05 -1.24 l
1.04 -1.22 l
1.05 -1.18 l
1.04 -1.16 l
1.05 -1.13 l
1.04 -1.10 l
1.05 -1.07 l
1.04 -1.05 l
1.05 -1.03 l
1.04 -1.00 l
1.05 -0.98 l
1.04 -0.95 l
1.05 -0.93 l
1.04 -0.90 l
1.05 -0.89 l
1.04 -0.86 l
1.05 -0.84 l
1.04 -0.82 l
1.05 -0.80 l
1.04 -0.77 l
1.05 -0.76 l
1.04 -0.74 l
1.05 -0.72 l
1.04 -0.70 l
1.05 -0.69 l
1.04 -0.66 l
1.05 -0.65 l
1.04 -0.63 l
1.05 -0.62 l
1.04 -0.60 l
1.05 -0.58 l
1.04 -0.57 l
1.04 -0.55 l
1.05 -0.54 l
1.04 -0.52 l
1.05 -0.51 l
251.33 60.69 lineto
1.05 -0.48 l
1.04 -0.47 l
1.05 -0.46 l
1.04 -0.45 l
1.05 -0.43 l
1.04 -0.42 l
1.05 -0.41 l
1.04 -0.40 l
1.05 -0.39 l
1.04 -0.37 l
1.05 -0.37 l
1.04 -0.36 l
1.05 -0.34 l
1.04 -0.34 l
1.05 -0.33 l
1.04 -0.32 l
1.05 -0.31 l
1.04 -0.30 l
1.05 -0.29 l
1.04 -0.29 l
1.05 -0.27 l
1.04 -0.27 l
1.05 -0.26 l
1.04 -0.26 l
1.05 -0.25 l
1.04 -0.24 l
1.05 -0.23 l
1.04 -0.23 l
1.05 -0.22 l
1.04 -0.21 l
1.05 -0.21 l
1.04 -0.20 l
1.05 -0.20 l
1.04 -0.19 l
1.05 -0.18 l
1.04 -0.18 l
1.05 -0.18 l
1.04 -0.17 l
1.05 -0.16 l
1.04 -0.16 l
1.05 -0.16 l
1.04 -0.15 l
1.05 -0.15 l
1.04 -0.14 l
1.05 -0.14 l
1.04 -0.13 l
1.05 -0.13 l
1.04 -0.13 l
1.05 -0.12 l
1.04 -0.12 l
1.05 -0.12 l
1.04 -0.11 l
1.05 -0.11 l
1.04 -0.11 l
1.05 -0.10 l
1.04 -0.10 l
1.05 -0.10 l
1.04 -0.09 l
1.05 -0.10 l
1.04 -0.09 l
1.05 -0.08 l
1.04 -0.09 l
1.05 -0.08 l
1.04 -0.08 l
1.05 -0.07 l
1.04 -0.08 l
1.05 -0.07 l
1.04 -0.07 l
1.05 -0.07 l
1.04 -0.06 l
1.05 -0.07 l
1.04 -0.06 l
1.05 -0.06 l
1.04 -0.06 l
1.04 -0.06 l
1.05 -0.05 l
1.04 -0.05 l
1.05 -0.06 l
1.04 -0.05 l
1.05 -0.05 l
1.04 -0.04 l
1.05 -0.05 l
1.04 -0.04 l
1.05 -0.05 l
1.04 -0.04 l
1.05 -0.04 l
1.04 -0.04 l
1.05 -0.04 l
1.04 -0.04 l
1.05 -0.03 l
1.04 -0.04 l
1.05 -0.03 l
1.04 -0.03 l
1.05 -0.04 l
1.04 -0.03 l
1.05 -0.03 l
1.04 -0.03 l
1.05 -0.03 l
1.04 -0.02 l
355.83 44.45 lineto
1.04 -0.03 l
1.05 -0.02 l
1.04 -0.03 l
1.05 -0.02 l
1.04 -0.02 l
1.05 -0.02 l
1.04 -0.03 l
1.05 -0.02 l
1.04 -0.02 l
1.05 -0.02 l
1.04 -0.02 l
1.05 -0.01 l
1.04 -0.02 l
1.05 -0.02 l
1.04 -0.02 l
1.05 -0.01 l
1.04 -0.02 l
1.05 -0.01 l
1.04 -0.02 l
1.05 -0.01 l
1.04 -0.02 l
1.05 -0.01 l
1.04 -0.01 l
1.05 -0.02 l
1.04 -0.01 l
1.05 -0.01 l
1.04 -0.01 l
1.05 -0.02 l
1.04 -0.01 l
1.05 -0.01 l
1.04 -0.01 l
1.05 -0.01 l
1.04 -0.01 l
1.05 -0.01 l
1.04 -0.01 l
1.05 0 l
1.04 -0.01 l
1.05 -0.01 l
1.04 -0.01 l
1.05 -0.01 l
1.04 -0.01 l
1.05 0 l
1.04 -0.01 l
1.05 -0.01 l
1.04 0 l
1.05 -0.01 l
1.04 -0.01 l
1.05 0 l
1.04 -0.01 l
1.05 0 l
1.04 -0.01 l
1.05 -0.01 l
1.04 0 l
1.04 -0.01 l
1.05 0 l
1.04 -0.01 l
1.05 0 l
1.04 0 l
1.05 -0.01 l
1.04 0 l
1.05 -0.01 l
1.04 0 l
1.05 -0.01 l
1.04 0 l
1.05 0 l
1.04 -0.01 l
1.05 0 l
1.04 0 l
1.05 -0.01 l
1.04 0 l
1.05 0 l
1.04 -0.01 l
1.05 0 l
1.04 0 l
o
0.2000 0.2000 0.2000 srgb
1.07 setlinewidth
[] 0 setdash
1 setlinecap
10.00 setmiterlimit
41.30 32.50 391.85 244.02 r p1
0.00 0.00 509.25 282.00 cl
0.00 0.00 509.25 282.00 cl
0.00 0.00 509.25 282.00 cl
0.00 0.00 509.25 282.00 cl
0.00 0.00 509.25 282.00 cl
0.00 0.00 509.25 282.00 cl
0.00 0.00 509.25 282.00 cl
0.00 0.00 509.25 282.00 cl
0.00 0.00 509.25 282.00 cl
0.00 0.00 509.25 282.00 cl
0.00 0.00 509.25 282.00 cl
0.00 0.00 509.25 282.00 cl
0.00 0.00 509.25 282.00 cl
0.00 0.00 509.25 282.00 cl
0.00 0.00 509.25 282.00 cl
0.00 0.00 509.25 282.00 cl
/Font1 findfont 9 s
0.3020 0.3020 0.3020 srgb
36.37 40.36 (0.00) 1 0 t
36.37 95.82 (0.25) 1 0 t
36.37 151.28 (0.50) 1 0 t
36.37 206.74 (0.75) 1 0 t
36.37 262.20 (1.00) 1 0 t
0.00 0.00 509.25 282.00 cl
0.00 0.00 509.25 282.00 cl
0.2000 0.2000 0.2000 srgb
1.07 setlinewidth
[] 0 setdash
0 setlinecap
1 setlinejoin
10.00 setmiterlimit
np
38.56 43.59 m
2.74 0 l
o
np
38.56 99.05 m
2.74 0 l
o
np
38.56 154.51 m
2.74 0 l
o
np
38.56 209.97 m
2.74 0 l
o
np
38.56 265.43 m
2.74 0 l
o
0.00 0.00 509.25 282.00 cl
0.00 0.00 509.25 282.00 cl
0.00 0.00 509.25 282.00 cl
0.00 0.00 509.25 282.00 cl
0.00 0.00 509.25 282.00 cl
0.00 0.00 509.25 282.00 cl
0.00 0.00 509.25 282.00 cl
0.00 0.00 509.25 282.00 cl
0.00 0.00 509.25 282.00 cl
0.00 0.00 509.25 282.00 cl
0.2000 0.2000 0.2000 srgb
1.07 setlinewidth
[] 0 setdash
0 setlinecap
1 setlinejoin
10.00 setmiterlimit
np
41.30 29.76 m
0 2.74 l
o
np
171.92 29.76 m
0 2.74 l
o
np
302.54 29.76 m
0 2.74 l
o
0.00 0.00 509.25 282.00 cl
0.00 0.00 509.25 282.00 cl
/Font1 findfont 9 s
0.3020 0.3020 0.3020 srgb
41.30 21.11 (0.0) .5 0 t
171.92 21.11 (0.1) .5 0 t
302.54 21.11 (0.2) .5 0 t
0.00 0.00 509.25 282.00 cl
0.00 0.00 509.25 282.00 cl
0.00 0.00 509.25 282.00 cl
0.00 0.00 509.25 282.00 cl
0.00 0.00 509.25 282.00 cl
0.00 0.00 509.25 282.00 cl
/Font1 findfont 11 s
0 0 0 srgb
237.23 7.73 (t [s]) .5 0 t
0.00 0.00 509.25 282.00 cl
0.00 0.00 509.25 282.00 cl
/Font1 findfont 11 s
0 0 0 srgb
13.38 154.51 (V) .5 90 t
0.00 0.00 509.25 282.00 cl
0.00 0.00 509.25 282.00 cl
0.00 0.00 509.25 282.00 cl
0.00 0.00 509.25 282.00 cl
0.00 0.00 509.25 282.00 cl
0.00 0.00 509.25 282.00 cl
0.00 0.00 509.25 282.00 cl
0.00 0.00 509.25 282.00 cl
/bg { 1 1 1 srgb } def
444.49 163.61 54.03 89.28 r p2
0.00 0.00 509.25 282.00 cl
0.00 0.00 509.25 282.00 cl
/Font5 findfont 11 s
0 0 0 srgb
450.16 241.91 ( ) 0 0 t
452.91 241.91 ( ) 0 0 t
455.66 241.91 ( ) 0 0 t
458.41 241.91 ( ) 0 0 t
461.16 241.91 ( ) 0 0 t
463.91 241.91 (l) 0 0 t
/Font3 findfont 8 s
469.95 239.90 (z) 0 0 t
/Font5 findfont 11 s
473.95 241.91 ( ) 0 0 t
476.70 241.91 (l) 0 0 t
/Font3 findfont 8 s
482.74 239.90 (r) 0 0 t
0.00 0.00 509.25 282.00 cl
0.00 0.00 509.25 282.00 cl
/bg { 1 1 1 srgb } def
450.16 221.12 17.28 17.28 r p2
0.00 0.00 509.25 282.00 cl
0.00 0.00 509.25 282.00 cl
0 0 0 srgb
1.07 setlinewidth
[] 0 setdash
0 setlinecap
1 setlinejoin
10.00 setmiterlimit
np
451.89 229.76 m
13.82 0 l
o
0.00 0.00 509.25 282.00 cl
0.00 0.00 509.25 282.00 cl
/bg { 1 1 1 srgb } def
450.16 203.84 17.28 17.28 r p2
0.00 0.00 509.25 282.00 cl
0.00 0.00 509.25 282.00 cl
0 0 0 srgb
1.07 setlinewidth
[ 2.13 2.13] 0 setdash
0 setlinecap
1 setlinejoin
10.00 setmiterlimit
np
451.89 212.48 m
13.82 0 l
o
0.00 0.00 509.25 282.00 cl
0.00 0.00 509.25 282.00 cl
/bg { 1 1 1 srgb } def
450.16 186.56 17.28 17.28 r p2
0.00 0.00 509.25 282.00 cl
0.00 0.00 509.25 282.00 cl
0 0 0 srgb
1.07 setlinewidth
[ 4.27 2.13] 0 setdash
0 setlinecap
1 setlinejoin
10.00 setmiterlimit
np
451.89 195.20 m
13.82 0 l
o
0.00 0.00 509.25 282.00 cl
0.00 0.00 509.25 282.00 cl
/bg { 1 1 1 srgb } def
450.16 169.28 17.28 17.28 r p2
0.00 0.00 509.25 282.00 cl
0.00 0.00 509.25 282.00 cl
0 0 0 srgb
1.07 setlinewidth
[ 4.27 4.27] 0 setdash
0 setlinecap
1 setlinejoin
10.00 setmiterlimit
np
451.89 177.92 m
13.82 0 l
o
0.00 0.00 509.25 282.00 cl
0.00 0.00 509.25 282.00 cl
/Font1 findfont 9 s
0 0 0 srgb
469.60 226.53 (2 20) 0 0 t
0.00 0.00 509.25 282.00 cl
0.00 0.00 509.25 282.00 cl
/Font1 findfont 9 s
0 0 0 srgb
469.60 209.25 (2 2) 0 0 t
0.00 0.00 509.25 282.00 cl
0.00 0.00 509.25 282.00 cl
/Font1 findfont 9 s
0 0 0 srgb
469.60 191.97 (2 50) 0 0 t
0.00 0.00 509.25 282.00 cl
0.00 0.00 509.25 282.00 cl
/Font1 findfont 9 s
0 0 0 srgb
469.60 174.69 (2 100) 0 0 t
0.00 0.00 509.25 282.00 cl
0.00 0.00 509.25 282.00 cl
0.00 0.00 509.25 282.00 cl
0.00 0.00 509.25 282.00 cl
/bg { 1 1 1 srgb } def
444.49 56.13 59.28 96.14 r p2
0.00 0.00 509.25 282.00 cl
0.00 0.00 509.25 282.00 cl
/Font5 findfont 11 s
0 0 0 srgb
450.16 137.98 ( ) 0 0 t
452.91 137.98 ( ) 0 0 t
455.66 137.98 ( ) 0 0 t
458.41 137.98 ( ) 0 0 t
461.16 137.98 ( ) 0 0 t
463.91 137.98 ( ) 0 0 t
466.66 137.98 ( ) 0 0 t
/Font3 findfont 11 s
469.41 137.98 (h) 0 0 t
/Font3 findfont 8 s
476.71 135.97 (z) 0 0 t
/Font5 findfont 11 s
480.71 137.98 ( ) 0 0 t
/Font3 findfont 11 s
483.46 137.98 (h) 0 0 t
/Font3 findfont 8 s
490.76 135.97 (r) 0 0 t
0.00 0.00 509.25 282.00 cl
0.00 0.00 509.25 282.00 cl
/bg { 1 1 1 srgb } def
450.16 113.64 17.28 17.28 r p2
0.00 0.00 509.25 282.00 cl
0.00 0.00 509.25 282.00 cl
0.9725 0.4627 0.4275 srgb
1.07 setlinewidth
[] 0 setdash
0 setlinecap
1 setlinejoin
10.00 setmiterlimit
np
451.89 122.28 m
13.82 0 l
o
0.00 0.00 509.25 282.00 cl
0.00 0.00 509.25 282.00 cl
/bg { 1 1 1 srgb } def
450.16 96.36 17.28 17.28 r p2
0.00 0.00 509.25 282.00 cl
0.00 0.00 509.25 282.00 cl
0.4863 0.6824 0 srgb
1.07 setlinewidth
[] 0 setdash
0 setlinecap
1 setlinejoin
10.00 setmiterlimit
np
451.89 105.00 m
13.82 0 l
o
0.00 0.00 509.25 282.00 cl
0.00 0.00 509.25 282.00 cl
/bg { 1 1 1 srgb } def
450.16 79.08 17.28 17.28 r p2
0.00 0.00 509.25 282.00 cl
0.00 0.00 509.25 282.00 cl
0 0.7490 0.7686 srgb
1.07 setlinewidth
[] 0 setdash
0 setlinecap
1 setlinejoin
10.00 setmiterlimit
np
451.89 87.72 m
13.82 0 l
o
0.00 0.00 509.25 282.00 cl
0.00 0.00 509.25 282.00 cl
/bg { 1 1 1 srgb } def
450.16 61.80 17.28 17.28 r p2
0.00 0.00 509.25 282.00 cl
0.00 0.00 509.25 282.00 cl
0.7804 0.4863 1 srgb
1.07 setlinewidth
[] 0 setdash
0 setlinecap
1 setlinejoin
10.00 setmiterlimit
np
451.89 70.44 m
13.82 0 l
o
0.00 0.00 509.25 282.00 cl
0.00 0.00 509.25 282.00 cl
/Font1 findfont 9 s
0 0 0 srgb
469.60 119.05 (10 10) 0 0 t
0.00 0.00 509.25 282.00 cl
0.00 0.00 509.25 282.00 cl
/Font1 findfont 9 s
0 0 0 srgb
469.60 101.77 (10 20) 0 0 t
0.00 0.00 509.25 282.00 cl
0.00 0.00 509.25 282.00 cl
/Font1 findfont 9 s
0 0 0 srgb
469.60 84.49 (10 50) 0 0 t
0.00 0.00 509.25 282.00 cl
0.00 0.00 509.25 282.00 cl
/Font1 findfont 9 s
0 0 0 srgb
469.60 67.21 (10 100) 0 0 t
0.00 0.00 509.25 282.00 cl
0.00 0.00 509.25 282.00 cl
0.00 0.00 509.25 282.00 cl
0.00 0.00 509.25 282.00 cl
0.00 0.00 509.25 282.00 cl
0.00 0.00 509.25 282.00 cl
0.00 0.00 509.25 282.00 cl
0.00 0.00 509.25 282.00 cl
0.00 0.00 509.25 282.00 cl
0.00 0.00 509.25 282.00 cl
ep
%%Trailer
%%Pages: 1
%%EOF
