            0.2              1              1
              2              2              2
              2             20             20
          0.001          0.001              5
              5              5              5
          0.001          0.001            0.5
            0.5            0.5            0.5
            0.1              0              0
         0.0004              0              0
         0.0008              0              0
         0.0012              0              0
         0.0016 3.035862435e-013 3.031376916e-013
          0.002 1.567048265e-010 1.565036036e-010
         0.0024 9.226616595e-009 9.217792766e-009
         0.0028 1.675362194e-007 1.674169056e-007
         0.0032 1.460550609e-006 1.4597772e-006
         0.0036 7.814839481e-006 7.811772768e-006
          0.004 2.973196668e-005 2.972339531e-005
         0.0044 8.83157217e-005 8.829743466e-005
         0.0048 0.0002179714976 0.0002179408794
         0.0052 0.0004666597791 0.0004666217274
         0.0056 0.0008936606875 0.0008936389395
          0.006 0.001565597718 0.001565654501
         0.0064 0.002551734069 0.002552001262
         0.0068 0.003919425251 0.003920149666
         0.0072  0.00573031032  0.00573191441
         0.0076 0.008037516028 0.008040673659
          0.008  0.01088391219   0.0108896375
         0.0084  0.01430130978  0.01431105585
         0.0088  0.01831042239  0.01832618565
         0.0092  0.02292139323  0.02294581927
         0.0096   0.0281347037  0.02817119019
           0.01  0.03394230761  0.03399510056
         0.0104    0.040328869  0.04040314929
         0.0108  0.04727301324    0.047374971
         0.0112  0.05474852919  0.05488542443
         0.0116  0.06272548243  0.06290569104
          0.012  0.07117121696  0.07140426189
         0.0124  0.08005123549  0.08034780322
         0.0128  0.08932995712   0.0897019003
         0.0132  0.09897135726   0.0994316844
         0.0136   0.1089394982   0.1095023516
          0.014   0.1191989606   0.1198795838
         0.0144    0.129715187   0.1305298837
         0.0148   0.1404547493   0.1414208339
         0.0152   0.1513855495   0.1525212918
         0.0156    0.162476965   0.1638015304
          0.016    0.173699947   0.1752333321
         0.0164   0.1850270801   0.1867900462
         0.0168   0.1964326095   0.1984466144
         0.0172   0.2078924436   0.2101795722
         0.0176   0.2193841348   0.2219670302
          0.018   0.2308868454   0.2337886403
         0.0184   0.2423813005     0.24562555
         0.0188   0.2538497323   0.2574603481
         0.0192   0.2652758174   0.2692770043
         0.0196   0.2766446098   0.2810608046
           0.02   0.2879424716    0.292798284
         0.0204    0.299157002    0.304477159
         0.0208   0.3102769663   0.3160862589
         0.0212   0.3212922254   0.3276154589
         0.0216   0.3321936675   0.3390556139
          0.022   0.3429731405   0.3503984948
         0.0224   0.3536233881   0.3616367269
         0.0228    0.364137987   0.3727637304
         0.0232   0.3745112887   0.3837736649
         0.0236   0.3847383619   0.3946613748
          0.024   0.3948149404   0.4054223394
         0.0244   0.4047373716   0.4160526248
         0.0248   0.4145025695   0.4265488384
         0.0252     0.42410797   0.4369080874
         0.0256   0.4335514887   0.4471279383
          0.026   0.4428314818   0.4572063803
         0.0264   0.4519467096   0.4671417905
         0.0268   0.4608963019   0.4769329017
         0.0272   0.4696797264   0.4865787719
         0.0276   0.4782967591   0.4960787569
          0.028   0.4867474563   0.5054324838
         0.0284   0.4950321296    0.514639827
         0.0288   0.5031513215   0.5237008861
         0.0292    0.511105784   0.5326159649
         0.0296   0.5188964579    0.541385552
           0.03   0.5265244541   0.5500103037
         0.0304    0.533991036   0.5584910272
         0.0308   0.5412976039   0.5668286652
         0.0312   0.5484456797   0.5750242826
         0.0316   0.5554368934   0.5830790531
          0.032   0.5622729708   0.5909942478
         0.0324   0.5689557215   0.5987712236
         0.0328   0.5754870286   0.6064114139
         0.0332   0.5818688387    0.613916319
         0.0336   0.5881031532   0.6212874974
          0.034   0.5941920198   0.6285265587
         0.0344    0.600137525   0.6356351556
         0.0348   0.6059417874    0.642614978
         0.0352   0.6116069513   0.6494677468
         0.0356   0.6171351808   0.6561952084
          0.036   0.6225286547   0.6627991295
         0.0364   0.6277895617    0.669281293
         0.0368   0.6329200961   0.6756434933
         0.0372   0.6379224536   0.6818875329
         0.0376    0.642798828   0.6880152188
          0.038   0.6475514077   0.6940283591
         0.0384   0.6521823729   0.6999287606
         0.0388    0.656693893   0.7057182259
         0.0392   0.6610881242   0.7113985513
         0.0396   0.6653672071   0.7169715244
           0.04   0.6695332652   0.7224389225
         0.0404   0.6735884027   0.7278025106
         0.0408   0.6775347035   0.7330640401
         0.0412   0.6813742296   0.7382252474
         0.0416   0.6851090197   0.7432878528
          0.042   0.6887410887   0.7482535589
         0.0424   0.6922724262   0.7531240505
         0.0428   0.6957049962    0.757900993
         0.0432   0.6990407361    0.762586032
         0.0436   0.7022815563   0.7671807929
          0.044     0.70542934     0.77168688
         0.0444   0.7084859421    0.776105876
         0.0448   0.7114531895    0.780439342
         0.0452   0.7143328809    0.784688817
         0.0456   0.7171267862   0.7888558176
          0.046   0.7198366468   0.7929418378
         0.0464   0.7224641753    0.796948349
         0.0468   0.7250110557   0.8008767998
         0.0472   0.7274789432    0.804728616
         0.0476   0.7298694646   0.8085052004
          0.048   0.7321842181   0.8122079333
         0.0484   0.7344247739    0.815838172
         0.0488   0.7365926736   0.8193972513
         0.0492   0.7386894315   0.8228864835
         0.0496   0.7407165339   0.8263071583
           0.05   0.7426754397   0.8296605434
         0.0504   0.7445675809   0.8329478843
         0.0508   0.7463943625   0.8361704046
         0.0512   0.7481571631   0.8393293065
         0.0516    0.749857335   0.8424257704
          0.052   0.7514962047   0.8454609559
         0.0524   0.7530750733   0.8484360014
         0.0528   0.7545952165   0.8513520246
         0.0532   0.7560578854   0.8542101229
         0.0536   0.7574643064   0.8570113735
          0.054   0.7588156822   0.8597568338
         0.0544   0.7601131913   0.8624475413
         0.0548   0.7613579893   0.8650845145
         0.0552   0.7625512085   0.8676687528
         0.0556   0.7636939589   0.8702012366
          0.056   0.7647873279   0.8726829283
         0.0564   0.7658323814   0.8751147716
         0.0568   0.7668301636   0.8774976927
         0.0572   0.7677816977   0.8798326001
         0.0576   0.7686879863    0.882120385
          0.058   0.7695500112   0.8843619216
         0.0584   0.7703687347   0.8865580673
         0.0588   0.7711450992   0.8887096632
         0.0592   0.7718800278   0.8908175341
         0.0596   0.7725744249   0.8928824891
           0.06    0.773229176   0.8949053217
         0.0604   0.7738451486   0.8968868098
         0.0608   0.7744231923   0.8988277167
         0.0612   0.7749641391   0.9007287906
         0.0616   0.7754688039   0.9025907654
          0.062   0.7759379847   0.9044143607
         0.0624   0.7763724628   0.9062002821
         0.0628   0.7767730035   0.9079492216
         0.0632   0.7771403561   0.9096618577
         0.0636   0.7774752542   0.9113388556
          0.064   0.7777784162   0.9129808678
         0.0644   0.7780505457   0.9145885337
         0.0648   0.7782923314   0.9161624807
         0.0652   0.7785044476   0.9177033236
         0.0656   0.7786875545   0.9192116655
          0.066   0.7788422987   0.9206880975
         0.0664    0.778969313   0.9221331992
         0.0668    0.779069217   0.9235475391
         0.0672   0.7791426173   0.9249316744
         0.0676   0.7791901079   0.9262861515
          0.068   0.7792122701    0.927611506
         0.0684   0.7792096731   0.9289082633
         0.0688   0.7791828742   0.9301769383
         0.0692   0.7791324187    0.931418036
         0.0696   0.7790588409   0.9326320515
           0.07   0.7789626632   0.9338194702
         0.0704   0.7788443976    0.934980768
         0.0708   0.7787045449   0.9361164116
         0.0712   0.7785435955   0.9372268586
         0.0716   0.7783620293   0.9383125577
          0.072   0.7781603164   0.9393739486
         0.0724   0.7779389165   0.9404114628
         0.0728     0.77769828   0.9414255231
         0.0732   0.7774388475   0.9424165443
         0.0736   0.7771610505   0.9433849328
          0.074   0.7768653112   0.9443310875
         0.0744   0.7765520428   0.9452553992
         0.0748   0.7762216501   0.9461582513
         0.0752   0.7758745289   0.9470400197
         0.0756   0.7755110669   0.9479010728
          0.076   0.7751316435   0.9487417722
         0.0764     0.77473663   0.9495624723
         0.0768     0.77432639   0.9503635205
         0.0772   0.7739012791   0.9511452577
         0.0776   0.7734616457    0.951908018
          0.078   0.7730078305   0.9526521292
         0.0784   0.7725401671   0.9533779126
         0.0788   0.7720589821   0.9540856835
         0.0792   0.7715645951   0.9547757507
         0.0796   0.7710573188   0.9554484176
           0.08   0.7705374594   0.9561039813
         0.0804   0.7700053165   0.9567427332
         0.0808   0.7694611835   0.9573649594
         0.0812   0.7689053473   0.9579709402
         0.0816   0.7683380889   0.9585609506
          0.082   0.7677596832   0.9591352602
         0.0824   0.7671703994   0.9596941337
         0.0828   0.7665705009   0.9602378303
         0.0832   0.7659602454   0.9607666047
         0.0836   0.7653398852   0.9612807064
          0.084   0.7647096673   0.9617803801
         0.0844   0.7640698332    0.962265866
         0.0848   0.7634206196   0.9627373997
         0.0852   0.7627622579   0.9631952121
         0.0856   0.7620949746   0.9636395298
          0.086   0.7614189914   0.9640705751
         0.0864   0.7607345254   0.9644885661
         0.0868   0.7600417889   0.9648937167
         0.0872   0.7593409897   0.9652862368
         0.0876   0.7586323312   0.9656663321
          0.088   0.7579160125   0.9660342045
         0.0884   0.7571922284   0.9663900523
         0.0888   0.7564611696   0.9667340698
         0.0892   0.7557230225   0.9670664476
         0.0896   0.7549779699   0.9673873728
           0.09   0.7542261903   0.9676970289
         0.0904   0.7534678587   0.9679955961
         0.0908   0.7527031463   0.9682832509
         0.0912   0.7519322204   0.9685601669
         0.0916    0.751155245   0.9688265139
          0.092   0.7503723805    0.969082459
         0.0924   0.7495837838    0.969328166
         0.0928   0.7487896085   0.9695637954
         0.0932    0.747990005   0.9697895051
         0.0936   0.7471851203   0.9700054497
          0.094   0.7463750984   0.9702117811
         0.0944   0.7455600801   0.9704086484
         0.0948   0.7447402033   0.9705961977
         0.0952   0.7439156029   0.9707745726
         0.0956   0.7430864108   0.9709439139
          0.096   0.7422527562     0.97110436
         0.0964   0.7414147656   0.9712560465
         0.0968   0.7405725625   0.9713991065
         0.0972    0.739726268   0.9715336708
         0.0976   0.7388760005   0.9716598676
          0.098   0.7380218759    0.971777823
         0.0984   0.7371640075   0.9718876604
         0.0988   0.7363025064   0.9719895014
         0.0992   0.7354374811   0.9720834649
         0.0996   0.7345690378    0.972169668
            0.1   0.7336972805   0.9722482253
         0.1004   0.7328223108   0.9723192497
         0.1008   0.7319442282   0.9723828518
         0.1012   0.7310631302   0.9724391402
         0.1016   0.7301791119   0.9724882215
          0.102   0.7292922667   0.9725302005
         0.1024   0.7284026856     0.97256518
         0.1028    0.727510458   0.9725932609
         0.1032   0.7266156711   0.9726145425
         0.1036   0.7257184103    0.972629122
          0.104   0.7248187592    0.972637095
         0.1044   0.7239167996   0.9726385555
         0.1048   0.7230126115   0.9726335956
         0.1052   0.7221062731   0.9726223059
         0.1056   0.7211978609   0.9726047753
          0.106     0.72028745   0.9725810911
         0.1064   0.7193751135   0.9725513392
         0.1068   0.7184609232   0.9725156037
         0.1072   0.7175449492   0.9724739676
         0.1076   0.7166272601    0.972426512
          0.108    0.715707923   0.9723733168
         0.1084   0.7147870036   0.9723144605
         0.1088   0.7138645661   0.9722500202
         0.1092   0.7129406733   0.9721800717
         0.1096   0.7120153868   0.9721046892
           0.11   0.7110887665   0.9720239459
         0.1104   0.7101608714   0.9719379136
         0.1108    0.709231759   0.9718466629
         0.1112   0.7083014855   0.9717502632
         0.1116   0.7073701059   0.9716487826
          0.112   0.7064376742    0.971542288
         0.1124   0.7055042429   0.9714308453
         0.1128   0.7045698636   0.9713145191
         0.1132   0.7036345866    0.971193373
         0.1136   0.7026984612   0.9710674695
          0.114   0.7017615356     0.97093687
         0.1144   0.7008238569   0.9708016349
         0.1148   0.6998854712   0.9706618235
         0.1152   0.6989464235   0.9705174941
         0.1156   0.6980067579   0.9703687041
          0.116   0.6970665177   0.9702155099
         0.1164   0.6961257448   0.9700579668
         0.1168   0.6951844805   0.9698961294
         0.1172   0.6942427651   0.9697300513
         0.1176   0.6933006381   0.9695597852
          0.118    0.692358138   0.9693853828
         0.1184   0.6914153025   0.9692068951
         0.1188   0.6904721684   0.9690243723
         0.1192   0.6895287717   0.9688378636
         0.1196   0.6885851477   0.9686474175
           0.12   0.6876413308   0.9684530816
         0.1204   0.6866973548   0.9682549029
         0.1208   0.6857532524   0.9680529275
         0.1212    0.684809056   0.9678472007
         0.1216   0.6838647969   0.9676377672
          0.122   0.6829205059    0.967424671
         0.1224   0.6819762131   0.9672079552
         0.1228   0.6810319479   0.9669876624
         0.1232    0.680087739   0.9667638344
         0.1236   0.6791436144   0.9665365123
          0.124   0.6781996017   0.9663057367
         0.1244   0.6772557277   0.9660715475
         0.1248   0.6763120185   0.9658339838
         0.1252   0.6753684999   0.9655930844
         0.1256   0.6744251967   0.9653488873
          0.126   0.6734821336   0.9651014298
         0.1264   0.6725393344   0.9648507488
         0.1268   0.6715968225   0.9645968806
         0.1272   0.6706546207   0.9643398608
         0.1276   0.6697127514   0.9640797247
          0.128   0.6687712363   0.9638165069
         0.1284   0.6678300967   0.9635502413
         0.1288   0.6668893534   0.9632809617
         0.1292   0.6659490268   0.9630087011
         0.1296   0.6650091367   0.9627334919
           0.13   0.6640697026   0.9624553663
         0.1304   0.6631307433   0.9621743559
         0.1308   0.6621922773   0.9618904918
         0.1312   0.6612543228   0.9616038046
         0.1316   0.6603168974   0.9613143245
          0.132   0.6593800183   0.9610220813
         0.1324   0.6584437024   0.9607271042
         0.1328   0.6575079661   0.9604294222
         0.1332   0.6565728254   0.9601290636
         0.1336    0.655638296   0.9598260567
          0.134   0.6547043933   0.9595204289
         0.1344   0.6537711321   0.9592122075
         0.1348   0.6528385271   0.9589014194
         0.1352   0.6519065924    0.958588091
         0.1356    0.650975342   0.9582722485
          0.136   0.6500447894   0.9579539175
         0.1364   0.6491149479   0.9576331234
         0.1368   0.6481858303   0.9573098912
         0.1372   0.6472574493   0.9569842456
         0.1376   0.6463298172   0.9566562108
          0.138   0.6454029459   0.9563258108
         0.1384   0.6444768472   0.9559930693
         0.1388   0.6435515324   0.9556580096
         0.1392   0.6426270127   0.9553206546
         0.1396    0.641703299   0.9549810272
           0.14   0.6407804018   0.9546391495
         0.1404   0.6398583315   0.9542950438
         0.1408   0.6389370981   0.9539487319
         0.1412   0.6380167115   0.9536002351
         0.1416   0.6370971813   0.9532495747
          0.142   0.6361785166   0.9528967716
         0.1424   0.6352607267   0.9525418466
         0.1428   0.6343438204   0.9521848199
         0.1432   0.6334278064   0.9518257117
         0.1436    0.632512693   0.9514645419
          0.144   0.6315984884     0.95110133
         0.1444   0.6306852006   0.9507360954
         0.1448   0.6297728374   0.9503688572
         0.1452   0.6288614064   0.9499996343
         0.1456    0.627950915   0.9496284452
          0.146   0.6270413702   0.9492553085
         0.1464   0.6261327791   0.9488802422
         0.1468   0.6252251486   0.9485032643
         0.1472   0.6243184851   0.9481243926
         0.1476   0.6234127952   0.9477436444
          0.148   0.6225080851   0.9473610371
         0.1484   0.6216043609   0.9469765878
         0.1488   0.6207016285   0.9465903134
         0.1492   0.6197998938   0.9462022304
         0.1496   0.6188991622   0.9458123554
           0.15   0.6179994392   0.9454207047
         0.1504   0.6171007302   0.9450272944
         0.1508   0.6162030402   0.9446321403
         0.1512   0.6153063743   0.9442352581
         0.1516   0.6144107373   0.9438366634
          0.152   0.6135161339   0.9434363715
         0.1524   0.6126225686   0.9430343976
         0.1528    0.611730046   0.9426307567
         0.1532   0.6108385703   0.9422254636
         0.1536   0.6099481457    0.941818533
          0.154   0.6090587762   0.9414099793
         0.1544   0.6081704658    0.940999817
         0.1548   0.6072832182   0.9405880602
         0.1552   0.6063970372   0.9401747229
         0.1556   0.6055119262   0.9397598189
          0.156   0.6046278889   0.9393433621
         0.1564   0.6037449284   0.9389253659
         0.1568   0.6028630481   0.9385058439
         0.1572   0.6019822511   0.9380848092
         0.1576   0.6011025403    0.937662275
          0.158   0.6002239188   0.9372382543
         0.1584   0.5993463893     0.93681276
         0.1588   0.5984699546   0.9363858048
         0.1592   0.5975946173   0.9359574013
         0.1596     0.59672038    0.935527562
           0.16    0.595847245   0.9350962992
         0.1604   0.5949752147   0.9346636251
         0.1608   0.5941042915   0.9342295518
         0.1612   0.5932344775   0.9337940913
         0.1616   0.5923657747   0.9333572554
          0.162   0.5914981853   0.9329190559
         0.1624   0.5906317112   0.9324795044
         0.1628   0.5897663541   0.9320386124
         0.1632    0.588902116   0.9315963912
         0.1636   0.5880389985   0.9311528522
          0.164   0.5871770032   0.9307080065
         0.1644   0.5863161318   0.9302618652
         0.1648   0.5854563856   0.9298144392
         0.1652   0.5845977662   0.9293657394
         0.1656   0.5837402749   0.9289157766
          0.166    0.582883913   0.9284645613
         0.1664   0.5820286817   0.9280121042
         0.1668   0.5811745822   0.9275584158
         0.1672   0.5803216156   0.9271035062
         0.1676    0.579469783   0.9266473859
          0.168   0.5786190853    0.926190065
         0.1684   0.5777695234   0.9257315536
         0.1688   0.5769210983   0.9252718617
         0.1692   0.5760738107    0.924810999
         0.1696   0.5752276614   0.9243489756
           0.17   0.5743826512   0.9238858011
         0.1704   0.5735387806   0.9234214851
         0.1708   0.5726960504   0.9229560372
         0.1712    0.571854461   0.9224894669
         0.1716   0.5710140129   0.9220217835
          0.172   0.5701747068   0.9215529964
         0.1724   0.5693365429   0.9210831148
         0.1728   0.5684995216   0.9206121478
         0.1732   0.5676636433   0.9201401046
         0.1736   0.5668289083   0.9196669941
          0.174   0.5659953167   0.9191928253
         0.1744   0.5651628689    0.918717607
         0.1748    0.564331565    0.918241348
         0.1752    0.563501405    0.917764057
         0.1756   0.5626723892   0.9172857426
          0.176   0.5618445175   0.9168064134
         0.1764   0.5610177899   0.9163260779
         0.1768   0.5601922065   0.9158447446
         0.1772   0.5593677672   0.9153624217
         0.1776   0.5585444719   0.9148791177
          0.178   0.5577223204   0.9143948406
         0.1784   0.5569013126   0.9139095988
         0.1788   0.5560814484   0.9134234002
         0.1792   0.5552627274    0.912936253
         0.1796   0.5544451495   0.9124481651
           0.18   0.5536287144   0.9119591445
         0.1804   0.5528134217   0.9114691989
         0.1808   0.5519992711   0.9109783362
         0.1812   0.5511862623   0.9104865642
         0.1816   0.5503743948   0.9099938905
          0.182   0.5495636683   0.9095003227
         0.1824   0.5487540823   0.9090058684
         0.1828   0.5479456363   0.9085105352
         0.1832   0.5471383298   0.9080143304
         0.1836   0.5463321623   0.9075172615
          0.184   0.5455271332   0.9070193359
         0.1844    0.544723242   0.9065205607
         0.1848   0.5439204882   0.9060209434
         0.1852    0.543118871    0.905520491
         0.1856   0.5423183899   0.9050192107
          0.186   0.5415190442   0.9045171096
         0.1864   0.5407208332   0.9040141947
         0.1868   0.5399237562   0.9035104731
         0.1872   0.5391278125   0.9030059516
         0.1876   0.5383330015   0.9025006372
          0.188   0.5375393222   0.9019945367
         0.1884    0.536746774   0.9014876569
         0.1888   0.5359553561   0.9009800045
         0.1892   0.5351650676   0.9004715863
         0.1896   0.5343759078   0.8999624089
           0.19   0.5335878757   0.8994524789
         0.1904   0.5328009706    0.898941803
         0.1908   0.5320151916   0.8984303875
         0.1912   0.5312305377   0.8979182391
         0.1916   0.5304470082   0.8974053641
          0.192    0.529664602    0.896891769
         0.1924   0.5288833182     0.89637746
         0.1928   0.5281031559   0.8958624436
         0.1932   0.5273241141   0.8953467259
         0.1936   0.5265461919   0.8948303133
          0.194   0.5257693883   0.8943132119
         0.1944   0.5249937022   0.8937954278
         0.1948   0.5242191328   0.8932769671
         0.1952   0.5234456788    0.892757836
         0.1956   0.5226733394   0.8922380405
          0.196   0.5219021134   0.8917175865
         0.1964   0.5211319999     0.89119648
         0.1968   0.5203629976   0.8906747269
         0.1972   0.5195951057   0.8901523331
         0.1976   0.5188283229   0.8896293045
          0.198   0.5180626482   0.8891056468
         0.1984   0.5172980805   0.8885813659
         0.1988   0.5165346186   0.8880564674
         0.1992   0.5157722615    0.887530957
         0.1996    0.515011008   0.8870048405
            0.2   0.5142508569   0.8864781234
