%!PS-Adobe-3.0 EPSF-3.0
%%DocumentNeededResources: font Helvetica
%%+ font Helvetica-Bold
%%+ font Helvetica-Oblique
%%+ font Helvetica-BoldOblique
%%+ font Symbol
%%Title: R Graphics Output
%%Creator: R Software
%%Pages: (atend)
%%BoundingBox: 0 0 325 374
%%EndComments
%%BeginProlog
/bp  { gs sRGB gs } def
% begin .ps.prolog
/gs  { gsave } bind def
/gr  { grestore } bind def
/ep  { showpage gr gr } bind def
/m   { moveto } bind def
/l  { rlineto } bind def
/np  { newpath } bind def
/cp  { closepath } bind def
/f   { fill } bind def
/o   { stroke } bind def
/c   { newpath 0 360 arc } bind def
/r   { 4 2 roll moveto 1 copy 3 -1 roll exch 0 exch rlineto 0 rlineto -1 mul 0 exch rlineto closepath } bind def
/p1  { stroke } bind def
/p2  { gsave bg fill grestore newpath } bind def
/p3  { gsave bg fill grestore stroke } bind def
/p6  { gsave bg eofill grestore newpath } bind def
/p7  { gsave bg eofill grestore stroke } bind def
/t   { 5 -2 roll moveto gsave rotate
       1 index stringwidth pop
       mul neg 0 rmoveto show grestore } bind def
/ta  { 4 -2 roll moveto gsave rotate show } bind def
/tb  { 2 -1 roll 0 rmoveto show } bind def
/cl  { grestore gsave newpath 3 index 3 index moveto 1 index
       4 -1 roll lineto  exch 1 index lineto lineto
       closepath clip newpath } bind def
/rgb { setrgbcolor } bind def
/s   { scalefont setfont } bind def
% end   .ps.prolog
/sRGB { [ /CIEBasedABC
          << /DecodeLMN
               [ { dup 0.03928 le
                        {12.92321 div}
                        {0.055 add 1.055 div 2.4 exp }
                     ifelse
                 } bind dup dup
               ]
             /MatrixLMN [0.412457 0.212673 0.019334
                         0.357576 0.715152 0.119192
                         0.180437 0.072175 0.950301]
             /WhitePoint [0.9505 1.0 1.0890]
           >>
         ] setcolorspace } bind def
/srgb { setcolor } bind def
% begin encoding
/WinAnsiEncoding [
 /.notdef /.notdef /.notdef /.notdef /.notdef /.notdef /.notdef /.notdef
 /.notdef /.notdef /.notdef /.notdef /.notdef /.notdef /.notdef /.notdef
 /.notdef /.notdef /.notdef /.notdef /.notdef /.notdef /.notdef /.notdef
 /.notdef /.notdef /.notdef /.notdef /.notdef /.notdef /.notdef /.notdef
 /space /exclam /quotedbl /numbersign /dollar /percent /ampersand /quoteright
 /parenleft /parenright /asterisk /plus /comma /minus /period /slash
 /zero /one /two /three /four /five /six /seven
 /eight /nine /colon /semicolon /less /equal /greater /question
 /at /A /B /C /D /E /F /G
 /H /I /J /K /L /M /N /O
 /P /Q /R /S /T /U /V /W
 /X /Y /Z /bracketleft /backslash /bracketright /asciicircum /underscore
 /grave /a /b /c /d /e /f /g
 /h /i /j /k /l /m /n /o
 /p /q /r /s /t /u /v /w
 /x /y /z /braceleft /bar /braceright /asciitilde /.notdef
 /Euro /.notdef /quotesinglbase /florin /quotedblbase /ellipsis /dagger /daggerdbl
 /circumflex /perthousand /Scaron /guilsinglleft /OE /.notdef /Zcaron /.notdef
 /.notdef /quoteleft /quoteright /quotedblleft /quotedblright /bullet /endash /emdash
 /tilde /trademark /scaron /guilsinglright /oe /.notdef /zcaron /Ydieresis
 /space /exclamdown /cent /sterling /currency /yen /brokenbar /section
 /dieresis /copyright /ordfeminine /guillemotleft /logicalnot /hyphen /registered /macron
 /degree /plusminus /twosuperior /threesuperior /acute /mu /paragraph /periodcentered
 /cedilla /onesuperior /ordmasculine /guillemotright /onequarter /onehalf /threequarters /questiondown
 /Agrave /Aacute /Acircumflex /Atilde /Adieresis /Aring /AE /Ccedilla
 /Egrave /Eacute /Ecircumflex /Edieresis /Igrave /Iacute /Icircumflex /Idieresis
 /Eth /Ntilde /Ograve /Oacute /Ocircumflex /Otilde /Odieresis /multiply
 /Oslash /Ugrave /Uacute /Ucircumflex /Udieresis /Yacute /Thorn /germandbls
 /agrave /aacute /acircumflex /atilde /adieresis /aring /ae /ccedilla
 /egrave /eacute /ecircumflex /edieresis /igrave /iacute /icircumflex /idieresis
 /eth /ntilde /ograve /oacute /ocircumflex /otilde /odieresis /divide
 /oslash /ugrave /uacute /ucircumflex /udieresis /yacute /thorn /ydieresis
]
 def
% end encoding
%%IncludeResource: font Helvetica
/Helvetica findfont
dup length dict begin
  {1 index /FID ne {def} {pop pop} ifelse} forall
  /Encoding WinAnsiEncoding def
  currentdict
  end
/Font1 exch definefont pop
%%IncludeResource: font Helvetica-Bold
/Helvetica-Bold findfont
dup length dict begin
  {1 index /FID ne {def} {pop pop} ifelse} forall
  /Encoding WinAnsiEncoding def
  currentdict
  end
/Font2 exch definefont pop
%%IncludeResource: font Helvetica-Oblique
/Helvetica-Oblique findfont
dup length dict begin
  {1 index /FID ne {def} {pop pop} ifelse} forall
  /Encoding WinAnsiEncoding def
  currentdict
  end
/Font3 exch definefont pop
%%IncludeResource: font Helvetica-BoldOblique
/Helvetica-BoldOblique findfont
dup length dict begin
  {1 index /FID ne {def} {pop pop} ifelse} forall
  /Encoding WinAnsiEncoding def
  currentdict
  end
/Font4 exch definefont pop
%%IncludeResource: font Symbol
/Symbol findfont
dup length dict begin
  {1 index /FID ne {def} {pop pop} ifelse} forall
  currentdict
  end
/Font5 exch definefont pop
%%EndProlog
0.00 0.00 324.75 374.25 cl
%%Page: 1 1
bp
/bg { 1 1 1 srgb } def
0.00 0.00 324.75 374.25 r p2
59.04 76.59 294.51 312.06 cl
0.00 0.00 324.75 374.25 cl
0 0 0 srgb
0.75 setlinewidth
[] 0 setdash
1 setlinecap
1 setlinejoin
10.00 setmiterlimit
np
59.04 76.59 m
235.47 0 l
0 235.47 l
-235.47 0 l
0 -235.47 l
o
0.00 0.00 324.75 374.25 cl
0.00 0.00 324.75 374.25 cl
0 0 0 srgb
0.75 setlinewidth
[] 0 setdash
1 setlinecap
1 setlinejoin
10.00 setmiterlimit
np
95.01 76.59 m
163.53 0 l
o
np
95.01 76.59 m
0 -7.20 l
o
np
149.52 76.59 m
0 -7.20 l
o
np
204.03 76.59 m
0 -7.20 l
o
np
258.54 76.59 m
0 -7.20 l
o
/Font1 findfont 12 s
95.01 50.67 (T0) .5 0 t
149.52 50.67 (Tmax) .5 0 t
204.03 50.67 (a) .5 0 t
237.86 50.67 (de) 0 ta
-0.360 (vianc) tb gr
np
59.04 112.56 m
0 163.53 l
o
np
59.04 112.56 m
-7.20 0 l
o
np
59.04 167.07 m
-7.20 0 l
o
np
59.04 221.58 m
-7.20 0 l
o
np
59.04 276.09 m
-7.20 0 l
o
41.76 91.89 (de) 90 ta
-0.360 (vianc) tb gr
41.76 167.07 (a) .5 90 t
41.76 221.58 (Tmax) .5 90 t
41.76 276.09 (T0) .5 90 t
59.04 76.59 294.51 312.06 cl
/bg { 0 1 0.3020 srgb } def
0 0 0 srgb
0.75 setlinewidth
[] 0 setdash
1 setlinecap
1 setlinejoin
10.00 setmiterlimit
np
 67.76 85.31 m
54.51 0 l
0 54.51 l
-54.51 0 l
0 -54.51 l
cp p3
/bg { 0.3020 1 0 srgb } def
np
 122.27 85.31 m
54.51 0 l
0 54.51 l
-54.51 0 l
0 -54.51 l
cp p3
/bg { 0 1 0.3020 srgb } def
np
 176.78 85.31 m
54.50 0 l
0 54.51 l
-54.50 0 l
0 -54.51 l
cp p3
/bg { 1 0.8784 0.7020 srgb } def
np
 231.28 85.31 m
54.51 0 l
0 54.51 l
-54.51 0 l
0 -54.51 l
cp p3
/bg { 0 0.0980 1 srgb } def
np
 67.76 139.82 m
54.51 0 l
0 54.51 l
-54.51 0 l
0 -54.51 l
cp p3
/bg { 0.9020 1 0 srgb } def
np
 122.27 139.82 m
54.51 0 l
0 54.51 l
-54.51 0 l
0 -54.51 l
cp p3
/bg { 1 0.8784 0.7020 srgb } def
np
 176.78 139.82 m
54.50 0 l
0 54.51 l
-54.50 0 l
0 -54.51 l
cp p3
/bg { 0.2980 0 1 srgb } def
np
 67.76 194.33 m
54.51 0 l
0 54.50 l
-54.51 0 l
0 -54.50 l
cp p3
/bg { 1 0.8784 0.7020 srgb } def
np
 122.27 194.33 m
54.51 0 l
0 54.50 l
-54.51 0 l
0 -54.50 l
cp p3
np
 67.76 248.83 m
54.51 0 l
0 54.51 l
-54.51 0 l
0 -54.51 l
cp p3
/bg { 0.2980 0 1 srgb } def
np
 275.88 194.33 m
0 10.90 l
9.91 0 l
0 -10.90 l
-9.91 0 l
cp p3
/bg { 0 0.0980 1 srgb } def
np
 275.88 205.23 m
0 10.90 l
9.91 0 l
0 -10.90 l
-9.91 0 l
cp p3
/bg { 0 0.5020 1 srgb } def
np
 275.88 216.13 m
0 10.90 l
9.91 0 l
0 -10.90 l
-9.91 0 l
cp p3
/bg { 0 0.8980 1 srgb } def
np
 275.88 227.03 m
0 10.90 l
9.91 0 l
0 -10.90 l
-9.91 0 l
cp p3
/bg { 0 1 0.3020 srgb } def
np
 275.88 237.93 m
0 10.90 l
9.91 0 l
0 -10.90 l
-9.91 0 l
cp p3
/bg { 0.3020 1 0 srgb } def
np
 275.88 248.83 m
0 10.90 l
9.91 0 l
0 -10.90 l
-9.91 0 l
cp p3
/bg { 0.9020 1 0 srgb } def
np
 275.88 259.73 m
0 10.90 l
9.91 0 l
0 -10.90 l
-9.91 0 l
cp p3
/bg { 1 1 0 srgb } def
np
 275.88 270.63 m
0 10.91 l
9.91 0 l
0 -10.91 l
-9.91 0 l
cp p3
/bg { 1 0.8706 0.3490 srgb } def
np
 275.88 281.54 m
0 10.90 l
9.91 0 l
0 -10.90 l
-9.91 0 l
cp p3
/bg { 1 0.8784 0.7020 srgb } def
np
 275.88 292.44 m
0 10.90 l
9.91 0 l
0 -10.90 l
-9.91 0 l
cp p3
/Font1 findfont 12 s
275.88 294.72 (1) 1 0 t
275.88 194.33 (-1) 1 0 t
275.88 244.52 (0) 1 0 t
ep
%%Trailer
%%Pages: 1
%%EOF
