%!PS-Adobe-3.0 EPSF-3.0
%%DocumentNeededResources: font Helvetica
%%+ font Helvetica-Bold
%%+ font Helvetica-Oblique
%%+ font Helvetica-BoldOblique
%%+ font Symbol
%%Title: R Graphics Output
%%Creator: R Software
%%Pages: (atend)
%%BoundingBox: 54 216 558 576
%%EndComments
%%BeginProlog
/bp  { gs gs } def
% begin .ps.prolog
/gs  { gsave } bind def
/gr  { grestore } bind def
/ep  { showpage gr gr } bind def
/m   { moveto } bind def
/l  { rlineto } bind def
/np  { newpath } bind def
/cp  { closepath } bind def
/f   { fill } bind def
/o   { stroke } bind def
/c   { newpath 0 360 arc } bind def
/r   { 4 2 roll moveto 1 copy 3 -1 roll exch 0 exch rlineto 0 rlineto -1 mul 0 exch rlineto closepath } bind def
/p1  { stroke } bind def
/p2  { gsave bg fill grestore newpath } bind def
/p3  { gsave bg fill grestore stroke } bind def
/p6  { gsave bg eofill grestore newpath } bind def
/p7  { gsave bg eofill grestore stroke } bind def
/t   { 5 -2 roll moveto gsave rotate
       1 index stringwidth pop
       mul neg 0 rmoveto show grestore } bind def
/ta  { 4 -2 roll moveto gsave rotate show } bind def
/tb  { 2 -1 roll 0 rmoveto show } bind def
/cl  { grestore gsave newpath 3 index 3 index moveto 1 index
       4 -1 roll lineto  exch 1 index lineto lineto
       closepath clip newpath } bind def
/rgb { setrgbcolor } bind def
/s   { scalefont setfont } bind def
% end   .ps.prolog
%%IncludeResource: font Helvetica
/Helvetica findfont
dup length dict begin
  {1 index /FID ne {def} {pop pop} ifelse} forall
  /Encoding ISOLatin1Encoding def
  currentdict
  end
/Font1 exch definefont pop
%%IncludeResource: font Helvetica-Bold
/Helvetica-Bold findfont
dup length dict begin
  {1 index /FID ne {def} {pop pop} ifelse} forall
  /Encoding ISOLatin1Encoding def
  currentdict
  end
/Font2 exch definefont pop
%%IncludeResource: font Helvetica-Oblique
/Helvetica-Oblique findfont
dup length dict begin
  {1 index /FID ne {def} {pop pop} ifelse} forall
  /Encoding ISOLatin1Encoding def
  currentdict
  end
/Font3 exch definefont pop
%%IncludeResource: font Helvetica-BoldOblique
/Helvetica-BoldOblique findfont
dup length dict begin
  {1 index /FID ne {def} {pop pop} ifelse} forall
  /Encoding ISOLatin1Encoding def
  currentdict
  end
/Font4 exch definefont pop
%%IncludeResource: font Symbol
/Symbol findfont
dup length dict begin
  {1 index /FID ne {def} {pop pop} ifelse} forall
  currentdict
  end
/Font5 exch definefont pop
%%EndProlog
%%Page: 1 1
bp
108.98 425.88 300.02 532.97 cl
0.5294 0.8078 0.9216 rgb
0.75 setlinewidth
[] 0 setdash
1 setlinecap
1 setlinejoin
10.00 setmiterlimit
np
116.05 472.04 m
0.18 8.56 l
0.18 4.29 l
0.18 -6.66 l
0.17 8.15 l
0.18 -2.53 l
0.18 18.12 l
0.17 -36.76 l
0.18 6.21 l
0.18 2.70 l
0.18 10.13 l
0.17 24.77 l
0.18 -6.99 l
0.18 4.38 l
0.17 -17.52 l
0.18 -13.81 l
0.18 18.12 l
0.18 -13.55 l
0.17 4.56 l
0.18 1.80 l
0.18 -5.70 l
0.17 24.07 l
0.18 -8.91 l
0.18 -15.05 l
0.17 9.11 l
0.18 0.34 l
0.18 -28.96 l
0.18 41.57 l
0.17 -4.66 l
0.18 -10.03 l
0.18 12.74 l
0.17 -8.05 l
0.18 4.17 l
0.18 -16.28 l
0.18 19.90 l
0.17 -1.21 l
0.18 -17.75 l
0.18 15.20 l
0.17 13.79 l
0.18 -25.10 l
0.18 19.20 l
0.17 -11.65 l
0.18 -19.64 l
0.18 26.98 l
0.18 -16.92 l
0.17 -1.60 l
0.18 5.68 l
0.18 -2.62 l
0.17 9.27 l
0.18 11.70 l
0.18 -18.53 l
0.18 14.70 l
0.17 -24.73 l
0.18 -3.03 l
0.18 14.94 l
0.17 -4.18 l
0.18 -1.51 l
0.18 9.87 l
0.18 -0.89 l
0.17 -15.73 l
0.18 11.70 l
0.18 -7.14 l
0.17 8.11 l
0.18 -2.44 l
0.18 -14.03 l
0.17 -4.00 l
0.18 36.73 l
0.18 -18.48 l
0.18 -10.86 l
0.17 7.24 l
0.18 10.11 l
0.18 1.33 l
0.17 -26.27 l
0.18 16.84 l
0.18 -6.88 l
0.18 -13.70 l
0.17 22.25 l
0.18 -10.90 l
0.18 0 l
0.17 10.22 l
0.18 20.43 l
0.18 -0.76 l
0.17 -9.18 l
0.18 4.55 l
0.18 -3.57 l
0.18 -4.81 l
0.17 -10.97 l
0.18 10.27 l
0.18 -17.93 l
0.17 21.50 l
0.18 -12.36 l
0.18 17.26 l
0.18 -2.68 l
0.17 -22.76 l
0.18 12.19 l
0.18 9.05 l
0.17 -11.42 l
0.18 2.49 l
0.18 11.74 l
0.17 -23.15 l
133.76 486.48 lineto
0.18 -2.64 l
0.18 8.15 l
0.17 -20.39 l
0.18 -3.26 l
0.18 -9.48 l
0.17 12.70 l
0.18 -4.32 l
0.18 2.78 l
0.18 -5.51 l
0.17 27.91 l
0.18 -10.80 l
0.18 -11.10 l
0.17 20.62 l
0.18 9.82 l
0.18 -5.59 l
0.18 -30.89 l
0.17 10.75 l
0.18 0.21 l
0.18 7.38 l
0.17 -5.55 l
0.18 6.04 l
0.18 12.98 l
0.17 -18.26 l
0.18 2.21 l
0.18 18.89 l
0.18 -2.20 l
0.17 -30.01 l
0.18 6.67 l
0.18 -3.69 l
0.17 9.53 l
0.18 0.90 l
0.18 3.86 l
0.18 25.05 l
0.17 -24.06 l
0.18 -7.62 l
0.18 -11.99 l
0.17 25.44 l
0.18 -10.46 l
0.18 7.07 l
0.17 -12.94 l
0.18 -25.76 l
0.18 28.54 l
0.18 18.68 l
0.17 -51.14 l
0.18 32.66 l
0.18 -1.62 l
0.17 20.52 l
0.18 4.60 l
0.18 -20.48 l
0.18 -0.32 l
0.17 9.18 l
0.18 1.76 l
0.18 -3.33 l
0.17 -17.49 l
0.18 33.95 l
0.18 -32.68 l
0.18 19.14 l
0.17 -17.47 l
0.18 12.50 l
0.18 -8.61 l
0.17 10.06 l
0.18 4.76 l
0.18 -5.09 l
0.17 6.97 l
0.18 -26.06 l
0.18 -6.65 l
0.18 32.96 l
0.17 -51.27 l
0.18 18.29 l
0.18 2.81 l
0.17 8.73 l
0.18 28.52 l
0.18 -4.30 l
0.18 -9.44 l
0.17 -13.52 l
0.18 6.56 l
0.18 0.39 l
0.17 -21.11 l
0.18 -30.07 l
0.18 61.46 l
0.17 -18.57 l
0.18 13.96 l
0.18 -0.60 l
0.18 7.79 l
0.17 8.30 l
0.18 -11.91 l
0.18 -2.61 l
0.17 10.43 l
0.18 -14.10 l
0.18 11.90 l
0.18 -9.66 l
0.17 14.06 l
0.18 -12.66 l
0.18 1.48 l
0.17 -7.07 l
0.18 -2.93 l
0.18 -7.66 l
0.17 -6.29 l
0.18 4.48 l
151.47 485.30 lineto
0.18 10.52 l
0.17 -5.32 l
0.18 14.86 l
0.18 -25.06 l
0.17 6.46 l
0.18 -5.97 l
0.18 0.70 l
0.18 17.82 l
0.17 -4.18 l
0.18 5.88 l
0.18 -34.40 l
0.17 34.70 l
0.18 -3.32 l
0.18 -3.26 l
0.18 -11.40 l
0.17 24.28 l
0.18 -8.73 l
0.18 -5.49 l
0.17 -27.40 l
0.18 -6.98 l
0.18 24.59 l
0.17 11.54 l
0.18 -6.64 l
0.18 2.24 l
0.18 -12.25 l
0.17 5.17 l
0.18 -4.40 l
0.18 1.38 l
0.17 3.14 l
0.18 23.22 l
0.18 -21.86 l
0.18 13.03 l
0.17 -29.53 l
0.18 26.36 l
0.18 2.91 l
0.17 -3.06 l
0.18 -9.26 l
0.18 -20.78 l
0.17 35.84 l
0.18 -27.71 l
0.18 2.66 l
0.18 -4.83 l
0.17 -4.46 l
0.18 27.55 l
0.18 8.39 l
0.17 5.73 l
0.18 -41.14 l
0.18 -2.68 l
0.18 28.55 l
0.17 -3.10 l
0.18 22.50 l
0.18 -23.86 l
0.17 -2.12 l
0.18 10.68 l
0.18 -2.43 l
0.17 8.65 l
0.18 -26.01 l
0.18 8.74 l
0.18 10.13 l
0.17 -18.11 l
0.18 3.86 l
0.18 8.43 l
0.17 2.83 l
0.18 -7.36 l
0.18 -1.80 l
0.18 13.64 l
0.17 -19.13 l
0.18 27.88 l
0.18 -19.15 l
0.17 6.25 l
0.18 -29.21 l
0.18 37.37 l
0.18 2.11 l
0.17 -25.01 l
0.18 -0.04 l
0.18 -6.38 l
0.17 23.49 l
0.18 -26.46 l
0.18 12.91 l
0.17 -19.40 l
0.18 26.29 l
0.18 -0.51 l
0.18 -2.15 l
0.17 1.63 l
0.18 14.43 l
0.18 -12.38 l
0.17 -9.14 l
0.18 -3.35 l
0.18 -5.44 l
0.18 18.81 l
0.17 -8.64 l
0.18 -13.93 l
0.18 10.64 l
0.17 18.39 l
0.18 5.41 l
0.18 -22.12 l
0.17 8.02 l
0.18 -6.32 l
0.18 -0.61 l
169.18 489.00 lineto
0.17 -9.94 l
0.18 -7.07 l
0.18 50.84 l
0.17 -28.60 l
0.18 -2.52 l
0.18 18.38 l
0.18 -5.67 l
0.17 -6.77 l
0.18 5.62 l
0.18 -5.85 l
0.17 -4.54 l
0.18 -6.67 l
0.18 -12.13 l
0.18 19.92 l
0.17 -18.53 l
0.18 -18.72 l
0.18 26.30 l
0.17 11.00 l
0.18 -14.20 l
0.18 -11.96 l
0.17 31.02 l
0.18 2.89 l
0.18 -2.10 l
0.18 -19.43 l
0.17 14.77 l
0.18 -16.70 l
0.18 5.53 l
0.17 0.91 l
0.18 -10.45 l
0.18 11.00 l
0.18 -18.02 l
0.17 27.02 l
0.18 -7.59 l
0.18 -8.33 l
0.17 17.67 l
0.18 -20.54 l
0.18 2.17 l
0.17 18.93 l
0.18 -11.65 l
0.18 3.02 l
0.18 -8.42 l
0.17 -2.82 l
0.18 25.33 l
0.18 -15.80 l
0.17 2.91 l
0.18 5.30 l
0.18 -13.90 l
0.18 1.68 l
0.17 -18.16 l
0.18 -0.98 l
0.18 -0.71 l
0.17 26.48 l
0.18 -5.72 l
0.18 8.00 l
0.17 -17.75 l
0.18 17.08 l
0.18 -14.44 l
0.18 7.86 l
0.17 -16.51 l
0.18 13.76 l
0.18 29.28 l
0.17 -0.75 l
0.18 0.49 l
0.18 -13.95 l
0.18 -3.79 l
0.17 -7.06 l
0.18 30.88 l
0.18 -30.05 l
0.17 1.56 l
0.18 -21.32 l
0.18 19.34 l
0.18 -10.07 l
0.17 5.16 l
0.18 12.03 l
0.18 -14.83 l
0.17 9.99 l
0.18 13.85 l
0.18 -15.87 l
0.17 42.73 l
0.18 0.19 l
0.18 -42.52 l
0.18 -13.63 l
0.17 24.02 l
0.18 -21.81 l
0.18 15.92 l
0.17 -8.82 l
0.18 4.08 l
0.18 -16.18 l
0.18 6.22 l
0.17 7.17 l
0.18 7.37 l
0.18 15.77 l
0.17 -18.17 l
0.18 7.38 l
0.18 -5.40 l
0.17 -19.36 l
0.18 20.31 l
0.18 -0.64 l
0.18 12.68 l
186.88 527.51 lineto
0.18 -16.50 l
0.18 -17.63 l
0.17 5.87 l
0.18 -16.24 l
0.18 -1.87 l
0.18 8.68 l
0.17 22.10 l
0.18 -10.88 l
0.18 6.93 l
0.17 -1.50 l
0.18 -5.92 l
0.18 -18.50 l
0.18 21.48 l
0.17 0.64 l
0.18 -14.80 l
0.18 -14.87 l
0.17 22.61 l
0.18 -9.04 l
0.18 2.75 l
0.17 -6.23 l
0.18 -10.06 l
0.18 12.94 l
0.18 10.93 l
0.17 -29.53 l
0.18 -8.91 l
0.18 33.59 l
0.17 -13.13 l
0.18 3.90 l
0.18 2.19 l
0.18 19.40 l
0.17 -38.94 l
0.18 21.01 l
0.18 3.32 l
0.17 22.05 l
0.18 -29.14 l
0.18 -16.37 l
0.17 30.34 l
0.18 -4.23 l
0.18 -0.93 l
0.18 -26.10 l
0.17 -17.59 l
0.18 33.60 l
0.18 21.88 l
0.17 -24.48 l
0.18 15.72 l
0.18 -25.50 l
0.18 17.62 l
0.17 12.49 l
0.18 -50.92 l
0.18 33.25 l
0.17 -8.16 l
0.18 16.40 l
0.18 -20.23 l
0.17 18.43 l
0.18 -24.32 l
0.18 11.34 l
0.18 -2.20 l
0.17 11.32 l
0.18 -12.17 l
0.18 32.20 l
0.17 -20.52 l
0.18 -3.58 l
0.18 -9.94 l
0.18 8.21 l
0.17 0.50 l
0.18 6.75 l
0.18 6.41 l
0.17 -7.11 l
0.18 6.12 l
0.18 0.62 l
0.18 -16.98 l
0.17 3.19 l
0.18 4.89 l
0.18 12.47 l
0.17 -16.56 l
0.18 22.99 l
0.18 -2.46 l
0.17 10.08 l
0.18 -14.14 l
0.18 -11.66 l
0.18 25.52 l
0.17 -37.85 l
0.18 11.95 l
0.18 7.49 l
0.17 -7.49 l
0.18 -6.26 l
0.18 24.25 l
0.18 -24.48 l
0.17 16.61 l
0.18 4.74 l
0.18 -17.56 l
0.17 -7.92 l
0.18 14.98 l
0.18 -25.91 l
0.17 14.40 l
0.18 -1.04 l
0.18 7.12 l
0.18 1.24 l
0.17 -4.76 l
204.59 486.05 lineto
0.18 -10.46 l
0.17 0.56 l
0.18 6.76 l
0.18 2.30 l
0.18 8.72 l
0.17 -4.72 l
0.18 -7.56 l
0.18 14.69 l
0.17 -25.70 l
0.18 41.03 l
0.18 -24.61 l
0.17 14.61 l
0.18 -20.83 l
0.18 -28.52 l
0.18 25.84 l
0.17 10.28 l
0.18 10.95 l
0.18 -7.69 l
0.17 7.53 l
0.18 -13.55 l
0.18 -10.52 l
0.18 4.74 l
0.17 -7.04 l
0.18 19.62 l
0.18 4.24 l
0.17 -20.30 l
0.18 -18.10 l
0.18 15.97 l
0.18 13.44 l
0.17 1.06 l
0.18 -8.86 l
0.18 16.03 l
0.17 16.17 l
0.18 -20.75 l
0.18 -13.90 l
0.17 7.75 l
0.18 -4.66 l
0.18 -0.19 l
0.18 -1.17 l
0.17 6.32 l
0.18 -1.05 l
0.18 -0.88 l
0.17 -8.92 l
0.18 14.00 l
0.18 13.63 l
0.18 8.33 l
0.17 -18.23 l
0.18 -11.30 l
0.18 5.77 l
0.17 -2.58 l
0.18 2.55 l
0.18 -13.91 l
0.17 24.24 l
0.18 -27.77 l
0.18 7.05 l
0.18 23.27 l
0.17 2.93 l
0.18 -5.97 l
0.18 4.26 l
0.17 -13.76 l
0.18 -3.86 l
0.18 3.13 l
0.18 3.10 l
0.17 12.35 l
0.18 -26.60 l
0.18 22.19 l
0.17 -16.26 l
0.18 14.08 l
0.18 -0.69 l
0.18 -25.75 l
0.17 27.68 l
0.18 -30.94 l
0.18 -1.13 l
0.17 32.56 l
0.18 -15.63 l
0.18 20.43 l
0.17 -4.19 l
0.18 -4.75 l
0.18 -19.19 l
0.18 0.93 l
0.17 15.03 l
0.18 -19.61 l
0.18 19.19 l
0.17 -6.39 l
0.18 12.05 l
0.18 -38.54 l
0.18 1.05 l
0.17 5.00 l
0.18 8.72 l
0.18 11.84 l
0.17 2.33 l
0.18 17.40 l
0.18 -12.73 l
0.17 5.45 l
0.18 -33.91 l
0.18 32.74 l
0.18 -23.26 l
0.17 12.75 l
0.18 0.49 l
222.30 483.74 lineto
0.17 26.17 l
0.18 -15.73 l
0.18 14.56 l
0.18 -2.84 l
0.17 -1.67 l
0.18 -16.34 l
0.18 -11.99 l
0.17 19.12 l
0.18 8.37 l
0.18 -17.57 l
0.17 5.24 l
0.18 4.83 l
0.18 -14.27 l
0.18 13.67 l
0.17 2.66 l
0.18 -21.85 l
0.18 11.79 l
0.17 -4.29 l
0.18 5.01 l
0.18 -5.66 l
0.18 19.54 l
0.17 -22.07 l
0.18 12.29 l
0.18 20.67 l
0.17 -36.89 l
0.18 1.66 l
0.18 4.62 l
0.18 -17.61 l
0.17 32.66 l
0.18 -12.84 l
0.18 -10.22 l
0.17 9.57 l
0.18 10.09 l
0.18 -19.15 l
0.17 18.39 l
0.18 3.05 l
0.18 -22.07 l
0.18 5.35 l
0.17 18.13 l
0.18 -23.33 l
0.18 11.34 l
0.17 20.53 l
0.18 0.95 l
0.18 -22.99 l
0.18 23.71 l
0.17 -33.56 l
0.18 26.44 l
0.18 -6.89 l
0.17 -8.21 l
0.18 19.21 l
0.18 -14.01 l
0.17 -16.34 l
0.18 -2.85 l
0.18 -8.18 l
0.18 1.63 l
0.17 32.24 l
0.18 -8.60 l
0.18 -1.70 l
0.17 -6.30 l
0.18 14.44 l
0.18 -13.96 l
0.18 -2.89 l
0.17 16.75 l
0.18 -31.50 l
0.18 20.57 l
0.17 -5.27 l
0.18 9.35 l
0.18 12.16 l
0.18 -3.59 l
0.17 0.33 l
0.18 -15.16 l
0.18 0.57 l
0.17 10.48 l
0.18 -12.57 l
0.18 -7.57 l
0.17 -1.87 l
0.18 8.83 l
0.18 10.18 l
0.18 -35.02 l
0.17 17.15 l
0.18 32.69 l
0.18 -1.97 l
0.17 -16.92 l
0.18 1.45 l
0.18 -15.38 l
0.18 6.34 l
0.17 -10.10 l
0.18 10.10 l
0.18 0.70 l
0.17 -8.55 l
0.18 29.50 l
0.18 -20.88 l
0.17 23.85 l
0.18 -14.25 l
0.18 14.42 l
0.18 -2.95 l
0.17 -9.39 l
0.18 -8.64 l
0.18 6.71 l
240.00 491.06 lineto
0.18 -19.81 l
0.18 21.13 l
0.18 -14.22 l
0.17 15.47 l
0.18 -6.85 l
0.18 12.17 l
0.17 -11.16 l
0.18 8.07 l
0.18 0.07 l
0.17 -16.80 l
0.18 13.69 l
0.18 5.55 l
0.18 -11.73 l
0.17 -11.11 l
0.18 19.67 l
0.18 3.89 l
0.17 -8.71 l
0.18 11.19 l
0.18 1.22 l
0.18 -28.57 l
0.17 8.92 l
0.18 6.90 l
0.18 3.64 l
0.17 -11.19 l
0.18 11.67 l
0.18 7.43 l
0.18 1.37 l
0.17 -12.71 l
0.18 -17.12 l
0.18 13.09 l
0.17 3.26 l
0.18 -3.53 l
0.18 20.22 l
0.17 -27.27 l
0.18 18.85 l
0.18 8.67 l
0.18 -12.85 l
0.17 17.29 l
0.18 -37.42 l
0.18 17.04 l
0.17 3.11 l
0.18 0.78 l
0.18 -7.41 l
0.18 -23.51 l
0.17 39.44 l
0.18 -4.90 l
0.18 1.07 l
0.17 -15.70 l
0.18 -27.86 l
0.18 18.84 l
0.17 -16.43 l
0.18 40.03 l
0.18 -9.68 l
0.18 6.15 l
0.17 -5.58 l
0.18 -14.25 l
0.18 -17.86 l
0.17 36.37 l
0.18 -0.54 l
0.18 -17.32 l
0.18 -6.55 l
0.17 14.77 l
0.18 3.34 l
0.18 5.34 l
0.17 -19.25 l
0.18 29.93 l
0.18 -25.58 l
0.18 2.20 l
0.17 15.16 l
0.18 -12.15 l
0.18 -3.12 l
0.17 -9.16 l
0.18 12.03 l
0.18 13.09 l
0.17 12.91 l
0.18 -17.12 l
0.18 24.48 l
0.18 -37.00 l
0.17 11.12 l
0.18 -8.47 l
0.18 11.47 l
0.17 8.34 l
0.18 19.62 l
0.18 3.12 l
0.18 -36.20 l
0.17 -4.17 l
0.18 -6.87 l
0.18 3.08 l
0.17 18.72 l
0.18 -14.45 l
0.18 -30.26 l
0.17 26.22 l
0.18 -18.55 l
0.18 42.50 l
0.18 4.93 l
0.17 -1.02 l
0.18 -13.57 l
0.18 -4.45 l
0.17 4.87 l
257.71 483.31 lineto
0.18 26.98 l
0.18 -16.97 l
0.17 14.60 l
0.18 -21.19 l
0.18 0.21 l
0.17 23.73 l
0.18 -28.51 l
0.18 14.67 l
0.17 -2.41 l
0.18 6.31 l
0.18 11.36 l
0.18 16.36 l
0.17 -17.61 l
0.18 2.04 l
0.18 -11.16 l
0.17 6.08 l
0.18 -13.66 l
0.18 -5.92 l
0.18 6.30 l
0.17 -21.22 l
0.18 28.00 l
0.18 -28.71 l
0.17 17.49 l
0.18 -1.75 l
0.18 5.75 l
0.18 -7.64 l
0.17 5.23 l
0.18 -2.74 l
0.18 -0.40 l
0.17 15.26 l
0.18 -16.39 l
0.18 0.86 l
0.17 22.79 l
0.18 -1.14 l
0.18 -7.42 l
0.18 -8.15 l
0.17 18.24 l
0.18 -24.91 l
0.18 -1.98 l
0.17 -6.94 l
0.18 5.60 l
0.18 16.96 l
0.18 -7.43 l
0.17 -13.01 l
0.18 -22.69 l
0.18 31.20 l
0.17 -9.87 l
0.18 0.03 l
0.18 10.18 l
0.17 13.77 l
0.18 -41.16 l
0.18 2.17 l
0.18 36.47 l
0.17 -31.37 l
0.18 16.51 l
0.18 -5.62 l
0.17 22.03 l
0.18 -19.99 l
0.18 -3.51 l
0.18 17.10 l
0.17 -5.73 l
0.18 0.36 l
0.18 -11.89 l
0.17 7.24 l
0.18 -4.79 l
0.18 24.01 l
0.17 -27.85 l
0.18 -10.28 l
0.18 -5.95 l
0.18 -10.82 l
0.17 17.20 l
0.18 9.00 l
0.18 7.13 l
0.17 4.21 l
0.18 19.16 l
0.18 4.10 l
0.18 -29.56 l
0.17 -14.42 l
0.18 6.72 l
0.18 -20.58 l
0.17 6.97 l
0.18 -5.68 l
0.18 25.25 l
0.18 7.56 l
0.17 -17.74 l
0.18 22.46 l
0.18 -21.42 l
0.17 13.04 l
0.18 20.50 l
0.18 -21.78 l
0.17 6.94 l
0.18 -5.67 l
0.18 -14.97 l
0.18 44.67 l
0.17 -24.11 l
0.18 -3.22 l
0.18 -1.93 l
0.17 -24.02 l
0.18 35.60 l
275.42 472.59 lineto
0.18 24.84 l
0.17 -16.84 l
0.18 19.49 l
0.18 -20.53 l
0.17 4.54 l
0.18 -7.91 l
0.18 4.07 l
0.17 -12.50 l
0.18 13.01 l
0.18 12.21 l
0.18 11.62 l
0.17 -17.06 l
0.18 -13.50 l
0.18 16.80 l
0.17 -6.52 l
0.18 8.21 l
0.18 1.21 l
0.18 -11.85 l
0.17 0.13 l
0.18 -10.38 l
0.18 11.57 l
0.17 27.19 l
0.18 -32.58 l
0.18 3.35 l
0.18 0.14 l
0.17 0.65 l
0.18 8.40 l
0.18 31.45 l
0.17 -37.39 l
0.18 -9.85 l
0.18 -17.25 l
0.17 -12.89 l
0.18 31.95 l
0.18 4.43 l
0.18 7.38 l
0.17 -9.42 l
0.18 -13.14 l
0.18 20.91 l
0.17 2.51 l
0.18 22.45 l
0.18 -23.00 l
0.18 -21.33 l
0.17 -24.27 l
0.18 42.93 l
0.18 2.77 l
0.17 -19.62 l
0.18 0.92 l
0.18 13.05 l
0.17 -5.45 l
0.18 30.75 l
0.18 -20.16 l
0.18 -5.90 l
0.17 1.87 l
0.18 -22.64 l
0.18 14.79 l
0.17 10.73 l
0.18 -19.00 l
0.18 -4.11 l
0.18 21.77 l
0.17 -25.88 l
0.18 20.20 l
0.18 -1.15 l
0.17 -20.34 l
0.18 27.54 l
0.18 6.03 l
0.17 4.51 l
0.18 -22.10 l
0.18 6.68 l
0.18 -18.83 l
0.17 12.96 l
0.18 2.86 l
0.18 -18.84 l
0.17 16.69 l
0.18 0.95 l
0.18 20.76 l
0.18 9.48 l
0.17 -19.22 l
0.18 -13.78 l
0.18 17.99 l
0.17 -0.14 l
0.18 -14.63 l
0.18 17.60 l
0.18 -5.38 l
0.17 7.35 l
0.18 -21.27 l
0.18 8.86 l
0.17 -15.71 l
0.18 -5.79 l
0.18 2.66 l
0.17 26.78 l
0.18 -25.61 l
0.18 23.78 l
0.18 -11.76 l
0.17 11.19 l
0.18 0.97 l
0.18 -2.55 l
0.17 -9.03 l
0.18 -1.48 l
0.18 33.48 l
o
54.00 216.00 558.00 576.00 cl
0 setgray
0.75 setlinewidth
[] 0 setdash
1 setlinecap
1 setlinejoin
10.00 setmiterlimit
np
116.03 425.88 m
177.07 0 l
o
np
116.03 425.88 m
0 -5.98 l
o
np
160.30 425.88 m
0 -5.98 l
o
np
204.57 425.88 m
0 -5.98 l
o
np
248.84 425.88 m
0 -5.98 l
o
np
293.10 425.88 m
0 -5.98 l
o
/Font1 findfont 10 s
116.03 407.95 (0) .5 0 t
160.30 407.95 (2000) .5 0 t
204.57 407.95 (4000) .5 0 t
248.84 407.95 (6000) .5 0 t
293.10 407.95 (8000) .5 0 t
np
108.98 441.49 m
0 83.18 l
o
np
108.98 441.49 m
-5.98 0 l
o
np
108.98 462.29 m
-5.98 0 l
o
np
108.98 483.08 m
-5.98 0 l
o
np
108.98 503.88 m
-5.98 0 l
o
np
108.98 524.67 m
-5.98 0 l
o
98.22 441.49 (0.73) .5 90 t
98.22 483.08 (0.75) .5 90 t
98.22 524.67 (0.77) .5 90 t
np
108.98 425.88 m
191.04 0 l
0 107.09 l
-191.04 0 l
0 -107.09 l
o
55.20 384.05 306.00 550.90 cl
/Font1 findfont 15 s
0 setgray
173.65 389.43 (Iter) 0 ta
-0.150 (ations) tb gr
79.70 433.99 (P) 90 ta
-0.600 (ar) tb
-0.150 (am. V) tb
-1.050 (alue) tb gr
108.98 425.88 300.02 532.97 cl
0 setgray
0.75 setlinewidth
[ 2.25 3.75] 0 setdash
1 setlinecap
1 setlinejoin
10.00 setmiterlimit
np
116.05 482.85 m
0.18 3.18 l
0.18 -19.30 l
0.18 8.38 l
0.17 11.22 l
0.18 1.59 l
0.18 -2.73 l
0.17 -5.60 l
0.18 9.97 l
0.18 -2.14 l
0.18 1.34 l
0.17 6.02 l
0.18 -4.09 l
0.18 -25.57 l
0.17 18.64 l
0.18 -1.58 l
0.18 4.75 l
0.18 -14.70 l
0.17 19.17 l
0.18 -41.74 l
0.18 28.85 l
0.17 14.58 l
0.18 -23.63 l
0.18 19.69 l
0.17 -0.97 l
0.18 32.85 l
0.18 -19.45 l
0.18 -15.44 l
0.17 16.87 l
0.18 -17.84 l
0.18 24.06 l
0.17 -16.03 l
0.18 15.95 l
0.18 -32.10 l
0.18 -4.99 l
0.17 26.81 l
0.18 -20.30 l
0.18 23.05 l
0.17 -14.82 l
0.18 4.98 l
0.18 4.88 l
0.17 3.46 l
0.18 -2.86 l
0.18 11.70 l
0.18 -19.63 l
0.17 -13.21 l
0.18 5.55 l
0.18 10.80 l
0.17 -24.34 l
0.18 9.80 l
0.18 16.72 l
0.18 -16.72 l
0.17 16.42 l
0.18 0.83 l
0.18 0.10 l
0.17 -20.18 l
0.18 -13.31 l
0.18 7.62 l
0.18 34.51 l
0.17 6.18 l
0.18 -5.24 l
0.18 -33.32 l
0.17 14.55 l
0.18 1.15 l
0.18 -1.88 l
0.17 -8.83 l
0.18 5.28 l
0.18 44.53 l
0.18 -20.46 l
0.17 -5.41 l
0.18 -20.58 l
0.18 22.94 l
0.17 -1.68 l
0.18 -10.35 l
0.18 -10.34 l
0.18 20.90 l
0.17 -15.47 l
0.18 2.41 l
0.18 -0.37 l
0.17 -0.31 l
0.18 8.68 l
0.18 13.00 l
0.17 -17.11 l
0.18 -12.48 l
0.18 7.88 l
0.18 -22.08 l
0.17 26.19 l
0.18 1.07 l
0.18 -0.81 l
0.17 6.57 l
0.18 -19.59 l
0.18 -8.20 l
0.18 -15.34 l
0.17 8.90 l
0.18 9.89 l
0.18 14.50 l
0.17 -6.78 l
0.18 5.76 l
0.18 -9.40 l
0.17 4.82 l
133.76 501.88 lineto
0.18 -29.53 l
0.18 12.06 l
0.17 -19.54 l
0.18 13.27 l
0.18 -1.88 l
0.17 46.80 l
0.18 -46.14 l
0.18 42.06 l
0.18 -69.14 l
0.17 44.87 l
0.18 -3.66 l
0.18 -13.12 l
0.17 0.51 l
0.18 16.42 l
0.18 -15.41 l
0.18 15.66 l
0.17 20.13 l
0.18 -14.00 l
0.18 -2.71 l
0.17 -6.89 l
0.18 -5.50 l
0.18 4.09 l
0.17 4.52 l
0.18 -4.97 l
0.18 -12.95 l
0.18 17.90 l
0.17 11.36 l
0.18 -35.09 l
0.18 17.94 l
0.17 -17.45 l
0.18 5.59 l
0.18 7.00 l
0.18 -21.67 l
0.17 31.38 l
0.18 -20.67 l
0.18 6.44 l
0.17 8.18 l
0.18 2.10 l
0.18 14.17 l
0.17 -27.49 l
0.18 7.27 l
0.18 2.92 l
0.18 -23.10 l
0.17 32.47 l
0.18 -9.97 l
0.18 10.86 l
0.17 14.13 l
0.18 -28.35 l
0.18 28.92 l
0.18 -28.85 l
0.17 33.55 l
0.18 -30.71 l
0.18 2.65 l
0.17 4.39 l
0.18 -9.13 l
0.18 -2.92 l
0.18 -15.75 l
0.17 9.99 l
0.18 -4.56 l
0.18 15.41 l
0.17 -1.21 l
0.18 1.99 l
0.18 -1.11 l
0.17 -2.99 l
0.18 9.20 l
0.18 -1.59 l
0.18 5.95 l
0.17 -18.20 l
0.18 8.59 l
0.18 -15.94 l
0.17 -10.55 l
0.18 29.75 l
0.18 1.88 l
0.18 9.15 l
0.17 -29.80 l
0.18 5.91 l
0.18 3.62 l
0.17 -0.17 l
0.18 -17.27 l
0.18 15.74 l
0.17 13.78 l
0.18 -9.37 l
0.18 14.00 l
0.18 -16.83 l
0.17 -0.81 l
0.18 -0.09 l
0.18 21.44 l
0.17 -15.17 l
0.18 3.74 l
0.18 -3.42 l
0.18 21.82 l
0.17 -26.25 l
0.18 -12.14 l
0.18 27.24 l
0.17 -24.16 l
0.18 40.18 l
0.18 -16.72 l
0.17 -6.30 l
0.18 4.35 l
151.47 507.92 lineto
0.18 -22.30 l
0.17 2.40 l
0.18 3.50 l
0.18 -15.95 l
0.17 -21.25 l
0.18 26.40 l
0.18 23.52 l
0.18 -34.65 l
0.17 13.87 l
0.18 12.88 l
0.18 -9.72 l
0.17 3.99 l
0.18 -14.04 l
0.18 3.23 l
0.18 10.22 l
0.17 -9.18 l
0.18 11.22 l
0.18 -29.54 l
0.17 26.00 l
0.18 9.56 l
0.18 -17.00 l
0.17 3.10 l
0.18 7.12 l
0.18 -5.77 l
0.18 -14.38 l
0.17 12.44 l
0.18 10.48 l
0.18 -23.68 l
0.17 2.15 l
0.18 9.66 l
0.18 -28.43 l
0.18 24.85 l
0.17 -7.16 l
0.18 20.10 l
0.18 -10.35 l
0.17 19.37 l
0.18 -6.63 l
0.18 5.51 l
0.17 -17.36 l
0.18 1.64 l
0.18 -8.37 l
0.18 10.24 l
0.17 4.98 l
0.18 -4.00 l
0.18 -0.94 l
0.17 15.39 l
0.18 -5.97 l
0.18 0.91 l
0.18 -9.98 l
0.17 -11.24 l
0.18 3.38 l
0.18 29.64 l
0.17 -21.00 l
0.18 4.08 l
0.18 -6.85 l
0.17 -2.71 l
0.18 7.79 l
0.18 -15.89 l
0.18 26.70 l
0.17 -16.98 l
0.18 3.95 l
0.18 10.60 l
0.17 -30.14 l
0.18 10.68 l
0.18 17.55 l
0.18 2.39 l
0.17 9.38 l
0.18 -19.15 l
0.18 -5.88 l
0.17 11.11 l
0.18 5.50 l
0.18 -11.86 l
0.18 -12.69 l
0.17 37.11 l
0.18 -14.83 l
0.18 -6.86 l
0.17 -13.51 l
0.18 -4.83 l
0.18 11.28 l
0.17 -8.55 l
0.18 29.09 l
0.18 1.68 l
0.18 -35.97 l
0.17 4.59 l
0.18 34.23 l
0.18 -24.88 l
0.17 2.29 l
0.18 4.52 l
0.18 -15.29 l
0.18 11.29 l
0.17 17.01 l
0.18 -35.23 l
0.18 40.71 l
0.17 -17.50 l
0.18 5.49 l
0.18 -0.57 l
0.17 6.40 l
0.18 9.97 l
0.18 -15.69 l
169.18 499.78 lineto
0.17 -18.64 l
0.18 6.67 l
0.18 15.86 l
0.17 -20.18 l
0.18 6.73 l
0.18 15.52 l
0.18 -15.60 l
0.17 3.85 l
0.18 -11.08 l
0.18 5.12 l
0.17 -2.74 l
0.18 9.48 l
0.18 -10.03 l
0.18 -2.73 l
0.17 -0.83 l
0.18 -1.99 l
0.18 4.91 l
0.17 1.61 l
0.18 -5.21 l
0.18 1.86 l
0.17 -21.22 l
0.18 3.73 l
0.18 -1.14 l
0.18 -18.12 l
0.17 6.94 l
0.18 17.58 l
0.18 -22.80 l
0.17 47.88 l
0.18 -17.59 l
0.18 13.43 l
0.18 11.41 l
0.17 1.22 l
0.18 -8.59 l
0.18 -20.33 l
0.17 28.48 l
0.18 2.86 l
0.18 -24.70 l
0.17 8.45 l
0.18 26.12 l
0.18 -37.00 l
0.18 25.47 l
0.17 -20.78 l
0.18 -2.35 l
0.18 5.78 l
0.17 -18.79 l
0.18 21.75 l
0.18 -7.47 l
0.18 11.85 l
0.17 -10.40 l
0.18 3.00 l
0.18 1.31 l
0.17 -0.55 l
0.18 -27.30 l
0.18 26.49 l
0.17 -3.62 l
0.18 2.48 l
0.18 -0.50 l
0.18 2.29 l
0.17 -2.56 l
0.18 4.31 l
0.18 -5.71 l
0.17 0.84 l
0.18 8.07 l
0.18 -0.66 l
0.18 -12.30 l
0.17 0.49 l
0.18 -2.01 l
0.18 -15.68 l
0.17 19.42 l
0.18 2.51 l
0.18 -15.10 l
0.18 12.12 l
0.17 1.63 l
0.18 -3.02 l
0.18 -14.07 l
0.17 2.56 l
0.18 13.68 l
0.18 -2.75 l
0.17 12.11 l
0.18 12.70 l
0.18 20.05 l
0.18 -32.67 l
0.17 -2.03 l
0.18 8.60 l
0.18 -12.90 l
0.17 -22.52 l
0.18 9.76 l
0.18 18.28 l
0.18 -2.62 l
0.17 -27.49 l
0.18 6.85 l
0.18 39.18 l
0.17 -0.82 l
0.18 0.24 l
0.18 5.93 l
0.17 0.01 l
0.18 -16.78 l
0.18 16.12 l
0.18 -17.02 l
186.88 491.89 lineto
0.18 7.44 l
0.18 23.03 l
0.17 -26.49 l
0.18 -10.92 l
0.18 5.26 l
0.18 -9.95 l
0.17 19.57 l
0.18 16.52 l
0.18 -14.59 l
0.17 -28.73 l
0.18 10.04 l
0.18 25.85 l
0.18 -26.33 l
0.17 14.23 l
0.18 16.47 l
0.18 -28.55 l
0.17 1.86 l
0.18 22.05 l
0.18 -7.20 l
0.17 -24.58 l
0.18 14.44 l
0.18 -19.34 l
0.18 16.23 l
0.17 -15.98 l
0.18 0.12 l
0.18 24.98 l
0.17 6.49 l
0.18 -3.81 l
0.18 -9.46 l
0.18 1.95 l
0.17 -25.52 l
0.18 25.53 l
0.18 -0.52 l
0.17 6.36 l
0.18 1.58 l
0.18 -15.35 l
0.17 -17.97 l
0.18 26.71 l
0.18 -16.64 l
0.18 -15.52 l
0.17 17.41 l
0.18 -12.79 l
0.18 8.51 l
0.17 9.95 l
0.18 13.12 l
0.18 -6.75 l
0.18 5.54 l
0.17 0.84 l
0.18 -17.34 l
0.18 3.20 l
0.17 -3.55 l
0.18 24.61 l
0.18 5.55 l
0.17 -5.34 l
0.18 -5.28 l
0.18 -3.25 l
0.18 12.69 l
0.17 -24.86 l
0.18 3.04 l
0.18 9.78 l
0.17 -6.32 l
0.18 20.58 l
0.18 -33.01 l
0.18 12.87 l
0.17 -25.38 l
0.18 21.85 l
0.18 -3.08 l
0.17 -3.52 l
0.18 42.49 l
0.18 -51.56 l
0.18 17.73 l
0.17 4.03 l
0.18 -9.00 l
0.18 5.11 l
0.17 -3.60 l
0.18 15.14 l
0.18 -22.14 l
0.17 8.94 l
0.18 4.95 l
0.18 15.36 l
0.18 -4.24 l
0.17 -27.01 l
0.18 10.66 l
0.18 -0.94 l
0.17 11.47 l
0.18 -32.02 l
0.18 22.96 l
0.18 -2.73 l
0.17 -2.29 l
0.18 -2.84 l
0.18 8.25 l
0.17 13.78 l
0.18 8.97 l
0.18 -48.48 l
0.17 32.54 l
0.18 6.73 l
0.18 5.89 l
0.18 -34.16 l
0.17 12.21 l
204.59 462.75 lineto
0.18 4.93 l
0.17 29.38 l
0.18 -31.57 l
0.18 28.58 l
0.18 -15.78 l
0.17 13.83 l
0.18 -25.31 l
0.18 10.85 l
0.17 5.10 l
0.18 0.89 l
0.18 -10.45 l
0.17 -12.27 l
0.18 20.86 l
0.18 -1.67 l
0.18 1.67 l
0.17 7.81 l
0.18 15.26 l
0.18 -35.64 l
0.17 15.94 l
0.18 -7.74 l
0.18 -1.07 l
0.18 -16.15 l
0.17 11.02 l
0.18 -4.33 l
0.18 41.64 l
0.17 -6.09 l
0.18 0.20 l
0.18 -4.42 l
0.18 -10.34 l
0.17 -8.70 l
0.18 8.51 l
0.18 -6.43 l
0.17 6.35 l
0.18 7.64 l
0.18 10.90 l
0.17 -2.52 l
0.18 -12.58 l
0.18 -22.83 l
0.18 13.01 l
0.17 1.07 l
0.18 -20.51 l
0.18 15.54 l
0.17 2.48 l
0.18 -14.13 l
0.18 2.35 l
0.18 23.59 l
0.17 -14.81 l
0.18 15.78 l
0.18 28.10 l
0.17 -35.35 l
0.18 -9.33 l
0.18 6.77 l
0.17 -9.84 l
0.18 -6.40 l
0.18 -15.52 l
0.18 31.55 l
0.17 -12.58 l
0.18 14.49 l
0.18 -34.13 l
0.17 14.11 l
0.18 13.12 l
0.18 15.36 l
0.18 -9.54 l
0.17 13.90 l
0.18 -7.19 l
0.18 -25.05 l
0.17 29.76 l
0.18 -22.82 l
0.18 14.00 l
0.18 -14.55 l
0.17 22.62 l
0.18 2.26 l
0.18 18.24 l
0.17 -40.61 l
0.18 28.01 l
0.18 -1.40 l
0.17 -28.38 l
0.18 52.88 l
0.18 -42.88 l
0.18 -7.94 l
0.17 17.58 l
0.18 3.97 l
0.18 -15.06 l
0.17 17.75 l
0.18 -9.62 l
0.18 9.24 l
0.18 -10.10 l
0.17 6.21 l
0.18 -12.05 l
0.18 6.29 l
0.17 -4.71 l
0.18 6.90 l
0.18 -6.04 l
0.17 8.97 l
0.18 14.68 l
0.18 -27.97 l
0.18 29.12 l
0.17 -18.88 l
0.18 -7.15 l
222.30 484.89 lineto
0.17 -0.17 l
0.18 10.21 l
0.18 -1.11 l
0.18 -24.68 l
0.17 14.46 l
0.18 3.92 l
0.18 19.98 l
0.17 -28.90 l
0.18 10.70 l
0.18 -26.14 l
0.17 12.31 l
0.18 6.53 l
0.18 -13.37 l
0.18 0.63 l
0.17 9.68 l
0.18 21.90 l
0.18 -21.94 l
0.17 0.97 l
0.18 22.15 l
0.18 -16.64 l
0.18 -1.96 l
0.17 -24.82 l
0.18 11.69 l
0.18 7.95 l
0.17 -3.86 l
0.18 0.51 l
0.18 -13.69 l
0.18 11.96 l
0.17 6.10 l
0.18 21.53 l
0.18 -13.79 l
0.17 16.78 l
0.18 11.37 l
0.18 -8.06 l
0.17 14.88 l
0.18 -38.84 l
0.18 -9.18 l
0.18 17.18 l
0.17 -7.59 l
0.18 8.87 l
0.18 -12.71 l
0.17 12.56 l
0.18 2.12 l
0.18 -16.53 l
0.18 7.45 l
0.17 30.89 l
0.18 -20.17 l
0.18 -25.87 l
0.17 26.20 l
0.18 1.45 l
0.18 -24.56 l
0.17 -6.86 l
0.18 28.53 l
0.18 -20.46 l
0.18 10.26 l
0.17 -7.88 l
0.18 -9.31 l
0.18 -5.89 l
0.17 8.07 l
0.18 21.95 l
0.18 -10.29 l
0.18 5.29 l
0.17 5.71 l
0.18 0.21 l
0.18 2.42 l
0.17 -18.70 l
0.18 -3.51 l
0.18 24.11 l
0.18 -17.68 l
0.17 16.16 l
0.18 -17.34 l
0.18 27.71 l
0.17 -20.39 l
0.18 5.77 l
0.18 -0.27 l
0.17 2.17 l
0.18 24.07 l
0.18 -26.30 l
0.18 -0.03 l
0.17 -14.44 l
0.18 22.61 l
0.18 1.14 l
0.17 -14.86 l
0.18 -3.92 l
0.18 1.14 l
0.18 2.34 l
0.17 -0.31 l
0.18 -6.11 l
0.18 1.82 l
0.17 4.86 l
0.18 -14.41 l
0.18 11.10 l
0.17 8.01 l
0.18 -17.78 l
0.18 -0.20 l
0.18 -16.86 l
0.17 11.46 l
0.18 -1.62 l
0.18 40.07 l
240.00 468.01 lineto
0.18 14.78 l
0.18 9.51 l
0.18 -22.99 l
0.17 8.81 l
0.18 -9.94 l
0.18 31.47 l
0.17 1.23 l
0.18 15.72 l
0.18 -34.30 l
0.17 4.90 l
0.18 31.31 l
0.18 -16.36 l
0.18 0.63 l
0.17 -15.11 l
0.18 -8.92 l
0.18 2.40 l
0.17 3.67 l
0.18 14.65 l
0.18 -0.88 l
0.18 -15.67 l
0.17 -2.85 l
0.18 22.55 l
0.18 -29.63 l
0.17 24.22 l
0.18 -7.29 l
0.18 12.15 l
0.18 -5.85 l
0.17 -17.12 l
0.18 13.47 l
0.18 -10.16 l
0.17 0.10 l
0.18 18.25 l
0.18 -27.17 l
0.17 19.24 l
0.18 -15.81 l
0.18 -0.33 l
0.18 16.38 l
0.17 -16.52 l
0.18 5.09 l
0.18 5.41 l
0.17 -17.33 l
0.18 27.27 l
0.18 -42.96 l
0.18 16.82 l
0.17 1.75 l
0.18 30.74 l
0.18 -20.06 l
0.17 7.39 l
0.18 -8.86 l
0.18 17.20 l
0.17 -26.45 l
0.18 16.40 l
0.18 7.73 l
0.18 11.80 l
0.17 -40.39 l
0.18 22.80 l
0.18 -13.07 l
0.17 -6.66 l
0.18 10.73 l
0.18 1.86 l
0.18 17.86 l
0.17 -39.64 l
0.18 20.68 l
0.18 15.35 l
0.17 -11.18 l
0.18 14.17 l
0.18 -13.94 l
0.18 2.64 l
0.17 12.37 l
0.18 -32.30 l
0.18 17.20 l
0.17 5.62 l
0.18 -6.43 l
0.18 17.23 l
0.17 -17.59 l
0.18 23.91 l
0.18 -16.47 l
0.18 -2.31 l
0.17 2.42 l
0.18 -17.73 l
0.18 24.32 l
0.17 -7.74 l
0.18 -4.99 l
0.18 3.53 l
0.18 10.07 l
0.17 0.99 l
0.18 -13.27 l
0.18 14.81 l
0.17 -16.89 l
0.18 -9.06 l
0.18 19.95 l
0.17 8.02 l
0.18 -13.07 l
0.18 -1.61 l
0.18 3.42 l
0.17 0.24 l
0.18 -11.13 l
0.18 3.56 l
0.17 25.29 l
257.71 508.69 lineto
0.18 7.82 l
0.18 -13.72 l
0.17 11.85 l
0.18 -36.30 l
0.18 23.05 l
0.17 -6.72 l
0.18 16.61 l
0.18 -27.65 l
0.17 38.18 l
0.18 -3.81 l
0.18 -53.00 l
0.18 32.08 l
0.17 11.86 l
0.18 -22.92 l
0.18 10.84 l
0.17 -24.63 l
0.18 -1.06 l
0.18 20.67 l
0.18 -7.55 l
0.17 5.47 l
0.18 6.68 l
0.18 1.16 l
0.17 5.71 l
0.18 -39.73 l
0.18 -3.45 l
0.18 37.86 l
0.17 8.05 l
0.18 -26.53 l
0.18 -15.68 l
0.17 16.33 l
0.18 5.93 l
0.18 -10.62 l
0.17 8.80 l
0.18 -18.32 l
0.18 24.18 l
0.18 -3.12 l
0.17 -3.54 l
0.18 8.92 l
0.18 -5.80 l
0.17 4.08 l
0.18 4.79 l
0.18 -17.53 l
0.18 3.38 l
0.17 0.24 l
0.18 0.37 l
0.18 5.72 l
0.17 -12.57 l
0.18 3.48 l
0.18 5.38 l
0.17 2.55 l
0.18 -5.42 l
0.18 -21.92 l
0.18 0.81 l
0.17 24.55 l
0.18 -0.21 l
0.18 -12.56 l
0.17 12.47 l
0.18 0.21 l
0.18 -17.33 l
0.18 14.13 l
0.17 -4.05 l
0.18 8.73 l
0.18 -24.52 l
0.17 30.83 l
0.18 -14.91 l
0.18 -5.41 l
0.17 -14.04 l
0.18 25.16 l
0.18 -5.59 l
0.18 -9.65 l
0.17 23.16 l
0.18 2.68 l
0.18 -5.16 l
0.17 7.97 l
0.18 -10.71 l
0.18 2.64 l
0.18 1.54 l
0.17 -1.40 l
0.18 -3.33 l
0.18 -18.38 l
0.17 3.14 l
0.18 23.13 l
0.18 18.69 l
0.18 -35.60 l
0.17 10.66 l
0.18 -2.08 l
0.18 -2.78 l
0.17 34.10 l
0.18 -34.22 l
0.18 19.19 l
0.17 -9.46 l
0.18 -8.79 l
0.18 1.46 l
0.18 23.73 l
0.17 -9.54 l
0.18 -19.85 l
0.18 -3.16 l
0.17 17.40 l
0.18 1.69 l
275.42 489.45 lineto
0.18 -2.33 l
0.17 -8.47 l
0.18 14.00 l
0.18 16.34 l
0.17 -1.15 l
0.18 1.89 l
0.18 -23.28 l
0.17 6.70 l
0.18 8.33 l
0.18 -17.80 l
0.18 4.69 l
0.17 -24.93 l
0.18 28.47 l
0.18 -21.75 l
0.17 -1.73 l
0.18 20.10 l
0.18 5.37 l
0.18 -0.98 l
0.17 -16.86 l
0.18 5.60 l
0.18 -20.19 l
0.17 11.34 l
0.18 22.15 l
0.18 -26.76 l
0.18 -0.75 l
0.17 18.00 l
0.18 7.53 l
0.18 -19.82 l
0.17 29.80 l
0.18 -15.16 l
0.18 1.15 l
0.17 30.09 l
0.18 -34.05 l
0.18 7.21 l
0.18 -15.29 l
0.17 37.91 l
0.18 -1.90 l
0.18 -28.33 l
0.17 -7.41 l
0.18 11.90 l
0.18 -3.00 l
0.18 -17.65 l
0.17 8.53 l
0.18 -12.69 l
0.18 -0.61 l
0.17 6.41 l
0.18 12.28 l
0.18 -14.51 l
0.17 12.68 l
0.18 11.94 l
0.18 -21.92 l
0.18 18.49 l
0.17 -13.27 l
0.18 13.34 l
0.18 -6.33 l
0.17 -3.39 l
0.18 9.24 l
0.18 4.56 l
0.18 12.74 l
0.17 -5.08 l
0.18 15.10 l
0.18 1.31 l
0.17 -14.34 l
0.18 0.54 l
0.18 -19.03 l
0.17 -1.31 l
0.18 12.06 l
0.18 -6.26 l
0.18 3.32 l
0.17 -10.60 l
0.18 10.47 l
0.18 -4.43 l
0.17 7.19 l
0.18 -15.04 l
0.18 8.68 l
0.18 23.65 l
0.17 -37.30 l
0.18 11.96 l
0.18 0.13 l
0.17 -3.07 l
0.18 7.75 l
0.18 1.09 l
0.18 16.92 l
0.17 -16.02 l
0.18 9.24 l
0.18 -35.51 l
0.17 16.30 l
0.18 -5.11 l
0.18 10.19 l
0.17 1.44 l
0.18 -4.80 l
0.18 -2.10 l
0.18 -4.77 l
0.17 -1.93 l
0.18 18.01 l
0.18 -7.76 l
0.17 -2.73 l
0.18 6.52 l
0.18 -10.03 l
o
0.2549 0.4118 0.8824 rgb
0.75 setlinewidth
[ 0.00 3.00] 0 setdash
np
116.05 491.06 m
0.18 -2.50 l
0.18 18.84 l
0.18 -6.02 l
0.17 -21.09 l
0.18 22.82 l
0.18 -18.62 l
0.17 -4.30 l
0.18 38.58 l
0.18 -43.63 l
0.18 -10.56 l
0.17 0.25 l
0.18 22.70 l
0.18 -3.84 l
0.17 -27.17 l
0.18 34.57 l
0.18 -6.15 l
0.18 11.07 l
0.17 -18.07 l
0.18 -10.49 l
0.18 21.88 l
0.17 10.42 l
0.18 9.02 l
0.18 -18.34 l
0.17 0.08 l
0.18 -5.37 l
0.18 -11.06 l
0.18 3.33 l
0.17 -0.14 l
0.18 14.65 l
0.18 -23.20 l
0.17 18.52 l
0.18 -9.67 l
0.18 22.79 l
0.18 -16.73 l
0.17 2.40 l
0.18 15.24 l
0.18 -2.21 l
0.17 1.34 l
0.18 -21.43 l
0.18 4.26 l
0.17 -20.14 l
0.18 36.94 l
0.18 -11.33 l
0.18 -12.89 l
0.17 -1.84 l
0.18 18.15 l
0.18 2.79 l
0.17 -21.47 l
0.18 0.87 l
0.18 5.76 l
0.18 -8.96 l
0.17 21.77 l
0.18 -7.60 l
0.18 -10.22 l
0.17 23.95 l
0.18 -2.01 l
0.18 4.70 l
0.18 26.09 l
0.17 -34.41 l
0.18 -3.65 l
0.18 5.00 l
0.17 -1.60 l
0.18 -12.62 l
0.18 -14.40 l
0.17 32.71 l
0.18 -20.83 l
0.18 -11.01 l
0.18 0.41 l
0.17 20.22 l
0.18 -23.68 l
0.18 16.09 l
0.17 -4.44 l
0.18 5.26 l
0.18 -14.24 l
0.18 -0.14 l
0.17 -7.49 l
0.18 23.31 l
0.18 -8.12 l
0.17 9.67 l
0.18 1.37 l
0.18 13.99 l
0.17 -8.72 l
0.18 1.43 l
0.18 -23.95 l
0.18 24.91 l
0.17 -16.48 l
0.18 25.34 l
0.18 -11.23 l
0.17 -3.00 l
0.18 8.83 l
0.18 -1.91 l
0.18 5.81 l
0.17 -18.90 l
0.18 27.35 l
0.18 -8.91 l
0.17 -7.25 l
0.18 3.31 l
0.18 -12.38 l
0.17 -24.74 l
133.76 492.79 lineto
0.18 -20.81 l
0.18 -3.84 l
0.17 2.03 l
0.18 9.99 l
0.18 0.88 l
0.17 -8.62 l
0.18 -6.88 l
0.18 33.73 l
0.18 12.33 l
0.17 -16.82 l
0.18 -5.59 l
0.18 -20.57 l
0.17 17.32 l
0.18 -11.60 l
0.18 -5.92 l
0.18 27.20 l
0.17 -25.05 l
0.18 4.83 l
0.18 -2.64 l
0.17 5.82 l
0.18 2.88 l
0.18 -1.99 l
0.17 -2.72 l
0.18 43.69 l
0.18 -35.06 l
0.18 13.01 l
0.17 1.73 l
0.18 -8.74 l
0.18 -17.09 l
0.17 25.66 l
0.18 8.75 l
0.18 -7.51 l
0.18 3.30 l
0.17 -3.82 l
0.18 6.45 l
0.18 2.95 l
0.17 -19.55 l
0.18 -7.44 l
0.18 -8.08 l
0.17 7.73 l
0.18 -4.12 l
0.18 -2.44 l
0.18 21.04 l
0.17 -15.00 l
0.18 3.01 l
0.18 -6.99 l
0.17 -12.01 l
0.18 30.71 l
0.18 8.89 l
0.18 -15.77 l
0.17 -0.89 l
0.18 3.75 l
0.18 -15.10 l
0.17 21.58 l
0.18 5.37 l
0.18 -2.43 l
0.18 -10.47 l
0.17 -0.36 l
0.18 7.00 l
0.18 -3.59 l
0.17 -6.91 l
0.18 6.56 l
0.18 7.80 l
0.17 13.09 l
0.18 -31.79 l
0.18 25.01 l
0.18 -31.88 l
0.17 13.96 l
0.18 -17.71 l
0.18 19.67 l
0.17 15.03 l
0.18 -0.50 l
0.18 -24.66 l
0.18 0.23 l
0.17 6.56 l
0.18 -6.99 l
0.18 5.46 l
0.17 0.37 l
0.18 7.46 l
0.18 -20.34 l
0.17 8.05 l
0.18 -5.04 l
0.18 10.48 l
0.18 -31.95 l
0.17 24.61 l
0.18 4.49 l
0.18 12.04 l
0.17 -12.25 l
0.18 19.56 l
0.18 -26.70 l
0.18 6.75 l
0.17 -5.82 l
0.18 36.03 l
0.18 -26.49 l
0.17 -4.95 l
0.18 -5.89 l
0.18 20.26 l
0.17 -2.36 l
0.18 6.70 l
151.47 456.34 lineto
0.18 28.32 l
0.17 -22.30 l
0.18 5.07 l
0.18 21.43 l
0.17 -17.82 l
0.18 2.89 l
0.18 5.66 l
0.18 18.76 l
0.17 -11.96 l
0.18 13.12 l
0.18 -19.11 l
0.17 27.26 l
0.18 -19.45 l
0.18 7.56 l
0.18 -6.14 l
0.17 -32.29 l
0.18 6.41 l
0.18 2.44 l
0.17 2.31 l
0.18 15.78 l
0.18 15.03 l
0.17 19.37 l
0.18 -24.42 l
0.18 1.07 l
0.18 -7.39 l
0.17 0.91 l
0.18 -1.18 l
0.18 36.01 l
0.17 -19.12 l
0.18 -13.15 l
0.18 12.82 l
0.18 -10.80 l
0.17 0.54 l
0.18 17.09 l
0.18 -20.84 l
0.17 13.11 l
0.18 -18.64 l
0.18 34.58 l
0.17 -17.05 l
0.18 -24.59 l
0.18 3.95 l
0.18 8.64 l
0.17 -12.72 l
0.18 12.14 l
0.18 16.73 l
0.17 -14.47 l
0.18 11.28 l
0.18 -5.53 l
0.18 -3.40 l
0.17 2.34 l
0.18 5.42 l
0.18 6.55 l
0.17 -29.74 l
0.18 -10.76 l
0.18 31.17 l
0.17 5.34 l
0.18 2.19 l
0.18 -24.94 l
0.18 23.23 l
0.17 2.15 l
0.18 -5.56 l
0.18 12.02 l
0.17 -17.32 l
0.18 1.12 l
0.18 -16.55 l
0.18 4.49 l
0.17 -3.47 l
0.18 -12.40 l
0.18 11.70 l
0.17 -7.11 l
0.18 -1.17 l
0.18 39.95 l
0.18 -47.53 l
0.17 8.72 l
0.18 6.48 l
0.18 8.96 l
0.17 -2.28 l
0.18 0.64 l
0.18 -21.68 l
0.17 17.56 l
0.18 -6.66 l
0.18 -15.88 l
0.18 11.61 l
0.17 -3.36 l
0.18 13.45 l
0.18 3.80 l
0.17 0.32 l
0.18 2.90 l
0.18 12.88 l
0.18 17.89 l
0.17 -4.72 l
0.18 -22.33 l
0.18 -20.09 l
0.17 8.44 l
0.18 -1.87 l
0.18 -9.33 l
0.17 4.27 l
0.18 -12.29 l
0.18 12.02 l
169.18 490.91 lineto
0.17 -8.93 l
0.18 5.96 l
0.18 3.32 l
0.17 15.10 l
0.18 5.90 l
0.18 -30.36 l
0.18 14.21 l
0.17 -23.58 l
0.18 35.64 l
0.18 -24.56 l
0.17 -19.29 l
0.18 30.15 l
0.18 9.90 l
0.18 -0.18 l
0.17 -32.65 l
0.18 11.48 l
0.18 -9.05 l
0.17 21.62 l
0.18 1.00 l
0.18 -13.96 l
0.17 11.38 l
0.18 0.84 l
0.18 -8.64 l
0.18 -11.80 l
0.17 -13.96 l
0.18 33.22 l
0.18 -4.16 l
0.17 -46.39 l
0.18 35.53 l
0.18 -0.71 l
0.18 6.02 l
0.17 -1.70 l
0.18 11.54 l
0.18 0.76 l
0.17 -17.69 l
0.18 -5.69 l
0.18 23.07 l
0.17 -15.94 l
0.18 11.97 l
0.18 3.04 l
0.18 -8.13 l
0.17 3.98 l
0.18 6.37 l
0.18 -14.10 l
0.17 30.47 l
0.18 -38.49 l
0.18 9.63 l
0.18 -4.08 l
0.17 23.32 l
0.18 -13.47 l
0.18 -11.91 l
0.17 15.39 l
0.18 1.68 l
0.18 5.25 l
0.17 -10.28 l
0.18 21.83 l
0.18 -16.18 l
0.18 8.72 l
0.17 -18.12 l
0.18 -4.18 l
0.18 33.53 l
0.17 10.35 l
0.18 -22.85 l
0.18 -2.75 l
0.18 -13.88 l
0.17 -0.87 l
0.18 -10.48 l
0.18 -4.87 l
0.17 11.34 l
0.18 -8.86 l
0.18 1.39 l
0.18 33.84 l
0.17 -9.97 l
0.18 1.28 l
0.18 -20.70 l
0.17 -22.26 l
0.18 6.81 l
0.18 9.46 l
0.17 42.48 l
0.18 -32.90 l
0.18 21.50 l
0.18 -6.64 l
0.17 21.55 l
0.18 -26.60 l
0.18 -7.04 l
0.17 -16.03 l
0.18 17.11 l
0.18 -11.39 l
0.18 33.28 l
0.17 -42.49 l
0.18 39.86 l
0.18 -2.50 l
0.17 -5.34 l
0.18 -1.37 l
0.18 0.72 l
0.17 -14.58 l
0.18 2.65 l
0.18 -15.96 l
0.18 7.96 l
186.88 489.53 lineto
0.18 2.30 l
0.18 -7.79 l
0.17 21.23 l
0.18 -2.07 l
0.18 -5.25 l
0.18 -12.70 l
0.17 10.68 l
0.18 -13.07 l
0.18 -4.48 l
0.17 -8.77 l
0.18 13.96 l
0.18 -12.47 l
0.18 4.72 l
0.17 -4.90 l
0.18 7.30 l
0.18 -6.20 l
0.17 26.76 l
0.18 -20.84 l
0.18 8.26 l
0.17 -2.48 l
0.18 -8.96 l
0.18 16.91 l
0.18 0.58 l
0.17 -17.86 l
0.18 7.09 l
0.18 -13.49 l
0.17 -5.04 l
0.18 28.30 l
0.18 -4.47 l
0.18 1.18 l
0.17 -13.98 l
0.18 25.78 l
0.18 0.61 l
0.17 -33.03 l
0.18 10.00 l
0.18 6.47 l
0.17 -8.54 l
0.18 4.46 l
0.18 18.32 l
0.18 -1.29 l
0.17 6.23 l
0.18 -6.24 l
0.18 -15.14 l
0.17 2.57 l
0.18 1.20 l
0.18 11.72 l
0.18 -22.12 l
0.17 0.49 l
0.18 7.84 l
0.18 -6.51 l
0.17 8.76 l
0.18 16.10 l
0.18 -27.65 l
0.17 16.44 l
0.18 21.32 l
0.18 -8.25 l
0.18 12.64 l
0.17 -9.79 l
0.18 -6.18 l
0.18 -13.68 l
0.17 -12.99 l
0.18 7.47 l
0.18 5.15 l
0.18 18.48 l
0.17 -12.99 l
0.18 -0.79 l
0.18 19.06 l
0.17 -23.57 l
0.18 -13.63 l
0.18 31.20 l
0.18 -17.07 l
0.17 -12.13 l
0.18 -14.86 l
0.18 15.98 l
0.17 0.37 l
0.18 -6.13 l
0.18 3.60 l
0.17 6.30 l
0.18 -3.71 l
0.18 -0.86 l
0.18 34.98 l
0.17 -9.21 l
0.18 -6.79 l
0.18 5.76 l
0.17 -9.59 l
0.18 -19.95 l
0.18 26.31 l
0.18 -11.50 l
0.17 21.48 l
0.18 20.88 l
0.18 -36.27 l
0.17 -6.87 l
0.18 -5.74 l
0.18 16.98 l
0.17 -13.15 l
0.18 4.28 l
0.18 -22.58 l
0.18 41.54 l
0.17 -14.84 l
204.59 489.26 lineto
0.18 -28.04 l
0.17 18.46 l
0.18 2.04 l
0.18 1.88 l
0.18 16.38 l
0.17 -20.96 l
0.18 -1.48 l
0.18 2.48 l
0.17 28.65 l
0.18 -25.71 l
0.18 -22.82 l
0.17 15.15 l
0.18 3.06 l
0.18 7.91 l
0.18 -8.05 l
0.17 -4.87 l
0.18 22.00 l
0.18 -13.68 l
0.17 13.00 l
0.18 -16.54 l
0.18 2.20 l
0.18 17.61 l
0.17 15.57 l
0.18 -36.98 l
0.18 26.27 l
0.17 -14.60 l
0.18 3.97 l
0.18 -26.64 l
0.18 8.78 l
0.17 -0.31 l
0.18 27.68 l
0.18 -11.27 l
0.17 8.69 l
0.18 1.55 l
0.18 1.40 l
0.17 -12.43 l
0.18 -9.14 l
0.18 11.28 l
0.18 2.73 l
0.17 -13.43 l
0.18 3.23 l
0.18 -10.36 l
0.17 9.29 l
0.18 6.76 l
0.18 29.92 l
0.18 -27.93 l
0.17 -12.04 l
0.18 0.72 l
0.18 2.20 l
0.17 -5.36 l
0.18 4.64 l
0.18 -4.30 l
0.17 0.01 l
0.18 4.37 l
0.18 29.26 l
0.18 -14.66 l
0.17 3.42 l
0.18 16.54 l
0.18 -39.07 l
0.17 13.89 l
0.18 12.61 l
0.18 -35.51 l
0.18 12.41 l
0.17 5.30 l
0.18 3.51 l
0.18 19.44 l
0.17 2.27 l
0.18 -14.11 l
0.18 -16.92 l
0.18 -3.59 l
0.17 -9.07 l
0.18 -8.21 l
0.18 6.59 l
0.17 -5.70 l
0.18 10.94 l
0.18 13.41 l
0.17 -12.87 l
0.18 27.19 l
0.18 -32.39 l
0.18 7.37 l
0.17 18.18 l
0.18 10.20 l
0.18 -10.80 l
0.17 -1.50 l
0.18 9.81 l
0.18 8.56 l
0.18 -3.62 l
0.17 6.34 l
0.18 -44.83 l
0.18 4.34 l
0.17 14.02 l
0.18 -14.40 l
0.18 14.66 l
0.17 -18.58 l
0.18 22.84 l
0.18 -17.14 l
0.18 25.35 l
0.17 -35.27 l
0.18 13.05 l
222.30 501.72 lineto
0.17 -1.36 l
0.18 -9.14 l
0.18 24.19 l
0.18 -8.81 l
0.17 6.51 l
0.18 -45.82 l
0.18 33.91 l
0.17 -19.45 l
0.18 1.90 l
0.18 8.72 l
0.17 -15.53 l
0.18 15.29 l
0.18 -16.47 l
0.18 29.21 l
0.17 -9.41 l
0.18 -9.30 l
0.18 -11.92 l
0.17 10.34 l
0.18 -6.45 l
0.18 19.42 l
0.18 3.40 l
0.17 -15.28 l
0.18 20.61 l
0.18 -19.52 l
0.17 -12.73 l
0.18 -0.22 l
0.18 15.10 l
0.18 -4.49 l
0.17 12.40 l
0.18 4.82 l
0.18 14.08 l
0.17 -16.59 l
0.18 7.14 l
0.18 -12.53 l
0.17 13.57 l
0.18 -15.67 l
0.18 10.78 l
0.18 -19.79 l
0.17 22.78 l
0.18 -4.89 l
0.18 -11.62 l
0.17 6.04 l
0.18 4.53 l
0.18 -1.00 l
0.18 2.18 l
0.17 -1.50 l
0.18 19.24 l
0.18 -27.32 l
0.17 -5.06 l
0.18 15.24 l
0.18 -10.90 l
0.17 -4.65 l
0.18 12.82 l
0.18 -16.60 l
0.18 15.26 l
0.17 -21.07 l
0.18 -10.36 l
0.18 22.65 l
0.17 0.37 l
0.18 23.78 l
0.18 -32.15 l
0.18 -1.68 l
0.17 13.69 l
0.18 7.55 l
0.18 -4.73 l
0.17 -18.12 l
0.18 -7.87 l
0.18 12.67 l
0.18 -12.19 l
0.17 29.23 l
0.18 -9.53 l
0.18 -9.91 l
0.17 8.40 l
0.18 0.97 l
0.18 6.18 l
0.17 -21.11 l
0.18 -2.73 l
0.18 1.70 l
0.18 -4.48 l
0.17 27.32 l
0.18 0.19 l
0.18 -18.36 l
0.17 4.64 l
0.18 13.29 l
0.18 -1.58 l
0.18 -12.55 l
0.17 6.40 l
0.18 15.88 l
0.18 -12.87 l
0.17 -23.71 l
0.18 23.65 l
0.18 -10.59 l
0.17 5.36 l
0.18 -11.05 l
0.18 39.26 l
0.18 -18.28 l
0.17 6.56 l
0.18 -6.92 l
0.18 -17.05 l
240.00 510.79 lineto
0.18 -24.81 l
0.18 -17.44 l
0.18 21.22 l
0.17 3.59 l
0.18 5.85 l
0.18 -28.65 l
0.17 20.54 l
0.18 -0.95 l
0.18 2.14 l
0.17 -6.63 l
0.18 4.18 l
0.18 5.45 l
0.18 -3.76 l
0.17 -8.17 l
0.18 11.50 l
0.18 3.96 l
0.17 -8.29 l
0.18 10.29 l
0.18 -1.91 l
0.18 -12.77 l
0.17 17.01 l
0.18 -4.52 l
0.18 -20.72 l
0.17 11.04 l
0.18 2.03 l
0.18 -8.95 l
0.18 18.53 l
0.17 -9.57 l
0.18 -12.24 l
0.18 5.02 l
0.17 -6.09 l
0.18 -2.84 l
0.18 19.39 l
0.17 -20.30 l
0.18 16.13 l
0.18 24.78 l
0.18 -22.61 l
0.17 -13.32 l
0.18 13.13 l
0.18 7.82 l
0.17 1.09 l
0.18 -3.02 l
0.18 -4.68 l
0.18 2.51 l
0.17 -8.79 l
0.18 -11.46 l
0.18 3.17 l
0.17 -13.19 l
0.18 24.00 l
0.18 3.50 l
0.17 -16.19 l
0.18 18.95 l
0.18 -7.76 l
0.18 9.76 l
0.17 -9.96 l
0.18 15.00 l
0.18 -13.45 l
0.17 -1.12 l
0.18 -5.60 l
0.18 6.36 l
0.18 -5.68 l
0.17 -13.86 l
0.18 9.03 l
0.18 13.56 l
0.17 6.44 l
0.18 -1.92 l
0.18 -6.12 l
0.18 -15.56 l
0.17 12.67 l
0.18 -5.89 l
0.18 15.86 l
0.17 -6.25 l
0.18 -0.77 l
0.18 -8.87 l
0.17 7.27 l
0.18 5.90 l
0.18 -27.73 l
0.18 -0.84 l
0.17 -22.78 l
0.18 23.12 l
0.18 20.12 l
0.17 -4.14 l
0.18 8.79 l
0.18 -0.20 l
0.18 -17.95 l
0.17 10.67 l
0.18 -2.63 l
0.18 6.24 l
0.17 7.42 l
0.18 -8.05 l
0.18 -14.20 l
0.17 -8.03 l
0.18 10.56 l
0.18 10.89 l
0.18 -3.53 l
0.17 12.31 l
0.18 5.63 l
0.18 -0.66 l
0.17 -23.68 l
257.71 487.56 lineto
0.18 -9.89 l
0.18 17.59 l
0.17 -13.89 l
0.18 16.77 l
0.18 -7.07 l
0.17 3.50 l
0.18 2.32 l
0.18 -36.83 l
0.17 23.52 l
0.18 -17.01 l
0.18 10.33 l
0.18 -10.72 l
0.17 20.85 l
0.18 2.96 l
0.18 5.01 l
0.17 -3.38 l
0.18 0.52 l
0.18 29.92 l
0.18 -32.96 l
0.17 -12.40 l
0.18 24.65 l
0.18 5.73 l
0.17 -26.61 l
0.18 29.64 l
0.18 -12.06 l
0.18 2.77 l
0.17 -22.73 l
0.18 18.54 l
0.18 5.02 l
0.17 8.04 l
0.18 -37.63 l
0.18 20.04 l
0.17 -18.33 l
0.18 14.12 l
0.18 7.80 l
0.18 -10.28 l
0.17 4.78 l
0.18 -16.16 l
0.18 -5.80 l
0.17 25.83 l
0.18 -10.74 l
0.18 19.64 l
0.18 -2.70 l
0.17 6.02 l
0.18 0.02 l
0.18 -22.42 l
0.17 -14.62 l
0.18 1.93 l
0.18 -0.23 l
0.17 12.12 l
0.18 -13.42 l
0.18 19.64 l
0.18 -22.04 l
0.17 3.47 l
0.18 5.74 l
0.18 13.96 l
0.17 14.48 l
0.18 -40.12 l
0.18 24.76 l
0.18 -16.57 l
0.17 14.41 l
0.18 -31.46 l
0.18 14.46 l
0.17 2.96 l
0.18 22.73 l
0.18 -31.33 l
0.17 9.60 l
0.18 15.35 l
0.18 -10.58 l
0.18 4.81 l
0.17 3.64 l
0.18 -23.39 l
0.18 4.36 l
0.17 33.89 l
0.18 -23.18 l
0.18 1.52 l
0.18 23.96 l
0.17 -12.50 l
0.18 14.14 l
0.18 -20.35 l
0.17 -9.77 l
0.18 2.81 l
0.18 -5.97 l
0.18 -5.23 l
0.17 23.63 l
0.18 0.71 l
0.18 4.45 l
0.17 -0.66 l
0.18 -0.97 l
0.18 -14.82 l
0.17 -13.99 l
0.18 15.70 l
0.18 -5.54 l
0.18 -2.57 l
0.17 40.55 l
0.18 -32.38 l
0.18 25.68 l
0.17 -12.42 l
0.18 0.28 l
275.42 484.49 lineto
0.18 16.50 l
0.17 1.85 l
0.18 -1.14 l
0.18 -27.32 l
0.17 23.15 l
0.18 -13.62 l
0.18 -11.31 l
0.17 -11.75 l
0.18 6.68 l
0.18 7.69 l
0.18 -3.91 l
0.17 11.97 l
0.18 5.61 l
0.18 -20.57 l
0.17 4.57 l
0.18 9.43 l
0.18 24.41 l
0.18 -5.13 l
0.17 7.71 l
0.18 0.58 l
0.18 -24.61 l
0.17 -2.83 l
0.18 1.04 l
0.18 20.73 l
0.18 -36.51 l
0.17 38.33 l
0.18 -15.09 l
0.18 12.52 l
0.17 -10.42 l
0.18 -5.82 l
0.18 15.97 l
0.17 -15.01 l
0.18 -9.77 l
0.18 -12.75 l
0.18 -1.18 l
0.17 27.05 l
0.18 10.83 l
0.18 -3.62 l
0.17 -19.42 l
0.18 17.55 l
0.18 -11.51 l
0.18 5.38 l
0.17 -16.42 l
0.18 19.38 l
0.18 -0.96 l
0.17 -10.16 l
0.18 -1.39 l
0.18 13.28 l
0.17 9.20 l
0.18 -14.15 l
0.18 15.86 l
0.18 -30.17 l
0.17 -0.77 l
0.18 1.94 l
0.18 -1.80 l
0.17 7.24 l
0.18 -7.32 l
0.18 26.35 l
0.18 -34.96 l
0.17 5.81 l
0.18 21.76 l
0.18 -13.14 l
0.17 7.05 l
0.18 6.06 l
0.18 2.30 l
0.17 -10.79 l
0.18 -6.05 l
0.18 -0.73 l
0.18 8.82 l
0.17 -5.12 l
0.18 25.97 l
0.18 -3.52 l
0.17 -4.75 l
0.18 -15.40 l
0.18 20.81 l
0.18 -18.60 l
0.17 17.80 l
0.18 5.10 l
0.18 -35.81 l
0.17 9.69 l
0.18 -3.95 l
0.18 -13.47 l
0.18 30.09 l
0.17 25.80 l
0.18 -41.04 l
0.18 4.66 l
0.17 21.79 l
0.18 -11.32 l
0.18 -12.47 l
0.17 -2.39 l
0.18 2.22 l
0.18 -3.60 l
0.18 7.76 l
0.17 -2.13 l
0.18 4.33 l
0.18 -8.38 l
0.17 20.91 l
0.18 -35.75 l
0.18 23.62 l
o
108.98 259.03 300.02 366.12 cl
108.98 259.03 300.02 366.12 cl
0.5294 0.8078 0.9216 rgb
0.75 setlinewidth
[] 0 setdash
1 setlinecap
1 setlinejoin
10.00 setmiterlimit
np
116.05 290.47 m
3.55 -22.42 l
3.54 6.35 l
3.54 -7.36 l
3.54 6.01 l
3.54 -6.96 l
3.54 7.24 l
3.55 11.70 l
3.54 -3.76 l
3.54 -9.84 l
3.54 8.56 l
3.54 1.13 l
3.54 -6.91 l
3.55 -3.11 l
3.54 -2.05 l
3.54 -3.98 l
3.54 -0.35 l
3.54 2.17 l
3.54 -0.30 l
3.55 -2.41 l
3.54 -0.84 l
3.54 -0.35 l
3.54 0.21 l
3.54 -0.05 l
3.54 0.34 l
3.54 -0.15 l
3.55 -0.02 l
3.54 0.33 l
3.54 -0.06 l
3.54 -0.34 l
3.54 0.34 l
3.54 0.59 l
3.55 -0.28 l
3.54 0.08 l
3.54 0.05 l
3.54 0.06 l
3.54 0.01 l
3.54 0 l
3.55 0.47 l
3.54 -0.95 l
3.54 0.03 l
3.54 0.18 l
3.54 0.01 l
3.54 0.27 l
3.55 -0.41 l
3.54 0.01 l
3.54 0.15 l
3.54 -0.20 l
3.54 0.36 l
3.54 0.05 l
3.36 -0.01 l
o
54.00 216.00 558.00 576.00 cl
0 setgray
0.75 setlinewidth
[] 0 setdash
1 setlinecap
1 setlinejoin
10.00 setmiterlimit
np
153.31 259.03 m
139.80 0 l
o
np
153.31 259.03 m
0 -5.98 l
o
np
199.91 259.03 m
0 -5.98 l
o
np
246.51 259.03 m
0 -5.98 l
o
np
293.11 259.03 m
0 -5.98 l
o
/Font1 findfont 10 s
153.31 241.10 (2000) .5 0 t
199.91 241.10 (4000) .5 0 t
246.51 241.10 (6000) .5 0 t
293.11 241.10 (8000) .5 0 t
np
108.98 263.61 m
0 88.07 l
o
np
108.98 263.61 m
-5.98 0 l
o
np
108.98 281.23 m
-5.98 0 l
o
np
108.98 298.84 m
-5.98 0 l
o
np
108.98 316.45 m
-5.98 0 l
o
np
108.98 334.07 m
-5.98 0 l
o
np
108.98 351.68 m
-5.98 0 l
o
98.22 263.61 (1.00) .5 90 t
98.22 298.84 (1.10) .5 90 t
98.22 334.07 (1.20) .5 90 t
np
108.98 259.03 m
191.04 0 l
0 107.09 l
-191.04 0 l
0 -107.09 l
o
55.20 217.20 306.00 384.05 cl
/Font1 findfont 15 s
0 setgray
136.14 222.57 (last iter) 0 ta
-0.150 (ation in chain) tb gr
79.70 271.73 (shr) 90 ta
0.225 (ink f) tb
-0.450 (actor) tb gr
108.98 259.03 300.02 366.12 cl
0 setgray
0.75 setlinewidth
[ 2.25 3.75] 0 setdash
1 setlinecap
1 setlinejoin
10.00 setmiterlimit
np
116.05 362.15 m
3.55 -81.90 l
3.54 22.02 l
3.54 -28.14 l
3.54 23.69 l
3.54 -19.24 l
3.54 22.91 l
3.55 35.02 l
3.54 -11.80 l
3.54 -33.70 l
3.54 27.02 l
3.54 2.95 l
3.54 -22.39 l
3.55 -9.92 l
3.54 -9.97 l
3.54 -9.06 l
3.54 -1.69 l
3.54 4.94 l
3.54 -0.70 l
3.55 -5.64 l
3.54 -3.01 l
3.54 -0.22 l
3.54 0.61 l
3.54 -0.27 l
3.54 0.62 l
3.54 -0.45 l
3.55 -0.25 l
3.54 0.37 l
3.54 -0.26 l
3.54 -0.34 l
3.54 0.66 l
3.54 1.29 l
3.55 0.14 l
3.54 0.25 l
3.54 0.50 l
3.54 -0.61 l
3.54 -0.56 l
3.54 0.36 l
3.55 1.13 l
3.54 -2.44 l
3.54 -0.36 l
3.54 0.74 l
3.54 0.60 l
3.54 0.94 l
3.55 -1.23 l
3.54 0.04 l
3.54 0.51 l
3.54 -0.73 l
3.54 1.06 l
3.54 -0.05 l
3.36 0.09 l
o
0.75 setlinewidth
[] 0 setdash
np
108.98 263.61 m
191.04 0 l
o
0.5294 0.8078 0.9216 rgb
np
230.07 350.20 m
17.93 0 l
o
0 setgray
0.75 setlinewidth
[ 2.25 3.75] 0 setdash
np
230.07 338.25 m
17.93 0 l
o
/Font1 findfont 10 s
256.97 346.61 (median) 0 0 t
256.97 334.66 (97.5%) 0 0 t
359.78 425.88 550.83 532.97 cl
359.78 425.88 550.83 532.97 cl
0.5294 0.8078 0.9216 rgb
0.75 setlinewidth
[] 0 setdash
1 setlinecap
1 setlinejoin
10.00 setmiterlimit
np
366.86 529.01 m
5.90 -76.29 l
5.89 -9.14 l
5.90 -8.75 l
5.90 -4.16 l
5.89 3.46 l
5.90 -3.26 l
5.89 1.50 l
5.90 -0.72 l
5.90 5.71 l
5.89 -2.43 l
5.90 2.33 l
5.90 -1.42 l
5.89 1.79 l
5.90 -6.26 l
5.90 2.65 l
5.89 -2.45 l
5.90 0.48 l
5.90 3.30 l
5.89 -4.85 l
5.90 3.11 l
5.90 -1.78 l
5.89 0.93 l
5.90 0.34 l
5.89 -1.28 l
5.90 -2.34 l
5.90 0.97 l
5.89 3.40 l
5.90 2.10 l
5.90 -1.67 l
5.89 -2.55 l
o
/bg { 0.5294 0.8078 0.9216 rgb } def
366.86 529.01 1.49 c p3
372.76 452.72 1.49 c p3
378.65 443.58 1.49 c p3
384.55 434.83 1.49 c p3
390.45 430.67 1.49 c p3
396.34 434.13 1.49 c p3
402.24 430.87 1.49 c p3
408.13 432.37 1.49 c p3
414.03 431.65 1.49 c p3
419.93 437.36 1.49 c p3
425.82 434.93 1.49 c p3
431.72 437.26 1.49 c p3
437.62 435.84 1.49 c p3
443.51 437.63 1.49 c p3
449.41 431.37 1.49 c p3
455.31 434.02 1.49 c p3
461.20 431.57 1.49 c p3
467.10 432.05 1.49 c p3
473.00 435.35 1.49 c p3
478.89 430.50 1.49 c p3
484.79 433.61 1.49 c p3
490.69 431.83 1.49 c p3
496.58 432.76 1.49 c p3
502.48 433.10 1.49 c p3
508.37 431.82 1.49 c p3
514.27 429.48 1.49 c p3
520.17 430.45 1.49 c p3
526.06 433.85 1.49 c p3
531.96 435.95 1.49 c p3
537.86 434.28 1.49 c p3
543.75 431.73 1.49 c p3
54.00 216.00 558.00 576.00 cl
0 setgray
0.75 setlinewidth
[] 0 setdash
1 setlinecap
1 setlinejoin
10.00 setmiterlimit
np
366.86 425.88 m
147.41 0 l
o
np
366.86 425.88 m
0 -5.98 l
o
np
403.71 425.88 m
0 -5.98 l
o
np
440.57 425.88 m
0 -5.98 l
o
np
477.42 425.88 m
0 -5.98 l
o
np
514.27 425.88 m
0 -5.98 l
o
/Font1 findfont 10 s
366.86 407.95 (0) .5 0 t
403.71 407.95 (50) .5 0 t
440.57 407.95 (100) .5 0 t
477.42 407.95 (150) .5 0 t
514.27 407.95 (200) .5 0 t
np
359.78 429.85 m
0 99.16 l
o
np
359.78 429.85 m
-5.97 0 l
o
np
359.78 449.68 m
-5.97 0 l
o
np
359.78 469.51 m
-5.97 0 l
o
np
359.78 489.34 m
-5.97 0 l
o
np
359.78 509.17 m
-5.97 0 l
o
np
359.78 529.01 m
-5.97 0 l
o
349.03 429.85 (0.0) .5 90 t
349.03 469.51 (0.4) .5 90 t
349.03 509.17 (0.8) .5 90 t
np
359.78 425.88 m
191.05 0 l
0 107.09 l
-191.05 0 l
0 -107.09 l
o
306.00 384.05 556.80 550.90 cl
/Font1 findfont 15 s
0 setgray
455.31 389.43 (Lag) .5 0 t
330.50 428.99 (A) 90 ta
-0.450 (utocorrelation) tb gr
359.78 425.88 550.83 532.97 cl
0 setgray
0.75 setlinewidth
[ 2.25 3.75] 0 setdash
1 setlinecap
1 setlinejoin
10.00 setmiterlimit
np
366.86 529.01 m
5.90 -78.91 l
5.89 -2.49 l
5.90 -4.69 l
5.90 -3.07 l
5.89 -2.31 l
5.90 -6.44 l
5.89 5.58 l
5.90 -6.06 l
5.90 3.84 l
5.89 -2.40 l
5.90 -2.53 l
5.90 0.01 l
5.89 2.47 l
5.90 -0.55 l
5.90 -2.35 l
5.89 -5.58 l
5.90 4.24 l
5.90 -2.28 l
5.89 1.91 l
5.90 -0.69 l
5.90 1.36 l
5.89 -1.77 l
5.90 1.08 l
5.89 -2.68 l
5.90 -5.07 l
5.90 6.95 l
5.89 1.95 l
5.90 0.71 l
5.90 -0.58 l
5.89 0.13 l
o
/bg { 0 setgray } def
0.75 setlinewidth
[] 0 setdash
366.86 529.01 1.49 c p3
372.76 450.10 1.49 c p3
378.65 447.61 1.49 c p3
384.55 442.92 1.49 c p3
390.45 439.85 1.49 c p3
396.34 437.54 1.49 c p3
402.24 431.10 1.49 c p3
408.13 436.68 1.49 c p3
414.03 430.62 1.49 c p3
419.93 434.46 1.49 c p3
425.82 432.06 1.49 c p3
431.72 429.53 1.49 c p3
437.62 429.54 1.49 c p3
443.51 432.01 1.49 c p3
449.41 431.46 1.49 c p3
455.31 429.11 1.49 c p3
461.20 423.53 1.49 c p3
467.10 427.77 1.49 c p3
473.00 425.49 1.49 c p3
478.89 427.40 1.49 c p3
484.79 426.71 1.49 c p3
490.69 428.07 1.49 c p3
496.58 426.30 1.49 c p3
502.48 427.38 1.49 c p3
508.37 424.70 1.49 c p3
514.27 419.63 1.49 c p3
520.17 426.58 1.49 c p3
526.06 428.53 1.49 c p3
531.96 429.24 1.49 c p3
537.86 428.66 1.49 c p3
543.75 428.79 1.49 c p3
0.2549 0.4118 0.8824 rgb
0.75 setlinewidth
[ 0.00 3.00] 0 setdash
np
366.86 529.01 m
5.90 -72.83 l
5.89 -8.70 l
5.90 -10.76 l
5.90 -1.13 l
5.89 -9.06 l
5.90 -0.91 l
5.89 -1.39 l
5.90 6.07 l
5.90 -1.29 l
5.89 3.86 l
5.90 -4.27 l
5.90 -0.53 l
5.89 2.05 l
5.90 -1.31 l
5.90 -0.06 l
5.89 1.84 l
5.90 -1.60 l
5.90 -1.65 l
5.89 2.05 l
5.90 0.08 l
5.90 -0.15 l
5.89 1.09 l
5.90 1.49 l
5.89 -0.79 l
5.90 -0.75 l
5.90 -4.18 l
5.89 7.06 l
5.90 -4.70 l
5.90 1.63 l
5.89 -1.17 l
o
/bg { 0.2549 0.4118 0.8824 rgb } def
0.75 setlinewidth
[] 0 setdash
366.86 529.01 1.49 c p3
372.76 456.18 1.49 c p3
378.65 447.48 1.49 c p3
384.55 436.72 1.49 c p3
390.45 435.59 1.49 c p3
396.34 426.53 1.49 c p3
402.24 425.62 1.49 c p3
408.13 424.23 1.49 c p3
414.03 430.30 1.49 c p3
419.93 429.01 1.49 c p3
425.82 432.87 1.49 c p3
431.72 428.60 1.49 c p3
437.62 428.07 1.49 c p3
443.51 430.12 1.49 c p3
449.41 428.81 1.49 c p3
455.31 428.75 1.49 c p3
461.20 430.59 1.49 c p3
467.10 428.99 1.49 c p3
473.00 427.34 1.49 c p3
478.89 429.39 1.49 c p3
484.79 429.47 1.49 c p3
490.69 429.32 1.49 c p3
496.58 430.41 1.49 c p3
502.48 431.90 1.49 c p3
508.37 431.11 1.49 c p3
514.27 430.36 1.49 c p3
520.17 426.18 1.49 c p3
526.06 433.24 1.49 c p3
531.96 428.54 1.49 c p3
537.86 430.17 1.49 c p3
543.75 429.00 1.49 c p3
0 setgray
0.75 setlinewidth
[ 2.25 3.75] 0 setdash
np
359.78 429.85 m
191.05 0 l
o
/Font1 findfont 12 s
543.75 520.39 (ESS = 1404) 1 0 t
359.78 259.03 550.83 366.12 cl
359.78 259.03 550.83 366.12 cl
0.5294 0.8078 0.9216 rgb
0.75 setlinewidth
[] 0 setdash
1 setlinecap
1 setlinejoin
10.00 setmiterlimit
np
366.86 262.99 m
0.35 0 l
0.34 0.01 l
0.35 0 l
0.34 0 l
0.35 0 l
0.35 0.01 l
0.34 0 l
0.35 0 l
0.35 0.01 l
0.34 0.01 l
0.35 0 l
0.34 0.01 l
0.35 0.01 l
0.35 0.01 l
0.34 0.01 l
0.35 0.01 l
0.34 0.02 l
0.35 0.01 l
0.35 0.02 l
0.34 0.01 l
0.35 0.02 l
0.35 0.02 l
0.34 0.02 l
0.35 0.02 l
0.34 0.02 l
0.35 0.01 l
0.35 0.02 l
0.34 0.02 l
0.35 0.02 l
0.34 0.02 l
0.35 0.01 l
0.35 0.02 l
0.34 0.01 l
0.35 0.01 l
0.35 0.01 l
0.34 0 l
0.35 0.01 l
0.34 0 l
0.35 0 l
0.35 -0.01 l
0.34 -0.01 l
0.35 0 l
0.35 -0.02 l
0.34 -0.01 l
0.35 -0.01 l
0.34 -0.02 l
0.35 -0.02 l
0.35 -0.02 l
0.34 -0.02 l
0.35 -0.02 l
0.34 -0.01 l
0.35 -0.02 l
0.35 -0.02 l
0.34 -0.02 l
0.35 -0.02 l
0.35 -0.01 l
0.34 -0.01 l
0.35 -0.02 l
0.34 -0.01 l
0.35 -0.01 l
0.35 0 l
0.34 -0.01 l
0.35 0 l
0.34 0 l
0.35 0 l
0.35 0.01 l
0.34 0.01 l
0.35 0.01 l
0.35 0.01 l
0.34 0.02 l
0.35 0.02 l
0.34 0.03 l
0.35 0.03 l
0.35 0.03 l
0.34 0.04 l
0.35 0.04 l
0.34 0.05 l
0.35 0.05 l
0.35 0.06 l
0.34 0.06 l
0.35 0.06 l
0.35 0.06 l
0.34 0.07 l
0.35 0.08 l
0.34 0.07 l
0.35 0.07 l
0.35 0.08 l
0.34 0.08 l
0.35 0.07 l
0.35 0.07 l
0.34 0.08 l
0.35 0.07 l
0.34 0.06 l
0.35 0.06 l
0.35 0.06 l
0.34 0.06 l
0.35 0.04 l
0.34 0.05 l
0.35 0.04 l
401.48 264.81 lineto
0.34 0.03 l
0.35 0.03 l
0.35 0.03 l
0.34 0.02 l
0.35 0.02 l
0.34 0.02 l
0.35 0.02 l
0.35 0.02 l
0.34 0.02 l
0.35 0.02 l
0.34 0.03 l
0.35 0.03 l
0.35 0.03 l
0.34 0.03 l
0.35 0.04 l
0.35 0.04 l
0.34 0.05 l
0.35 0.05 l
0.34 0.05 l
0.35 0.05 l
0.35 0.06 l
0.34 0.06 l
0.35 0.07 l
0.34 0.06 l
0.35 0.07 l
0.35 0.08 l
0.34 0.08 l
0.35 0.08 l
0.35 0.08 l
0.34 0.09 l
0.35 0.10 l
0.34 0.10 l
0.35 0.10 l
0.35 0.12 l
0.34 0.12 l
0.35 0.13 l
0.35 0.14 l
0.34 0.15 l
0.35 0.16 l
0.34 0.17 l
0.35 0.18 l
0.35 0.19 l
0.34 0.21 l
0.35 0.21 l
0.34 0.23 l
0.35 0.23 l
0.35 0.25 l
0.34 0.26 l
0.35 0.27 l
0.35 0.28 l
0.34 0.29 l
0.35 0.29 l
0.34 0.31 l
0.35 0.31 l
0.35 0.32 l
0.34 0.33 l
0.35 0.33 l
0.34 0.34 l
0.35 0.34 l
0.35 0.35 l
0.34 0.36 l
0.35 0.36 l
0.35 0.36 l
0.34 0.38 l
0.35 0.37 l
0.34 0.39 l
0.35 0.38 l
0.35 0.40 l
0.34 0.40 l
0.35 0.41 l
0.34 0.42 l
0.35 0.42 l
0.35 0.44 l
0.34 0.44 l
0.35 0.44 l
0.35 0.46 l
0.34 0.46 l
0.35 0.47 l
0.34 0.48 l
0.35 0.48 l
0.35 0.49 l
0.34 0.49 l
0.35 0.50 l
0.35 0.50 l
0.34 0.50 l
0.35 0.50 l
0.34 0.51 l
0.35 0.50 l
0.35 0.50 l
0.34 0.50 l
0.35 0.50 l
0.34 0.50 l
0.35 0.50 l
0.35 0.49 l
0.34 0.50 l
0.35 0.49 l
0.35 0.49 l
0.34 0.49 l
0.35 0.50 l
436.09 291.25 lineto
0.35 0.50 l
0.35 0.51 l
0.34 0.52 l
0.35 0.54 l
0.34 0.54 l
0.35 0.56 l
0.35 0.57 l
0.34 0.60 l
0.35 0.62 l
0.35 0.64 l
0.34 0.67 l
0.35 0.69 l
0.34 0.72 l
0.35 0.75 l
0.35 0.78 l
0.34 0.81 l
0.35 0.84 l
0.34 0.87 l
0.35 0.89 l
0.35 0.92 l
0.34 0.95 l
0.35 0.97 l
0.35 0.99 l
0.34 1.01 l
0.35 1.02 l
0.34 1.03 l
0.35 1.05 l
0.35 1.05 l
0.34 1.05 l
0.35 1.05 l
0.35 1.06 l
0.34 1.05 l
0.35 1.05 l
0.34 1.04 l
0.35 1.04 l
0.35 1.04 l
0.34 1.03 l
0.35 1.02 l
0.34 1.03 l
0.35 1.02 l
0.35 1.02 l
0.34 1.02 l
0.35 1.02 l
0.35 1.02 l
0.34 1.03 l
0.35 1.02 l
0.34 1.03 l
0.35 1.02 l
0.35 1.03 l
0.34 1.01 l
0.35 1.02 l
0.34 1.00 l
0.35 1.00 l
0.35 0.97 l
0.34 0.97 l
0.35 0.94 l
0.35 0.92 l
0.34 0.89 l
0.35 0.86 l
0.34 0.84 l
0.35 0.80 l
0.35 0.77 l
0.34 0.74 l
0.35 0.70 l
0.35 0.67 l
0.34 0.64 l
0.35 0.61 l
0.34 0.57 l
0.35 0.54 l
0.35 0.52 l
0.34 0.48 l
0.35 0.45 l
0.34 0.43 l
0.35 0.39 l
0.35 0.36 l
0.34 0.33 l
0.35 0.29 l
0.35 0.26 l
0.34 0.23 l
0.35 0.18 l
0.34 0.13 l
0.35 0.09 l
0.35 0.03 l
0.34 -0.01 l
0.35 -0.06 l
0.34 -0.12 l
0.35 -0.19 l
0.35 -0.24 l
0.34 -0.29 l
0.35 -0.35 l
0.35 -0.40 l
0.34 -0.46 l
0.35 -0.51 l
0.34 -0.56 l
0.35 -0.59 l
0.35 -0.63 l
0.34 -0.65 l
0.35 -0.68 l
0.34 -0.70 l
470.71 348.03 lineto
0.35 -0.71 l
0.34 -0.71 l
0.35 -0.70 l
0.35 -0.69 l
0.34 -0.68 l
0.35 -0.65 l
0.34 -0.64 l
0.35 -0.61 l
0.35 -0.60 l
0.34 -0.57 l
0.35 -0.56 l
0.35 -0.54 l
0.34 -0.53 l
0.35 -0.52 l
0.34 -0.52 l
0.35 -0.53 l
0.35 -0.53 l
0.34 -0.54 l
0.35 -0.57 l
0.34 -0.59 l
0.35 -0.61 l
0.35 -0.65 l
0.34 -0.68 l
0.35 -0.72 l
0.35 -0.75 l
0.34 -0.79 l
0.35 -0.82 l
0.34 -0.86 l
0.35 -0.89 l
0.35 -0.92 l
0.34 -0.94 l
0.35 -0.95 l
0.34 -0.97 l
0.35 -0.98 l
0.35 -0.98 l
0.34 -0.98 l
0.35 -0.97 l
0.35 -0.96 l
0.34 -0.94 l
0.35 -0.93 l
0.34 -0.90 l
0.35 -0.88 l
0.35 -0.85 l
0.34 -0.83 l
0.35 -0.82 l
0.34 -0.79 l
0.35 -0.77 l
0.35 -0.76 l
0.34 -0.75 l
0.35 -0.74 l
0.35 -0.74 l
0.34 -0.74 l
0.35 -0.74 l
0.34 -0.75 l
0.35 -0.76 l
0.35 -0.77 l
0.34 -0.79 l
0.35 -0.80 l
0.35 -0.81 l
0.34 -0.82 l
0.35 -0.84 l
0.34 -0.84 l
0.35 -0.85 l
0.35 -0.86 l
0.34 -0.85 l
0.35 -0.84 l
0.34 -0.84 l
0.35 -0.83 l
0.35 -0.81 l
0.34 -0.79 l
0.35 -0.78 l
0.35 -0.74 l
0.34 -0.72 l
0.35 -0.69 l
0.34 -0.67 l
0.35 -0.64 l
0.35 -0.61 l
0.34 -0.59 l
0.35 -0.56 l
0.34 -0.54 l
0.35 -0.52 l
0.35 -0.50 l
0.34 -0.49 l
0.35 -0.48 l
0.35 -0.48 l
0.34 -0.47 l
0.35 -0.48 l
0.34 -0.48 l
0.35 -0.49 l
0.35 -0.50 l
0.34 -0.51 l
0.35 -0.53 l
0.34 -0.55 l
0.35 -0.57 l
0.35 -0.58 l
0.34 -0.60 l
0.35 -0.63 l
0.35 -0.63 l
0.34 -0.65 l
505.33 277.24 lineto
0.34 -0.67 l
0.35 -0.67 l
0.35 -0.68 l
0.34 -0.68 l
0.35 -0.68 l
0.35 -0.66 l
0.34 -0.65 l
0.35 -0.64 l
0.34 -0.62 l
0.35 -0.59 l
0.35 -0.58 l
0.34 -0.54 l
0.35 -0.52 l
0.34 -0.49 l
0.35 -0.45 l
0.35 -0.43 l
0.34 -0.39 l
0.35 -0.36 l
0.35 -0.33 l
0.34 -0.30 l
0.35 -0.26 l
0.34 -0.24 l
0.35 -0.21 l
0.35 -0.18 l
0.34 -0.16 l
0.35 -0.14 l
0.34 -0.11 l
0.35 -0.09 l
0.35 -0.07 l
0.34 -0.06 l
0.35 -0.05 l
0.35 -0.03 l
0.34 -0.02 l
0.35 -0.01 l
0.34 0 l
0.35 0 l
0.35 0 l
0.34 0.01 l
0.35 0.02 l
0.34 0.01 l
0.35 0.01 l
0.35 0.02 l
0.34 0.01 l
0.35 0.01 l
0.35 0.01 l
0.34 0.01 l
0.35 0 l
0.34 0.01 l
0.35 0 l
0.35 0 l
0.34 0.01 l
0.35 0 l
0.35 0 l
0.34 0.01 l
0.35 0 l
0.34 0 l
0.35 0.01 l
0.35 0.01 l
0.34 0.01 l
0.35 0 l
0.34 0.01 l
0.35 0.01 l
0.35 0 l
0.34 0.01 l
0.35 0 l
0.35 0 l
0.34 -0.01 l
0.35 -0.01 l
0.34 -0.02 l
0.35 -0.02 l
0.35 -0.03 l
0.34 -0.03 l
0.35 -0.04 l
0.34 -0.05 l
0.35 -0.05 l
0.35 -0.06 l
0.34 -0.07 l
0.35 -0.06 l
0.35 -0.08 l
0.34 -0.07 l
0.35 -0.08 l
0.34 -0.08 l
0.35 -0.08 l
0.35 -0.08 l
0.34 -0.08 l
0.35 -0.08 l
0.34 -0.07 l
0.35 -0.07 l
0.35 -0.07 l
0.34 -0.07 l
0.35 -0.06 l
0.35 -0.05 l
0.34 -0.06 l
0.35 -0.04 l
0.34 -0.05 l
0.35 -0.03 l
0.35 -0.04 l
0.34 -0.03 l
0.35 -0.03 l
539.95 263.11 lineto
0.34 -0.02 l
0.35 -0.02 l
0.34 -0.01 l
0.35 -0.01 l
0.35 -0.01 l
0.34 -0.01 l
0.35 -0.01 l
0.34 -0.01 l
0.35 0 l
0.35 -0.01 l
0.34 0 l
o
54.00 216.00 558.00 576.00 cl
0 setgray
0.75 setlinewidth
[] 0 setdash
1 setlinecap
1 setlinejoin
10.00 setmiterlimit
np
365.99 259.03 m
158.12 0 l
o
np
365.99 259.03 m
0 -5.98 l
o
np
397.62 259.03 m
0 -5.98 l
o
np
429.24 259.03 m
0 -5.98 l
o
np
460.86 259.03 m
0 -5.98 l
o
np
492.49 259.03 m
0 -5.98 l
o
np
524.11 259.03 m
0 -5.98 l
o
/Font1 findfont 10 s
365.99 241.10 (0.72) .5 0 t
397.62 241.10 (0.73) .5 0 t
429.24 241.10 (0.74) .5 0 t
460.86 241.10 (0.75) .5 0 t
492.49 241.10 (0.76) .5 0 t
524.11 241.10 (0.77) .5 0 t
np
359.78 262.99 m
0 98.91 l
o
np
359.78 262.99 m
-5.97 0 l
o
np
359.78 277.12 m
-5.97 0 l
o
np
359.78 291.25 m
-5.97 0 l
o
np
359.78 305.38 m
-5.97 0 l
o
np
359.78 319.51 m
-5.97 0 l
o
np
359.78 333.64 m
-5.97 0 l
o
np
359.78 347.77 m
-5.97 0 l
o
np
359.78 361.90 m
-5.97 0 l
o
349.03 262.99 (0) .5 90 t
349.03 291.25 (20) .5 90 t
349.03 319.51 (40) .5 90 t
349.03 347.77 (60) .5 90 t
np
359.78 259.03 m
191.05 0 l
0 107.09 l
-191.05 0 l
0 -107.09 l
o
306.00 217.20 556.80 384.05 cl
/Font1 findfont 15 s
0 setgray
409.87 222.57 (P) 0 ta
-0.600 (ar) tb
-0.150 (am. V) tb
-1.050 (alue) tb gr
330.50 312.57 (Density) .5 90 t
359.78 259.03 550.83 366.12 cl
0 setgray
0.75 setlinewidth
[ 2.25 3.75] 0 setdash
1 setlinecap
1 setlinejoin
10.00 setmiterlimit
np
391.29 262.99 m
0.29 0.01 l
0.29 0 l
0.29 0 l
0.29 0 l
0.29 0 l
0.29 0.01 l
0.29 0 l
0.29 0 l
0.29 0.01 l
0.29 0.01 l
0.29 0 l
0.28 0.01 l
0.29 0.01 l
0.29 0.01 l
0.29 0.01 l
0.29 0.01 l
0.29 0.02 l
0.29 0.01 l
0.29 0.02 l
0.29 0.02 l
0.29 0.02 l
0.29 0.02 l
0.29 0.03 l
0.29 0.02 l
0.29 0.03 l
0.29 0.04 l
0.29 0.03 l
0.29 0.04 l
0.29 0.04 l
0.29 0.04 l
0.29 0.04 l
0.29 0.05 l
0.28 0.05 l
0.29 0.05 l
0.29 0.05 l
0.29 0.06 l
0.29 0.05 l
0.29 0.06 l
0.29 0.06 l
0.29 0.07 l
0.29 0.06 l
0.29 0.07 l
0.29 0.07 l
0.29 0.07 l
0.29 0.07 l
0.29 0.07 l
0.29 0.08 l
0.29 0.07 l
0.29 0.07 l
0.29 0.08 l
0.29 0.08 l
0.29 0.07 l
0.29 0.08 l
0.28 0.08 l
0.29 0.08 l
0.29 0.07 l
0.29 0.08 l
0.29 0.08 l
0.29 0.07 l
0.29 0.08 l
0.29 0.07 l
0.29 0.07 l
0.29 0.07 l
0.29 0.07 l
0.29 0.07 l
0.29 0.06 l
0.29 0.06 l
0.29 0.06 l
0.29 0.06 l
0.29 0.05 l
0.29 0.06 l
0.29 0.05 l
0.29 0.05 l
0.29 0.04 l
0.28 0.04 l
0.29 0.05 l
0.29 0.03 l
0.29 0.04 l
0.29 0.04 l
0.29 0.03 l
0.29 0.03 l
0.29 0.03 l
0.29 0.04 l
0.29 0.03 l
0.29 0.03 l
0.29 0.04 l
0.29 0.04 l
0.29 0.04 l
0.29 0.04 l
0.29 0.06 l
0.29 0.05 l
0.29 0.07 l
0.29 0.08 l
0.29 0.08 l
0.29 0.11 l
0.28 0.11 l
0.29 0.13 l
0.29 0.14 l
0.29 0.17 l
420.24 268.05 lineto
0.29 0.21 l
0.29 0.22 l
0.29 0.24 l
0.29 0.27 l
0.29 0.29 l
0.29 0.32 l
0.29 0.34 l
0.29 0.36 l
0.29 0.38 l
0.29 0.41 l
0.29 0.42 l
0.29 0.45 l
0.29 0.47 l
0.29 0.48 l
0.29 0.49 l
0.29 0.52 l
0.28 0.52 l
0.29 0.54 l
0.29 0.54 l
0.29 0.55 l
0.29 0.56 l
0.29 0.56 l
0.29 0.56 l
0.29 0.56 l
0.29 0.57 l
0.29 0.56 l
0.29 0.55 l
0.29 0.56 l
0.29 0.54 l
0.29 0.55 l
0.29 0.54 l
0.29 0.53 l
0.29 0.53 l
0.29 0.53 l
0.29 0.52 l
0.29 0.52 l
0.29 0.51 l
0.28 0.51 l
0.29 0.51 l
0.29 0.50 l
0.29 0.51 l
0.29 0.50 l
0.29 0.50 l
0.29 0.51 l
0.29 0.50 l
0.29 0.50 l
0.29 0.51 l
0.29 0.51 l
0.29 0.50 l
0.29 0.51 l
0.29 0.51 l
0.29 0.51 l
0.29 0.50 l
0.29 0.51 l
0.29 0.50 l
0.29 0.50 l
0.29 0.50 l
0.29 0.49 l
0.28 0.49 l
0.29 0.48 l
0.29 0.48 l
0.29 0.46 l
0.29 0.46 l
0.29 0.45 l
0.29 0.43 l
0.29 0.43 l
0.29 0.41 l
0.29 0.40 l
0.29 0.39 l
0.29 0.38 l
0.29 0.36 l
0.29 0.35 l
0.29 0.35 l
0.29 0.33 l
0.29 0.32 l
0.29 0.32 l
0.29 0.31 l
0.29 0.30 l
0.29 0.31 l
0.28 0.30 l
0.29 0.31 l
0.29 0.32 l
0.29 0.33 l
0.29 0.33 l
0.29 0.36 l
0.29 0.38 l
0.29 0.40 l
0.29 0.43 l
0.29 0.45 l
0.29 0.49 l
0.29 0.52 l
0.29 0.56 l
0.29 0.60 l
0.29 0.63 l
0.29 0.68 l
0.29 0.71 l
0.29 0.77 l
0.29 0.80 l
0.29 0.84 l
449.20 315.20 lineto
0.28 0.91 l
0.29 0.95 l
0.29 0.98 l
0.29 1.01 l
0.29 1.04 l
0.29 1.06 l
0.29 1.08 l
0.29 1.10 l
0.29 1.11 l
0.29 1.13 l
0.29 1.14 l
0.29 1.15 l
0.29 1.15 l
0.29 1.16 l
0.29 1.16 l
0.29 1.17 l
0.29 1.17 l
0.29 1.16 l
0.29 1.17 l
0.29 1.16 l
0.29 1.17 l
0.28 1.16 l
0.29 1.16 l
0.29 1.15 l
0.29 1.15 l
0.29 1.14 l
0.29 1.13 l
0.29 1.12 l
0.29 1.11 l
0.29 1.09 l
0.29 1.08 l
0.29 1.05 l
0.29 1.03 l
0.29 1.00 l
0.29 0.97 l
0.29 0.93 l
0.29 0.89 l
0.29 0.85 l
0.29 0.80 l
0.29 0.75 l
0.29 0.69 l
0.29 0.64 l
0.28 0.58 l
0.29 0.53 l
0.29 0.45 l
0.29 0.39 l
0.29 0.32 l
0.29 0.26 l
0.29 0.20 l
0.29 0.14 l
0.29 0.06 l
0.29 0 l
0.29 -0.05 l
0.29 -0.11 l
0.29 -0.15 l
0.29 -0.22 l
0.29 -0.26 l
0.29 -0.30 l
0.29 -0.34 l
0.29 -0.38 l
0.29 -0.40 l
0.29 -0.44 l
0.29 -0.46 l
0.28 -0.47 l
0.29 -0.50 l
0.29 -0.50 l
0.29 -0.52 l
0.29 -0.53 l
0.29 -0.54 l
0.29 -0.54 l
0.29 -0.55 l
0.29 -0.55 l
0.29 -0.56 l
0.29 -0.56 l
0.29 -0.57 l
0.29 -0.57 l
0.29 -0.58 l
0.29 -0.59 l
0.29 -0.60 l
0.29 -0.62 l
0.29 -0.63 l
0.29 -0.64 l
0.29 -0.66 l
0.29 -0.69 l
0.29 -0.71 l
0.28 -0.72 l
0.29 -0.75 l
0.29 -0.78 l
0.29 -0.80 l
0.29 -0.83 l
0.29 -0.86 l
0.29 -0.88 l
0.29 -0.90 l
0.29 -0.93 l
0.29 -0.96 l
0.29 -0.97 l
0.29 -1.00 l
0.29 -1.01 l
0.29 -1.03 l
478.15 332.90 lineto
0.29 -1.06 l
0.29 -1.06 l
0.29 -1.07 l
0.29 -1.08 l
0.29 -1.08 l
0.29 -1.07 l
0.28 -1.07 l
0.29 -1.06 l
0.29 -1.06 l
0.29 -1.03 l
0.29 -1.02 l
0.29 -1.00 l
0.29 -0.98 l
0.29 -0.95 l
0.29 -0.93 l
0.29 -0.89 l
0.29 -0.86 l
0.29 -0.83 l
0.29 -0.79 l
0.29 -0.76 l
0.29 -0.72 l
0.29 -0.68 l
0.29 -0.64 l
0.29 -0.61 l
0.29 -0.58 l
0.29 -0.55 l
0.29 -0.51 l
0.28 -0.49 l
0.29 -0.47 l
0.29 -0.45 l
0.29 -0.43 l
0.29 -0.42 l
0.29 -0.41 l
0.29 -0.40 l
0.29 -0.40 l
0.29 -0.41 l
0.29 -0.41 l
0.29 -0.42 l
0.29 -0.44 l
0.29 -0.45 l
0.29 -0.46 l
0.29 -0.47 l
0.29 -0.50 l
0.29 -0.52 l
0.29 -0.53 l
0.29 -0.54 l
0.29 -0.56 l
0.29 -0.57 l
0.28 -0.59 l
0.29 -0.59 l
0.29 -0.59 l
0.29 -0.60 l
0.29 -0.60 l
0.29 -0.60 l
0.29 -0.58 l
0.29 -0.59 l
0.29 -0.57 l
0.29 -0.55 l
0.29 -0.55 l
0.29 -0.52 l
0.29 -0.52 l
0.29 -0.49 l
0.29 -0.48 l
0.29 -0.47 l
0.29 -0.44 l
0.29 -0.43 l
0.29 -0.42 l
0.29 -0.41 l
0.29 -0.40 l
0.28 -0.40 l
0.29 -0.38 l
0.29 -0.38 l
0.29 -0.38 l
0.29 -0.38 l
0.29 -0.38 l
0.29 -0.38 l
0.29 -0.38 l
0.29 -0.39 l
0.29 -0.39 l
0.29 -0.40 l
0.29 -0.40 l
0.29 -0.41 l
0.29 -0.41 l
0.29 -0.41 l
0.29 -0.42 l
0.29 -0.41 l
0.29 -0.42 l
0.29 -0.41 l
0.29 -0.41 l
0.29 -0.41 l
0.28 -0.40 l
0.29 -0.39 l
0.29 -0.38 l
0.29 -0.38 l
0.29 -0.36 l
0.29 -0.36 l
0.29 -0.33 l
0.29 -0.33 l
0.29 -0.31 l
507.10 276.32 lineto
0.29 -0.29 l
0.29 -0.27 l
0.29 -0.26 l
0.29 -0.26 l
0.29 -0.24 l
0.29 -0.23 l
0.29 -0.23 l
0.29 -0.22 l
0.29 -0.21 l
0.29 -0.20 l
0.29 -0.21 l
0.28 -0.20 l
0.29 -0.19 l
0.29 -0.20 l
0.29 -0.19 l
0.29 -0.20 l
0.29 -0.19 l
0.29 -0.20 l
0.29 -0.20 l
0.29 -0.19 l
0.29 -0.20 l
0.29 -0.20 l
0.29 -0.19 l
0.29 -0.20 l
0.29 -0.19 l
0.29 -0.19 l
0.29 -0.19 l
0.29 -0.19 l
0.29 -0.18 l
0.29 -0.17 l
0.29 -0.18 l
0.29 -0.16 l
0.28 -0.16 l
0.29 -0.16 l
0.29 -0.15 l
0.29 -0.15 l
0.29 -0.14 l
0.29 -0.13 l
0.29 -0.13 l
0.29 -0.13 l
0.29 -0.13 l
0.29 -0.12 l
0.29 -0.12 l
0.29 -0.11 l
0.29 -0.12 l
0.29 -0.12 l
0.29 -0.11 l
0.29 -0.12 l
0.29 -0.12 l
0.29 -0.12 l
0.29 -0.12 l
0.29 -0.12 l
0.29 -0.13 l
0.28 -0.13 l
0.29 -0.13 l
0.29 -0.13 l
0.29 -0.13 l
0.29 -0.14 l
0.29 -0.13 l
0.29 -0.14 l
0.29 -0.13 l
0.29 -0.14 l
0.29 -0.14 l
0.29 -0.13 l
0.29 -0.14 l
0.29 -0.13 l
0.29 -0.13 l
0.29 -0.13 l
0.29 -0.12 l
0.29 -0.13 l
0.29 -0.11 l
0.29 -0.12 l
0.29 -0.11 l
0.29 -0.11 l
0.28 -0.10 l
0.29 -0.09 l
0.29 -0.10 l
0.29 -0.08 l
0.29 -0.09 l
0.29 -0.07 l
0.29 -0.08 l
0.29 -0.06 l
0.29 -0.07 l
0.29 -0.05 l
0.29 -0.06 l
0.29 -0.05 l
0.29 -0.04 l
0.29 -0.05 l
0.29 -0.03 l
0.29 -0.04 l
0.29 -0.03 l
0.29 -0.02 l
0.29 -0.03 l
0.29 -0.02 l
0.29 -0.02 l
0.28 -0.02 l
0.29 -0.01 l
0.29 -0.02 l
0.29 -0.01 l
536.05 263.04 lineto
0.29 -0.01 l
0.29 0 l
0.29 -0.01 l
0.29 0 l
0.29 -0.01 l
0.29 0 l
0.29 -0.01 l
0.29 0 l
0.29 0 l
0.29 0 l
0.29 0 l
o
0.2549 0.4118 0.8824 rgb
0.75 setlinewidth
[ 0.00 3.00] 0 setdash
np
386.33 263.00 m
0.31 0 l
0.31 0 l
0.30 0 l
0.31 0.01 l
0.30 0 l
0.31 0 l
0.31 0.01 l
0.30 0 l
0.31 0.01 l
0.30 0.01 l
0.31 0 l
0.31 0.01 l
0.30 0.01 l
0.31 0.01 l
0.30 0.01 l
0.31 0.02 l
0.30 0.01 l
0.31 0.02 l
0.31 0.02 l
0.30 0.02 l
0.31 0.02 l
0.30 0.02 l
0.31 0.03 l
0.31 0.02 l
0.30 0.03 l
0.31 0.03 l
0.30 0.03 l
0.31 0.02 l
0.30 0.04 l
0.31 0.03 l
0.31 0.03 l
0.30 0.03 l
0.31 0.03 l
0.30 0.03 l
0.31 0.03 l
0.31 0.03 l
0.30 0.02 l
0.31 0.03 l
0.30 0.02 l
0.31 0.02 l
0.30 0.02 l
0.31 0.01 l
0.31 0.01 l
0.30 0.01 l
0.31 0 l
0.30 0 l
0.31 0 l
0.31 0 l
0.30 -0.01 l
0.31 -0.01 l
0.30 -0.02 l
0.31 -0.02 l
0.30 -0.02 l
0.31 -0.02 l
0.31 -0.03 l
0.30 -0.02 l
0.31 -0.03 l
0.30 -0.03 l
0.31 -0.03 l
0.31 -0.03 l
0.30 -0.02 l
0.31 -0.03 l
0.30 -0.03 l
0.31 -0.03 l
0.31 -0.02 l
0.30 -0.02 l
0.31 -0.02 l
0.30 -0.02 l
0.31 -0.02 l
0.30 -0.01 l
0.31 -0.01 l
0.31 0 l
0.30 0 l
0.31 0 l
0.30 0.01 l
0.31 0.01 l
0.31 0.01 l
0.30 0.03 l
0.31 0.02 l
0.30 0.04 l
0.31 0.04 l
0.30 0.04 l
0.31 0.05 l
0.31 0.06 l
0.30 0.07 l
0.31 0.07 l
0.30 0.08 l
0.31 0.08 l
0.31 0.10 l
0.30 0.10 l
0.31 0.11 l
0.30 0.12 l
0.31 0.12 l
0.30 0.13 l
0.31 0.14 l
0.31 0.15 l
0.30 0.15 l
0.31 0.16 l
0.30 0.17 l
416.92 265.50 lineto
0.31 0.18 l
0.30 0.18 l
0.31 0.19 l
0.30 0.20 l
0.31 0.20 l
0.30 0.21 l
0.31 0.21 l
0.31 0.21 l
0.30 0.22 l
0.31 0.23 l
0.30 0.23 l
0.31 0.23 l
0.31 0.24 l
0.30 0.25 l
0.31 0.25 l
0.30 0.25 l
0.31 0.26 l
0.31 0.27 l
0.30 0.28 l
0.31 0.29 l
0.30 0.29 l
0.31 0.31 l
0.30 0.31 l
0.31 0.33 l
0.31 0.34 l
0.30 0.36 l
0.31 0.37 l
0.30 0.39 l
0.31 0.40 l
0.31 0.42 l
0.30 0.45 l
0.31 0.46 l
0.30 0.49 l
0.31 0.51 l
0.30 0.53 l
0.31 0.55 l
0.31 0.58 l
0.30 0.60 l
0.31 0.62 l
0.30 0.65 l
0.31 0.67 l
0.31 0.69 l
0.30 0.70 l
0.31 0.73 l
0.30 0.74 l
0.31 0.75 l
0.30 0.77 l
0.31 0.77 l
0.31 0.78 l
0.30 0.78 l
0.31 0.79 l
0.30 0.78 l
0.31 0.77 l
0.31 0.77 l
0.30 0.76 l
0.31 0.75 l
0.30 0.73 l
0.31 0.72 l
0.30 0.70 l
0.31 0.68 l
0.31 0.66 l
0.30 0.65 l
0.31 0.63 l
0.30 0.61 l
0.31 0.60 l
0.31 0.58 l
0.30 0.58 l
0.31 0.56 l
0.30 0.57 l
0.31 0.56 l
0.30 0.56 l
0.31 0.56 l
0.31 0.58 l
0.30 0.59 l
0.31 0.60 l
0.30 0.61 l
0.31 0.64 l
0.31 0.66 l
0.30 0.68 l
0.31 0.71 l
0.30 0.72 l
0.31 0.76 l
0.31 0.78 l
0.30 0.80 l
0.31 0.82 l
0.30 0.85 l
0.31 0.85 l
0.30 0.88 l
0.31 0.88 l
0.31 0.89 l
0.30 0.89 l
0.31 0.89 l
0.30 0.89 l
0.31 0.88 l
0.31 0.87 l
0.30 0.85 l
0.31 0.84 l
0.30 0.81 l
0.31 0.79 l
447.50 322.76 lineto
0.31 0.74 l
0.31 0.71 l
0.30 0.69 l
0.31 0.65 l
0.30 0.63 l
0.31 0.61 l
0.31 0.58 l
0.30 0.55 l
0.31 0.54 l
0.30 0.51 l
0.31 0.50 l
0.30 0.48 l
0.31 0.47 l
0.31 0.46 l
0.30 0.45 l
0.31 0.45 l
0.30 0.44 l
0.31 0.44 l
0.31 0.44 l
0.30 0.43 l
0.31 0.44 l
0.30 0.43 l
0.31 0.43 l
0.30 0.44 l
0.31 0.43 l
0.31 0.43 l
0.30 0.42 l
0.31 0.42 l
0.30 0.41 l
0.31 0.40 l
0.31 0.39 l
0.30 0.37 l
0.31 0.36 l
0.30 0.33 l
0.31 0.32 l
0.31 0.29 l
0.30 0.27 l
0.31 0.25 l
0.30 0.22 l
0.31 0.19 l
0.30 0.16 l
0.31 0.13 l
0.31 0.11 l
0.30 0.08 l
0.31 0.06 l
0.30 0.03 l
0.31 0.01 l
0.31 0 l
0.30 -0.02 l
0.31 -0.04 l
0.30 -0.04 l
0.31 -0.05 l
0.30 -0.06 l
0.31 -0.06 l
0.31 -0.05 l
0.30 -0.05 l
0.31 -0.04 l
0.30 -0.04 l
0.31 -0.02 l
0.31 -0.01 l
0.30 0 l
0.31 0.02 l
0.30 0.03 l
0.31 0.04 l
0.30 0.05 l
0.31 0.06 l
0.31 0.08 l
0.30 0.08 l
0.31 0.08 l
0.30 0.08 l
0.31 0.08 l
0.31 0.07 l
0.30 0.06 l
0.31 0.05 l
0.30 0.04 l
0.31 0.02 l
0.30 0 l
0.31 -0.03 l
0.31 -0.06 l
0.30 -0.07 l
0.31 -0.11 l
0.30 -0.13 l
0.31 -0.16 l
0.31 -0.19 l
0.30 -0.22 l
0.31 -0.24 l
0.30 -0.27 l
0.31 -0.29 l
0.31 -0.32 l
0.30 -0.34 l
0.31 -0.35 l
0.30 -0.37 l
0.31 -0.38 l
0.30 -0.40 l
0.31 -0.41 l
0.31 -0.41 l
0.30 -0.42 l
0.31 -0.43 l
0.30 -0.43 l
478.09 335.25 lineto
0.31 -0.43 l
0.30 -0.43 l
0.31 -0.44 l
0.30 -0.43 l
0.31 -0.43 l
0.30 -0.42 l
0.31 -0.43 l
0.31 -0.43 l
0.30 -0.42 l
0.31 -0.42 l
0.30 -0.43 l
0.31 -0.42 l
0.31 -0.42 l
0.30 -0.43 l
0.31 -0.42 l
0.30 -0.43 l
0.31 -0.43 l
0.30 -0.44 l
0.31 -0.44 l
0.31 -0.45 l
0.30 -0.46 l
0.31 -0.47 l
0.30 -0.48 l
0.31 -0.50 l
0.31 -0.51 l
0.30 -0.52 l
0.31 -0.54 l
0.30 -0.56 l
0.31 -0.58 l
0.30 -0.60 l
0.31 -0.62 l
0.31 -0.63 l
0.30 -0.66 l
0.31 -0.68 l
0.30 -0.71 l
0.31 -0.72 l
0.31 -0.74 l
0.30 -0.77 l
0.31 -0.78 l
0.30 -0.79 l
0.31 -0.82 l
0.30 -0.83 l
0.31 -0.84 l
0.31 -0.85 l
0.30 -0.86 l
0.31 -0.87 l
0.30 -0.88 l
0.31 -0.88 l
0.31 -0.88 l
0.30 -0.89 l
0.31 -0.89 l
0.30 -0.88 l
0.31 -0.88 l
0.31 -0.88 l
0.30 -0.88 l
0.31 -0.87 l
0.30 -0.86 l
0.31 -0.86 l
0.30 -0.85 l
0.31 -0.84 l
0.31 -0.83 l
0.30 -0.82 l
0.31 -0.82 l
0.30 -0.80 l
0.31 -0.79 l
0.31 -0.78 l
0.30 -0.77 l
0.31 -0.76 l
0.30 -0.74 l
0.31 -0.73 l
0.30 -0.72 l
0.31 -0.70 l
0.31 -0.69 l
0.30 -0.67 l
0.31 -0.65 l
0.30 -0.65 l
0.31 -0.62 l
0.31 -0.60 l
0.30 -0.59 l
0.31 -0.58 l
0.30 -0.55 l
0.31 -0.54 l
0.30 -0.52 l
0.31 -0.50 l
0.31 -0.49 l
0.30 -0.47 l
0.31 -0.46 l
0.30 -0.44 l
0.31 -0.43 l
0.31 -0.41 l
0.30 -0.39 l
0.31 -0.39 l
0.30 -0.37 l
0.31 -0.36 l
0.30 -0.35 l
0.31 -0.34 l
0.31 -0.33 l
0.30 -0.32 l
0.31 -0.30 l
508.67 274.47 lineto
0.31 -0.29 l
0.31 -0.29 l
0.30 -0.28 l
0.31 -0.27 l
0.30 -0.26 l
0.31 -0.26 l
0.31 -0.26 l
0.30 -0.24 l
0.31 -0.25 l
0.30 -0.23 l
0.31 -0.24 l
0.30 -0.22 l
0.31 -0.22 l
0.31 -0.22 l
0.30 -0.21 l
0.31 -0.21 l
0.30 -0.20 l
0.31 -0.20 l
0.31 -0.20 l
0.30 -0.19 l
0.31 -0.18 l
0.30 -0.19 l
0.31 -0.18 l
0.30 -0.17 l
0.31 -0.17 l
0.31 -0.17 l
0.30 -0.17 l
0.31 -0.17 l
0.30 -0.16 l
0.31 -0.16 l
0.31 -0.15 l
0.30 -0.16 l
0.31 -0.15 l
0.30 -0.15 l
0.31 -0.14 l
0.30 -0.14 l
0.31 -0.14 l
0.31 -0.14 l
0.30 -0.13 l
0.31 -0.13 l
0.30 -0.13 l
0.31 -0.12 l
0.31 -0.12 l
0.30 -0.12 l
0.31 -0.11 l
0.30 -0.11 l
0.31 -0.10 l
0.30 -0.10 l
0.31 -0.10 l
0.31 -0.09 l
0.30 -0.09 l
0.31 -0.09 l
0.30 -0.08 l
0.31 -0.08 l
0.31 -0.07 l
0.30 -0.08 l
0.31 -0.07 l
0.30 -0.07 l
0.31 -0.06 l
0.31 -0.07 l
0.30 -0.06 l
0.31 -0.06 l
0.30 -0.06 l
0.31 -0.06 l
0.30 -0.06 l
0.31 -0.06 l
0.31 -0.06 l
0.30 -0.06 l
0.31 -0.06 l
0.30 -0.05 l
0.31 -0.06 l
0.31 -0.05 l
0.30 -0.06 l
0.31 -0.05 l
0.30 -0.06 l
0.31 -0.05 l
0.30 -0.05 l
0.31 -0.05 l
0.31 -0.05 l
0.30 -0.05 l
0.31 -0.05 l
0.30 -0.04 l
0.31 -0.04 l
0.31 -0.04 l
0.30 -0.04 l
0.31 -0.04 l
0.30 -0.03 l
0.31 -0.04 l
0.30 -0.03 l
0.31 -0.02 l
0.31 -0.03 l
0.30 -0.02 l
0.31 -0.03 l
0.30 -0.02 l
0.31 -0.01 l
0.31 -0.02 l
0.30 -0.01 l
0.31 -0.02 l
0.30 -0.01 l
539.26 263.05 lineto
0.30 -0.01 l
0.31 -0.01 l
0.31 0 l
0.30 -0.01 l
0.31 0 l
0.30 -0.01 l
0.31 0 l
0.31 -0.01 l
0.30 0 l
0.31 0 l
0.30 0 l
o
0 setgray
0.75 setlinewidth
[] 0 setdash
np
359.78 262.99 m
191.05 0 l
o
/Font1 findfont 10 s
0.5294 0.8078 0.9216 rgb
427.69 260.24 (|) .5 0 t
0 setgray
425.96 260.24 (|) .5 0 t
0.2549 0.4118 0.8824 rgb
431.47 260.24 (|) .5 0 t
0.5294 0.8078 0.9216 rgb
505.04 260.24 (|) .5 0 t
0 setgray
505.07 260.24 (|) .5 0 t
0.2549 0.4118 0.8824 rgb
507.89 260.24 (|) .5 0 t
0 setgray
467.19 264.43 (95% HDI) .5 0 t
/Font1 findfont 12 s
543.75 353.54 (MCSE =) 1 0 t
543.75 338.60 ( 0.000172) 1 0 t
54.00 216.00 558.00 576.00 cl
/Font1 findfont 24 s
0 setgray
306.00 553.29 (a) .5 0 t
306.00 553.29 (a) .5 0 t
ep
%%Trailer
%%Pages: 1
%%EOF
