%!PS-Adobe-3.0 EPSF-3.0
%%DocumentNeededResources: font Helvetica
%%+ font Helvetica-Bold
%%+ font Helvetica-Oblique
%%+ font Helvetica-BoldOblique
%%+ font Symbol
%%Title: R Graphics Output
%%Creator: R Software
%%Pages: (atend)
%%BoundingBox: 0 0 311 298
%%EndComments
%%BeginProlog
/bp  { gs sRGB gs } def
% begin .ps.prolog
/gs  { gsave } bind def
/gr  { grestore } bind def
/ep  { showpage gr gr } bind def
/m   { moveto } bind def
/l  { rlineto } bind def
/np  { newpath } bind def
/cp  { closepath } bind def
/f   { fill } bind def
/o   { stroke } bind def
/c   { newpath 0 360 arc } bind def
/r   { 4 2 roll moveto 1 copy 3 -1 roll exch 0 exch rlineto 0 rlineto -1 mul 0 exch rlineto closepath } bind def
/p1  { stroke } bind def
/p2  { gsave bg fill grestore newpath } bind def
/p3  { gsave bg fill grestore stroke } bind def
/p6  { gsave bg eofill grestore newpath } bind def
/p7  { gsave bg eofill grestore stroke } bind def
/t   { 5 -2 roll moveto gsave rotate
       1 index stringwidth pop
       mul neg 0 rmoveto show grestore } bind def
/ta  { 4 -2 roll moveto gsave rotate show } bind def
/tb  { 2 -1 roll 0 rmoveto show } bind def
/cl  { grestore gsave newpath 3 index 3 index moveto 1 index
       4 -1 roll lineto  exch 1 index lineto lineto
       closepath clip newpath } bind def
/rgb { setrgbcolor } bind def
/s   { scalefont setfont } bind def
% end   .ps.prolog
/sRGB { [ /CIEBasedABC
          << /DecodeLMN
               [ { dup 0.03928 le
                        {12.92321 div}
                        {0.055 add 1.055 div 2.4 exp }
                     ifelse
                 } bind dup dup
               ]
             /MatrixLMN [0.412457 0.212673 0.019334
                         0.357576 0.715152 0.119192
                         0.180437 0.072175 0.950301]
             /WhitePoint [0.9505 1.0 1.0890]
           >>
         ] setcolorspace } bind def
/srgb { setcolor } bind def
% begin encoding
/WinAnsiEncoding [
 /.notdef /.notdef /.notdef /.notdef /.notdef /.notdef /.notdef /.notdef
 /.notdef /.notdef /.notdef /.notdef /.notdef /.notdef /.notdef /.notdef
 /.notdef /.notdef /.notdef /.notdef /.notdef /.notdef /.notdef /.notdef
 /.notdef /.notdef /.notdef /.notdef /.notdef /.notdef /.notdef /.notdef
 /space /exclam /quotedbl /numbersign /dollar /percent /ampersand /quoteright
 /parenleft /parenright /asterisk /plus /comma /minus /period /slash
 /zero /one /two /three /four /five /six /seven
 /eight /nine /colon /semicolon /less /equal /greater /question
 /at /A /B /C /D /E /F /G
 /H /I /J /K /L /M /N /O
 /P /Q /R /S /T /U /V /W
 /X /Y /Z /bracketleft /backslash /bracketright /asciicircum /underscore
 /grave /a /b /c /d /e /f /g
 /h /i /j /k /l /m /n /o
 /p /q /r /s /t /u /v /w
 /x /y /z /braceleft /bar /braceright /asciitilde /.notdef
 /Euro /.notdef /quotesinglbase /florin /quotedblbase /ellipsis /dagger /daggerdbl
 /circumflex /perthousand /Scaron /guilsinglleft /OE /.notdef /Zcaron /.notdef
 /.notdef /quoteleft /quoteright /quotedblleft /quotedblright /bullet /endash /emdash
 /tilde /trademark /scaron /guilsinglright /oe /.notdef /zcaron /Ydieresis
 /space /exclamdown /cent /sterling /currency /yen /brokenbar /section
 /dieresis /copyright /ordfeminine /guillemotleft /logicalnot /hyphen /registered /macron
 /degree /plusminus /twosuperior /threesuperior /acute /mu /paragraph /periodcentered
 /cedilla /onesuperior /ordmasculine /guillemotright /onequarter /onehalf /threequarters /questiondown
 /Agrave /Aacute /Acircumflex /Atilde /Adieresis /Aring /AE /Ccedilla
 /Egrave /Eacute /Ecircumflex /Edieresis /Igrave /Iacute /Icircumflex /Idieresis
 /Eth /Ntilde /Ograve /Oacute /Ocircumflex /Otilde /Odieresis /multiply
 /Oslash /Ugrave /Uacute /Ucircumflex /Udieresis /Yacute /Thorn /germandbls
 /agrave /aacute /acircumflex /atilde /adieresis /aring /ae /ccedilla
 /egrave /eacute /ecircumflex /edieresis /igrave /iacute /icircumflex /idieresis
 /eth /ntilde /ograve /oacute /ocircumflex /otilde /odieresis /divide
 /oslash /ugrave /uacute /ucircumflex /udieresis /yacute /thorn /ydieresis
]
 def
% end encoding
%%IncludeResource: font Helvetica
/Helvetica findfont
dup length dict begin
  {1 index /FID ne {def} {pop pop} ifelse} forall
  /Encoding WinAnsiEncoding def
  currentdict
  end
/Font1 exch definefont pop
%%IncludeResource: font Helvetica-Bold
/Helvetica-Bold findfont
dup length dict begin
  {1 index /FID ne {def} {pop pop} ifelse} forall
  /Encoding WinAnsiEncoding def
  currentdict
  end
/Font2 exch definefont pop
%%IncludeResource: font Helvetica-Oblique
/Helvetica-Oblique findfont
dup length dict begin
  {1 index /FID ne {def} {pop pop} ifelse} forall
  /Encoding WinAnsiEncoding def
  currentdict
  end
/Font3 exch definefont pop
%%IncludeResource: font Helvetica-BoldOblique
/Helvetica-BoldOblique findfont
dup length dict begin
  {1 index /FID ne {def} {pop pop} ifelse} forall
  /Encoding WinAnsiEncoding def
  currentdict
  end
/Font4 exch definefont pop
%%IncludeResource: font Symbol
/Symbol findfont
dup length dict begin
  {1 index /FID ne {def} {pop pop} ifelse} forall
  currentdict
  end
/Font5 exch definefont pop
%%EndProlog
%%Page: 1 1
bp
0.00 0.00 310.50 297.75 cl
0.00 0.00 310.50 297.75 cl
0.00 0.00 310.50 297.75 cl
0.00 0.00 310.50 297.75 cl
0.00 0.00 310.50 297.75 cl
0.00 0.00 310.50 297.75 cl
0.00 0.00 310.50 297.75 cl
0.00 0.00 310.50 297.75 cl
0.00 0.00 310.50 297.75 cl
/bg { 1 1 1 srgb } def
1 1 1 srgb
1.07 setlinewidth
[] 0 setdash
1 setlinecap
1 setlinejoin
10.00 setmiterlimit
0.00 0.00 310.50 297.75 r p3
0.00 0.00 310.50 297.75 cl
0.00 0.00 310.50 297.75 cl
0.00 0.00 310.50 297.75 cl
42.40 31.35 305.02 292.27 cl
/bg { 0.9216 0.9216 0.9216 srgb } def
42.40 31.35 262.62 260.92 r p2
1 1 1 srgb
0.53 setlinewidth
[] 0 setdash
0 setlinecap
1 setlinejoin
10.00 setmiterlimit
np
42.40 43.21 m
262.62 0 l
o
np
42.40 122.27 m
262.62 0 l
o
np
42.40 201.34 m
262.62 0 l
o
np
42.40 280.41 m
262.62 0 l
o
np
54.34 31.35 m
0 260.92 l
o
np
133.92 31.35 m
0 260.92 l
o
np
213.50 31.35 m
0 260.92 l
o
np
293.08 31.35 m
0 260.92 l
o
1.07 setlinewidth
[] 0 setdash
np
42.40 82.74 m
262.62 0 l
o
np
42.40 161.81 m
262.62 0 l
o
np
42.40 240.88 m
262.62 0 l
o
np
94.13 31.35 m
0 260.92 l
o
np
173.71 31.35 m
0 260.92 l
o
np
253.29 31.35 m
0 260.92 l
o
/bg { 0.5294 0.8078 0.9216 srgb } def
0.5294 0.8078 0.9216 srgb
0.71 setlinewidth
[] 0 setdash
1 setlinecap
137.35 188.56 1.42 c p3
137.35 178.98 1.42 c p3
154.93 178.98 1.42 c p3
154.93 224.44 1.42 c p3
111.64 224.44 1.42 c p3
111.64 160.20 1.42 c p3
162.20 160.20 1.42 c p3
162.20 131.75 1.42 c p3
220.01 131.75 1.42 c p3
220.01 119.28 1.42 c p3
206.49 119.28 1.42 c p3
206.49 160.53 1.42 c p3
176.27 160.53 1.42 c p3
176.27 164.18 1.42 c p3
151.92 164.18 1.42 c p3
151.92 169.62 1.42 c p3
195.30 169.62 1.42 c p3
195.30 151.07 1.42 c p3
182.44 151.07 1.42 c p3
182.44 165.73 1.42 c p3
184.29 165.73 1.42 c p3
184.29 165.31 1.42 c p3
155.93 165.31 1.42 c p3
155.93 140.60 1.42 c p3
203.58 140.60 1.42 c p3
203.58 142.92 1.42 c p3
192.77 142.92 1.42 c p3
192.77 178.49 1.42 c p3
184.94 178.49 1.42 c p3
184.94 178.19 1.42 c p3
163.99 178.19 1.42 c p3
163.99 195.15 1.42 c p3
136.84 195.15 1.42 c p3
136.84 175.70 1.42 c p3
150.17 175.70 1.42 c p3
150.17 207.24 1.42 c p3
165.14 207.24 1.42 c p3
165.14 155.43 1.42 c p3
175.34 155.43 1.42 c p3
175.34 145.20 1.42 c p3
181.56 145.20 1.42 c p3
181.56 147.67 1.42 c p3
176.04 147.67 1.42 c p3
176.04 166.37 1.42 c p3
193.69 166.37 1.42 c p3
193.69 142.30 1.42 c p3
177.45 142.30 1.42 c p3
177.45 171.03 1.42 c p3
137.53 171.03 1.42 c p3
137.53 199.53 1.42 c p3
132.54 199.53 1.42 c p3
132.54 197.58 1.42 c p3
133.06 197.58 1.42 c p3
133.06 151.59 1.42 c p3
157.91 151.59 1.42 c p3
157.91 144.14 1.42 c p3
194.49 144.14 1.42 c p3
194.49 117.92 1.42 c p3
209.75 117.92 1.42 c p3
209.75 166.47 1.42 c p3
163.52 166.47 1.42 c p3
163.52 159.25 1.42 c p3
206.61 159.25 1.42 c p3
206.61 169.71 1.42 c p3
162.50 169.71 1.42 c p3
162.50 151.69 1.42 c p3
167.14 151.69 1.42 c p3
167.14 157.89 1.42 c p3
160.85 157.89 1.42 c p3
160.85 181.73 1.42 c p3
161.88 181.73 1.42 c p3
161.88 243.63 1.42 c p3
138.62 243.63 1.42 c p3
138.62 164.45 1.42 c p3
190.37 164.45 1.42 c p3
190.37 129.06 1.42 c p3
174.06 129.06 1.42 c p3
174.06 102.93 1.42 c p3
211.25 102.93 1.42 c p3
211.25 131.34 1.42 c p3
213.36 131.34 1.42 c p3
213.36 136.13 1.42 c p3
224.45 136.13 1.42 c p3
224.45 157.07 1.42 c p3
201.42 157.07 1.42 c p3
201.42 110.39 1.42 c p3
225.91 110.39 1.42 c p3
225.91 160.65 1.42 c p3
183.49 160.65 1.42 c p3
183.49 168.43 1.42 c p3
165.30 168.43 1.42 c p3
165.30 108.39 1.42 c p3
220.24 108.39 1.42 c p3
220.24 104.78 1.42 c p3
235.36 104.78 1.42 c p3
235.36 105.33 1.42 c p3
198.97 105.33 1.42 c p3
198.97 96.19 1.42 c p3
187.71 96.19 1.42 c p3
187.71 172.57 1.42 c p3
176.28 172.57 1.42 c p3
176.28 150.83 1.42 c p3
195.39 150.83 1.42 c p3
195.39 164.35 1.42 c p3
163.98 164.35 1.42 c p3
163.98 145.32 1.42 c p3
194.54 145.32 1.42 c p3
194.54 166.51 1.42 c p3
190.08 166.51 1.42 c p3
190.08 169.86 1.42 c p3
155.31 169.86 1.42 c p3
155.31 203.25 1.42 c p3
170.06 203.25 1.42 c p3
170.06 165.81 1.42 c p3
168.54 165.81 1.42 c p3
168.54 140.69 1.42 c p3
171.60 140.69 1.42 c p3
171.60 214.29 1.42 c p3
124.80 214.29 1.42 c p3
124.80 111.75 1.42 c p3
225.56 111.75 1.42 c p3
225.56 121.23 1.42 c p3
213.62 121.23 1.42 c p3
213.62 223.40 1.42 c p3
132.12 223.40 1.42 c p3
132.12 160.04 1.42 c p3
170.31 160.04 1.42 c p3
170.31 155.87 1.42 c p3
192.00 155.87 1.42 c p3
192.00 169.55 1.42 c p3
179.00 169.55 1.42 c p3
179.00 194.73 1.42 c p3
158.18 194.73 1.42 c p3
158.18 121.96 1.42 c p3
211.75 121.96 1.42 c p3
211.75 143.94 1.42 c p3
182.88 143.94 1.42 c p3
182.88 87.10 1.42 c p3
265.08 87.10 1.42 c p3
265.08 77.01 1.42 c p3
254.95 77.01 1.42 c p3
254.95 121.72 1.42 c p3
227.71 121.72 1.42 c p3
227.71 114.03 1.42 c p3
210.94 114.03 1.42 c p3
210.94 142.02 1.42 c p3
205.67 142.02 1.42 c p3
205.67 114.25 1.42 c p3
241.80 114.25 1.42 c p3
241.80 136.77 1.42 c p3
203.31 136.77 1.42 c p3
203.31 119.28 1.42 c p3
239.17 119.28 1.42 c p3
239.17 193.36 1.42 c p3
154.70 193.36 1.42 c p3
154.70 158.88 1.42 c p3
200.29 158.88 1.42 c p3
200.29 112.69 1.42 c p3
204.61 112.69 1.42 c p3
204.61 79.96 1.42 c p3
218.52 79.96 1.42 c p3
218.52 96.24 1.42 c p3
240.13 96.24 1.42 c p3
240.13 64.36 1.42 c p3
259.21 64.36 1.42 c p3
259.21 164.70 1.42 c p3
191.34 164.70 1.42 c p3
191.34 142.33 1.42 c p3
205.91 142.33 1.42 c p3
205.91 110.36 1.42 c p3
233.04 110.36 1.42 c p3
233.04 123.88 1.42 c p3
220.42 123.88 1.42 c p3
220.42 145.25 1.42 c p3
207.66 145.25 1.42 c p3
207.66 153.99 1.42 c p3
195.89 153.99 1.42 c p3
195.89 145.36 1.42 c p3
173.25 145.36 1.42 c p3
173.25 189.50 1.42 c p3
158.31 189.50 1.42 c p3
158.31 188.78 1.42 c p3
167.13 188.78 1.42 c p3
167.13 200.26 1.42 c p3
168.26 200.26 1.42 c p3
168.26 164.72 1.42 c p3
204.87 164.72 1.42 c p3
204.87 129.77 1.42 c p3
192.29 129.77 1.42 c p3
192.29 140.08 1.42 c p3
200.02 140.08 1.42 c p3
200.02 135.12 1.42 c p3
200.32 135.12 1.42 c p3
200.32 160.36 1.42 c p3
159.68 160.36 1.42 c p3
159.68 171.98 1.42 c p3
153.90 171.98 1.42 c p3
153.90 150.99 1.42 c p3
202.26 150.99 1.42 c p3
202.26 191.16 1.42 c p3
124.92 191.16 1.42 c p3
124.92 252.95 1.42 c p3
83.69 252.95 1.42 c p3
83.69 236.09 1.42 c p3
112.56 236.09 1.42 c p3
112.56 186.24 1.42 c p3
142.24 186.24 1.42 c p3
142.24 205.59 1.42 c p3
124.90 205.59 1.42 c p3
124.90 220.75 1.42 c p3
121.75 220.75 1.42 c p3
121.75 188.83 1.42 c p3
127.38 188.83 1.42 c p3
127.38 170.93 1.42 c p3
155.23 170.93 1.42 c p3
155.23 198.38 1.42 c p3
154.04 198.38 1.42 c p3
154.04 125.50 1.42 c p3
220.87 125.50 1.42 c p3
220.87 135.13 1.42 c p3
203.55 135.13 1.42 c p3
203.55 156.41 1.42 c p3
205.26 156.41 1.42 c p3
205.26 180.70 1.42 c p3
142.87 180.70 1.42 c p3
142.87 124.80 1.42 c p3
208.07 124.80 1.42 c p3
208.07 87.20 1.42 c p3
238.81 87.20 1.42 c p3
238.81 88.67 1.42 c p3
236.84 88.67 1.42 c p3
236.84 88.66 1.42 c p3
245.99 88.66 1.42 c p3
245.99 140.77 1.42 c p3
214.25 140.77 1.42 c p3
214.25 144.86 1.42 c p3
182.10 144.86 1.42 c p3
182.10 147.58 1.42 c p3
208.24 147.58 1.42 c p3
208.24 137.50 1.42 c p3
202.94 137.50 1.42 c p3
202.94 113.26 1.42 c p3
214.55 113.26 1.42 c p3
214.55 135.32 1.42 c p3
204.79 135.32 1.42 c p3
204.79 162.72 1.42 c p3
173.96 162.72 1.42 c p3
173.96 130.64 1.42 c p3
228.09 130.64 1.42 c p3
228.09 153.83 1.42 c p3
187.40 153.83 1.42 c p3
187.40 191.58 1.42 c p3
156.92 191.58 1.42 c p3
156.92 146.03 1.42 c p3
196.30 146.03 1.42 c p3
196.30 214.69 1.42 c p3
107.03 214.69 1.42 c p3
107.03 211.84 1.42 c p3
144.74 211.84 1.42 c p3
144.74 175.69 1.42 c p3
137.13 175.69 1.42 c p3
137.13 208.26 1.42 c p3
117.92 208.26 1.42 c p3
117.92 202.22 1.42 c p3
137.10 202.22 1.42 c p3
137.10 207.23 1.42 c p3
113.58 207.23 1.42 c p3
113.58 202.48 1.42 c p3
135.35 202.48 1.42 c p3
135.35 195.58 1.42 c p3
132.11 195.58 1.42 c p3
132.11 147.43 1.42 c p3
161.24 147.43 1.42 c p3
161.24 183.64 1.42 c p3
153.74 183.64 1.42 c p3
153.74 210.18 1.42 c p3
141.08 210.18 1.42 c p3
141.08 169.24 1.42 c p3
133.37 169.24 1.42 c p3
133.37 165.88 1.42 c p3
171.29 165.88 1.42 c p3
171.29 156.79 1.42 c p3
178.32 156.79 1.42 c p3
178.32 205.61 1.42 c p3
165.18 205.61 1.42 c p3
165.18 189.31 1.42 c p3
161.78 189.31 1.42 c p3
161.78 176.54 1.42 c p3
161.27 176.54 1.42 c p3
161.27 204.31 1.42 c p3
152.22 204.31 1.42 c p3
152.22 177.52 1.42 c p3
129.47 177.52 1.42 c p3
129.47 148.79 1.42 c p3
187.75 148.79 1.42 c p3
187.75 192.87 1.42 c p3
148.16 192.87 1.42 c p3
148.16 163.03 1.42 c p3
182.33 163.03 1.42 c p3
182.33 133.78 1.42 c p3
198.68 133.78 1.42 c p3
198.68 111.31 1.42 c p3
211.93 111.31 1.42 c p3
211.93 174.90 1.42 c p3
180.48 174.90 1.42 c p3
180.48 133.72 1.42 c p3
213.69 133.72 1.42 c p3
213.69 163.31 1.42 c p3
186.29 163.31 1.42 c p3
186.29 115.61 1.42 c p3
171.13 115.61 1.42 c p3
171.13 179.69 1.42 c p3
173.83 179.69 1.42 c p3
173.83 173.42 1.42 c p3
170.27 173.42 1.42 c p3
170.27 169.83 1.42 c p3
154.89 169.83 1.42 c p3
154.89 151.81 1.42 c p3
171.72 151.81 1.42 c p3
171.72 243.04 1.42 c p3
99.63 243.04 1.42 c p3
99.63 214.73 1.42 c p3
151.59 214.73 1.42 c p3
151.59 223.67 1.42 c p3
111.68 223.67 1.42 c p3
111.68 126.00 1.42 c p3
216.18 126.00 1.42 c p3
216.18 102.15 1.42 c p3
241.73 102.15 1.42 c p3
241.73 169.61 1.42 c p3
183.81 169.61 1.42 c p3
183.81 117.87 1.42 c p3
217.79 117.87 1.42 c p3
217.79 154.86 1.42 c p3
171.78 154.86 1.42 c p3
171.78 173.80 1.42 c p3
140.31 173.80 1.42 c p3
140.31 174.65 1.42 c p3
148.75 174.65 1.42 c p3
148.75 175.36 1.42 c p3
191.52 175.36 1.42 c p3
191.52 173.30 1.42 c p3
161.75 173.30 1.42 c p3
161.75 130.42 1.42 c p3
193.27 130.42 1.42 c p3
193.27 136.40 1.42 c p3
177.77 136.40 1.42 c p3
177.77 132.82 1.42 c p3
205.52 132.82 1.42 c p3
205.52 97.29 1.42 c p3
223.85 97.29 1.42 c p3
223.85 175.37 1.42 c p3
176.83 175.37 1.42 c p3
176.83 146.37 1.42 c p3
165.18 146.37 1.42 c p3
165.18 117.82 1.42 c p3
201.07 117.82 1.42 c p3
201.07 126.43 1.42 c p3
194.02 126.43 1.42 c p3
194.02 152.49 1.42 c p3
199.54 152.49 1.42 c p3
199.54 128.64 1.42 c p3
193.86 128.64 1.42 c p3
193.86 172.00 1.42 c p3
159.79 172.00 1.42 c p3
159.79 195.81 1.42 c p3
158.54 195.81 1.42 c p3
158.54 182.40 1.42 c p3
121.99 182.40 1.42 c p3
121.99 199.73 1.42 c p3
160.48 199.73 1.42 c p3
160.48 162.47 1.42 c p3
180.17 162.47 1.42 c p3
180.17 160.68 1.42 c p3
193.83 160.68 1.42 c p3
193.83 189.37 1.42 c p3
164.78 189.37 1.42 c p3
164.78 167.57 1.42 c p3
159.00 167.57 1.42 c p3
159.00 226.60 1.42 c p3
127.26 226.60 1.42 c p3
127.26 136.06 1.42 c p3
186.07 136.06 1.42 c p3
186.07 144.88 1.42 c p3
195.00 144.88 1.42 c p3
195.00 141.84 1.42 c p3
177.31 141.84 1.42 c p3
177.31 119.49 1.42 c p3
204.71 119.49 1.42 c p3
204.71 145.97 1.42 c p3
200.30 145.97 1.42 c p3
200.30 102.14 1.42 c p3
236.04 102.14 1.42 c p3
236.04 75.61 1.42 c p3
248.58 75.61 1.42 c p3
248.58 108.60 1.42 c p3
221.34 108.60 1.42 c p3
221.34 118.11 1.42 c p3
224.59 118.11 1.42 c p3
224.59 94.07 1.42 c p3
233.71 94.07 1.42 c p3
233.71 173.92 1.42 c p3
179.25 173.92 1.42 c p3
179.25 180.39 1.42 c p3
158.40 180.39 1.42 c p3
158.40 191.14 1.42 c p3
142.29 191.14 1.42 c p3
142.29 138.30 1.42 c p3
188.20 138.30 1.42 c p3
188.20 159.68 1.42 c p3
149.75 159.68 1.42 c p3
149.75 188.86 1.42 c p3
151.83 188.86 1.42 c p3
151.83 174.77 1.42 c p3
178.37 174.77 1.42 c p3
178.37 131.44 1.42 c p3
203.37 131.44 1.42 c p3
203.37 150.37 1.42 c p3
174.72 150.37 1.42 c p3
174.72 197.11 1.42 c p3
159.38 197.11 1.42 c p3
159.38 180.79 1.42 c p3
139.74 180.79 1.42 c p3
139.74 182.16 1.42 c p3
149.61 182.16 1.42 c p3
149.61 170.54 1.42 c p3
164.85 170.54 1.42 c p3
164.85 187.09 1.42 c p3
194.36 187.09 1.42 c p3
194.36 168.83 1.42 c p3
158.21 168.83 1.42 c p3
158.21 207.50 1.42 c p3
127.75 207.50 1.42 c p3
127.75 171.72 1.42 c p3
176.45 171.72 1.42 c p3
176.45 111.71 1.42 c p3
204.71 111.71 1.42 c p3
204.71 103.12 1.42 c p3
208.19 103.12 1.42 c p3
208.19 120.45 1.42 c p3
193.69 120.45 1.42 c p3
193.69 139.43 1.42 c p3
220.28 139.43 1.42 c p3
220.28 139.39 1.42 c p3
198.12 139.39 1.42 c p3
198.12 179.31 1.42 c p3
182.58 179.31 1.42 c p3
182.58 175.93 1.42 c p3
147.50 175.93 1.42 c p3
147.50 206.77 1.42 c p3
140.58 206.77 1.42 c p3
140.58 191.38 1.42 c p3
175.30 191.38 1.42 c p3
175.30 210.49 1.42 c p3
134.36 210.49 1.42 c p3
134.36 198.86 1.42 c p3
152.10 198.86 1.42 c p3
152.10 194.22 1.42 c p3
141.35 194.22 1.42 c p3
141.35 150.45 1.42 c p3
191.64 150.45 1.42 c p3
191.64 193.89 1.42 c p3
182.14 193.89 1.42 c p3
182.14 140.61 1.42 c p3
205.02 140.61 1.42 c p3
205.02 141.24 1.42 c p3
212.99 141.24 1.42 c p3
212.99 151.22 1.42 c p3
173.46 151.22 1.42 c p3
173.46 187.57 1.42 c p3
157.18 187.57 1.42 c p3
157.18 158.50 1.42 c p3
168.91 158.50 1.42 c p3
168.91 211.72 1.42 c p3
132.56 211.72 1.42 c p3
132.56 174.00 1.42 c p3
181.56 174.00 1.42 c p3
181.56 125.84 1.42 c p3
176.02 125.84 1.42 c p3
176.02 136.94 1.42 c p3
174.33 136.94 1.42 c p3
174.33 181.59 1.42 c p3
163.34 181.59 1.42 c p3
163.34 140.51 1.42 c p3
175.99 140.51 1.42 c p3
175.99 166.64 1.42 c p3
174.80 166.64 1.42 c p3
174.80 177.50 1.42 c p3
175.63 177.50 1.42 c p3
175.63 179.72 1.42 c p3
166.12 179.72 1.42 c p3
166.12 218.06 1.42 c p3
140.09 218.06 1.42 c p3
140.09 178.66 1.42 c p3
149.81 178.66 1.42 c p3
149.81 225.11 1.42 c p3
108.64 225.11 1.42 c p3
108.64 230.12 1.42 c p3
118.12 230.12 1.42 c p3
118.12 150.41 1.42 c p3
195.73 150.41 1.42 c p3
195.73 165.23 1.42 c p3
1.07 setlinewidth
[] 0 setdash
0 setlinecap
1.00 setmiterlimit
np
137.35 188.56 m
0 -9.58 l
17.58 0 l
0 45.46 l
-43.29 0 l
0 -64.24 l
50.56 0 l
0 -28.45 l
57.81 0 l
0 -12.47 l
-13.52 0 l
0 41.25 l
-30.22 0 l
0 3.65 l
-24.35 0 l
0 5.44 l
43.38 0 l
0 -18.55 l
-12.86 0 l
0 14.66 l
1.85 0 l
0 -0.42 l
-28.36 0 l
0 -24.71 l
47.65 0 l
0 2.32 l
-10.81 0 l
0 35.57 l
-7.83 0 l
0 -0.30 l
-20.95 0 l
0 16.96 l
-27.15 0 l
0 -19.45 l
13.33 0 l
0 31.54 l
14.97 0 l
0 -51.81 l
10.20 0 l
0 -10.23 l
6.22 0 l
0 2.47 l
-5.52 0 l
0 18.70 l
17.65 0 l
0 -24.07 l
-16.24 0 l
0 28.73 l
-39.92 0 l
0 28.50 l
-4.99 0 l
0 -1.95 l
0.52 0 l
0 -45.99 l
24.85 0 l
0 -7.45 l
36.58 0 l
0 -26.22 l
15.26 0 l
0 48.55 l
-46.23 0 l
0 -7.22 l
43.09 0 l
0 10.46 l
-44.11 0 l
0 -18.02 l
4.64 0 l
0 6.20 l
-6.29 0 l
0 23.84 l
1.03 0 l
0 61.90 l
-23.26 0 l
0 -79.18 l
51.75 0 l
0 -35.39 l
-16.31 0 l
0 -26.13 l
37.19 0 l
0 28.41 l
2.11 0 l
0 4.79 l
11.09 0 l
0 20.94 l
-23.03 0 l
0 -46.68 l
24.49 0 l
0 50.26 l
-42.42 0 l
0 7.78 l
-18.19 0 l
0 -60.04 l
54.94 0 l
0 -3.61 l
15.12 0 l
0 0.55 l
-36.39 0 l
0 -9.14 l
-11.26 0 l
0 76.38 l
176.28 172.57 lineto
0 -21.74 l
19.11 0 l
0 13.52 l
-31.41 0 l
0 -19.03 l
30.56 0 l
0 21.19 l
-4.46 0 l
0 3.35 l
-34.77 0 l
0 33.39 l
14.75 0 l
0 -37.44 l
-1.52 0 l
0 -25.12 l
3.06 0 l
0 73.60 l
-46.80 0 l
0 -102.54 l
100.76 0 l
0 9.48 l
-11.94 0 l
0 102.17 l
-81.50 0 l
0 -63.36 l
38.19 0 l
0 -4.17 l
21.69 0 l
0 13.68 l
-13.00 0 l
0 25.18 l
-20.82 0 l
0 -72.77 l
53.57 0 l
0 21.98 l
-28.87 0 l
0 -56.84 l
82.20 0 l
0 -10.09 l
-10.13 0 l
0 44.71 l
-27.24 0 l
0 -7.69 l
-16.77 0 l
0 27.99 l
-5.27 0 l
0 -27.77 l
36.13 0 l
0 22.52 l
-38.49 0 l
0 -17.49 l
35.86 0 l
0 74.08 l
-84.47 0 l
0 -34.48 l
45.59 0 l
0 -46.19 l
4.32 0 l
0 -32.73 l
13.91 0 l
0 16.28 l
21.61 0 l
0 -31.88 l
19.08 0 l
0 100.34 l
-67.87 0 l
0 -22.37 l
14.57 0 l
0 -31.97 l
27.13 0 l
0 13.52 l
-12.62 0 l
0 21.37 l
-12.76 0 l
0 8.74 l
-11.77 0 l
0 -8.63 l
-22.64 0 l
0 44.14 l
-14.94 0 l
0 -0.72 l
8.82 0 l
0 11.48 l
1.13 0 l
0 -35.54 l
36.61 0 l
0 -34.95 l
-12.58 0 l
0 10.31 l
7.73 0 l
0 -4.96 l
0.30 0 l
0 25.24 l
-40.64 0 l
0 11.62 l
-5.78 0 l
0 -20.99 l
48.36 0 l
0 40.17 l
124.92 191.16 lineto
0 61.79 l
-41.23 0 l
0 -16.86 l
28.87 0 l
0 -49.85 l
29.68 0 l
0 19.35 l
-17.34 0 l
0 15.16 l
-3.15 0 l
0 -31.92 l
5.63 0 l
0 -17.90 l
27.85 0 l
0 27.45 l
-1.19 0 l
0 -72.88 l
66.83 0 l
0 9.63 l
-17.32 0 l
0 21.28 l
1.71 0 l
0 24.29 l
-62.39 0 l
0 -55.90 l
65.20 0 l
0 -37.60 l
30.74 0 l
0 1.47 l
-1.97 0 l
0 -0.01 l
9.15 0 l
0 52.11 l
-31.74 0 l
0 4.09 l
-32.15 0 l
0 2.72 l
26.14 0 l
0 -10.08 l
-5.30 0 l
0 -24.24 l
11.61 0 l
0 22.06 l
-9.76 0 l
0 27.40 l
-30.83 0 l
0 -32.08 l
54.13 0 l
0 23.19 l
-40.69 0 l
0 37.75 l
-30.48 0 l
0 -45.55 l
39.38 0 l
0 68.66 l
-89.27 0 l
0 -2.85 l
37.71 0 l
0 -36.15 l
-7.61 0 l
0 32.57 l
-19.21 0 l
0 -6.04 l
19.18 0 l
0 5.01 l
-23.52 0 l
0 -4.75 l
21.77 0 l
0 -6.90 l
-3.24 0 l
0 -48.15 l
29.13 0 l
0 36.21 l
-7.50 0 l
0 26.54 l
-12.66 0 l
0 -40.94 l
-7.71 0 l
0 -3.36 l
37.92 0 l
0 -9.09 l
7.03 0 l
0 48.82 l
-13.14 0 l
0 -16.30 l
-3.40 0 l
0 -12.77 l
-0.51 0 l
0 27.77 l
-9.05 0 l
0 -26.79 l
-22.75 0 l
0 -28.73 l
58.28 0 l
0 44.08 l
-39.59 0 l
0 -29.84 l
34.17 0 l
0 -29.25 l
198.68 133.78 lineto
0 -22.47 l
13.25 0 l
0 63.59 l
-31.45 0 l
0 -41.18 l
33.21 0 l
0 29.59 l
-27.40 0 l
0 -47.70 l
-15.16 0 l
0 64.08 l
2.70 0 l
0 -6.27 l
-3.56 0 l
0 -3.59 l
-15.38 0 l
0 -18.02 l
16.83 0 l
0 91.23 l
-72.09 0 l
0 -28.31 l
51.96 0 l
0 8.94 l
-39.91 0 l
0 -97.67 l
104.50 0 l
0 -23.85 l
25.55 0 l
0 67.46 l
-57.92 0 l
0 -51.74 l
33.98 0 l
0 36.99 l
-46.01 0 l
0 18.94 l
-31.47 0 l
0 0.85 l
8.44 0 l
0 0.71 l
42.77 0 l
0 -2.06 l
-29.77 0 l
0 -42.88 l
31.52 0 l
0 5.98 l
-15.50 0 l
0 -3.58 l
27.75 0 l
0 -35.53 l
18.33 0 l
0 78.08 l
-47.02 0 l
0 -29.00 l
-11.65 0 l
0 -28.55 l
35.89 0 l
0 8.61 l
-7.05 0 l
0 26.06 l
5.52 0 l
0 -23.85 l
-5.68 0 l
0 43.36 l
-34.07 0 l
0 23.81 l
-1.25 0 l
0 -13.41 l
-36.55 0 l
0 17.33 l
38.49 0 l
0 -37.26 l
19.69 0 l
0 -1.79 l
13.66 0 l
0 28.69 l
-29.05 0 l
0 -21.80 l
-5.78 0 l
0 59.03 l
-31.74 0 l
0 -90.54 l
58.81 0 l
0 8.82 l
8.93 0 l
0 -3.04 l
-17.69 0 l
0 -22.35 l
27.40 0 l
0 26.48 l
-4.41 0 l
0 -43.83 l
35.74 0 l
0 -26.53 l
12.54 0 l
0 32.99 l
-27.24 0 l
0 9.51 l
3.25 0 l
0 -24.04 l
233.71 94.07 lineto
0 79.85 l
-54.46 0 l
0 6.47 l
-20.85 0 l
0 10.75 l
-16.11 0 l
0 -52.84 l
45.91 0 l
0 21.38 l
-38.45 0 l
0 29.18 l
2.08 0 l
0 -14.09 l
26.54 0 l
0 -43.33 l
25.00 0 l
0 18.93 l
-28.65 0 l
0 46.74 l
-15.34 0 l
0 -16.32 l
-19.64 0 l
0 1.37 l
9.87 0 l
0 -11.62 l
15.24 0 l
0 16.55 l
29.51 0 l
0 -18.26 l
-36.15 0 l
0 38.67 l
-30.46 0 l
0 -35.78 l
48.70 0 l
0 -60.01 l
28.26 0 l
0 -8.59 l
3.48 0 l
0 17.33 l
-14.50 0 l
0 18.98 l
26.59 0 l
0 -0.04 l
-22.16 0 l
0 39.92 l
-15.54 0 l
0 -3.38 l
-35.08 0 l
0 30.84 l
-6.92 0 l
0 -15.39 l
34.72 0 l
0 19.11 l
-40.94 0 l
0 -11.63 l
17.74 0 l
0 -4.64 l
-10.75 0 l
0 -43.77 l
50.29 0 l
0 43.44 l
-9.50 0 l
0 -53.28 l
22.88 0 l
0 0.63 l
7.97 0 l
0 9.98 l
-39.53 0 l
0 36.35 l
-16.28 0 l
0 -29.07 l
11.73 0 l
0 53.22 l
-36.35 0 l
0 -37.72 l
49.00 0 l
0 -48.16 l
-5.54 0 l
0 11.10 l
-1.69 0 l
0 44.65 l
-10.99 0 l
0 -41.08 l
12.65 0 l
0 26.13 l
-1.19 0 l
0 10.86 l
0.83 0 l
0 2.22 l
-9.51 0 l
0 38.34 l
-26.03 0 l
0 -39.40 l
9.72 0 l
0 46.45 l
-41.17 0 l
0 5.01 l
9.48 0 l
0 -79.71 l
195.73 150.41 lineto
0 14.82 l
o
0.6353 0.8039 0.3529 srgb
np
73.83 217.57 m
-1.45 4.75 l
-1.23 4.84 l
-0.96 4.84 l
-0.61 4.84 l
-0.19 4.84 l
0.35 4.84 l
1.05 4.85 l
1.98 4.84 l
1.06 1.70 l
2.62 3.14 l
2.25 1.91 l
4.87 2.75 l
0.50 0.18 l
4.37 1.21 l
4.87 0.62 l
4.88 0.04 l
4.87 -0.42 l
4.87 -0.79 l
2.88 -0.66 l
1.99 -0.47 l
4.88 -1.45 l
4.87 -1.66 l
3.29 -1.26 l
1.58 -0.62 l
4.87 -2.13 l
4.52 -2.09 l
0.36 -0.17 l
4.87 -2.52 l
4.00 -2.15 l
0.87 -0.48 l
4.87 -2.84 l
2.52 -1.53 l
2.36 -1.45 l
4.87 -3.11 l
0.42 -0.28 l
4.45 -3.03 l
2.59 -1.81 l
2.28 -1.62 l
4.43 -3.22 l
0.45 -0.33 l
4.87 -3.74 l
0.98 -0.77 l
3.89 -3.12 l
2.11 -1.72 l
2.76 -2.30 l
3.00 -2.54 l
1.88 -1.62 l
3.65 -3.22 l
1.22 -1.10 l
4.09 -3.74 l
0.78 -0.73 l
4.33 -4.11 l
0.54 -0.53 l
4.38 -4.31 l
0.49 -0.50 l
4.25 -4.35 l
0.63 -0.65 l
3.94 -4.19 l
0.93 -1.00 l
3.48 -3.84 l
1.39 -1.56 l
2.87 -3.28 l
2.00 -2.34 l
2.11 -2.50 l
2.77 -3.35 l
1.20 -1.49 l
3.67 -4.61 l
0.18 -0.23 l
3.66 -4.84 l
1.03 -1.41 l
2.49 -3.43 l
2.38 -3.38 l
1.02 -1.46 l
3.25 -4.84 l
0.61 -0.94 l
2.47 -3.91 l
2.40 -3.90 l
0.56 -0.94 l
2.77 -4.84 l
1.54 -2.80 l
1.10 -2.04 l
2.45 -4.84 l
1.32 -2.78 l
0.96 -2.06 l
2.08 -4.84 l
1.84 -4.62 l
0.08 -0.22 l
1.62 -4.84 l
1.42 -4.84 l
1.16 -4.84 l
0.59 -3.38 l
0.25 -1.47 l
0.43 -4.84 l
0.01 -4.84 l
-0.55 -4.84 l
-0.14 -0.62 l
-1.24 -4.22 l
-2.50 -4.84 l
-1.13 -1.50 l
274.96 57.73 lineto
-1.37 -0.96 l
-4.87 -2.29 l
-4.87 -1.26 l
-3.15 -0.33 l
-1.72 -0.15 l
-4.88 0.09 l
-0.56 0.06 l
-4.31 0.48 l
-4.87 0.92 l
-4.87 1.22 l
-4.88 1.46 l
-2.16 0.76 l
-2.71 0.97 l
-4.87 1.96 l
-4.39 1.91 l
-0.48 0.21 l
-4.88 2.38 l
-4.40 2.25 l
-0.47 0.24 l
-4.87 2.73 l
-3.22 1.87 l
-1.65 0.98 l
-4.87 3.01 l
-1.32 0.85 l
-3.56 2.34 l
-3.71 2.50 l
-1.16 0.80 l
-4.87 3.46 l
-0.79 0.58 l
-4.08 3.06 l
-2.34 1.79 l
-2.54 1.97 l
-3.60 2.87 l
-1.27 1.03 l
-4.61 3.81 l
-0.26 0.22 l
-4.87 4.21 l
-0.46 0.41 l
-4.42 3.97 l
-0.95 0.87 l
-3.92 3.65 l
-1.25 1.19 l
-3.62 3.50 l
-1.36 1.34 l
-3.51 3.52 l
-1.30 1.32 l
-3.58 3.71 l
-1.07 1.13 l
-3.80 4.10 l
-0.68 0.74 l
-4.19 4.68 l
-0.15 0.16 l
-4.15 4.85 l
-0.57 0.68 l
-3.43 4.16 l
-1.45 1.78 l
-2.42 3.06 l
-2.45 3.14 l
-1.29 1.70 l
-3.58 4.78 l
-0.04 0.06 l
-3.41 4.84 l
-1.42 2.07 l
-1.87 2.77 l
-3.01 4.56 l
-0.18 0.28 l
-2.97 4.84 l
-1.72 2.90 l
-1.13 1.94 l
-2.69 4.84 l
-1.05 2.00 l
-1.47 2.85 l
-2.35 4.84 l
-1.05 2.34 l
-1.11 2.50 l
-1.95 4.84 l
-1.79 4.84 l
-0.02 0.09 l
o
np
200.64 43.21 m
-0.13 0.08 l
-4.87 3.24 l
-2.25 1.52 l
-2.63 1.80 l
-4.35 3.04 l
-0.52 0.36 l
-4.87 3.54 l
-1.27 0.94 l
-3.60 2.70 l
-2.81 2.14 l
-2.07 1.59 l
-4.14 3.25 l
-0.73 0.58 l
-4.87 3.93 l
-0.40 0.33 l
-4.47 3.73 l
-1.31 1.11 l
-3.57 3.05 l
-2.06 1.79 l
-2.81 2.48 l
-2.66 2.36 l
-2.21 2.00 l
-3.10 2.85 l
-1.77 1.63 l
-3.41 3.21 l
-1.47 1.39 l
-3.57 3.45 l
-1.30 1.26 l
-3.61 3.58 l
-1.26 1.26 l
-3.53 3.58 l
-1.34 1.38 l
-3.32 3.46 l
-1.56 1.64 l
-2.99 3.20 l
-1.88 2.04 l
-2.55 2.80 l
-2.32 2.58 l
-2.01 2.26 l
-2.86 3.27 l
-1.36 1.57 l
-3.52 4.12 l
-0.60 0.72 l
-4.02 4.85 l
-0.25 0.30 l
-3.64 4.54 l
-1.23 1.55 l
-2.57 3.29 l
-2.30 3.00 l
-1.40 1.84 l
-3.47 4.64 l
-0.15 0.20 l
-3.48 4.84 l
-1.25 1.76 l
-2.14 3.08 l
-2.73 3.98 l
-0.58 0.86 l
-3.19 4.84 l
-1.10 1.73 l
-1.97 3.11 l
-2.90 4.67 l
o
np
293.08 137.10 m
-1.91 2.92 l
-2.96 4.43 l
-0.28 0.42 l
-3.37 4.84 l
-1.22 1.71 l
-2.25 3.13 l
-2.62 3.58 l
-0.93 1.26 l
-3.66 4.84 l
-0.29 0.38 l
-3.49 4.46 l
-1.38 1.74 l
-2.49 3.10 l
-2.38 2.92 l
-1.59 1.92 l
-3.28 3.93 l
-0.78 0.91 l
-4.10 4.76 l
-0.07 0.08 l
-4.29 4.84 l
-0.51 0.57 l
-3.89 4.28 l
-0.98 1.05 l
-3.54 3.79 l
-1.33 1.41 l
-3.29 3.43 l
-1.59 1.63 l
-3.15 3.21 l
-1.72 1.72 l
-3.14 3.12 l
-1.73 1.69 l
-3.26 3.15 l
-1.61 1.54 l
-3.51 3.30 l
-1.37 1.27 l
-3.89 3.57 l
-0.98 0.89 l
-4.42 3.95 l
-0.45 0.40 l
-4.87 4.24 l
-0.24 0.20 l
-4.63 3.91 l
-1.13 0.93 l
-3.75 3.08 l
-2.18 1.77 l
-2.69 2.15 l
-3.42 2.69 l
-1.45 1.13 l
-4.85 3.71 l
-0.02 0.02 l
-4.88 3.58 l
-1.71 1.24 l
-3.16 2.25 l
-3.68 2.59 l
-1.19 0.82 l
-4.87 3.30 l
-1.10 0.72 l
-3.78 2.45 l
-3.75 2.39 l
o
np
169.20 43.21 m
-2.80 2.20 l
-3.32 2.64 l
-1.55 1.24 l
-4.42 3.60 l
-0.45 0.37 l
-4.88 4.06 l
-0.48 0.41 l
-4.39 3.75 l
-1.26 1.09 l
-3.61 3.15 l
-1.91 1.69 l
-2.96 2.64 l
-2.45 2.20 l
-2.43 2.22 l
-2.85 2.62 l
-2.02 1.88 l
-3.14 2.96 l
-1.73 1.64 l
-3.33 3.20 l
-1.54 1.50 l
-3.41 3.35 l
-1.47 1.45 l
-3.37 3.39 l
-1.50 1.51 l
-3.25 3.33 l
-1.62 1.68 l
-3.02 3.16 l
-1.85 1.95 l
-2.71 2.89 l
-2.17 2.34 l
-2.29 2.50 l
-2.58 2.85 l
-1.79 1.99 l
-3.08 3.47 l
-1.21 1.37 l
-3.66 4.22 l
-0.54 0.62 l
-4.11 4.84 l
-0.22 0.27 l
-3.79 4.57 l
-1.09 1.33 l
-2.84 3.52 l
-2.03 2.53 l
-1.83 2.31 l
-3.04 3.88 l
-0.74 0.96 l
-3.70 4.84 l
-0.43 0.58 l
o
np
293.08 168.52 m
-0.42 0.55 l
-3.83 4.84 l
-0.62 0.77 l
-3.30 4.07 l
-1.57 1.92 l
-2.42 2.92 l
-2.45 2.93 l
-1.63 1.91 l
-3.25 3.80 l
-0.90 1.04 l
-3.97 4.54 l
-0.27 0.31 l
-4.34 4.84 l
-0.26 0.28 l
-4.17 4.56 l
-0.70 0.75 l
-3.83 4.09 l
-1.05 1.11 l
-3.56 3.73 l
-1.31 1.35 l
-3.40 3.49 l
-1.47 1.49 l
-3.34 3.35 l
-1.53 1.52 l
-3.38 3.32 l
-1.50 1.46 l
-3.51 3.38 l
-1.36 1.29 l
-3.76 3.55 l
-1.11 1.04 l
-4.13 3.80 l
-0.74 0.69 l
-4.60 4.16 l
-0.28 0.24 l
-4.87 4.30 l
-0.34 0.30 l
-4.53 3.91 l
-1.09 0.93 l
-3.78 3.19 l
-1.98 1.65 l
-2.89 2.39 l
-3.01 2.45 l
-1.87 1.51 l
-4.18 3.33 l
-0.69 0.55 l
-4.87 3.78 l
-0.67 0.51 l
o
np
145.79 43.21 m
-3.75 3.21 l
-1.89 1.63 l
-2.98 2.60 l
-2.54 2.24 l
-2.34 2.07 l
-3.08 2.77 l
-1.79 1.62 l
-3.52 3.22 l
-1.35 1.25 l
-3.86 3.59 l
-1.01 0.96 l
-4.10 3.88 l
-0.78 0.74 l
-4.24 4.10 l
-0.63 0.62 l
-4.29 4.22 l
-0.58 0.58 l
-4.25 4.26 l
-0.62 0.63 l
-4.13 4.22 l
-0.75 0.76 l
-3.91 4.08 l
-0.96 1.00 l
-3.62 3.84 l
-1.25 1.33 l
-3.25 3.51 l
-1.62 1.77 l
-2.80 3.07 l
-2.07 2.30 l
-2.27 2.54 l
-2.61 2.95 l
-1.66 1.89 l
-3.21 3.70 l
-0.99 1.14 l
-3.88 4.56 l
-0.24 0.28 l
-4.04 4.84 l
-0.59 0.72 l
o
np
293.08 191.91 m
-1.16 1.36 l
-3.71 4.33 l
-0.44 0.52 l
-4.24 4.84 l
-0.19 0.21 l
-4.13 4.63 l
-0.74 0.82 l
-3.66 4.02 l
-1.22 1.32 l
-3.25 3.52 l
-1.62 1.73 l
-2.94 3.11 l
-1.93 2.03 l
-2.70 2.81 l
-2.17 2.24 l
-2.55 2.60 l
-2.33 2.36 l
-2.47 2.48 l
-2.40 2.39 l
-2.49 2.45 l
-2.38 2.33 l
-2.60 2.51 l
-2.27 2.19 l
-2.80 2.66 l
-2.08 1.95 l
-3.09 2.89 l
-1.78 1.64 l
-3.49 3.20 l
-1.38 1.25 l
-3.99 3.59 l
-0.88 0.79 l
-4.59 4.05 l
-0.29 0.25 l
-4.87 4.21 l
-0.44 0.38 l
-4.43 3.76 l
-1.29 1.08 l
o
np
126.28 43.21 m
-3.73 3.36 l
-1.62 1.48 l
-3.25 2.97 l
-2.02 1.87 l
-2.86 2.66 l
-2.32 2.18 l
-2.55 2.41 l
-2.54 2.43 l
-2.33 2.24 l
-2.68 2.60 l
-2.19 2.15 l
-2.73 2.69 l
-2.15 2.13 l
-2.70 2.71 l
-2.17 2.20 l
-2.60 2.64 l
-2.27 2.34 l
-2.42 2.50 l
-2.45 2.57 l
-2.17 2.28 l
-2.70 2.87 l
-1.84 1.97 l
-3.04 3.27 l
-1.44 1.57 l
-3.43 3.76 l
-0.98 1.08 l
-3.89 4.34 l
-0.45 0.50 l
-4.26 4.84 l
-0.16 0.18 l
o
np
293.08 211.42 m
-1.09 1.22 l
-3.78 4.19 l
-0.59 0.65 l
-4.28 4.67 l
-0.16 0.17 l
-4.52 4.84 l
-0.19 0.21 l
-4.41 4.63 l
-0.47 0.49 l
-4.19 4.35 l
-0.68 0.70 l
-4.06 4.14 l
-0.81 0.82 l
-4.01 4.02 l
-0.86 0.86 l
-4.04 3.99 l
-0.84 0.82 l
-4.13 4.02 l
-0.74 0.71 l
-4.32 4.13 l
-0.55 0.52 l
-4.59 4.32 l
-0.28 0.26 l
-4.88 4.51 l
-0.07 0.07 l
-4.80 4.36 l
-0.53 0.48 l
-4.34 3.87 l
-1.09 0.97 l
o
np
109.21 43.21 m
-1.28 1.19 l
-3.89 3.65 l
-0.98 0.92 l
-4.12 3.92 l
-0.75 0.72 l
-4.27 4.12 l
-0.61 0.59 l
-4.33 4.25 l
-0.54 0.53 l
-4.33 4.31 l
-0.54 0.54 l
-4.25 4.30 l
-0.62 0.63 l
-4.11 4.21 l
-0.76 0.79 l
-3.90 4.05 l
-0.98 1.03 l
-3.61 3.81 l
-1.26 1.35 l
-3.26 3.50 l
-1.61 1.74 l
-2.85 3.10 l
-2.02 2.22 l
o
np
293.08 228.50 m
-3.26 3.50 l
-1.61 1.72 l
-2.96 3.12 l
-1.91 2.01 l
-2.72 2.83 l
-2.15 2.23 l
-2.55 2.61 l
-2.33 2.37 l
-2.44 2.48 l
-2.43 2.43 l
-2.41 2.41 l
-2.46 2.43 l
-2.46 2.41 l
-2.41 2.35 l
-2.58 2.49 l
-2.30 2.20 l
-2.76 2.64 l
-2.11 1.99 l
-3.03 2.85 l
-1.84 1.71 l
-3.38 3.13 l
o
np
93.83 43.21 m
-0.52 0.49 l
-4.52 4.35 l
-0.35 0.34 l
-4.61 4.50 l
-0.26 0.25 l
-4.64 4.59 l
-0.23 0.23 l
-4.60 4.61 l
-0.27 0.28 l
-4.49 4.56 l
-0.39 0.39 l
-4.31 4.45 l
-0.56 0.58 l
-4.08 4.26 l
-0.79 0.84 l
-3.78 4.00 l
-1.09 1.17 l
o
np
293.08 243.89 m
-2.52 2.63 l
-2.35 2.45 l
-2.32 2.40 l
-2.55 2.60 l
-2.20 2.24 l
-2.67 2.70 l
-2.13 2.14 l
-2.75 2.73 l
-2.12 2.11 l
-2.75 2.70 l
-2.19 2.14 l
-2.68 2.60 l
-2.33 2.24 l
-2.54 2.43 l
-2.54 2.41 l
o
np
79.73 43.21 m
-1.03 1.01 l
-3.90 3.83 l
-0.97 0.97 l
-3.89 3.87 l
-0.99 0.99 l
-3.81 3.85 l
-1.06 1.07 l
-3.69 3.77 l
-1.18 1.22 l
-3.50 3.62 l
-1.37 1.43 l
o
np
293.08 258.00 m
-2.97 3.05 l
-1.90 1.93 l
-2.88 2.91 l
-1.99 1.99 l
-2.85 2.85 l
-2.02 2.00 l
-2.89 2.84 l
-1.99 1.94 l
-2.98 2.90 l
o
np
66.64 43.21 m
-2.56 2.55 l
-2.28 2.29 l
-2.59 2.61 l
-2.20 2.23 l
-2.67 2.73 l
o
np
293.08 271.13 m
-4.42 4.44 l
-0.45 0.44 l
-4.43 4.40 l
o
np
54.34 43.21 m
0 0 l
o
0.4235 0.6510 0.8039 srgb
0.21 setlinewidth
[ 0.85 0.85] 0 setdash
10.00 setmiterlimit
np
42.40 160.29 m
262.62 0 l
o
np
176.74 31.35 m
0 260.92 l
o
/bg { 0.3412 0.3412 0.3412 srgb } def
0.3412 0.3412 0.3412 srgb
0.71 setlinewidth
[] 0 setdash
1 setlinecap
176.74 160.29 3.56 c p3
176.74 160.29 3.56 c p3
176.74 160.29 3.56 c p3
176.74 160.29 3.56 c p3
176.74 160.29 3.56 c p3
176.74 160.29 3.56 c p3
176.74 160.29 3.56 c p3
176.74 160.29 3.56 c p3
176.74 160.29 3.56 c p3
176.74 160.29 3.56 c p3
176.74 160.29 3.56 c p3
176.74 160.29 3.56 c p3
176.74 160.29 3.56 c p3
176.74 160.29 3.56 c p3
176.74 160.29 3.56 c p3
176.74 160.29 3.56 c p3
176.74 160.29 3.56 c p3
176.74 160.29 3.56 c p3
176.74 160.29 3.56 c p3
176.74 160.29 3.56 c p3
176.74 160.29 3.56 c p3
176.74 160.29 3.56 c p3
176.74 160.29 3.56 c p3
176.74 160.29 3.56 c p3
176.74 160.29 3.56 c p3
176.74 160.29 3.56 c p3
176.74 160.29 3.56 c p3
176.74 160.29 3.56 c p3
176.74 160.29 3.56 c p3
176.74 160.29 3.56 c p3
176.74 160.29 3.56 c p3
176.74 160.29 3.56 c p3
176.74 160.29 3.56 c p3
176.74 160.29 3.56 c p3
176.74 160.29 3.56 c p3
176.74 160.29 3.56 c p3
176.74 160.29 3.56 c p3
176.74 160.29 3.56 c p3
176.74 160.29 3.56 c p3
176.74 160.29 3.56 c p3
176.74 160.29 3.56 c p3
176.74 160.29 3.56 c p3
176.74 160.29 3.56 c p3
176.74 160.29 3.56 c p3
176.74 160.29 3.56 c p3
176.74 160.29 3.56 c p3
176.74 160.29 3.56 c p3
176.74 160.29 3.56 c p3
176.74 160.29 3.56 c p3
176.74 160.29 3.56 c p3
176.74 160.29 3.56 c p3
176.74 160.29 3.56 c p3
176.74 160.29 3.56 c p3
176.74 160.29 3.56 c p3
176.74 160.29 3.56 c p3
176.74 160.29 3.56 c p3
176.74 160.29 3.56 c p3
176.74 160.29 3.56 c p3
176.74 160.29 3.56 c p3
176.74 160.29 3.56 c p3
176.74 160.29 3.56 c p3
176.74 160.29 3.56 c p3
176.74 160.29 3.56 c p3
176.74 160.29 3.56 c p3
176.74 160.29 3.56 c p3
176.74 160.29 3.56 c p3
176.74 160.29 3.56 c p3
176.74 160.29 3.56 c p3
176.74 160.29 3.56 c p3
176.74 160.29 3.56 c p3
176.74 160.29 3.56 c p3
176.74 160.29 3.56 c p3
176.74 160.29 3.56 c p3
176.74 160.29 3.56 c p3
176.74 160.29 3.56 c p3
176.74 160.29 3.56 c p3
176.74 160.29 3.56 c p3
176.74 160.29 3.56 c p3
176.74 160.29 3.56 c p3
176.74 160.29 3.56 c p3
176.74 160.29 3.56 c p3
176.74 160.29 3.56 c p3
176.74 160.29 3.56 c p3
176.74 160.29 3.56 c p3
176.74 160.29 3.56 c p3
176.74 160.29 3.56 c p3
176.74 160.29 3.56 c p3
176.74 160.29 3.56 c p3
176.74 160.29 3.56 c p3
176.74 160.29 3.56 c p3
176.74 160.29 3.56 c p3
176.74 160.29 3.56 c p3
176.74 160.29 3.56 c p3
176.74 160.29 3.56 c p3
176.74 160.29 3.56 c p3
176.74 160.29 3.56 c p3
176.74 160.29 3.56 c p3
176.74 160.29 3.56 c p3
176.74 160.29 3.56 c p3
176.74 160.29 3.56 c p3
176.74 160.29 3.56 c p3
176.74 160.29 3.56 c p3
176.74 160.29 3.56 c p3
176.74 160.29 3.56 c p3
176.74 160.29 3.56 c p3
176.74 160.29 3.56 c p3
176.74 160.29 3.56 c p3
176.74 160.29 3.56 c p3
176.74 160.29 3.56 c p3
176.74 160.29 3.56 c p3
176.74 160.29 3.56 c p3
176.74 160.29 3.56 c p3
176.74 160.29 3.56 c p3
176.74 160.29 3.56 c p3
176.74 160.29 3.56 c p3
176.74 160.29 3.56 c p3
176.74 160.29 3.56 c p3
176.74 160.29 3.56 c p3
176.74 160.29 3.56 c p3
176.74 160.29 3.56 c p3
176.74 160.29 3.56 c p3
176.74 160.29 3.56 c p3
176.74 160.29 3.56 c p3
176.74 160.29 3.56 c p3
176.74 160.29 3.56 c p3
176.74 160.29 3.56 c p3
176.74 160.29 3.56 c p3
176.74 160.29 3.56 c p3
176.74 160.29 3.56 c p3
176.74 160.29 3.56 c p3
176.74 160.29 3.56 c p3
176.74 160.29 3.56 c p3
176.74 160.29 3.56 c p3
176.74 160.29 3.56 c p3
176.74 160.29 3.56 c p3
176.74 160.29 3.56 c p3
176.74 160.29 3.56 c p3
176.74 160.29 3.56 c p3
176.74 160.29 3.56 c p3
176.74 160.29 3.56 c p3
176.74 160.29 3.56 c p3
176.74 160.29 3.56 c p3
176.74 160.29 3.56 c p3
176.74 160.29 3.56 c p3
176.74 160.29 3.56 c p3
176.74 160.29 3.56 c p3
176.74 160.29 3.56 c p3
176.74 160.29 3.56 c p3
176.74 160.29 3.56 c p3
176.74 160.29 3.56 c p3
176.74 160.29 3.56 c p3
176.74 160.29 3.56 c p3
176.74 160.29 3.56 c p3
176.74 160.29 3.56 c p3
176.74 160.29 3.56 c p3
176.74 160.29 3.56 c p3
176.74 160.29 3.56 c p3
176.74 160.29 3.56 c p3
176.74 160.29 3.56 c p3
176.74 160.29 3.56 c p3
176.74 160.29 3.56 c p3
176.74 160.29 3.56 c p3
176.74 160.29 3.56 c p3
176.74 160.29 3.56 c p3
176.74 160.29 3.56 c p3
176.74 160.29 3.56 c p3
176.74 160.29 3.56 c p3
176.74 160.29 3.56 c p3
176.74 160.29 3.56 c p3
176.74 160.29 3.56 c p3
176.74 160.29 3.56 c p3
176.74 160.29 3.56 c p3
176.74 160.29 3.56 c p3
176.74 160.29 3.56 c p3
176.74 160.29 3.56 c p3
176.74 160.29 3.56 c p3
176.74 160.29 3.56 c p3
176.74 160.29 3.56 c p3
176.74 160.29 3.56 c p3
176.74 160.29 3.56 c p3
176.74 160.29 3.56 c p3
176.74 160.29 3.56 c p3
176.74 160.29 3.56 c p3
176.74 160.29 3.56 c p3
176.74 160.29 3.56 c p3
176.74 160.29 3.56 c p3
176.74 160.29 3.56 c p3
176.74 160.29 3.56 c p3
176.74 160.29 3.56 c p3
176.74 160.29 3.56 c p3
176.74 160.29 3.56 c p3
176.74 160.29 3.56 c p3
176.74 160.29 3.56 c p3
176.74 160.29 3.56 c p3
176.74 160.29 3.56 c p3
176.74 160.29 3.56 c p3
176.74 160.29 3.56 c p3
176.74 160.29 3.56 c p3
176.74 160.29 3.56 c p3
176.74 160.29 3.56 c p3
176.74 160.29 3.56 c p3
176.74 160.29 3.56 c p3
176.74 160.29 3.56 c p3
176.74 160.29 3.56 c p3
176.74 160.29 3.56 c p3
176.74 160.29 3.56 c p3
176.74 160.29 3.56 c p3
176.74 160.29 3.56 c p3
176.74 160.29 3.56 c p3
176.74 160.29 3.56 c p3
176.74 160.29 3.56 c p3
176.74 160.29 3.56 c p3
176.74 160.29 3.56 c p3
176.74 160.29 3.56 c p3
176.74 160.29 3.56 c p3
176.74 160.29 3.56 c p3
176.74 160.29 3.56 c p3
176.74 160.29 3.56 c p3
176.74 160.29 3.56 c p3
176.74 160.29 3.56 c p3
176.74 160.29 3.56 c p3
176.74 160.29 3.56 c p3
176.74 160.29 3.56 c p3
176.74 160.29 3.56 c p3
176.74 160.29 3.56 c p3
176.74 160.29 3.56 c p3
176.74 160.29 3.56 c p3
176.74 160.29 3.56 c p3
176.74 160.29 3.56 c p3
176.74 160.29 3.56 c p3
176.74 160.29 3.56 c p3
176.74 160.29 3.56 c p3
176.74 160.29 3.56 c p3
176.74 160.29 3.56 c p3
176.74 160.29 3.56 c p3
176.74 160.29 3.56 c p3
176.74 160.29 3.56 c p3
176.74 160.29 3.56 c p3
176.74 160.29 3.56 c p3
176.74 160.29 3.56 c p3
176.74 160.29 3.56 c p3
176.74 160.29 3.56 c p3
176.74 160.29 3.56 c p3
176.74 160.29 3.56 c p3
176.74 160.29 3.56 c p3
176.74 160.29 3.56 c p3
176.74 160.29 3.56 c p3
176.74 160.29 3.56 c p3
176.74 160.29 3.56 c p3
176.74 160.29 3.56 c p3
176.74 160.29 3.56 c p3
176.74 160.29 3.56 c p3
176.74 160.29 3.56 c p3
176.74 160.29 3.56 c p3
176.74 160.29 3.56 c p3
176.74 160.29 3.56 c p3
176.74 160.29 3.56 c p3
176.74 160.29 3.56 c p3
176.74 160.29 3.56 c p3
176.74 160.29 3.56 c p3
176.74 160.29 3.56 c p3
176.74 160.29 3.56 c p3
176.74 160.29 3.56 c p3
176.74 160.29 3.56 c p3
176.74 160.29 3.56 c p3
176.74 160.29 3.56 c p3
176.74 160.29 3.56 c p3
176.74 160.29 3.56 c p3
176.74 160.29 3.56 c p3
176.74 160.29 3.56 c p3
176.74 160.29 3.56 c p3
176.74 160.29 3.56 c p3
176.74 160.29 3.56 c p3
176.74 160.29 3.56 c p3
176.74 160.29 3.56 c p3
176.74 160.29 3.56 c p3
176.74 160.29 3.56 c p3
176.74 160.29 3.56 c p3
176.74 160.29 3.56 c p3
176.74 160.29 3.56 c p3
176.74 160.29 3.56 c p3
176.74 160.29 3.56 c p3
176.74 160.29 3.56 c p3
176.74 160.29 3.56 c p3
176.74 160.29 3.56 c p3
176.74 160.29 3.56 c p3
176.74 160.29 3.56 c p3
176.74 160.29 3.56 c p3
176.74 160.29 3.56 c p3
176.74 160.29 3.56 c p3
176.74 160.29 3.56 c p3
176.74 160.29 3.56 c p3
176.74 160.29 3.56 c p3
176.74 160.29 3.56 c p3
176.74 160.29 3.56 c p3
176.74 160.29 3.56 c p3
176.74 160.29 3.56 c p3
176.74 160.29 3.56 c p3
176.74 160.29 3.56 c p3
176.74 160.29 3.56 c p3
176.74 160.29 3.56 c p3
176.74 160.29 3.56 c p3
176.74 160.29 3.56 c p3
176.74 160.29 3.56 c p3
176.74 160.29 3.56 c p3
176.74 160.29 3.56 c p3
176.74 160.29 3.56 c p3
176.74 160.29 3.56 c p3
176.74 160.29 3.56 c p3
176.74 160.29 3.56 c p3
176.74 160.29 3.56 c p3
176.74 160.29 3.56 c p3
176.74 160.29 3.56 c p3
176.74 160.29 3.56 c p3
176.74 160.29 3.56 c p3
176.74 160.29 3.56 c p3
176.74 160.29 3.56 c p3
176.74 160.29 3.56 c p3
176.74 160.29 3.56 c p3
176.74 160.29 3.56 c p3
176.74 160.29 3.56 c p3
176.74 160.29 3.56 c p3
176.74 160.29 3.56 c p3
176.74 160.29 3.56 c p3
176.74 160.29 3.56 c p3
176.74 160.29 3.56 c p3
176.74 160.29 3.56 c p3
176.74 160.29 3.56 c p3
176.74 160.29 3.56 c p3
176.74 160.29 3.56 c p3
176.74 160.29 3.56 c p3
176.74 160.29 3.56 c p3
176.74 160.29 3.56 c p3
176.74 160.29 3.56 c p3
176.74 160.29 3.56 c p3
176.74 160.29 3.56 c p3
176.74 160.29 3.56 c p3
176.74 160.29 3.56 c p3
176.74 160.29 3.56 c p3
176.74 160.29 3.56 c p3
176.74 160.29 3.56 c p3
176.74 160.29 3.56 c p3
176.74 160.29 3.56 c p3
176.74 160.29 3.56 c p3
176.74 160.29 3.56 c p3
176.74 160.29 3.56 c p3
176.74 160.29 3.56 c p3
176.74 160.29 3.56 c p3
176.74 160.29 3.56 c p3
176.74 160.29 3.56 c p3
176.74 160.29 3.56 c p3
176.74 160.29 3.56 c p3
176.74 160.29 3.56 c p3
176.74 160.29 3.56 c p3
176.74 160.29 3.56 c p3
176.74 160.29 3.56 c p3
176.74 160.29 3.56 c p3
176.74 160.29 3.56 c p3
176.74 160.29 3.56 c p3
176.74 160.29 3.56 c p3
176.74 160.29 3.56 c p3
176.74 160.29 3.56 c p3
176.74 160.29 3.56 c p3
176.74 160.29 3.56 c p3
176.74 160.29 3.56 c p3
176.74 160.29 3.56 c p3
176.74 160.29 3.56 c p3
176.74 160.29 3.56 c p3
176.74 160.29 3.56 c p3
176.74 160.29 3.56 c p3
176.74 160.29 3.56 c p3
176.74 160.29 3.56 c p3
176.74 160.29 3.56 c p3
176.74 160.29 3.56 c p3
176.74 160.29 3.56 c p3
176.74 160.29 3.56 c p3
176.74 160.29 3.56 c p3
176.74 160.29 3.56 c p3
176.74 160.29 3.56 c p3
176.74 160.29 3.56 c p3
176.74 160.29 3.56 c p3
176.74 160.29 3.56 c p3
176.74 160.29 3.56 c p3
176.74 160.29 3.56 c p3
176.74 160.29 3.56 c p3
176.74 160.29 3.56 c p3
176.74 160.29 3.56 c p3
176.74 160.29 3.56 c p3
176.74 160.29 3.56 c p3
176.74 160.29 3.56 c p3
176.74 160.29 3.56 c p3
176.74 160.29 3.56 c p3
176.74 160.29 3.56 c p3
176.74 160.29 3.56 c p3
176.74 160.29 3.56 c p3
176.74 160.29 3.56 c p3
176.74 160.29 3.56 c p3
176.74 160.29 3.56 c p3
176.74 160.29 3.56 c p3
176.74 160.29 3.56 c p3
176.74 160.29 3.56 c p3
176.74 160.29 3.56 c p3
176.74 160.29 3.56 c p3
176.74 160.29 3.56 c p3
176.74 160.29 3.56 c p3
176.74 160.29 3.56 c p3
176.74 160.29 3.56 c p3
176.74 160.29 3.56 c p3
176.74 160.29 3.56 c p3
176.74 160.29 3.56 c p3
176.74 160.29 3.56 c p3
176.74 160.29 3.56 c p3
176.74 160.29 3.56 c p3
176.74 160.29 3.56 c p3
176.74 160.29 3.56 c p3
176.74 160.29 3.56 c p3
176.74 160.29 3.56 c p3
176.74 160.29 3.56 c p3
176.74 160.29 3.56 c p3
176.74 160.29 3.56 c p3
176.74 160.29 3.56 c p3
176.74 160.29 3.56 c p3
176.74 160.29 3.56 c p3
176.74 160.29 3.56 c p3
176.74 160.29 3.56 c p3
176.74 160.29 3.56 c p3
176.74 160.29 3.56 c p3
176.74 160.29 3.56 c p3
176.74 160.29 3.56 c p3
176.74 160.29 3.56 c p3
176.74 160.29 3.56 c p3
176.74 160.29 3.56 c p3
176.74 160.29 3.56 c p3
176.74 160.29 3.56 c p3
176.74 160.29 3.56 c p3
176.74 160.29 3.56 c p3
176.74 160.29 3.56 c p3
176.74 160.29 3.56 c p3
176.74 160.29 3.56 c p3
176.74 160.29 3.56 c p3
176.74 160.29 3.56 c p3
176.74 160.29 3.56 c p3
176.74 160.29 3.56 c p3
176.74 160.29 3.56 c p3
176.74 160.29 3.56 c p3
176.74 160.29 3.56 c p3
176.74 160.29 3.56 c p3
176.74 160.29 3.56 c p3
176.74 160.29 3.56 c p3
176.74 160.29 3.56 c p3
176.74 160.29 3.56 c p3
176.74 160.29 3.56 c p3
176.74 160.29 3.56 c p3
176.74 160.29 3.56 c p3
176.74 160.29 3.56 c p3
176.74 160.29 3.56 c p3
176.74 160.29 3.56 c p3
176.74 160.29 3.56 c p3
176.74 160.29 3.56 c p3
176.74 160.29 3.56 c p3
176.74 160.29 3.56 c p3
176.74 160.29 3.56 c p3
176.74 160.29 3.56 c p3
176.74 160.29 3.56 c p3
176.74 160.29 3.56 c p3
176.74 160.29 3.56 c p3
176.74 160.29 3.56 c p3
176.74 160.29 3.56 c p3
176.74 160.29 3.56 c p3
176.74 160.29 3.56 c p3
176.74 160.29 3.56 c p3
176.74 160.29 3.56 c p3
176.74 160.29 3.56 c p3
176.74 160.29 3.56 c p3
176.74 160.29 3.56 c p3
176.74 160.29 3.56 c p3
176.74 160.29 3.56 c p3
176.74 160.29 3.56 c p3
176.74 160.29 3.56 c p3
176.74 160.29 3.56 c p3
176.74 160.29 3.56 c p3
176.74 160.29 3.56 c p3
176.74 160.29 3.56 c p3
176.74 160.29 3.56 c p3
176.74 160.29 3.56 c p3
176.74 160.29 3.56 c p3
176.74 160.29 3.56 c p3
176.74 160.29 3.56 c p3
176.74 160.29 3.56 c p3
176.74 160.29 3.56 c p3
176.74 160.29 3.56 c p3
176.74 160.29 3.56 c p3
176.74 160.29 3.56 c p3
176.74 160.29 3.56 c p3
176.74 160.29 3.56 c p3
176.74 160.29 3.56 c p3
176.74 160.29 3.56 c p3
176.74 160.29 3.56 c p3
176.74 160.29 3.56 c p3
176.74 160.29 3.56 c p3
176.74 160.29 3.56 c p3
176.74 160.29 3.56 c p3
176.74 160.29 3.56 c p3
176.74 160.29 3.56 c p3
176.74 160.29 3.56 c p3
176.74 160.29 3.56 c p3
176.74 160.29 3.56 c p3
176.74 160.29 3.56 c p3
176.74 160.29 3.56 c p3
176.74 160.29 3.56 c p3
176.74 160.29 3.56 c p3
176.74 160.29 3.56 c p3
176.74 160.29 3.56 c p3
176.74 160.29 3.56 c p3
176.74 160.29 3.56 c p3
176.74 160.29 3.56 c p3
176.74 160.29 3.56 c p3
176.74 160.29 3.56 c p3
176.74 160.29 3.56 c p3
176.74 160.29 3.56 c p3
176.74 160.29 3.56 c p3
176.74 160.29 3.56 c p3
176.74 160.29 3.56 c p3
176.74 160.29 3.56 c p3
176.74 160.29 3.56 c p3
176.74 160.29 3.56 c p3
176.74 160.29 3.56 c p3
176.74 160.29 3.56 c p3
176.74 160.29 3.56 c p3
176.74 160.29 3.56 c p3
176.74 160.29 3.56 c p3
176.74 160.29 3.56 c p3
176.74 160.29 3.56 c p3
176.74 160.29 3.56 c p3
176.74 160.29 3.56 c p3
176.74 160.29 3.56 c p3
176.74 160.29 3.56 c p3
176.74 160.29 3.56 c p3
176.74 160.29 3.56 c p3
176.74 160.29 3.56 c p3
176.74 160.29 3.56 c p3
176.74 160.29 3.56 c p3
176.74 160.29 3.56 c p3
176.74 160.29 3.56 c p3
176.74 160.29 3.56 c p3
176.74 160.29 3.56 c p3
176.74 160.29 3.56 c p3
176.74 160.29 3.56 c p3
176.74 160.29 3.56 c p3
176.74 160.29 3.56 c p3
176.74 160.29 3.56 c p3
176.74 160.29 3.56 c p3
176.74 160.29 3.56 c p3
176.74 160.29 3.56 c p3
176.74 160.29 3.56 c p3
176.74 160.29 3.56 c p3
176.74 160.29 3.56 c p3
176.74 160.29 3.56 c p3
176.74 160.29 3.56 c p3
176.74 160.29 3.56 c p3
176.74 160.29 3.56 c p3
176.74 160.29 3.56 c p3
176.74 160.29 3.56 c p3
176.74 160.29 3.56 c p3
176.74 160.29 3.56 c p3
176.74 160.29 3.56 c p3
176.74 160.29 3.56 c p3
176.74 160.29 3.56 c p3
176.74 160.29 3.56 c p3
176.74 160.29 3.56 c p3
176.74 160.29 3.56 c p3
176.74 160.29 3.56 c p3
176.74 160.29 3.56 c p3
176.74 160.29 3.56 c p3
176.74 160.29 3.56 c p3
176.74 160.29 3.56 c p3
176.74 160.29 3.56 c p3
176.74 160.29 3.56 c p3
176.74 160.29 3.56 c p3
176.74 160.29 3.56 c p3
176.74 160.29 3.56 c p3
176.74 160.29 3.56 c p3
176.74 160.29 3.56 c p3
176.74 160.29 3.56 c p3
176.74 160.29 3.56 c p3
176.74 160.29 3.56 c p3
176.74 160.29 3.56 c p3
176.74 160.29 3.56 c p3
176.74 160.29 3.56 c p3
176.74 160.29 3.56 c p3
176.74 160.29 3.56 c p3
176.74 160.29 3.56 c p3
176.74 160.29 3.56 c p3
176.74 160.29 3.56 c p3
176.74 160.29 3.56 c p3
176.74 160.29 3.56 c p3
176.74 160.29 3.56 c p3
176.74 160.29 3.56 c p3
176.74 160.29 3.56 c p3
176.74 160.29 3.56 c p3
176.74 160.29 3.56 c p3
176.74 160.29 3.56 c p3
176.74 160.29 3.56 c p3
176.74 160.29 3.56 c p3
176.74 160.29 3.56 c p3
176.74 160.29 3.56 c p3
176.74 160.29 3.56 c p3
176.74 160.29 3.56 c p3
176.74 160.29 3.56 c p3
176.74 160.29 3.56 c p3
176.74 160.29 3.56 c p3
176.74 160.29 3.56 c p3
176.74 160.29 3.56 c p3
176.74 160.29 3.56 c p3
176.74 160.29 3.56 c p3
176.74 160.29 3.56 c p3
176.74 160.29 3.56 c p3
176.74 160.29 3.56 c p3
176.74 160.29 3.56 c p3
176.74 160.29 3.56 c p3
176.74 160.29 3.56 c p3
176.74 160.29 3.56 c p3
176.74 160.29 3.56 c p3
176.74 160.29 3.56 c p3
176.74 160.29 3.56 c p3
176.74 160.29 3.56 c p3
176.74 160.29 3.56 c p3
176.74 160.29 3.56 c p3
176.74 160.29 3.56 c p3
176.74 160.29 3.56 c p3
176.74 160.29 3.56 c p3
176.74 160.29 3.56 c p3
176.74 160.29 3.56 c p3
176.74 160.29 3.56 c p3
176.74 160.29 3.56 c p3
176.74 160.29 3.56 c p3
176.74 160.29 3.56 c p3
176.74 160.29 3.56 c p3
176.74 160.29 3.56 c p3
176.74 160.29 3.56 c p3
176.74 160.29 3.56 c p3
176.74 160.29 3.56 c p3
176.74 160.29 3.56 c p3
176.74 160.29 3.56 c p3
176.74 160.29 3.56 c p3
176.74 160.29 3.56 c p3
176.74 160.29 3.56 c p3
176.74 160.29 3.56 c p3
176.74 160.29 3.56 c p3
176.74 160.29 3.56 c p3
176.74 160.29 3.56 c p3
176.74 160.29 3.56 c p3
176.74 160.29 3.56 c p3
176.74 160.29 3.56 c p3
176.74 160.29 3.56 c p3
176.74 160.29 3.56 c p3
176.74 160.29 3.56 c p3
176.74 160.29 3.56 c p3
176.74 160.29 3.56 c p3
176.74 160.29 3.56 c p3
176.74 160.29 3.56 c p3
176.74 160.29 3.56 c p3
176.74 160.29 3.56 c p3
176.74 160.29 3.56 c p3
176.74 160.29 3.56 c p3
176.74 160.29 3.56 c p3
176.74 160.29 3.56 c p3
176.74 160.29 3.56 c p3
176.74 160.29 3.56 c p3
176.74 160.29 3.56 c p3
176.74 160.29 3.56 c p3
176.74 160.29 3.56 c p3
176.74 160.29 3.56 c p3
176.74 160.29 3.56 c p3
176.74 160.29 3.56 c p3
176.74 160.29 3.56 c p3
176.74 160.29 3.56 c p3
176.74 160.29 3.56 c p3
176.74 160.29 3.56 c p3
176.74 160.29 3.56 c p3
176.74 160.29 3.56 c p3
176.74 160.29 3.56 c p3
176.74 160.29 3.56 c p3
176.74 160.29 3.56 c p3
176.74 160.29 3.56 c p3
176.74 160.29 3.56 c p3
176.74 160.29 3.56 c p3
176.74 160.29 3.56 c p3
176.74 160.29 3.56 c p3
176.74 160.29 3.56 c p3
176.74 160.29 3.56 c p3
176.74 160.29 3.56 c p3
176.74 160.29 3.56 c p3
176.74 160.29 3.56 c p3
176.74 160.29 3.56 c p3
176.74 160.29 3.56 c p3
176.74 160.29 3.56 c p3
176.74 160.29 3.56 c p3
176.74 160.29 3.56 c p3
176.74 160.29 3.56 c p3
176.74 160.29 3.56 c p3
176.74 160.29 3.56 c p3
176.74 160.29 3.56 c p3
176.74 160.29 3.56 c p3
176.74 160.29 3.56 c p3
176.74 160.29 3.56 c p3
176.74 160.29 3.56 c p3
176.74 160.29 3.56 c p3
176.74 160.29 3.56 c p3
176.74 160.29 3.56 c p3
176.74 160.29 3.56 c p3
176.74 160.29 3.56 c p3
176.74 160.29 3.56 c p3
176.74 160.29 3.56 c p3
176.74 160.29 3.56 c p3
176.74 160.29 3.56 c p3
176.74 160.29 3.56 c p3
176.74 160.29 3.56 c p3
176.74 160.29 3.56 c p3
176.74 160.29 3.56 c p3
176.74 160.29 3.56 c p3
176.74 160.29 3.56 c p3
176.74 160.29 3.56 c p3
176.74 160.29 3.56 c p3
176.74 160.29 3.56 c p3
176.74 160.29 3.56 c p3
176.74 160.29 3.56 c p3
176.74 160.29 3.56 c p3
176.74 160.29 3.56 c p3
176.74 160.29 3.56 c p3
176.74 160.29 3.56 c p3
176.74 160.29 3.56 c p3
176.74 160.29 3.56 c p3
176.74 160.29 3.56 c p3
176.74 160.29 3.56 c p3
176.74 160.29 3.56 c p3
176.74 160.29 3.56 c p3
176.74 160.29 3.56 c p3
176.74 160.29 3.56 c p3
176.74 160.29 3.56 c p3
176.74 160.29 3.56 c p3
176.74 160.29 3.56 c p3
176.74 160.29 3.56 c p3
176.74 160.29 3.56 c p3
176.74 160.29 3.56 c p3
176.74 160.29 3.56 c p3
176.74 160.29 3.56 c p3
176.74 160.29 3.56 c p3
176.74 160.29 3.56 c p3
176.74 160.29 3.56 c p3
176.74 160.29 3.56 c p3
176.74 160.29 3.56 c p3
176.74 160.29 3.56 c p3
176.74 160.29 3.56 c p3
176.74 160.29 3.56 c p3
176.74 160.29 3.56 c p3
176.74 160.29 3.56 c p3
176.74 160.29 3.56 c p3
176.74 160.29 3.56 c p3
176.74 160.29 3.56 c p3
176.74 160.29 3.56 c p3
176.74 160.29 3.56 c p3
176.74 160.29 3.56 c p3
176.74 160.29 3.56 c p3
176.74 160.29 3.56 c p3
176.74 160.29 3.56 c p3
176.74 160.29 3.56 c p3
176.74 160.29 3.56 c p3
176.74 160.29 3.56 c p3
176.74 160.29 3.56 c p3
176.74 160.29 3.56 c p3
176.74 160.29 3.56 c p3
176.74 160.29 3.56 c p3
176.74 160.29 3.56 c p3
176.74 160.29 3.56 c p3
176.74 160.29 3.56 c p3
176.74 160.29 3.56 c p3
176.74 160.29 3.56 c p3
176.74 160.29 3.56 c p3
176.74 160.29 3.56 c p3
176.74 160.29 3.56 c p3
176.74 160.29 3.56 c p3
176.74 160.29 3.56 c p3
176.74 160.29 3.56 c p3
176.74 160.29 3.56 c p3
176.74 160.29 3.56 c p3
176.74 160.29 3.56 c p3
176.74 160.29 3.56 c p3
176.74 160.29 3.56 c p3
176.74 160.29 3.56 c p3
176.74 160.29 3.56 c p3
176.74 160.29 3.56 c p3
176.74 160.29 3.56 c p3
176.74 160.29 3.56 c p3
176.74 160.29 3.56 c p3
176.74 160.29 3.56 c p3
176.74 160.29 3.56 c p3
176.74 160.29 3.56 c p3
176.74 160.29 3.56 c p3
176.74 160.29 3.56 c p3
176.74 160.29 3.56 c p3
176.74 160.29 3.56 c p3
176.74 160.29 3.56 c p3
176.74 160.29 3.56 c p3
176.74 160.29 3.56 c p3
176.74 160.29 3.56 c p3
176.74 160.29 3.56 c p3
176.74 160.29 3.56 c p3
176.74 160.29 3.56 c p3
176.74 160.29 3.56 c p3
176.74 160.29 3.56 c p3
176.74 160.29 3.56 c p3
176.74 160.29 3.56 c p3
176.74 160.29 3.56 c p3
176.74 160.29 3.56 c p3
176.74 160.29 3.56 c p3
176.74 160.29 3.56 c p3
176.74 160.29 3.56 c p3
176.74 160.29 3.56 c p3
176.74 160.29 3.56 c p3
176.74 160.29 3.56 c p3
176.74 160.29 3.56 c p3
176.74 160.29 3.56 c p3
176.74 160.29 3.56 c p3
176.74 160.29 3.56 c p3
176.74 160.29 3.56 c p3
176.74 160.29 3.56 c p3
176.74 160.29 3.56 c p3
176.74 160.29 3.56 c p3
176.74 160.29 3.56 c p3
176.74 160.29 3.56 c p3
176.74 160.29 3.56 c p3
176.74 160.29 3.56 c p3
176.74 160.29 3.56 c p3
176.74 160.29 3.56 c p3
176.74 160.29 3.56 c p3
176.74 160.29 3.56 c p3
176.74 160.29 3.56 c p3
176.74 160.29 3.56 c p3
176.74 160.29 3.56 c p3
176.74 160.29 3.56 c p3
176.74 160.29 3.56 c p3
176.74 160.29 3.56 c p3
176.74 160.29 3.56 c p3
176.74 160.29 3.56 c p3
176.74 160.29 3.56 c p3
176.74 160.29 3.56 c p3
176.74 160.29 3.56 c p3
176.74 160.29 3.56 c p3
176.74 160.29 3.56 c p3
176.74 160.29 3.56 c p3
176.74 160.29 3.56 c p3
176.74 160.29 3.56 c p3
176.74 160.29 3.56 c p3
176.74 160.29 3.56 c p3
176.74 160.29 3.56 c p3
176.74 160.29 3.56 c p3
176.74 160.29 3.56 c p3
176.74 160.29 3.56 c p3
176.74 160.29 3.56 c p3
176.74 160.29 3.56 c p3
176.74 160.29 3.56 c p3
176.74 160.29 3.56 c p3
176.74 160.29 3.56 c p3
176.74 160.29 3.56 c p3
176.74 160.29 3.56 c p3
176.74 160.29 3.56 c p3
176.74 160.29 3.56 c p3
176.74 160.29 3.56 c p3
176.74 160.29 3.56 c p3
176.74 160.29 3.56 c p3
176.74 160.29 3.56 c p3
176.74 160.29 3.56 c p3
176.74 160.29 3.56 c p3
176.74 160.29 3.56 c p3
176.74 160.29 3.56 c p3
176.74 160.29 3.56 c p3
176.74 160.29 3.56 c p3
176.74 160.29 3.56 c p3
176.74 160.29 3.56 c p3
176.74 160.29 3.56 c p3
176.74 160.29 3.56 c p3
176.74 160.29 3.56 c p3
176.74 160.29 3.56 c p3
176.74 160.29 3.56 c p3
176.74 160.29 3.56 c p3
176.74 160.29 3.56 c p3
176.74 160.29 3.56 c p3
176.74 160.29 3.56 c p3
176.74 160.29 3.56 c p3
176.74 160.29 3.56 c p3
176.74 160.29 3.56 c p3
176.74 160.29 3.56 c p3
176.74 160.29 3.56 c p3
176.74 160.29 3.56 c p3
176.74 160.29 3.56 c p3
176.74 160.29 3.56 c p3
176.74 160.29 3.56 c p3
176.74 160.29 3.56 c p3
176.74 160.29 3.56 c p3
176.74 160.29 3.56 c p3
176.74 160.29 3.56 c p3
176.74 160.29 3.56 c p3
176.74 160.29 3.56 c p3
176.74 160.29 3.56 c p3
176.74 160.29 3.56 c p3
176.74 160.29 3.56 c p3
176.74 160.29 3.56 c p3
176.74 160.29 3.56 c p3
176.74 160.29 3.56 c p3
176.74 160.29 3.56 c p3
176.74 160.29 3.56 c p3
176.74 160.29 3.56 c p3
176.74 160.29 3.56 c p3
176.74 160.29 3.56 c p3
176.74 160.29 3.56 c p3
176.74 160.29 3.56 c p3
176.74 160.29 3.56 c p3
176.74 160.29 3.56 c p3
176.74 160.29 3.56 c p3
176.74 160.29 3.56 c p3
176.74 160.29 3.56 c p3
176.74 160.29 3.56 c p3
176.74 160.29 3.56 c p3
176.74 160.29 3.56 c p3
176.74 160.29 3.56 c p3
176.74 160.29 3.56 c p3
176.74 160.29 3.56 c p3
176.74 160.29 3.56 c p3
176.74 160.29 3.56 c p3
176.74 160.29 3.56 c p3
176.74 160.29 3.56 c p3
176.74 160.29 3.56 c p3
176.74 160.29 3.56 c p3
176.74 160.29 3.56 c p3
176.74 160.29 3.56 c p3
176.74 160.29 3.56 c p3
176.74 160.29 3.56 c p3
176.74 160.29 3.56 c p3
176.74 160.29 3.56 c p3
176.74 160.29 3.56 c p3
176.74 160.29 3.56 c p3
176.74 160.29 3.56 c p3
176.74 160.29 3.56 c p3
176.74 160.29 3.56 c p3
176.74 160.29 3.56 c p3
176.74 160.29 3.56 c p3
176.74 160.29 3.56 c p3
176.74 160.29 3.56 c p3
176.74 160.29 3.56 c p3
176.74 160.29 3.56 c p3
176.74 160.29 3.56 c p3
176.74 160.29 3.56 c p3
176.74 160.29 3.56 c p3
176.74 160.29 3.56 c p3
176.74 160.29 3.56 c p3
176.74 160.29 3.56 c p3
176.74 160.29 3.56 c p3
176.74 160.29 3.56 c p3
176.74 160.29 3.56 c p3
176.74 160.29 3.56 c p3
176.74 160.29 3.56 c p3
176.74 160.29 3.56 c p3
176.74 160.29 3.56 c p3
176.74 160.29 3.56 c p3
176.74 160.29 3.56 c p3
176.74 160.29 3.56 c p3
176.74 160.29 3.56 c p3
176.74 160.29 3.56 c p3
176.74 160.29 3.56 c p3
176.74 160.29 3.56 c p3
176.74 160.29 3.56 c p3
176.74 160.29 3.56 c p3
176.74 160.29 3.56 c p3
176.74 160.29 3.56 c p3
176.74 160.29 3.56 c p3
176.74 160.29 3.56 c p3
176.74 160.29 3.56 c p3
176.74 160.29 3.56 c p3
176.74 160.29 3.56 c p3
176.74 160.29 3.56 c p3
176.74 160.29 3.56 c p3
176.74 160.29 3.56 c p3
176.74 160.29 3.56 c p3
176.74 160.29 3.56 c p3
176.74 160.29 3.56 c p3
176.74 160.29 3.56 c p3
176.74 160.29 3.56 c p3
176.74 160.29 3.56 c p3
176.74 160.29 3.56 c p3
176.74 160.29 3.56 c p3
176.74 160.29 3.56 c p3
176.74 160.29 3.56 c p3
176.74 160.29 3.56 c p3
176.74 160.29 3.56 c p3
176.74 160.29 3.56 c p3
176.74 160.29 3.56 c p3
176.74 160.29 3.56 c p3
176.74 160.29 3.56 c p3
176.74 160.29 3.56 c p3
176.74 160.29 3.56 c p3
176.74 160.29 3.56 c p3
176.74 160.29 3.56 c p3
176.74 160.29 3.56 c p3
176.74 160.29 3.56 c p3
176.74 160.29 3.56 c p3
176.74 160.29 3.56 c p3
176.74 160.29 3.56 c p3
176.74 160.29 3.56 c p3
176.74 160.29 3.56 c p3
176.74 160.29 3.56 c p3
176.74 160.29 3.56 c p3
176.74 160.29 3.56 c p3
176.74 160.29 3.56 c p3
176.74 160.29 3.56 c p3
176.74 160.29 3.56 c p3
176.74 160.29 3.56 c p3
176.74 160.29 3.56 c p3
176.74 160.29 3.56 c p3
176.74 160.29 3.56 c p3
176.74 160.29 3.56 c p3
176.74 160.29 3.56 c p3
176.74 160.29 3.56 c p3
176.74 160.29 3.56 c p3
176.74 160.29 3.56 c p3
176.74 160.29 3.56 c p3
176.74 160.29 3.56 c p3
176.74 160.29 3.56 c p3
176.74 160.29 3.56 c p3
176.74 160.29 3.56 c p3
176.74 160.29 3.56 c p3
176.74 160.29 3.56 c p3
176.74 160.29 3.56 c p3
176.74 160.29 3.56 c p3
176.74 160.29 3.56 c p3
176.74 160.29 3.56 c p3
176.74 160.29 3.56 c p3
176.74 160.29 3.56 c p3
176.74 160.29 3.56 c p3
176.74 160.29 3.56 c p3
176.74 160.29 3.56 c p3
176.74 160.29 3.56 c p3
176.74 160.29 3.56 c p3
176.74 160.29 3.56 c p3
176.74 160.29 3.56 c p3
176.74 160.29 3.56 c p3
176.74 160.29 3.56 c p3
176.74 160.29 3.56 c p3
176.74 160.29 3.56 c p3
176.74 160.29 3.56 c p3
176.74 160.29 3.56 c p3
176.74 160.29 3.56 c p3
176.74 160.29 3.56 c p3
176.74 160.29 3.56 c p3
176.74 160.29 3.56 c p3
176.74 160.29 3.56 c p3
176.74 160.29 3.56 c p3
176.74 160.29 3.56 c p3
176.74 160.29 3.56 c p3
176.74 160.29 3.56 c p3
176.74 160.29 3.56 c p3
176.74 160.29 3.56 c p3
176.74 160.29 3.56 c p3
176.74 160.29 3.56 c p3
176.74 160.29 3.56 c p3
176.74 160.29 3.56 c p3
176.74 160.29 3.56 c p3
176.74 160.29 3.56 c p3
176.74 160.29 3.56 c p3
176.74 160.29 3.56 c p3
176.74 160.29 3.56 c p3
176.74 160.29 3.56 c p3
176.74 160.29 3.56 c p3
176.74 160.29 3.56 c p3
176.74 160.29 3.56 c p3
176.74 160.29 3.56 c p3
176.74 160.29 3.56 c p3
176.74 160.29 3.56 c p3
176.74 160.29 3.56 c p3
176.74 160.29 3.56 c p3
176.74 160.29 3.56 c p3
176.74 160.29 3.56 c p3
176.74 160.29 3.56 c p3
176.74 160.29 3.56 c p3
176.74 160.29 3.56 c p3
176.74 160.29 3.56 c p3
176.74 160.29 3.56 c p3
176.74 160.29 3.56 c p3
176.74 160.29 3.56 c p3
176.74 160.29 3.56 c p3
176.74 160.29 3.56 c p3
176.74 160.29 3.56 c p3
176.74 160.29 3.56 c p3
176.74 160.29 3.56 c p3
176.74 160.29 3.56 c p3
176.74 160.29 3.56 c p3
176.74 160.29 3.56 c p3
176.74 160.29 3.56 c p3
176.74 160.29 3.56 c p3
176.74 160.29 3.56 c p3
176.74 160.29 3.56 c p3
176.74 160.29 3.56 c p3
176.74 160.29 3.56 c p3
176.74 160.29 3.56 c p3
176.74 160.29 3.56 c p3
176.74 160.29 3.56 c p3
176.74 160.29 3.56 c p3
176.74 160.29 3.56 c p3
176.74 160.29 3.56 c p3
176.74 160.29 3.56 c p3
176.74 160.29 3.56 c p3
176.74 160.29 3.56 c p3
176.74 160.29 3.56 c p3
176.74 160.29 3.56 c p3
176.74 160.29 3.56 c p3
176.74 160.29 3.56 c p3
176.74 160.29 3.56 c p3
176.74 160.29 3.56 c p3
176.74 160.29 3.56 c p3
176.74 160.29 3.56 c p3
176.74 160.29 3.56 c p3
176.74 160.29 3.56 c p3
176.74 160.29 3.56 c p3
176.74 160.29 3.56 c p3
176.74 160.29 3.56 c p3
176.74 160.29 3.56 c p3
176.74 160.29 3.56 c p3
176.74 160.29 3.56 c p3
176.74 160.29 3.56 c p3
176.74 160.29 3.56 c p3
176.74 160.29 3.56 c p3
176.74 160.29 3.56 c p3
176.74 160.29 3.56 c p3
176.74 160.29 3.56 c p3
176.74 160.29 3.56 c p3
176.74 160.29 3.56 c p3
176.74 160.29 3.56 c p3
176.74 160.29 3.56 c p3
176.74 160.29 3.56 c p3
176.74 160.29 3.56 c p3
176.74 160.29 3.56 c p3
176.74 160.29 3.56 c p3
176.74 160.29 3.56 c p3
176.74 160.29 3.56 c p3
176.74 160.29 3.56 c p3
176.74 160.29 3.56 c p3
176.74 160.29 3.56 c p3
176.74 160.29 3.56 c p3
176.74 160.29 3.56 c p3
176.74 160.29 3.56 c p3
176.74 160.29 3.56 c p3
176.74 160.29 3.56 c p3
176.74 160.29 3.56 c p3
176.74 160.29 3.56 c p3
176.74 160.29 3.56 c p3
176.74 160.29 3.56 c p3
176.74 160.29 3.56 c p3
176.74 160.29 3.56 c p3
176.74 160.29 3.56 c p3
176.74 160.29 3.56 c p3
176.74 160.29 3.56 c p3
176.74 160.29 3.56 c p3
176.74 160.29 3.56 c p3
176.74 160.29 3.56 c p3
176.74 160.29 3.56 c p3
176.74 160.29 3.56 c p3
176.74 160.29 3.56 c p3
176.74 160.29 3.56 c p3
176.74 160.29 3.56 c p3
176.74 160.29 3.56 c p3
176.74 160.29 3.56 c p3
176.74 160.29 3.56 c p3
176.74 160.29 3.56 c p3
176.74 160.29 3.56 c p3
176.74 160.29 3.56 c p3
176.74 160.29 3.56 c p3
176.74 160.29 3.56 c p3
176.74 160.29 3.56 c p3
176.74 160.29 3.56 c p3
176.74 160.29 3.56 c p3
176.74 160.29 3.56 c p3
176.74 160.29 3.56 c p3
176.74 160.29 3.56 c p3
176.74 160.29 3.56 c p3
176.74 160.29 3.56 c p3
176.74 160.29 3.56 c p3
176.74 160.29 3.56 c p3
176.74 160.29 3.56 c p3
176.74 160.29 3.56 c p3
176.74 160.29 3.56 c p3
176.74 160.29 3.56 c p3
176.74 160.29 3.56 c p3
176.74 160.29 3.56 c p3
176.74 160.29 3.56 c p3
176.74 160.29 3.56 c p3
176.74 160.29 3.56 c p3
176.74 160.29 3.56 c p3
176.74 160.29 3.56 c p3
176.74 160.29 3.56 c p3
176.74 160.29 3.56 c p3
176.74 160.29 3.56 c p3
176.74 160.29 3.56 c p3
176.74 160.29 3.56 c p3
176.74 160.29 3.56 c p3
176.74 160.29 3.56 c p3
176.74 160.29 3.56 c p3
176.74 160.29 3.56 c p3
176.74 160.29 3.56 c p3
176.74 160.29 3.56 c p3
176.74 160.29 3.56 c p3
176.74 160.29 3.56 c p3
176.74 160.29 3.56 c p3
176.74 160.29 3.56 c p3
176.74 160.29 3.56 c p3
176.74 160.29 3.56 c p3
176.74 160.29 3.56 c p3
176.74 160.29 3.56 c p3
176.74 160.29 3.56 c p3
176.74 160.29 3.56 c p3
176.74 160.29 3.56 c p3
176.74 160.29 3.56 c p3
176.74 160.29 3.56 c p3
176.74 160.29 3.56 c p3
176.74 160.29 3.56 c p3
176.74 160.29 3.56 c p3
176.74 160.29 3.56 c p3
176.74 160.29 3.56 c p3
176.74 160.29 3.56 c p3
176.74 160.29 3.56 c p3
176.74 160.29 3.56 c p3
176.74 160.29 3.56 c p3
176.74 160.29 3.56 c p3
176.74 160.29 3.56 c p3
176.74 160.29 3.56 c p3
176.74 160.29 3.56 c p3
176.74 160.29 3.56 c p3
176.74 160.29 3.56 c p3
176.74 160.29 3.56 c p3
176.74 160.29 3.56 c p3
176.74 160.29 3.56 c p3
176.74 160.29 3.56 c p3
176.74 160.29 3.56 c p3
176.74 160.29 3.56 c p3
176.74 160.29 3.56 c p3
176.74 160.29 3.56 c p3
176.74 160.29 3.56 c p3
176.74 160.29 3.56 c p3
176.74 160.29 3.56 c p3
176.74 160.29 3.56 c p3
176.74 160.29 3.56 c p3
176.74 160.29 3.56 c p3
176.74 160.29 3.56 c p3
176.74 160.29 3.56 c p3
176.74 160.29 3.56 c p3
176.74 160.29 3.56 c p3
176.74 160.29 3.56 c p3
176.74 160.29 3.56 c p3
176.74 160.29 3.56 c p3
176.74 160.29 3.56 c p3
176.74 160.29 3.56 c p3
176.74 160.29 3.56 c p3
176.74 160.29 3.56 c p3
176.74 160.29 3.56 c p3
176.74 160.29 3.56 c p3
176.74 160.29 3.56 c p3
176.74 160.29 3.56 c p3
176.74 160.29 3.56 c p3
176.74 160.29 3.56 c p3
176.74 160.29 3.56 c p3
176.74 160.29 3.56 c p3
176.74 160.29 3.56 c p3
176.74 160.29 3.56 c p3
176.74 160.29 3.56 c p3
176.74 160.29 3.56 c p3
176.74 160.29 3.56 c p3
176.74 160.29 3.56 c p3
176.74 160.29 3.56 c p3
176.74 160.29 3.56 c p3
176.74 160.29 3.56 c p3
176.74 160.29 3.56 c p3
176.74 160.29 3.56 c p3
176.74 160.29 3.56 c p3
176.74 160.29 3.56 c p3
176.74 160.29 3.56 c p3
176.74 160.29 3.56 c p3
176.74 160.29 3.56 c p3
176.74 160.29 3.56 c p3
176.74 160.29 3.56 c p3
176.74 160.29 3.56 c p3
176.74 160.29 3.56 c p3
176.74 160.29 3.56 c p3
176.74 160.29 3.56 c p3
176.74 160.29 3.56 c p3
176.74 160.29 3.56 c p3
176.74 160.29 3.56 c p3
176.74 160.29 3.56 c p3
176.74 160.29 3.56 c p3
176.74 160.29 3.56 c p3
176.74 160.29 3.56 c p3
176.74 160.29 3.56 c p3
176.74 160.29 3.56 c p3
176.74 160.29 3.56 c p3
176.74 160.29 3.56 c p3
176.74 160.29 3.56 c p3
176.74 160.29 3.56 c p3
176.74 160.29 3.56 c p3
176.74 160.29 3.56 c p3
176.74 160.29 3.56 c p3
176.74 160.29 3.56 c p3
176.74 160.29 3.56 c p3
176.74 160.29 3.56 c p3
176.74 160.29 3.56 c p3
176.74 160.29 3.56 c p3
176.74 160.29 3.56 c p3
176.74 160.29 3.56 c p3
176.74 160.29 3.56 c p3
176.74 160.29 3.56 c p3
176.74 160.29 3.56 c p3
176.74 160.29 3.56 c p3
176.74 160.29 3.56 c p3
176.74 160.29 3.56 c p3
176.74 160.29 3.56 c p3
176.74 160.29 3.56 c p3
176.74 160.29 3.56 c p3
176.74 160.29 3.56 c p3
176.74 160.29 3.56 c p3
176.74 160.29 3.56 c p3
176.74 160.29 3.56 c p3
176.74 160.29 3.56 c p3
176.74 160.29 3.56 c p3
176.74 160.29 3.56 c p3
176.74 160.29 3.56 c p3
176.74 160.29 3.56 c p3
176.74 160.29 3.56 c p3
176.74 160.29 3.56 c p3
176.74 160.29 3.56 c p3
176.74 160.29 3.56 c p3
176.74 160.29 3.56 c p3
176.74 160.29 3.56 c p3
176.74 160.29 3.56 c p3
176.74 160.29 3.56 c p3
176.74 160.29 3.56 c p3
176.74 160.29 3.56 c p3
176.74 160.29 3.56 c p3
176.74 160.29 3.56 c p3
176.74 160.29 3.56 c p3
176.74 160.29 3.56 c p3
176.74 160.29 3.56 c p3
176.74 160.29 3.56 c p3
176.74 160.29 3.56 c p3
176.74 160.29 3.56 c p3
176.74 160.29 3.56 c p3
176.74 160.29 3.56 c p3
176.74 160.29 3.56 c p3
176.74 160.29 3.56 c p3
176.74 160.29 3.56 c p3
176.74 160.29 3.56 c p3
176.74 160.29 3.56 c p3
176.74 160.29 3.56 c p3
176.74 160.29 3.56 c p3
176.74 160.29 3.56 c p3
176.74 160.29 3.56 c p3
176.74 160.29 3.56 c p3
176.74 160.29 3.56 c p3
176.74 160.29 3.56 c p3
176.74 160.29 3.56 c p3
176.74 160.29 3.56 c p3
176.74 160.29 3.56 c p3
176.74 160.29 3.56 c p3
176.74 160.29 3.56 c p3
176.74 160.29 3.56 c p3
176.74 160.29 3.56 c p3
176.74 160.29 3.56 c p3
176.74 160.29 3.56 c p3
176.74 160.29 3.56 c p3
176.74 160.29 3.56 c p3
176.74 160.29 3.56 c p3
176.74 160.29 3.56 c p3
176.74 160.29 3.56 c p3
176.74 160.29 3.56 c p3
176.74 160.29 3.56 c p3
176.74 160.29 3.56 c p3
176.74 160.29 3.56 c p3
176.74 160.29 3.56 c p3
176.74 160.29 3.56 c p3
176.74 160.29 3.56 c p3
176.74 160.29 3.56 c p3
176.74 160.29 3.56 c p3
176.74 160.29 3.56 c p3
176.74 160.29 3.56 c p3
176.74 160.29 3.56 c p3
176.74 160.29 3.56 c p3
176.74 160.29 3.56 c p3
176.74 160.29 3.56 c p3
176.74 160.29 3.56 c p3
176.74 160.29 3.56 c p3
176.74 160.29 3.56 c p3
176.74 160.29 3.56 c p3
176.74 160.29 3.56 c p3
176.74 160.29 3.56 c p3
176.74 160.29 3.56 c p3
176.74 160.29 3.56 c p3
176.74 160.29 3.56 c p3
176.74 160.29 3.56 c p3
176.74 160.29 3.56 c p3
176.74 160.29 3.56 c p3
176.74 160.29 3.56 c p3
176.74 160.29 3.56 c p3
176.74 160.29 3.56 c p3
176.74 160.29 3.56 c p3
176.74 160.29 3.56 c p3
176.74 160.29 3.56 c p3
176.74 160.29 3.56 c p3
176.74 160.29 3.56 c p3
176.74 160.29 3.56 c p3
176.74 160.29 3.56 c p3
176.74 160.29 3.56 c p3
176.74 160.29 3.56 c p3
176.74 160.29 3.56 c p3
176.74 160.29 3.56 c p3
176.74 160.29 3.56 c p3
176.74 160.29 3.56 c p3
176.74 160.29 3.56 c p3
176.74 160.29 3.56 c p3
176.74 160.29 3.56 c p3
176.74 160.29 3.56 c p3
176.74 160.29 3.56 c p3
176.74 160.29 3.56 c p3
176.74 160.29 3.56 c p3
176.74 160.29 3.56 c p3
176.74 160.29 3.56 c p3
176.74 160.29 3.56 c p3
176.74 160.29 3.56 c p3
176.74 160.29 3.56 c p3
176.74 160.29 3.56 c p3
176.74 160.29 3.56 c p3
176.74 160.29 3.56 c p3
176.74 160.29 3.56 c p3
176.74 160.29 3.56 c p3
176.74 160.29 3.56 c p3
176.74 160.29 3.56 c p3
176.74 160.29 3.56 c p3
176.74 160.29 3.56 c p3
176.74 160.29 3.56 c p3
176.74 160.29 3.56 c p3
176.74 160.29 3.56 c p3
176.74 160.29 3.56 c p3
176.74 160.29 3.56 c p3
176.74 160.29 3.56 c p3
176.74 160.29 3.56 c p3
176.74 160.29 3.56 c p3
176.74 160.29 3.56 c p3
176.74 160.29 3.56 c p3
176.74 160.29 3.56 c p3
176.74 160.29 3.56 c p3
176.74 160.29 3.56 c p3
176.74 160.29 3.56 c p3
176.74 160.29 3.56 c p3
176.74 160.29 3.56 c p3
176.74 160.29 3.56 c p3
176.74 160.29 3.56 c p3
176.74 160.29 3.56 c p3
176.74 160.29 3.56 c p3
176.74 160.29 3.56 c p3
176.74 160.29 3.56 c p3
176.74 160.29 3.56 c p3
176.74 160.29 3.56 c p3
176.74 160.29 3.56 c p3
176.74 160.29 3.56 c p3
176.74 160.29 3.56 c p3
176.74 160.29 3.56 c p3
176.74 160.29 3.56 c p3
176.74 160.29 3.56 c p3
176.74 160.29 3.56 c p3
176.74 160.29 3.56 c p3
176.74 160.29 3.56 c p3
176.74 160.29 3.56 c p3
176.74 160.29 3.56 c p3
176.74 160.29 3.56 c p3
176.74 160.29 3.56 c p3
176.74 160.29 3.56 c p3
176.74 160.29 3.56 c p3
176.74 160.29 3.56 c p3
176.74 160.29 3.56 c p3
176.74 160.29 3.56 c p3
176.74 160.29 3.56 c p3
176.74 160.29 3.56 c p3
176.74 160.29 3.56 c p3
176.74 160.29 3.56 c p3
176.74 160.29 3.56 c p3
176.74 160.29 3.56 c p3
176.74 160.29 3.56 c p3
176.74 160.29 3.56 c p3
176.74 160.29 3.56 c p3
176.74 160.29 3.56 c p3
176.74 160.29 3.56 c p3
176.74 160.29 3.56 c p3
176.74 160.29 3.56 c p3
176.74 160.29 3.56 c p3
176.74 160.29 3.56 c p3
176.74 160.29 3.56 c p3
176.74 160.29 3.56 c p3
176.74 160.29 3.56 c p3
176.74 160.29 3.56 c p3
176.74 160.29 3.56 c p3
176.74 160.29 3.56 c p3
176.74 160.29 3.56 c p3
176.74 160.29 3.56 c p3
176.74 160.29 3.56 c p3
176.74 160.29 3.56 c p3
176.74 160.29 3.56 c p3
176.74 160.29 3.56 c p3
176.74 160.29 3.56 c p3
176.74 160.29 3.56 c p3
176.74 160.29 3.56 c p3
176.74 160.29 3.56 c p3
176.74 160.29 3.56 c p3
176.74 160.29 3.56 c p3
176.74 160.29 3.56 c p3
176.74 160.29 3.56 c p3
176.74 160.29 3.56 c p3
176.74 160.29 3.56 c p3
176.74 160.29 3.56 c p3
176.74 160.29 3.56 c p3
176.74 160.29 3.56 c p3
176.74 160.29 3.56 c p3
176.74 160.29 3.56 c p3
176.74 160.29 3.56 c p3
176.74 160.29 3.56 c p3
176.74 160.29 3.56 c p3
176.74 160.29 3.56 c p3
176.74 160.29 3.56 c p3
176.74 160.29 3.56 c p3
176.74 160.29 3.56 c p3
176.74 160.29 3.56 c p3
176.74 160.29 3.56 c p3
176.74 160.29 3.56 c p3
176.74 160.29 3.56 c p3
176.74 160.29 3.56 c p3
176.74 160.29 3.56 c p3
176.74 160.29 3.56 c p3
176.74 160.29 3.56 c p3
176.74 160.29 3.56 c p3
176.74 160.29 3.56 c p3
176.74 160.29 3.56 c p3
176.74 160.29 3.56 c p3
176.74 160.29 3.56 c p3
176.74 160.29 3.56 c p3
176.74 160.29 3.56 c p3
176.74 160.29 3.56 c p3
176.74 160.29 3.56 c p3
176.74 160.29 3.56 c p3
176.74 160.29 3.56 c p3
176.74 160.29 3.56 c p3
176.74 160.29 3.56 c p3
176.74 160.29 3.56 c p3
176.74 160.29 3.56 c p3
176.74 160.29 3.56 c p3
176.74 160.29 3.56 c p3
176.74 160.29 3.56 c p3
176.74 160.29 3.56 c p3
176.74 160.29 3.56 c p3
176.74 160.29 3.56 c p3
176.74 160.29 3.56 c p3
176.74 160.29 3.56 c p3
176.74 160.29 3.56 c p3
176.74 160.29 3.56 c p3
176.74 160.29 3.56 c p3
176.74 160.29 3.56 c p3
176.74 160.29 3.56 c p3
176.74 160.29 3.56 c p3
176.74 160.29 3.56 c p3
176.74 160.29 3.56 c p3
176.74 160.29 3.56 c p3
176.74 160.29 3.56 c p3
176.74 160.29 3.56 c p3
176.74 160.29 3.56 c p3
176.74 160.29 3.56 c p3
176.74 160.29 3.56 c p3
176.74 160.29 3.56 c p3
176.74 160.29 3.56 c p3
176.74 160.29 3.56 c p3
176.74 160.29 3.56 c p3
176.74 160.29 3.56 c p3
176.74 160.29 3.56 c p3
176.74 160.29 3.56 c p3
176.74 160.29 3.56 c p3
176.74 160.29 3.56 c p3
176.74 160.29 3.56 c p3
176.74 160.29 3.56 c p3
176.74 160.29 3.56 c p3
176.74 160.29 3.56 c p3
176.74 160.29 3.56 c p3
176.74 160.29 3.56 c p3
176.74 160.29 3.56 c p3
176.74 160.29 3.56 c p3
176.74 160.29 3.56 c p3
176.74 160.29 3.56 c p3
176.74 160.29 3.56 c p3
176.74 160.29 3.56 c p3
176.74 160.29 3.56 c p3
176.74 160.29 3.56 c p3
176.74 160.29 3.56 c p3
176.74 160.29 3.56 c p3
176.74 160.29 3.56 c p3
176.74 160.29 3.56 c p3
176.74 160.29 3.56 c p3
176.74 160.29 3.56 c p3
176.74 160.29 3.56 c p3
176.74 160.29 3.56 c p3
176.74 160.29 3.56 c p3
176.74 160.29 3.56 c p3
176.74 160.29 3.56 c p3
176.74 160.29 3.56 c p3
176.74 160.29 3.56 c p3
176.74 160.29 3.56 c p3
176.74 160.29 3.56 c p3
176.74 160.29 3.56 c p3
176.74 160.29 3.56 c p3
176.74 160.29 3.56 c p3
176.74 160.29 3.56 c p3
176.74 160.29 3.56 c p3
176.74 160.29 3.56 c p3
176.74 160.29 3.56 c p3
176.74 160.29 3.56 c p3
176.74 160.29 3.56 c p3
176.74 160.29 3.56 c p3
176.74 160.29 3.56 c p3
176.74 160.29 3.56 c p3
176.74 160.29 3.56 c p3
176.74 160.29 3.56 c p3
176.74 160.29 3.56 c p3
176.74 160.29 3.56 c p3
176.74 160.29 3.56 c p3
176.74 160.29 3.56 c p3
176.74 160.29 3.56 c p3
176.74 160.29 3.56 c p3
176.74 160.29 3.56 c p3
176.74 160.29 3.56 c p3
176.74 160.29 3.56 c p3
176.74 160.29 3.56 c p3
176.74 160.29 3.56 c p3
176.74 160.29 3.56 c p3
176.74 160.29 3.56 c p3
176.74 160.29 3.56 c p3
176.74 160.29 3.56 c p3
176.74 160.29 3.56 c p3
176.74 160.29 3.56 c p3
176.74 160.29 3.56 c p3
176.74 160.29 3.56 c p3
176.74 160.29 3.56 c p3
176.74 160.29 3.56 c p3
176.74 160.29 3.56 c p3
176.74 160.29 3.56 c p3
176.74 160.29 3.56 c p3
176.74 160.29 3.56 c p3
176.74 160.29 3.56 c p3
176.74 160.29 3.56 c p3
176.74 160.29 3.56 c p3
176.74 160.29 3.56 c p3
176.74 160.29 3.56 c p3
176.74 160.29 3.56 c p3
176.74 160.29 3.56 c p3
176.74 160.29 3.56 c p3
176.74 160.29 3.56 c p3
176.74 160.29 3.56 c p3
176.74 160.29 3.56 c p3
176.74 160.29 3.56 c p3
176.74 160.29 3.56 c p3
176.74 160.29 3.56 c p3
176.74 160.29 3.56 c p3
176.74 160.29 3.56 c p3
176.74 160.29 3.56 c p3
176.74 160.29 3.56 c p3
176.74 160.29 3.56 c p3
176.74 160.29 3.56 c p3
176.74 160.29 3.56 c p3
176.74 160.29 3.56 c p3
176.74 160.29 3.56 c p3
176.74 160.29 3.56 c p3
176.74 160.29 3.56 c p3
176.74 160.29 3.56 c p3
176.74 160.29 3.56 c p3
176.74 160.29 3.56 c p3
176.74 160.29 3.56 c p3
176.74 160.29 3.56 c p3
176.74 160.29 3.56 c p3
176.74 160.29 3.56 c p3
176.74 160.29 3.56 c p3
176.74 160.29 3.56 c p3
176.74 160.29 3.56 c p3
176.74 160.29 3.56 c p3
176.74 160.29 3.56 c p3
176.74 160.29 3.56 c p3
176.74 160.29 3.56 c p3
176.74 160.29 3.56 c p3
176.74 160.29 3.56 c p3
176.74 160.29 3.56 c p3
176.74 160.29 3.56 c p3
176.74 160.29 3.56 c p3
176.74 160.29 3.56 c p3
176.74 160.29 3.56 c p3
176.74 160.29 3.56 c p3
176.74 160.29 3.56 c p3
176.74 160.29 3.56 c p3
176.74 160.29 3.56 c p3
176.74 160.29 3.56 c p3
176.74 160.29 3.56 c p3
176.74 160.29 3.56 c p3
176.74 160.29 3.56 c p3
176.74 160.29 3.56 c p3
176.74 160.29 3.56 c p3
176.74 160.29 3.56 c p3
176.74 160.29 3.56 c p3
176.74 160.29 3.56 c p3
176.74 160.29 3.56 c p3
176.74 160.29 3.56 c p3
176.74 160.29 3.56 c p3
176.74 160.29 3.56 c p3
176.74 160.29 3.56 c p3
176.74 160.29 3.56 c p3
176.74 160.29 3.56 c p3
176.74 160.29 3.56 c p3
176.74 160.29 3.56 c p3
176.74 160.29 3.56 c p3
176.74 160.29 3.56 c p3
176.74 160.29 3.56 c p3
176.74 160.29 3.56 c p3
176.74 160.29 3.56 c p3
176.74 160.29 3.56 c p3
176.74 160.29 3.56 c p3
176.74 160.29 3.56 c p3
176.74 160.29 3.56 c p3
176.74 160.29 3.56 c p3
176.74 160.29 3.56 c p3
176.74 160.29 3.56 c p3
176.74 160.29 3.56 c p3
176.74 160.29 3.56 c p3
176.74 160.29 3.56 c p3
176.74 160.29 3.56 c p3
176.74 160.29 3.56 c p3
176.74 160.29 3.56 c p3
176.74 160.29 3.56 c p3
176.74 160.29 3.56 c p3
176.74 160.29 3.56 c p3
176.74 160.29 3.56 c p3
176.74 160.29 3.56 c p3
176.74 160.29 3.56 c p3
176.74 160.29 3.56 c p3
176.74 160.29 3.56 c p3
176.74 160.29 3.56 c p3
176.74 160.29 3.56 c p3
176.74 160.29 3.56 c p3
176.74 160.29 3.56 c p3
176.74 160.29 3.56 c p3
176.74 160.29 3.56 c p3
176.74 160.29 3.56 c p3
176.74 160.29 3.56 c p3
176.74 160.29 3.56 c p3
176.74 160.29 3.56 c p3
176.74 160.29 3.56 c p3
176.74 160.29 3.56 c p3
176.74 160.29 3.56 c p3
176.74 160.29 3.56 c p3
176.74 160.29 3.56 c p3
176.74 160.29 3.56 c p3
176.74 160.29 3.56 c p3
176.74 160.29 3.56 c p3
176.74 160.29 3.56 c p3
176.74 160.29 3.56 c p3
176.74 160.29 3.56 c p3
176.74 160.29 3.56 c p3
176.74 160.29 3.56 c p3
176.74 160.29 3.56 c p3
176.74 160.29 3.56 c p3
176.74 160.29 3.56 c p3
176.74 160.29 3.56 c p3
176.74 160.29 3.56 c p3
176.74 160.29 3.56 c p3
176.74 160.29 3.56 c p3
176.74 160.29 3.56 c p3
176.74 160.29 3.56 c p3
176.74 160.29 3.56 c p3
176.74 160.29 3.56 c p3
176.74 160.29 3.56 c p3
176.74 160.29 3.56 c p3
176.74 160.29 3.56 c p3
176.74 160.29 3.56 c p3
176.74 160.29 3.56 c p3
176.74 160.29 3.56 c p3
176.74 160.29 3.56 c p3
176.74 160.29 3.56 c p3
176.74 160.29 3.56 c p3
176.74 160.29 3.56 c p3
176.74 160.29 3.56 c p3
176.74 160.29 3.56 c p3
176.74 160.29 3.56 c p3
176.74 160.29 3.56 c p3
176.74 160.29 3.56 c p3
176.74 160.29 3.56 c p3
176.74 160.29 3.56 c p3
176.74 160.29 3.56 c p3
176.74 160.29 3.56 c p3
176.74 160.29 3.56 c p3
176.74 160.29 3.56 c p3
176.74 160.29 3.56 c p3
176.74 160.29 3.56 c p3
176.74 160.29 3.56 c p3
176.74 160.29 3.56 c p3
176.74 160.29 3.56 c p3
176.74 160.29 3.56 c p3
176.74 160.29 3.56 c p3
176.74 160.29 3.56 c p3
176.74 160.29 3.56 c p3
176.74 160.29 3.56 c p3
176.74 160.29 3.56 c p3
176.74 160.29 3.56 c p3
176.74 160.29 3.56 c p3
176.74 160.29 3.56 c p3
176.74 160.29 3.56 c p3
176.74 160.29 3.56 c p3
176.74 160.29 3.56 c p3
176.74 160.29 3.56 c p3
176.74 160.29 3.56 c p3
176.74 160.29 3.56 c p3
176.74 160.29 3.56 c p3
176.74 160.29 3.56 c p3
176.74 160.29 3.56 c p3
176.74 160.29 3.56 c p3
176.74 160.29 3.56 c p3
176.74 160.29 3.56 c p3
176.74 160.29 3.56 c p3
176.74 160.29 3.56 c p3
176.74 160.29 3.56 c p3
176.74 160.29 3.56 c p3
176.74 160.29 3.56 c p3
176.74 160.29 3.56 c p3
176.74 160.29 3.56 c p3
176.74 160.29 3.56 c p3
176.74 160.29 3.56 c p3
176.74 160.29 3.56 c p3
176.74 160.29 3.56 c p3
176.74 160.29 3.56 c p3
176.74 160.29 3.56 c p3
176.74 160.29 3.56 c p3
176.74 160.29 3.56 c p3
176.74 160.29 3.56 c p3
176.74 160.29 3.56 c p3
176.74 160.29 3.56 c p3
176.74 160.29 3.56 c p3
176.74 160.29 3.56 c p3
176.74 160.29 3.56 c p3
176.74 160.29 3.56 c p3
176.74 160.29 3.56 c p3
176.74 160.29 3.56 c p3
176.74 160.29 3.56 c p3
176.74 160.29 3.56 c p3
176.74 160.29 3.56 c p3
176.74 160.29 3.56 c p3
176.74 160.29 3.56 c p3
176.74 160.29 3.56 c p3
176.74 160.29 3.56 c p3
176.74 160.29 3.56 c p3
176.74 160.29 3.56 c p3
176.74 160.29 3.56 c p3
176.74 160.29 3.56 c p3
176.74 160.29 3.56 c p3
176.74 160.29 3.56 c p3
176.74 160.29 3.56 c p3
176.74 160.29 3.56 c p3
176.74 160.29 3.56 c p3
176.74 160.29 3.56 c p3
176.74 160.29 3.56 c p3
176.74 160.29 3.56 c p3
176.74 160.29 3.56 c p3
176.74 160.29 3.56 c p3
176.74 160.29 3.56 c p3
176.74 160.29 3.56 c p3
176.74 160.29 3.56 c p3
176.74 160.29 3.56 c p3
176.74 160.29 3.56 c p3
176.74 160.29 3.56 c p3
176.74 160.29 3.56 c p3
176.74 160.29 3.56 c p3
176.74 160.29 3.56 c p3
176.74 160.29 3.56 c p3
176.74 160.29 3.56 c p3
176.74 160.29 3.56 c p3
176.74 160.29 3.56 c p3
176.74 160.29 3.56 c p3
176.74 160.29 3.56 c p3
176.74 160.29 3.56 c p3
176.74 160.29 3.56 c p3
176.74 160.29 3.56 c p3
176.74 160.29 3.56 c p3
176.74 160.29 3.56 c p3
176.74 160.29 3.56 c p3
176.74 160.29 3.56 c p3
176.74 160.29 3.56 c p3
176.74 160.29 3.56 c p3
176.74 160.29 3.56 c p3
176.74 160.29 3.56 c p3
176.74 160.29 3.56 c p3
176.74 160.29 3.56 c p3
176.74 160.29 3.56 c p3
176.74 160.29 3.56 c p3
176.74 160.29 3.56 c p3
176.74 160.29 3.56 c p3
176.74 160.29 3.56 c p3
176.74 160.29 3.56 c p3
176.74 160.29 3.56 c p3
176.74 160.29 3.56 c p3
176.74 160.29 3.56 c p3
176.74 160.29 3.56 c p3
176.74 160.29 3.56 c p3
176.74 160.29 3.56 c p3
176.74 160.29 3.56 c p3
176.74 160.29 3.56 c p3
176.74 160.29 3.56 c p3
176.74 160.29 3.56 c p3
176.74 160.29 3.56 c p3
176.74 160.29 3.56 c p3
176.74 160.29 3.56 c p3
176.74 160.29 3.56 c p3
176.74 160.29 3.56 c p3
176.74 160.29 3.56 c p3
176.74 160.29 3.56 c p3
176.74 160.29 3.56 c p3
176.74 160.29 3.56 c p3
176.74 160.29 3.56 c p3
176.74 160.29 3.56 c p3
176.74 160.29 3.56 c p3
176.74 160.29 3.56 c p3
176.74 160.29 3.56 c p3
176.74 160.29 3.56 c p3
176.74 160.29 3.56 c p3
176.74 160.29 3.56 c p3
176.74 160.29 3.56 c p3
176.74 160.29 3.56 c p3
176.74 160.29 3.56 c p3
176.74 160.29 3.56 c p3
176.74 160.29 3.56 c p3
176.74 160.29 3.56 c p3
176.74 160.29 3.56 c p3
176.74 160.29 3.56 c p3
176.74 160.29 3.56 c p3
176.74 160.29 3.56 c p3
176.74 160.29 3.56 c p3
176.74 160.29 3.56 c p3
176.74 160.29 3.56 c p3
176.74 160.29 3.56 c p3
176.74 160.29 3.56 c p3
176.74 160.29 3.56 c p3
176.74 160.29 3.56 c p3
176.74 160.29 3.56 c p3
176.74 160.29 3.56 c p3
176.74 160.29 3.56 c p3
176.74 160.29 3.56 c p3
176.74 160.29 3.56 c p3
176.74 160.29 3.56 c p3
176.74 160.29 3.56 c p3
176.74 160.29 3.56 c p3
176.74 160.29 3.56 c p3
176.74 160.29 3.56 c p3
176.74 160.29 3.56 c p3
176.74 160.29 3.56 c p3
176.74 160.29 3.56 c p3
176.74 160.29 3.56 c p3
176.74 160.29 3.56 c p3
176.74 160.29 3.56 c p3
176.74 160.29 3.56 c p3
176.74 160.29 3.56 c p3
176.74 160.29 3.56 c p3
176.74 160.29 3.56 c p3
176.74 160.29 3.56 c p3
176.74 160.29 3.56 c p3
176.74 160.29 3.56 c p3
176.74 160.29 3.56 c p3
176.74 160.29 3.56 c p3
176.74 160.29 3.56 c p3
176.74 160.29 3.56 c p3
176.74 160.29 3.56 c p3
176.74 160.29 3.56 c p3
176.74 160.29 3.56 c p3
176.74 160.29 3.56 c p3
176.74 160.29 3.56 c p3
176.74 160.29 3.56 c p3
176.74 160.29 3.56 c p3
176.74 160.29 3.56 c p3
176.74 160.29 3.56 c p3
176.74 160.29 3.56 c p3
176.74 160.29 3.56 c p3
176.74 160.29 3.56 c p3
176.74 160.29 3.56 c p3
176.74 160.29 3.56 c p3
176.74 160.29 3.56 c p3
176.74 160.29 3.56 c p3
176.74 160.29 3.56 c p3
176.74 160.29 3.56 c p3
176.74 160.29 3.56 c p3
176.74 160.29 3.56 c p3
176.74 160.29 3.56 c p3
176.74 160.29 3.56 c p3
176.74 160.29 3.56 c p3
176.74 160.29 3.56 c p3
176.74 160.29 3.56 c p3
176.74 160.29 3.56 c p3
176.74 160.29 3.56 c p3
176.74 160.29 3.56 c p3
176.74 160.29 3.56 c p3
176.74 160.29 3.56 c p3
176.74 160.29 3.56 c p3
176.74 160.29 3.56 c p3
176.74 160.29 3.56 c p3
176.74 160.29 3.56 c p3
176.74 160.29 3.56 c p3
176.74 160.29 3.56 c p3
176.74 160.29 3.56 c p3
176.74 160.29 3.56 c p3
176.74 160.29 3.56 c p3
176.74 160.29 3.56 c p3
176.74 160.29 3.56 c p3
176.74 160.29 3.56 c p3
176.74 160.29 3.56 c p3
176.74 160.29 3.56 c p3
176.74 160.29 3.56 c p3
176.74 160.29 3.56 c p3
176.74 160.29 3.56 c p3
176.74 160.29 3.56 c p3
176.74 160.29 3.56 c p3
176.74 160.29 3.56 c p3
176.74 160.29 3.56 c p3
176.74 160.29 3.56 c p3
176.74 160.29 3.56 c p3
176.74 160.29 3.56 c p3
176.74 160.29 3.56 c p3
176.74 160.29 3.56 c p3
176.74 160.29 3.56 c p3
176.74 160.29 3.56 c p3
176.74 160.29 3.56 c p3
176.74 160.29 3.56 c p3
176.74 160.29 3.56 c p3
176.74 160.29 3.56 c p3
176.74 160.29 3.56 c p3
176.74 160.29 3.56 c p3
176.74 160.29 3.56 c p3
176.74 160.29 3.56 c p3
176.74 160.29 3.56 c p3
176.74 160.29 3.56 c p3
176.74 160.29 3.56 c p3
176.74 160.29 3.56 c p3
176.74 160.29 3.56 c p3
176.74 160.29 3.56 c p3
176.74 160.29 3.56 c p3
176.74 160.29 3.56 c p3
176.74 160.29 3.56 c p3
176.74 160.29 3.56 c p3
176.74 160.29 3.56 c p3
176.74 160.29 3.56 c p3
176.74 160.29 3.56 c p3
176.74 160.29 3.56 c p3
176.74 160.29 3.56 c p3
176.74 160.29 3.56 c p3
176.74 160.29 3.56 c p3
176.74 160.29 3.56 c p3
176.74 160.29 3.56 c p3
176.74 160.29 3.56 c p3
176.74 160.29 3.56 c p3
176.74 160.29 3.56 c p3
176.74 160.29 3.56 c p3
176.74 160.29 3.56 c p3
176.74 160.29 3.56 c p3
176.74 160.29 3.56 c p3
176.74 160.29 3.56 c p3
176.74 160.29 3.56 c p3
176.74 160.29 3.56 c p3
176.74 160.29 3.56 c p3
176.74 160.29 3.56 c p3
176.74 160.29 3.56 c p3
176.74 160.29 3.56 c p3
176.74 160.29 3.56 c p3
176.74 160.29 3.56 c p3
176.74 160.29 3.56 c p3
176.74 160.29 3.56 c p3
176.74 160.29 3.56 c p3
176.74 160.29 3.56 c p3
176.74 160.29 3.56 c p3
176.74 160.29 3.56 c p3
176.74 160.29 3.56 c p3
176.74 160.29 3.56 c p3
176.74 160.29 3.56 c p3
176.74 160.29 3.56 c p3
176.74 160.29 3.56 c p3
176.74 160.29 3.56 c p3
176.74 160.29 3.56 c p3
176.74 160.29 3.56 c p3
176.74 160.29 3.56 c p3
176.74 160.29 3.56 c p3
176.74 160.29 3.56 c p3
176.74 160.29 3.56 c p3
176.74 160.29 3.56 c p3
176.74 160.29 3.56 c p3
176.74 160.29 3.56 c p3
176.74 160.29 3.56 c p3
176.74 160.29 3.56 c p3
176.74 160.29 3.56 c p3
176.74 160.29 3.56 c p3
176.74 160.29 3.56 c p3
176.74 160.29 3.56 c p3
176.74 160.29 3.56 c p3
176.74 160.29 3.56 c p3
176.74 160.29 3.56 c p3
176.74 160.29 3.56 c p3
176.74 160.29 3.56 c p3
176.74 160.29 3.56 c p3
176.74 160.29 3.56 c p3
176.74 160.29 3.56 c p3
176.74 160.29 3.56 c p3
176.74 160.29 3.56 c p3
176.74 160.29 3.56 c p3
176.74 160.29 3.56 c p3
176.74 160.29 3.56 c p3
176.74 160.29 3.56 c p3
176.74 160.29 3.56 c p3
176.74 160.29 3.56 c p3
176.74 160.29 3.56 c p3
176.74 160.29 3.56 c p3
176.74 160.29 3.56 c p3
176.74 160.29 3.56 c p3
176.74 160.29 3.56 c p3
176.74 160.29 3.56 c p3
176.74 160.29 3.56 c p3
176.74 160.29 3.56 c p3
176.74 160.29 3.56 c p3
176.74 160.29 3.56 c p3
176.74 160.29 3.56 c p3
176.74 160.29 3.56 c p3
176.74 160.29 3.56 c p3
176.74 160.29 3.56 c p3
176.74 160.29 3.56 c p3
176.74 160.29 3.56 c p3
176.74 160.29 3.56 c p3
176.74 160.29 3.56 c p3
176.74 160.29 3.56 c p3
176.74 160.29 3.56 c p3
176.74 160.29 3.56 c p3
176.74 160.29 3.56 c p3
176.74 160.29 3.56 c p3
176.74 160.29 3.56 c p3
176.74 160.29 3.56 c p3
176.74 160.29 3.56 c p3
176.74 160.29 3.56 c p3
176.74 160.29 3.56 c p3
176.74 160.29 3.56 c p3
176.74 160.29 3.56 c p3
176.74 160.29 3.56 c p3
176.74 160.29 3.56 c p3
176.74 160.29 3.56 c p3
176.74 160.29 3.56 c p3
176.74 160.29 3.56 c p3
176.74 160.29 3.56 c p3
176.74 160.29 3.56 c p3
176.74 160.29 3.56 c p3
176.74 160.29 3.56 c p3
176.74 160.29 3.56 c p3
176.74 160.29 3.56 c p3
176.74 160.29 3.56 c p3
176.74 160.29 3.56 c p3
176.74 160.29 3.56 c p3
176.74 160.29 3.56 c p3
176.74 160.29 3.56 c p3
176.74 160.29 3.56 c p3
176.74 160.29 3.56 c p3
176.74 160.29 3.56 c p3
176.74 160.29 3.56 c p3
176.74 160.29 3.56 c p3
176.74 160.29 3.56 c p3
176.74 160.29 3.56 c p3
176.74 160.29 3.56 c p3
176.74 160.29 3.56 c p3
176.74 160.29 3.56 c p3
176.74 160.29 3.56 c p3
176.74 160.29 3.56 c p3
176.74 160.29 3.56 c p3
176.74 160.29 3.56 c p3
176.74 160.29 3.56 c p3
176.74 160.29 3.56 c p3
176.74 160.29 3.56 c p3
176.74 160.29 3.56 c p3
176.74 160.29 3.56 c p3
176.74 160.29 3.56 c p3
176.74 160.29 3.56 c p3
176.74 160.29 3.56 c p3
176.74 160.29 3.56 c p3
176.74 160.29 3.56 c p3
176.74 160.29 3.56 c p3
176.74 160.29 3.56 c p3
176.74 160.29 3.56 c p3
176.74 160.29 3.56 c p3
176.74 160.29 3.56 c p3
176.74 160.29 3.56 c p3
176.74 160.29 3.56 c p3
176.74 160.29 3.56 c p3
176.74 160.29 3.56 c p3
176.74 160.29 3.56 c p3
176.74 160.29 3.56 c p3
176.74 160.29 3.56 c p3
176.74 160.29 3.56 c p3
176.74 160.29 3.56 c p3
176.74 160.29 3.56 c p3
176.74 160.29 3.56 c p3
176.74 160.29 3.56 c p3
176.74 160.29 3.56 c p3
176.74 160.29 3.56 c p3
176.74 160.29 3.56 c p3
176.74 160.29 3.56 c p3
176.74 160.29 3.56 c p3
176.74 160.29 3.56 c p3
176.74 160.29 3.56 c p3
176.74 160.29 3.56 c p3
176.74 160.29 3.56 c p3
176.74 160.29 3.56 c p3
176.74 160.29 3.56 c p3
176.74 160.29 3.56 c p3
176.74 160.29 3.56 c p3
176.74 160.29 3.56 c p3
176.74 160.29 3.56 c p3
176.74 160.29 3.56 c p3
176.74 160.29 3.56 c p3
176.74 160.29 3.56 c p3
176.74 160.29 3.56 c p3
176.74 160.29 3.56 c p3
176.74 160.29 3.56 c p3
176.74 160.29 3.56 c p3
176.74 160.29 3.56 c p3
176.74 160.29 3.56 c p3
176.74 160.29 3.56 c p3
176.74 160.29 3.56 c p3
176.74 160.29 3.56 c p3
176.74 160.29 3.56 c p3
176.74 160.29 3.56 c p3
176.74 160.29 3.56 c p3
176.74 160.29 3.56 c p3
176.74 160.29 3.56 c p3
176.74 160.29 3.56 c p3
176.74 160.29 3.56 c p3
176.74 160.29 3.56 c p3
176.74 160.29 3.56 c p3
176.74 160.29 3.56 c p3
176.74 160.29 3.56 c p3
176.74 160.29 3.56 c p3
176.74 160.29 3.56 c p3
176.74 160.29 3.56 c p3
176.74 160.29 3.56 c p3
176.74 160.29 3.56 c p3
176.74 160.29 3.56 c p3
176.74 160.29 3.56 c p3
176.74 160.29 3.56 c p3
176.74 160.29 3.56 c p3
176.74 160.29 3.56 c p3
176.74 160.29 3.56 c p3
176.74 160.29 3.56 c p3
176.74 160.29 3.56 c p3
176.74 160.29 3.56 c p3
176.74 160.29 3.56 c p3
176.74 160.29 3.56 c p3
176.74 160.29 3.56 c p3
176.74 160.29 3.56 c p3
176.74 160.29 3.56 c p3
176.74 160.29 3.56 c p3
176.74 160.29 3.56 c p3
176.74 160.29 3.56 c p3
176.74 160.29 3.56 c p3
176.74 160.29 3.56 c p3
176.74 160.29 3.56 c p3
176.74 160.29 3.56 c p3
176.74 160.29 3.56 c p3
176.74 160.29 3.56 c p3
176.74 160.29 3.56 c p3
176.74 160.29 3.56 c p3
176.74 160.29 3.56 c p3
176.74 160.29 3.56 c p3
176.74 160.29 3.56 c p3
176.74 160.29 3.56 c p3
176.74 160.29 3.56 c p3
176.74 160.29 3.56 c p3
176.74 160.29 3.56 c p3
176.74 160.29 3.56 c p3
176.74 160.29 3.56 c p3
176.74 160.29 3.56 c p3
176.74 160.29 3.56 c p3
176.74 160.29 3.56 c p3
176.74 160.29 3.56 c p3
176.74 160.29 3.56 c p3
176.74 160.29 3.56 c p3
176.74 160.29 3.56 c p3
176.74 160.29 3.56 c p3
176.74 160.29 3.56 c p3
176.74 160.29 3.56 c p3
176.74 160.29 3.56 c p3
176.74 160.29 3.56 c p3
176.74 160.29 3.56 c p3
176.74 160.29 3.56 c p3
176.74 160.29 3.56 c p3
176.74 160.29 3.56 c p3
176.74 160.29 3.56 c p3
176.74 160.29 3.56 c p3
176.74 160.29 3.56 c p3
176.74 160.29 3.56 c p3
176.74 160.29 3.56 c p3
176.74 160.29 3.56 c p3
176.74 160.29 3.56 c p3
176.74 160.29 3.56 c p3
176.74 160.29 3.56 c p3
176.74 160.29 3.56 c p3
176.74 160.29 3.56 c p3
176.74 160.29 3.56 c p3
176.74 160.29 3.56 c p3
176.74 160.29 3.56 c p3
176.74 160.29 3.56 c p3
176.74 160.29 3.56 c p3
176.74 160.29 3.56 c p3
176.74 160.29 3.56 c p3
176.74 160.29 3.56 c p3
176.74 160.29 3.56 c p3
176.74 160.29 3.56 c p3
176.74 160.29 3.56 c p3
176.74 160.29 3.56 c p3
176.74 160.29 3.56 c p3
176.74 160.29 3.56 c p3
176.74 160.29 3.56 c p3
176.74 160.29 3.56 c p3
176.74 160.29 3.56 c p3
176.74 160.29 3.56 c p3
176.74 160.29 3.56 c p3
176.74 160.29 3.56 c p3
176.74 160.29 3.56 c p3
176.74 160.29 3.56 c p3
176.74 160.29 3.56 c p3
176.74 160.29 3.56 c p3
176.74 160.29 3.56 c p3
176.74 160.29 3.56 c p3
176.74 160.29 3.56 c p3
176.74 160.29 3.56 c p3
176.74 160.29 3.56 c p3
176.74 160.29 3.56 c p3
176.74 160.29 3.56 c p3
176.74 160.29 3.56 c p3
176.74 160.29 3.56 c p3
176.74 160.29 3.56 c p3
176.74 160.29 3.56 c p3
176.74 160.29 3.56 c p3
176.74 160.29 3.56 c p3
176.74 160.29 3.56 c p3
176.74 160.29 3.56 c p3
176.74 160.29 3.56 c p3
176.74 160.29 3.56 c p3
176.74 160.29 3.56 c p3
176.74 160.29 3.56 c p3
176.74 160.29 3.56 c p3
176.74 160.29 3.56 c p3
176.74 160.29 3.56 c p3
176.74 160.29 3.56 c p3
176.74 160.29 3.56 c p3
176.74 160.29 3.56 c p3
176.74 160.29 3.56 c p3
176.74 160.29 3.56 c p3
176.74 160.29 3.56 c p3
176.74 160.29 3.56 c p3
176.74 160.29 3.56 c p3
176.74 160.29 3.56 c p3
176.74 160.29 3.56 c p3
176.74 160.29 3.56 c p3
176.74 160.29 3.56 c p3
176.74 160.29 3.56 c p3
176.74 160.29 3.56 c p3
176.74 160.29 3.56 c p3
176.74 160.29 3.56 c p3
176.74 160.29 3.56 c p3
176.74 160.29 3.56 c p3
176.74 160.29 3.56 c p3
176.74 160.29 3.56 c p3
176.74 160.29 3.56 c p3
176.74 160.29 3.56 c p3
176.74 160.29 3.56 c p3
176.74 160.29 3.56 c p3
176.74 160.29 3.56 c p3
176.74 160.29 3.56 c p3
176.74 160.29 3.56 c p3
176.74 160.29 3.56 c p3
176.74 160.29 3.56 c p3
176.74 160.29 3.56 c p3
176.74 160.29 3.56 c p3
176.74 160.29 3.56 c p3
176.74 160.29 3.56 c p3
176.74 160.29 3.56 c p3
176.74 160.29 3.56 c p3
176.74 160.29 3.56 c p3
176.74 160.29 3.56 c p3
176.74 160.29 3.56 c p3
176.74 160.29 3.56 c p3
176.74 160.29 3.56 c p3
176.74 160.29 3.56 c p3
176.74 160.29 3.56 c p3
176.74 160.29 3.56 c p3
176.74 160.29 3.56 c p3
176.74 160.29 3.56 c p3
176.74 160.29 3.56 c p3
176.74 160.29 3.56 c p3
176.74 160.29 3.56 c p3
176.74 160.29 3.56 c p3
176.74 160.29 3.56 c p3
176.74 160.29 3.56 c p3
176.74 160.29 3.56 c p3
176.74 160.29 3.56 c p3
176.74 160.29 3.56 c p3
176.74 160.29 3.56 c p3
176.74 160.29 3.56 c p3
176.74 160.29 3.56 c p3
176.74 160.29 3.56 c p3
176.74 160.29 3.56 c p3
176.74 160.29 3.56 c p3
176.74 160.29 3.56 c p3
176.74 160.29 3.56 c p3
176.74 160.29 3.56 c p3
176.74 160.29 3.56 c p3
176.74 160.29 3.56 c p3
176.74 160.29 3.56 c p3
176.74 160.29 3.56 c p3
176.74 160.29 3.56 c p3
176.74 160.29 3.56 c p3
176.74 160.29 3.56 c p3
176.74 160.29 3.56 c p3
176.74 160.29 3.56 c p3
176.74 160.29 3.56 c p3
176.74 160.29 3.56 c p3
176.74 160.29 3.56 c p3
176.74 160.29 3.56 c p3
176.74 160.29 3.56 c p3
176.74 160.29 3.56 c p3
176.74 160.29 3.56 c p3
176.74 160.29 3.56 c p3
176.74 160.29 3.56 c p3
176.74 160.29 3.56 c p3
176.74 160.29 3.56 c p3
176.74 160.29 3.56 c p3
176.74 160.29 3.56 c p3
176.74 160.29 3.56 c p3
176.74 160.29 3.56 c p3
176.74 160.29 3.56 c p3
176.74 160.29 3.56 c p3
176.74 160.29 3.56 c p3
176.74 160.29 3.56 c p3
176.74 160.29 3.56 c p3
176.74 160.29 3.56 c p3
176.74 160.29 3.56 c p3
176.74 160.29 3.56 c p3
176.74 160.29 3.56 c p3
176.74 160.29 3.56 c p3
176.74 160.29 3.56 c p3
176.74 160.29 3.56 c p3
176.74 160.29 3.56 c p3
176.74 160.29 3.56 c p3
176.74 160.29 3.56 c p3
176.74 160.29 3.56 c p3
176.74 160.29 3.56 c p3
176.74 160.29 3.56 c p3
176.74 160.29 3.56 c p3
176.74 160.29 3.56 c p3
176.74 160.29 3.56 c p3
176.74 160.29 3.56 c p3
176.74 160.29 3.56 c p3
176.74 160.29 3.56 c p3
176.74 160.29 3.56 c p3
176.74 160.29 3.56 c p3
176.74 160.29 3.56 c p3
176.74 160.29 3.56 c p3
176.74 160.29 3.56 c p3
176.74 160.29 3.56 c p3
176.74 160.29 3.56 c p3
176.74 160.29 3.56 c p3
176.74 160.29 3.56 c p3
176.74 160.29 3.56 c p3
176.74 160.29 3.56 c p3
176.74 160.29 3.56 c p3
176.74 160.29 3.56 c p3
176.74 160.29 3.56 c p3
176.74 160.29 3.56 c p3
176.74 160.29 3.56 c p3
176.74 160.29 3.56 c p3
176.74 160.29 3.56 c p3
176.74 160.29 3.56 c p3
176.74 160.29 3.56 c p3
176.74 160.29 3.56 c p3
176.74 160.29 3.56 c p3
176.74 160.29 3.56 c p3
176.74 160.29 3.56 c p3
176.74 160.29 3.56 c p3
176.74 160.29 3.56 c p3
176.74 160.29 3.56 c p3
0.00 0.00 310.50 297.75 cl
0.00 0.00 310.50 297.75 cl
0.00 0.00 310.50 297.75 cl
0.00 0.00 310.50 297.75 cl
0.00 0.00 310.50 297.75 cl
0.00 0.00 310.50 297.75 cl
/Font1 findfont 9 s
0.3020 0.3020 0.3020 srgb
37.47 79.51 (2.49) 1 0 t
37.47 158.58 (2.50) 1 0 t
37.47 237.65 (2.51) 1 0 t
0.00 0.00 310.50 297.75 cl
0.00 0.00 310.50 297.75 cl
0.2000 0.2000 0.2000 srgb
1.07 setlinewidth
[] 0 setdash
0 setlinecap
1 setlinejoin
10.00 setmiterlimit
np
39.66 82.74 m
2.74 0 l
o
np
39.66 161.81 m
2.74 0 l
o
np
39.66 240.88 m
2.74 0 l
o
0.00 0.00 310.50 297.75 cl
0.00 0.00 310.50 297.75 cl
0.00 0.00 310.50 297.75 cl
0.00 0.00 310.50 297.75 cl
0.00 0.00 310.50 297.75 cl
0.00 0.00 310.50 297.75 cl
0.00 0.00 310.50 297.75 cl
0.00 0.00 310.50 297.75 cl
0.2000 0.2000 0.2000 srgb
1.07 setlinewidth
[] 0 setdash
0 setlinecap
1 setlinejoin
10.00 setmiterlimit
np
94.13 28.61 m
0 2.74 l
o
np
173.71 28.61 m
0 2.74 l
o
np
253.29 28.61 m
0 2.74 l
o
0.00 0.00 310.50 297.75 cl
0.00 0.00 310.50 297.75 cl
/Font1 findfont 9 s
0.3020 0.3020 0.3020 srgb
94.13 19.95 (-2.01) .5 0 t
173.71 19.95 (-2.00) .5 0 t
253.29 19.95 (-1.99) .5 0 t
0.00 0.00 310.50 297.75 cl
0.00 0.00 310.50 297.75 cl
0.00 0.00 310.50 297.75 cl
0.00 0.00 310.50 297.75 cl
/Font1 findfont 11 s
0 0 0 srgb
173.71 7.67 (Baseline) .5 0 t
0.00 0.00 310.50 297.75 cl
0.00 0.00 310.50 297.75 cl
/Font1 findfont 11 s
0 0 0 srgb
15.57 161.81 (Tmax) .5 90 t
0.00 0.00 310.50 297.75 cl
0.00 0.00 310.50 297.75 cl
0.00 0.00 310.50 297.75 cl
0.00 0.00 310.50 297.75 cl
ep
%%Trailer
%%Pages: 1
%%EOF
