%!PS-Adobe-3.0 EPSF-3.0
%%DocumentNeededResources: font Helvetica
%%+ font Helvetica-Bold
%%+ font Helvetica-Oblique
%%+ font Helvetica-BoldOblique
%%+ font Symbol
%%Title: R Graphics Output
%%Creator: R Software
%%Pages: (atend)
%%BoundingBox: 0 0 311 298
%%EndComments
%%BeginProlog
/bp  { gs sRGB gs } def
% begin .ps.prolog
/gs  { gsave } bind def
/gr  { grestore } bind def
/ep  { showpage gr gr } bind def
/m   { moveto } bind def
/l  { rlineto } bind def
/np  { newpath } bind def
/cp  { closepath } bind def
/f   { fill } bind def
/o   { stroke } bind def
/c   { newpath 0 360 arc } bind def
/r   { 4 2 roll moveto 1 copy 3 -1 roll exch 0 exch rlineto 0 rlineto -1 mul 0 exch rlineto closepath } bind def
/p1  { stroke } bind def
/p2  { gsave bg fill grestore newpath } bind def
/p3  { gsave bg fill grestore stroke } bind def
/p6  { gsave bg eofill grestore newpath } bind def
/p7  { gsave bg eofill grestore stroke } bind def
/t   { 5 -2 roll moveto gsave rotate
       1 index stringwidth pop
       mul neg 0 rmoveto show grestore } bind def
/ta  { 4 -2 roll moveto gsave rotate show } bind def
/tb  { 2 -1 roll 0 rmoveto show } bind def
/cl  { grestore gsave newpath 3 index 3 index moveto 1 index
       4 -1 roll lineto  exch 1 index lineto lineto
       closepath clip newpath } bind def
/rgb { setrgbcolor } bind def
/s   { scalefont setfont } bind def
% end   .ps.prolog
/sRGB { [ /CIEBasedABC
          << /DecodeLMN
               [ { dup 0.03928 le
                        {12.92321 div}
                        {0.055 add 1.055 div 2.4 exp }
                     ifelse
                 } bind dup dup
               ]
             /MatrixLMN [0.412457 0.212673 0.019334
                         0.357576 0.715152 0.119192
                         0.180437 0.072175 0.950301]
             /WhitePoint [0.9505 1.0 1.0890]
           >>
         ] setcolorspace } bind def
/srgb { setcolor } bind def
% begin encoding
/WinAnsiEncoding [
 /.notdef /.notdef /.notdef /.notdef /.notdef /.notdef /.notdef /.notdef
 /.notdef /.notdef /.notdef /.notdef /.notdef /.notdef /.notdef /.notdef
 /.notdef /.notdef /.notdef /.notdef /.notdef /.notdef /.notdef /.notdef
 /.notdef /.notdef /.notdef /.notdef /.notdef /.notdef /.notdef /.notdef
 /space /exclam /quotedbl /numbersign /dollar /percent /ampersand /quoteright
 /parenleft /parenright /asterisk /plus /comma /minus /period /slash
 /zero /one /two /three /four /five /six /seven
 /eight /nine /colon /semicolon /less /equal /greater /question
 /at /A /B /C /D /E /F /G
 /H /I /J /K /L /M /N /O
 /P /Q /R /S /T /U /V /W
 /X /Y /Z /bracketleft /backslash /bracketright /asciicircum /underscore
 /grave /a /b /c /d /e /f /g
 /h /i /j /k /l /m /n /o
 /p /q /r /s /t /u /v /w
 /x /y /z /braceleft /bar /braceright /asciitilde /.notdef
 /Euro /.notdef /quotesinglbase /florin /quotedblbase /ellipsis /dagger /daggerdbl
 /circumflex /perthousand /Scaron /guilsinglleft /OE /.notdef /Zcaron /.notdef
 /.notdef /quoteleft /quoteright /quotedblleft /quotedblright /bullet /endash /emdash
 /tilde /trademark /scaron /guilsinglright /oe /.notdef /zcaron /Ydieresis
 /space /exclamdown /cent /sterling /currency /yen /brokenbar /section
 /dieresis /copyright /ordfeminine /guillemotleft /logicalnot /hyphen /registered /macron
 /degree /plusminus /twosuperior /threesuperior /acute /mu /paragraph /periodcentered
 /cedilla /onesuperior /ordmasculine /guillemotright /onequarter /onehalf /threequarters /questiondown
 /Agrave /Aacute /Acircumflex /Atilde /Adieresis /Aring /AE /Ccedilla
 /Egrave /Eacute /Ecircumflex /Edieresis /Igrave /Iacute /Icircumflex /Idieresis
 /Eth /Ntilde /Ograve /Oacute /Ocircumflex /Otilde /Odieresis /multiply
 /Oslash /Ugrave /Uacute /Ucircumflex /Udieresis /Yacute /Thorn /germandbls
 /agrave /aacute /acircumflex /atilde /adieresis /aring /ae /ccedilla
 /egrave /eacute /ecircumflex /edieresis /igrave /iacute /icircumflex /idieresis
 /eth /ntilde /ograve /oacute /ocircumflex /otilde /odieresis /divide
 /oslash /ugrave /uacute /ucircumflex /udieresis /yacute /thorn /ydieresis
]
 def
% end encoding
%%IncludeResource: font Helvetica
/Helvetica findfont
dup length dict begin
  {1 index /FID ne {def} {pop pop} ifelse} forall
  /Encoding WinAnsiEncoding def
  currentdict
  end
/Font1 exch definefont pop
%%IncludeResource: font Helvetica-Bold
/Helvetica-Bold findfont
dup length dict begin
  {1 index /FID ne {def} {pop pop} ifelse} forall
  /Encoding WinAnsiEncoding def
  currentdict
  end
/Font2 exch definefont pop
%%IncludeResource: font Helvetica-Oblique
/Helvetica-Oblique findfont
dup length dict begin
  {1 index /FID ne {def} {pop pop} ifelse} forall
  /Encoding WinAnsiEncoding def
  currentdict
  end
/Font3 exch definefont pop
%%IncludeResource: font Helvetica-BoldOblique
/Helvetica-BoldOblique findfont
dup length dict begin
  {1 index /FID ne {def} {pop pop} ifelse} forall
  /Encoding WinAnsiEncoding def
  currentdict
  end
/Font4 exch definefont pop
%%IncludeResource: font Symbol
/Symbol findfont
dup length dict begin
  {1 index /FID ne {def} {pop pop} ifelse} forall
  currentdict
  end
/Font5 exch definefont pop
%%EndProlog
%%Page: 1 1
bp
0.00 0.00 310.50 297.75 cl
0.00 0.00 310.50 297.75 cl
0.00 0.00 310.50 297.75 cl
0.00 0.00 310.50 297.75 cl
0.00 0.00 310.50 297.75 cl
0.00 0.00 310.50 297.75 cl
0.00 0.00 310.50 297.75 cl
0.00 0.00 310.50 297.75 cl
0.00 0.00 310.50 297.75 cl
/bg { 1 1 1 srgb } def
1 1 1 srgb
1.07 setlinewidth
[] 0 setdash
1 setlinecap
1 setlinejoin
10.00 setmiterlimit
0.00 0.00 310.50 297.75 r p3
0.00 0.00 310.50 297.75 cl
0.00 0.00 310.50 297.75 cl
0.00 0.00 310.50 297.75 cl
42.40 31.35 305.02 292.27 cl
/bg { 0.9216 0.9216 0.9216 srgb } def
42.40 31.35 262.62 260.92 r p2
1 1 1 srgb
0.53 setlinewidth
[] 0 setdash
0 setlinecap
1 setlinejoin
10.00 setmiterlimit
np
42.40 43.21 m
262.62 0 l
o
np
42.40 122.27 m
262.62 0 l
o
np
42.40 201.34 m
262.62 0 l
o
np
42.40 280.41 m
262.62 0 l
o
np
54.34 31.35 m
0 260.92 l
o
np
133.92 31.35 m
0 260.92 l
o
np
213.50 31.35 m
0 260.92 l
o
np
293.08 31.35 m
0 260.92 l
o
1.07 setlinewidth
[] 0 setdash
np
42.40 82.74 m
262.62 0 l
o
np
42.40 161.81 m
262.62 0 l
o
np
42.40 240.88 m
262.62 0 l
o
np
94.13 31.35 m
0 260.92 l
o
np
173.71 31.35 m
0 260.92 l
o
np
253.29 31.35 m
0 260.92 l
o
/bg { 0.5294 0.8078 0.9216 srgb } def
0.5294 0.8078 0.9216 srgb
0.71 setlinewidth
[] 0 setdash
1 setlinecap
137.35 178.98 1.95 c p3
154.93 178.98 1.95 c p3
154.93 224.44 1.95 c p3
111.64 224.44 1.95 c p3
111.64 160.20 1.95 c p3
162.20 160.20 1.95 c p3
162.20 131.75 1.95 c p3
220.01 131.75 1.95 c p3
220.01 119.28 1.95 c p3
206.49 119.28 1.95 c p3
206.49 160.53 1.95 c p3
176.27 160.53 1.95 c p3
176.27 164.18 1.95 c p3
151.92 164.18 1.95 c p3
151.92 169.62 1.95 c p3
195.30 169.62 1.95 c p3
195.30 151.07 1.95 c p3
182.44 151.07 1.95 c p3
1.07 setlinewidth
[] 0 setdash
0 setlinecap
1.00 setmiterlimit
np
137.35 178.98 m
17.58 0 l
0 45.46 l
-43.29 0 l
0 -64.24 l
50.56 0 l
0 -28.45 l
57.81 0 l
0 -12.47 l
-13.52 0 l
0 41.25 l
-30.22 0 l
0 3.65 l
-24.35 0 l
0 5.44 l
43.38 0 l
0 -18.55 l
-12.86 0 l
o
0.6353 0.8039 0.3529 srgb
np
73.83 217.57 m
-1.45 4.75 l
-1.23 4.84 l
-0.96 4.84 l
-0.61 4.84 l
-0.19 4.84 l
0.35 4.84 l
1.05 4.85 l
1.98 4.84 l
1.06 1.70 l
2.62 3.14 l
2.25 1.91 l
4.87 2.75 l
0.50 0.18 l
4.37 1.21 l
4.87 0.62 l
4.88 0.04 l
4.87 -0.42 l
4.87 -0.79 l
2.88 -0.66 l
1.99 -0.47 l
4.88 -1.45 l
4.87 -1.66 l
3.29 -1.26 l
1.58 -0.62 l
4.87 -2.13 l
4.52 -2.09 l
0.36 -0.17 l
4.87 -2.52 l
4.00 -2.15 l
0.87 -0.48 l
4.87 -2.84 l
2.52 -1.53 l
2.36 -1.45 l
4.87 -3.11 l
0.42 -0.28 l
4.45 -3.03 l
2.59 -1.81 l
2.28 -1.62 l
4.43 -3.22 l
0.45 -0.33 l
4.87 -3.74 l
0.98 -0.77 l
3.89 -3.12 l
2.11 -1.72 l
2.76 -2.30 l
3.00 -2.54 l
1.88 -1.62 l
3.65 -3.22 l
1.22 -1.10 l
4.09 -3.74 l
0.78 -0.73 l
4.33 -4.11 l
0.54 -0.53 l
4.38 -4.31 l
0.49 -0.50 l
4.25 -4.35 l
0.63 -0.65 l
3.94 -4.19 l
0.93 -1.00 l
3.48 -3.84 l
1.39 -1.56 l
2.87 -3.28 l
2.00 -2.34 l
2.11 -2.50 l
2.77 -3.35 l
1.20 -1.49 l
3.67 -4.61 l
0.18 -0.23 l
3.66 -4.84 l
1.03 -1.41 l
2.49 -3.43 l
2.38 -3.38 l
1.02 -1.46 l
3.25 -4.84 l
0.61 -0.94 l
2.47 -3.91 l
2.40 -3.90 l
0.56 -0.94 l
2.77 -4.84 l
1.54 -2.80 l
1.10 -2.04 l
2.45 -4.84 l
1.32 -2.78 l
0.96 -2.06 l
2.08 -4.84 l
1.84 -4.62 l
0.08 -0.22 l
1.62 -4.84 l
1.42 -4.84 l
1.16 -4.84 l
0.59 -3.38 l
0.25 -1.47 l
0.43 -4.84 l
0.01 -4.84 l
-0.55 -4.84 l
-0.14 -0.62 l
-1.24 -4.22 l
-2.50 -4.84 l
-1.13 -1.50 l
274.96 57.73 lineto
-1.37 -0.96 l
-4.87 -2.29 l
-4.87 -1.26 l
-3.15 -0.33 l
-1.72 -0.15 l
-4.88 0.09 l
-0.56 0.06 l
-4.31 0.48 l
-4.87 0.92 l
-4.87 1.22 l
-4.88 1.46 l
-2.16 0.76 l
-2.71 0.97 l
-4.87 1.96 l
-4.39 1.91 l
-0.48 0.21 l
-4.88 2.38 l
-4.40 2.25 l
-0.47 0.24 l
-4.87 2.73 l
-3.22 1.87 l
-1.65 0.98 l
-4.87 3.01 l
-1.32 0.85 l
-3.56 2.34 l
-3.71 2.50 l
-1.16 0.80 l
-4.87 3.46 l
-0.79 0.58 l
-4.08 3.06 l
-2.34 1.79 l
-2.54 1.97 l
-3.60 2.87 l
-1.27 1.03 l
-4.61 3.81 l
-0.26 0.22 l
-4.87 4.21 l
-0.46 0.41 l
-4.42 3.97 l
-0.95 0.87 l
-3.92 3.65 l
-1.25 1.19 l
-3.62 3.50 l
-1.36 1.34 l
-3.51 3.52 l
-1.30 1.32 l
-3.58 3.71 l
-1.07 1.13 l
-3.80 4.10 l
-0.68 0.74 l
-4.19 4.68 l
-0.15 0.16 l
-4.15 4.85 l
-0.57 0.68 l
-3.43 4.16 l
-1.45 1.78 l
-2.42 3.06 l
-2.45 3.14 l
-1.29 1.70 l
-3.58 4.78 l
-0.04 0.06 l
-3.41 4.84 l
-1.42 2.07 l
-1.87 2.77 l
-3.01 4.56 l
-0.18 0.28 l
-2.97 4.84 l
-1.72 2.90 l
-1.13 1.94 l
-2.69 4.84 l
-1.05 2.00 l
-1.47 2.85 l
-2.35 4.84 l
-1.05 2.34 l
-1.11 2.50 l
-1.95 4.84 l
-1.79 4.84 l
-0.02 0.09 l
o
np
200.64 43.21 m
-0.13 0.08 l
-4.87 3.24 l
-2.25 1.52 l
-2.63 1.80 l
-4.35 3.04 l
-0.52 0.36 l
-4.87 3.54 l
-1.27 0.94 l
-3.60 2.70 l
-2.81 2.14 l
-2.07 1.59 l
-4.14 3.25 l
-0.73 0.58 l
-4.87 3.93 l
-0.40 0.33 l
-4.47 3.73 l
-1.31 1.11 l
-3.57 3.05 l
-2.06 1.79 l
-2.81 2.48 l
-2.66 2.36 l
-2.21 2.00 l
-3.10 2.85 l
-1.77 1.63 l
-3.41 3.21 l
-1.47 1.39 l
-3.57 3.45 l
-1.30 1.26 l
-3.61 3.58 l
-1.26 1.26 l
-3.53 3.58 l
-1.34 1.38 l
-3.32 3.46 l
-1.56 1.64 l
-2.99 3.20 l
-1.88 2.04 l
-2.55 2.80 l
-2.32 2.58 l
-2.01 2.26 l
-2.86 3.27 l
-1.36 1.57 l
-3.52 4.12 l
-0.60 0.72 l
-4.02 4.85 l
-0.25 0.30 l
-3.64 4.54 l
-1.23 1.55 l
-2.57 3.29 l
-2.30 3.00 l
-1.40 1.84 l
-3.47 4.64 l
-0.15 0.20 l
-3.48 4.84 l
-1.25 1.76 l
-2.14 3.08 l
-2.73 3.98 l
-0.58 0.86 l
-3.19 4.84 l
-1.10 1.73 l
-1.97 3.11 l
-2.90 4.67 l
o
np
293.08 137.10 m
-1.91 2.92 l
-2.96 4.43 l
-0.28 0.42 l
-3.37 4.84 l
-1.22 1.71 l
-2.25 3.13 l
-2.62 3.58 l
-0.93 1.26 l
-3.66 4.84 l
-0.29 0.38 l
-3.49 4.46 l
-1.38 1.74 l
-2.49 3.10 l
-2.38 2.92 l
-1.59 1.92 l
-3.28 3.93 l
-0.78 0.91 l
-4.10 4.76 l
-0.07 0.08 l
-4.29 4.84 l
-0.51 0.57 l
-3.89 4.28 l
-0.98 1.05 l
-3.54 3.79 l
-1.33 1.41 l
-3.29 3.43 l
-1.59 1.63 l
-3.15 3.21 l
-1.72 1.72 l
-3.14 3.12 l
-1.73 1.69 l
-3.26 3.15 l
-1.61 1.54 l
-3.51 3.30 l
-1.37 1.27 l
-3.89 3.57 l
-0.98 0.89 l
-4.42 3.95 l
-0.45 0.40 l
-4.87 4.24 l
-0.24 0.20 l
-4.63 3.91 l
-1.13 0.93 l
-3.75 3.08 l
-2.18 1.77 l
-2.69 2.15 l
-3.42 2.69 l
-1.45 1.13 l
-4.85 3.71 l
-0.02 0.02 l
-4.88 3.58 l
-1.71 1.24 l
-3.16 2.25 l
-3.68 2.59 l
-1.19 0.82 l
-4.87 3.30 l
-1.10 0.72 l
-3.78 2.45 l
-3.75 2.39 l
o
np
169.20 43.21 m
-2.80 2.20 l
-3.32 2.64 l
-1.55 1.24 l
-4.42 3.60 l
-0.45 0.37 l
-4.88 4.06 l
-0.48 0.41 l
-4.39 3.75 l
-1.26 1.09 l
-3.61 3.15 l
-1.91 1.69 l
-2.96 2.64 l
-2.45 2.20 l
-2.43 2.22 l
-2.85 2.62 l
-2.02 1.88 l
-3.14 2.96 l
-1.73 1.64 l
-3.33 3.20 l
-1.54 1.50 l
-3.41 3.35 l
-1.47 1.45 l
-3.37 3.39 l
-1.50 1.51 l
-3.25 3.33 l
-1.62 1.68 l
-3.02 3.16 l
-1.85 1.95 l
-2.71 2.89 l
-2.17 2.34 l
-2.29 2.50 l
-2.58 2.85 l
-1.79 1.99 l
-3.08 3.47 l
-1.21 1.37 l
-3.66 4.22 l
-0.54 0.62 l
-4.11 4.84 l
-0.22 0.27 l
-3.79 4.57 l
-1.09 1.33 l
-2.84 3.52 l
-2.03 2.53 l
-1.83 2.31 l
-3.04 3.88 l
-0.74 0.96 l
-3.70 4.84 l
-0.43 0.58 l
o
np
293.08 168.52 m
-0.42 0.55 l
-3.83 4.84 l
-0.62 0.77 l
-3.30 4.07 l
-1.57 1.92 l
-2.42 2.92 l
-2.45 2.93 l
-1.63 1.91 l
-3.25 3.80 l
-0.90 1.04 l
-3.97 4.54 l
-0.27 0.31 l
-4.34 4.84 l
-0.26 0.28 l
-4.17 4.56 l
-0.70 0.75 l
-3.83 4.09 l
-1.05 1.11 l
-3.56 3.73 l
-1.31 1.35 l
-3.40 3.49 l
-1.47 1.49 l
-3.34 3.35 l
-1.53 1.52 l
-3.38 3.32 l
-1.50 1.46 l
-3.51 3.38 l
-1.36 1.29 l
-3.76 3.55 l
-1.11 1.04 l
-4.13 3.80 l
-0.74 0.69 l
-4.60 4.16 l
-0.28 0.24 l
-4.87 4.30 l
-0.34 0.30 l
-4.53 3.91 l
-1.09 0.93 l
-3.78 3.19 l
-1.98 1.65 l
-2.89 2.39 l
-3.01 2.45 l
-1.87 1.51 l
-4.18 3.33 l
-0.69 0.55 l
-4.87 3.78 l
-0.67 0.51 l
o
np
145.79 43.21 m
-3.75 3.21 l
-1.89 1.63 l
-2.98 2.60 l
-2.54 2.24 l
-2.34 2.07 l
-3.08 2.77 l
-1.79 1.62 l
-3.52 3.22 l
-1.35 1.25 l
-3.86 3.59 l
-1.01 0.96 l
-4.10 3.88 l
-0.78 0.74 l
-4.24 4.10 l
-0.63 0.62 l
-4.29 4.22 l
-0.58 0.58 l
-4.25 4.26 l
-0.62 0.63 l
-4.13 4.22 l
-0.75 0.76 l
-3.91 4.08 l
-0.96 1.00 l
-3.62 3.84 l
-1.25 1.33 l
-3.25 3.51 l
-1.62 1.77 l
-2.80 3.07 l
-2.07 2.30 l
-2.27 2.54 l
-2.61 2.95 l
-1.66 1.89 l
-3.21 3.70 l
-0.99 1.14 l
-3.88 4.56 l
-0.24 0.28 l
-4.04 4.84 l
-0.59 0.72 l
o
np
293.08 191.91 m
-1.16 1.36 l
-3.71 4.33 l
-0.44 0.52 l
-4.24 4.84 l
-0.19 0.21 l
-4.13 4.63 l
-0.74 0.82 l
-3.66 4.02 l
-1.22 1.32 l
-3.25 3.52 l
-1.62 1.73 l
-2.94 3.11 l
-1.93 2.03 l
-2.70 2.81 l
-2.17 2.24 l
-2.55 2.60 l
-2.33 2.36 l
-2.47 2.48 l
-2.40 2.39 l
-2.49 2.45 l
-2.38 2.33 l
-2.60 2.51 l
-2.27 2.19 l
-2.80 2.66 l
-2.08 1.95 l
-3.09 2.89 l
-1.78 1.64 l
-3.49 3.20 l
-1.38 1.25 l
-3.99 3.59 l
-0.88 0.79 l
-4.59 4.05 l
-0.29 0.25 l
-4.87 4.21 l
-0.44 0.38 l
-4.43 3.76 l
-1.29 1.08 l
o
np
126.28 43.21 m
-3.73 3.36 l
-1.62 1.48 l
-3.25 2.97 l
-2.02 1.87 l
-2.86 2.66 l
-2.32 2.18 l
-2.55 2.41 l
-2.54 2.43 l
-2.33 2.24 l
-2.68 2.60 l
-2.19 2.15 l
-2.73 2.69 l
-2.15 2.13 l
-2.70 2.71 l
-2.17 2.20 l
-2.60 2.64 l
-2.27 2.34 l
-2.42 2.50 l
-2.45 2.57 l
-2.17 2.28 l
-2.70 2.87 l
-1.84 1.97 l
-3.04 3.27 l
-1.44 1.57 l
-3.43 3.76 l
-0.98 1.08 l
-3.89 4.34 l
-0.45 0.50 l
-4.26 4.84 l
-0.16 0.18 l
o
np
293.08 211.42 m
-1.09 1.22 l
-3.78 4.19 l
-0.59 0.65 l
-4.28 4.67 l
-0.16 0.17 l
-4.52 4.84 l
-0.19 0.21 l
-4.41 4.63 l
-0.47 0.49 l
-4.19 4.35 l
-0.68 0.70 l
-4.06 4.14 l
-0.81 0.82 l
-4.01 4.02 l
-0.86 0.86 l
-4.04 3.99 l
-0.84 0.82 l
-4.13 4.02 l
-0.74 0.71 l
-4.32 4.13 l
-0.55 0.52 l
-4.59 4.32 l
-0.28 0.26 l
-4.88 4.51 l
-0.07 0.07 l
-4.80 4.36 l
-0.53 0.48 l
-4.34 3.87 l
-1.09 0.97 l
o
np
109.21 43.21 m
-1.28 1.19 l
-3.89 3.65 l
-0.98 0.92 l
-4.12 3.92 l
-0.75 0.72 l
-4.27 4.12 l
-0.61 0.59 l
-4.33 4.25 l
-0.54 0.53 l
-4.33 4.31 l
-0.54 0.54 l
-4.25 4.30 l
-0.62 0.63 l
-4.11 4.21 l
-0.76 0.79 l
-3.90 4.05 l
-0.98 1.03 l
-3.61 3.81 l
-1.26 1.35 l
-3.26 3.50 l
-1.61 1.74 l
-2.85 3.10 l
-2.02 2.22 l
o
np
293.08 228.50 m
-3.26 3.50 l
-1.61 1.72 l
-2.96 3.12 l
-1.91 2.01 l
-2.72 2.83 l
-2.15 2.23 l
-2.55 2.61 l
-2.33 2.37 l
-2.44 2.48 l
-2.43 2.43 l
-2.41 2.41 l
-2.46 2.43 l
-2.46 2.41 l
-2.41 2.35 l
-2.58 2.49 l
-2.30 2.20 l
-2.76 2.64 l
-2.11 1.99 l
-3.03 2.85 l
-1.84 1.71 l
-3.38 3.13 l
o
np
93.83 43.21 m
-0.52 0.49 l
-4.52 4.35 l
-0.35 0.34 l
-4.61 4.50 l
-0.26 0.25 l
-4.64 4.59 l
-0.23 0.23 l
-4.60 4.61 l
-0.27 0.28 l
-4.49 4.56 l
-0.39 0.39 l
-4.31 4.45 l
-0.56 0.58 l
-4.08 4.26 l
-0.79 0.84 l
-3.78 4.00 l
-1.09 1.17 l
o
np
293.08 243.89 m
-2.52 2.63 l
-2.35 2.45 l
-2.32 2.40 l
-2.55 2.60 l
-2.20 2.24 l
-2.67 2.70 l
-2.13 2.14 l
-2.75 2.73 l
-2.12 2.11 l
-2.75 2.70 l
-2.19 2.14 l
-2.68 2.60 l
-2.33 2.24 l
-2.54 2.43 l
-2.54 2.41 l
o
np
79.73 43.21 m
-1.03 1.01 l
-3.90 3.83 l
-0.97 0.97 l
-3.89 3.87 l
-0.99 0.99 l
-3.81 3.85 l
-1.06 1.07 l
-3.69 3.77 l
-1.18 1.22 l
-3.50 3.62 l
-1.37 1.43 l
o
np
293.08 258.00 m
-2.97 3.05 l
-1.90 1.93 l
-2.88 2.91 l
-1.99 1.99 l
-2.85 2.85 l
-2.02 2.00 l
-2.89 2.84 l
-1.99 1.94 l
-2.98 2.90 l
o
np
66.64 43.21 m
-2.56 2.55 l
-2.28 2.29 l
-2.59 2.61 l
-2.20 2.23 l
-2.67 2.73 l
o
np
293.08 271.13 m
-4.42 4.44 l
-0.45 0.44 l
-4.43 4.40 l
o
np
54.34 43.21 m
0 0 l
o
0.4235 0.6510 0.8039 srgb
0.21 setlinewidth
[ 0.85 0.85] 0 setdash
10.00 setmiterlimit
np
42.40 160.29 m
262.62 0 l
o
np
176.74 31.35 m
0 260.92 l
o
/bg { 0.3412 0.3412 0.3412 srgb } def
0.3412 0.3412 0.3412 srgb
0.71 setlinewidth
[] 0 setdash
1 setlinecap
176.74 160.29 3.56 c p3
176.74 160.29 3.56 c p3
176.74 160.29 3.56 c p3
176.74 160.29 3.56 c p3
176.74 160.29 3.56 c p3
176.74 160.29 3.56 c p3
176.74 160.29 3.56 c p3
176.74 160.29 3.56 c p3
176.74 160.29 3.56 c p3
176.74 160.29 3.56 c p3
176.74 160.29 3.56 c p3
176.74 160.29 3.56 c p3
176.74 160.29 3.56 c p3
176.74 160.29 3.56 c p3
176.74 160.29 3.56 c p3
176.74 160.29 3.56 c p3
176.74 160.29 3.56 c p3
176.74 160.29 3.56 c p3
176.74 160.29 3.56 c p3
176.74 160.29 3.56 c p3
176.74 160.29 3.56 c p3
176.74 160.29 3.56 c p3
176.74 160.29 3.56 c p3
176.74 160.29 3.56 c p3
176.74 160.29 3.56 c p3
176.74 160.29 3.56 c p3
176.74 160.29 3.56 c p3
176.74 160.29 3.56 c p3
176.74 160.29 3.56 c p3
176.74 160.29 3.56 c p3
176.74 160.29 3.56 c p3
176.74 160.29 3.56 c p3
176.74 160.29 3.56 c p3
176.74 160.29 3.56 c p3
176.74 160.29 3.56 c p3
176.74 160.29 3.56 c p3
176.74 160.29 3.56 c p3
176.74 160.29 3.56 c p3
176.74 160.29 3.56 c p3
176.74 160.29 3.56 c p3
176.74 160.29 3.56 c p3
176.74 160.29 3.56 c p3
176.74 160.29 3.56 c p3
176.74 160.29 3.56 c p3
176.74 160.29 3.56 c p3
176.74 160.29 3.56 c p3
176.74 160.29 3.56 c p3
176.74 160.29 3.56 c p3
176.74 160.29 3.56 c p3
176.74 160.29 3.56 c p3
176.74 160.29 3.56 c p3
176.74 160.29 3.56 c p3
176.74 160.29 3.56 c p3
176.74 160.29 3.56 c p3
176.74 160.29 3.56 c p3
176.74 160.29 3.56 c p3
176.74 160.29 3.56 c p3
176.74 160.29 3.56 c p3
176.74 160.29 3.56 c p3
176.74 160.29 3.56 c p3
176.74 160.29 3.56 c p3
176.74 160.29 3.56 c p3
176.74 160.29 3.56 c p3
176.74 160.29 3.56 c p3
176.74 160.29 3.56 c p3
176.74 160.29 3.56 c p3
176.74 160.29 3.56 c p3
176.74 160.29 3.56 c p3
176.74 160.29 3.56 c p3
176.74 160.29 3.56 c p3
176.74 160.29 3.56 c p3
176.74 160.29 3.56 c p3
176.74 160.29 3.56 c p3
176.74 160.29 3.56 c p3
176.74 160.29 3.56 c p3
176.74 160.29 3.56 c p3
176.74 160.29 3.56 c p3
176.74 160.29 3.56 c p3
176.74 160.29 3.56 c p3
176.74 160.29 3.56 c p3
176.74 160.29 3.56 c p3
176.74 160.29 3.56 c p3
176.74 160.29 3.56 c p3
176.74 160.29 3.56 c p3
176.74 160.29 3.56 c p3
176.74 160.29 3.56 c p3
176.74 160.29 3.56 c p3
176.74 160.29 3.56 c p3
176.74 160.29 3.56 c p3
176.74 160.29 3.56 c p3
176.74 160.29 3.56 c p3
176.74 160.29 3.56 c p3
176.74 160.29 3.56 c p3
176.74 160.29 3.56 c p3
176.74 160.29 3.56 c p3
176.74 160.29 3.56 c p3
176.74 160.29 3.56 c p3
176.74 160.29 3.56 c p3
176.74 160.29 3.56 c p3
176.74 160.29 3.56 c p3
176.74 160.29 3.56 c p3
176.74 160.29 3.56 c p3
176.74 160.29 3.56 c p3
176.74 160.29 3.56 c p3
176.74 160.29 3.56 c p3
176.74 160.29 3.56 c p3
176.74 160.29 3.56 c p3
176.74 160.29 3.56 c p3
176.74 160.29 3.56 c p3
176.74 160.29 3.56 c p3
176.74 160.29 3.56 c p3
176.74 160.29 3.56 c p3
176.74 160.29 3.56 c p3
176.74 160.29 3.56 c p3
176.74 160.29 3.56 c p3
176.74 160.29 3.56 c p3
176.74 160.29 3.56 c p3
176.74 160.29 3.56 c p3
176.74 160.29 3.56 c p3
176.74 160.29 3.56 c p3
176.74 160.29 3.56 c p3
176.74 160.29 3.56 c p3
176.74 160.29 3.56 c p3
176.74 160.29 3.56 c p3
176.74 160.29 3.56 c p3
176.74 160.29 3.56 c p3
176.74 160.29 3.56 c p3
176.74 160.29 3.56 c p3
176.74 160.29 3.56 c p3
176.74 160.29 3.56 c p3
176.74 160.29 3.56 c p3
176.74 160.29 3.56 c p3
176.74 160.29 3.56 c p3
176.74 160.29 3.56 c p3
176.74 160.29 3.56 c p3
176.74 160.29 3.56 c p3
176.74 160.29 3.56 c p3
176.74 160.29 3.56 c p3
176.74 160.29 3.56 c p3
176.74 160.29 3.56 c p3
176.74 160.29 3.56 c p3
176.74 160.29 3.56 c p3
176.74 160.29 3.56 c p3
176.74 160.29 3.56 c p3
176.74 160.29 3.56 c p3
176.74 160.29 3.56 c p3
176.74 160.29 3.56 c p3
176.74 160.29 3.56 c p3
176.74 160.29 3.56 c p3
176.74 160.29 3.56 c p3
176.74 160.29 3.56 c p3
176.74 160.29 3.56 c p3
176.74 160.29 3.56 c p3
176.74 160.29 3.56 c p3
176.74 160.29 3.56 c p3
176.74 160.29 3.56 c p3
176.74 160.29 3.56 c p3
176.74 160.29 3.56 c p3
176.74 160.29 3.56 c p3
176.74 160.29 3.56 c p3
176.74 160.29 3.56 c p3
176.74 160.29 3.56 c p3
176.74 160.29 3.56 c p3
176.74 160.29 3.56 c p3
176.74 160.29 3.56 c p3
176.74 160.29 3.56 c p3
176.74 160.29 3.56 c p3
176.74 160.29 3.56 c p3
176.74 160.29 3.56 c p3
176.74 160.29 3.56 c p3
176.74 160.29 3.56 c p3
176.74 160.29 3.56 c p3
176.74 160.29 3.56 c p3
176.74 160.29 3.56 c p3
176.74 160.29 3.56 c p3
176.74 160.29 3.56 c p3
176.74 160.29 3.56 c p3
176.74 160.29 3.56 c p3
176.74 160.29 3.56 c p3
176.74 160.29 3.56 c p3
176.74 160.29 3.56 c p3
176.74 160.29 3.56 c p3
176.74 160.29 3.56 c p3
176.74 160.29 3.56 c p3
176.74 160.29 3.56 c p3
176.74 160.29 3.56 c p3
176.74 160.29 3.56 c p3
176.74 160.29 3.56 c p3
176.74 160.29 3.56 c p3
176.74 160.29 3.56 c p3
176.74 160.29 3.56 c p3
176.74 160.29 3.56 c p3
176.74 160.29 3.56 c p3
176.74 160.29 3.56 c p3
176.74 160.29 3.56 c p3
176.74 160.29 3.56 c p3
176.74 160.29 3.56 c p3
176.74 160.29 3.56 c p3
176.74 160.29 3.56 c p3
176.74 160.29 3.56 c p3
176.74 160.29 3.56 c p3
176.74 160.29 3.56 c p3
176.74 160.29 3.56 c p3
176.74 160.29 3.56 c p3
176.74 160.29 3.56 c p3
176.74 160.29 3.56 c p3
176.74 160.29 3.56 c p3
176.74 160.29 3.56 c p3
176.74 160.29 3.56 c p3
176.74 160.29 3.56 c p3
176.74 160.29 3.56 c p3
176.74 160.29 3.56 c p3
176.74 160.29 3.56 c p3
176.74 160.29 3.56 c p3
176.74 160.29 3.56 c p3
176.74 160.29 3.56 c p3
176.74 160.29 3.56 c p3
176.74 160.29 3.56 c p3
176.74 160.29 3.56 c p3
176.74 160.29 3.56 c p3
176.74 160.29 3.56 c p3
176.74 160.29 3.56 c p3
176.74 160.29 3.56 c p3
176.74 160.29 3.56 c p3
176.74 160.29 3.56 c p3
176.74 160.29 3.56 c p3
176.74 160.29 3.56 c p3
176.74 160.29 3.56 c p3
176.74 160.29 3.56 c p3
176.74 160.29 3.56 c p3
176.74 160.29 3.56 c p3
176.74 160.29 3.56 c p3
176.74 160.29 3.56 c p3
176.74 160.29 3.56 c p3
176.74 160.29 3.56 c p3
176.74 160.29 3.56 c p3
176.74 160.29 3.56 c p3
176.74 160.29 3.56 c p3
176.74 160.29 3.56 c p3
176.74 160.29 3.56 c p3
176.74 160.29 3.56 c p3
176.74 160.29 3.56 c p3
176.74 160.29 3.56 c p3
176.74 160.29 3.56 c p3
176.74 160.29 3.56 c p3
176.74 160.29 3.56 c p3
176.74 160.29 3.56 c p3
176.74 160.29 3.56 c p3
176.74 160.29 3.56 c p3
176.74 160.29 3.56 c p3
176.74 160.29 3.56 c p3
176.74 160.29 3.56 c p3
176.74 160.29 3.56 c p3
176.74 160.29 3.56 c p3
176.74 160.29 3.56 c p3
176.74 160.29 3.56 c p3
176.74 160.29 3.56 c p3
176.74 160.29 3.56 c p3
176.74 160.29 3.56 c p3
176.74 160.29 3.56 c p3
176.74 160.29 3.56 c p3
176.74 160.29 3.56 c p3
176.74 160.29 3.56 c p3
176.74 160.29 3.56 c p3
176.74 160.29 3.56 c p3
176.74 160.29 3.56 c p3
176.74 160.29 3.56 c p3
176.74 160.29 3.56 c p3
176.74 160.29 3.56 c p3
176.74 160.29 3.56 c p3
176.74 160.29 3.56 c p3
176.74 160.29 3.56 c p3
176.74 160.29 3.56 c p3
176.74 160.29 3.56 c p3
176.74 160.29 3.56 c p3
176.74 160.29 3.56 c p3
176.74 160.29 3.56 c p3
176.74 160.29 3.56 c p3
176.74 160.29 3.56 c p3
176.74 160.29 3.56 c p3
176.74 160.29 3.56 c p3
176.74 160.29 3.56 c p3
176.74 160.29 3.56 c p3
176.74 160.29 3.56 c p3
176.74 160.29 3.56 c p3
176.74 160.29 3.56 c p3
176.74 160.29 3.56 c p3
176.74 160.29 3.56 c p3
176.74 160.29 3.56 c p3
176.74 160.29 3.56 c p3
176.74 160.29 3.56 c p3
176.74 160.29 3.56 c p3
176.74 160.29 3.56 c p3
176.74 160.29 3.56 c p3
176.74 160.29 3.56 c p3
176.74 160.29 3.56 c p3
176.74 160.29 3.56 c p3
176.74 160.29 3.56 c p3
176.74 160.29 3.56 c p3
176.74 160.29 3.56 c p3
176.74 160.29 3.56 c p3
176.74 160.29 3.56 c p3
176.74 160.29 3.56 c p3
176.74 160.29 3.56 c p3
176.74 160.29 3.56 c p3
176.74 160.29 3.56 c p3
176.74 160.29 3.56 c p3
176.74 160.29 3.56 c p3
176.74 160.29 3.56 c p3
176.74 160.29 3.56 c p3
176.74 160.29 3.56 c p3
176.74 160.29 3.56 c p3
176.74 160.29 3.56 c p3
176.74 160.29 3.56 c p3
176.74 160.29 3.56 c p3
176.74 160.29 3.56 c p3
176.74 160.29 3.56 c p3
176.74 160.29 3.56 c p3
176.74 160.29 3.56 c p3
176.74 160.29 3.56 c p3
176.74 160.29 3.56 c p3
176.74 160.29 3.56 c p3
176.74 160.29 3.56 c p3
176.74 160.29 3.56 c p3
176.74 160.29 3.56 c p3
176.74 160.29 3.56 c p3
176.74 160.29 3.56 c p3
176.74 160.29 3.56 c p3
176.74 160.29 3.56 c p3
176.74 160.29 3.56 c p3
176.74 160.29 3.56 c p3
176.74 160.29 3.56 c p3
176.74 160.29 3.56 c p3
176.74 160.29 3.56 c p3
176.74 160.29 3.56 c p3
176.74 160.29 3.56 c p3
176.74 160.29 3.56 c p3
176.74 160.29 3.56 c p3
176.74 160.29 3.56 c p3
176.74 160.29 3.56 c p3
176.74 160.29 3.56 c p3
176.74 160.29 3.56 c p3
176.74 160.29 3.56 c p3
176.74 160.29 3.56 c p3
176.74 160.29 3.56 c p3
176.74 160.29 3.56 c p3
176.74 160.29 3.56 c p3
176.74 160.29 3.56 c p3
176.74 160.29 3.56 c p3
176.74 160.29 3.56 c p3
176.74 160.29 3.56 c p3
176.74 160.29 3.56 c p3
176.74 160.29 3.56 c p3
176.74 160.29 3.56 c p3
176.74 160.29 3.56 c p3
176.74 160.29 3.56 c p3
176.74 160.29 3.56 c p3
176.74 160.29 3.56 c p3
176.74 160.29 3.56 c p3
176.74 160.29 3.56 c p3
176.74 160.29 3.56 c p3
176.74 160.29 3.56 c p3
176.74 160.29 3.56 c p3
176.74 160.29 3.56 c p3
176.74 160.29 3.56 c p3
176.74 160.29 3.56 c p3
176.74 160.29 3.56 c p3
176.74 160.29 3.56 c p3
176.74 160.29 3.56 c p3
176.74 160.29 3.56 c p3
176.74 160.29 3.56 c p3
176.74 160.29 3.56 c p3
176.74 160.29 3.56 c p3
176.74 160.29 3.56 c p3
176.74 160.29 3.56 c p3
176.74 160.29 3.56 c p3
176.74 160.29 3.56 c p3
176.74 160.29 3.56 c p3
176.74 160.29 3.56 c p3
176.74 160.29 3.56 c p3
176.74 160.29 3.56 c p3
176.74 160.29 3.56 c p3
176.74 160.29 3.56 c p3
176.74 160.29 3.56 c p3
176.74 160.29 3.56 c p3
176.74 160.29 3.56 c p3
176.74 160.29 3.56 c p3
176.74 160.29 3.56 c p3
176.74 160.29 3.56 c p3
176.74 160.29 3.56 c p3
176.74 160.29 3.56 c p3
176.74 160.29 3.56 c p3
176.74 160.29 3.56 c p3
176.74 160.29 3.56 c p3
176.74 160.29 3.56 c p3
176.74 160.29 3.56 c p3
176.74 160.29 3.56 c p3
176.74 160.29 3.56 c p3
176.74 160.29 3.56 c p3
176.74 160.29 3.56 c p3
176.74 160.29 3.56 c p3
176.74 160.29 3.56 c p3
176.74 160.29 3.56 c p3
176.74 160.29 3.56 c p3
176.74 160.29 3.56 c p3
176.74 160.29 3.56 c p3
176.74 160.29 3.56 c p3
176.74 160.29 3.56 c p3
176.74 160.29 3.56 c p3
176.74 160.29 3.56 c p3
176.74 160.29 3.56 c p3
176.74 160.29 3.56 c p3
176.74 160.29 3.56 c p3
176.74 160.29 3.56 c p3
176.74 160.29 3.56 c p3
176.74 160.29 3.56 c p3
176.74 160.29 3.56 c p3
176.74 160.29 3.56 c p3
176.74 160.29 3.56 c p3
176.74 160.29 3.56 c p3
176.74 160.29 3.56 c p3
176.74 160.29 3.56 c p3
176.74 160.29 3.56 c p3
176.74 160.29 3.56 c p3
176.74 160.29 3.56 c p3
176.74 160.29 3.56 c p3
176.74 160.29 3.56 c p3
176.74 160.29 3.56 c p3
176.74 160.29 3.56 c p3
176.74 160.29 3.56 c p3
176.74 160.29 3.56 c p3
176.74 160.29 3.56 c p3
176.74 160.29 3.56 c p3
176.74 160.29 3.56 c p3
176.74 160.29 3.56 c p3
176.74 160.29 3.56 c p3
176.74 160.29 3.56 c p3
176.74 160.29 3.56 c p3
176.74 160.29 3.56 c p3
176.74 160.29 3.56 c p3
176.74 160.29 3.56 c p3
176.74 160.29 3.56 c p3
176.74 160.29 3.56 c p3
176.74 160.29 3.56 c p3
176.74 160.29 3.56 c p3
176.74 160.29 3.56 c p3
176.74 160.29 3.56 c p3
176.74 160.29 3.56 c p3
176.74 160.29 3.56 c p3
176.74 160.29 3.56 c p3
176.74 160.29 3.56 c p3
176.74 160.29 3.56 c p3
176.74 160.29 3.56 c p3
176.74 160.29 3.56 c p3
176.74 160.29 3.56 c p3
176.74 160.29 3.56 c p3
176.74 160.29 3.56 c p3
176.74 160.29 3.56 c p3
176.74 160.29 3.56 c p3
176.74 160.29 3.56 c p3
176.74 160.29 3.56 c p3
176.74 160.29 3.56 c p3
176.74 160.29 3.56 c p3
176.74 160.29 3.56 c p3
176.74 160.29 3.56 c p3
176.74 160.29 3.56 c p3
176.74 160.29 3.56 c p3
176.74 160.29 3.56 c p3
176.74 160.29 3.56 c p3
176.74 160.29 3.56 c p3
176.74 160.29 3.56 c p3
176.74 160.29 3.56 c p3
176.74 160.29 3.56 c p3
176.74 160.29 3.56 c p3
176.74 160.29 3.56 c p3
176.74 160.29 3.56 c p3
176.74 160.29 3.56 c p3
176.74 160.29 3.56 c p3
176.74 160.29 3.56 c p3
176.74 160.29 3.56 c p3
176.74 160.29 3.56 c p3
176.74 160.29 3.56 c p3
176.74 160.29 3.56 c p3
176.74 160.29 3.56 c p3
176.74 160.29 3.56 c p3
176.74 160.29 3.56 c p3
176.74 160.29 3.56 c p3
176.74 160.29 3.56 c p3
176.74 160.29 3.56 c p3
176.74 160.29 3.56 c p3
176.74 160.29 3.56 c p3
176.74 160.29 3.56 c p3
176.74 160.29 3.56 c p3
176.74 160.29 3.56 c p3
176.74 160.29 3.56 c p3
176.74 160.29 3.56 c p3
176.74 160.29 3.56 c p3
176.74 160.29 3.56 c p3
176.74 160.29 3.56 c p3
176.74 160.29 3.56 c p3
176.74 160.29 3.56 c p3
176.74 160.29 3.56 c p3
176.74 160.29 3.56 c p3
176.74 160.29 3.56 c p3
176.74 160.29 3.56 c p3
176.74 160.29 3.56 c p3
176.74 160.29 3.56 c p3
176.74 160.29 3.56 c p3
176.74 160.29 3.56 c p3
176.74 160.29 3.56 c p3
176.74 160.29 3.56 c p3
176.74 160.29 3.56 c p3
176.74 160.29 3.56 c p3
176.74 160.29 3.56 c p3
176.74 160.29 3.56 c p3
176.74 160.29 3.56 c p3
176.74 160.29 3.56 c p3
176.74 160.29 3.56 c p3
176.74 160.29 3.56 c p3
176.74 160.29 3.56 c p3
176.74 160.29 3.56 c p3
176.74 160.29 3.56 c p3
176.74 160.29 3.56 c p3
176.74 160.29 3.56 c p3
176.74 160.29 3.56 c p3
176.74 160.29 3.56 c p3
176.74 160.29 3.56 c p3
176.74 160.29 3.56 c p3
176.74 160.29 3.56 c p3
176.74 160.29 3.56 c p3
176.74 160.29 3.56 c p3
176.74 160.29 3.56 c p3
176.74 160.29 3.56 c p3
176.74 160.29 3.56 c p3
176.74 160.29 3.56 c p3
176.74 160.29 3.56 c p3
176.74 160.29 3.56 c p3
176.74 160.29 3.56 c p3
176.74 160.29 3.56 c p3
176.74 160.29 3.56 c p3
176.74 160.29 3.56 c p3
176.74 160.29 3.56 c p3
176.74 160.29 3.56 c p3
176.74 160.29 3.56 c p3
176.74 160.29 3.56 c p3
176.74 160.29 3.56 c p3
176.74 160.29 3.56 c p3
176.74 160.29 3.56 c p3
176.74 160.29 3.56 c p3
176.74 160.29 3.56 c p3
176.74 160.29 3.56 c p3
176.74 160.29 3.56 c p3
176.74 160.29 3.56 c p3
176.74 160.29 3.56 c p3
176.74 160.29 3.56 c p3
176.74 160.29 3.56 c p3
176.74 160.29 3.56 c p3
176.74 160.29 3.56 c p3
176.74 160.29 3.56 c p3
176.74 160.29 3.56 c p3
176.74 160.29 3.56 c p3
176.74 160.29 3.56 c p3
176.74 160.29 3.56 c p3
176.74 160.29 3.56 c p3
176.74 160.29 3.56 c p3
176.74 160.29 3.56 c p3
176.74 160.29 3.56 c p3
176.74 160.29 3.56 c p3
176.74 160.29 3.56 c p3
176.74 160.29 3.56 c p3
176.74 160.29 3.56 c p3
176.74 160.29 3.56 c p3
176.74 160.29 3.56 c p3
176.74 160.29 3.56 c p3
176.74 160.29 3.56 c p3
176.74 160.29 3.56 c p3
176.74 160.29 3.56 c p3
176.74 160.29 3.56 c p3
176.74 160.29 3.56 c p3
176.74 160.29 3.56 c p3
176.74 160.29 3.56 c p3
176.74 160.29 3.56 c p3
176.74 160.29 3.56 c p3
176.74 160.29 3.56 c p3
176.74 160.29 3.56 c p3
176.74 160.29 3.56 c p3
176.74 160.29 3.56 c p3
176.74 160.29 3.56 c p3
176.74 160.29 3.56 c p3
176.74 160.29 3.56 c p3
176.74 160.29 3.56 c p3
176.74 160.29 3.56 c p3
176.74 160.29 3.56 c p3
176.74 160.29 3.56 c p3
176.74 160.29 3.56 c p3
176.74 160.29 3.56 c p3
176.74 160.29 3.56 c p3
176.74 160.29 3.56 c p3
176.74 160.29 3.56 c p3
176.74 160.29 3.56 c p3
176.74 160.29 3.56 c p3
176.74 160.29 3.56 c p3
176.74 160.29 3.56 c p3
176.74 160.29 3.56 c p3
176.74 160.29 3.56 c p3
176.74 160.29 3.56 c p3
176.74 160.29 3.56 c p3
176.74 160.29 3.56 c p3
176.74 160.29 3.56 c p3
176.74 160.29 3.56 c p3
176.74 160.29 3.56 c p3
176.74 160.29 3.56 c p3
176.74 160.29 3.56 c p3
176.74 160.29 3.56 c p3
176.74 160.29 3.56 c p3
176.74 160.29 3.56 c p3
176.74 160.29 3.56 c p3
176.74 160.29 3.56 c p3
176.74 160.29 3.56 c p3
176.74 160.29 3.56 c p3
176.74 160.29 3.56 c p3
176.74 160.29 3.56 c p3
176.74 160.29 3.56 c p3
176.74 160.29 3.56 c p3
176.74 160.29 3.56 c p3
176.74 160.29 3.56 c p3
176.74 160.29 3.56 c p3
176.74 160.29 3.56 c p3
176.74 160.29 3.56 c p3
176.74 160.29 3.56 c p3
176.74 160.29 3.56 c p3
176.74 160.29 3.56 c p3
176.74 160.29 3.56 c p3
176.74 160.29 3.56 c p3
176.74 160.29 3.56 c p3
176.74 160.29 3.56 c p3
176.74 160.29 3.56 c p3
176.74 160.29 3.56 c p3
176.74 160.29 3.56 c p3
176.74 160.29 3.56 c p3
176.74 160.29 3.56 c p3
176.74 160.29 3.56 c p3
176.74 160.29 3.56 c p3
176.74 160.29 3.56 c p3
176.74 160.29 3.56 c p3
176.74 160.29 3.56 c p3
176.74 160.29 3.56 c p3
176.74 160.29 3.56 c p3
176.74 160.29 3.56 c p3
176.74 160.29 3.56 c p3
176.74 160.29 3.56 c p3
176.74 160.29 3.56 c p3
176.74 160.29 3.56 c p3
176.74 160.29 3.56 c p3
176.74 160.29 3.56 c p3
176.74 160.29 3.56 c p3
176.74 160.29 3.56 c p3
176.74 160.29 3.56 c p3
176.74 160.29 3.56 c p3
176.74 160.29 3.56 c p3
176.74 160.29 3.56 c p3
176.74 160.29 3.56 c p3
176.74 160.29 3.56 c p3
176.74 160.29 3.56 c p3
176.74 160.29 3.56 c p3
176.74 160.29 3.56 c p3
176.74 160.29 3.56 c p3
176.74 160.29 3.56 c p3
176.74 160.29 3.56 c p3
176.74 160.29 3.56 c p3
176.74 160.29 3.56 c p3
176.74 160.29 3.56 c p3
176.74 160.29 3.56 c p3
176.74 160.29 3.56 c p3
176.74 160.29 3.56 c p3
176.74 160.29 3.56 c p3
176.74 160.29 3.56 c p3
176.74 160.29 3.56 c p3
176.74 160.29 3.56 c p3
176.74 160.29 3.56 c p3
176.74 160.29 3.56 c p3
176.74 160.29 3.56 c p3
176.74 160.29 3.56 c p3
176.74 160.29 3.56 c p3
176.74 160.29 3.56 c p3
176.74 160.29 3.56 c p3
176.74 160.29 3.56 c p3
176.74 160.29 3.56 c p3
176.74 160.29 3.56 c p3
176.74 160.29 3.56 c p3
176.74 160.29 3.56 c p3
176.74 160.29 3.56 c p3
176.74 160.29 3.56 c p3
176.74 160.29 3.56 c p3
176.74 160.29 3.56 c p3
176.74 160.29 3.56 c p3
176.74 160.29 3.56 c p3
176.74 160.29 3.56 c p3
176.74 160.29 3.56 c p3
176.74 160.29 3.56 c p3
176.74 160.29 3.56 c p3
176.74 160.29 3.56 c p3
176.74 160.29 3.56 c p3
176.74 160.29 3.56 c p3
176.74 160.29 3.56 c p3
176.74 160.29 3.56 c p3
176.74 160.29 3.56 c p3
176.74 160.29 3.56 c p3
176.74 160.29 3.56 c p3
176.74 160.29 3.56 c p3
176.74 160.29 3.56 c p3
176.74 160.29 3.56 c p3
176.74 160.29 3.56 c p3
176.74 160.29 3.56 c p3
176.74 160.29 3.56 c p3
176.74 160.29 3.56 c p3
176.74 160.29 3.56 c p3
176.74 160.29 3.56 c p3
176.74 160.29 3.56 c p3
176.74 160.29 3.56 c p3
176.74 160.29 3.56 c p3
176.74 160.29 3.56 c p3
176.74 160.29 3.56 c p3
176.74 160.29 3.56 c p3
176.74 160.29 3.56 c p3
176.74 160.29 3.56 c p3
176.74 160.29 3.56 c p3
176.74 160.29 3.56 c p3
176.74 160.29 3.56 c p3
176.74 160.29 3.56 c p3
176.74 160.29 3.56 c p3
176.74 160.29 3.56 c p3
176.74 160.29 3.56 c p3
176.74 160.29 3.56 c p3
176.74 160.29 3.56 c p3
176.74 160.29 3.56 c p3
176.74 160.29 3.56 c p3
176.74 160.29 3.56 c p3
176.74 160.29 3.56 c p3
176.74 160.29 3.56 c p3
176.74 160.29 3.56 c p3
176.74 160.29 3.56 c p3
176.74 160.29 3.56 c p3
176.74 160.29 3.56 c p3
176.74 160.29 3.56 c p3
176.74 160.29 3.56 c p3
176.74 160.29 3.56 c p3
176.74 160.29 3.56 c p3
176.74 160.29 3.56 c p3
176.74 160.29 3.56 c p3
176.74 160.29 3.56 c p3
176.74 160.29 3.56 c p3
176.74 160.29 3.56 c p3
176.74 160.29 3.56 c p3
176.74 160.29 3.56 c p3
176.74 160.29 3.56 c p3
176.74 160.29 3.56 c p3
176.74 160.29 3.56 c p3
176.74 160.29 3.56 c p3
176.74 160.29 3.56 c p3
176.74 160.29 3.56 c p3
176.74 160.29 3.56 c p3
176.74 160.29 3.56 c p3
176.74 160.29 3.56 c p3
176.74 160.29 3.56 c p3
176.74 160.29 3.56 c p3
176.74 160.29 3.56 c p3
176.74 160.29 3.56 c p3
176.74 160.29 3.56 c p3
176.74 160.29 3.56 c p3
176.74 160.29 3.56 c p3
176.74 160.29 3.56 c p3
176.74 160.29 3.56 c p3
176.74 160.29 3.56 c p3
176.74 160.29 3.56 c p3
176.74 160.29 3.56 c p3
176.74 160.29 3.56 c p3
176.74 160.29 3.56 c p3
176.74 160.29 3.56 c p3
176.74 160.29 3.56 c p3
176.74 160.29 3.56 c p3
176.74 160.29 3.56 c p3
176.74 160.29 3.56 c p3
176.74 160.29 3.56 c p3
176.74 160.29 3.56 c p3
176.74 160.29 3.56 c p3
176.74 160.29 3.56 c p3
176.74 160.29 3.56 c p3
176.74 160.29 3.56 c p3
176.74 160.29 3.56 c p3
176.74 160.29 3.56 c p3
176.74 160.29 3.56 c p3
176.74 160.29 3.56 c p3
176.74 160.29 3.56 c p3
176.74 160.29 3.56 c p3
176.74 160.29 3.56 c p3
176.74 160.29 3.56 c p3
176.74 160.29 3.56 c p3
176.74 160.29 3.56 c p3
176.74 160.29 3.56 c p3
176.74 160.29 3.56 c p3
176.74 160.29 3.56 c p3
176.74 160.29 3.56 c p3
176.74 160.29 3.56 c p3
176.74 160.29 3.56 c p3
176.74 160.29 3.56 c p3
176.74 160.29 3.56 c p3
176.74 160.29 3.56 c p3
176.74 160.29 3.56 c p3
176.74 160.29 3.56 c p3
176.74 160.29 3.56 c p3
176.74 160.29 3.56 c p3
176.74 160.29 3.56 c p3
176.74 160.29 3.56 c p3
176.74 160.29 3.56 c p3
176.74 160.29 3.56 c p3
176.74 160.29 3.56 c p3
176.74 160.29 3.56 c p3
176.74 160.29 3.56 c p3
176.74 160.29 3.56 c p3
176.74 160.29 3.56 c p3
176.74 160.29 3.56 c p3
176.74 160.29 3.56 c p3
176.74 160.29 3.56 c p3
176.74 160.29 3.56 c p3
176.74 160.29 3.56 c p3
176.74 160.29 3.56 c p3
176.74 160.29 3.56 c p3
176.74 160.29 3.56 c p3
176.74 160.29 3.56 c p3
176.74 160.29 3.56 c p3
176.74 160.29 3.56 c p3
176.74 160.29 3.56 c p3
176.74 160.29 3.56 c p3
176.74 160.29 3.56 c p3
176.74 160.29 3.56 c p3
176.74 160.29 3.56 c p3
176.74 160.29 3.56 c p3
176.74 160.29 3.56 c p3
176.74 160.29 3.56 c p3
176.74 160.29 3.56 c p3
176.74 160.29 3.56 c p3
176.74 160.29 3.56 c p3
176.74 160.29 3.56 c p3
176.74 160.29 3.56 c p3
176.74 160.29 3.56 c p3
176.74 160.29 3.56 c p3
176.74 160.29 3.56 c p3
176.74 160.29 3.56 c p3
176.74 160.29 3.56 c p3
176.74 160.29 3.56 c p3
176.74 160.29 3.56 c p3
176.74 160.29 3.56 c p3
176.74 160.29 3.56 c p3
176.74 160.29 3.56 c p3
176.74 160.29 3.56 c p3
176.74 160.29 3.56 c p3
176.74 160.29 3.56 c p3
176.74 160.29 3.56 c p3
176.74 160.29 3.56 c p3
176.74 160.29 3.56 c p3
176.74 160.29 3.56 c p3
176.74 160.29 3.56 c p3
176.74 160.29 3.56 c p3
176.74 160.29 3.56 c p3
176.74 160.29 3.56 c p3
176.74 160.29 3.56 c p3
176.74 160.29 3.56 c p3
176.74 160.29 3.56 c p3
176.74 160.29 3.56 c p3
176.74 160.29 3.56 c p3
176.74 160.29 3.56 c p3
176.74 160.29 3.56 c p3
176.74 160.29 3.56 c p3
176.74 160.29 3.56 c p3
176.74 160.29 3.56 c p3
176.74 160.29 3.56 c p3
176.74 160.29 3.56 c p3
176.74 160.29 3.56 c p3
176.74 160.29 3.56 c p3
176.74 160.29 3.56 c p3
176.74 160.29 3.56 c p3
176.74 160.29 3.56 c p3
176.74 160.29 3.56 c p3
176.74 160.29 3.56 c p3
176.74 160.29 3.56 c p3
176.74 160.29 3.56 c p3
176.74 160.29 3.56 c p3
176.74 160.29 3.56 c p3
176.74 160.29 3.56 c p3
176.74 160.29 3.56 c p3
176.74 160.29 3.56 c p3
176.74 160.29 3.56 c p3
176.74 160.29 3.56 c p3
176.74 160.29 3.56 c p3
176.74 160.29 3.56 c p3
176.74 160.29 3.56 c p3
176.74 160.29 3.56 c p3
176.74 160.29 3.56 c p3
176.74 160.29 3.56 c p3
176.74 160.29 3.56 c p3
176.74 160.29 3.56 c p3
176.74 160.29 3.56 c p3
176.74 160.29 3.56 c p3
176.74 160.29 3.56 c p3
176.74 160.29 3.56 c p3
176.74 160.29 3.56 c p3
176.74 160.29 3.56 c p3
176.74 160.29 3.56 c p3
176.74 160.29 3.56 c p3
176.74 160.29 3.56 c p3
176.74 160.29 3.56 c p3
176.74 160.29 3.56 c p3
176.74 160.29 3.56 c p3
176.74 160.29 3.56 c p3
176.74 160.29 3.56 c p3
176.74 160.29 3.56 c p3
176.74 160.29 3.56 c p3
176.74 160.29 3.56 c p3
176.74 160.29 3.56 c p3
176.74 160.29 3.56 c p3
176.74 160.29 3.56 c p3
176.74 160.29 3.56 c p3
176.74 160.29 3.56 c p3
176.74 160.29 3.56 c p3
176.74 160.29 3.56 c p3
176.74 160.29 3.56 c p3
176.74 160.29 3.56 c p3
176.74 160.29 3.56 c p3
176.74 160.29 3.56 c p3
176.74 160.29 3.56 c p3
176.74 160.29 3.56 c p3
176.74 160.29 3.56 c p3
176.74 160.29 3.56 c p3
176.74 160.29 3.56 c p3
176.74 160.29 3.56 c p3
176.74 160.29 3.56 c p3
176.74 160.29 3.56 c p3
176.74 160.29 3.56 c p3
176.74 160.29 3.56 c p3
176.74 160.29 3.56 c p3
176.74 160.29 3.56 c p3
176.74 160.29 3.56 c p3
176.74 160.29 3.56 c p3
176.74 160.29 3.56 c p3
176.74 160.29 3.56 c p3
176.74 160.29 3.56 c p3
176.74 160.29 3.56 c p3
176.74 160.29 3.56 c p3
176.74 160.29 3.56 c p3
176.74 160.29 3.56 c p3
176.74 160.29 3.56 c p3
176.74 160.29 3.56 c p3
176.74 160.29 3.56 c p3
176.74 160.29 3.56 c p3
176.74 160.29 3.56 c p3
176.74 160.29 3.56 c p3
176.74 160.29 3.56 c p3
176.74 160.29 3.56 c p3
176.74 160.29 3.56 c p3
176.74 160.29 3.56 c p3
176.74 160.29 3.56 c p3
176.74 160.29 3.56 c p3
176.74 160.29 3.56 c p3
176.74 160.29 3.56 c p3
176.74 160.29 3.56 c p3
176.74 160.29 3.56 c p3
176.74 160.29 3.56 c p3
176.74 160.29 3.56 c p3
176.74 160.29 3.56 c p3
176.74 160.29 3.56 c p3
176.74 160.29 3.56 c p3
176.74 160.29 3.56 c p3
176.74 160.29 3.56 c p3
176.74 160.29 3.56 c p3
176.74 160.29 3.56 c p3
176.74 160.29 3.56 c p3
176.74 160.29 3.56 c p3
176.74 160.29 3.56 c p3
176.74 160.29 3.56 c p3
176.74 160.29 3.56 c p3
176.74 160.29 3.56 c p3
176.74 160.29 3.56 c p3
176.74 160.29 3.56 c p3
176.74 160.29 3.56 c p3
176.74 160.29 3.56 c p3
176.74 160.29 3.56 c p3
176.74 160.29 3.56 c p3
176.74 160.29 3.56 c p3
176.74 160.29 3.56 c p3
176.74 160.29 3.56 c p3
176.74 160.29 3.56 c p3
176.74 160.29 3.56 c p3
176.74 160.29 3.56 c p3
176.74 160.29 3.56 c p3
176.74 160.29 3.56 c p3
176.74 160.29 3.56 c p3
176.74 160.29 3.56 c p3
176.74 160.29 3.56 c p3
176.74 160.29 3.56 c p3
176.74 160.29 3.56 c p3
176.74 160.29 3.56 c p3
176.74 160.29 3.56 c p3
176.74 160.29 3.56 c p3
176.74 160.29 3.56 c p3
176.74 160.29 3.56 c p3
176.74 160.29 3.56 c p3
176.74 160.29 3.56 c p3
176.74 160.29 3.56 c p3
176.74 160.29 3.56 c p3
176.74 160.29 3.56 c p3
176.74 160.29 3.56 c p3
176.74 160.29 3.56 c p3
176.74 160.29 3.56 c p3
176.74 160.29 3.56 c p3
176.74 160.29 3.56 c p3
176.74 160.29 3.56 c p3
176.74 160.29 3.56 c p3
176.74 160.29 3.56 c p3
176.74 160.29 3.56 c p3
176.74 160.29 3.56 c p3
176.74 160.29 3.56 c p3
176.74 160.29 3.56 c p3
176.74 160.29 3.56 c p3
176.74 160.29 3.56 c p3
176.74 160.29 3.56 c p3
176.74 160.29 3.56 c p3
176.74 160.29 3.56 c p3
176.74 160.29 3.56 c p3
176.74 160.29 3.56 c p3
176.74 160.29 3.56 c p3
176.74 160.29 3.56 c p3
176.74 160.29 3.56 c p3
176.74 160.29 3.56 c p3
176.74 160.29 3.56 c p3
176.74 160.29 3.56 c p3
176.74 160.29 3.56 c p3
176.74 160.29 3.56 c p3
176.74 160.29 3.56 c p3
176.74 160.29 3.56 c p3
176.74 160.29 3.56 c p3
176.74 160.29 3.56 c p3
176.74 160.29 3.56 c p3
176.74 160.29 3.56 c p3
176.74 160.29 3.56 c p3
176.74 160.29 3.56 c p3
176.74 160.29 3.56 c p3
176.74 160.29 3.56 c p3
176.74 160.29 3.56 c p3
176.74 160.29 3.56 c p3
176.74 160.29 3.56 c p3
176.74 160.29 3.56 c p3
176.74 160.29 3.56 c p3
176.74 160.29 3.56 c p3
176.74 160.29 3.56 c p3
176.74 160.29 3.56 c p3
176.74 160.29 3.56 c p3
176.74 160.29 3.56 c p3
176.74 160.29 3.56 c p3
176.74 160.29 3.56 c p3
176.74 160.29 3.56 c p3
176.74 160.29 3.56 c p3
176.74 160.29 3.56 c p3
176.74 160.29 3.56 c p3
176.74 160.29 3.56 c p3
176.74 160.29 3.56 c p3
176.74 160.29 3.56 c p3
176.74 160.29 3.56 c p3
176.74 160.29 3.56 c p3
176.74 160.29 3.56 c p3
176.74 160.29 3.56 c p3
176.74 160.29 3.56 c p3
176.74 160.29 3.56 c p3
176.74 160.29 3.56 c p3
176.74 160.29 3.56 c p3
176.74 160.29 3.56 c p3
176.74 160.29 3.56 c p3
176.74 160.29 3.56 c p3
176.74 160.29 3.56 c p3
176.74 160.29 3.56 c p3
176.74 160.29 3.56 c p3
176.74 160.29 3.56 c p3
176.74 160.29 3.56 c p3
176.74 160.29 3.56 c p3
176.74 160.29 3.56 c p3
176.74 160.29 3.56 c p3
176.74 160.29 3.56 c p3
176.74 160.29 3.56 c p3
176.74 160.29 3.56 c p3
176.74 160.29 3.56 c p3
176.74 160.29 3.56 c p3
176.74 160.29 3.56 c p3
176.74 160.29 3.56 c p3
176.74 160.29 3.56 c p3
176.74 160.29 3.56 c p3
176.74 160.29 3.56 c p3
176.74 160.29 3.56 c p3
176.74 160.29 3.56 c p3
176.74 160.29 3.56 c p3
176.74 160.29 3.56 c p3
176.74 160.29 3.56 c p3
176.74 160.29 3.56 c p3
176.74 160.29 3.56 c p3
176.74 160.29 3.56 c p3
176.74 160.29 3.56 c p3
176.74 160.29 3.56 c p3
176.74 160.29 3.56 c p3
176.74 160.29 3.56 c p3
176.74 160.29 3.56 c p3
176.74 160.29 3.56 c p3
176.74 160.29 3.56 c p3
176.74 160.29 3.56 c p3
176.74 160.29 3.56 c p3
176.74 160.29 3.56 c p3
176.74 160.29 3.56 c p3
176.74 160.29 3.56 c p3
176.74 160.29 3.56 c p3
176.74 160.29 3.56 c p3
176.74 160.29 3.56 c p3
176.74 160.29 3.56 c p3
176.74 160.29 3.56 c p3
176.74 160.29 3.56 c p3
176.74 160.29 3.56 c p3
176.74 160.29 3.56 c p3
176.74 160.29 3.56 c p3
176.74 160.29 3.56 c p3
176.74 160.29 3.56 c p3
176.74 160.29 3.56 c p3
176.74 160.29 3.56 c p3
176.74 160.29 3.56 c p3
176.74 160.29 3.56 c p3
176.74 160.29 3.56 c p3
176.74 160.29 3.56 c p3
176.74 160.29 3.56 c p3
176.74 160.29 3.56 c p3
176.74 160.29 3.56 c p3
176.74 160.29 3.56 c p3
176.74 160.29 3.56 c p3
176.74 160.29 3.56 c p3
176.74 160.29 3.56 c p3
176.74 160.29 3.56 c p3
176.74 160.29 3.56 c p3
176.74 160.29 3.56 c p3
176.74 160.29 3.56 c p3
176.74 160.29 3.56 c p3
176.74 160.29 3.56 c p3
176.74 160.29 3.56 c p3
176.74 160.29 3.56 c p3
176.74 160.29 3.56 c p3
176.74 160.29 3.56 c p3
176.74 160.29 3.56 c p3
176.74 160.29 3.56 c p3
176.74 160.29 3.56 c p3
176.74 160.29 3.56 c p3
176.74 160.29 3.56 c p3
176.74 160.29 3.56 c p3
176.74 160.29 3.56 c p3
176.74 160.29 3.56 c p3
176.74 160.29 3.56 c p3
176.74 160.29 3.56 c p3
176.74 160.29 3.56 c p3
176.74 160.29 3.56 c p3
176.74 160.29 3.56 c p3
176.74 160.29 3.56 c p3
176.74 160.29 3.56 c p3
176.74 160.29 3.56 c p3
176.74 160.29 3.56 c p3
176.74 160.29 3.56 c p3
176.74 160.29 3.56 c p3
176.74 160.29 3.56 c p3
176.74 160.29 3.56 c p3
176.74 160.29 3.56 c p3
176.74 160.29 3.56 c p3
176.74 160.29 3.56 c p3
176.74 160.29 3.56 c p3
176.74 160.29 3.56 c p3
176.74 160.29 3.56 c p3
176.74 160.29 3.56 c p3
176.74 160.29 3.56 c p3
176.74 160.29 3.56 c p3
176.74 160.29 3.56 c p3
176.74 160.29 3.56 c p3
176.74 160.29 3.56 c p3
176.74 160.29 3.56 c p3
176.74 160.29 3.56 c p3
176.74 160.29 3.56 c p3
176.74 160.29 3.56 c p3
176.74 160.29 3.56 c p3
176.74 160.29 3.56 c p3
176.74 160.29 3.56 c p3
176.74 160.29 3.56 c p3
176.74 160.29 3.56 c p3
176.74 160.29 3.56 c p3
176.74 160.29 3.56 c p3
176.74 160.29 3.56 c p3
176.74 160.29 3.56 c p3
176.74 160.29 3.56 c p3
176.74 160.29 3.56 c p3
176.74 160.29 3.56 c p3
176.74 160.29 3.56 c p3
176.74 160.29 3.56 c p3
176.74 160.29 3.56 c p3
176.74 160.29 3.56 c p3
176.74 160.29 3.56 c p3
176.74 160.29 3.56 c p3
176.74 160.29 3.56 c p3
176.74 160.29 3.56 c p3
176.74 160.29 3.56 c p3
176.74 160.29 3.56 c p3
176.74 160.29 3.56 c p3
176.74 160.29 3.56 c p3
176.74 160.29 3.56 c p3
176.74 160.29 3.56 c p3
176.74 160.29 3.56 c p3
176.74 160.29 3.56 c p3
176.74 160.29 3.56 c p3
176.74 160.29 3.56 c p3
176.74 160.29 3.56 c p3
176.74 160.29 3.56 c p3
176.74 160.29 3.56 c p3
176.74 160.29 3.56 c p3
176.74 160.29 3.56 c p3
176.74 160.29 3.56 c p3
176.74 160.29 3.56 c p3
176.74 160.29 3.56 c p3
176.74 160.29 3.56 c p3
176.74 160.29 3.56 c p3
176.74 160.29 3.56 c p3
176.74 160.29 3.56 c p3
176.74 160.29 3.56 c p3
176.74 160.29 3.56 c p3
176.74 160.29 3.56 c p3
176.74 160.29 3.56 c p3
176.74 160.29 3.56 c p3
176.74 160.29 3.56 c p3
176.74 160.29 3.56 c p3
176.74 160.29 3.56 c p3
176.74 160.29 3.56 c p3
176.74 160.29 3.56 c p3
176.74 160.29 3.56 c p3
176.74 160.29 3.56 c p3
176.74 160.29 3.56 c p3
176.74 160.29 3.56 c p3
176.74 160.29 3.56 c p3
176.74 160.29 3.56 c p3
176.74 160.29 3.56 c p3
176.74 160.29 3.56 c p3
176.74 160.29 3.56 c p3
176.74 160.29 3.56 c p3
176.74 160.29 3.56 c p3
176.74 160.29 3.56 c p3
176.74 160.29 3.56 c p3
176.74 160.29 3.56 c p3
176.74 160.29 3.56 c p3
176.74 160.29 3.56 c p3
176.74 160.29 3.56 c p3
176.74 160.29 3.56 c p3
176.74 160.29 3.56 c p3
176.74 160.29 3.56 c p3
176.74 160.29 3.56 c p3
176.74 160.29 3.56 c p3
176.74 160.29 3.56 c p3
176.74 160.29 3.56 c p3
176.74 160.29 3.56 c p3
176.74 160.29 3.56 c p3
176.74 160.29 3.56 c p3
176.74 160.29 3.56 c p3
176.74 160.29 3.56 c p3
176.74 160.29 3.56 c p3
176.74 160.29 3.56 c p3
176.74 160.29 3.56 c p3
176.74 160.29 3.56 c p3
176.74 160.29 3.56 c p3
176.74 160.29 3.56 c p3
176.74 160.29 3.56 c p3
176.74 160.29 3.56 c p3
176.74 160.29 3.56 c p3
176.74 160.29 3.56 c p3
176.74 160.29 3.56 c p3
176.74 160.29 3.56 c p3
176.74 160.29 3.56 c p3
176.74 160.29 3.56 c p3
176.74 160.29 3.56 c p3
176.74 160.29 3.56 c p3
176.74 160.29 3.56 c p3
176.74 160.29 3.56 c p3
176.74 160.29 3.56 c p3
176.74 160.29 3.56 c p3
176.74 160.29 3.56 c p3
176.74 160.29 3.56 c p3
176.74 160.29 3.56 c p3
176.74 160.29 3.56 c p3
176.74 160.29 3.56 c p3
176.74 160.29 3.56 c p3
176.74 160.29 3.56 c p3
176.74 160.29 3.56 c p3
176.74 160.29 3.56 c p3
176.74 160.29 3.56 c p3
176.74 160.29 3.56 c p3
176.74 160.29 3.56 c p3
176.74 160.29 3.56 c p3
176.74 160.29 3.56 c p3
176.74 160.29 3.56 c p3
176.74 160.29 3.56 c p3
176.74 160.29 3.56 c p3
176.74 160.29 3.56 c p3
176.74 160.29 3.56 c p3
176.74 160.29 3.56 c p3
176.74 160.29 3.56 c p3
176.74 160.29 3.56 c p3
176.74 160.29 3.56 c p3
176.74 160.29 3.56 c p3
176.74 160.29 3.56 c p3
176.74 160.29 3.56 c p3
176.74 160.29 3.56 c p3
176.74 160.29 3.56 c p3
176.74 160.29 3.56 c p3
176.74 160.29 3.56 c p3
176.74 160.29 3.56 c p3
176.74 160.29 3.56 c p3
176.74 160.29 3.56 c p3
176.74 160.29 3.56 c p3
176.74 160.29 3.56 c p3
176.74 160.29 3.56 c p3
176.74 160.29 3.56 c p3
176.74 160.29 3.56 c p3
176.74 160.29 3.56 c p3
176.74 160.29 3.56 c p3
176.74 160.29 3.56 c p3
176.74 160.29 3.56 c p3
176.74 160.29 3.56 c p3
176.74 160.29 3.56 c p3
176.74 160.29 3.56 c p3
176.74 160.29 3.56 c p3
176.74 160.29 3.56 c p3
176.74 160.29 3.56 c p3
176.74 160.29 3.56 c p3
176.74 160.29 3.56 c p3
176.74 160.29 3.56 c p3
176.74 160.29 3.56 c p3
176.74 160.29 3.56 c p3
176.74 160.29 3.56 c p3
176.74 160.29 3.56 c p3
176.74 160.29 3.56 c p3
176.74 160.29 3.56 c p3
176.74 160.29 3.56 c p3
176.74 160.29 3.56 c p3
176.74 160.29 3.56 c p3
176.74 160.29 3.56 c p3
176.74 160.29 3.56 c p3
176.74 160.29 3.56 c p3
176.74 160.29 3.56 c p3
176.74 160.29 3.56 c p3
176.74 160.29 3.56 c p3
176.74 160.29 3.56 c p3
176.74 160.29 3.56 c p3
176.74 160.29 3.56 c p3
176.74 160.29 3.56 c p3
176.74 160.29 3.56 c p3
176.74 160.29 3.56 c p3
176.74 160.29 3.56 c p3
176.74 160.29 3.56 c p3
176.74 160.29 3.56 c p3
176.74 160.29 3.56 c p3
176.74 160.29 3.56 c p3
176.74 160.29 3.56 c p3
176.74 160.29 3.56 c p3
176.74 160.29 3.56 c p3
176.74 160.29 3.56 c p3
176.74 160.29 3.56 c p3
176.74 160.29 3.56 c p3
176.74 160.29 3.56 c p3
176.74 160.29 3.56 c p3
176.74 160.29 3.56 c p3
176.74 160.29 3.56 c p3
176.74 160.29 3.56 c p3
176.74 160.29 3.56 c p3
176.74 160.29 3.56 c p3
176.74 160.29 3.56 c p3
176.74 160.29 3.56 c p3
176.74 160.29 3.56 c p3
176.74 160.29 3.56 c p3
176.74 160.29 3.56 c p3
176.74 160.29 3.56 c p3
176.74 160.29 3.56 c p3
176.74 160.29 3.56 c p3
176.74 160.29 3.56 c p3
176.74 160.29 3.56 c p3
176.74 160.29 3.56 c p3
176.74 160.29 3.56 c p3
176.74 160.29 3.56 c p3
176.74 160.29 3.56 c p3
176.74 160.29 3.56 c p3
176.74 160.29 3.56 c p3
176.74 160.29 3.56 c p3
176.74 160.29 3.56 c p3
176.74 160.29 3.56 c p3
176.74 160.29 3.56 c p3
176.74 160.29 3.56 c p3
176.74 160.29 3.56 c p3
176.74 160.29 3.56 c p3
176.74 160.29 3.56 c p3
176.74 160.29 3.56 c p3
176.74 160.29 3.56 c p3
176.74 160.29 3.56 c p3
176.74 160.29 3.56 c p3
176.74 160.29 3.56 c p3
176.74 160.29 3.56 c p3
176.74 160.29 3.56 c p3
176.74 160.29 3.56 c p3
176.74 160.29 3.56 c p3
176.74 160.29 3.56 c p3
176.74 160.29 3.56 c p3
176.74 160.29 3.56 c p3
176.74 160.29 3.56 c p3
176.74 160.29 3.56 c p3
176.74 160.29 3.56 c p3
176.74 160.29 3.56 c p3
176.74 160.29 3.56 c p3
176.74 160.29 3.56 c p3
176.74 160.29 3.56 c p3
176.74 160.29 3.56 c p3
176.74 160.29 3.56 c p3
176.74 160.29 3.56 c p3
176.74 160.29 3.56 c p3
176.74 160.29 3.56 c p3
176.74 160.29 3.56 c p3
176.74 160.29 3.56 c p3
176.74 160.29 3.56 c p3
176.74 160.29 3.56 c p3
176.74 160.29 3.56 c p3
176.74 160.29 3.56 c p3
176.74 160.29 3.56 c p3
176.74 160.29 3.56 c p3
176.74 160.29 3.56 c p3
176.74 160.29 3.56 c p3
176.74 160.29 3.56 c p3
176.74 160.29 3.56 c p3
176.74 160.29 3.56 c p3
176.74 160.29 3.56 c p3
176.74 160.29 3.56 c p3
176.74 160.29 3.56 c p3
176.74 160.29 3.56 c p3
176.74 160.29 3.56 c p3
176.74 160.29 3.56 c p3
176.74 160.29 3.56 c p3
176.74 160.29 3.56 c p3
176.74 160.29 3.56 c p3
176.74 160.29 3.56 c p3
176.74 160.29 3.56 c p3
176.74 160.29 3.56 c p3
176.74 160.29 3.56 c p3
176.74 160.29 3.56 c p3
176.74 160.29 3.56 c p3
176.74 160.29 3.56 c p3
176.74 160.29 3.56 c p3
176.74 160.29 3.56 c p3
176.74 160.29 3.56 c p3
176.74 160.29 3.56 c p3
176.74 160.29 3.56 c p3
176.74 160.29 3.56 c p3
176.74 160.29 3.56 c p3
176.74 160.29 3.56 c p3
176.74 160.29 3.56 c p3
176.74 160.29 3.56 c p3
176.74 160.29 3.56 c p3
176.74 160.29 3.56 c p3
176.74 160.29 3.56 c p3
176.74 160.29 3.56 c p3
176.74 160.29 3.56 c p3
176.74 160.29 3.56 c p3
176.74 160.29 3.56 c p3
176.74 160.29 3.56 c p3
176.74 160.29 3.56 c p3
176.74 160.29 3.56 c p3
176.74 160.29 3.56 c p3
176.74 160.29 3.56 c p3
176.74 160.29 3.56 c p3
176.74 160.29 3.56 c p3
176.74 160.29 3.56 c p3
176.74 160.29 3.56 c p3
176.74 160.29 3.56 c p3
176.74 160.29 3.56 c p3
176.74 160.29 3.56 c p3
176.74 160.29 3.56 c p3
176.74 160.29 3.56 c p3
176.74 160.29 3.56 c p3
176.74 160.29 3.56 c p3
176.74 160.29 3.56 c p3
176.74 160.29 3.56 c p3
176.74 160.29 3.56 c p3
176.74 160.29 3.56 c p3
176.74 160.29 3.56 c p3
176.74 160.29 3.56 c p3
176.74 160.29 3.56 c p3
176.74 160.29 3.56 c p3
176.74 160.29 3.56 c p3
176.74 160.29 3.56 c p3
176.74 160.29 3.56 c p3
176.74 160.29 3.56 c p3
176.74 160.29 3.56 c p3
176.74 160.29 3.56 c p3
176.74 160.29 3.56 c p3
176.74 160.29 3.56 c p3
176.74 160.29 3.56 c p3
176.74 160.29 3.56 c p3
176.74 160.29 3.56 c p3
176.74 160.29 3.56 c p3
176.74 160.29 3.56 c p3
176.74 160.29 3.56 c p3
176.74 160.29 3.56 c p3
176.74 160.29 3.56 c p3
176.74 160.29 3.56 c p3
176.74 160.29 3.56 c p3
176.74 160.29 3.56 c p3
176.74 160.29 3.56 c p3
176.74 160.29 3.56 c p3
176.74 160.29 3.56 c p3
176.74 160.29 3.56 c p3
176.74 160.29 3.56 c p3
176.74 160.29 3.56 c p3
176.74 160.29 3.56 c p3
176.74 160.29 3.56 c p3
176.74 160.29 3.56 c p3
176.74 160.29 3.56 c p3
176.74 160.29 3.56 c p3
176.74 160.29 3.56 c p3
176.74 160.29 3.56 c p3
176.74 160.29 3.56 c p3
176.74 160.29 3.56 c p3
176.74 160.29 3.56 c p3
176.74 160.29 3.56 c p3
176.74 160.29 3.56 c p3
176.74 160.29 3.56 c p3
176.74 160.29 3.56 c p3
176.74 160.29 3.56 c p3
176.74 160.29 3.56 c p3
176.74 160.29 3.56 c p3
176.74 160.29 3.56 c p3
176.74 160.29 3.56 c p3
176.74 160.29 3.56 c p3
176.74 160.29 3.56 c p3
176.74 160.29 3.56 c p3
176.74 160.29 3.56 c p3
176.74 160.29 3.56 c p3
176.74 160.29 3.56 c p3
176.74 160.29 3.56 c p3
176.74 160.29 3.56 c p3
176.74 160.29 3.56 c p3
176.74 160.29 3.56 c p3
176.74 160.29 3.56 c p3
176.74 160.29 3.56 c p3
176.74 160.29 3.56 c p3
176.74 160.29 3.56 c p3
176.74 160.29 3.56 c p3
176.74 160.29 3.56 c p3
176.74 160.29 3.56 c p3
176.74 160.29 3.56 c p3
176.74 160.29 3.56 c p3
176.74 160.29 3.56 c p3
176.74 160.29 3.56 c p3
176.74 160.29 3.56 c p3
176.74 160.29 3.56 c p3
176.74 160.29 3.56 c p3
176.74 160.29 3.56 c p3
176.74 160.29 3.56 c p3
176.74 160.29 3.56 c p3
176.74 160.29 3.56 c p3
176.74 160.29 3.56 c p3
176.74 160.29 3.56 c p3
176.74 160.29 3.56 c p3
176.74 160.29 3.56 c p3
176.74 160.29 3.56 c p3
176.74 160.29 3.56 c p3
176.74 160.29 3.56 c p3
176.74 160.29 3.56 c p3
176.74 160.29 3.56 c p3
176.74 160.29 3.56 c p3
176.74 160.29 3.56 c p3
176.74 160.29 3.56 c p3
176.74 160.29 3.56 c p3
176.74 160.29 3.56 c p3
176.74 160.29 3.56 c p3
176.74 160.29 3.56 c p3
176.74 160.29 3.56 c p3
176.74 160.29 3.56 c p3
176.74 160.29 3.56 c p3
176.74 160.29 3.56 c p3
176.74 160.29 3.56 c p3
176.74 160.29 3.56 c p3
176.74 160.29 3.56 c p3
176.74 160.29 3.56 c p3
176.74 160.29 3.56 c p3
176.74 160.29 3.56 c p3
176.74 160.29 3.56 c p3
176.74 160.29 3.56 c p3
176.74 160.29 3.56 c p3
176.74 160.29 3.56 c p3
176.74 160.29 3.56 c p3
176.74 160.29 3.56 c p3
176.74 160.29 3.56 c p3
176.74 160.29 3.56 c p3
176.74 160.29 3.56 c p3
176.74 160.29 3.56 c p3
176.74 160.29 3.56 c p3
176.74 160.29 3.56 c p3
176.74 160.29 3.56 c p3
176.74 160.29 3.56 c p3
176.74 160.29 3.56 c p3
176.74 160.29 3.56 c p3
176.74 160.29 3.56 c p3
176.74 160.29 3.56 c p3
176.74 160.29 3.56 c p3
176.74 160.29 3.56 c p3
176.74 160.29 3.56 c p3
176.74 160.29 3.56 c p3
176.74 160.29 3.56 c p3
176.74 160.29 3.56 c p3
176.74 160.29 3.56 c p3
176.74 160.29 3.56 c p3
176.74 160.29 3.56 c p3
176.74 160.29 3.56 c p3
176.74 160.29 3.56 c p3
176.74 160.29 3.56 c p3
176.74 160.29 3.56 c p3
176.74 160.29 3.56 c p3
176.74 160.29 3.56 c p3
176.74 160.29 3.56 c p3
176.74 160.29 3.56 c p3
176.74 160.29 3.56 c p3
176.74 160.29 3.56 c p3
176.74 160.29 3.56 c p3
176.74 160.29 3.56 c p3
176.74 160.29 3.56 c p3
176.74 160.29 3.56 c p3
176.74 160.29 3.56 c p3
176.74 160.29 3.56 c p3
176.74 160.29 3.56 c p3
176.74 160.29 3.56 c p3
176.74 160.29 3.56 c p3
176.74 160.29 3.56 c p3
176.74 160.29 3.56 c p3
176.74 160.29 3.56 c p3
176.74 160.29 3.56 c p3
176.74 160.29 3.56 c p3
176.74 160.29 3.56 c p3
176.74 160.29 3.56 c p3
176.74 160.29 3.56 c p3
176.74 160.29 3.56 c p3
176.74 160.29 3.56 c p3
176.74 160.29 3.56 c p3
176.74 160.29 3.56 c p3
176.74 160.29 3.56 c p3
176.74 160.29 3.56 c p3
176.74 160.29 3.56 c p3
176.74 160.29 3.56 c p3
176.74 160.29 3.56 c p3
176.74 160.29 3.56 c p3
176.74 160.29 3.56 c p3
176.74 160.29 3.56 c p3
176.74 160.29 3.56 c p3
176.74 160.29 3.56 c p3
176.74 160.29 3.56 c p3
176.74 160.29 3.56 c p3
176.74 160.29 3.56 c p3
176.74 160.29 3.56 c p3
176.74 160.29 3.56 c p3
176.74 160.29 3.56 c p3
176.74 160.29 3.56 c p3
176.74 160.29 3.56 c p3
176.74 160.29 3.56 c p3
176.74 160.29 3.56 c p3
176.74 160.29 3.56 c p3
176.74 160.29 3.56 c p3
176.74 160.29 3.56 c p3
176.74 160.29 3.56 c p3
176.74 160.29 3.56 c p3
176.74 160.29 3.56 c p3
176.74 160.29 3.56 c p3
176.74 160.29 3.56 c p3
176.74 160.29 3.56 c p3
176.74 160.29 3.56 c p3
176.74 160.29 3.56 c p3
176.74 160.29 3.56 c p3
176.74 160.29 3.56 c p3
176.74 160.29 3.56 c p3
176.74 160.29 3.56 c p3
176.74 160.29 3.56 c p3
176.74 160.29 3.56 c p3
176.74 160.29 3.56 c p3
176.74 160.29 3.56 c p3
176.74 160.29 3.56 c p3
176.74 160.29 3.56 c p3
176.74 160.29 3.56 c p3
176.74 160.29 3.56 c p3
176.74 160.29 3.56 c p3
176.74 160.29 3.56 c p3
176.74 160.29 3.56 c p3
176.74 160.29 3.56 c p3
176.74 160.29 3.56 c p3
176.74 160.29 3.56 c p3
176.74 160.29 3.56 c p3
176.74 160.29 3.56 c p3
176.74 160.29 3.56 c p3
176.74 160.29 3.56 c p3
176.74 160.29 3.56 c p3
176.74 160.29 3.56 c p3
176.74 160.29 3.56 c p3
176.74 160.29 3.56 c p3
176.74 160.29 3.56 c p3
176.74 160.29 3.56 c p3
176.74 160.29 3.56 c p3
176.74 160.29 3.56 c p3
176.74 160.29 3.56 c p3
176.74 160.29 3.56 c p3
176.74 160.29 3.56 c p3
176.74 160.29 3.56 c p3
176.74 160.29 3.56 c p3
176.74 160.29 3.56 c p3
176.74 160.29 3.56 c p3
176.74 160.29 3.56 c p3
176.74 160.29 3.56 c p3
176.74 160.29 3.56 c p3
176.74 160.29 3.56 c p3
176.74 160.29 3.56 c p3
176.74 160.29 3.56 c p3
176.74 160.29 3.56 c p3
176.74 160.29 3.56 c p3
176.74 160.29 3.56 c p3
176.74 160.29 3.56 c p3
176.74 160.29 3.56 c p3
176.74 160.29 3.56 c p3
176.74 160.29 3.56 c p3
176.74 160.29 3.56 c p3
176.74 160.29 3.56 c p3
176.74 160.29 3.56 c p3
176.74 160.29 3.56 c p3
176.74 160.29 3.56 c p3
176.74 160.29 3.56 c p3
176.74 160.29 3.56 c p3
176.74 160.29 3.56 c p3
176.74 160.29 3.56 c p3
176.74 160.29 3.56 c p3
176.74 160.29 3.56 c p3
176.74 160.29 3.56 c p3
176.74 160.29 3.56 c p3
176.74 160.29 3.56 c p3
176.74 160.29 3.56 c p3
176.74 160.29 3.56 c p3
176.74 160.29 3.56 c p3
176.74 160.29 3.56 c p3
176.74 160.29 3.56 c p3
176.74 160.29 3.56 c p3
176.74 160.29 3.56 c p3
176.74 160.29 3.56 c p3
176.74 160.29 3.56 c p3
176.74 160.29 3.56 c p3
176.74 160.29 3.56 c p3
176.74 160.29 3.56 c p3
176.74 160.29 3.56 c p3
176.74 160.29 3.56 c p3
176.74 160.29 3.56 c p3
176.74 160.29 3.56 c p3
176.74 160.29 3.56 c p3
176.74 160.29 3.56 c p3
176.74 160.29 3.56 c p3
176.74 160.29 3.56 c p3
176.74 160.29 3.56 c p3
176.74 160.29 3.56 c p3
176.74 160.29 3.56 c p3
176.74 160.29 3.56 c p3
176.74 160.29 3.56 c p3
176.74 160.29 3.56 c p3
176.74 160.29 3.56 c p3
176.74 160.29 3.56 c p3
176.74 160.29 3.56 c p3
176.74 160.29 3.56 c p3
176.74 160.29 3.56 c p3
176.74 160.29 3.56 c p3
176.74 160.29 3.56 c p3
176.74 160.29 3.56 c p3
176.74 160.29 3.56 c p3
176.74 160.29 3.56 c p3
176.74 160.29 3.56 c p3
176.74 160.29 3.56 c p3
176.74 160.29 3.56 c p3
176.74 160.29 3.56 c p3
176.74 160.29 3.56 c p3
176.74 160.29 3.56 c p3
176.74 160.29 3.56 c p3
176.74 160.29 3.56 c p3
176.74 160.29 3.56 c p3
176.74 160.29 3.56 c p3
176.74 160.29 3.56 c p3
176.74 160.29 3.56 c p3
176.74 160.29 3.56 c p3
176.74 160.29 3.56 c p3
176.74 160.29 3.56 c p3
176.74 160.29 3.56 c p3
176.74 160.29 3.56 c p3
176.74 160.29 3.56 c p3
176.74 160.29 3.56 c p3
176.74 160.29 3.56 c p3
176.74 160.29 3.56 c p3
176.74 160.29 3.56 c p3
176.74 160.29 3.56 c p3
176.74 160.29 3.56 c p3
176.74 160.29 3.56 c p3
176.74 160.29 3.56 c p3
176.74 160.29 3.56 c p3
176.74 160.29 3.56 c p3
176.74 160.29 3.56 c p3
176.74 160.29 3.56 c p3
176.74 160.29 3.56 c p3
176.74 160.29 3.56 c p3
176.74 160.29 3.56 c p3
176.74 160.29 3.56 c p3
176.74 160.29 3.56 c p3
176.74 160.29 3.56 c p3
176.74 160.29 3.56 c p3
176.74 160.29 3.56 c p3
176.74 160.29 3.56 c p3
176.74 160.29 3.56 c p3
176.74 160.29 3.56 c p3
176.74 160.29 3.56 c p3
176.74 160.29 3.56 c p3
176.74 160.29 3.56 c p3
176.74 160.29 3.56 c p3
176.74 160.29 3.56 c p3
176.74 160.29 3.56 c p3
176.74 160.29 3.56 c p3
176.74 160.29 3.56 c p3
176.74 160.29 3.56 c p3
176.74 160.29 3.56 c p3
176.74 160.29 3.56 c p3
176.74 160.29 3.56 c p3
176.74 160.29 3.56 c p3
176.74 160.29 3.56 c p3
176.74 160.29 3.56 c p3
176.74 160.29 3.56 c p3
176.74 160.29 3.56 c p3
176.74 160.29 3.56 c p3
176.74 160.29 3.56 c p3
176.74 160.29 3.56 c p3
176.74 160.29 3.56 c p3
176.74 160.29 3.56 c p3
176.74 160.29 3.56 c p3
176.74 160.29 3.56 c p3
176.74 160.29 3.56 c p3
176.74 160.29 3.56 c p3
176.74 160.29 3.56 c p3
176.74 160.29 3.56 c p3
176.74 160.29 3.56 c p3
176.74 160.29 3.56 c p3
176.74 160.29 3.56 c p3
176.74 160.29 3.56 c p3
176.74 160.29 3.56 c p3
176.74 160.29 3.56 c p3
176.74 160.29 3.56 c p3
176.74 160.29 3.56 c p3
176.74 160.29 3.56 c p3
176.74 160.29 3.56 c p3
176.74 160.29 3.56 c p3
176.74 160.29 3.56 c p3
176.74 160.29 3.56 c p3
176.74 160.29 3.56 c p3
176.74 160.29 3.56 c p3
176.74 160.29 3.56 c p3
176.74 160.29 3.56 c p3
176.74 160.29 3.56 c p3
176.74 160.29 3.56 c p3
176.74 160.29 3.56 c p3
176.74 160.29 3.56 c p3
176.74 160.29 3.56 c p3
176.74 160.29 3.56 c p3
176.74 160.29 3.56 c p3
176.74 160.29 3.56 c p3
176.74 160.29 3.56 c p3
176.74 160.29 3.56 c p3
176.74 160.29 3.56 c p3
176.74 160.29 3.56 c p3
176.74 160.29 3.56 c p3
176.74 160.29 3.56 c p3
176.74 160.29 3.56 c p3
176.74 160.29 3.56 c p3
176.74 160.29 3.56 c p3
176.74 160.29 3.56 c p3
176.74 160.29 3.56 c p3
176.74 160.29 3.56 c p3
176.74 160.29 3.56 c p3
176.74 160.29 3.56 c p3
176.74 160.29 3.56 c p3
176.74 160.29 3.56 c p3
176.74 160.29 3.56 c p3
176.74 160.29 3.56 c p3
176.74 160.29 3.56 c p3
176.74 160.29 3.56 c p3
176.74 160.29 3.56 c p3
176.74 160.29 3.56 c p3
176.74 160.29 3.56 c p3
176.74 160.29 3.56 c p3
176.74 160.29 3.56 c p3
176.74 160.29 3.56 c p3
176.74 160.29 3.56 c p3
176.74 160.29 3.56 c p3
176.74 160.29 3.56 c p3
176.74 160.29 3.56 c p3
176.74 160.29 3.56 c p3
176.74 160.29 3.56 c p3
176.74 160.29 3.56 c p3
176.74 160.29 3.56 c p3
176.74 160.29 3.56 c p3
176.74 160.29 3.56 c p3
176.74 160.29 3.56 c p3
176.74 160.29 3.56 c p3
176.74 160.29 3.56 c p3
176.74 160.29 3.56 c p3
176.74 160.29 3.56 c p3
176.74 160.29 3.56 c p3
176.74 160.29 3.56 c p3
176.74 160.29 3.56 c p3
176.74 160.29 3.56 c p3
176.74 160.29 3.56 c p3
176.74 160.29 3.56 c p3
176.74 160.29 3.56 c p3
176.74 160.29 3.56 c p3
176.74 160.29 3.56 c p3
176.74 160.29 3.56 c p3
176.74 160.29 3.56 c p3
176.74 160.29 3.56 c p3
176.74 160.29 3.56 c p3
176.74 160.29 3.56 c p3
176.74 160.29 3.56 c p3
176.74 160.29 3.56 c p3
176.74 160.29 3.56 c p3
176.74 160.29 3.56 c p3
176.74 160.29 3.56 c p3
176.74 160.29 3.56 c p3
176.74 160.29 3.56 c p3
176.74 160.29 3.56 c p3
176.74 160.29 3.56 c p3
176.74 160.29 3.56 c p3
176.74 160.29 3.56 c p3
176.74 160.29 3.56 c p3
176.74 160.29 3.56 c p3
176.74 160.29 3.56 c p3
176.74 160.29 3.56 c p3
176.74 160.29 3.56 c p3
176.74 160.29 3.56 c p3
176.74 160.29 3.56 c p3
176.74 160.29 3.56 c p3
176.74 160.29 3.56 c p3
176.74 160.29 3.56 c p3
176.74 160.29 3.56 c p3
176.74 160.29 3.56 c p3
176.74 160.29 3.56 c p3
176.74 160.29 3.56 c p3
176.74 160.29 3.56 c p3
176.74 160.29 3.56 c p3
176.74 160.29 3.56 c p3
176.74 160.29 3.56 c p3
176.74 160.29 3.56 c p3
176.74 160.29 3.56 c p3
176.74 160.29 3.56 c p3
176.74 160.29 3.56 c p3
176.74 160.29 3.56 c p3
176.74 160.29 3.56 c p3
176.74 160.29 3.56 c p3
176.74 160.29 3.56 c p3
176.74 160.29 3.56 c p3
176.74 160.29 3.56 c p3
176.74 160.29 3.56 c p3
176.74 160.29 3.56 c p3
176.74 160.29 3.56 c p3
176.74 160.29 3.56 c p3
176.74 160.29 3.56 c p3
176.74 160.29 3.56 c p3
176.74 160.29 3.56 c p3
176.74 160.29 3.56 c p3
176.74 160.29 3.56 c p3
176.74 160.29 3.56 c p3
176.74 160.29 3.56 c p3
176.74 160.29 3.56 c p3
176.74 160.29 3.56 c p3
176.74 160.29 3.56 c p3
176.74 160.29 3.56 c p3
176.74 160.29 3.56 c p3
176.74 160.29 3.56 c p3
176.74 160.29 3.56 c p3
176.74 160.29 3.56 c p3
176.74 160.29 3.56 c p3
176.74 160.29 3.56 c p3
176.74 160.29 3.56 c p3
176.74 160.29 3.56 c p3
176.74 160.29 3.56 c p3
176.74 160.29 3.56 c p3
176.74 160.29 3.56 c p3
176.74 160.29 3.56 c p3
176.74 160.29 3.56 c p3
176.74 160.29 3.56 c p3
176.74 160.29 3.56 c p3
176.74 160.29 3.56 c p3
176.74 160.29 3.56 c p3
176.74 160.29 3.56 c p3
176.74 160.29 3.56 c p3
176.74 160.29 3.56 c p3
176.74 160.29 3.56 c p3
176.74 160.29 3.56 c p3
176.74 160.29 3.56 c p3
176.74 160.29 3.56 c p3
176.74 160.29 3.56 c p3
176.74 160.29 3.56 c p3
176.74 160.29 3.56 c p3
176.74 160.29 3.56 c p3
176.74 160.29 3.56 c p3
176.74 160.29 3.56 c p3
176.74 160.29 3.56 c p3
176.74 160.29 3.56 c p3
176.74 160.29 3.56 c p3
176.74 160.29 3.56 c p3
176.74 160.29 3.56 c p3
176.74 160.29 3.56 c p3
176.74 160.29 3.56 c p3
176.74 160.29 3.56 c p3
176.74 160.29 3.56 c p3
176.74 160.29 3.56 c p3
176.74 160.29 3.56 c p3
176.74 160.29 3.56 c p3
176.74 160.29 3.56 c p3
176.74 160.29 3.56 c p3
176.74 160.29 3.56 c p3
176.74 160.29 3.56 c p3
176.74 160.29 3.56 c p3
176.74 160.29 3.56 c p3
176.74 160.29 3.56 c p3
176.74 160.29 3.56 c p3
176.74 160.29 3.56 c p3
176.74 160.29 3.56 c p3
176.74 160.29 3.56 c p3
176.74 160.29 3.56 c p3
176.74 160.29 3.56 c p3
176.74 160.29 3.56 c p3
176.74 160.29 3.56 c p3
176.74 160.29 3.56 c p3
176.74 160.29 3.56 c p3
176.74 160.29 3.56 c p3
176.74 160.29 3.56 c p3
176.74 160.29 3.56 c p3
176.74 160.29 3.56 c p3
176.74 160.29 3.56 c p3
176.74 160.29 3.56 c p3
176.74 160.29 3.56 c p3
176.74 160.29 3.56 c p3
176.74 160.29 3.56 c p3
176.74 160.29 3.56 c p3
176.74 160.29 3.56 c p3
176.74 160.29 3.56 c p3
176.74 160.29 3.56 c p3
176.74 160.29 3.56 c p3
176.74 160.29 3.56 c p3
176.74 160.29 3.56 c p3
176.74 160.29 3.56 c p3
176.74 160.29 3.56 c p3
176.74 160.29 3.56 c p3
176.74 160.29 3.56 c p3
176.74 160.29 3.56 c p3
176.74 160.29 3.56 c p3
176.74 160.29 3.56 c p3
176.74 160.29 3.56 c p3
176.74 160.29 3.56 c p3
176.74 160.29 3.56 c p3
176.74 160.29 3.56 c p3
176.74 160.29 3.56 c p3
176.74 160.29 3.56 c p3
176.74 160.29 3.56 c p3
176.74 160.29 3.56 c p3
176.74 160.29 3.56 c p3
176.74 160.29 3.56 c p3
176.74 160.29 3.56 c p3
176.74 160.29 3.56 c p3
176.74 160.29 3.56 c p3
176.74 160.29 3.56 c p3
176.74 160.29 3.56 c p3
176.74 160.29 3.56 c p3
176.74 160.29 3.56 c p3
176.74 160.29 3.56 c p3
176.74 160.29 3.56 c p3
176.74 160.29 3.56 c p3
176.74 160.29 3.56 c p3
176.74 160.29 3.56 c p3
176.74 160.29 3.56 c p3
176.74 160.29 3.56 c p3
176.74 160.29 3.56 c p3
176.74 160.29 3.56 c p3
176.74 160.29 3.56 c p3
176.74 160.29 3.56 c p3
176.74 160.29 3.56 c p3
176.74 160.29 3.56 c p3
176.74 160.29 3.56 c p3
176.74 160.29 3.56 c p3
176.74 160.29 3.56 c p3
176.74 160.29 3.56 c p3
176.74 160.29 3.56 c p3
176.74 160.29 3.56 c p3
176.74 160.29 3.56 c p3
176.74 160.29 3.56 c p3
176.74 160.29 3.56 c p3
176.74 160.29 3.56 c p3
176.74 160.29 3.56 c p3
176.74 160.29 3.56 c p3
176.74 160.29 3.56 c p3
176.74 160.29 3.56 c p3
176.74 160.29 3.56 c p3
176.74 160.29 3.56 c p3
176.74 160.29 3.56 c p3
176.74 160.29 3.56 c p3
176.74 160.29 3.56 c p3
176.74 160.29 3.56 c p3
176.74 160.29 3.56 c p3
176.74 160.29 3.56 c p3
176.74 160.29 3.56 c p3
176.74 160.29 3.56 c p3
176.74 160.29 3.56 c p3
176.74 160.29 3.56 c p3
176.74 160.29 3.56 c p3
176.74 160.29 3.56 c p3
176.74 160.29 3.56 c p3
176.74 160.29 3.56 c p3
176.74 160.29 3.56 c p3
176.74 160.29 3.56 c p3
176.74 160.29 3.56 c p3
176.74 160.29 3.56 c p3
176.74 160.29 3.56 c p3
176.74 160.29 3.56 c p3
176.74 160.29 3.56 c p3
176.74 160.29 3.56 c p3
176.74 160.29 3.56 c p3
176.74 160.29 3.56 c p3
176.74 160.29 3.56 c p3
176.74 160.29 3.56 c p3
176.74 160.29 3.56 c p3
176.74 160.29 3.56 c p3
176.74 160.29 3.56 c p3
176.74 160.29 3.56 c p3
176.74 160.29 3.56 c p3
176.74 160.29 3.56 c p3
176.74 160.29 3.56 c p3
176.74 160.29 3.56 c p3
176.74 160.29 3.56 c p3
176.74 160.29 3.56 c p3
176.74 160.29 3.56 c p3
176.74 160.29 3.56 c p3
176.74 160.29 3.56 c p3
176.74 160.29 3.56 c p3
176.74 160.29 3.56 c p3
176.74 160.29 3.56 c p3
176.74 160.29 3.56 c p3
176.74 160.29 3.56 c p3
176.74 160.29 3.56 c p3
176.74 160.29 3.56 c p3
176.74 160.29 3.56 c p3
176.74 160.29 3.56 c p3
176.74 160.29 3.56 c p3
176.74 160.29 3.56 c p3
176.74 160.29 3.56 c p3
176.74 160.29 3.56 c p3
176.74 160.29 3.56 c p3
176.74 160.29 3.56 c p3
176.74 160.29 3.56 c p3
176.74 160.29 3.56 c p3
176.74 160.29 3.56 c p3
176.74 160.29 3.56 c p3
176.74 160.29 3.56 c p3
176.74 160.29 3.56 c p3
176.74 160.29 3.56 c p3
176.74 160.29 3.56 c p3
176.74 160.29 3.56 c p3
176.74 160.29 3.56 c p3
176.74 160.29 3.56 c p3
176.74 160.29 3.56 c p3
176.74 160.29 3.56 c p3
176.74 160.29 3.56 c p3
176.74 160.29 3.56 c p3
176.74 160.29 3.56 c p3
176.74 160.29 3.56 c p3
176.74 160.29 3.56 c p3
176.74 160.29 3.56 c p3
176.74 160.29 3.56 c p3
176.74 160.29 3.56 c p3
176.74 160.29 3.56 c p3
176.74 160.29 3.56 c p3
176.74 160.29 3.56 c p3
176.74 160.29 3.56 c p3
176.74 160.29 3.56 c p3
176.74 160.29 3.56 c p3
176.74 160.29 3.56 c p3
176.74 160.29 3.56 c p3
176.74 160.29 3.56 c p3
176.74 160.29 3.56 c p3
176.74 160.29 3.56 c p3
176.74 160.29 3.56 c p3
176.74 160.29 3.56 c p3
176.74 160.29 3.56 c p3
176.74 160.29 3.56 c p3
176.74 160.29 3.56 c p3
176.74 160.29 3.56 c p3
176.74 160.29 3.56 c p3
176.74 160.29 3.56 c p3
176.74 160.29 3.56 c p3
176.74 160.29 3.56 c p3
176.74 160.29 3.56 c p3
176.74 160.29 3.56 c p3
176.74 160.29 3.56 c p3
176.74 160.29 3.56 c p3
176.74 160.29 3.56 c p3
176.74 160.29 3.56 c p3
176.74 160.29 3.56 c p3
176.74 160.29 3.56 c p3
176.74 160.29 3.56 c p3
176.74 160.29 3.56 c p3
176.74 160.29 3.56 c p3
176.74 160.29 3.56 c p3
176.74 160.29 3.56 c p3
176.74 160.29 3.56 c p3
176.74 160.29 3.56 c p3
176.74 160.29 3.56 c p3
176.74 160.29 3.56 c p3
176.74 160.29 3.56 c p3
176.74 160.29 3.56 c p3
176.74 160.29 3.56 c p3
176.74 160.29 3.56 c p3
176.74 160.29 3.56 c p3
176.74 160.29 3.56 c p3
176.74 160.29 3.56 c p3
176.74 160.29 3.56 c p3
176.74 160.29 3.56 c p3
176.74 160.29 3.56 c p3
176.74 160.29 3.56 c p3
176.74 160.29 3.56 c p3
176.74 160.29 3.56 c p3
176.74 160.29 3.56 c p3
176.74 160.29 3.56 c p3
176.74 160.29 3.56 c p3
176.74 160.29 3.56 c p3
176.74 160.29 3.56 c p3
176.74 160.29 3.56 c p3
176.74 160.29 3.56 c p3
176.74 160.29 3.56 c p3
176.74 160.29 3.56 c p3
176.74 160.29 3.56 c p3
176.74 160.29 3.56 c p3
176.74 160.29 3.56 c p3
176.74 160.29 3.56 c p3
176.74 160.29 3.56 c p3
176.74 160.29 3.56 c p3
176.74 160.29 3.56 c p3
176.74 160.29 3.56 c p3
176.74 160.29 3.56 c p3
176.74 160.29 3.56 c p3
176.74 160.29 3.56 c p3
176.74 160.29 3.56 c p3
176.74 160.29 3.56 c p3
176.74 160.29 3.56 c p3
176.74 160.29 3.56 c p3
176.74 160.29 3.56 c p3
176.74 160.29 3.56 c p3
176.74 160.29 3.56 c p3
176.74 160.29 3.56 c p3
176.74 160.29 3.56 c p3
176.74 160.29 3.56 c p3
176.74 160.29 3.56 c p3
176.74 160.29 3.56 c p3
176.74 160.29 3.56 c p3
176.74 160.29 3.56 c p3
176.74 160.29 3.56 c p3
176.74 160.29 3.56 c p3
176.74 160.29 3.56 c p3
176.74 160.29 3.56 c p3
176.74 160.29 3.56 c p3
176.74 160.29 3.56 c p3
176.74 160.29 3.56 c p3
176.74 160.29 3.56 c p3
176.74 160.29 3.56 c p3
176.74 160.29 3.56 c p3
176.74 160.29 3.56 c p3
176.74 160.29 3.56 c p3
176.74 160.29 3.56 c p3
176.74 160.29 3.56 c p3
176.74 160.29 3.56 c p3
176.74 160.29 3.56 c p3
176.74 160.29 3.56 c p3
176.74 160.29 3.56 c p3
176.74 160.29 3.56 c p3
176.74 160.29 3.56 c p3
176.74 160.29 3.56 c p3
176.74 160.29 3.56 c p3
176.74 160.29 3.56 c p3
176.74 160.29 3.56 c p3
176.74 160.29 3.56 c p3
176.74 160.29 3.56 c p3
176.74 160.29 3.56 c p3
176.74 160.29 3.56 c p3
176.74 160.29 3.56 c p3
176.74 160.29 3.56 c p3
176.74 160.29 3.56 c p3
176.74 160.29 3.56 c p3
176.74 160.29 3.56 c p3
176.74 160.29 3.56 c p3
176.74 160.29 3.56 c p3
176.74 160.29 3.56 c p3
176.74 160.29 3.56 c p3
176.74 160.29 3.56 c p3
176.74 160.29 3.56 c p3
176.74 160.29 3.56 c p3
176.74 160.29 3.56 c p3
176.74 160.29 3.56 c p3
176.74 160.29 3.56 c p3
176.74 160.29 3.56 c p3
176.74 160.29 3.56 c p3
176.74 160.29 3.56 c p3
176.74 160.29 3.56 c p3
176.74 160.29 3.56 c p3
176.74 160.29 3.56 c p3
176.74 160.29 3.56 c p3
176.74 160.29 3.56 c p3
176.74 160.29 3.56 c p3
176.74 160.29 3.56 c p3
176.74 160.29 3.56 c p3
176.74 160.29 3.56 c p3
176.74 160.29 3.56 c p3
176.74 160.29 3.56 c p3
176.74 160.29 3.56 c p3
176.74 160.29 3.56 c p3
176.74 160.29 3.56 c p3
176.74 160.29 3.56 c p3
176.74 160.29 3.56 c p3
176.74 160.29 3.56 c p3
176.74 160.29 3.56 c p3
176.74 160.29 3.56 c p3
176.74 160.29 3.56 c p3
176.74 160.29 3.56 c p3
176.74 160.29 3.56 c p3
176.74 160.29 3.56 c p3
176.74 160.29 3.56 c p3
176.74 160.29 3.56 c p3
176.74 160.29 3.56 c p3
176.74 160.29 3.56 c p3
176.74 160.29 3.56 c p3
176.74 160.29 3.56 c p3
176.74 160.29 3.56 c p3
176.74 160.29 3.56 c p3
176.74 160.29 3.56 c p3
176.74 160.29 3.56 c p3
176.74 160.29 3.56 c p3
176.74 160.29 3.56 c p3
176.74 160.29 3.56 c p3
176.74 160.29 3.56 c p3
176.74 160.29 3.56 c p3
176.74 160.29 3.56 c p3
176.74 160.29 3.56 c p3
176.74 160.29 3.56 c p3
176.74 160.29 3.56 c p3
176.74 160.29 3.56 c p3
176.74 160.29 3.56 c p3
176.74 160.29 3.56 c p3
176.74 160.29 3.56 c p3
176.74 160.29 3.56 c p3
176.74 160.29 3.56 c p3
176.74 160.29 3.56 c p3
176.74 160.29 3.56 c p3
176.74 160.29 3.56 c p3
176.74 160.29 3.56 c p3
176.74 160.29 3.56 c p3
176.74 160.29 3.56 c p3
176.74 160.29 3.56 c p3
176.74 160.29 3.56 c p3
176.74 160.29 3.56 c p3
176.74 160.29 3.56 c p3
176.74 160.29 3.56 c p3
176.74 160.29 3.56 c p3
176.74 160.29 3.56 c p3
176.74 160.29 3.56 c p3
176.74 160.29 3.56 c p3
176.74 160.29 3.56 c p3
176.74 160.29 3.56 c p3
176.74 160.29 3.56 c p3
176.74 160.29 3.56 c p3
176.74 160.29 3.56 c p3
176.74 160.29 3.56 c p3
176.74 160.29 3.56 c p3
176.74 160.29 3.56 c p3
176.74 160.29 3.56 c p3
176.74 160.29 3.56 c p3
176.74 160.29 3.56 c p3
176.74 160.29 3.56 c p3
176.74 160.29 3.56 c p3
176.74 160.29 3.56 c p3
176.74 160.29 3.56 c p3
176.74 160.29 3.56 c p3
176.74 160.29 3.56 c p3
176.74 160.29 3.56 c p3
176.74 160.29 3.56 c p3
176.74 160.29 3.56 c p3
176.74 160.29 3.56 c p3
176.74 160.29 3.56 c p3
176.74 160.29 3.56 c p3
176.74 160.29 3.56 c p3
176.74 160.29 3.56 c p3
176.74 160.29 3.56 c p3
176.74 160.29 3.56 c p3
176.74 160.29 3.56 c p3
176.74 160.29 3.56 c p3
176.74 160.29 3.56 c p3
176.74 160.29 3.56 c p3
176.74 160.29 3.56 c p3
176.74 160.29 3.56 c p3
176.74 160.29 3.56 c p3
176.74 160.29 3.56 c p3
176.74 160.29 3.56 c p3
176.74 160.29 3.56 c p3
176.74 160.29 3.56 c p3
176.74 160.29 3.56 c p3
176.74 160.29 3.56 c p3
176.74 160.29 3.56 c p3
176.74 160.29 3.56 c p3
176.74 160.29 3.56 c p3
176.74 160.29 3.56 c p3
176.74 160.29 3.56 c p3
176.74 160.29 3.56 c p3
176.74 160.29 3.56 c p3
176.74 160.29 3.56 c p3
176.74 160.29 3.56 c p3
176.74 160.29 3.56 c p3
176.74 160.29 3.56 c p3
176.74 160.29 3.56 c p3
176.74 160.29 3.56 c p3
176.74 160.29 3.56 c p3
176.74 160.29 3.56 c p3
176.74 160.29 3.56 c p3
176.74 160.29 3.56 c p3
176.74 160.29 3.56 c p3
176.74 160.29 3.56 c p3
176.74 160.29 3.56 c p3
176.74 160.29 3.56 c p3
176.74 160.29 3.56 c p3
176.74 160.29 3.56 c p3
176.74 160.29 3.56 c p3
176.74 160.29 3.56 c p3
176.74 160.29 3.56 c p3
176.74 160.29 3.56 c p3
176.74 160.29 3.56 c p3
176.74 160.29 3.56 c p3
176.74 160.29 3.56 c p3
176.74 160.29 3.56 c p3
176.74 160.29 3.56 c p3
176.74 160.29 3.56 c p3
176.74 160.29 3.56 c p3
176.74 160.29 3.56 c p3
176.74 160.29 3.56 c p3
176.74 160.29 3.56 c p3
176.74 160.29 3.56 c p3
176.74 160.29 3.56 c p3
176.74 160.29 3.56 c p3
176.74 160.29 3.56 c p3
176.74 160.29 3.56 c p3
176.74 160.29 3.56 c p3
176.74 160.29 3.56 c p3
176.74 160.29 3.56 c p3
176.74 160.29 3.56 c p3
176.74 160.29 3.56 c p3
176.74 160.29 3.56 c p3
176.74 160.29 3.56 c p3
176.74 160.29 3.56 c p3
176.74 160.29 3.56 c p3
176.74 160.29 3.56 c p3
176.74 160.29 3.56 c p3
176.74 160.29 3.56 c p3
176.74 160.29 3.56 c p3
176.74 160.29 3.56 c p3
176.74 160.29 3.56 c p3
176.74 160.29 3.56 c p3
176.74 160.29 3.56 c p3
176.74 160.29 3.56 c p3
176.74 160.29 3.56 c p3
176.74 160.29 3.56 c p3
176.74 160.29 3.56 c p3
176.74 160.29 3.56 c p3
176.74 160.29 3.56 c p3
176.74 160.29 3.56 c p3
176.74 160.29 3.56 c p3
176.74 160.29 3.56 c p3
176.74 160.29 3.56 c p3
176.74 160.29 3.56 c p3
176.74 160.29 3.56 c p3
176.74 160.29 3.56 c p3
176.74 160.29 3.56 c p3
176.74 160.29 3.56 c p3
176.74 160.29 3.56 c p3
176.74 160.29 3.56 c p3
176.74 160.29 3.56 c p3
/Font1 findfont 14 s
0 0 0 srgb
131.07 180.65 (x) 0 0 t
/Font1 findfont 10 s
138.07 178.08 (6) 0 0 t
/Font1 findfont 14 s
173.38 144.74 (x) 0 0 t
/Font1 findfont 10 s
180.38 142.17 (22) 0 0 t
0.00 0.00 310.50 297.75 cl
0.00 0.00 310.50 297.75 cl
0.00 0.00 310.50 297.75 cl
0.00 0.00 310.50 297.75 cl
0.00 0.00 310.50 297.75 cl
0.00 0.00 310.50 297.75 cl
/Font1 findfont 9 s
0.3020 0.3020 0.3020 srgb
37.47 79.51 (2.49) 1 0 t
37.47 158.58 (2.50) 1 0 t
37.47 237.65 (2.51) 1 0 t
0.00 0.00 310.50 297.75 cl
0.00 0.00 310.50 297.75 cl
0.2000 0.2000 0.2000 srgb
1.07 setlinewidth
[] 0 setdash
0 setlinecap
1 setlinejoin
10.00 setmiterlimit
np
39.66 82.74 m
2.74 0 l
o
np
39.66 161.81 m
2.74 0 l
o
np
39.66 240.88 m
2.74 0 l
o
0.00 0.00 310.50 297.75 cl
0.00 0.00 310.50 297.75 cl
0.00 0.00 310.50 297.75 cl
0.00 0.00 310.50 297.75 cl
0.00 0.00 310.50 297.75 cl
0.00 0.00 310.50 297.75 cl
0.00 0.00 310.50 297.75 cl
0.00 0.00 310.50 297.75 cl
0.2000 0.2000 0.2000 srgb
1.07 setlinewidth
[] 0 setdash
0 setlinecap
1 setlinejoin
10.00 setmiterlimit
np
94.13 28.61 m
0 2.74 l
o
np
173.71 28.61 m
0 2.74 l
o
np
253.29 28.61 m
0 2.74 l
o
0.00 0.00 310.50 297.75 cl
0.00 0.00 310.50 297.75 cl
/Font1 findfont 9 s
0.3020 0.3020 0.3020 srgb
94.13 19.95 (-2.01) .5 0 t
173.71 19.95 (-2.00) .5 0 t
253.29 19.95 (-1.99) .5 0 t
0.00 0.00 310.50 297.75 cl
0.00 0.00 310.50 297.75 cl
0.00 0.00 310.50 297.75 cl
0.00 0.00 310.50 297.75 cl
/Font1 findfont 11 s
0 0 0 srgb
173.71 7.67 (Baseline) .5 0 t
0.00 0.00 310.50 297.75 cl
0.00 0.00 310.50 297.75 cl
/Font1 findfont 11 s
0 0 0 srgb
15.57 161.81 (Tmax) .5 90 t
0.00 0.00 310.50 297.75 cl
0.00 0.00 310.50 297.75 cl
0.00 0.00 310.50 297.75 cl
0.00 0.00 310.50 297.75 cl
ep
%%Trailer
%%Pages: 1
%%EOF
