%!PS-Adobe-3.0 EPSF-3.0
%%DocumentNeededResources: font Helvetica
%%+ font Helvetica-Bold
%%+ font Helvetica-Oblique
%%+ font Helvetica-BoldOblique
%%+ font Symbol
%%Title: R Graphics Output
%%Creator: R Software
%%Pages: (atend)
%%BoundingBox: 0 0 350 355
%%EndComments
%%BeginProlog
/bp  { gs sRGB gs } def
% begin .ps.prolog
/gs  { gsave } bind def
/gr  { grestore } bind def
/ep  { showpage gr gr } bind def
/m   { moveto } bind def
/l  { rlineto } bind def
/np  { newpath } bind def
/cp  { closepath } bind def
/f   { fill } bind def
/o   { stroke } bind def
/c   { newpath 0 360 arc } bind def
/r   { 4 2 roll moveto 1 copy 3 -1 roll exch 0 exch rlineto 0 rlineto -1 mul 0 exch rlineto closepath } bind def
/p1  { stroke } bind def
/p2  { gsave bg fill grestore newpath } bind def
/p3  { gsave bg fill grestore stroke } bind def
/p6  { gsave bg eofill grestore newpath } bind def
/p7  { gsave bg eofill grestore stroke } bind def
/t   { 5 -2 roll moveto gsave rotate
       1 index stringwidth pop
       mul neg 0 rmoveto show grestore } bind def
/ta  { 4 -2 roll moveto gsave rotate show } bind def
/tb  { 2 -1 roll 0 rmoveto show } bind def
/cl  { grestore gsave newpath 3 index 3 index moveto 1 index
       4 -1 roll lineto  exch 1 index lineto lineto
       closepath clip newpath } bind def
/rgb { setrgbcolor } bind def
/s   { scalefont setfont } bind def
% end   .ps.prolog
/sRGB { [ /CIEBasedABC
          << /DecodeLMN
               [ { dup 0.03928 le
                        {12.92321 div}
                        {0.055 add 1.055 div 2.4 exp }
                     ifelse
                 } bind dup dup
               ]
             /MatrixLMN [0.412457 0.212673 0.019334
                         0.357576 0.715152 0.119192
                         0.180437 0.072175 0.950301]
             /WhitePoint [0.9505 1.0 1.0890]
           >>
         ] setcolorspace } bind def
/srgb { setcolor } bind def
% begin encoding
/WinAnsiEncoding [
 /.notdef /.notdef /.notdef /.notdef /.notdef /.notdef /.notdef /.notdef
 /.notdef /.notdef /.notdef /.notdef /.notdef /.notdef /.notdef /.notdef
 /.notdef /.notdef /.notdef /.notdef /.notdef /.notdef /.notdef /.notdef
 /.notdef /.notdef /.notdef /.notdef /.notdef /.notdef /.notdef /.notdef
 /space /exclam /quotedbl /numbersign /dollar /percent /ampersand /quoteright
 /parenleft /parenright /asterisk /plus /comma /minus /period /slash
 /zero /one /two /three /four /five /six /seven
 /eight /nine /colon /semicolon /less /equal /greater /question
 /at /A /B /C /D /E /F /G
 /H /I /J /K /L /M /N /O
 /P /Q /R /S /T /U /V /W
 /X /Y /Z /bracketleft /backslash /bracketright /asciicircum /underscore
 /grave /a /b /c /d /e /f /g
 /h /i /j /k /l /m /n /o
 /p /q /r /s /t /u /v /w
 /x /y /z /braceleft /bar /braceright /asciitilde /.notdef
 /Euro /.notdef /quotesinglbase /florin /quotedblbase /ellipsis /dagger /daggerdbl
 /circumflex /perthousand /Scaron /guilsinglleft /OE /.notdef /Zcaron /.notdef
 /.notdef /quoteleft /quoteright /quotedblleft /quotedblright /bullet /endash /emdash
 /tilde /trademark /scaron /guilsinglright /oe /.notdef /zcaron /Ydieresis
 /space /exclamdown /cent /sterling /currency /yen /brokenbar /section
 /dieresis /copyright /ordfeminine /guillemotleft /logicalnot /hyphen /registered /macron
 /degree /plusminus /twosuperior /threesuperior /acute /mu /paragraph /periodcentered
 /cedilla /onesuperior /ordmasculine /guillemotright /onequarter /onehalf /threequarters /questiondown
 /Agrave /Aacute /Acircumflex /Atilde /Adieresis /Aring /AE /Ccedilla
 /Egrave /Eacute /Ecircumflex /Edieresis /Igrave /Iacute /Icircumflex /Idieresis
 /Eth /Ntilde /Ograve /Oacute /Ocircumflex /Otilde /Odieresis /multiply
 /Oslash /Ugrave /Uacute /Ucircumflex /Udieresis /Yacute /Thorn /germandbls
 /agrave /aacute /acircumflex /atilde /adieresis /aring /ae /ccedilla
 /egrave /eacute /ecircumflex /edieresis /igrave /iacute /icircumflex /idieresis
 /eth /ntilde /ograve /oacute /ocircumflex /otilde /odieresis /divide
 /oslash /ugrave /uacute /ucircumflex /udieresis /yacute /thorn /ydieresis
]
 def
% end encoding
%%IncludeResource: font Helvetica
/Helvetica findfont
dup length dict begin
  {1 index /FID ne {def} {pop pop} ifelse} forall
  /Encoding WinAnsiEncoding def
  currentdict
  end
/Font1 exch definefont pop
%%IncludeResource: font Helvetica-Bold
/Helvetica-Bold findfont
dup length dict begin
  {1 index /FID ne {def} {pop pop} ifelse} forall
  /Encoding WinAnsiEncoding def
  currentdict
  end
/Font2 exch definefont pop
%%IncludeResource: font Helvetica-Oblique
/Helvetica-Oblique findfont
dup length dict begin
  {1 index /FID ne {def} {pop pop} ifelse} forall
  /Encoding WinAnsiEncoding def
  currentdict
  end
/Font3 exch definefont pop
%%IncludeResource: font Helvetica-BoldOblique
/Helvetica-BoldOblique findfont
dup length dict begin
  {1 index /FID ne {def} {pop pop} ifelse} forall
  /Encoding WinAnsiEncoding def
  currentdict
  end
/Font4 exch definefont pop
%%IncludeResource: font Symbol
/Symbol findfont
dup length dict begin
  {1 index /FID ne {def} {pop pop} ifelse} forall
  currentdict
  end
/Font5 exch definefont pop
%%EndProlog
0.00 0.00 349.50 354.75 cl
%%Page: 1 1
bp
/bg { 1 1 1 srgb } def
0.00 0.00 349.50 354.75 r p2
19.96 256.46 346.17 339.54 cl
0.00 236.50 349.50 354.75 cl
/Font2 findfont 10 s
0 0 0 srgb
183.07 343.56 (baseline) .5 0 t
0.00 0.00 349.50 354.75 cl
0 0 0 srgb
0.75 setlinewidth
[] 0 setdash
1 setlinecap
1 setlinejoin
10.00 setmiterlimit
np
98.49 256.46 m
0 -4.75 l
o
np
180.14 256.46 m
0 -4.75 l
o
np
261.80 256.46 m
0 -4.75 l
o
np
343.46 256.46 m
0 -4.75 l
o
/Font1 findfont 8 s
98.49 243.15 (-2.05) .5 0 t
180.14 243.15 (-2.00) .5 0 t
261.80 243.15 (-1.95) .5 0 t
343.46 243.15 (-1.90) .5 0 t
np
19.96 259.53 m
-4.75 0 l
o
np
19.96 277.67 m
-4.75 0 l
o
np
19.96 295.80 m
-4.75 0 l
o
np
19.96 313.94 m
-4.75 0 l
o
np
19.96 332.07 m
-4.75 0 l
o
12.36 259.53 (0) .5 90 t
12.36 277.67 (5) .5 90 t
12.36 295.80 (10) .5 90 t
12.36 313.94 (15) .5 90 t
12.36 332.07 (20) .5 90 t
19.96 256.46 346.17 339.54 cl
/bg { 0.8510 0.8510 0.8510 srgb } def
19.96 256.46 326.22 83.09 r p2
0.9020 0.9020 0.9020 srgb
1.50 setlinewidth
[] 0 setdash
1 setlinecap
1 setlinejoin
10.00 setmiterlimit
np
98.49 256.46 m
0 83.08 l
o
np
180.14 256.46 m
0 83.08 l
o
np
261.80 256.46 m
0 83.08 l
o
np
343.46 256.46 m
0 83.08 l
o
np
19.96 259.53 m
326.21 0 l
o
np
19.96 277.67 m
326.21 0 l
o
np
19.96 295.80 m
326.21 0 l
o
np
19.96 313.94 m
326.21 0 l
o
np
19.96 332.07 m
326.21 0 l
o
0.75 setlinewidth
[] 0 setdash
np
57.66 256.46 m
0 83.08 l
o
np
139.32 256.46 m
0 83.08 l
o
np
220.97 256.46 m
0 83.08 l
o
np
302.63 256.46 m
0 83.08 l
o
np
19.96 250.47 m
326.21 0 l
o
np
19.96 268.60 m
326.21 0 l
o
np
19.96 286.73 m
326.21 0 l
o
np
19.96 304.87 m
326.21 0 l
o
np
19.96 323.00 m
326.21 0 l
o
np
19.96 341.14 m
326.21 0 l
o
1 0.4784 0.6196 srgb
np
72.33 259.54 m
0.50 0 l
0.51 0 l
0.50 0 l
0.50 0 l
0.51 0 l
0.50 0 l
0.50 0 l
0.51 0 l
0.50 0.01 l
0.50 0 l
0.51 0 l
0.50 0 l
0.50 0 l
0.50 0.01 l
0.51 0 l
0.50 0 l
0.50 0.01 l
0.51 0 l
0.50 0.01 l
0.50 0 l
0.51 0.01 l
0.50 0.01 l
0.50 0.01 l
0.51 0 l
0.50 0.01 l
0.50 0.01 l
0.51 0.01 l
0.50 0.01 l
0.50 0.01 l
0.51 0.02 l
0.50 0.01 l
0.50 0.01 l
0.51 0.02 l
0.50 0.01 l
0.50 0.02 l
0.51 0.02 l
0.50 0.02 l
0.50 0.01 l
0.51 0.02 l
0.50 0.02 l
0.50 0.03 l
0.51 0.02 l
0.50 0.02 l
0.50 0.02 l
0.51 0.03 l
0.50 0.02 l
0.50 0.03 l
0.51 0.03 l
0.50 0.02 l
0.50 0.03 l
0.51 0.03 l
0.50 0.03 l
0.50 0.02 l
0.51 0.03 l
0.50 0.03 l
0.50 0.03 l
0.51 0.03 l
0.50 0.04 l
0.50 0.03 l
0.51 0.03 l
0.50 0.03 l
0.50 0.04 l
0.51 0.03 l
0.50 0.04 l
0.50 0.03 l
0.51 0.04 l
0.50 0.04 l
0.50 0.04 l
0.51 0.04 l
0.50 0.04 l
0.50 0.04 l
0.51 0.05 l
0.50 0.04 l
0.50 0.05 l
0.51 0.05 l
0.50 0.05 l
0.50 0.05 l
0.51 0.05 l
0.50 0.06 l
0.50 0.06 l
0.51 0.06 l
0.50 0.06 l
0.50 0.06 l
0.51 0.06 l
0.50 0.07 l
0.50 0.07 l
0.51 0.07 l
0.50 0.07 l
0.50 0.08 l
0.51 0.07 l
0.50 0.08 l
0.50 0.08 l
0.51 0.08 l
0.50 0.08 l
0.50 0.08 l
0.51 0.08 l
0.50 0.08 l
0.50 0.09 l
0.51 0.08 l
122.66 262.75 lineto
0.50 0.08 l
0.51 0.09 l
0.50 0.09 l
0.50 0.08 l
0.51 0.09 l
0.50 0.09 l
0.50 0.08 l
0.51 0.09 l
0.50 0.09 l
0.50 0.09 l
0.51 0.08 l
0.50 0.09 l
0.50 0.09 l
0.51 0.09 l
0.50 0.09 l
0.50 0.09 l
0.51 0.09 l
0.50 0.09 l
0.50 0.09 l
0.51 0.10 l
0.50 0.09 l
0.50 0.10 l
0.51 0.10 l
0.50 0.11 l
0.50 0.10 l
0.51 0.11 l
0.50 0.12 l
0.50 0.12 l
0.51 0.12 l
0.50 0.12 l
0.50 0.14 l
0.50 0.13 l
0.51 0.15 l
0.50 0.15 l
0.50 0.15 l
0.51 0.16 l
0.50 0.17 l
0.50 0.18 l
0.51 0.19 l
0.50 0.19 l
0.50 0.20 l
0.51 0.21 l
0.50 0.22 l
0.50 0.23 l
0.51 0.23 l
0.50 0.25 l
0.50 0.25 l
0.51 0.27 l
0.50 0.28 l
0.50 0.28 l
0.51 0.30 l
0.50 0.31 l
0.50 0.31 l
0.51 0.33 l
0.50 0.34 l
0.50 0.34 l
0.51 0.36 l
0.50 0.37 l
0.50 0.38 l
0.51 0.38 l
0.50 0.40 l
0.50 0.40 l
0.51 0.42 l
0.50 0.42 l
0.50 0.43 l
0.51 0.44 l
0.50 0.44 l
0.50 0.46 l
0.51 0.46 l
0.50 0.46 l
0.50 0.48 l
0.51 0.48 l
0.50 0.48 l
0.50 0.49 l
0.51 0.50 l
0.50 0.50 l
0.50 0.51 l
0.51 0.51 l
0.50 0.52 l
0.50 0.52 l
0.51 0.53 l
0.50 0.54 l
0.50 0.54 l
0.51 0.55 l
0.50 0.55 l
0.50 0.56 l
0.51 0.57 l
0.50 0.58 l
0.50 0.59 l
0.51 0.59 l
0.50 0.60 l
0.50 0.62 l
0.51 0.62 l
0.50 0.63 l
0.50 0.64 l
0.51 0.65 l
0.50 0.66 l
0.50 0.67 l
0.51 0.67 l
172.99 294.43 lineto
0.50 0.69 l
0.51 0.70 l
0.50 0.70 l
0.50 0.71 l
0.51 0.72 l
0.50 0.72 l
0.50 0.72 l
0.51 0.72 l
0.50 0.72 l
0.50 0.73 l
0.51 0.72 l
0.50 0.71 l
0.50 0.71 l
0.51 0.71 l
0.50 0.70 l
0.50 0.69 l
0.51 0.69 l
0.50 0.67 l
0.50 0.67 l
0.51 0.65 l
0.50 0.65 l
0.50 0.63 l
0.51 0.62 l
0.50 0.61 l
0.50 0.59 l
0.51 0.59 l
0.50 0.57 l
0.50 0.56 l
0.51 0.55 l
0.50 0.54 l
0.50 0.53 l
0.51 0.52 l
0.50 0.51 l
0.50 0.50 l
0.51 0.49 l
0.50 0.49 l
0.50 0.47 l
0.51 0.47 l
0.50 0.46 l
0.50 0.46 l
0.51 0.45 l
0.50 0.44 l
0.50 0.44 l
0.51 0.43 l
0.50 0.42 l
0.50 0.42 l
0.51 0.41 l
0.50 0.40 l
0.50 0.39 l
0.51 0.38 l
0.50 0.38 l
0.50 0.36 l
0.50 0.35 l
0.51 0.34 l
0.50 0.33 l
0.50 0.31 l
0.51 0.30 l
0.50 0.28 l
0.50 0.27 l
0.51 0.26 l
0.50 0.23 l
0.50 0.22 l
0.51 0.20 l
0.50 0.19 l
0.50 0.17 l
0.51 0.16 l
0.50 0.13 l
0.50 0.12 l
0.51 0.11 l
0.50 0.08 l
0.50 0.08 l
0.51 0.05 l
0.50 0.05 l
0.50 0.03 l
0.51 0.01 l
0.50 0 l
0.50 -0.01 l
0.51 -0.02 l
0.50 -0.03 l
0.50 -0.05 l
0.51 -0.06 l
0.50 -0.07 l
0.50 -0.07 l
0.51 -0.10 l
0.50 -0.10 l
0.50 -0.11 l
0.51 -0.13 l
0.50 -0.14 l
0.50 -0.15 l
0.51 -0.17 l
0.50 -0.18 l
0.50 -0.19 l
0.51 -0.21 l
0.50 -0.23 l
0.50 -0.25 l
0.51 -0.26 l
0.50 -0.28 l
0.50 -0.30 l
0.51 -0.32 l
223.32 324.71 lineto
0.50 -0.35 l
0.51 -0.38 l
0.50 -0.41 l
0.50 -0.42 l
0.51 -0.43 l
0.50 -0.46 l
0.50 -0.48 l
0.51 -0.50 l
0.50 -0.51 l
0.50 -0.53 l
0.51 -0.55 l
0.50 -0.56 l
0.50 -0.57 l
0.51 -0.57 l
0.50 -0.60 l
0.50 -0.59 l
0.51 -0.61 l
0.50 -0.60 l
0.50 -0.61 l
0.51 -0.61 l
0.50 -0.61 l
0.50 -0.61 l
0.51 -0.61 l
0.50 -0.60 l
0.50 -0.59 l
0.51 -0.59 l
0.50 -0.58 l
0.50 -0.57 l
0.51 -0.56 l
0.50 -0.55 l
0.50 -0.54 l
0.51 -0.54 l
0.50 -0.52 l
0.50 -0.51 l
0.51 -0.51 l
0.50 -0.50 l
0.50 -0.49 l
0.51 -0.49 l
0.50 -0.48 l
0.50 -0.47 l
0.51 -0.48 l
0.50 -0.46 l
0.50 -0.47 l
0.51 -0.47 l
0.50 -0.47 l
0.50 -0.47 l
0.51 -0.47 l
0.50 -0.47 l
0.50 -0.48 l
0.51 -0.48 l
0.50 -0.48 l
0.50 -0.49 l
0.51 -0.50 l
0.50 -0.49 l
0.50 -0.51 l
0.51 -0.51 l
0.50 -0.51 l
0.50 -0.52 l
0.51 -0.52 l
0.50 -0.52 l
0.50 -0.53 l
0.51 -0.52 l
0.50 -0.53 l
0.50 -0.54 l
0.51 -0.53 l
0.50 -0.53 l
0.50 -0.53 l
0.51 -0.53 l
0.50 -0.53 l
0.50 -0.53 l
0.50 -0.52 l
0.51 -0.53 l
0.50 -0.52 l
0.50 -0.51 l
0.51 -0.51 l
0.50 -0.51 l
0.50 -0.51 l
0.51 -0.50 l
0.50 -0.49 l
0.50 -0.50 l
0.51 -0.48 l
0.50 -0.49 l
0.50 -0.47 l
0.51 -0.48 l
0.50 -0.46 l
0.50 -0.47 l
0.51 -0.46 l
0.50 -0.45 l
0.50 -0.44 l
0.51 -0.44 l
0.50 -0.44 l
0.50 -0.43 l
0.51 -0.42 l
0.50 -0.41 l
0.50 -0.41 l
0.51 -0.40 l
0.50 -0.39 l
0.50 -0.39 l
0.51 -0.37 l
273.65 274.61 lineto
0.50 -0.36 l
0.51 -0.35 l
0.50 -0.34 l
0.50 -0.33 l
0.51 -0.33 l
0.50 -0.31 l
0.50 -0.31 l
0.51 -0.30 l
0.50 -0.29 l
0.50 -0.28 l
0.51 -0.27 l
0.50 -0.27 l
0.50 -0.26 l
0.51 -0.25 l
0.50 -0.24 l
0.50 -0.24 l
0.51 -0.24 l
0.50 -0.23 l
0.50 -0.22 l
0.51 -0.22 l
0.50 -0.22 l
0.50 -0.22 l
0.51 -0.21 l
0.50 -0.21 l
0.50 -0.20 l
0.51 -0.21 l
0.50 -0.20 l
0.50 -0.20 l
0.51 -0.20 l
0.50 -0.20 l
0.50 -0.20 l
0.51 -0.20 l
0.50 -0.20 l
0.50 -0.19 l
0.51 -0.20 l
0.50 -0.20 l
0.50 -0.19 l
0.51 -0.20 l
0.50 -0.19 l
0.50 -0.19 l
0.51 -0.19 l
0.50 -0.19 l
0.50 -0.19 l
0.51 -0.19 l
0.50 -0.18 l
0.50 -0.19 l
0.51 -0.18 l
0.50 -0.17 l
0.50 -0.18 l
0.51 -0.17 l
0.50 -0.17 l
0.50 -0.16 l
0.51 -0.17 l
0.50 -0.15 l
0.50 -0.16 l
0.51 -0.15 l
0.50 -0.14 l
0.50 -0.15 l
0.51 -0.13 l
0.50 -0.14 l
0.50 -0.12 l
0.51 -0.13 l
0.50 -0.11 l
0.50 -0.12 l
0.51 -0.11 l
0.50 -0.10 l
0.50 -0.10 l
0.51 -0.09 l
0.50 -0.09 l
0.50 -0.08 l
0.51 -0.08 l
0.50 -0.08 l
0.50 -0.07 l
0.51 -0.07 l
0.50 -0.06 l
0.50 -0.06 l
0.51 -0.05 l
0.50 -0.05 l
0.50 -0.05 l
0.51 -0.04 l
0.50 -0.04 l
0.50 -0.03 l
0.51 -0.04 l
0.50 -0.03 l
0.50 -0.03 l
0.51 -0.02 l
0.50 -0.02 l
0.50 -0.02 l
0.50 -0.02 l
0.51 -0.02 l
0.50 -0.02 l
0.50 -0.01 l
0.51 -0.01 l
0.50 -0.01 l
0.50 -0.01 l
0.51 -0.01 l
0.50 -0.01 l
0.50 0 l
0.51 -0.01 l
323.98 259.56 lineto
0.50 0 l
0.51 0 l
0.50 -0.01 l
0.50 0 l
0.51 0 l
0.50 -0.01 l
0.50 0 l
0.51 0 l
0.50 0 l
0.50 0 l
0.51 0 l
o
0.3490 0.7608 0 srgb
np
32.04 259.54 m
0.59 0 l
0.59 0 l
0.59 0 l
0.59 0 l
0.60 0 l
0.59 0 l
0.59 0 l
0.59 0.01 l
0.59 0 l
0.59 0 l
0.59 0.01 l
0.59 0 l
0.59 0 l
0.60 0.01 l
0.59 0 l
0.59 0.01 l
0.59 0.01 l
0.59 0 l
0.59 0.01 l
0.59 0.01 l
0.59 0.01 l
0.59 0.01 l
0.60 0.01 l
0.59 0.01 l
0.59 0.01 l
0.59 0.01 l
0.59 0.01 l
0.59 0.01 l
0.59 0.02 l
0.59 0.01 l
0.59 0.01 l
0.60 0.01 l
0.59 0.01 l
0.59 0.01 l
0.59 0.01 l
0.59 0.01 l
0.59 0.01 l
0.59 0 l
0.59 0.01 l
0.59 0 l
0.60 0.01 l
0.59 0 l
0.59 0 l
0.59 0 l
0.59 0 l
0.59 -0.01 l
0.59 0 l
0.59 -0.01 l
0.59 0 l
0.60 -0.01 l
0.59 -0.01 l
0.59 -0.01 l
0.59 -0.01 l
0.59 -0.01 l
0.59 -0.01 l
0.59 -0.01 l
0.59 -0.01 l
0.59 -0.01 l
0.60 -0.02 l
0.59 -0.01 l
0.59 -0.01 l
0.59 -0.01 l
0.59 -0.01 l
0.59 -0.01 l
0.59 0 l
0.59 -0.01 l
0.59 -0.01 l
0.60 0 l
0.59 -0.01 l
0.59 0 l
0.59 0 l
0.59 0 l
0.59 0 l
0.59 0 l
0.59 0 l
0.59 0 l
0.60 0.01 l
0.59 0.01 l
0.59 0.01 l
0.59 0.01 l
0.59 0.01 l
0.59 0.01 l
0.59 0.01 l
0.59 0.02 l
0.59 0.02 l
0.59 0.01 l
0.60 0.02 l
0.59 0.03 l
0.59 0.02 l
0.59 0.02 l
0.59 0.03 l
0.59 0.02 l
0.59 0.03 l
0.59 0.02 l
0.59 0.03 l
0.60 0.03 l
0.59 0.02 l
0.59 0.03 l
0.59 0.03 l
91.15 260.08 lineto
0.59 0.02 l
0.59 0.03 l
0.59 0.02 l
0.59 0.02 l
0.60 0.03 l
0.59 0.02 l
0.59 0.02 l
0.59 0.02 l
0.59 0.02 l
0.59 0.02 l
0.59 0.02 l
0.59 0.02 l
0.59 0.01 l
0.60 0.02 l
0.59 0.02 l
0.59 0.02 l
0.59 0.02 l
0.59 0.02 l
0.59 0.02 l
0.59 0.02 l
0.59 0.02 l
0.59 0.03 l
0.60 0.02 l
0.59 0.03 l
0.59 0.03 l
0.59 0.03 l
0.59 0.03 l
0.59 0.04 l
0.59 0.03 l
0.59 0.04 l
0.59 0.04 l
0.60 0.04 l
0.59 0.04 l
0.59 0.05 l
0.59 0.04 l
0.59 0.05 l
0.59 0.05 l
0.59 0.05 l
0.59 0.05 l
0.59 0.05 l
0.60 0.06 l
0.59 0.05 l
0.59 0.06 l
0.59 0.07 l
0.59 0.06 l
0.59 0.07 l
0.59 0.07 l
0.59 0.07 l
0.59 0.07 l
0.60 0.08 l
0.59 0.08 l
0.59 0.09 l
0.59 0.09 l
0.59 0.09 l
0.59 0.09 l
0.59 0.10 l
0.59 0.10 l
0.59 0.11 l
0.60 0.11 l
0.59 0.12 l
0.59 0.11 l
0.59 0.13 l
0.59 0.12 l
0.59 0.14 l
0.59 0.13 l
0.59 0.15 l
0.59 0.15 l
0.60 0.15 l
0.59 0.16 l
0.59 0.18 l
0.59 0.18 l
0.59 0.18 l
0.59 0.20 l
0.59 0.21 l
0.59 0.23 l
0.59 0.23 l
0.59 0.25 l
0.60 0.26 l
0.59 0.28 l
0.59 0.30 l
0.59 0.31 l
0.59 0.33 l
0.59 0.35 l
0.59 0.36 l
0.59 0.39 l
0.59 0.40 l
0.60 0.43 l
0.59 0.43 l
0.59 0.46 l
0.59 0.47 l
0.59 0.49 l
0.59 0.50 l
0.59 0.52 l
0.59 0.53 l
0.59 0.54 l
0.60 0.55 l
0.59 0.56 l
0.59 0.57 l
0.59 0.58 l
150.26 275.98 lineto
0.59 0.58 l
0.59 0.59 l
0.59 0.59 l
0.59 0.59 l
0.60 0.60 l
0.59 0.60 l
0.59 0.59 l
0.59 0.60 l
0.59 0.60 l
0.59 0.60 l
0.59 0.61 l
0.59 0.60 l
0.59 0.61 l
0.60 0.60 l
0.59 0.61 l
0.59 0.62 l
0.59 0.61 l
0.59 0.62 l
0.59 0.62 l
0.59 0.62 l
0.59 0.63 l
0.59 0.63 l
0.60 0.63 l
0.59 0.64 l
0.59 0.63 l
0.59 0.64 l
0.59 0.65 l
0.59 0.64 l
0.59 0.65 l
0.59 0.65 l
0.59 0.65 l
0.60 0.66 l
0.59 0.65 l
0.59 0.66 l
0.59 0.67 l
0.59 0.66 l
0.59 0.68 l
0.59 0.67 l
0.59 0.68 l
0.59 0.68 l
0.60 0.69 l
0.59 0.70 l
0.59 0.70 l
0.59 0.71 l
0.59 0.71 l
0.59 0.72 l
0.59 0.72 l
0.59 0.74 l
0.59 0.73 l
0.60 0.74 l
0.59 0.75 l
0.59 0.74 l
0.59 0.75 l
0.59 0.75 l
0.59 0.75 l
0.59 0.74 l
0.59 0.74 l
0.59 0.74 l
0.59 0.72 l
0.60 0.72 l
0.59 0.70 l
0.59 0.69 l
0.59 0.68 l
0.59 0.66 l
0.59 0.64 l
0.59 0.62 l
0.59 0.60 l
0.59 0.58 l
0.60 0.56 l
0.59 0.54 l
0.59 0.52 l
0.59 0.50 l
0.59 0.47 l
0.59 0.45 l
0.59 0.44 l
0.59 0.42 l
0.59 0.40 l
0.60 0.38 l
0.59 0.37 l
0.59 0.35 l
0.59 0.35 l
0.59 0.33 l
0.59 0.32 l
0.59 0.31 l
0.59 0.31 l
0.59 0.29 l
0.60 0.29 l
0.59 0.28 l
0.59 0.28 l
0.59 0.26 l
0.59 0.26 l
0.59 0.25 l
0.59 0.24 l
0.59 0.22 l
0.59 0.22 l
0.60 0.20 l
0.59 0.20 l
0.59 0.17 l
0.59 0.17 l
209.37 331.31 lineto
0.59 0.13 l
0.59 0.11 l
0.59 0.09 l
0.59 0.07 l
0.60 0.05 l
0.59 0.02 l
0.59 0.01 l
0.59 -0.02 l
0.59 -0.04 l
0.59 -0.07 l
0.59 -0.10 l
0.59 -0.12 l
0.59 -0.15 l
0.60 -0.17 l
0.59 -0.20 l
0.59 -0.24 l
0.59 -0.27 l
0.59 -0.30 l
0.59 -0.33 l
0.59 -0.37 l
0.59 -0.40 l
0.59 -0.44 l
0.60 -0.47 l
0.59 -0.51 l
0.59 -0.54 l
0.59 -0.58 l
0.59 -0.62 l
0.59 -0.65 l
0.59 -0.68 l
0.59 -0.72 l
0.59 -0.74 l
0.60 -0.78 l
0.59 -0.80 l
0.59 -0.82 l
0.59 -0.85 l
0.59 -0.86 l
0.59 -0.88 l
0.59 -0.90 l
0.59 -0.90 l
0.59 -0.92 l
0.60 -0.91 l
0.59 -0.92 l
0.59 -0.93 l
0.59 -0.92 l
0.59 -0.91 l
0.59 -0.91 l
0.59 -0.91 l
0.59 -0.90 l
0.59 -0.88 l
0.59 -0.88 l
0.60 -0.87 l
0.59 -0.87 l
0.59 -0.85 l
0.59 -0.85 l
0.59 -0.83 l
0.59 -0.84 l
0.59 -0.82 l
0.59 -0.83 l
0.59 -0.81 l
0.60 -0.82 l
0.59 -0.82 l
0.59 -0.82 l
0.59 -0.81 l
0.59 -0.83 l
0.59 -0.82 l
0.59 -0.83 l
0.59 -0.84 l
0.59 -0.84 l
0.60 -0.85 l
0.59 -0.85 l
0.59 -0.85 l
0.59 -0.86 l
0.59 -0.86 l
0.59 -0.87 l
0.59 -0.86 l
0.59 -0.86 l
0.59 -0.85 l
0.60 -0.85 l
0.59 -0.84 l
0.59 -0.83 l
0.59 -0.81 l
0.59 -0.79 l
0.59 -0.78 l
0.59 -0.75 l
0.59 -0.74 l
0.59 -0.71 l
0.60 -0.67 l
0.59 -0.65 l
0.59 -0.62 l
0.59 -0.60 l
0.59 -0.56 l
0.59 -0.53 l
0.59 -0.49 l
0.59 -0.47 l
0.59 -0.44 l
0.60 -0.41 l
0.59 -0.38 l
0.59 -0.36 l
0.59 -0.32 l
268.48 269.66 lineto
0.59 -0.29 l
0.59 -0.27 l
0.59 -0.25 l
0.59 -0.24 l
0.60 -0.22 l
0.59 -0.22 l
0.59 -0.20 l
0.59 -0.19 l
0.59 -0.19 l
0.59 -0.18 l
0.59 -0.18 l
0.59 -0.18 l
0.59 -0.17 l
0.60 -0.17 l
0.59 -0.17 l
0.59 -0.17 l
0.59 -0.17 l
0.59 -0.17 l
0.59 -0.17 l
0.59 -0.17 l
0.59 -0.17 l
0.59 -0.17 l
0.60 -0.17 l
0.59 -0.17 l
0.59 -0.17 l
0.59 -0.17 l
0.59 -0.17 l
0.59 -0.16 l
0.59 -0.17 l
0.59 -0.17 l
0.59 -0.16 l
0.60 -0.16 l
0.59 -0.17 l
0.59 -0.15 l
0.59 -0.16 l
0.59 -0.15 l
0.59 -0.15 l
0.59 -0.15 l
0.59 -0.14 l
0.59 -0.14 l
0.59 -0.14 l
0.60 -0.13 l
0.59 -0.13 l
0.59 -0.12 l
0.59 -0.12 l
0.59 -0.12 l
0.59 -0.11 l
0.59 -0.10 l
0.59 -0.10 l
0.59 -0.10 l
0.60 -0.09 l
0.59 -0.09 l
0.59 -0.08 l
0.59 -0.08 l
0.59 -0.07 l
0.59 -0.07 l
0.59 -0.07 l
0.59 -0.06 l
0.59 -0.06 l
0.60 -0.06 l
0.59 -0.05 l
0.59 -0.05 l
0.59 -0.05 l
0.59 -0.05 l
0.59 -0.04 l
0.59 -0.05 l
0.59 -0.04 l
0.59 -0.04 l
0.60 -0.03 l
0.59 -0.04 l
0.59 -0.04 l
0.59 -0.03 l
0.59 -0.03 l
0.59 -0.04 l
0.59 -0.03 l
0.59 -0.03 l
0.59 -0.02 l
0.60 -0.03 l
0.59 -0.03 l
0.59 -0.02 l
0.59 -0.03 l
0.59 -0.02 l
0.59 -0.02 l
0.59 -0.02 l
0.59 -0.02 l
0.59 -0.02 l
0.60 -0.02 l
0.59 -0.01 l
0.59 -0.02 l
0.59 -0.01 l
0.59 -0.01 l
0.59 -0.01 l
0.59 -0.01 l
0.59 -0.01 l
0.59 -0.01 l
0.60 -0.01 l
0.59 -0.01 l
0.59 0 l
0.59 -0.01 l
327.59 259.56 lineto
0.59 -0.01 l
0.59 0 l
0.59 0 l
0.59 0 l
0.60 -0.01 l
0.59 0 l
0.59 0 l
0.59 0 l
0.59 0 l
0.59 0 l
0.59 0 l
o
0 0.7176 1 srgb
np
99.24 259.54 m
0.45 0 l
0.45 0 l
0.45 0 l
0.44 0.01 l
0.45 0 l
0.45 0 l
0.45 0 l
0.45 0.01 l
0.44 0 l
0.45 0.01 l
0.45 0 l
0.45 0.01 l
0.45 0.01 l
0.45 0.01 l
0.44 0.01 l
0.45 0.01 l
0.45 0.01 l
0.45 0.01 l
0.45 0.02 l
0.44 0.01 l
0.45 0.02 l
0.45 0.02 l
0.45 0.02 l
0.45 0.03 l
0.45 0.03 l
0.44 0.02 l
0.45 0.04 l
0.45 0.03 l
0.45 0.04 l
0.45 0.04 l
0.44 0.04 l
0.45 0.04 l
0.45 0.05 l
0.45 0.05 l
0.45 0.06 l
0.45 0.05 l
0.44 0.06 l
0.45 0.07 l
0.45 0.06 l
0.45 0.07 l
0.45 0.08 l
0.44 0.07 l
0.45 0.08 l
0.45 0.08 l
0.45 0.09 l
0.45 0.09 l
0.45 0.09 l
0.44 0.09 l
0.45 0.09 l
0.45 0.10 l
0.45 0.10 l
0.45 0.10 l
0.45 0.11 l
0.44 0.10 l
0.45 0.11 l
0.45 0.11 l
0.45 0.11 l
0.45 0.12 l
0.44 0.11 l
0.45 0.12 l
0.45 0.12 l
0.45 0.12 l
0.45 0.13 l
0.45 0.12 l
0.44 0.13 l
0.45 0.13 l
0.45 0.13 l
0.45 0.13 l
0.45 0.14 l
0.44 0.14 l
0.45 0.14 l
0.45 0.14 l
0.45 0.15 l
0.45 0.15 l
0.45 0.15 l
0.44 0.16 l
0.45 0.16 l
0.45 0.16 l
0.45 0.17 l
0.45 0.17 l
0.44 0.18 l
0.45 0.17 l
0.45 0.18 l
0.45 0.19 l
0.45 0.19 l
0.45 0.19 l
0.44 0.19 l
0.45 0.20 l
0.45 0.20 l
0.45 0.21 l
0.45 0.20 l
0.44 0.21 l
0.45 0.20 l
0.45 0.21 l
0.45 0.21 l
0.45 0.21 l
0.45 0.21 l
0.44 0.20 l
0.45 0.21 l
144.06 269.26 lineto
0.45 0.21 l
0.45 0.19 l
0.44 0.20 l
0.45 0.19 l
0.45 0.19 l
0.45 0.19 l
0.45 0.18 l
0.45 0.18 l
0.44 0.17 l
0.45 0.17 l
0.45 0.17 l
0.45 0.17 l
0.45 0.16 l
0.44 0.17 l
0.45 0.16 l
0.45 0.16 l
0.45 0.17 l
0.45 0.16 l
0.45 0.17 l
0.44 0.17 l
0.45 0.18 l
0.45 0.19 l
0.45 0.19 l
0.45 0.20 l
0.44 0.20 l
0.45 0.22 l
0.45 0.23 l
0.45 0.24 l
0.45 0.24 l
0.45 0.27 l
0.44 0.27 l
0.45 0.29 l
0.45 0.30 l
0.45 0.31 l
0.45 0.33 l
0.44 0.34 l
0.45 0.35 l
0.45 0.36 l
0.45 0.38 l
0.45 0.39 l
0.45 0.41 l
0.44 0.41 l
0.45 0.43 l
0.45 0.44 l
0.45 0.45 l
0.45 0.46 l
0.45 0.46 l
0.44 0.48 l
0.45 0.50 l
0.45 0.50 l
0.45 0.51 l
0.45 0.52 l
0.44 0.53 l
0.45 0.54 l
0.45 0.55 l
0.45 0.56 l
0.45 0.57 l
0.45 0.59 l
0.44 0.59 l
0.45 0.60 l
0.45 0.61 l
0.45 0.62 l
0.45 0.63 l
0.44 0.63 l
0.45 0.65 l
0.45 0.65 l
0.45 0.66 l
0.45 0.66 l
0.45 0.67 l
0.44 0.68 l
0.45 0.67 l
0.45 0.68 l
0.45 0.68 l
0.45 0.68 l
0.44 0.68 l
0.45 0.68 l
0.45 0.67 l
0.45 0.67 l
0.45 0.66 l
0.45 0.65 l
0.44 0.65 l
0.45 0.64 l
0.45 0.63 l
0.45 0.62 l
0.45 0.61 l
0.44 0.60 l
0.45 0.59 l
0.45 0.58 l
0.45 0.57 l
0.45 0.56 l
0.45 0.55 l
0.44 0.55 l
0.45 0.53 l
0.45 0.53 l
0.45 0.52 l
0.45 0.52 l
0.44 0.52 l
0.45 0.51 l
0.45 0.51 l
188.88 312.85 lineto
0.45 0.51 l
0.45 0.51 l
0.44 0.52 l
0.45 0.52 l
0.45 0.52 l
0.45 0.53 l
0.45 0.53 l
0.44 0.54 l
0.45 0.54 l
0.45 0.55 l
0.45 0.55 l
0.45 0.57 l
0.45 0.56 l
0.44 0.57 l
0.45 0.58 l
0.45 0.58 l
0.45 0.58 l
0.45 0.58 l
0.44 0.58 l
0.45 0.59 l
0.45 0.58 l
0.45 0.57 l
0.45 0.58 l
0.45 0.57 l
0.44 0.56 l
0.45 0.55 l
0.45 0.54 l
0.45 0.54 l
0.45 0.52 l
0.44 0.50 l
0.45 0.50 l
0.45 0.48 l
0.45 0.46 l
0.45 0.44 l
0.45 0.43 l
0.44 0.41 l
0.45 0.40 l
0.45 0.37 l
0.45 0.35 l
0.45 0.34 l
0.45 0.31 l
0.44 0.30 l
0.45 0.27 l
0.45 0.26 l
0.45 0.24 l
0.45 0.22 l
0.44 0.20 l
0.45 0.18 l
0.45 0.17 l
0.45 0.14 l
0.45 0.14 l
0.45 0.11 l
0.44 0.10 l
0.45 0.08 l
0.45 0.07 l
0.45 0.05 l
0.45 0.04 l
0.44 0.02 l
0.45 0.02 l
0.45 0 l
0.45 -0.02 l
0.45 -0.03 l
0.45 -0.04 l
0.44 -0.06 l
0.45 -0.07 l
0.45 -0.08 l
0.45 -0.10 l
0.45 -0.11 l
0.44 -0.12 l
0.45 -0.13 l
0.45 -0.16 l
0.45 -0.16 l
0.45 -0.19 l
0.45 -0.19 l
0.44 -0.22 l
0.45 -0.23 l
0.45 -0.24 l
0.45 -0.27 l
0.45 -0.28 l
0.44 -0.30 l
0.45 -0.33 l
0.45 -0.34 l
0.45 -0.36 l
0.45 -0.38 l
0.45 -0.41 l
0.44 -0.43 l
0.45 -0.45 l
0.45 -0.47 l
0.45 -0.50 l
0.45 -0.53 l
0.44 -0.55 l
0.45 -0.57 l
0.45 -0.59 l
0.45 -0.63 l
0.45 -0.65 l
0.45 -0.68 l
0.44 -0.70 l
0.45 -0.72 l
0.45 -0.76 l
233.70 322.65 lineto
0.45 -0.80 l
0.44 -0.81 l
0.45 -0.84 l
0.45 -0.86 l
0.45 -0.87 l
0.45 -0.89 l
0.45 -0.90 l
0.44 -0.91 l
0.45 -0.93 l
0.45 -0.93 l
0.45 -0.93 l
0.45 -0.94 l
0.44 -0.94 l
0.45 -0.93 l
0.45 -0.93 l
0.45 -0.92 l
0.45 -0.91 l
0.45 -0.90 l
0.44 -0.89 l
0.45 -0.87 l
0.45 -0.86 l
0.45 -0.83 l
0.45 -0.82 l
0.44 -0.79 l
0.45 -0.78 l
0.45 -0.75 l
0.45 -0.72 l
0.45 -0.71 l
0.45 -0.68 l
0.44 -0.66 l
0.45 -0.63 l
0.45 -0.61 l
0.45 -0.59 l
0.45 -0.58 l
0.45 -0.55 l
0.44 -0.53 l
0.45 -0.52 l
0.45 -0.50 l
0.45 -0.49 l
0.45 -0.48 l
0.44 -0.46 l
0.45 -0.46 l
0.45 -0.44 l
0.45 -0.44 l
0.45 -0.44 l
0.45 -0.42 l
0.44 -0.43 l
0.45 -0.42 l
0.45 -0.42 l
0.45 -0.42 l
0.45 -0.42 l
0.44 -0.42 l
0.45 -0.43 l
0.45 -0.42 l
0.45 -0.42 l
0.45 -0.43 l
0.45 -0.43 l
0.44 -0.43 l
0.45 -0.43 l
0.45 -0.43 l
0.45 -0.44 l
0.45 -0.43 l
0.44 -0.44 l
0.45 -0.43 l
0.45 -0.44 l
0.45 -0.43 l
0.45 -0.44 l
0.45 -0.43 l
0.44 -0.43 l
0.45 -0.43 l
0.45 -0.42 l
0.45 -0.42 l
0.45 -0.42 l
0.44 -0.42 l
0.45 -0.41 l
0.45 -0.40 l
0.45 -0.41 l
0.45 -0.39 l
0.45 -0.39 l
0.44 -0.39 l
0.45 -0.38 l
0.45 -0.37 l
0.45 -0.37 l
0.45 -0.36 l
0.44 -0.36 l
0.45 -0.35 l
0.45 -0.35 l
0.45 -0.34 l
0.45 -0.33 l
0.45 -0.33 l
0.44 -0.33 l
0.45 -0.32 l
0.45 -0.31 l
0.45 -0.31 l
0.45 -0.30 l
0.44 -0.29 l
0.45 -0.29 l
0.45 -0.28 l
0.45 -0.28 l
278.52 268.13 lineto
0.45 -0.27 l
0.44 -0.26 l
0.45 -0.25 l
0.45 -0.24 l
0.45 -0.24 l
0.45 -0.24 l
0.44 -0.22 l
0.45 -0.22 l
0.45 -0.21 l
0.45 -0.21 l
0.45 -0.19 l
0.45 -0.19 l
0.44 -0.18 l
0.45 -0.18 l
0.45 -0.17 l
0.45 -0.16 l
0.45 -0.16 l
0.44 -0.15 l
0.45 -0.14 l
0.45 -0.14 l
0.45 -0.13 l
0.45 -0.13 l
0.45 -0.12 l
0.44 -0.12 l
0.45 -0.11 l
0.45 -0.11 l
0.45 -0.10 l
0.45 -0.10 l
0.45 -0.10 l
0.44 -0.09 l
0.45 -0.09 l
0.45 -0.09 l
0.45 -0.09 l
0.45 -0.08 l
0.44 -0.09 l
0.45 -0.08 l
0.45 -0.08 l
0.45 -0.08 l
0.45 -0.07 l
0.45 -0.08 l
0.44 -0.08 l
0.45 -0.07 l
0.45 -0.08 l
0.45 -0.07 l
0.45 -0.07 l
0.44 -0.08 l
0.45 -0.07 l
0.45 -0.07 l
0.45 -0.07 l
0.45 -0.07 l
0.45 -0.07 l
0.44 -0.07 l
0.45 -0.07 l
0.45 -0.07 l
0.45 -0.07 l
0.45 -0.06 l
0.44 -0.07 l
0.45 -0.07 l
0.45 -0.06 l
0.45 -0.06 l
0.45 -0.06 l
0.45 -0.07 l
0.44 -0.05 l
0.45 -0.06 l
0.45 -0.06 l
0.45 -0.05 l
0.45 -0.06 l
0.44 -0.05 l
0.45 -0.05 l
0.45 -0.05 l
0.45 -0.04 l
0.45 -0.05 l
0.45 -0.04 l
0.44 -0.04 l
0.45 -0.04 l
0.45 -0.04 l
0.45 -0.03 l
0.45 -0.03 l
0.44 -0.04 l
0.45 -0.02 l
0.45 -0.03 l
0.45 -0.03 l
0.45 -0.02 l
0.45 -0.02 l
0.44 -0.02 l
0.45 -0.02 l
0.45 -0.02 l
0.45 -0.01 l
0.45 -0.02 l
0.44 -0.01 l
0.45 -0.01 l
0.45 -0.01 l
0.45 -0.01 l
0.45 -0.01 l
0.45 -0.01 l
0.44 -0.01 l
0.45 0 l
0.45 -0.01 l
0.45 -0.01 l
323.34 259.56 lineto
0.44 0 l
0.45 -0.01 l
0.45 0 l
0.45 0 l
0.45 0 l
0.45 -0.01 l
0.44 0 l
0.45 0 l
0.45 0 l
0.45 0 l
0.45 0 l
o
19.96 138.21 346.17 221.29 cl
0.00 118.25 349.50 236.50 cl
/Font2 findfont 10 s
0 0 0 srgb
183.07 225.31 (Tmax) .5 0 t
0.00 0.00 349.50 354.75 cl
0 0 0 srgb
0.75 setlinewidth
[] 0 setdash
1 setlinecap
1 setlinejoin
10.00 setmiterlimit
np
99.05 138.21 m
0 -4.75 l
o
np
180.21 138.21 m
0 -4.75 l
o
np
261.37 138.21 m
0 -4.75 l
o
np
342.54 138.21 m
0 -4.75 l
o
/Font1 findfont 8 s
99.05 124.90 (2.45) .5 0 t
180.21 124.90 (2.50) .5 0 t
261.37 124.90 (2.55) .5 0 t
342.54 124.90 (2.60) .5 0 t
np
19.96 141.28 m
-4.75 0 l
o
np
19.96 158.86 m
-4.75 0 l
o
np
19.96 176.44 m
-4.75 0 l
o
np
19.96 194.02 m
-4.75 0 l
o
np
19.96 211.60 m
-4.75 0 l
o
12.36 141.28 (0) .5 90 t
12.36 158.86 (5) .5 90 t
12.36 176.44 (10) .5 90 t
12.36 194.02 (15) .5 90 t
12.36 211.60 (20) .5 90 t
19.96 138.21 346.17 221.29 cl
/bg { 0.8510 0.8510 0.8510 srgb } def
19.96 138.21 326.22 83.09 r p2
0.9020 0.9020 0.9020 srgb
1.50 setlinewidth
[] 0 setdash
1 setlinecap
1 setlinejoin
10.00 setmiterlimit
np
99.05 138.21 m
0 83.08 l
o
np
180.21 138.21 m
0 83.08 l
o
np
261.37 138.21 m
0 83.08 l
o
np
342.54 138.21 m
0 83.08 l
o
np
19.96 141.28 m
326.21 0 l
o
np
19.96 158.86 m
326.21 0 l
o
np
19.96 176.44 m
326.21 0 l
o
np
19.96 194.02 m
326.21 0 l
o
np
19.96 211.60 m
326.21 0 l
o
0.75 setlinewidth
[] 0 setdash
np
58.46 138.21 m
0 83.08 l
o
np
139.63 138.21 m
0 83.08 l
o
np
220.79 138.21 m
0 83.08 l
o
np
301.95 138.21 m
0 83.08 l
o
np
19.96 132.49 m
326.21 0 l
o
np
19.96 150.07 m
326.21 0 l
o
np
19.96 167.65 m
326.21 0 l
o
np
19.96 185.23 m
326.21 0 l
o
np
19.96 202.81 m
326.21 0 l
o
np
19.96 220.39 m
326.21 0 l
o
1 0.4784 0.6196 srgb
np
32.04 141.29 m
0.52 0 l
0.52 0 l
0.52 0 l
0.51 0 l
0.52 0 l
0.52 0 l
0.52 0 l
0.52 0 l
0.52 0.01 l
0.51 0 l
0.52 0 l
0.52 0 l
0.52 0.01 l
0.52 0 l
0.52 0.01 l
0.51 0 l
0.52 0.01 l
0.52 0 l
0.52 0.01 l
0.52 0 l
0.52 0.01 l
0.51 0.01 l
0.52 0.01 l
0.52 0.01 l
0.52 0.01 l
0.52 0.01 l
0.52 0.01 l
0.51 0.01 l
0.52 0.01 l
0.52 0.02 l
0.52 0.01 l
0.52 0.02 l
0.52 0.01 l
0.51 0.02 l
0.52 0.01 l
0.52 0.02 l
0.52 0.02 l
0.52 0.01 l
0.52 0.02 l
0.51 0.02 l
0.52 0.01 l
0.52 0.02 l
0.52 0.02 l
0.52 0.01 l
0.52 0.02 l
0.51 0.02 l
0.52 0.01 l
0.52 0.02 l
0.52 0.01 l
0.52 0.01 l
0.52 0.02 l
0.52 0.01 l
0.51 0.01 l
0.52 0.01 l
0.52 0.01 l
0.52 0.01 l
0.52 0.01 l
0.52 0.01 l
0.51 0.01 l
0.52 0.01 l
0.52 0.02 l
0.52 0.01 l
0.52 0.01 l
0.52 0.02 l
0.51 0.01 l
0.52 0.02 l
0.52 0.02 l
0.52 0.03 l
0.52 0.02 l
0.52 0.04 l
0.51 0.03 l
0.52 0.04 l
0.52 0.04 l
0.52 0.05 l
0.52 0.06 l
0.52 0.06 l
0.51 0.06 l
0.52 0.07 l
0.52 0.08 l
0.52 0.09 l
0.52 0.09 l
0.52 0.10 l
0.51 0.10 l
0.52 0.12 l
0.52 0.12 l
0.52 0.12 l
0.52 0.14 l
0.52 0.14 l
0.51 0.15 l
0.52 0.15 l
0.52 0.16 l
0.52 0.17 l
0.52 0.17 l
0.52 0.17 l
0.51 0.18 l
0.52 0.19 l
0.52 0.19 l
0.52 0.19 l
0.52 0.20 l
83.88 145.70 lineto
0.51 0.20 l
0.52 0.20 l
0.52 0.21 l
0.52 0.20 l
0.52 0.21 l
0.52 0.21 l
0.51 0.20 l
0.52 0.21 l
0.52 0.21 l
0.52 0.20 l
0.52 0.21 l
0.52 0.21 l
0.51 0.20 l
0.52 0.21 l
0.52 0.20 l
0.52 0.20 l
0.52 0.21 l
0.52 0.20 l
0.51 0.21 l
0.52 0.21 l
0.52 0.21 l
0.52 0.21 l
0.52 0.21 l
0.52 0.21 l
0.52 0.22 l
0.51 0.22 l
0.52 0.22 l
0.52 0.23 l
0.52 0.24 l
0.52 0.23 l
0.52 0.24 l
0.51 0.25 l
0.52 0.26 l
0.52 0.26 l
0.52 0.26 l
0.52 0.27 l
0.52 0.28 l
0.51 0.29 l
0.52 0.29 l
0.52 0.29 l
0.52 0.31 l
0.52 0.31 l
0.52 0.32 l
0.51 0.32 l
0.52 0.33 l
0.52 0.34 l
0.52 0.34 l
0.52 0.35 l
0.52 0.36 l
0.51 0.37 l
0.52 0.37 l
0.52 0.38 l
0.52 0.39 l
0.52 0.39 l
0.52 0.40 l
0.51 0.41 l
0.52 0.42 l
0.52 0.42 l
0.52 0.43 l
0.52 0.44 l
0.52 0.46 l
0.51 0.45 l
0.52 0.47 l
0.52 0.48 l
0.52 0.48 l
0.52 0.50 l
0.52 0.50 l
0.51 0.52 l
0.52 0.52 l
0.52 0.53 l
0.52 0.54 l
0.52 0.54 l
0.52 0.56 l
0.51 0.56 l
0.52 0.57 l
0.52 0.57 l
0.52 0.58 l
0.52 0.59 l
0.52 0.58 l
0.51 0.59 l
0.52 0.60 l
0.52 0.59 l
0.52 0.59 l
0.52 0.60 l
0.52 0.59 l
0.51 0.59 l
0.52 0.58 l
0.52 0.58 l
0.52 0.58 l
0.52 0.57 l
0.52 0.56 l
0.51 0.55 l
0.52 0.55 l
0.52 0.54 l
0.52 0.53 l
0.52 0.53 l
0.52 0.51 l
0.52 0.51 l
0.51 0.50 l
135.71 183.83 lineto
0.52 0.48 l
0.52 0.48 l
0.52 0.47 l
0.52 0.47 l
0.51 0.46 l
0.52 0.46 l
0.52 0.45 l
0.52 0.46 l
0.52 0.45 l
0.52 0.45 l
0.51 0.45 l
0.52 0.46 l
0.52 0.46 l
0.52 0.46 l
0.52 0.47 l
0.52 0.48 l
0.51 0.48 l
0.52 0.49 l
0.52 0.50 l
0.52 0.51 l
0.52 0.52 l
0.52 0.53 l
0.51 0.54 l
0.52 0.55 l
0.52 0.56 l
0.52 0.57 l
0.52 0.57 l
0.52 0.59 l
0.51 0.60 l
0.52 0.60 l
0.52 0.60 l
0.52 0.61 l
0.52 0.61 l
0.52 0.61 l
0.51 0.61 l
0.52 0.60 l
0.52 0.60 l
0.52 0.59 l
0.52 0.58 l
0.52 0.57 l
0.51 0.55 l
0.52 0.53 l
0.52 0.51 l
0.52 0.49 l
0.52 0.46 l
0.52 0.44 l
0.51 0.40 l
0.52 0.38 l
0.52 0.34 l
0.52 0.32 l
0.52 0.27 l
0.52 0.24 l
0.51 0.20 l
0.52 0.17 l
0.52 0.13 l
0.52 0.10 l
0.52 0.05 l
0.52 0.02 l
0.51 -0.02 l
0.52 -0.04 l
0.52 -0.09 l
0.52 -0.12 l
0.52 -0.14 l
0.52 -0.18 l
0.52 -0.20 l
0.51 -0.23 l
0.52 -0.26 l
0.52 -0.27 l
0.52 -0.30 l
0.52 -0.32 l
0.52 -0.34 l
0.51 -0.35 l
0.52 -0.36 l
0.52 -0.38 l
0.52 -0.39 l
0.52 -0.40 l
0.52 -0.41 l
0.51 -0.42 l
0.52 -0.42 l
0.52 -0.43 l
0.52 -0.44 l
0.52 -0.44 l
0.52 -0.44 l
0.51 -0.45 l
0.52 -0.45 l
0.52 -0.45 l
0.52 -0.46 l
0.52 -0.45 l
0.52 -0.46 l
0.51 -0.46 l
0.52 -0.46 l
0.52 -0.47 l
0.52 -0.46 l
0.52 -0.47 l
0.52 -0.46 l
0.51 -0.47 l
0.52 -0.47 l
0.52 -0.47 l
0.52 -0.47 l
187.55 195.18 lineto
0.52 -0.47 l
0.51 -0.47 l
0.52 -0.48 l
0.52 -0.47 l
0.52 -0.48 l
0.52 -0.48 l
0.52 -0.47 l
0.51 -0.48 l
0.52 -0.48 l
0.52 -0.49 l
0.52 -0.48 l
0.52 -0.48 l
0.52 -0.49 l
0.51 -0.49 l
0.52 -0.49 l
0.52 -0.50 l
0.52 -0.49 l
0.52 -0.50 l
0.52 -0.51 l
0.51 -0.51 l
0.52 -0.52 l
0.52 -0.52 l
0.52 -0.52 l
0.52 -0.53 l
0.52 -0.54 l
0.51 -0.54 l
0.52 -0.55 l
0.52 -0.56 l
0.52 -0.56 l
0.52 -0.56 l
0.52 -0.58 l
0.51 -0.57 l
0.52 -0.58 l
0.52 -0.59 l
0.52 -0.59 l
0.52 -0.59 l
0.52 -0.60 l
0.52 -0.60 l
0.51 -0.60 l
0.52 -0.60 l
0.52 -0.60 l
0.52 -0.61 l
0.52 -0.60 l
0.52 -0.60 l
0.51 -0.60 l
0.52 -0.59 l
0.52 -0.60 l
0.52 -0.59 l
0.52 -0.58 l
0.52 -0.58 l
0.51 -0.58 l
0.52 -0.57 l
0.52 -0.57 l
0.52 -0.56 l
0.52 -0.55 l
0.52 -0.55 l
0.51 -0.54 l
0.52 -0.53 l
0.52 -0.53 l
0.52 -0.52 l
0.52 -0.51 l
0.52 -0.50 l
0.51 -0.49 l
0.52 -0.49 l
0.52 -0.48 l
0.52 -0.46 l
0.52 -0.46 l
0.52 -0.45 l
0.51 -0.44 l
0.52 -0.44 l
0.52 -0.42 l
0.52 -0.41 l
0.52 -0.40 l
0.52 -0.40 l
0.51 -0.38 l
0.52 -0.38 l
0.52 -0.36 l
0.52 -0.36 l
0.52 -0.34 l
0.52 -0.34 l
0.51 -0.33 l
0.52 -0.32 l
0.52 -0.32 l
0.52 -0.30 l
0.52 -0.30 l
0.52 -0.29 l
0.51 -0.28 l
0.52 -0.28 l
0.52 -0.27 l
0.52 -0.26 l
0.52 -0.26 l
0.52 -0.26 l
0.51 -0.25 l
0.52 -0.24 l
0.52 -0.24 l
0.52 -0.24 l
0.52 -0.23 l
0.52 -0.23 l
0.51 -0.23 l
239.38 148.86 lineto
0.52 -0.22 l
0.52 -0.22 l
0.52 -0.22 l
0.52 -0.21 l
0.51 -0.21 l
0.52 -0.21 l
0.52 -0.21 l
0.52 -0.20 l
0.52 -0.20 l
0.52 -0.20 l
0.52 -0.20 l
0.51 -0.19 l
0.52 -0.19 l
0.52 -0.18 l
0.52 -0.18 l
0.52 -0.18 l
0.52 -0.17 l
0.51 -0.17 l
0.52 -0.17 l
0.52 -0.15 l
0.52 -0.16 l
0.52 -0.14 l
0.52 -0.14 l
0.51 -0.14 l
0.52 -0.13 l
0.52 -0.12 l
0.52 -0.11 l
0.52 -0.11 l
0.52 -0.10 l
0.51 -0.10 l
0.52 -0.09 l
0.52 -0.08 l
0.52 -0.08 l
0.52 -0.07 l
0.52 -0.07 l
0.51 -0.06 l
0.52 -0.05 l
0.52 -0.05 l
0.52 -0.05 l
0.52 -0.04 l
0.52 -0.04 l
0.51 -0.04 l
0.52 -0.04 l
0.52 -0.03 l
0.52 -0.03 l
0.52 -0.03 l
0.52 -0.03 l
0.51 -0.03 l
0.52 -0.02 l
0.52 -0.03 l
0.52 -0.03 l
0.52 -0.03 l
0.52 -0.03 l
0.51 -0.03 l
0.52 -0.03 l
0.52 -0.04 l
0.52 -0.03 l
0.52 -0.04 l
0.52 -0.03 l
0.51 -0.04 l
0.52 -0.04 l
0.52 -0.04 l
0.52 -0.05 l
0.52 -0.04 l
0.52 -0.04 l
0.51 -0.05 l
0.52 -0.04 l
0.52 -0.04 l
0.52 -0.05 l
0.52 -0.04 l
0.52 -0.04 l
0.51 -0.05 l
0.52 -0.04 l
0.52 -0.04 l
0.52 -0.04 l
0.52 -0.03 l
0.52 -0.04 l
0.52 -0.04 l
0.51 -0.03 l
0.52 -0.03 l
0.52 -0.03 l
0.52 -0.03 l
0.52 -0.03 l
0.52 -0.02 l
0.51 -0.02 l
0.52 -0.02 l
0.52 -0.02 l
0.52 -0.02 l
0.52 -0.02 l
0.52 -0.02 l
0.51 -0.01 l
0.52 -0.01 l
0.52 -0.01 l
0.52 -0.01 l
0.52 -0.01 l
0.52 -0.01 l
0.51 -0.01 l
0.52 -0.01 l
0.52 0 l
291.22 141.31 lineto
0.52 0 l
0.52 0 l
0.51 -0.01 l
0.52 0 l
0.52 0 l
0.52 -0.01 l
0.52 0 l
0.52 0 l
0.51 0 l
0.52 0 l
0.52 0 l
o
0.3490 0.7608 0 srgb
np
34.45 141.29 m
0.59 0 l
0.58 0 l
0.59 0 l
0.59 0 l
0.58 0 l
0.59 0 l
0.59 0 l
0.58 0.01 l
0.59 0 l
0.59 0 l
0.58 0.01 l
0.59 0 l
0.58 0 l
0.59 0.01 l
0.59 0 l
0.58 0.01 l
0.59 0.01 l
0.59 0 l
0.58 0.01 l
0.59 0.01 l
0.59 0.01 l
0.58 0.01 l
0.59 0.01 l
0.58 0.01 l
0.59 0.01 l
0.59 0.02 l
0.58 0.01 l
0.59 0.01 l
0.59 0.01 l
0.58 0.02 l
0.59 0.01 l
0.59 0.02 l
0.58 0.01 l
0.59 0.01 l
0.59 0.02 l
0.58 0.01 l
0.59 0.02 l
0.58 0.01 l
0.59 0.01 l
0.59 0.02 l
0.58 0.01 l
0.59 0.01 l
0.59 0.02 l
0.58 0.01 l
0.59 0.02 l
0.59 0.01 l
0.58 0.01 l
0.59 0.02 l
0.58 0.02 l
0.59 0.01 l
0.59 0.02 l
0.58 0.02 l
0.59 0.02 l
0.59 0.02 l
0.58 0.02 l
0.59 0.02 l
0.59 0.03 l
0.58 0.02 l
0.59 0.03 l
0.58 0.03 l
0.59 0.02 l
0.59 0.03 l
0.58 0.03 l
0.59 0.03 l
0.59 0.03 l
0.58 0.03 l
0.59 0.04 l
0.59 0.03 l
0.58 0.03 l
0.59 0.03 l
0.58 0.03 l
0.59 0.03 l
0.59 0.03 l
0.58 0.03 l
0.59 0.04 l
0.59 0.03 l
0.58 0.03 l
0.59 0.03 l
0.59 0.03 l
0.58 0.04 l
0.59 0.03 l
0.58 0.04 l
0.59 0.04 l
0.59 0.04 l
0.58 0.04 l
0.59 0.05 l
0.59 0.05 l
0.58 0.06 l
0.59 0.06 l
0.59 0.06 l
0.58 0.08 l
0.59 0.08 l
0.59 0.08 l
0.58 0.10 l
0.59 0.10 l
0.58 0.12 l
0.59 0.12 l
0.59 0.14 l
0.58 0.15 l
93.09 144.22 lineto
0.59 0.17 l
0.58 0.19 l
0.59 0.21 l
0.59 0.22 l
0.58 0.23 l
0.59 0.25 l
0.58 0.26 l
0.59 0.28 l
0.59 0.30 l
0.58 0.31 l
0.59 0.32 l
0.59 0.33 l
0.58 0.35 l
0.59 0.36 l
0.59 0.36 l
0.58 0.38 l
0.59 0.38 l
0.58 0.39 l
0.59 0.40 l
0.59 0.40 l
0.58 0.40 l
0.59 0.41 l
0.59 0.41 l
0.58 0.40 l
0.59 0.41 l
0.59 0.40 l
0.58 0.40 l
0.59 0.40 l
0.58 0.39 l
0.59 0.40 l
0.59 0.39 l
0.58 0.39 l
0.59 0.39 l
0.59 0.38 l
0.58 0.39 l
0.59 0.39 l
0.59 0.39 l
0.58 0.40 l
0.59 0.40 l
0.58 0.41 l
0.59 0.42 l
0.59 0.43 l
0.58 0.44 l
0.59 0.45 l
0.59 0.47 l
0.58 0.49 l
0.59 0.50 l
0.59 0.53 l
0.58 0.54 l
0.59 0.57 l
0.59 0.58 l
0.58 0.61 l
0.59 0.63 l
0.58 0.64 l
0.59 0.67 l
0.59 0.69 l
0.58 0.70 l
0.59 0.72 l
0.59 0.74 l
0.58 0.75 l
0.59 0.76 l
0.59 0.76 l
0.58 0.77 l
0.59 0.77 l
0.58 0.78 l
0.59 0.76 l
0.59 0.77 l
0.58 0.75 l
0.59 0.74 l
0.59 0.73 l
0.58 0.72 l
0.59 0.70 l
0.59 0.69 l
0.58 0.66 l
0.59 0.65 l
0.58 0.63 l
0.59 0.61 l
0.59 0.60 l
0.58 0.58 l
0.59 0.57 l
0.59 0.55 l
0.58 0.55 l
0.59 0.54 l
0.59 0.53 l
0.58 0.53 l
0.59 0.53 l
0.58 0.53 l
0.59 0.53 l
0.59 0.54 l
0.58 0.55 l
0.59 0.56 l
0.59 0.57 l
0.58 0.59 l
0.59 0.59 l
0.59 0.61 l
0.58 0.63 l
0.59 0.64 l
0.58 0.65 l
0.59 0.67 l
151.73 195.40 lineto
0.58 0.70 l
0.59 0.70 l
0.59 0.71 l
0.58 0.72 l
0.59 0.73 l
0.59 0.73 l
0.58 0.73 l
0.59 0.73 l
0.59 0.72 l
0.58 0.72 l
0.59 0.72 l
0.58 0.69 l
0.59 0.69 l
0.59 0.66 l
0.58 0.65 l
0.59 0.63 l
0.59 0.60 l
0.58 0.57 l
0.59 0.54 l
0.59 0.51 l
0.58 0.47 l
0.59 0.44 l
0.58 0.40 l
0.59 0.35 l
0.59 0.31 l
0.58 0.27 l
0.59 0.23 l
0.59 0.19 l
0.58 0.13 l
0.59 0.08 l
0.59 0.05 l
0.58 0 l
0.59 -0.04 l
0.58 -0.08 l
0.59 -0.13 l
0.59 -0.16 l
0.58 -0.20 l
0.59 -0.22 l
0.59 -0.26 l
0.58 -0.30 l
0.59 -0.31 l
0.59 -0.34 l
0.58 -0.36 l
0.59 -0.38 l
0.58 -0.39 l
0.59 -0.41 l
0.59 -0.41 l
0.58 -0.43 l
0.59 -0.43 l
0.59 -0.43 l
0.58 -0.45 l
0.59 -0.44 l
0.59 -0.45 l
0.58 -0.44 l
0.59 -0.45 l
0.58 -0.44 l
0.59 -0.45 l
0.59 -0.45 l
0.58 -0.44 l
0.59 -0.45 l
0.59 -0.45 l
0.58 -0.44 l
0.59 -0.45 l
0.59 -0.45 l
0.58 -0.44 l
0.59 -0.45 l
0.59 -0.46 l
0.58 -0.45 l
0.59 -0.46 l
0.58 -0.45 l
0.59 -0.46 l
0.59 -0.47 l
0.58 -0.46 l
0.59 -0.48 l
0.59 -0.47 l
0.58 -0.48 l
0.59 -0.48 l
0.59 -0.49 l
0.58 -0.50 l
0.59 -0.50 l
0.58 -0.51 l
0.59 -0.52 l
0.59 -0.53 l
0.58 -0.54 l
0.59 -0.55 l
0.59 -0.56 l
0.58 -0.57 l
0.59 -0.58 l
0.59 -0.60 l
0.58 -0.61 l
0.59 -0.63 l
0.58 -0.64 l
0.59 -0.66 l
0.59 -0.67 l
0.58 -0.69 l
0.59 -0.71 l
0.59 -0.72 l
0.58 -0.74 l
0.59 -0.75 l
210.37 180.19 lineto
0.58 -0.78 l
0.59 -0.80 l
0.58 -0.82 l
0.59 -0.82 l
0.59 -0.83 l
0.58 -0.85 l
0.59 -0.86 l
0.59 -0.86 l
0.58 -0.87 l
0.59 -0.87 l
0.59 -0.88 l
0.58 -0.87 l
0.59 -0.88 l
0.58 -0.87 l
0.59 -0.87 l
0.59 -0.85 l
0.58 -0.85 l
0.59 -0.84 l
0.59 -0.82 l
0.58 -0.81 l
0.59 -0.79 l
0.59 -0.77 l
0.58 -0.75 l
0.59 -0.73 l
0.59 -0.71 l
0.58 -0.68 l
0.59 -0.66 l
0.58 -0.63 l
0.59 -0.61 l
0.59 -0.58 l
0.58 -0.56 l
0.59 -0.53 l
0.59 -0.51 l
0.58 -0.48 l
0.59 -0.46 l
0.59 -0.44 l
0.58 -0.42 l
0.59 -0.40 l
0.58 -0.37 l
0.59 -0.36 l
0.59 -0.35 l
0.58 -0.33 l
0.59 -0.31 l
0.59 -0.30 l
0.58 -0.29 l
0.59 -0.28 l
0.59 -0.26 l
0.58 -0.27 l
0.59 -0.25 l
0.58 -0.24 l
0.59 -0.25 l
0.59 -0.23 l
0.58 -0.23 l
0.59 -0.23 l
0.59 -0.22 l
0.58 -0.23 l
0.59 -0.21 l
0.59 -0.22 l
0.58 -0.21 l
0.59 -0.21 l
0.58 -0.21 l
0.59 -0.20 l
0.59 -0.20 l
0.58 -0.19 l
0.59 -0.19 l
0.59 -0.19 l
0.58 -0.18 l
0.59 -0.17 l
0.59 -0.17 l
0.58 -0.16 l
0.59 -0.16 l
0.59 -0.14 l
0.58 -0.14 l
0.59 -0.13 l
0.58 -0.12 l
0.59 -0.12 l
0.59 -0.10 l
0.58 -0.10 l
0.59 -0.09 l
0.59 -0.08 l
0.58 -0.08 l
0.59 -0.07 l
0.59 -0.06 l
0.58 -0.06 l
0.59 -0.05 l
0.58 -0.05 l
0.59 -0.05 l
0.59 -0.04 l
0.58 -0.04 l
0.59 -0.04 l
0.59 -0.04 l
0.58 -0.03 l
0.59 -0.04 l
0.59 -0.04 l
0.58 -0.04 l
0.59 -0.04 l
0.58 -0.04 l
0.59 -0.05 l
0.59 -0.04 l
269.00 142.74 lineto
0.59 -0.05 l
0.59 -0.05 l
0.58 -0.06 l
0.59 -0.05 l
0.59 -0.06 l
0.58 -0.06 l
0.59 -0.06 l
0.58 -0.05 l
0.59 -0.06 l
0.59 -0.06 l
0.58 -0.06 l
0.59 -0.06 l
0.59 -0.06 l
0.58 -0.05 l
0.59 -0.05 l
0.59 -0.06 l
0.58 -0.04 l
0.59 -0.05 l
0.58 -0.04 l
0.59 -0.05 l
0.59 -0.03 l
0.58 -0.04 l
0.59 -0.03 l
0.59 -0.03 l
0.58 -0.03 l
0.59 -0.03 l
0.59 -0.02 l
0.58 -0.02 l
0.59 -0.02 l
0.59 -0.01 l
0.58 -0.02 l
0.59 -0.01 l
0.58 -0.01 l
0.59 -0.01 l
0.59 0 l
0.58 -0.01 l
0.59 0 l
0.59 0 l
0.58 0 l
0.59 0 l
0.59 0 l
0.58 0 l
0.59 0.01 l
0.58 0 l
0.59 0.01 l
0.59 0.01 l
0.58 0.01 l
0.59 0 l
0.59 0.01 l
0.58 0.01 l
0.59 0.01 l
0.59 0.02 l
0.58 0.01 l
0.59 0.01 l
0.58 0.01 l
0.59 0.01 l
0.59 0.01 l
0.58 0.01 l
0.59 0.01 l
0.59 0.01 l
0.58 0.01 l
0.59 0.01 l
0.59 0.01 l
0.58 0 l
0.59 0.01 l
0.58 0 l
0.59 0 l
0.59 0 l
0.58 0 l
0.59 0 l
0.59 0 l
0.58 0 l
0.59 -0.01 l
0.59 -0.01 l
0.58 0 l
0.59 -0.01 l
0.58 -0.01 l
0.59 -0.01 l
0.59 -0.01 l
0.58 -0.01 l
0.59 -0.01 l
0.59 -0.02 l
0.58 -0.01 l
0.59 -0.01 l
0.59 -0.01 l
0.58 -0.01 l
0.59 -0.01 l
0.59 -0.01 l
0.58 -0.01 l
0.59 -0.01 l
0.58 -0.01 l
0.59 -0.01 l
0.59 -0.01 l
0.58 0 l
0.59 -0.01 l
0.59 -0.01 l
0.58 0 l
0.59 -0.01 l
0.59 0 l
327.64 141.31 lineto
0.59 -0.01 l
0.58 0 l
0.59 0 l
0.59 -0.01 l
0.58 0 l
0.59 0 l
0.59 0 l
0.58 0 l
0.59 0 l
0.59 0 l
0.58 0 l
o
0 0.7176 1 srgb
np
47.52 141.29 m
0.45 0 l
0.44 0 l
0.45 0 l
0.44 0 l
0.45 0 l
0.44 0 l
0.45 0 l
0.44 0.01 l
0.45 0 l
0.44 0 l
0.45 0 l
0.44 0.01 l
0.45 0 l
0.44 0 l
0.45 0.01 l
0.44 0 l
0.45 0.01 l
0.44 0 l
0.45 0.01 l
0.44 0.01 l
0.45 0.01 l
0.44 0 l
0.45 0.01 l
0.44 0.01 l
0.45 0.01 l
0.44 0.02 l
0.45 0.01 l
0.44 0.01 l
0.45 0.02 l
0.44 0.01 l
0.45 0.02 l
0.44 0.02 l
0.45 0.02 l
0.44 0.02 l
0.45 0.02 l
0.44 0.02 l
0.45 0.02 l
0.44 0.03 l
0.45 0.02 l
0.44 0.03 l
0.45 0.03 l
0.44 0.03 l
0.45 0.02 l
0.44 0.03 l
0.45 0.04 l
0.44 0.03 l
0.45 0.03 l
0.44 0.03 l
0.45 0.04 l
0.44 0.03 l
0.45 0.04 l
0.44 0.03 l
0.45 0.04 l
0.44 0.04 l
0.45 0.03 l
0.44 0.04 l
0.45 0.04 l
0.44 0.04 l
0.45 0.04 l
0.44 0.04 l
0.45 0.05 l
0.44 0.04 l
0.45 0.05 l
0.44 0.04 l
0.45 0.05 l
0.44 0.05 l
0.45 0.05 l
0.44 0.05 l
0.45 0.05 l
0.44 0.06 l
0.45 0.06 l
0.44 0.06 l
0.45 0.06 l
0.44 0.06 l
0.45 0.07 l
0.44 0.07 l
0.45 0.07 l
0.44 0.08 l
0.45 0.08 l
0.44 0.08 l
0.45 0.08 l
0.44 0.09 l
0.45 0.09 l
0.44 0.10 l
0.45 0.10 l
0.44 0.10 l
0.45 0.11 l
0.44 0.10 l
0.45 0.12 l
0.44 0.11 l
0.45 0.12 l
0.44 0.13 l
0.45 0.12 l
0.44 0.13 l
0.45 0.14 l
0.44 0.13 l
0.45 0.15 l
0.44 0.14 l
0.45 0.15 l
92.02 145.91 lineto
0.45 0.15 l
0.44 0.16 l
0.45 0.16 l
0.44 0.16 l
0.45 0.17 l
0.44 0.17 l
0.45 0.18 l
0.44 0.17 l
0.45 0.19 l
0.44 0.18 l
0.45 0.19 l
0.44 0.19 l
0.45 0.20 l
0.44 0.20 l
0.45 0.20 l
0.44 0.21 l
0.45 0.21 l
0.44 0.21 l
0.45 0.22 l
0.44 0.22 l
0.45 0.23 l
0.44 0.23 l
0.45 0.23 l
0.45 0.24 l
0.44 0.24 l
0.45 0.25 l
0.44 0.25 l
0.45 0.25 l
0.44 0.26 l
0.45 0.26 l
0.44 0.26 l
0.45 0.27 l
0.44 0.27 l
0.45 0.27 l
0.44 0.28 l
0.45 0.28 l
0.44 0.28 l
0.45 0.28 l
0.44 0.29 l
0.45 0.29 l
0.44 0.29 l
0.45 0.29 l
0.44 0.29 l
0.45 0.30 l
0.44 0.30 l
0.45 0.30 l
0.44 0.31 l
0.45 0.31 l
0.44 0.31 l
0.45 0.32 l
0.44 0.32 l
0.45 0.33 l
0.44 0.34 l
0.45 0.34 l
0.44 0.35 l
0.45 0.35 l
0.44 0.37 l
0.45 0.37 l
0.44 0.39 l
0.45 0.40 l
0.44 0.41 l
0.45 0.42 l
0.44 0.43 l
0.45 0.45 l
0.44 0.47 l
0.45 0.48 l
0.44 0.49 l
0.45 0.51 l
0.44 0.53 l
0.45 0.55 l
0.44 0.56 l
0.45 0.58 l
0.44 0.59 l
0.45 0.61 l
0.44 0.63 l
0.45 0.64 l
0.44 0.65 l
0.45 0.67 l
0.44 0.69 l
0.45 0.69 l
0.44 0.70 l
0.45 0.72 l
0.44 0.72 l
0.45 0.73 l
0.44 0.74 l
0.45 0.74 l
0.44 0.74 l
0.45 0.75 l
0.44 0.74 l
0.45 0.74 l
0.44 0.75 l
0.45 0.74 l
0.44 0.73 l
0.45 0.73 l
0.44 0.72 l
0.45 0.71 l
0.44 0.71 l
0.45 0.70 l
0.44 0.69 l
136.53 186.97 lineto
0.44 0.66 l
0.45 0.66 l
0.44 0.65 l
0.45 0.64 l
0.44 0.64 l
0.45 0.62 l
0.44 0.61 l
0.45 0.61 l
0.44 0.60 l
0.45 0.59 l
0.44 0.59 l
0.45 0.59 l
0.44 0.58 l
0.45 0.58 l
0.44 0.58 l
0.45 0.57 l
0.44 0.58 l
0.45 0.58 l
0.44 0.58 l
0.45 0.58 l
0.44 0.59 l
0.45 0.58 l
0.44 0.59 l
0.45 0.60 l
0.44 0.60 l
0.45 0.59 l
0.44 0.61 l
0.45 0.60 l
0.44 0.60 l
0.45 0.61 l
0.44 0.60 l
0.45 0.60 l
0.44 0.60 l
0.45 0.60 l
0.44 0.59 l
0.45 0.58 l
0.44 0.58 l
0.45 0.56 l
0.44 0.56 l
0.45 0.54 l
0.44 0.53 l
0.45 0.52 l
0.44 0.50 l
0.45 0.48 l
0.44 0.46 l
0.45 0.45 l
0.44 0.43 l
0.45 0.41 l
0.44 0.38 l
0.45 0.37 l
0.44 0.35 l
0.45 0.32 l
0.44 0.30 l
0.45 0.28 l
0.44 0.25 l
0.45 0.24 l
0.44 0.21 l
0.45 0.18 l
0.44 0.17 l
0.45 0.15 l
0.44 0.12 l
0.45 0.10 l
0.44 0.08 l
0.45 0.05 l
0.44 0.04 l
0.45 0.01 l
0.44 -0.02 l
0.45 -0.03 l
0.44 -0.05 l
0.45 -0.08 l
0.44 -0.11 l
0.45 -0.12 l
0.44 -0.15 l
0.45 -0.17 l
0.44 -0.20 l
0.45 -0.22 l
0.44 -0.25 l
0.45 -0.27 l
0.44 -0.29 l
0.45 -0.32 l
0.44 -0.35 l
0.45 -0.37 l
0.44 -0.39 l
0.45 -0.42 l
0.44 -0.45 l
0.45 -0.46 l
0.44 -0.49 l
0.45 -0.50 l
0.44 -0.54 l
0.45 -0.55 l
0.44 -0.56 l
0.45 -0.58 l
0.44 -0.60 l
0.45 -0.62 l
0.45 -0.62 l
0.44 -0.63 l
0.45 -0.65 l
0.44 -0.65 l
0.45 -0.65 l
181.03 205.20 lineto
0.45 -0.66 l
0.44 -0.66 l
0.45 -0.66 l
0.44 -0.66 l
0.45 -0.65 l
0.44 -0.65 l
0.45 -0.65 l
0.44 -0.63 l
0.45 -0.63 l
0.44 -0.62 l
0.45 -0.61 l
0.44 -0.60 l
0.45 -0.59 l
0.44 -0.59 l
0.45 -0.57 l
0.44 -0.57 l
0.45 -0.56 l
0.44 -0.55 l
0.45 -0.55 l
0.44 -0.53 l
0.45 -0.54 l
0.44 -0.53 l
0.45 -0.52 l
0.44 -0.53 l
0.45 -0.52 l
0.44 -0.52 l
0.45 -0.52 l
0.44 -0.52 l
0.45 -0.52 l
0.44 -0.52 l
0.45 -0.53 l
0.44 -0.53 l
0.45 -0.53 l
0.44 -0.53 l
0.45 -0.54 l
0.44 -0.54 l
0.45 -0.55 l
0.44 -0.55 l
0.45 -0.55 l
0.44 -0.56 l
0.45 -0.56 l
0.44 -0.56 l
0.45 -0.57 l
0.44 -0.57 l
0.45 -0.57 l
0.44 -0.57 l
0.45 -0.58 l
0.44 -0.58 l
0.45 -0.57 l
0.44 -0.58 l
0.45 -0.58 l
0.44 -0.57 l
0.45 -0.58 l
0.44 -0.58 l
0.45 -0.57 l
0.44 -0.57 l
0.45 -0.57 l
0.44 -0.56 l
0.45 -0.57 l
0.44 -0.55 l
0.45 -0.56 l
0.44 -0.55 l
0.45 -0.55 l
0.44 -0.54 l
0.45 -0.53 l
0.44 -0.53 l
0.45 -0.53 l
0.44 -0.51 l
0.45 -0.52 l
0.44 -0.50 l
0.45 -0.50 l
0.44 -0.49 l
0.45 -0.48 l
0.44 -0.48 l
0.45 -0.46 l
0.44 -0.46 l
0.45 -0.46 l
0.44 -0.44 l
0.45 -0.43 l
0.44 -0.43 l
0.45 -0.42 l
0.44 -0.41 l
0.45 -0.40 l
0.44 -0.40 l
0.45 -0.38 l
0.44 -0.38 l
0.45 -0.37 l
0.44 -0.36 l
0.45 -0.35 l
0.44 -0.35 l
0.45 -0.33 l
0.44 -0.33 l
0.45 -0.32 l
0.44 -0.31 l
0.45 -0.31 l
0.44 -0.29 l
0.45 -0.29 l
0.44 -0.28 l
0.45 -0.28 l
225.53 154.18 lineto
0.45 -0.26 l
0.44 -0.25 l
0.45 -0.25 l
0.44 -0.24 l
0.45 -0.23 l
0.44 -0.22 l
0.45 -0.22 l
0.44 -0.22 l
0.45 -0.20 l
0.44 -0.21 l
0.45 -0.20 l
0.44 -0.19 l
0.45 -0.19 l
0.44 -0.19 l
0.45 -0.18 l
0.44 -0.18 l
0.45 -0.17 l
0.44 -0.18 l
0.45 -0.17 l
0.44 -0.17 l
0.45 -0.17 l
0.44 -0.17 l
0.45 -0.16 l
0.44 -0.17 l
0.45 -0.17 l
0.44 -0.17 l
0.45 -0.16 l
0.44 -0.17 l
0.45 -0.17 l
0.44 -0.17 l
0.45 -0.17 l
0.44 -0.17 l
0.45 -0.17 l
0.44 -0.17 l
0.45 -0.17 l
0.44 -0.18 l
0.45 -0.17 l
0.44 -0.17 l
0.45 -0.18 l
0.44 -0.17 l
0.45 -0.18 l
0.44 -0.17 l
0.45 -0.17 l
0.44 -0.18 l
0.45 -0.17 l
0.44 -0.17 l
0.45 -0.17 l
0.44 -0.16 l
0.45 -0.17 l
0.44 -0.16 l
0.45 -0.16 l
0.44 -0.16 l
0.45 -0.15 l
0.44 -0.15 l
0.45 -0.15 l
0.44 -0.15 l
0.45 -0.14 l
0.44 -0.13 l
0.45 -0.14 l
0.44 -0.13 l
0.45 -0.12 l
0.44 -0.12 l
0.45 -0.12 l
0.44 -0.11 l
0.45 -0.11 l
0.45 -0.10 l
0.44 -0.10 l
0.45 -0.10 l
0.44 -0.09 l
0.45 -0.09 l
0.44 -0.08 l
0.45 -0.08 l
0.44 -0.08 l
0.45 -0.07 l
0.44 -0.06 l
0.45 -0.07 l
0.44 -0.06 l
0.45 -0.05 l
0.44 -0.06 l
0.45 -0.04 l
0.44 -0.05 l
0.45 -0.04 l
0.44 -0.04 l
0.45 -0.04 l
0.44 -0.03 l
0.45 -0.03 l
0.44 -0.03 l
0.45 -0.03 l
0.44 -0.02 l
0.45 -0.02 l
0.44 -0.02 l
0.45 -0.02 l
0.44 -0.02 l
0.45 -0.01 l
0.44 -0.01 l
0.45 -0.02 l
0.44 -0.01 l
0.45 -0.01 l
0.44 0 l
270.04 141.33 lineto
0.44 -0.01 l
0.45 0 l
0.44 -0.01 l
0.45 0 l
0.44 -0.01 l
0.45 0 l
0.44 0 l
0.45 0 l
0.44 -0.01 l
0.45 0 l
0.44 0 l
o
19.96 19.96 346.17 103.04 cl
0.00 0.00 349.50 118.25 cl
/Font2 findfont 10 s
0 0 0 srgb
183.07 107.06 (diffusivity) .5 0 t
0.00 0.00 349.50 354.75 cl
0 0 0 srgb
0.75 setlinewidth
[] 0 setdash
1 setlinecap
1 setlinejoin
10.00 setmiterlimit
np
48.21 19.96 m
0 -4.75 l
o
np
90.86 19.96 m
0 -4.75 l
o
np
133.50 19.96 m
0 -4.75 l
o
np
176.15 19.96 m
0 -4.75 l
o
np
218.80 19.96 m
0 -4.75 l
o
np
261.45 19.96 m
0 -4.75 l
o
np
304.10 19.96 m
0 -4.75 l
o
/Font1 findfont 8 s
48.21 6.65 (0.71) .5 0 t
90.86 6.65 (0.72) .5 0 t
133.50 6.65 (0.73) .5 0 t
176.15 6.65 (0.74) .5 0 t
218.80 6.65 (0.75) .5 0 t
261.45 6.65 (0.76) .5 0 t
304.10 6.65 (0.77) .5 0 t
np
19.96 23.03 m
-4.75 0 l
o
np
19.96 39.09 m
-4.75 0 l
o
np
19.96 55.15 m
-4.75 0 l
o
np
19.96 71.22 m
-4.75 0 l
o
np
19.96 87.28 m
-4.75 0 l
o
12.36 23.03 (0) .5 90 t
12.36 39.09 (10) .5 90 t
12.36 55.15 (20) .5 90 t
12.36 71.22 (30) .5 90 t
12.36 87.28 (40) .5 90 t
19.96 19.96 346.17 103.04 cl
/bg { 0.8510 0.8510 0.8510 srgb } def
19.96 19.96 326.22 83.09 r p2
0.9020 0.9020 0.9020 srgb
1.50 setlinewidth
[] 0 setdash
1 setlinecap
1 setlinejoin
10.00 setmiterlimit
np
48.21 19.96 m
0 83.08 l
o
np
90.86 19.96 m
0 83.08 l
o
np
133.50 19.96 m
0 83.08 l
o
np
176.15 19.96 m
0 83.08 l
o
np
218.80 19.96 m
0 83.08 l
o
np
261.45 19.96 m
0 83.08 l
o
np
304.10 19.96 m
0 83.08 l
o
np
19.96 23.03 m
326.21 0 l
o
np
19.96 39.09 m
326.21 0 l
o
np
19.96 55.15 m
326.21 0 l
o
np
19.96 71.22 m
326.21 0 l
o
np
19.96 87.28 m
326.21 0 l
o
0.75 setlinewidth
[] 0 setdash
np
26.88 19.96 m
0 83.08 l
o
np
69.53 19.96 m
0 83.08 l
o
np
112.18 19.96 m
0 83.08 l
o
np
154.83 19.96 m
0 83.08 l
o
np
197.48 19.96 m
0 83.08 l
o
np
240.13 19.96 m
0 83.08 l
o
np
282.77 19.96 m
0 83.08 l
o
np
325.42 19.96 m
0 83.08 l
o
np
19.96 15.00 m
326.21 0 l
o
np
19.96 31.06 m
326.21 0 l
o
np
19.96 47.12 m
326.21 0 l
o
np
19.96 63.18 m
326.21 0 l
o
np
19.96 79.25 m
326.21 0 l
o
np
19.96 95.31 m
326.21 0 l
o
1 0.4784 0.6196 srgb
np
32.04 23.04 m
0.59 0 l
0.59 0 l
0.59 0 l
0.59 0 l
0.60 0 l
0.59 0 l
0.59 0.01 l
0.59 0 l
0.59 0 l
0.59 0.01 l
0.59 0 l
0.59 0 l
0.59 0.01 l
0.60 0 l
0.59 0.01 l
0.59 0.01 l
0.59 0.01 l
0.59 0 l
0.59 0.01 l
0.59 0.02 l
0.59 0.01 l
0.59 0.01 l
0.60 0.02 l
0.59 0.01 l
0.59 0.02 l
0.59 0.02 l
0.59 0.02 l
0.59 0.03 l
0.59 0.02 l
0.59 0.03 l
0.59 0.03 l
0.60 0.03 l
0.59 0.03 l
0.59 0.04 l
0.59 0.04 l
0.59 0.04 l
0.59 0.05 l
0.59 0.04 l
0.59 0.05 l
0.59 0.06 l
0.60 0.05 l
0.59 0.06 l
0.59 0.06 l
0.59 0.06 l
0.59 0.07 l
0.59 0.07 l
0.59 0.07 l
0.59 0.08 l
0.59 0.08 l
0.60 0.08 l
0.59 0.08 l
0.59 0.08 l
0.59 0.09 l
0.59 0.09 l
0.59 0.10 l
0.59 0.09 l
0.59 0.10 l
0.59 0.10 l
0.60 0.10 l
0.59 0.10 l
0.59 0.10 l
0.59 0.11 l
0.59 0.10 l
0.59 0.11 l
0.59 0.11 l
0.59 0.10 l
0.59 0.11 l
0.60 0.11 l
0.59 0.11 l
0.59 0.12 l
0.59 0.11 l
0.59 0.11 l
0.59 0.11 l
0.59 0.12 l
0.59 0.11 l
0.59 0.12 l
0.60 0.12 l
0.59 0.12 l
0.59 0.12 l
0.59 0.13 l
0.59 0.12 l
0.59 0.13 l
0.59 0.13 l
0.59 0.14 l
0.59 0.14 l
0.59 0.15 l
0.60 0.14 l
0.59 0.16 l
0.59 0.16 l
0.59 0.16 l
0.59 0.18 l
0.59 0.17 l
0.59 0.19 l
0.59 0.19 l
0.59 0.19 l
0.60 0.21 l
0.59 0.21 l
0.59 0.21 l
0.59 0.23 l
91.15 31.03 lineto
0.59 0.23 l
0.59 0.25 l
0.59 0.25 l
0.59 0.25 l
0.60 0.27 l
0.59 0.27 l
0.59 0.27 l
0.59 0.28 l
0.59 0.29 l
0.59 0.30 l
0.59 0.29 l
0.59 0.31 l
0.59 0.31 l
0.60 0.32 l
0.59 0.33 l
0.59 0.33 l
0.59 0.33 l
0.59 0.35 l
0.59 0.35 l
0.59 0.36 l
0.59 0.36 l
0.59 0.37 l
0.60 0.39 l
0.59 0.39 l
0.59 0.39 l
0.59 0.41 l
0.59 0.41 l
0.59 0.43 l
0.59 0.43 l
0.59 0.44 l
0.59 0.45 l
0.60 0.45 l
0.59 0.47 l
0.59 0.47 l
0.59 0.48 l
0.59 0.49 l
0.59 0.50 l
0.59 0.50 l
0.59 0.52 l
0.59 0.51 l
0.60 0.53 l
0.59 0.53 l
0.59 0.53 l
0.59 0.54 l
0.59 0.55 l
0.59 0.55 l
0.59 0.55 l
0.59 0.56 l
0.59 0.56 l
0.60 0.56 l
0.59 0.57 l
0.59 0.58 l
0.59 0.57 l
0.59 0.58 l
0.59 0.59 l
0.59 0.59 l
0.59 0.59 l
0.59 0.60 l
0.60 0.60 l
0.59 0.61 l
0.59 0.61 l
0.59 0.62 l
0.59 0.63 l
0.59 0.64 l
0.59 0.64 l
0.59 0.65 l
0.59 0.65 l
0.60 0.67 l
0.59 0.67 l
0.59 0.68 l
0.59 0.69 l
0.59 0.70 l
0.59 0.70 l
0.59 0.71 l
0.59 0.71 l
0.59 0.72 l
0.59 0.73 l
0.60 0.73 l
0.59 0.73 l
0.59 0.73 l
0.59 0.74 l
0.59 0.73 l
0.59 0.73 l
0.59 0.72 l
0.59 0.73 l
0.59 0.71 l
0.60 0.71 l
0.59 0.70 l
0.59 0.69 l
0.59 0.68 l
0.59 0.67 l
0.59 0.66 l
0.59 0.64 l
0.59 0.63 l
0.59 0.62 l
0.60 0.60 l
0.59 0.58 l
0.59 0.58 l
0.59 0.55 l
150.26 84.00 lineto
0.59 0.52 l
0.59 0.52 l
0.59 0.50 l
0.59 0.49 l
0.60 0.48 l
0.59 0.47 l
0.59 0.45 l
0.59 0.45 l
0.59 0.44 l
0.59 0.42 l
0.59 0.42 l
0.59 0.42 l
0.59 0.40 l
0.60 0.40 l
0.59 0.39 l
0.59 0.38 l
0.59 0.38 l
0.59 0.37 l
0.59 0.36 l
0.59 0.35 l
0.59 0.34 l
0.59 0.33 l
0.60 0.32 l
0.59 0.30 l
0.59 0.29 l
0.59 0.28 l
0.59 0.26 l
0.59 0.24 l
0.59 0.22 l
0.59 0.21 l
0.59 0.18 l
0.60 0.16 l
0.59 0.14 l
0.59 0.11 l
0.59 0.08 l
0.59 0.07 l
0.59 0.03 l
0.59 0 l
0.59 -0.02 l
0.59 -0.04 l
0.60 -0.07 l
0.59 -0.11 l
0.59 -0.12 l
0.59 -0.16 l
0.59 -0.17 l
0.59 -0.20 l
0.59 -0.23 l
0.59 -0.24 l
0.59 -0.27 l
0.60 -0.28 l
0.59 -0.31 l
0.59 -0.32 l
0.59 -0.33 l
0.59 -0.35 l
0.59 -0.36 l
0.59 -0.37 l
0.59 -0.38 l
0.59 -0.39 l
0.59 -0.40 l
0.60 -0.40 l
0.59 -0.41 l
0.59 -0.42 l
0.59 -0.41 l
0.59 -0.43 l
0.59 -0.42 l
0.59 -0.43 l
0.59 -0.43 l
0.59 -0.44 l
0.60 -0.44 l
0.59 -0.45 l
0.59 -0.45 l
0.59 -0.46 l
0.59 -0.47 l
0.59 -0.47 l
0.59 -0.49 l
0.59 -0.50 l
0.59 -0.50 l
0.60 -0.52 l
0.59 -0.53 l
0.59 -0.55 l
0.59 -0.57 l
0.59 -0.58 l
0.59 -0.59 l
0.59 -0.61 l
0.59 -0.63 l
0.59 -0.65 l
0.60 -0.66 l
0.59 -0.68 l
0.59 -0.70 l
0.59 -0.71 l
0.59 -0.73 l
0.59 -0.74 l
0.59 -0.76 l
0.59 -0.77 l
0.59 -0.78 l
0.60 -0.79 l
0.59 -0.80 l
0.59 -0.80 l
0.59 -0.81 l
209.37 67.26 lineto
0.59 -0.82 l
0.59 -0.82 l
0.59 -0.81 l
0.59 -0.82 l
0.60 -0.81 l
0.59 -0.80 l
0.59 -0.80 l
0.59 -0.80 l
0.59 -0.78 l
0.59 -0.78 l
0.59 -0.76 l
0.59 -0.76 l
0.59 -0.74 l
0.60 -0.73 l
0.59 -0.72 l
0.59 -0.71 l
0.59 -0.69 l
0.59 -0.68 l
0.59 -0.66 l
0.59 -0.65 l
0.59 -0.64 l
0.59 -0.63 l
0.60 -0.60 l
0.59 -0.60 l
0.59 -0.58 l
0.59 -0.57 l
0.59 -0.56 l
0.59 -0.54 l
0.59 -0.53 l
0.59 -0.52 l
0.59 -0.51 l
0.60 -0.50 l
0.59 -0.48 l
0.59 -0.48 l
0.59 -0.47 l
0.59 -0.46 l
0.59 -0.46 l
0.59 -0.44 l
0.59 -0.44 l
0.59 -0.44 l
0.60 -0.43 l
0.59 -0.42 l
0.59 -0.42 l
0.59 -0.42 l
0.59 -0.41 l
0.59 -0.42 l
0.59 -0.40 l
0.59 -0.41 l
0.59 -0.41 l
0.59 -0.40 l
0.60 -0.40 l
0.59 -0.39 l
0.59 -0.40 l
0.59 -0.39 l
0.59 -0.38 l
0.59 -0.38 l
0.59 -0.38 l
0.59 -0.37 l
0.59 -0.37 l
0.60 -0.36 l
0.59 -0.35 l
0.59 -0.34 l
0.59 -0.33 l
0.59 -0.33 l
0.59 -0.31 l
0.59 -0.30 l
0.59 -0.29 l
0.59 -0.28 l
0.60 -0.27 l
0.59 -0.26 l
0.59 -0.24 l
0.59 -0.23 l
0.59 -0.22 l
0.59 -0.20 l
0.59 -0.20 l
0.59 -0.18 l
0.59 -0.16 l
0.60 -0.16 l
0.59 -0.15 l
0.59 -0.14 l
0.59 -0.12 l
0.59 -0.12 l
0.59 -0.11 l
0.59 -0.10 l
0.59 -0.10 l
0.59 -0.09 l
0.60 -0.08 l
0.59 -0.08 l
0.59 -0.08 l
0.59 -0.08 l
0.59 -0.07 l
0.59 -0.08 l
0.59 -0.07 l
0.59 -0.07 l
0.59 -0.08 l
0.60 -0.07 l
0.59 -0.08 l
0.59 -0.08 l
0.59 -0.08 l
268.48 27.05 lineto
0.59 -0.09 l
0.59 -0.09 l
0.59 -0.09 l
0.59 -0.09 l
0.60 -0.09 l
0.59 -0.10 l
0.59 -0.09 l
0.59 -0.10 l
0.59 -0.10 l
0.59 -0.10 l
0.59 -0.09 l
0.59 -0.10 l
0.59 -0.10 l
0.60 -0.10 l
0.59 -0.10 l
0.59 -0.09 l
0.59 -0.09 l
0.59 -0.10 l
0.59 -0.08 l
0.59 -0.09 l
0.59 -0.09 l
0.59 -0.08 l
0.60 -0.08 l
0.59 -0.07 l
0.59 -0.08 l
0.59 -0.07 l
0.59 -0.07 l
0.59 -0.06 l
0.59 -0.06 l
0.59 -0.06 l
0.59 -0.06 l
0.60 -0.06 l
0.59 -0.05 l
0.59 -0.05 l
0.59 -0.04 l
0.59 -0.05 l
0.59 -0.04 l
0.59 -0.04 l
0.59 -0.04 l
0.59 -0.04 l
0.59 -0.04 l
0.60 -0.03 l
0.59 -0.03 l
0.59 -0.03 l
0.59 -0.03 l
0.59 -0.03 l
0.59 -0.03 l
0.59 -0.03 l
0.59 -0.02 l
0.59 -0.03 l
0.60 -0.02 l
0.59 -0.02 l
0.59 -0.02 l
0.59 -0.02 l
0.59 -0.03 l
0.59 -0.01 l
0.59 -0.02 l
0.59 -0.02 l
0.59 -0.02 l
0.60 -0.02 l
0.59 -0.02 l
0.59 -0.01 l
0.59 -0.02 l
0.59 -0.02 l
0.59 -0.01 l
0.59 -0.02 l
0.59 -0.02 l
0.59 -0.01 l
0.60 -0.02 l
0.59 -0.01 l
0.59 -0.02 l
0.59 -0.01 l
0.59 -0.02 l
0.59 -0.01 l
0.59 -0.01 l
0.59 -0.02 l
0.59 -0.01 l
0.60 -0.01 l
0.59 -0.02 l
0.59 -0.01 l
0.59 -0.01 l
0.59 -0.01 l
0.59 -0.01 l
0.59 -0.01 l
0.59 -0.01 l
0.59 -0.01 l
0.60 -0.01 l
0.59 0 l
0.59 -0.01 l
0.59 -0.01 l
0.59 0 l
0.59 -0.01 l
0.59 0 l
0.59 -0.01 l
0.59 0 l
0.60 -0.01 l
0.59 0 l
0.59 0 l
0.59 -0.01 l
327.59 23.05 lineto
0.59 0 l
0.59 0 l
0.59 -0.01 l
0.59 0 l
0.60 0 l
0.59 0 l
0.59 0 l
0.59 0 l
0.59 0 l
0.59 0 l
0.59 0 l
o
0.3490 0.7608 0 srgb
np
38.80 23.04 m
0.55 0 l
0.54 0 l
0.55 0 l
0.55 0 l
0.54 0 l
0.55 0 l
0.55 0 l
0.54 0.01 l
0.55 0 l
0.55 0 l
0.54 0 l
0.55 0 l
0.55 0.01 l
0.54 0 l
0.55 0.01 l
0.55 0 l
0.54 0.01 l
0.55 0 l
0.55 0.01 l
0.54 0 l
0.55 0.01 l
0.55 0.01 l
0.54 0.01 l
0.55 0 l
0.55 0.01 l
0.54 0.01 l
0.55 0.01 l
0.55 0.02 l
0.54 0.01 l
0.55 0.01 l
0.55 0.01 l
0.54 0.02 l
0.55 0.01 l
0.55 0.01 l
0.54 0.02 l
0.55 0.02 l
0.55 0.01 l
0.54 0.02 l
0.55 0.02 l
0.55 0.02 l
0.54 0.01 l
0.55 0.02 l
0.55 0.02 l
0.54 0.02 l
0.55 0.03 l
0.55 0.02 l
0.55 0.02 l
0.54 0.02 l
0.55 0.03 l
0.55 0.02 l
0.54 0.03 l
0.55 0.03 l
0.55 0.03 l
0.54 0.03 l
0.55 0.03 l
0.55 0.03 l
0.54 0.04 l
0.55 0.03 l
0.55 0.04 l
0.54 0.04 l
0.55 0.05 l
0.55 0.04 l
0.54 0.05 l
0.55 0.05 l
0.55 0.05 l
0.54 0.05 l
0.55 0.06 l
0.55 0.06 l
0.54 0.06 l
0.55 0.07 l
0.55 0.07 l
0.54 0.07 l
0.55 0.07 l
0.55 0.08 l
0.54 0.08 l
0.55 0.08 l
0.55 0.09 l
0.54 0.09 l
0.55 0.09 l
0.55 0.10 l
0.54 0.10 l
0.55 0.10 l
0.55 0.11 l
0.54 0.11 l
0.55 0.12 l
0.55 0.12 l
0.54 0.13 l
0.55 0.13 l
0.55 0.14 l
0.54 0.14 l
0.55 0.14 l
0.55 0.16 l
0.54 0.16 l
0.55 0.16 l
0.55 0.17 l
0.54 0.18 l
0.55 0.19 l
0.55 0.19 l
0.54 0.20 l
93.47 28.20 lineto
0.55 0.22 l
0.54 0.22 l
0.55 0.22 l
0.55 0.24 l
0.55 0.24 l
0.54 0.25 l
0.55 0.26 l
0.55 0.26 l
0.54 0.27 l
0.55 0.28 l
0.55 0.29 l
0.54 0.29 l
0.55 0.30 l
0.55 0.30 l
0.54 0.32 l
0.55 0.31 l
0.55 0.33 l
0.54 0.33 l
0.55 0.34 l
0.55 0.35 l
0.54 0.35 l
0.55 0.36 l
0.55 0.36 l
0.54 0.37 l
0.55 0.38 l
0.55 0.39 l
0.54 0.39 l
0.55 0.40 l
0.55 0.41 l
0.54 0.42 l
0.55 0.43 l
0.55 0.43 l
0.54 0.45 l
0.55 0.45 l
0.55 0.47 l
0.54 0.47 l
0.55 0.49 l
0.55 0.49 l
0.54 0.51 l
0.55 0.52 l
0.55 0.53 l
0.54 0.54 l
0.55 0.55 l
0.55 0.56 l
0.54 0.57 l
0.55 0.59 l
0.55 0.59 l
0.54 0.60 l
0.55 0.61 l
0.55 0.62 l
0.54 0.63 l
0.55 0.63 l
0.55 0.64 l
0.54 0.65 l
0.55 0.64 l
0.55 0.66 l
0.54 0.65 l
0.55 0.66 l
0.55 0.65 l
0.54 0.66 l
0.55 0.65 l
0.55 0.65 l
0.54 0.65 l
0.55 0.64 l
0.55 0.64 l
0.55 0.63 l
0.54 0.63 l
0.55 0.62 l
0.55 0.62 l
0.54 0.61 l
0.55 0.60 l
0.55 0.59 l
0.54 0.59 l
0.55 0.58 l
0.55 0.58 l
0.54 0.56 l
0.55 0.56 l
0.55 0.56 l
0.54 0.55 l
0.55 0.54 l
0.55 0.54 l
0.54 0.54 l
0.55 0.54 l
0.55 0.53 l
0.54 0.53 l
0.55 0.54 l
0.55 0.53 l
0.54 0.53 l
0.55 0.54 l
0.55 0.54 l
0.54 0.54 l
0.55 0.55 l
0.55 0.56 l
0.54 0.56 l
0.55 0.57 l
0.55 0.57 l
0.54 0.58 l
0.55 0.59 l
0.55 0.60 l
148.14 77.73 lineto
0.55 0.62 l
0.55 0.62 l
0.54 0.64 l
0.55 0.64 l
0.55 0.65 l
0.54 0.66 l
0.55 0.66 l
0.55 0.67 l
0.54 0.67 l
0.55 0.68 l
0.55 0.68 l
0.54 0.68 l
0.55 0.68 l
0.55 0.68 l
0.54 0.68 l
0.55 0.67 l
0.55 0.67 l
0.54 0.66 l
0.55 0.65 l
0.55 0.65 l
0.54 0.63 l
0.55 0.63 l
0.55 0.60 l
0.55 0.59 l
0.54 0.57 l
0.55 0.56 l
0.55 0.54 l
0.54 0.51 l
0.55 0.49 l
0.55 0.47 l
0.54 0.44 l
0.55 0.42 l
0.55 0.38 l
0.54 0.36 l
0.55 0.33 l
0.55 0.30 l
0.54 0.27 l
0.55 0.23 l
0.55 0.20 l
0.54 0.17 l
0.55 0.14 l
0.55 0.10 l
0.54 0.06 l
0.55 0.04 l
0.55 0 l
0.54 -0.04 l
0.55 -0.07 l
0.55 -0.11 l
0.54 -0.14 l
0.55 -0.16 l
0.55 -0.21 l
0.54 -0.23 l
0.55 -0.27 l
0.55 -0.29 l
0.54 -0.32 l
0.55 -0.35 l
0.55 -0.38 l
0.54 -0.39 l
0.55 -0.42 l
0.55 -0.44 l
0.54 -0.46 l
0.55 -0.48 l
0.55 -0.50 l
0.54 -0.51 l
0.55 -0.52 l
0.55 -0.53 l
0.54 -0.54 l
0.55 -0.55 l
0.55 -0.55 l
0.54 -0.56 l
0.55 -0.56 l
0.55 -0.57 l
0.54 -0.56 l
0.55 -0.56 l
0.55 -0.56 l
0.54 -0.55 l
0.55 -0.55 l
0.55 -0.54 l
0.54 -0.53 l
0.55 -0.53 l
0.55 -0.52 l
0.55 -0.51 l
0.54 -0.50 l
0.55 -0.49 l
0.55 -0.48 l
0.54 -0.47 l
0.55 -0.46 l
0.55 -0.46 l
0.54 -0.44 l
0.55 -0.44 l
0.55 -0.42 l
0.54 -0.42 l
0.55 -0.42 l
0.55 -0.40 l
0.54 -0.41 l
0.55 -0.39 l
0.55 -0.40 l
0.54 -0.39 l
0.55 -0.39 l
202.82 76.64 lineto
0.54 -0.40 l
0.55 -0.39 l
0.55 -0.39 l
0.54 -0.40 l
0.55 -0.40 l
0.55 -0.41 l
0.54 -0.41 l
0.55 -0.42 l
0.55 -0.43 l
0.54 -0.43 l
0.55 -0.44 l
0.55 -0.44 l
0.54 -0.46 l
0.55 -0.46 l
0.55 -0.47 l
0.54 -0.48 l
0.55 -0.49 l
0.55 -0.50 l
0.54 -0.50 l
0.55 -0.52 l
0.55 -0.52 l
0.54 -0.53 l
0.55 -0.53 l
0.55 -0.55 l
0.54 -0.55 l
0.55 -0.56 l
0.55 -0.56 l
0.54 -0.57 l
0.55 -0.57 l
0.55 -0.58 l
0.54 -0.59 l
0.55 -0.59 l
0.55 -0.59 l
0.54 -0.60 l
0.55 -0.60 l
0.55 -0.61 l
0.54 -0.60 l
0.55 -0.61 l
0.55 -0.61 l
0.55 -0.62 l
0.54 -0.61 l
0.55 -0.62 l
0.55 -0.62 l
0.54 -0.62 l
0.55 -0.62 l
0.55 -0.62 l
0.54 -0.62 l
0.55 -0.62 l
0.55 -0.62 l
0.54 -0.62 l
0.55 -0.62 l
0.55 -0.62 l
0.54 -0.61 l
0.55 -0.61 l
0.55 -0.61 l
0.54 -0.60 l
0.55 -0.60 l
0.55 -0.59 l
0.54 -0.59 l
0.55 -0.58 l
0.55 -0.57 l
0.54 -0.56 l
0.55 -0.55 l
0.55 -0.54 l
0.54 -0.54 l
0.55 -0.52 l
0.55 -0.50 l
0.54 -0.50 l
0.55 -0.48 l
0.55 -0.46 l
0.54 -0.46 l
0.55 -0.44 l
0.55 -0.42 l
0.54 -0.41 l
0.55 -0.40 l
0.55 -0.39 l
0.54 -0.36 l
0.55 -0.36 l
0.55 -0.35 l
0.54 -0.33 l
0.55 -0.32 l
0.55 -0.31 l
0.54 -0.31 l
0.55 -0.29 l
0.55 -0.28 l
0.54 -0.27 l
0.55 -0.27 l
0.55 -0.26 l
0.54 -0.25 l
0.55 -0.25 l
0.55 -0.24 l
0.54 -0.24 l
0.55 -0.23 l
0.55 -0.22 l
0.54 -0.22 l
0.55 -0.21 l
0.55 -0.21 l
0.55 -0.21 l
0.54 -0.19 l
257.49 29.92 lineto
0.55 -0.18 l
0.54 -0.19 l
0.55 -0.17 l
0.55 -0.18 l
0.54 -0.16 l
0.55 -0.16 l
0.55 -0.16 l
0.54 -0.14 l
0.55 -0.15 l
0.55 -0.14 l
0.54 -0.13 l
0.55 -0.13 l
0.55 -0.12 l
0.54 -0.13 l
0.55 -0.11 l
0.55 -0.12 l
0.54 -0.11 l
0.55 -0.10 l
0.55 -0.11 l
0.54 -0.11 l
0.55 -0.10 l
0.55 -0.10 l
0.54 -0.10 l
0.55 -0.10 l
0.55 -0.10 l
0.54 -0.10 l
0.55 -0.10 l
0.55 -0.10 l
0.54 -0.11 l
0.55 -0.10 l
0.55 -0.10 l
0.54 -0.10 l
0.55 -0.10 l
0.55 -0.10 l
0.54 -0.10 l
0.55 -0.11 l
0.55 -0.10 l
0.54 -0.10 l
0.55 -0.09 l
0.55 -0.10 l
0.54 -0.10 l
0.55 -0.09 l
0.55 -0.09 l
0.54 -0.09 l
0.55 -0.08 l
0.55 -0.09 l
0.54 -0.08 l
0.55 -0.08 l
0.55 -0.07 l
0.54 -0.07 l
0.55 -0.07 l
0.55 -0.06 l
0.54 -0.07 l
0.55 -0.06 l
0.55 -0.05 l
0.55 -0.05 l
0.54 -0.06 l
0.55 -0.04 l
0.55 -0.05 l
0.54 -0.04 l
0.55 -0.04 l
0.55 -0.04 l
0.54 -0.03 l
0.55 -0.04 l
0.55 -0.03 l
0.54 -0.03 l
0.55 -0.03 l
0.55 -0.03 l
0.54 -0.02 l
0.55 -0.03 l
0.55 -0.02 l
0.54 -0.02 l
0.55 -0.03 l
0.55 -0.02 l
0.54 -0.02 l
0.55 -0.01 l
0.55 -0.02 l
0.54 -0.02 l
0.55 -0.01 l
0.55 -0.02 l
0.54 -0.01 l
0.55 -0.02 l
0.55 -0.01 l
0.54 -0.01 l
0.55 -0.01 l
0.55 -0.01 l
0.54 -0.01 l
0.55 -0.01 l
0.55 -0.01 l
0.54 -0.01 l
0.55 -0.01 l
0.55 0 l
0.54 -0.01 l
0.55 0 l
0.55 -0.01 l
0.54 0 l
0.55 -0.01 l
0.55 0 l
0.54 0 l
312.16 23.05 lineto
0.55 0 l
0.54 0 l
0.55 0 l
0.55 -0.01 l
0.54 0 l
0.55 0 l
0.55 0 l
0.54 0 l
0.55 0 l
0.55 0 l
0.54 0 l
o
0 0.7176 1 srgb
np
47.27 23.04 m
0.54 0 l
0.53 0 l
0.54 0 l
0.53 0 l
0.53 0 l
0.54 0.01 l
0.53 0 l
0.54 0 l
0.53 0 l
0.53 0.01 l
0.54 0 l
0.53 0.01 l
0.53 0 l
0.54 0.01 l
0.53 0.01 l
0.54 0 l
0.53 0.01 l
0.53 0.01 l
0.54 0.01 l
0.53 0.02 l
0.54 0.01 l
0.53 0.02 l
0.53 0.02 l
0.54 0.01 l
0.53 0.03 l
0.53 0.02 l
0.54 0.03 l
0.53 0.03 l
0.54 0.03 l
0.53 0.03 l
0.53 0.04 l
0.54 0.04 l
0.53 0.04 l
0.54 0.05 l
0.53 0.05 l
0.53 0.05 l
0.54 0.06 l
0.53 0.07 l
0.53 0.06 l
0.54 0.07 l
0.53 0.08 l
0.54 0.08 l
0.53 0.08 l
0.53 0.09 l
0.54 0.10 l
0.53 0.09 l
0.54 0.11 l
0.53 0.10 l
0.53 0.12 l
0.54 0.11 l
0.53 0.12 l
0.53 0.13 l
0.54 0.13 l
0.53 0.13 l
0.54 0.13 l
0.53 0.14 l
0.53 0.15 l
0.54 0.14 l
0.53 0.15 l
0.54 0.16 l
0.53 0.15 l
0.53 0.16 l
0.54 0.16 l
0.53 0.16 l
0.53 0.16 l
0.54 0.16 l
0.53 0.17 l
0.54 0.16 l
0.53 0.17 l
0.53 0.17 l
0.54 0.16 l
0.53 0.17 l
0.54 0.17 l
0.53 0.17 l
0.53 0.17 l
0.54 0.16 l
0.53 0.17 l
0.53 0.17 l
0.54 0.17 l
0.53 0.17 l
0.54 0.18 l
0.53 0.17 l
0.53 0.17 l
0.54 0.18 l
0.53 0.18 l
0.54 0.18 l
0.53 0.18 l
0.53 0.19 l
0.54 0.19 l
0.53 0.20 l
0.53 0.20 l
0.54 0.21 l
0.53 0.21 l
0.54 0.22 l
0.53 0.23 l
0.53 0.24 l
0.54 0.25 l
0.53 0.25 l
0.54 0.27 l
100.66 33.71 lineto
0.53 0.29 l
0.54 0.30 l
0.53 0.31 l
0.53 0.32 l
0.54 0.34 l
0.53 0.35 l
0.54 0.36 l
0.53 0.38 l
0.53 0.39 l
0.54 0.40 l
0.53 0.42 l
0.54 0.43 l
0.53 0.45 l
0.53 0.45 l
0.54 0.48 l
0.53 0.48 l
0.53 0.50 l
0.54 0.51 l
0.53 0.52 l
0.54 0.53 l
0.53 0.54 l
0.53 0.56 l
0.54 0.56 l
0.53 0.57 l
0.54 0.57 l
0.53 0.59 l
0.53 0.59 l
0.54 0.59 l
0.53 0.60 l
0.53 0.61 l
0.54 0.60 l
0.53 0.61 l
0.54 0.61 l
0.53 0.61 l
0.53 0.62 l
0.54 0.61 l
0.53 0.61 l
0.53 0.61 l
0.54 0.60 l
0.53 0.60 l
0.54 0.60 l
0.53 0.60 l
0.53 0.58 l
0.54 0.59 l
0.53 0.58 l
0.54 0.57 l
0.53 0.57 l
0.53 0.56 l
0.54 0.56 l
0.53 0.54 l
0.53 0.55 l
0.54 0.53 l
0.53 0.54 l
0.54 0.52 l
0.53 0.53 l
0.53 0.51 l
0.54 0.52 l
0.53 0.51 l
0.54 0.51 l
0.53 0.50 l
0.53 0.51 l
0.54 0.51 l
0.53 0.51 l
0.53 0.51 l
0.54 0.51 l
0.53 0.52 l
0.54 0.53 l
0.53 0.53 l
0.53 0.54 l
0.54 0.54 l
0.53 0.56 l
0.54 0.57 l
0.53 0.58 l
0.53 0.59 l
0.54 0.61 l
0.53 0.62 l
0.53 0.63 l
0.54 0.65 l
0.53 0.66 l
0.54 0.67 l
0.53 0.69 l
0.53 0.70 l
0.54 0.71 l
0.53 0.73 l
0.54 0.73 l
0.53 0.74 l
0.53 0.75 l
0.54 0.76 l
0.53 0.76 l
0.53 0.76 l
0.54 0.77 l
0.53 0.76 l
0.54 0.75 l
0.53 0.75 l
0.53 0.75 l
0.54 0.73 l
0.53 0.71 l
0.54 0.70 l
0.53 0.68 l
154.04 90.69 lineto
0.54 0.64 l
0.53 0.61 l
0.53 0.58 l
0.54 0.56 l
0.53 0.53 l
0.54 0.50 l
0.53 0.46 l
0.53 0.43 l
0.54 0.40 l
0.53 0.36 l
0.54 0.33 l
0.53 0.29 l
0.53 0.26 l
0.54 0.23 l
0.53 0.19 l
0.53 0.16 l
0.54 0.14 l
0.53 0.10 l
0.54 0.08 l
0.53 0.05 l
0.53 0.03 l
0.54 0.01 l
0.53 -0.01 l
0.54 -0.03 l
0.53 -0.05 l
0.53 -0.06 l
0.54 -0.08 l
0.53 -0.08 l
0.53 -0.09 l
0.54 -0.10 l
0.53 -0.11 l
0.54 -0.11 l
0.53 -0.11 l
0.53 -0.12 l
0.54 -0.12 l
0.53 -0.13 l
0.54 -0.12 l
0.53 -0.13 l
0.53 -0.13 l
0.54 -0.13 l
0.53 -0.14 l
0.53 -0.13 l
0.54 -0.15 l
0.53 -0.15 l
0.54 -0.16 l
0.53 -0.16 l
0.53 -0.18 l
0.54 -0.19 l
0.53 -0.20 l
0.54 -0.21 l
0.53 -0.22 l
0.53 -0.25 l
0.54 -0.26 l
0.53 -0.27 l
0.53 -0.30 l
0.54 -0.31 l
0.53 -0.33 l
0.54 -0.35 l
0.53 -0.37 l
0.53 -0.39 l
0.54 -0.41 l
0.53 -0.42 l
0.54 -0.45 l
0.53 -0.45 l
0.53 -0.48 l
0.54 -0.49 l
0.53 -0.50 l
0.53 -0.52 l
0.54 -0.53 l
0.53 -0.53 l
0.54 -0.55 l
0.53 -0.55 l
0.53 -0.56 l
0.54 -0.56 l
0.53 -0.57 l
0.54 -0.57 l
0.53 -0.57 l
0.53 -0.56 l
0.54 -0.57 l
0.53 -0.57 l
0.53 -0.57 l
0.54 -0.56 l
0.53 -0.56 l
0.54 -0.56 l
0.53 -0.56 l
0.53 -0.56 l
0.54 -0.55 l
0.53 -0.56 l
0.54 -0.55 l
0.53 -0.56 l
0.53 -0.55 l
0.54 -0.56 l
0.53 -0.56 l
0.53 -0.56 l
0.54 -0.57 l
0.53 -0.57 l
0.54 -0.58 l
0.53 -0.59 l
0.53 -0.59 l
207.43 69.47 lineto
0.53 -0.60 l
0.54 -0.62 l
0.53 -0.62 l
0.53 -0.63 l
0.54 -0.64 l
0.53 -0.64 l
0.53 -0.65 l
0.54 -0.66 l
0.53 -0.67 l
0.54 -0.66 l
0.53 -0.67 l
0.53 -0.68 l
0.54 -0.67 l
0.53 -0.67 l
0.54 -0.67 l
0.53 -0.67 l
0.53 -0.67 l
0.54 -0.65 l
0.53 -0.65 l
0.53 -0.65 l
0.54 -0.63 l
0.53 -0.62 l
0.54 -0.61 l
0.53 -0.60 l
0.53 -0.58 l
0.54 -0.57 l
0.53 -0.55 l
0.54 -0.54 l
0.53 -0.52 l
0.53 -0.51 l
0.54 -0.49 l
0.53 -0.48 l
0.53 -0.46 l
0.54 -0.44 l
0.53 -0.43 l
0.54 -0.42 l
0.53 -0.41 l
0.53 -0.39 l
0.54 -0.39 l
0.53 -0.37 l
0.53 -0.36 l
0.54 -0.36 l
0.53 -0.35 l
0.54 -0.35 l
0.53 -0.34 l
0.53 -0.34 l
0.54 -0.34 l
0.53 -0.34 l
0.54 -0.34 l
0.53 -0.34 l
0.53 -0.34 l
0.54 -0.34 l
0.53 -0.35 l
0.53 -0.34 l
0.54 -0.36 l
0.53 -0.35 l
0.54 -0.37 l
0.53 -0.36 l
0.53 -0.37 l
0.54 -0.37 l
0.53 -0.38 l
0.54 -0.38 l
0.53 -0.38 l
0.53 -0.39 l
0.54 -0.38 l
0.53 -0.39 l
0.53 -0.39 l
0.54 -0.39 l
0.53 -0.39 l
0.54 -0.39 l
0.53 -0.38 l
0.53 -0.38 l
0.54 -0.38 l
0.53 -0.38 l
0.54 -0.37 l
0.53 -0.36 l
0.53 -0.36 l
0.54 -0.36 l
0.53 -0.34 l
0.53 -0.34 l
0.54 -0.33 l
0.53 -0.32 l
0.54 -0.32 l
0.53 -0.30 l
0.53 -0.30 l
0.54 -0.29 l
0.53 -0.28 l
0.54 -0.27 l
0.53 -0.26 l
0.53 -0.25 l
0.54 -0.24 l
0.53 -0.24 l
0.53 -0.22 l
0.54 -0.22 l
0.53 -0.21 l
0.54 -0.20 l
0.53 -0.19 l
0.53 -0.18 l
0.54 -0.17 l
260.81 26.94 lineto
0.54 -0.16 l
0.53 -0.16 l
0.53 -0.14 l
0.54 -0.14 l
0.53 -0.14 l
0.53 -0.12 l
0.54 -0.13 l
0.53 -0.11 l
0.54 -0.12 l
0.53 -0.11 l
0.53 -0.10 l
0.54 -0.10 l
0.53 -0.09 l
0.54 -0.09 l
0.53 -0.09 l
0.53 -0.09 l
0.54 -0.08 l
0.53 -0.08 l
0.53 -0.07 l
0.54 -0.07 l
0.53 -0.07 l
0.54 -0.07 l
0.53 -0.07 l
0.53 -0.06 l
0.54 -0.06 l
0.53 -0.06 l
0.54 -0.05 l
0.53 -0.06 l
0.53 -0.05 l
0.54 -0.05 l
0.53 -0.05 l
0.53 -0.04 l
0.54 -0.04 l
0.53 -0.05 l
0.54 -0.04 l
0.53 -0.03 l
0.53 -0.04 l
0.54 -0.03 l
0.53 -0.04 l
0.54 -0.03 l
0.53 -0.03 l
0.53 -0.02 l
0.54 -0.03 l
0.53 -0.02 l
0.53 -0.03 l
0.54 -0.02 l
0.53 -0.02 l
0.54 -0.02 l
0.53 -0.02 l
0.53 -0.01 l
0.54 -0.02 l
0.53 -0.02 l
0.54 -0.01 l
0.53 -0.01 l
0.53 -0.02 l
0.54 -0.01 l
0.53 -0.01 l
0.53 -0.02 l
0.54 -0.01 l
0.53 -0.01 l
0.54 -0.01 l
0.53 -0.02 l
0.53 -0.01 l
0.54 -0.01 l
0.53 -0.01 l
0.54 -0.02 l
0.53 -0.01 l
0.53 -0.01 l
0.54 -0.01 l
0.53 -0.01 l
0.53 -0.02 l
0.54 -0.01 l
0.53 -0.01 l
0.54 -0.01 l
0.53 -0.01 l
0.53 -0.01 l
0.54 -0.01 l
0.53 -0.02 l
0.54 -0.01 l
0.53 -0.01 l
0.53 0 l
0.54 -0.01 l
0.53 -0.01 l
0.53 -0.01 l
0.54 -0.01 l
0.53 -0.01 l
0.54 0 l
0.53 -0.01 l
0.53 -0.01 l
0.54 0 l
0.53 -0.01 l
0.54 0 l
0.53 -0.01 l
0.53 0 l
0.54 -0.01 l
0.53 0 l
0.53 0 l
0.54 -0.01 l
0.53 0 l
314.20 23.05 lineto
0.53 0 l
0.53 0 l
0.54 -0.01 l
0.53 0 l
0.54 0 l
0.53 0 l
0.53 0 l
0.54 0 l
0.53 0 l
0.53 0 l
0.54 0 l
o
ep
%%Trailer
%%Pages: 1
%%EOF
