%!PS-Adobe-3.0 EPSF-3.0
%%DocumentNeededResources: font Helvetica
%%+ font Helvetica-Bold
%%+ font Helvetica-Oblique
%%+ font Helvetica-BoldOblique
%%+ font Symbol
%%Title: R Graphics Output
%%Creator: R Software
%%Pages: (atend)
%%BoundingBox: 0 0 305 269
%%EndComments
%%BeginProlog
/bp  { gs sRGB gs } def
% begin .ps.prolog
/gs  { gsave } bind def
/gr  { grestore } bind def
/ep  { showpage gr gr } bind def
/m   { moveto } bind def
/l  { rlineto } bind def
/np  { newpath } bind def
/cp  { closepath } bind def
/f   { fill } bind def
/o   { stroke } bind def
/c   { newpath 0 360 arc } bind def
/r   { 4 2 roll moveto 1 copy 3 -1 roll exch 0 exch rlineto 0 rlineto -1 mul 0 exch rlineto closepath } bind def
/p1  { stroke } bind def
/p2  { gsave bg fill grestore newpath } bind def
/p3  { gsave bg fill grestore stroke } bind def
/p6  { gsave bg eofill grestore newpath } bind def
/p7  { gsave bg eofill grestore stroke } bind def
/t   { 5 -2 roll moveto gsave rotate
       1 index stringwidth pop
       mul neg 0 rmoveto show grestore } bind def
/ta  { 4 -2 roll moveto gsave rotate show } bind def
/tb  { 2 -1 roll 0 rmoveto show } bind def
/cl  { grestore gsave newpath 3 index 3 index moveto 1 index
       4 -1 roll lineto  exch 1 index lineto lineto
       closepath clip newpath } bind def
/rgb { setrgbcolor } bind def
/s   { scalefont setfont } bind def
% end   .ps.prolog
/sRGB { [ /CIEBasedABC
          << /DecodeLMN
               [ { dup 0.03928 le
                        {12.92321 div}
                        {0.055 add 1.055 div 2.4 exp }
                     ifelse
                 } bind dup dup
               ]
             /MatrixLMN [0.412457 0.212673 0.019334
                         0.357576 0.715152 0.119192
                         0.180437 0.072175 0.950301]
             /WhitePoint [0.9505 1.0 1.0890]
           >>
         ] setcolorspace } bind def
/srgb { setcolor } bind def
% begin encoding
/WinAnsiEncoding [
 /.notdef /.notdef /.notdef /.notdef /.notdef /.notdef /.notdef /.notdef
 /.notdef /.notdef /.notdef /.notdef /.notdef /.notdef /.notdef /.notdef
 /.notdef /.notdef /.notdef /.notdef /.notdef /.notdef /.notdef /.notdef
 /.notdef /.notdef /.notdef /.notdef /.notdef /.notdef /.notdef /.notdef
 /space /exclam /quotedbl /numbersign /dollar /percent /ampersand /quoteright
 /parenleft /parenright /asterisk /plus /comma /minus /period /slash
 /zero /one /two /three /four /five /six /seven
 /eight /nine /colon /semicolon /less /equal /greater /question
 /at /A /B /C /D /E /F /G
 /H /I /J /K /L /M /N /O
 /P /Q /R /S /T /U /V /W
 /X /Y /Z /bracketleft /backslash /bracketright /asciicircum /underscore
 /grave /a /b /c /d /e /f /g
 /h /i /j /k /l /m /n /o
 /p /q /r /s /t /u /v /w
 /x /y /z /braceleft /bar /braceright /asciitilde /.notdef
 /Euro /.notdef /quotesinglbase /florin /quotedblbase /ellipsis /dagger /daggerdbl
 /circumflex /perthousand /Scaron /guilsinglleft /OE /.notdef /Zcaron /.notdef
 /.notdef /quoteleft /quoteright /quotedblleft /quotedblright /bullet /endash /emdash
 /tilde /trademark /scaron /guilsinglright /oe /.notdef /zcaron /Ydieresis
 /space /exclamdown /cent /sterling /currency /yen /brokenbar /section
 /dieresis /copyright /ordfeminine /guillemotleft /logicalnot /hyphen /registered /macron
 /degree /plusminus /twosuperior /threesuperior /acute /mu /paragraph /periodcentered
 /cedilla /onesuperior /ordmasculine /guillemotright /onequarter /onehalf /threequarters /questiondown
 /Agrave /Aacute /Acircumflex /Atilde /Adieresis /Aring /AE /Ccedilla
 /Egrave /Eacute /Ecircumflex /Edieresis /Igrave /Iacute /Icircumflex /Idieresis
 /Eth /Ntilde /Ograve /Oacute /Ocircumflex /Otilde /Odieresis /multiply
 /Oslash /Ugrave /Uacute /Ucircumflex /Udieresis /Yacute /Thorn /germandbls
 /agrave /aacute /acircumflex /atilde /adieresis /aring /ae /ccedilla
 /egrave /eacute /ecircumflex /edieresis /igrave /iacute /icircumflex /idieresis
 /eth /ntilde /ograve /oacute /ocircumflex /otilde /odieresis /divide
 /oslash /ugrave /uacute /ucircumflex /udieresis /yacute /thorn /ydieresis
]
 def
% end encoding
%%IncludeResource: font Helvetica
/Helvetica findfont
dup length dict begin
  {1 index /FID ne {def} {pop pop} ifelse} forall
  /Encoding WinAnsiEncoding def
  currentdict
  end
/Font1 exch definefont pop
%%IncludeResource: font Helvetica-Bold
/Helvetica-Bold findfont
dup length dict begin
  {1 index /FID ne {def} {pop pop} ifelse} forall
  /Encoding WinAnsiEncoding def
  currentdict
  end
/Font2 exch definefont pop
%%IncludeResource: font Helvetica-Oblique
/Helvetica-Oblique findfont
dup length dict begin
  {1 index /FID ne {def} {pop pop} ifelse} forall
  /Encoding WinAnsiEncoding def
  currentdict
  end
/Font3 exch definefont pop
%%IncludeResource: font Helvetica-BoldOblique
/Helvetica-BoldOblique findfont
dup length dict begin
  {1 index /FID ne {def} {pop pop} ifelse} forall
  /Encoding WinAnsiEncoding def
  currentdict
  end
/Font4 exch definefont pop
%%IncludeResource: font Symbol
/Symbol findfont
dup length dict begin
  {1 index /FID ne {def} {pop pop} ifelse} forall
  currentdict
  end
/Font5 exch definefont pop
%%EndProlog
%%Page: 1 1
bp
0.00 0.00 304.50 268.50 cl
0.00 0.00 304.50 268.50 cl
0.00 0.00 304.50 268.50 cl
0.00 0.00 304.50 268.50 cl
0.00 0.00 304.50 268.50 cl
0.00 0.00 304.50 268.50 cl
0.00 0.00 304.50 268.50 cl
0.00 0.00 304.50 268.50 cl
0.00 0.00 304.50 268.50 cl
/bg { 1 1 1 srgb } def
1 1 1 srgb
1.07 setlinewidth
[] 0 setdash
1 setlinecap
1 setlinejoin
10.00 setmiterlimit
0.00 0.00 304.50 268.50 r p3
0.00 0.00 304.50 268.50 cl
0.00 0.00 304.50 268.50 cl
0.00 0.00 304.50 268.50 cl
42.40 31.35 299.02 263.02 cl
/bg { 0.9216 0.9216 0.9216 srgb } def
42.40 31.35 256.62 231.67 r p2
1 1 1 srgb
0.53 setlinewidth
[] 0 setdash
0 setlinecap
1 setlinejoin
10.00 setmiterlimit
np
42.40 59.36 m
256.62 0 l
o
np
42.40 140.61 m
256.62 0 l
o
np
42.40 221.86 m
256.62 0 l
o
np
77.28 31.35 m
0 231.67 l
o
np
123.73 31.35 m
0 231.67 l
o
np
170.17 31.35 m
0 231.67 l
o
np
216.61 31.35 m
0 231.67 l
o
np
263.05 31.35 m
0 231.67 l
o
1.07 setlinewidth
[] 0 setdash
np
42.40 99.99 m
256.62 0 l
o
np
42.40 181.24 m
256.62 0 l
o
np
42.40 262.49 m
256.62 0 l
o
np
54.06 31.35 m
0 231.67 l
o
np
100.51 31.35 m
0 231.67 l
o
np
146.95 31.35 m
0 231.67 l
o
np
193.39 31.35 m
0 231.67 l
o
np
239.83 31.35 m
0 231.67 l
o
np
286.28 31.35 m
0 231.67 l
o
0.5294 0.8078 0.9216 srgb
1.00 setmiterlimit
np
54.06 78.13 m
148.75 0 l
0 -5.18 l
-4.44 0 l
0 -31.07 l
21.44 0 l
0 52.04 l
13.43 0 l
0 -19.09 l
2.87 0 l
0 10.55 l
-0.80 0 l
0 22.56 l
7.91 0 l
0 -13.70 l
-4.45 0 l
0 158.25 l
13.01 0 l
0 -152.15 l
0.90 0 l
0 -4.71 l
-0.72 0 l
0 -2.21 l
15.52 0 l
0 20.37 l
5.07 0 l
0 34.00 l
2.66 0 l
0 -42.02 l
5.18 0 l
o
/bg { 0.5294 0.8078 0.9216 srgb } def
0.71 setlinewidth
[] 0 setdash
1 setlinecap
10.00 setmiterlimit
54.06 78.13 1.95 c p3
202.81 78.13 1.95 c p3
202.81 72.95 1.95 c p3
198.37 72.95 1.95 c p3
198.37 41.88 1.95 c p3
219.81 41.88 1.95 c p3
219.81 93.92 1.95 c p3
233.24 93.92 1.95 c p3
233.24 74.83 1.95 c p3
236.11 74.83 1.95 c p3
236.11 85.38 1.95 c p3
235.31 85.38 1.95 c p3
235.31 107.94 1.95 c p3
243.22 107.94 1.95 c p3
243.22 94.24 1.95 c p3
238.77 94.24 1.95 c p3
238.77 252.49 1.95 c p3
251.78 252.49 1.95 c p3
251.78 100.34 1.95 c p3
252.68 100.34 1.95 c p3
252.68 95.63 1.95 c p3
251.96 95.63 1.95 c p3
251.96 93.42 1.95 c p3
267.48 93.42 1.95 c p3
267.48 113.79 1.95 c p3
272.55 113.79 1.95 c p3
272.55 147.79 1.95 c p3
275.21 147.79 1.95 c p3
275.21 105.77 1.95 c p3
280.39 105.77 1.95 c p3
0.6784 0.8471 0.9020 srgb
0.21 setlinewidth
[ 0.85 0.85] 0 setdash
0 setlinecap
np
42.40 181.24 m
256.62 0 l
o
np
286.28 31.35 m
0 231.67 l
o
/bg { 0.4980 1 0 srgb } def
0.4980 1 0 srgb
0.71 setlinewidth
[] 0 setdash
1 setlinecap
54.06 78.13 2.49 c p3
54.06 78.13 2.49 c p3
54.06 78.13 2.49 c p3
54.06 78.13 2.49 c p3
54.06 78.13 2.49 c p3
54.06 78.13 2.49 c p3
54.06 78.13 2.49 c p3
54.06 78.13 2.49 c p3
54.06 78.13 2.49 c p3
54.06 78.13 2.49 c p3
54.06 78.13 2.49 c p3
54.06 78.13 2.49 c p3
54.06 78.13 2.49 c p3
54.06 78.13 2.49 c p3
54.06 78.13 2.49 c p3
54.06 78.13 2.49 c p3
54.06 78.13 2.49 c p3
54.06 78.13 2.49 c p3
54.06 78.13 2.49 c p3
54.06 78.13 2.49 c p3
54.06 78.13 2.49 c p3
54.06 78.13 2.49 c p3
54.06 78.13 2.49 c p3
54.06 78.13 2.49 c p3
54.06 78.13 2.49 c p3
54.06 78.13 2.49 c p3
54.06 78.13 2.49 c p3
54.06 78.13 2.49 c p3
54.06 78.13 2.49 c p3
54.06 78.13 2.49 c p3
/bg { 1 0.5137 0.9804 srgb } def
1 0.5137 0.9804 srgb
280.39 105.77 2.49 c p3
280.39 105.77 2.49 c p3
280.39 105.77 2.49 c p3
280.39 105.77 2.49 c p3
280.39 105.77 2.49 c p3
280.39 105.77 2.49 c p3
280.39 105.77 2.49 c p3
280.39 105.77 2.49 c p3
280.39 105.77 2.49 c p3
280.39 105.77 2.49 c p3
280.39 105.77 2.49 c p3
280.39 105.77 2.49 c p3
280.39 105.77 2.49 c p3
280.39 105.77 2.49 c p3
280.39 105.77 2.49 c p3
280.39 105.77 2.49 c p3
280.39 105.77 2.49 c p3
280.39 105.77 2.49 c p3
280.39 105.77 2.49 c p3
280.39 105.77 2.49 c p3
280.39 105.77 2.49 c p3
280.39 105.77 2.49 c p3
280.39 105.77 2.49 c p3
280.39 105.77 2.49 c p3
280.39 105.77 2.49 c p3
280.39 105.77 2.49 c p3
280.39 105.77 2.49 c p3
280.39 105.77 2.49 c p3
280.39 105.77 2.49 c p3
280.39 105.77 2.49 c p3
/bg { 0 0 0 srgb } def
0 0 0 srgb
286.28 181.24 3.56 c p3
286.28 181.24 3.56 c p3
286.28 181.24 3.56 c p3
286.28 181.24 3.56 c p3
286.28 181.24 3.56 c p3
286.28 181.24 3.56 c p3
286.28 181.24 3.56 c p3
286.28 181.24 3.56 c p3
286.28 181.24 3.56 c p3
286.28 181.24 3.56 c p3
286.28 181.24 3.56 c p3
286.28 181.24 3.56 c p3
286.28 181.24 3.56 c p3
286.28 181.24 3.56 c p3
286.28 181.24 3.56 c p3
286.28 181.24 3.56 c p3
286.28 181.24 3.56 c p3
286.28 181.24 3.56 c p3
286.28 181.24 3.56 c p3
286.28 181.24 3.56 c p3
286.28 181.24 3.56 c p3
286.28 181.24 3.56 c p3
286.28 181.24 3.56 c p3
286.28 181.24 3.56 c p3
286.28 181.24 3.56 c p3
286.28 181.24 3.56 c p3
286.28 181.24 3.56 c p3
286.28 181.24 3.56 c p3
286.28 181.24 3.56 c p3
286.28 181.24 3.56 c p3
/Font1 findfont 11 s
52.81 58.94 (P) 0 0 t
/Font1 findfont 8 s
60.15 56.93 (2) 0 0 t
/Font1 findfont 11 s
279.24 86.65 (P) 0 0 t
/Font1 findfont 8 s
286.58 84.64 (30) 0 0 t
/Font1 findfont 11 s
282.61 161.04 (X) 0 0 t
0.00 0.00 304.50 268.50 cl
0.00 0.00 304.50 268.50 cl
0.00 0.00 304.50 268.50 cl
0.00 0.00 304.50 268.50 cl
0.00 0.00 304.50 268.50 cl
0.00 0.00 304.50 268.50 cl
/Font1 findfont 9 s
0.3020 0.3020 0.3020 srgb
37.47 96.75 (0.74) 1 0 t
37.47 178.00 (0.75) 1 0 t
37.47 259.25 (0.76) 1 0 t
0.00 0.00 304.50 268.50 cl
0.00 0.00 304.50 268.50 cl
0.2000 0.2000 0.2000 srgb
1.07 setlinewidth
[] 0 setdash
0 setlinecap
1 setlinejoin
10.00 setmiterlimit
np
39.66 99.99 m
2.74 0 l
o
np
39.66 181.24 m
2.74 0 l
o
np
39.66 262.49 m
2.74 0 l
o
0.00 0.00 304.50 268.50 cl
0.00 0.00 304.50 268.50 cl
0.00 0.00 304.50 268.50 cl
0.00 0.00 304.50 268.50 cl
0.00 0.00 304.50 268.50 cl
0.00 0.00 304.50 268.50 cl
0.00 0.00 304.50 268.50 cl
0.00 0.00 304.50 268.50 cl
0.2000 0.2000 0.2000 srgb
1.07 setlinewidth
[] 0 setdash
0 setlinecap
1 setlinejoin
10.00 setmiterlimit
np
54.06 28.61 m
0 2.74 l
o
np
100.51 28.61 m
0 2.74 l
o
np
146.95 28.61 m
0 2.74 l
o
np
193.39 28.61 m
0 2.74 l
o
np
239.83 28.61 m
0 2.74 l
o
np
286.28 28.61 m
0 2.74 l
o
0.00 0.00 304.50 268.50 cl
0.00 0.00 304.50 268.50 cl
/Font1 findfont 9 s
0.3020 0.3020 0.3020 srgb
54.06 19.95 (2.0) .5 0 t
100.51 19.95 (2.1) .5 0 t
146.95 19.95 (2.2) .5 0 t
193.39 19.95 (2.3) .5 0 t
239.83 19.95 (2.4) .5 0 t
286.28 19.95 (2.5) .5 0 t
0.00 0.00 304.50 268.50 cl
0.00 0.00 304.50 268.50 cl
0.00 0.00 304.50 268.50 cl
0.00 0.00 304.50 268.50 cl
/Font1 findfont 11 s
0 0 0 srgb
170.71 7.67 (Tmax) .5 0 t
0.00 0.00 304.50 268.50 cl
0.00 0.00 304.50 268.50 cl
/Font1 findfont 11 s
0 0 0 srgb
15.57 147.18 (Diffusivity) .5 90 t
0.00 0.00 304.50 268.50 cl
0.00 0.00 304.50 268.50 cl
0.00 0.00 304.50 268.50 cl
0.00 0.00 304.50 268.50 cl
ep
%%Trailer
%%Pages: 1
%%EOF
