%!PS-Adobe-3.0 EPSF-3.0
%%DocumentNeededResources: font Helvetica
%%+ font Helvetica-Bold
%%+ font Helvetica-Oblique
%%+ font Helvetica-BoldOblique
%%+ font Symbol
%%Title: R Graphics Output
%%Creator: R Software
%%Pages: (atend)
%%BoundingBox: 0 0 289 254
%%EndComments
%%BeginProlog
/bp  { gs sRGB gs } def
% begin .ps.prolog
/gs  { gsave } bind def
/gr  { grestore } bind def
/ep  { showpage gr gr } bind def
/m   { moveto } bind def
/l  { rlineto } bind def
/np  { newpath } bind def
/cp  { closepath } bind def
/f   { fill } bind def
/o   { stroke } bind def
/c   { newpath 0 360 arc } bind def
/r   { 4 2 roll moveto 1 copy 3 -1 roll exch 0 exch rlineto 0 rlineto -1 mul 0 exch rlineto closepath } bind def
/p1  { stroke } bind def
/p2  { gsave bg fill grestore newpath } bind def
/p3  { gsave bg fill grestore stroke } bind def
/p6  { gsave bg eofill grestore newpath } bind def
/p7  { gsave bg eofill grestore stroke } bind def
/t   { 5 -2 roll moveto gsave rotate
       1 index stringwidth pop
       mul neg 0 rmoveto show grestore } bind def
/ta  { 4 -2 roll moveto gsave rotate show } bind def
/tb  { 2 -1 roll 0 rmoveto show } bind def
/cl  { grestore gsave newpath 3 index 3 index moveto 1 index
       4 -1 roll lineto  exch 1 index lineto lineto
       closepath clip newpath } bind def
/rgb { setrgbcolor } bind def
/s   { scalefont setfont } bind def
% end   .ps.prolog
/sRGB { [ /CIEBasedABC
          << /DecodeLMN
               [ { dup 0.03928 le
                        {12.92321 div}
                        {0.055 add 1.055 div 2.4 exp }
                     ifelse
                 } bind dup dup
               ]
             /MatrixLMN [0.412457 0.212673 0.019334
                         0.357576 0.715152 0.119192
                         0.180437 0.072175 0.950301]
             /WhitePoint [0.9505 1.0 1.0890]
           >>
         ] setcolorspace } bind def
/srgb { setcolor } bind def
% begin encoding
/WinAnsiEncoding [
 /.notdef /.notdef /.notdef /.notdef /.notdef /.notdef /.notdef /.notdef
 /.notdef /.notdef /.notdef /.notdef /.notdef /.notdef /.notdef /.notdef
 /.notdef /.notdef /.notdef /.notdef /.notdef /.notdef /.notdef /.notdef
 /.notdef /.notdef /.notdef /.notdef /.notdef /.notdef /.notdef /.notdef
 /space /exclam /quotedbl /numbersign /dollar /percent /ampersand /quoteright
 /parenleft /parenright /asterisk /plus /comma /minus /period /slash
 /zero /one /two /three /four /five /six /seven
 /eight /nine /colon /semicolon /less /equal /greater /question
 /at /A /B /C /D /E /F /G
 /H /I /J /K /L /M /N /O
 /P /Q /R /S /T /U /V /W
 /X /Y /Z /bracketleft /backslash /bracketright /asciicircum /underscore
 /grave /a /b /c /d /e /f /g
 /h /i /j /k /l /m /n /o
 /p /q /r /s /t /u /v /w
 /x /y /z /braceleft /bar /braceright /asciitilde /.notdef
 /Euro /.notdef /quotesinglbase /florin /quotedblbase /ellipsis /dagger /daggerdbl
 /circumflex /perthousand /Scaron /guilsinglleft /OE /.notdef /Zcaron /.notdef
 /.notdef /quoteleft /quoteright /quotedblleft /quotedblright /bullet /endash /emdash
 /tilde /trademark /scaron /guilsinglright /oe /.notdef /zcaron /Ydieresis
 /space /exclamdown /cent /sterling /currency /yen /brokenbar /section
 /dieresis /copyright /ordfeminine /guillemotleft /logicalnot /hyphen /registered /macron
 /degree /plusminus /twosuperior /threesuperior /acute /mu /paragraph /periodcentered
 /cedilla /onesuperior /ordmasculine /guillemotright /onequarter /onehalf /threequarters /questiondown
 /Agrave /Aacute /Acircumflex /Atilde /Adieresis /Aring /AE /Ccedilla
 /Egrave /Eacute /Ecircumflex /Edieresis /Igrave /Iacute /Icircumflex /Idieresis
 /Eth /Ntilde /Ograve /Oacute /Ocircumflex /Otilde /Odieresis /multiply
 /Oslash /Ugrave /Uacute /Ucircumflex /Udieresis /Yacute /Thorn /germandbls
 /agrave /aacute /acircumflex /atilde /adieresis /aring /ae /ccedilla
 /egrave /eacute /ecircumflex /edieresis /igrave /iacute /icircumflex /idieresis
 /eth /ntilde /ograve /oacute /ocircumflex /otilde /odieresis /divide
 /oslash /ugrave /uacute /ucircumflex /udieresis /yacute /thorn /ydieresis
]
 def
% end encoding
%%IncludeResource: font Helvetica
/Helvetica findfont
dup length dict begin
  {1 index /FID ne {def} {pop pop} ifelse} forall
  /Encoding WinAnsiEncoding def
  currentdict
  end
/Font1 exch definefont pop
%%IncludeResource: font Helvetica-Bold
/Helvetica-Bold findfont
dup length dict begin
  {1 index /FID ne {def} {pop pop} ifelse} forall
  /Encoding WinAnsiEncoding def
  currentdict
  end
/Font2 exch definefont pop
%%IncludeResource: font Helvetica-Oblique
/Helvetica-Oblique findfont
dup length dict begin
  {1 index /FID ne {def} {pop pop} ifelse} forall
  /Encoding WinAnsiEncoding def
  currentdict
  end
/Font3 exch definefont pop
%%IncludeResource: font Helvetica-BoldOblique
/Helvetica-BoldOblique findfont
dup length dict begin
  {1 index /FID ne {def} {pop pop} ifelse} forall
  /Encoding WinAnsiEncoding def
  currentdict
  end
/Font4 exch definefont pop
%%IncludeResource: font Symbol
/Symbol findfont
dup length dict begin
  {1 index /FID ne {def} {pop pop} ifelse} forall
  currentdict
  end
/Font5 exch definefont pop
%%EndProlog
%%Page: 1 1
bp
0.00 0.00 289.50 254.25 cl
0.00 0.00 289.50 254.25 cl
0.00 0.00 289.50 254.25 cl
0.00 0.00 289.50 254.25 cl
0.00 0.00 289.50 254.25 cl
0.00 0.00 289.50 254.25 cl
0.00 0.00 289.50 254.25 cl
0.00 0.00 289.50 254.25 cl
0.00 0.00 289.50 254.25 cl
0.00 0.00 289.50 254.25 cl
0.00 0.00 289.50 254.25 cl
/bg { 0.9922 0.9647 0.8902 srgb } def
0.00 0.00 289.50 254.25 r p2
0.00 0.00 289.50 254.25 cl
40.39 33.13 241.43 228.80 cl
/bg { 0.9922 0.9647 0.8902 srgb } def
0.5765 0.6314 0.6314 srgb
1.07 setlinewidth
[] 0 setdash
1 setlinecap
1 setlinejoin
10.00 setmiterlimit
40.39 33.13 201.04 195.67 r p3
0.9333 0.9098 0.8353 srgb
0.53 setlinewidth
[] 0 setdash
0 setlinecap
np
49.53 33.13 m
0 195.67 l
o
np
86.08 33.13 m
0 195.67 l
o
np
122.64 33.13 m
0 195.67 l
o
np
159.19 33.13 m
0 195.67 l
o
np
195.74 33.13 m
0 195.67 l
o
np
232.30 33.13 m
0 195.67 l
o
1.07 setlinewidth
[] 0 setdash
np
40.39 72.26 m
201.04 0 l
o
np
40.39 111.40 m
201.04 0 l
o
np
40.39 150.53 m
201.04 0 l
o
np
40.39 189.66 m
201.04 0 l
o
np
67.81 33.13 m
0 195.67 l
o
np
104.36 33.13 m
0 195.67 l
o
np
140.91 33.13 m
0 195.67 l
o
np
177.47 33.13 m
0 195.67 l
o
np
214.02 33.13 m
0 195.67 l
o
/bg { 0.9725 0.4627 0.4275 srgb } def
0.9725 0.4627 0.4275 srgb
0.71 setlinewidth
[] 0 setdash
1 setlinecap
124.06 72.26 1.95 c p3
90.31 111.40 1.95 c p3
169.80 150.53 1.95 c p3
83.57 189.66 1.95 c p3
0.00 0.00 289.50 254.25 cl
0.00 0.00 289.50 254.25 cl
0.00 0.00 289.50 254.25 cl
0.00 0.00 289.50 254.25 cl
0.00 0.00 289.50 254.25 cl
0.00 0.00 289.50 254.25 cl
0.00 0.00 289.50 254.25 cl
0.00 0.00 289.50 254.25 cl
0.00 0.00 289.50 254.25 cl
0.00 0.00 289.50 254.25 cl
0.00 0.00 289.50 254.25 cl
0.00 0.00 289.50 254.25 cl
0.00 0.00 289.50 254.25 cl
0.5765 0.6314 0.6314 srgb
1.07 setlinewidth
[] 0 setdash
0 setlinecap
1 setlinejoin
10.00 setmiterlimit
np
40.39 33.13 m
0 195.67 l
o
0.00 0.00 289.50 254.25 cl
0.00 0.00 289.50 254.25 cl
0.00 0.00 289.50 254.25 cl
/Font1 findfont 10 s
0.3020 0.3020 0.3020 srgb
35.01 68.67 (a) 1 0 t
35.01 107.81 (m) 1 0 t
35.01 146.94 (T0) 1 0 t
35.01 186.07 (Tm) 1 0 t
0.00 0.00 289.50 254.25 cl
0.00 0.00 289.50 254.25 cl
0.5765 0.6314 0.6314 srgb
1.07 setlinewidth
[] 0 setdash
0 setlinecap
1 setlinejoin
10.00 setmiterlimit
np
37.40 72.26 m
2.99 0 l
o
np
37.40 111.40 m
2.99 0 l
o
np
37.40 150.53 m
2.99 0 l
o
np
37.40 189.66 m
2.99 0 l
o
0.00 0.00 289.50 254.25 cl
0.00 0.00 289.50 254.25 cl
0.00 0.00 289.50 254.25 cl
0.00 0.00 289.50 254.25 cl
0.00 0.00 289.50 254.25 cl
0.00 0.00 289.50 254.25 cl
0.00 0.00 289.50 254.25 cl
0.5765 0.6314 0.6314 srgb
1.07 setlinewidth
[] 0 setdash
0 setlinecap
1 setlinejoin
10.00 setmiterlimit
np
40.39 33.13 m
201.04 0 l
o
0.00 0.00 289.50 254.25 cl
0.00 0.00 289.50 254.25 cl
0.00 0.00 289.50 254.25 cl
0.5765 0.6314 0.6314 srgb
1.07 setlinewidth
[] 0 setdash
0 setlinecap
1 setlinejoin
10.00 setmiterlimit
np
67.81 30.14 m
0 2.99 l
o
np
104.36 30.14 m
0 2.99 l
o
np
140.91 30.14 m
0 2.99 l
o
np
177.47 30.14 m
0 2.99 l
o
np
214.02 30.14 m
0 2.99 l
o
0.00 0.00 289.50 254.25 cl
0.00 0.00 289.50 254.25 cl
/Font1 findfont 10 s
0.3020 0.3020 0.3020 srgb
67.81 20.57 (-2) .5 0 t
104.36 20.57 (-1) .5 0 t
140.91 20.57 (0) .5 0 t
177.47 20.57 (1) .5 0 t
214.02 20.57 (2) .5 0 t
0.00 0.00 289.50 254.25 cl
0.00 0.00 289.50 254.25 cl
0.00 0.00 289.50 254.25 cl
0.00 0.00 289.50 254.25 cl
0.00 0.00 289.50 254.25 cl
0.00 0.00 289.50 254.25 cl
/Font1 findfont 12 s
0.3961 0.4824 0.5137 srgb
140.91 5.98 (z) .5 0 t
0.00 0.00 289.50 254.25 cl
0.00 0.00 289.50 254.25 cl
/Font1 findfont 12 s
0.3961 0.4824 0.5137 srgb
14.59 102.96 (P) 90 ta
-0.480 (ar) tb
-0.120 (ameter) tb gr
0.00 0.00 289.50 254.25 cl
0.00 0.00 289.50 254.25 cl
0.00 0.00 289.50 254.25 cl
0.00 0.00 289.50 254.25 cl
0.00 0.00 289.50 254.25 cl
0.00 0.00 289.50 254.25 cl
0.00 0.00 289.50 254.25 cl
0.00 0.00 289.50 254.25 cl
/bg { 0.9922 0.9647 0.8902 srgb } def
252.77 115.29 30.75 31.35 r p2
0.00 0.00 289.50 254.25 cl
0.00 0.00 289.50 254.25 cl
/Font1 findfont 12 s
0.3961 0.4824 0.5137 srgb
252.77 137.46 (Chain) 0 0 t
0.00 0.00 289.50 254.25 cl
0.00 0.00 289.50 254.25 cl
/bg { 1 1 1 srgb } def
252.77 115.29 17.28 17.28 r p2
0.00 0.00 289.50 254.25 cl
0.00 0.00 289.50 254.25 cl
/bg { 0.9725 0.4627 0.4275 srgb } def
0.9725 0.4627 0.4275 srgb
0.71 setlinewidth
[] 0 setdash
1 setlinecap
1 setlinejoin
10.00 setmiterlimit
261.41 123.93 1.95 c p3
0.00 0.00 289.50 254.25 cl
0.00 0.00 289.50 254.25 cl
/Font1 findfont 10 s
0.5765 0.6314 0.6314 srgb
272.21 120.34 (1) 0 0 t
0.00 0.00 289.50 254.25 cl
0.00 0.00 289.50 254.25 cl
0.00 0.00 289.50 254.25 cl
0.00 0.00 289.50 254.25 cl
0.00 0.00 289.50 254.25 cl
0.00 0.00 289.50 254.25 cl
/Font1 findfont 14 s
0.3961 0.4824 0.5137 srgb
40.39 238.22 (Ge) 0 ta
-0.280 (w) tb
-0.140 (ek) tb
-0.280 (e Diagnostics) tb gr
0.00 0.00 289.50 254.25 cl
0.00 0.00 289.50 254.25 cl
0.00 0.00 289.50 254.25 cl
0.00 0.00 289.50 254.25 cl
ep
%%Trailer
%%Pages: 1
%%EOF
