%!PS-Adobe-3.0 EPSF-3.0
%%DocumentNeededResources: font Helvetica
%%+ font Helvetica-Bold
%%+ font Helvetica-Oblique
%%+ font Helvetica-BoldOblique
%%+ font Symbol
%%Title: R Graphics Output
%%Creator: R Software
%%Pages: (atend)
%%BoundingBox: 0 0 334 253
%%EndComments
%%BeginProlog
/bp  { gs sRGB gs } def
% begin .ps.prolog
/gs  { gsave } bind def
/gr  { grestore } bind def
/ep  { showpage gr gr } bind def
/m   { moveto } bind def
/l  { rlineto } bind def
/np  { newpath } bind def
/cp  { closepath } bind def
/f   { fill } bind def
/o   { stroke } bind def
/c   { newpath 0 360 arc } bind def
/r   { 4 2 roll moveto 1 copy 3 -1 roll exch 0 exch rlineto 0 rlineto -1 mul 0 exch rlineto closepath } bind def
/p1  { stroke } bind def
/p2  { gsave bg fill grestore newpath } bind def
/p3  { gsave bg fill grestore stroke } bind def
/p6  { gsave bg eofill grestore newpath } bind def
/p7  { gsave bg eofill grestore stroke } bind def
/t   { 5 -2 roll moveto gsave rotate
       1 index stringwidth pop
       mul neg 0 rmoveto show grestore } bind def
/ta  { 4 -2 roll moveto gsave rotate show } bind def
/tb  { 2 -1 roll 0 rmoveto show } bind def
/cl  { grestore gsave newpath 3 index 3 index moveto 1 index
       4 -1 roll lineto  exch 1 index lineto lineto
       closepath clip newpath } bind def
/rgb { setrgbcolor } bind def
/s   { scalefont setfont } bind def
% end   .ps.prolog
/sRGB { [ /CIEBasedABC
          << /DecodeLMN
               [ { dup 0.03928 le
                        {12.92321 div}
                        {0.055 add 1.055 div 2.4 exp }
                     ifelse
                 } bind dup dup
               ]
             /MatrixLMN [0.412457 0.212673 0.019334
                         0.357576 0.715152 0.119192
                         0.180437 0.072175 0.950301]
             /WhitePoint [0.9505 1.0 1.0890]
           >>
         ] setcolorspace } bind def
/srgb { setcolor } bind def
% begin encoding
/WinAnsiEncoding [
 /.notdef /.notdef /.notdef /.notdef /.notdef /.notdef /.notdef /.notdef
 /.notdef /.notdef /.notdef /.notdef /.notdef /.notdef /.notdef /.notdef
 /.notdef /.notdef /.notdef /.notdef /.notdef /.notdef /.notdef /.notdef
 /.notdef /.notdef /.notdef /.notdef /.notdef /.notdef /.notdef /.notdef
 /space /exclam /quotedbl /numbersign /dollar /percent /ampersand /quoteright
 /parenleft /parenright /asterisk /plus /comma /minus /period /slash
 /zero /one /two /three /four /five /six /seven
 /eight /nine /colon /semicolon /less /equal /greater /question
 /at /A /B /C /D /E /F /G
 /H /I /J /K /L /M /N /O
 /P /Q /R /S /T /U /V /W
 /X /Y /Z /bracketleft /backslash /bracketright /asciicircum /underscore
 /grave /a /b /c /d /e /f /g
 /h /i /j /k /l /m /n /o
 /p /q /r /s /t /u /v /w
 /x /y /z /braceleft /bar /braceright /asciitilde /.notdef
 /Euro /.notdef /quotesinglbase /florin /quotedblbase /ellipsis /dagger /daggerdbl
 /circumflex /perthousand /Scaron /guilsinglleft /OE /.notdef /Zcaron /.notdef
 /.notdef /quoteleft /quoteright /quotedblleft /quotedblright /bullet /endash /emdash
 /tilde /trademark /scaron /guilsinglright /oe /.notdef /zcaron /Ydieresis
 /space /exclamdown /cent /sterling /currency /yen /brokenbar /section
 /dieresis /copyright /ordfeminine /guillemotleft /logicalnot /hyphen /registered /macron
 /degree /plusminus /twosuperior /threesuperior /acute /mu /paragraph /periodcentered
 /cedilla /onesuperior /ordmasculine /guillemotright /onequarter /onehalf /threequarters /questiondown
 /Agrave /Aacute /Acircumflex /Atilde /Adieresis /Aring /AE /Ccedilla
 /Egrave /Eacute /Ecircumflex /Edieresis /Igrave /Iacute /Icircumflex /Idieresis
 /Eth /Ntilde /Ograve /Oacute /Ocircumflex /Otilde /Odieresis /multiply
 /Oslash /Ugrave /Uacute /Ucircumflex /Udieresis /Yacute /Thorn /germandbls
 /agrave /aacute /acircumflex /atilde /adieresis /aring /ae /ccedilla
 /egrave /eacute /ecircumflex /edieresis /igrave /iacute /icircumflex /idieresis
 /eth /ntilde /ograve /oacute /ocircumflex /otilde /odieresis /divide
 /oslash /ugrave /uacute /ucircumflex /udieresis /yacute /thorn /ydieresis
]
 def
% end encoding
%%IncludeResource: font Helvetica
/Helvetica findfont
dup length dict begin
  {1 index /FID ne {def} {pop pop} ifelse} forall
  /Encoding WinAnsiEncoding def
  currentdict
  end
/Font1 exch definefont pop
%%IncludeResource: font Helvetica-Bold
/Helvetica-Bold findfont
dup length dict begin
  {1 index /FID ne {def} {pop pop} ifelse} forall
  /Encoding WinAnsiEncoding def
  currentdict
  end
/Font2 exch definefont pop
%%IncludeResource: font Helvetica-Oblique
/Helvetica-Oblique findfont
dup length dict begin
  {1 index /FID ne {def} {pop pop} ifelse} forall
  /Encoding WinAnsiEncoding def
  currentdict
  end
/Font3 exch definefont pop
%%IncludeResource: font Helvetica-BoldOblique
/Helvetica-BoldOblique findfont
dup length dict begin
  {1 index /FID ne {def} {pop pop} ifelse} forall
  /Encoding WinAnsiEncoding def
  currentdict
  end
/Font4 exch definefont pop
%%IncludeResource: font Symbol
/Symbol findfont
dup length dict begin
  {1 index /FID ne {def} {pop pop} ifelse} forall
  currentdict
  end
/Font5 exch definefont pop
%%EndProlog
%%Page: 1 1
bp
0.00 0.00 333.75 253.50 cl
0.00 0.00 333.75 253.50 cl
0.00 0.00 333.75 253.50 cl
0.00 0.00 333.75 253.50 cl
0.00 0.00 333.75 253.50 cl
0.00 0.00 333.75 253.50 cl
0.00 0.00 333.75 253.50 cl
0.00 0.00 333.75 253.50 cl
0.00 0.00 333.75 253.50 cl
/bg { 1 1 1 srgb } def
1 1 1 srgb
1.07 setlinewidth
[] 0 setdash
1 setlinecap
1 setlinejoin
10.00 setmiterlimit
0.00 0.00 333.75 253.50 r p3
0.00 0.00 333.75 253.50 cl
43.80 30.25 328.27 248.02 cl
/bg { 0.9216 0.9216 0.9216 srgb } def
43.80 30.25 284.47 217.77 r p2
1 1 1 srgb
0.53 setlinewidth
[] 0 setdash
0 setlinecap
1 setlinejoin
10.00 setmiterlimit
np
43.80 75.40 m
284.47 0 l
o
np
43.80 138.79 m
284.47 0 l
o
np
43.80 202.18 m
284.47 0 l
o
np
89.06 30.25 m
0 217.77 l
o
np
153.71 30.25 m
0 217.77 l
o
np
218.36 30.25 m
0 217.77 l
o
np
283.01 30.25 m
0 217.77 l
o
1.07 setlinewidth
[] 0 setdash
np
43.80 43.71 m
284.47 0 l
o
np
43.80 107.10 m
284.47 0 l
o
np
43.80 170.48 m
284.47 0 l
o
np
43.80 233.87 m
284.47 0 l
o
np
56.73 30.25 m
0 217.77 l
o
np
121.39 30.25 m
0 217.77 l
o
np
186.04 30.25 m
0 217.77 l
o
np
250.69 30.25 m
0 217.77 l
o
np
315.34 30.25 m
0 217.77 l
o
0.2745 0.5098 0.7059 srgb
0.71 setlinewidth
[] 0 setdash
1 setlinecap
57.06 44.45 1.95 c p1
58.36 44.61 1.95 c p1
59.65 43.57 1.95 c p1
60.95 43.13 1.95 c p1
62.25 44.48 1.95 c p1
63.55 41.40 1.95 c p1
64.85 44.51 1.95 c p1
66.14 43.36 1.95 c p1
67.44 43.35 1.95 c p1
68.74 42.56 1.95 c p1
70.04 43.62 1.95 c p1
71.33 46.14 1.95 c p1
72.63 44.43 1.95 c p1
73.93 44.82 1.95 c p1
75.23 43.51 1.95 c p1
76.53 45.91 1.95 c p1
77.82 44.29 1.95 c p1
79.12 45.69 1.95 c p1
80.42 48.39 1.95 c p1
81.72 48.37 1.95 c p1
83.02 50.18 1.95 c p1
84.31 52.41 1.95 c p1
85.61 51.30 1.95 c p1
86.91 51.88 1.95 c p1
88.21 53.71 1.95 c p1
89.51 60.08 1.95 c p1
90.80 59.40 1.95 c p1
92.10 63.15 1.95 c p1
93.40 65.63 1.95 c p1
94.70 67.26 1.95 c p1
96.00 71.22 1.95 c p1
97.29 75.81 1.95 c p1
98.59 78.55 1.95 c p1
99.89 81.03 1.95 c p1
101.19 82.36 1.95 c p1
102.48 85.81 1.95 c p1
103.78 87.97 1.95 c p1
105.08 89.51 1.95 c p1
106.38 97.14 1.95 c p1
107.68 98.23 1.95 c p1
108.97 102.95 1.95 c p1
110.27 101.83 1.95 c p1
111.57 106.84 1.95 c p1
112.87 112.71 1.95 c p1
114.17 115.94 1.95 c p1
115.46 120.02 1.95 c p1
116.76 119.67 1.95 c p1
118.06 125.46 1.95 c p1
119.36 128.73 1.95 c p1
120.66 129.55 1.95 c p1
121.95 133.70 1.95 c p1
123.25 140.00 1.95 c p1
124.55 140.70 1.95 c p1
125.85 144.14 1.95 c p1
127.14 145.86 1.95 c p1
128.44 150.03 1.95 c p1
129.74 153.47 1.95 c p1
131.04 156.50 1.95 c p1
132.34 160.99 1.95 c p1
133.63 158.05 1.95 c p1
134.93 163.91 1.95 c p1
136.23 164.66 1.95 c p1
137.53 169.65 1.95 c p1
138.83 173.50 1.95 c p1
140.12 173.21 1.95 c p1
141.42 174.04 1.95 c p1
142.72 179.84 1.95 c p1
144.02 183.03 1.95 c p1
145.32 183.90 1.95 c p1
146.61 183.78 1.95 c p1
147.91 187.61 1.95 c p1
149.21 188.61 1.95 c p1
150.51 190.27 1.95 c p1
151.80 196.50 1.95 c p1
153.10 197.21 1.95 c p1
154.40 198.46 1.95 c p1
155.70 200.08 1.95 c p1
157.00 199.72 1.95 c p1
158.29 203.02 1.95 c p1
159.59 205.32 1.95 c p1
160.89 206.40 1.95 c p1
162.19 208.40 1.95 c p1
163.49 208.14 1.95 c p1
164.78 213.07 1.95 c p1
166.08 212.50 1.95 c p1
167.38 214.94 1.95 c p1
168.68 214.67 1.95 c p1
169.98 214.63 1.95 c p1
171.27 216.85 1.95 c p1
172.57 218.32 1.95 c p1
173.87 217.11 1.95 c p1
175.17 218.27 1.95 c p1
176.46 222.72 1.95 c p1
177.76 220.75 1.95 c p1
179.06 220.89 1.95 c p1
180.36 223.85 1.95 c p1
181.66 223.14 1.95 c p1
182.95 227.28 1.95 c p1
184.25 224.51 1.95 c p1
185.55 225.08 1.95 c p1
186.85 226.89 1.95 c p1
188.15 225.76 1.95 c p1
189.44 228.33 1.95 c p1
190.74 226.66 1.95 c p1
192.04 229.03 1.95 c p1
193.34 228.64 1.95 c p1
194.64 229.37 1.95 c p1
195.93 232.14 1.95 c p1
197.23 229.98 1.95 c p1
198.53 231.30 1.95 c p1
199.83 229.65 1.95 c p1
201.13 229.82 1.95 c p1
202.42 233.36 1.95 c p1
203.72 233.67 1.95 c p1
205.02 232.10 1.95 c p1
206.32 231.74 1.95 c p1
207.61 232.47 1.95 c p1
208.91 233.46 1.95 c p1
210.21 235.53 1.95 c p1
211.51 232.76 1.95 c p1
212.81 234.87 1.95 c p1
214.10 234.62 1.95 c p1
215.40 233.36 1.95 c p1
216.70 234.89 1.95 c p1
218.00 232.38 1.95 c p1
219.30 231.40 1.95 c p1
220.59 230.46 1.95 c p1
221.89 234.18 1.95 c p1
223.19 229.91 1.95 c p1
224.49 230.96 1.95 c p1
225.79 234.42 1.95 c p1
227.08 233.29 1.95 c p1
228.38 232.66 1.95 c p1
229.68 230.30 1.95 c p1
230.98 234.96 1.95 c p1
232.27 230.04 1.95 c p1
233.57 229.85 1.95 c p1
234.87 231.72 1.95 c p1
236.17 230.77 1.95 c p1
237.47 229.79 1.95 c p1
238.76 228.58 1.95 c p1
240.06 228.08 1.95 c p1
241.36 228.65 1.95 c p1
242.66 227.17 1.95 c p1
243.96 228.74 1.95 c p1
245.25 229.05 1.95 c p1
246.55 226.04 1.95 c p1
247.85 228.70 1.95 c p1
249.15 228.37 1.95 c p1
250.45 227.01 1.95 c p1
251.74 224.38 1.95 c p1
253.04 226.71 1.95 c p1
254.34 225.83 1.95 c p1
255.64 224.13 1.95 c p1
256.93 224.57 1.95 c p1
258.23 223.94 1.95 c p1
259.53 225.95 1.95 c p1
260.83 222.89 1.95 c p1
262.13 222.94 1.95 c p1
263.42 221.55 1.95 c p1
264.72 221.26 1.95 c p1
266.02 221.77 1.95 c p1
267.32 220.58 1.95 c p1
268.62 219.76 1.95 c p1
269.91 218.60 1.95 c p1
271.21 218.98 1.95 c p1
272.51 219.62 1.95 c p1
273.81 216.71 1.95 c p1
275.11 219.98 1.95 c p1
276.40 217.18 1.95 c p1
277.70 216.91 1.95 c p1
279.00 217.82 1.95 c p1
280.30 215.60 1.95 c p1
281.60 216.04 1.95 c p1
282.89 212.28 1.95 c p1
284.19 214.48 1.95 c p1
285.49 216.45 1.95 c p1
286.79 213.23 1.95 c p1
288.08 212.42 1.95 c p1
289.38 209.26 1.95 c p1
290.68 209.83 1.95 c p1
291.98 210.34 1.95 c p1
293.28 209.29 1.95 c p1
294.57 210.65 1.95 c p1
295.87 209.66 1.95 c p1
297.17 208.12 1.95 c p1
298.47 209.27 1.95 c p1
299.77 207.30 1.95 c p1
301.06 206.01 1.95 c p1
302.36 204.99 1.95 c p1
303.66 205.71 1.95 c p1
304.96 203.77 1.95 c p1
306.26 204.80 1.95 c p1
307.55 203.57 1.95 c p1
308.85 204.24 1.95 c p1
310.15 202.98 1.95 c p1
311.45 202.43 1.95 c p1
312.74 200.18 1.95 c p1
314.04 199.56 1.95 c p1
315.34 199.53 1.95 c p1
1 0.3882 0.2784 srgb
1.28 setlinewidth
[] 0 setdash
0 setlinecap
1.00 setmiterlimit
np
57.06 44.02 m
0.52 0 l
0.51 0 l
0.52 0 l
0.52 0 l
0.52 0 l
0.51 0 l
0.52 0 l
0.52 0 l
0.52 0 l
0.51 0 l
0.52 0 l
0.52 0 l
0.52 0 l
0.51 0 l
0.52 0 l
0.52 0 l
0.52 0 l
0.51 0 l
0.52 0 l
0.52 0 l
0.52 0.01 l
0.52 0.01 l
0.51 0 l
0.52 0.02 l
0.52 0.02 l
0.52 0.02 l
0.51 0.03 l
0.52 0.04 l
0.52 0.05 l
0.52 0.06 l
0.51 0.07 l
0.52 0.08 l
0.52 0.10 l
0.52 0.11 l
0.51 0.13 l
0.52 0.15 l
0.52 0.17 l
0.52 0.20 l
0.51 0.21 l
0.52 0.23 l
0.52 0.26 l
0.52 0.29 l
0.51 0.31 l
0.52 0.33 l
0.52 0.36 l
0.52 0.39 l
0.52 0.42 l
0.51 0.45 l
0.52 0.47 l
0.52 0.50 l
0.52 0.53 l
0.51 0.56 l
0.52 0.58 l
0.52 0.61 l
0.52 0.65 l
0.51 0.67 l
0.52 0.69 l
0.52 0.73 l
0.52 0.75 l
0.51 0.77 l
0.52 0.81 l
0.52 0.82 l
0.52 0.86 l
0.51 0.87 l
0.52 0.91 l
0.52 0.92 l
0.52 0.94 l
0.51 0.97 l
0.52 0.99 l
0.52 1.01 l
0.52 1.03 l
0.52 1.05 l
0.51 1.07 l
0.52 1.08 l
0.52 1.10 l
0.52 1.12 l
0.51 1.14 l
0.52 1.15 l
0.52 1.16 l
0.52 1.18 l
0.51 1.19 l
0.52 1.20 l
0.52 1.22 l
0.52 1.23 l
0.51 1.23 l
0.52 1.25 l
0.52 1.26 l
0.52 1.26 l
0.51 1.28 l
0.52 1.28 l
0.52 1.28 l
0.52 1.30 l
0.51 1.30 l
0.52 1.30 l
0.52 1.31 l
0.52 1.32 l
0.52 1.32 l
0.51 1.32 l
0.52 1.32 l
108.82 101.73 lineto
0.52 1.33 l
0.51 1.33 l
0.52 1.33 l
0.52 1.33 l
0.52 1.33 l
0.51 1.33 l
0.52 1.33 l
0.52 1.33 l
0.52 1.33 l
0.51 1.32 l
0.52 1.33 l
0.52 1.32 l
0.52 1.32 l
0.51 1.32 l
0.52 1.31 l
0.52 1.31 l
0.52 1.30 l
0.51 1.30 l
0.52 1.30 l
0.52 1.29 l
0.52 1.29 l
0.52 1.28 l
0.51 1.28 l
0.52 1.27 l
0.52 1.26 l
0.52 1.26 l
0.51 1.25 l
0.52 1.25 l
0.52 1.24 l
0.52 1.23 l
0.51 1.23 l
0.52 1.22 l
0.52 1.21 l
0.52 1.20 l
0.51 1.20 l
0.52 1.19 l
0.52 1.18 l
0.52 1.17 l
0.51 1.17 l
0.52 1.15 l
0.52 1.15 l
0.52 1.14 l
0.51 1.13 l
0.52 1.13 l
0.52 1.11 l
0.52 1.11 l
0.52 1.09 l
0.51 1.09 l
0.52 1.08 l
0.52 1.07 l
0.52 1.06 l
0.51 1.06 l
0.52 1.04 l
0.52 1.04 l
0.52 1.02 l
0.51 1.02 l
0.52 1.00 l
0.52 1.00 l
0.52 0.99 l
0.51 0.98 l
0.52 0.97 l
0.52 0.96 l
0.52 0.95 l
0.51 0.94 l
0.52 0.93 l
0.52 0.92 l
0.52 0.92 l
0.51 0.90 l
0.52 0.90 l
0.52 0.88 l
0.52 0.88 l
0.52 0.86 l
0.51 0.86 l
0.52 0.85 l
0.52 0.84 l
0.52 0.83 l
0.51 0.82 l
0.52 0.81 l
0.52 0.80 l
0.52 0.79 l
0.51 0.78 l
0.52 0.78 l
0.52 0.76 l
0.52 0.76 l
0.51 0.74 l
0.52 0.74 l
0.52 0.73 l
0.52 0.72 l
0.51 0.71 l
0.52 0.70 l
0.52 0.69 l
0.52 0.69 l
0.51 0.67 l
0.52 0.67 l
0.52 0.66 l
0.52 0.65 l
0.52 0.64 l
0.51 0.63 l
0.52 0.62 l
160.58 205.53 lineto
0.52 0.60 l
0.51 0.60 l
0.52 0.59 l
0.52 0.58 l
0.52 0.58 l
0.51 0.56 l
0.52 0.56 l
0.52 0.55 l
0.52 0.54 l
0.51 0.53 l
0.52 0.52 l
0.52 0.52 l
0.52 0.51 l
0.51 0.50 l
0.52 0.50 l
0.52 0.48 l
0.52 0.48 l
0.51 0.47 l
0.52 0.46 l
0.52 0.46 l
0.52 0.45 l
0.52 0.44 l
0.51 0.43 l
0.52 0.43 l
0.52 0.42 l
0.52 0.41 l
0.51 0.41 l
0.52 0.39 l
0.52 0.40 l
0.52 0.38 l
0.51 0.38 l
0.52 0.37 l
0.52 0.36 l
0.52 0.36 l
0.51 0.35 l
0.52 0.34 l
0.52 0.34 l
0.52 0.33 l
0.51 0.32 l
0.52 0.32 l
0.52 0.31 l
0.52 0.31 l
0.51 0.30 l
0.52 0.29 l
0.52 0.28 l
0.52 0.28 l
0.52 0.28 l
0.51 0.27 l
0.52 0.26 l
0.52 0.26 l
0.52 0.25 l
0.51 0.24 l
0.52 0.24 l
0.52 0.23 l
0.52 0.23 l
0.51 0.23 l
0.52 0.21 l
0.52 0.21 l
0.52 0.21 l
0.51 0.20 l
0.52 0.19 l
0.52 0.19 l
0.52 0.19 l
0.51 0.18 l
0.52 0.17 l
0.52 0.17 l
0.52 0.17 l
0.51 0.16 l
0.52 0.15 l
0.52 0.15 l
0.52 0.14 l
0.52 0.14 l
0.51 0.14 l
0.52 0.13 l
0.52 0.13 l
0.52 0.12 l
0.51 0.11 l
0.52 0.11 l
0.52 0.11 l
0.52 0.10 l
0.51 0.10 l
0.52 0.10 l
0.52 0.09 l
0.52 0.08 l
0.51 0.08 l
0.52 0.08 l
0.52 0.07 l
0.52 0.07 l
0.51 0.07 l
0.52 0.06 l
0.52 0.06 l
0.52 0.05 l
0.51 0.05 l
0.52 0.04 l
0.52 0.04 l
0.52 0.04 l
0.52 0.03 l
0.51 0.03 l
0.52 0.03 l
212.34 232.98 lineto
0.52 0.02 l
0.51 0.02 l
0.52 0.01 l
0.52 0.01 l
0.52 0 l
0.51 0.01 l
0.52 -0.01 l
0.52 0 l
0.52 -0.01 l
0.51 -0.01 l
0.52 -0.02 l
0.52 -0.01 l
0.52 -0.03 l
0.51 -0.02 l
0.52 -0.03 l
0.52 -0.03 l
0.52 -0.03 l
0.51 -0.04 l
0.52 -0.04 l
0.52 -0.04 l
0.52 -0.05 l
0.52 -0.04 l
0.51 -0.06 l
0.52 -0.05 l
0.52 -0.06 l
0.52 -0.06 l
0.51 -0.06 l
0.52 -0.06 l
0.52 -0.07 l
0.52 -0.07 l
0.51 -0.07 l
0.52 -0.08 l
0.52 -0.08 l
0.52 -0.08 l
0.51 -0.08 l
0.52 -0.08 l
0.52 -0.09 l
0.52 -0.09 l
0.51 -0.10 l
0.52 -0.09 l
0.52 -0.10 l
0.52 -0.10 l
0.51 -0.10 l
0.52 -0.10 l
0.52 -0.11 l
0.52 -0.11 l
0.52 -0.11 l
0.51 -0.11 l
0.52 -0.11 l
0.52 -0.12 l
0.52 -0.12 l
0.51 -0.12 l
0.52 -0.12 l
0.52 -0.13 l
0.52 -0.13 l
0.51 -0.13 l
0.52 -0.13 l
0.52 -0.13 l
0.52 -0.13 l
0.51 -0.14 l
0.52 -0.14 l
0.52 -0.14 l
0.52 -0.14 l
0.51 -0.14 l
0.52 -0.15 l
0.52 -0.15 l
0.52 -0.14 l
0.51 -0.15 l
0.52 -0.16 l
0.52 -0.15 l
0.52 -0.15 l
0.52 -0.16 l
0.51 -0.16 l
0.52 -0.16 l
0.52 -0.16 l
0.52 -0.16 l
0.51 -0.17 l
0.52 -0.16 l
0.52 -0.17 l
0.52 -0.17 l
0.51 -0.17 l
0.52 -0.17 l
0.52 -0.18 l
0.52 -0.17 l
0.51 -0.18 l
0.52 -0.17 l
0.52 -0.18 l
0.52 -0.18 l
0.51 -0.18 l
0.52 -0.18 l
0.52 -0.19 l
0.52 -0.18 l
0.51 -0.19 l
0.52 -0.18 l
0.52 -0.19 l
0.52 -0.19 l
0.52 -0.19 l
0.51 -0.19 l
0.52 -0.20 l
264.10 222.23 lineto
0.52 -0.19 l
0.51 -0.20 l
0.52 -0.20 l
0.52 -0.19 l
0.52 -0.20 l
0.51 -0.20 l
0.52 -0.20 l
0.52 -0.21 l
0.52 -0.20 l
0.51 -0.20 l
0.52 -0.21 l
0.52 -0.20 l
0.52 -0.21 l
0.51 -0.21 l
0.52 -0.20 l
0.52 -0.21 l
0.52 -0.21 l
0.51 -0.21 l
0.52 -0.22 l
0.52 -0.21 l
0.52 -0.21 l
0.52 -0.22 l
0.51 -0.21 l
0.52 -0.22 l
0.52 -0.21 l
0.52 -0.22 l
0.51 -0.22 l
0.52 -0.21 l
0.52 -0.22 l
0.52 -0.22 l
0.51 -0.22 l
0.52 -0.22 l
0.52 -0.23 l
0.52 -0.22 l
0.51 -0.22 l
0.52 -0.22 l
0.52 -0.23 l
0.52 -0.22 l
0.51 -0.23 l
0.52 -0.22 l
0.52 -0.23 l
0.52 -0.23 l
0.51 -0.23 l
0.52 -0.22 l
0.52 -0.23 l
0.52 -0.23 l
0.52 -0.23 l
0.51 -0.23 l
0.52 -0.23 l
0.52 -0.23 l
0.52 -0.23 l
0.51 -0.24 l
0.52 -0.23 l
0.52 -0.23 l
0.52 -0.24 l
0.51 -0.23 l
0.52 -0.23 l
0.52 -0.24 l
0.52 -0.23 l
0.51 -0.24 l
0.52 -0.23 l
0.52 -0.24 l
0.52 -0.24 l
0.51 -0.23 l
0.52 -0.24 l
0.52 -0.24 l
0.52 -0.23 l
0.51 -0.24 l
0.52 -0.24 l
0.52 -0.24 l
0.52 -0.24 l
0.52 -0.24 l
0.51 -0.24 l
0.52 -0.24 l
0.52 -0.24 l
0.52 -0.24 l
0.51 -0.24 l
0.52 -0.24 l
0.52 -0.24 l
0.52 -0.24 l
0.51 -0.24 l
0.52 -0.24 l
0.52 -0.24 l
0.52 -0.25 l
0.51 -0.24 l
0.52 -0.24 l
0.52 -0.24 l
0.52 -0.25 l
0.51 -0.24 l
0.52 -0.24 l
0.52 -0.25 l
0.52 -0.24 l
0.51 -0.24 l
0.52 -0.25 l
0.52 -0.24 l
0.52 -0.24 l
0.52 -0.25 l
0.51 -0.24 l
0.52 -0.25 l
o
/Font1 findfont 11 s
0 0 0 srgb
185.65 172.87 (Mean v) 0 ta
-0.275 (alues:) tb gr
189.67 154.94 (T) 0 0 t
/Font1 findfont 8 s
196.39 152.93 (0) 0 0 t
/Font5 findfont 11 s
203.38 154.94 (=) 0 0 t
211.97 154.94 (-) 0 0 t
/Font1 findfont 11 s
219.53 154.94 (1.498) 0 0 t
192.35 142.19 (T) 0 0 t
/Font1 findfont 8 s
199.07 140.17 (m) 0 0 t
/Font5 findfont 11 s
208.28 142.19 (=) 0 0 t
/Font1 findfont 11 s
216.86 142.19 (3.471) 0 0 t
195.98 128.69 (a) 0 0 t
/Font5 findfont 11 s
204.64 128.69 (=) 0 0 t
/Font1 findfont 11 s
213.23 128.69 (1.256) 0 0 t
194.46 116.01 (m) 0 0 t
/Font5 findfont 11 s
206.16 116.01 (=) 0 0 t
/Font1 findfont 11 s
214.75 116.01 (1.988) 0 0 t
0.00 0.00 333.75 253.50 cl
0.00 0.00 333.75 253.50 cl
0.00 0.00 333.75 253.50 cl
0.00 0.00 333.75 253.50 cl
0.00 0.00 333.75 253.50 cl
0.00 0.00 333.75 253.50 cl
0.00 0.00 333.75 253.50 cl
0.00 0.00 333.75 253.50 cl
0.00 0.00 333.75 253.50 cl
0.00 0.00 333.75 253.50 cl
0.00 0.00 333.75 253.50 cl
0.00 0.00 333.75 253.50 cl
0.00 0.00 333.75 253.50 cl
0.00 0.00 333.75 253.50 cl
0.00 0.00 333.75 253.50 cl
0.00 0.00 333.75 253.50 cl
/Font1 findfont 9 s
0.3020 0.3020 0.3020 srgb
38.87 40.48 (-1.5) 1 0 t
38.87 103.86 (-1.0) 1 0 t
38.87 167.25 (-0.5) 1 0 t
38.87 230.64 (0.0) 1 0 t
0.00 0.00 333.75 253.50 cl
0.00 0.00 333.75 253.50 cl
0.2000 0.2000 0.2000 srgb
1.07 setlinewidth
[] 0 setdash
0 setlinecap
1 setlinejoin
10.00 setmiterlimit
np
41.06 43.71 m
2.74 0 l
o
np
41.06 107.10 m
2.74 0 l
o
np
41.06 170.48 m
2.74 0 l
o
np
41.06 233.87 m
2.74 0 l
o
0.00 0.00 333.75 253.50 cl
0.00 0.00 333.75 253.50 cl
0.00 0.00 333.75 253.50 cl
0.00 0.00 333.75 253.50 cl
0.00 0.00 333.75 253.50 cl
0.00 0.00 333.75 253.50 cl
0.00 0.00 333.75 253.50 cl
0.00 0.00 333.75 253.50 cl
0.00 0.00 333.75 253.50 cl
0.00 0.00 333.75 253.50 cl
0.2000 0.2000 0.2000 srgb
1.07 setlinewidth
[] 0 setdash
0 setlinecap
1 setlinejoin
10.00 setmiterlimit
np
56.73 27.51 m
0 2.74 l
o
np
121.39 27.51 m
0 2.74 l
o
np
186.04 27.51 m
0 2.74 l
o
np
250.69 27.51 m
0 2.74 l
o
np
315.34 27.51 m
0 2.74 l
o
0.00 0.00 333.75 253.50 cl
0.00 0.00 333.75 253.50 cl
/Font1 findfont 9 s
0.3020 0.3020 0.3020 srgb
56.73 18.86 (0) .5 0 t
121.39 18.86 (2) .5 0 t
186.04 18.86 (4) .5 0 t
250.69 18.86 (6) .5 0 t
315.34 18.86 (8) .5 0 t
0.00 0.00 333.75 253.50 cl
0.00 0.00 333.75 253.50 cl
0.00 0.00 333.75 253.50 cl
0.00 0.00 333.75 253.50 cl
0.00 0.00 333.75 253.50 cl
0.00 0.00 333.75 253.50 cl
/Font1 findfont 11 s
0 0 0 srgb
186.04 5.48 (time) .5 0 t
0.00 0.00 333.75 253.50 cl
0.00 0.00 333.75 253.50 cl
/Font1 findfont 11 s
0 0 0 srgb
13.38 107.65 (T) 90 ta
-1.320 (emper) tb
-0.110 (ature) tb gr
0.00 0.00 333.75 253.50 cl
0.00 0.00 333.75 253.50 cl
0.00 0.00 333.75 253.50 cl
0.00 0.00 333.75 253.50 cl
0.00 0.00 333.75 253.50 cl
0.00 0.00 333.75 253.50 cl
0.00 0.00 333.75 253.50 cl
0.00 0.00 333.75 253.50 cl
0.00 0.00 333.75 253.50 cl
0.00 0.00 333.75 253.50 cl
ep
%%Trailer
%%Pages: 1
%%EOF
