%!PS-Adobe-3.0 EPSF-3.0
%%DocumentNeededResources: font Helvetica
%%+ font Helvetica-Bold
%%+ font Helvetica-Oblique
%%+ font Helvetica-BoldOblique
%%+ font Symbol
%%Title: R Graphics Output
%%Creator: R Software
%%Pages: (atend)
%%BoundingBox: 0 0 311 369
%%EndComments
%%BeginProlog
/bp  { gs sRGB gs } def
% begin .ps.prolog
/gs  { gsave } bind def
/gr  { grestore } bind def
/ep  { showpage gr gr } bind def
/m   { moveto } bind def
/l  { rlineto } bind def
/np  { newpath } bind def
/cp  { closepath } bind def
/f   { fill } bind def
/o   { stroke } bind def
/c   { newpath 0 360 arc } bind def
/r   { 4 2 roll moveto 1 copy 3 -1 roll exch 0 exch rlineto 0 rlineto -1 mul 0 exch rlineto closepath } bind def
/p1  { stroke } bind def
/p2  { gsave bg fill grestore newpath } bind def
/p3  { gsave bg fill grestore stroke } bind def
/p6  { gsave bg eofill grestore newpath } bind def
/p7  { gsave bg eofill grestore stroke } bind def
/t   { 5 -2 roll moveto gsave rotate
       1 index stringwidth pop
       mul neg 0 rmoveto show grestore } bind def
/ta  { 4 -2 roll moveto gsave rotate show } bind def
/tb  { 2 -1 roll 0 rmoveto show } bind def
/cl  { grestore gsave newpath 3 index 3 index moveto 1 index
       4 -1 roll lineto  exch 1 index lineto lineto
       closepath clip newpath } bind def
/rgb { setrgbcolor } bind def
/s   { scalefont setfont } bind def
% end   .ps.prolog
/sRGB { [ /CIEBasedABC
          << /DecodeLMN
               [ { dup 0.03928 le
                        {12.92321 div}
                        {0.055 add 1.055 div 2.4 exp }
                     ifelse
                 } bind dup dup
               ]
             /MatrixLMN [0.412457 0.212673 0.019334
                         0.357576 0.715152 0.119192
                         0.180437 0.072175 0.950301]
             /WhitePoint [0.9505 1.0 1.0890]
           >>
         ] setcolorspace } bind def
/srgb { setcolor } bind def
% begin encoding
/WinAnsiEncoding [
 /.notdef /.notdef /.notdef /.notdef /.notdef /.notdef /.notdef /.notdef
 /.notdef /.notdef /.notdef /.notdef /.notdef /.notdef /.notdef /.notdef
 /.notdef /.notdef /.notdef /.notdef /.notdef /.notdef /.notdef /.notdef
 /.notdef /.notdef /.notdef /.notdef /.notdef /.notdef /.notdef /.notdef
 /space /exclam /quotedbl /numbersign /dollar /percent /ampersand /quoteright
 /parenleft /parenright /asterisk /plus /comma /minus /period /slash
 /zero /one /two /three /four /five /six /seven
 /eight /nine /colon /semicolon /less /equal /greater /question
 /at /A /B /C /D /E /F /G
 /H /I /J /K /L /M /N /O
 /P /Q /R /S /T /U /V /W
 /X /Y /Z /bracketleft /backslash /bracketright /asciicircum /underscore
 /grave /a /b /c /d /e /f /g
 /h /i /j /k /l /m /n /o
 /p /q /r /s /t /u /v /w
 /x /y /z /braceleft /bar /braceright /asciitilde /.notdef
 /Euro /.notdef /quotesinglbase /florin /quotedblbase /ellipsis /dagger /daggerdbl
 /circumflex /perthousand /Scaron /guilsinglleft /OE /.notdef /Zcaron /.notdef
 /.notdef /quoteleft /quoteright /quotedblleft /quotedblright /bullet /endash /emdash
 /tilde /trademark /scaron /guilsinglright /oe /.notdef /zcaron /Ydieresis
 /space /exclamdown /cent /sterling /currency /yen /brokenbar /section
 /dieresis /copyright /ordfeminine /guillemotleft /logicalnot /hyphen /registered /macron
 /degree /plusminus /twosuperior /threesuperior /acute /mu /paragraph /periodcentered
 /cedilla /onesuperior /ordmasculine /guillemotright /onequarter /onehalf /threequarters /questiondown
 /Agrave /Aacute /Acircumflex /Atilde /Adieresis /Aring /AE /Ccedilla
 /Egrave /Eacute /Ecircumflex /Edieresis /Igrave /Iacute /Icircumflex /Idieresis
 /Eth /Ntilde /Ograve /Oacute /Ocircumflex /Otilde /Odieresis /multiply
 /Oslash /Ugrave /Uacute /Ucircumflex /Udieresis /Yacute /Thorn /germandbls
 /agrave /aacute /acircumflex /atilde /adieresis /aring /ae /ccedilla
 /egrave /eacute /ecircumflex /edieresis /igrave /iacute /icircumflex /idieresis
 /eth /ntilde /ograve /oacute /ocircumflex /otilde /odieresis /divide
 /oslash /ugrave /uacute /ucircumflex /udieresis /yacute /thorn /ydieresis
]
 def
% end encoding
%%IncludeResource: font Helvetica
/Helvetica findfont
dup length dict begin
  {1 index /FID ne {def} {pop pop} ifelse} forall
  /Encoding WinAnsiEncoding def
  currentdict
  end
/Font1 exch definefont pop
%%IncludeResource: font Helvetica-Bold
/Helvetica-Bold findfont
dup length dict begin
  {1 index /FID ne {def} {pop pop} ifelse} forall
  /Encoding WinAnsiEncoding def
  currentdict
  end
/Font2 exch definefont pop
%%IncludeResource: font Helvetica-Oblique
/Helvetica-Oblique findfont
dup length dict begin
  {1 index /FID ne {def} {pop pop} ifelse} forall
  /Encoding WinAnsiEncoding def
  currentdict
  end
/Font3 exch definefont pop
%%IncludeResource: font Helvetica-BoldOblique
/Helvetica-BoldOblique findfont
dup length dict begin
  {1 index /FID ne {def} {pop pop} ifelse} forall
  /Encoding WinAnsiEncoding def
  currentdict
  end
/Font4 exch definefont pop
%%IncludeResource: font Symbol
/Symbol findfont
dup length dict begin
  {1 index /FID ne {def} {pop pop} ifelse} forall
  currentdict
  end
/Font5 exch definefont pop
%%EndProlog
%%Page: 1 1
bp
0.00 0.00 311.25 369.00 cl
0.00 0.00 311.25 369.00 cl
0.00 0.00 311.25 369.00 cl
0.00 0.00 311.25 369.00 cl
0.00 0.00 311.25 369.00 cl
0.00 0.00 311.25 369.00 cl
/bg { 0.9922 0.9647 0.8902 srgb } def
0.00 0.00 311.25 369.00 r p2
0.00 0.00 311.25 369.00 cl
42.45 202.73 170.87 342.82 cl
/bg { 0.9922 0.9647 0.8902 srgb } def
0.5765 0.6314 0.6314 srgb
1.07 setlinewidth
[] 0 setdash
1 setlinecap
1 setlinejoin
10.00 setmiterlimit
42.45 202.73 128.42 140.09 r p3
0.9333 0.9098 0.8353 srgb
0.53 setlinewidth
[] 0 setdash
0 setlinecap
np
42.45 225.01 m
128.42 0 l
o
np
42.45 256.85 m
128.42 0 l
o
np
42.45 288.69 m
128.42 0 l
o
np
42.45 320.53 m
128.42 0 l
o
np
67.54 202.73 m
0 140.09 l
o
np
106.47 202.73 m
0 140.09 l
o
np
145.40 202.73 m
0 140.09 l
o
1.07 setlinewidth
[] 0 setdash
np
42.45 209.09 m
128.42 0 l
o
np
42.45 240.93 m
128.42 0 l
o
np
42.45 272.77 m
128.42 0 l
o
np
42.45 304.61 m
128.42 0 l
o
np
42.45 336.45 m
128.42 0 l
o
np
48.07 202.73 m
0 140.09 l
o
np
87.00 202.73 m
0 140.09 l
o
np
125.93 202.73 m
0 140.09 l
o
np
164.86 202.73 m
0 140.09 l
o
/bg { 0.3490 0.3490 0.3490 srgb } def
48.29 272.77 0.35 63.68 r p2
48.68 272.77 0.35 51.70 r p2
49.07 272.77 0.35 44.06 r p2
49.46 272.77 0.35 38.98 r p2
49.85 272.77 0.35 35.27 r p2
50.23 272.77 0.35 31.92 r p2
50.62 272.77 0.35 30.74 r p2
51.01 272.77 0.35 29.53 r p2
51.40 272.77 0.35 27.06 r p2
51.79 272.77 0.35 25.27 r p2
52.18 272.77 0.35 23.78 r p2
52.57 272.77 0.35 22.53 r p2
52.96 272.77 0.35 22.06 r p2
53.35 272.77 0.35 21.40 r p2
53.74 272.77 0.35 21.13 r p2
54.13 272.77 0.35 19.54 r p2
54.52 272.77 0.35 18.52 r p2
54.91 272.77 0.35 16.05 r p2
55.30 272.77 0.35 13.70 r p2
55.68 272.77 0.35 12.26 r p2
56.07 272.77 0.35 11.50 r p2
56.46 272.77 0.35 11.51 r p2
56.85 272.77 0.35 10.50 r p2
57.24 272.77 0.35 10.95 r p2
57.63 272.77 0.35 10.33 r p2
58.02 272.77 0.35 12.09 r p2
58.41 272.77 0.35 12.90 r p2
58.80 272.77 0.35 13.73 r p2
59.19 272.77 0.35 14.54 r p2
59.58 272.77 0.35 14.00 r p2
59.97 272.77 0.35 14.88 r p2
60.36 272.77 0.35 15.14 r p2
60.75 272.77 0.35 16.33 r p2
61.13 272.77 0.35 15.98 r p2
61.52 272.77 0.35 16.73 r p2
61.91 272.77 0.35 17.32 r p2
62.30 272.77 0.35 18.03 r p2
62.69 272.77 0.35 17.96 r p2
63.08 272.77 0.35 17.83 r p2
63.47 272.77 0.35 18.11 r p2
63.86 272.77 0.35 18.11 r p2
64.25 272.77 0.35 18.40 r p2
64.64 272.77 0.35 18.31 r p2
65.03 272.77 0.35 18.72 r p2
65.42 272.77 0.35 18.38 r p2
65.81 272.77 0.35 17.93 r p2
66.20 272.77 0.35 18.57 r p2
66.58 272.77 0.35 18.37 r p2
66.97 272.77 0.35 18.76 r p2
67.36 272.77 0.35 18.42 r p2
67.75 272.77 0.35 18.28 r p2
68.14 272.77 0.35 17.97 r p2
68.53 272.77 0.35 16.94 r p2
68.92 272.77 0.35 16.82 r p2
69.31 272.77 0.35 16.50 r p2
69.70 272.77 0.35 16.06 r p2
70.09 272.77 0.35 14.50 r p2
70.48 272.77 0.35 14.79 r p2
70.87 272.77 0.35 14.99 r p2
71.26 272.77 0.35 13.63 r p2
71.65 272.77 0.35 12.24 r p2
72.03 272.77 0.35 11.91 r p2
72.42 272.77 0.35 11.72 r p2
72.81 272.77 0.35 11.00 r p2
73.20 272.77 0.35 10.50 r p2
73.59 272.77 0.35 9.95 r p2
73.98 272.77 0.35 8.98 r p2
74.37 272.77 0.35 8.80 r p2
74.76 272.77 0.35 9.05 r p2
75.15 272.77 0.35 9.65 r p2
75.54 272.77 0.35 10.07 r p2
75.93 272.77 0.35 11.03 r p2
76.32 272.77 0.35 11.37 r p2
76.71 272.77 0.35 11.93 r p2
77.10 272.77 0.35 12.21 r p2
77.48 272.77 0.35 11.62 r p2
77.87 272.77 0.35 11.17 r p2
78.26 272.77 0.35 11.80 r p2
78.65 272.77 0.35 12.39 r p2
79.04 272.77 0.35 12.69 r p2
79.43 272.77 0.35 12.87 r p2
79.82 272.77 0.35 12.91 r p2
80.21 272.77 0.35 13.95 r p2
80.60 272.77 0.35 15.35 r p2
80.99 272.77 0.35 15.49 r p2
81.38 272.77 0.35 16.29 r p2
81.77 272.77 0.35 17.56 r p2
82.16 272.77 0.35 18.82 r p2
82.55 272.77 0.35 19.99 r p2
82.93 272.77 0.35 20.10 r p2
83.32 272.77 0.35 20.15 r p2
83.71 272.77 0.35 18.47 r p2
84.10 272.77 0.35 17.71 r p2
84.49 272.77 0.35 16.85 r p2
84.88 272.77 0.35 15.72 r p2
85.27 272.77 0.35 15.81 r p2
85.66 272.77 0.35 15.73 r p2
86.05 272.77 0.35 14.83 r p2
86.44 272.77 0.35 14.13 r p2
86.83 272.77 0.35 13.79 r p2
87.22 272.77 0.35 13.50 r p2
87.61 272.77 0.35 12.95 r p2
88.00 272.77 0.35 13.46 r p2
88.38 272.77 0.35 13.35 r p2
88.77 272.77 0.35 13.44 r p2
89.16 272.77 0.35 12.55 r p2
89.55 272.77 0.35 10.78 r p2
89.94 272.77 0.35 9.55 r p2
90.33 272.77 0.35 9.10 r p2
90.72 272.77 0.35 9.76 r p2
91.11 272.77 0.35 9.97 r p2
91.50 272.77 0.35 9.93 r p2
91.89 272.77 0.35 9.83 r p2
92.28 272.77 0.35 10.12 r p2
92.67 272.77 0.35 9.38 r p2
93.06 272.77 0.35 8.02 r p2
93.45 272.77 0.35 8.74 r p2
93.83 272.77 0.35 8.96 r p2
94.22 272.77 0.35 10.24 r p2
94.61 272.77 0.35 10.12 r p2
95.00 272.77 0.35 9.83 r p2
95.39 272.77 0.35 9.45 r p2
95.78 272.77 0.35 9.10 r p2
96.17 272.77 0.35 8.82 r p2
96.56 272.77 0.35 9.43 r p2
96.95 272.77 0.35 9.69 r p2
97.34 272.77 0.35 9.77 r p2
97.73 272.77 0.35 9.40 r p2
98.12 272.77 0.35 9.68 r p2
98.51 272.77 0.35 9.33 r p2
98.90 272.77 0.35 9.28 r p2
99.29 272.77 0.35 8.28 r p2
99.67 272.77 0.35 8.26 r p2
100.06 272.77 0.35 7.49 r p2
100.45 272.77 0.35 6.78 r p2
100.84 272.77 0.35 6.11 r p2
101.23 272.77 0.35 6.45 r p2
101.62 272.77 0.35 6.90 r p2
102.01 272.77 0.35 6.38 r p2
102.40 272.77 0.35 6.05 r p2
102.79 272.77 0.35 5.70 r p2
103.18 272.77 0.35 5.66 r p2
103.57 272.77 0.35 5.41 r p2
103.96 272.77 0.35 4.82 r p2
104.35 272.77 0.35 5.99 r p2
104.74 272.77 0.35 6.76 r p2
105.12 272.77 0.35 6.81 r p2
105.51 272.77 0.35 6.20 r p2
105.90 272.77 0.35 6.03 r p2
106.29 272.77 0.35 5.25 r p2
106.68 272.77 0.35 4.78 r p2
107.07 272.77 0.35 4.71 r p2
107.46 272.77 0.35 4.96 r p2
107.85 272.77 0.35 4.59 r p2
108.24 272.77 0.35 4.09 r p2
108.63 272.77 0.35 4.67 r p2
109.02 272.77 0.35 4.64 r p2
109.41 272.77 0.35 3.34 r p2
109.80 272.77 0.35 2.76 r p2
110.19 272.77 0.35 1.75 r p2
110.57 272.77 0.35 2.36 r p2
110.96 272.77 0.35 2.79 r p2
111.35 272.77 0.35 3.81 r p2
111.74 272.77 0.35 3.99 r p2
112.13 272.77 0.35 3.73 r p2
112.52 272.77 0.35 3.46 r p2
112.91 272.77 0.35 2.25 r p2
113.30 272.77 0.35 1.53 r p2
113.69 272.77 0.35 1.79 r p2
114.08 272.77 0.35 1.12 r p2
114.47 272.77 0.35 0.62 r p2
114.86 272.40 0.35 0.37 r p2
115.25 272.47 0.35 0.30 r p2
115.64 272.77 0.35 0.21 r p2
116.02 272.77 0.35 0.53 r p2
116.41 272.77 0.35 2.94 r p2
116.80 272.77 0.35 5.60 r p2
117.19 272.77 0.35 7.58 r p2
117.58 272.77 0.35 8.67 r p2
117.97 272.77 0.35 8.53 r p2
118.36 272.77 0.35 8.70 r p2
118.75 272.77 0.35 8.73 r p2
119.14 272.77 0.35 8.77 r p2
119.53 272.77 0.35 8.99 r p2
119.92 272.77 0.35 8.52 r p2
120.31 272.77 0.35 7.76 r p2
120.70 272.77 0.35 7.52 r p2
121.09 272.77 0.35 8.22 r p2
121.47 272.77 0.35 8.15 r p2
121.86 272.77 0.35 7.62 r p2
122.25 272.77 0.35 7.45 r p2
122.64 272.77 0.35 7.27 r p2
123.03 272.77 0.35 6.89 r p2
123.42 272.77 0.35 6.39 r p2
123.81 272.77 0.35 4.10 r p2
124.20 272.77 0.35 2.39 r p2
124.59 272.77 0.35 0.59 r p2
124.98 272.77 0.35 0.80 r p2
125.37 272.77 0.35 1.05 r p2
125.76 272.77 0.35 0.70 r p2
126.15 271.96 0.35 0.81 r p2
126.54 272.14 0.35 0.63 r p2
126.92 272.21 0.35 0.56 r p2
127.31 272.77 0.35 0.37 r p2
127.70 272.77 0.35 0.94 r p2
128.09 272.77 0.35 1.39 r p2
128.48 272.77 0.35 1.12 r p2
128.87 272.77 0.35 0.38 r p2
129.26 272.77 0.35 0.65 r p2
129.65 272.77 0.35 0.09 r p2
130.04 271.79 0.35 0.99 r p2
130.43 270.78 0.35 1.99 r p2
130.82 270.62 0.35 2.16 r p2
131.21 270.72 0.35 2.05 r p2
131.60 271.09 0.35 1.68 r p2
131.99 272.32 0.35 0.45 r p2
132.37 272.77 0.35 0.49 r p2
132.76 270.93 0.35 1.84 r p2
133.15 271.50 0.35 1.27 r p2
133.54 272.60 0.35 0.17 r p2
133.93 272.77 0.35 0.17 r p2
134.32 272.12 0.35 0.65 r p2
134.71 272.00 0.35 0.77 r p2
135.10 271.75 0.35 1.02 r p2
135.49 271.43 0.35 1.34 r p2
135.88 271.95 0.35 0.82 r p2
136.27 272.60 0.35 0.17 r p2
136.66 272.06 0.35 0.71 r p2
137.05 271.51 0.35 1.26 r p2
137.44 271.45 0.35 1.32 r p2
137.82 270.72 0.35 2.05 r p2
138.21 270.61 0.35 2.16 r p2
138.60 271.10 0.35 1.67 r p2
138.99 270.59 0.35 2.18 r p2
139.38 270.99 0.35 1.78 r p2
139.77 272.27 0.35 0.50 r p2
140.16 272.17 0.35 0.60 r p2
140.55 270.91 0.35 1.86 r p2
140.94 270.49 0.35 2.28 r p2
141.33 271.02 0.35 1.75 r p2
141.72 270.17 0.35 2.61 r p2
142.11 269.70 0.35 3.07 r p2
142.50 268.75 0.35 4.02 r p2
142.89 267.15 0.35 5.62 r p2
143.27 267.11 0.35 5.66 r p2
143.66 266.99 0.35 5.78 r p2
144.05 266.78 0.35 5.99 r p2
144.44 266.60 0.35 6.18 r p2
144.83 266.96 0.35 5.81 r p2
145.22 266.13 0.35 6.64 r p2
145.61 265.77 0.35 7.00 r p2
146.00 266.33 0.35 6.45 r p2
146.39 266.30 0.35 6.47 r p2
146.78 264.91 0.35 7.86 r p2
147.17 263.36 0.35 9.41 r p2
147.56 263.78 0.35 8.99 r p2
147.95 263.62 0.35 9.15 r p2
148.34 262.37 0.35 10.40 r p2
148.72 263.55 0.35 9.22 r p2
149.11 264.83 0.35 7.94 r p2
149.50 265.77 0.35 7.00 r p2
149.89 265.86 0.35 6.91 r p2
150.28 266.42 0.35 6.35 r p2
150.67 266.67 0.35 6.10 r p2
151.06 266.77 0.35 6.00 r p2
151.45 267.16 0.35 5.62 r p2
151.84 268.42 0.35 4.35 r p2
152.23 269.05 0.35 3.72 r p2
152.62 269.68 0.35 3.09 r p2
153.01 269.93 0.35 2.84 r p2
153.40 270.54 0.35 2.23 r p2
153.79 270.40 0.35 2.37 r p2
154.17 270.50 0.35 2.27 r p2
154.56 270.48 0.35 2.29 r p2
154.95 271.14 0.35 1.63 r p2
155.34 271.70 0.35 1.07 r p2
155.73 272.54 0.35 0.23 r p2
156.12 272.77 0.35 0.57 r p2
156.51 272.77 0.35 0.66 r p2
156.90 272.77 0.35 0.35 r p2
157.29 272.14 0.35 0.63 r p2
157.68 272.04 0.35 0.73 r p2
158.07 271.21 0.35 1.56 r p2
158.46 270.22 0.35 2.55 r p2
158.85 269.60 0.35 3.17 r p2
159.24 269.09 0.35 3.68 r p2
159.62 269.23 0.35 3.54 r p2
160.01 269.36 0.35 3.41 r p2
160.40 269.73 0.35 3.04 r p2
160.79 269.54 0.35 3.23 r p2
161.18 269.94 0.35 2.83 r p2
161.57 269.54 0.35 3.23 r p2
161.96 270.09 0.35 2.68 r p2
162.35 271.13 0.35 1.64 r p2
162.74 271.37 0.35 1.40 r p2
163.13 270.20 0.35 2.57 r p2
163.52 268.64 0.35 4.13 r p2
163.91 268.18 0.35 4.59 r p2
164.30 268.28 0.35 4.50 r p2
164.69 268.12 0.35 4.65 r p2
0.00 0.00 311.25 369.00 cl
42.45 36.45 170.87 176.54 cl
/bg { 0.9922 0.9647 0.8902 srgb } def
0.5765 0.6314 0.6314 srgb
1.07 setlinewidth
[] 0 setdash
1 setlinecap
1 setlinejoin
10.00 setmiterlimit
42.45 36.45 128.42 140.09 r p3
0.9333 0.9098 0.8353 srgb
0.53 setlinewidth
[] 0 setdash
0 setlinecap
np
42.45 58.74 m
128.42 0 l
o
np
42.45 90.58 m
128.42 0 l
o
np
42.45 122.42 m
128.42 0 l
o
np
42.45 154.26 m
128.42 0 l
o
np
67.54 36.45 m
0 140.09 l
o
np
106.47 36.45 m
0 140.09 l
o
np
145.40 36.45 m
0 140.09 l
o
1.07 setlinewidth
[] 0 setdash
np
42.45 42.82 m
128.42 0 l
o
np
42.45 74.66 m
128.42 0 l
o
np
42.45 106.50 m
128.42 0 l
o
np
42.45 138.34 m
128.42 0 l
o
np
42.45 170.17 m
128.42 0 l
o
np
48.07 36.45 m
0 140.09 l
o
np
87.00 36.45 m
0 140.09 l
o
np
125.93 36.45 m
0 140.09 l
o
np
164.86 36.45 m
0 140.09 l
o
/bg { 0.3490 0.3490 0.3490 srgb } def
48.29 106.50 0.35 63.68 r p2
48.68 106.50 0.35 49.91 r p2
49.07 106.50 0.35 39.01 r p2
49.46 106.50 0.35 30.66 r p2
49.85 106.50 0.35 23.84 r p2
50.23 106.50 0.35 19.70 r p2
50.62 106.50 0.35 16.67 r p2
51.01 106.50 0.35 13.87 r p2
51.40 106.50 0.35 10.90 r p2
51.79 106.50 0.35 8.52 r p2
52.18 106.50 0.35 6.90 r p2
52.57 106.50 0.35 5.74 r p2
52.96 106.50 0.35 4.20 r p2
53.35 106.50 0.35 2.81 r p2
53.74 106.50 0.35 3.10 r p2
54.13 106.50 0.35 2.26 r p2
54.52 105.92 0.35 0.58 r p2
54.91 103.54 0.35 2.96 r p2
55.30 100.60 0.35 5.90 r p2
55.68 98.81 0.35 7.69 r p2
56.07 98.82 0.35 7.68 r p2
56.46 99.38 0.35 7.12 r p2
56.85 98.33 0.35 8.17 r p2
57.24 98.09 0.35 8.40 r p2
57.63 98.50 0.35 8.00 r p2
58.02 101.04 0.35 5.45 r p2
58.41 103.17 0.35 3.33 r p2
58.80 104.38 0.35 2.12 r p2
59.19 105.58 0.35 0.92 r p2
59.58 105.91 0.35 0.59 r p2
59.97 105.51 0.35 0.99 r p2
60.36 106.50 0.35 0.81 r p2
60.75 106.50 0.35 3.11 r p2
61.13 106.50 0.35 2.85 r p2
61.52 106.50 0.35 3.13 r p2
61.91 106.50 0.35 4.12 r p2
62.30 106.50 0.35 4.97 r p2
62.69 106.50 0.35 5.89 r p2
63.08 106.50 0.35 5.63 r p2
63.47 106.50 0.35 5.84 r p2
63.86 106.50 0.35 6.34 r p2
64.25 106.50 0.35 6.22 r p2
64.64 106.50 0.35 8.03 r p2
65.03 106.50 0.35 9.21 r p2
65.42 106.50 0.35 8.40 r p2
65.81 106.50 0.35 7.50 r p2
66.20 106.50 0.35 8.26 r p2
66.58 106.50 0.35 8.44 r p2
66.97 106.50 0.35 8.89 r p2
67.36 106.50 0.35 9.54 r p2
67.75 106.50 0.35 8.42 r p2
68.14 106.50 0.35 7.62 r p2
68.53 106.50 0.35 7.15 r p2
68.92 106.50 0.35 7.10 r p2
69.31 106.50 0.35 6.52 r p2
69.70 106.50 0.35 6.70 r p2
70.09 106.50 0.35 5.34 r p2
70.48 106.50 0.35 4.95 r p2
70.87 106.50 0.35 3.72 r p2
71.26 106.50 0.35 2.24 r p2
71.65 106.50 0.35 0.90 r p2
72.03 106.19 0.35 0.30 r p2
72.42 105.00 0.35 1.50 r p2
72.81 104.05 0.35 2.45 r p2
73.20 102.75 0.35 3.75 r p2
73.59 101.09 0.35 5.41 r p2
73.98 99.74 0.35 6.75 r p2
74.37 99.22 0.35 7.28 r p2
74.76 100.39 0.35 6.11 r p2
75.15 100.41 0.35 6.08 r p2
75.54 100.68 0.35 5.82 r p2
75.93 101.03 0.35 5.47 r p2
76.32 100.30 0.35 6.20 r p2
76.71 99.14 0.35 7.36 r p2
77.10 99.20 0.35 7.29 r p2
77.48 99.48 0.35 7.01 r p2
77.87 98.28 0.35 8.21 r p2
78.26 97.86 0.35 8.64 r p2
78.65 98.49 0.35 8.01 r p2
79.04 98.08 0.35 8.42 r p2
79.43 99.32 0.35 7.18 r p2
79.82 100.20 0.35 6.30 r p2
80.21 101.12 0.35 5.37 r p2
80.60 103.36 0.35 3.14 r p2
80.99 105.40 0.35 1.09 r p2
81.38 106.50 0.35 0.49 r p2
81.77 106.50 0.35 2.46 r p2
82.16 106.50 0.35 2.92 r p2
82.55 106.50 0.35 2.81 r p2
82.93 106.50 0.35 3.28 r p2
83.32 106.50 0.35 3.24 r p2
83.71 106.50 0.35 2.55 r p2
84.10 106.50 0.35 2.18 r p2
84.49 106.50 0.35 0.90 r p2
84.88 106.05 0.35 0.45 r p2
85.27 106.17 0.35 0.33 r p2
85.66 105.12 0.35 1.37 r p2
86.05 104.71 0.35 1.79 r p2
86.44 102.39 0.35 4.10 r p2
86.83 101.95 0.35 4.55 r p2
87.22 100.88 0.35 5.62 r p2
87.61 100.49 0.35 6.00 r p2
88.00 99.34 0.35 7.15 r p2
88.38 98.45 0.35 8.05 r p2
88.77 97.46 0.35 9.03 r p2
89.16 96.18 0.35 10.31 r p2
89.55 95.47 0.35 11.02 r p2
89.94 94.50 0.35 12.00 r p2
90.33 94.76 0.35 11.73 r p2
90.72 96.60 0.35 9.89 r p2
91.11 98.40 0.35 8.09 r p2
91.50 100.62 0.35 5.87 r p2
91.89 102.07 0.35 4.43 r p2
92.28 101.82 0.35 4.68 r p2
92.67 101.59 0.35 4.91 r p2
93.06 101.49 0.35 5.01 r p2
93.45 101.83 0.35 4.67 r p2
93.83 102.60 0.35 3.89 r p2
94.22 102.70 0.35 3.80 r p2
94.61 101.71 0.35 4.79 r p2
95.00 101.15 0.35 5.35 r p2
95.39 100.93 0.35 5.57 r p2
95.78 100.33 0.35 6.16 r p2
96.17 101.59 0.35 4.91 r p2
96.56 103.26 0.35 3.24 r p2
96.95 103.79 0.35 2.71 r p2
97.34 104.20 0.35 2.30 r p2
97.73 105.60 0.35 0.89 r p2
98.12 105.62 0.35 0.87 r p2
98.51 104.36 0.35 2.14 r p2
98.90 103.44 0.35 3.06 r p2
99.29 103.03 0.35 3.47 r p2
99.67 103.71 0.35 2.79 r p2
100.06 103.60 0.35 2.89 r p2
100.45 101.38 0.35 5.12 r p2
100.84 101.15 0.35 5.35 r p2
101.23 101.69 0.35 4.81 r p2
101.62 102.06 0.35 4.44 r p2
102.01 102.07 0.35 4.43 r p2
102.40 101.56 0.35 4.94 r p2
102.79 102.27 0.35 4.23 r p2
103.18 102.69 0.35 3.80 r p2
103.57 102.99 0.35 3.51 r p2
103.96 104.56 0.35 1.94 r p2
104.35 105.34 0.35 1.15 r p2
104.74 106.50 0.35 0.16 r p2
105.12 106.50 0.35 0.99 r p2
105.51 106.50 0.35 2.36 r p2
105.90 106.50 0.35 2.91 r p2
106.29 106.50 0.35 1.27 r p2
106.68 106.43 0.35 0.07 r p2
107.07 105.88 0.35 0.62 r p2
107.46 106.03 0.35 0.47 r p2
107.85 106.11 0.35 0.38 r p2
108.24 106.12 0.35 0.38 r p2
108.63 105.30 0.35 1.20 r p2
109.02 103.41 0.35 3.09 r p2
109.41 102.53 0.35 3.97 r p2
109.80 103.19 0.35 3.31 r p2
110.19 102.64 0.35 3.86 r p2
110.57 103.20 0.35 3.30 r p2
110.96 103.27 0.35 3.23 r p2
111.35 103.14 0.35 3.36 r p2
111.74 103.26 0.35 3.23 r p2
112.13 102.77 0.35 3.72 r p2
112.52 102.06 0.35 4.43 r p2
112.91 100.79 0.35 5.70 r p2
113.30 100.83 0.35 5.66 r p2
113.69 101.42 0.35 5.08 r p2
114.08 101.76 0.35 4.74 r p2
114.47 102.49 0.35 4.01 r p2
114.86 101.85 0.35 4.64 r p2
115.25 102.86 0.35 3.64 r p2
115.64 104.25 0.35 2.25 r p2
116.02 105.70 0.35 0.80 r p2
116.41 106.50 0.35 2.12 r p2
116.80 106.50 0.35 4.18 r p2
117.19 106.50 0.35 4.74 r p2
117.58 106.50 0.35 4.20 r p2
117.97 106.50 0.35 4.98 r p2
118.36 106.50 0.35 6.37 r p2
118.75 106.50 0.35 5.94 r p2
119.14 106.50 0.35 7.29 r p2
119.53 106.50 0.35 8.36 r p2
119.92 106.50 0.35 7.93 r p2
120.31 106.50 0.35 7.47 r p2
120.70 106.50 0.35 6.87 r p2
121.09 106.50 0.35 7.10 r p2
121.47 106.50 0.35 6.08 r p2
121.86 106.50 0.35 5.52 r p2
122.25 106.50 0.35 5.01 r p2
122.64 106.50 0.35 3.21 r p2
123.03 106.50 0.35 2.65 r p2
123.42 106.50 0.35 1.59 r p2
123.81 106.50 0.35 0.62 r p2
124.20 106.50 0.35 0.95 r p2
124.59 106.50 0.35 1.45 r p2
124.98 106.50 0.35 1.73 r p2
125.37 106.50 0.35 2.34 r p2
125.76 106.50 0.35 1.49 r p2
126.15 106.50 0.35 2.21 r p2
126.54 106.50 0.35 3.56 r p2
126.92 106.50 0.35 5.57 r p2
127.31 106.50 0.35 6.19 r p2
127.70 106.50 0.35 6.30 r p2
128.09 106.50 0.35 5.82 r p2
128.48 106.50 0.35 4.98 r p2
128.87 106.50 0.35 5.14 r p2
129.26 106.50 0.35 4.47 r p2
129.65 106.50 0.35 3.22 r p2
130.04 106.50 0.35 1.95 r p2
130.43 106.50 0.35 2.11 r p2
130.82 106.50 0.35 2.22 r p2
131.21 106.50 0.35 2.10 r p2
131.60 106.50 0.35 2.49 r p2
131.99 106.50 0.35 1.57 r p2
132.37 106.50 0.35 2.12 r p2
132.76 106.50 0.35 0.32 r p2
133.15 105.89 0.35 0.60 r p2
133.54 105.90 0.35 0.59 r p2
133.93 105.32 0.35 1.18 r p2
134.32 103.97 0.35 2.53 r p2
134.71 103.99 0.35 2.51 r p2
135.10 103.38 0.35 3.11 r p2
135.49 103.51 0.35 2.99 r p2
135.88 105.05 0.35 1.45 r p2
136.27 106.50 0.35 0.68 r p2
136.66 106.50 0.35 0.83 r p2
137.05 106.50 0.35 1.65 r p2
137.44 106.50 0.35 1.11 r p2
137.82 106.50 0.35 0.76 r p2
138.21 106.50 0.35 0.94 r p2
138.60 106.50 0.35 1.79 r p2
138.99 106.50 0.35 1.99 r p2
139.38 106.50 0.35 3.28 r p2
139.77 106.50 0.35 5.17 r p2
140.16 106.50 0.35 5.10 r p2
140.55 106.50 0.35 4.66 r p2
140.94 106.50 0.35 3.14 r p2
141.33 106.50 0.35 3.31 r p2
141.72 106.50 0.35 3.71 r p2
142.11 106.50 0.35 3.92 r p2
142.50 106.50 0.35 3.99 r p2
142.89 106.50 0.35 3.36 r p2
143.27 106.50 0.35 3.68 r p2
143.66 106.50 0.35 3.53 r p2
144.05 106.50 0.35 3.12 r p2
144.44 106.50 0.35 3.76 r p2
144.83 106.50 0.35 4.88 r p2
145.22 106.50 0.35 6.13 r p2
145.61 106.50 0.35 5.48 r p2
146.00 106.50 0.35 4.57 r p2
146.39 106.50 0.35 2.99 r p2
146.78 106.50 0.35 0.87 r p2
147.17 106.31 0.35 0.18 r p2
147.56 105.73 0.35 0.77 r p2
147.95 104.87 0.35 1.62 r p2
148.34 104.98 0.35 1.51 r p2
148.72 105.69 0.35 0.80 r p2
149.11 105.71 0.35 0.79 r p2
149.50 106.50 0.35 0.74 r p2
149.89 106.50 0.35 0.15 r p2
150.28 106.05 0.35 0.44 r p2
150.67 105.86 0.35 0.63 r p2
151.06 105.45 0.35 1.05 r p2
151.45 105.25 0.35 1.24 r p2
151.84 104.08 0.35 2.41 r p2
152.23 103.39 0.35 3.11 r p2
152.62 103.95 0.35 2.55 r p2
153.01 105.02 0.35 1.47 r p2
153.40 105.78 0.35 0.71 r p2
153.79 106.50 0.35 0.70 r p2
154.17 106.50 0.35 1.99 r p2
154.56 106.50 0.35 2.84 r p2
154.95 106.50 0.35 3.63 r p2
155.34 106.50 0.35 3.91 r p2
155.73 106.50 0.35 3.72 r p2
156.12 106.50 0.35 2.59 r p2
156.51 106.50 0.35 1.58 r p2
156.90 106.50 0.35 0.51 r p2
157.29 106.46 0.35 0.04 r p2
157.68 105.68 0.35 0.82 r p2
158.07 105.09 0.35 1.41 r p2
158.46 104.65 0.35 1.85 r p2
158.85 103.83 0.35 2.66 r p2
159.24 103.68 0.35 2.82 r p2
159.62 104.21 0.35 2.29 r p2
160.01 105.22 0.35 1.27 r p2
160.40 106.31 0.35 0.18 r p2
160.79 106.43 0.35 0.07 r p2
161.18 105.93 0.35 0.56 r p2
161.57 105.51 0.35 0.99 r p2
161.96 104.65 0.35 1.84 r p2
162.35 103.78 0.35 2.71 r p2
162.74 103.76 0.35 2.74 r p2
163.13 103.75 0.35 2.75 r p2
163.52 103.91 0.35 2.59 r p2
163.91 104.88 0.35 1.62 r p2
164.30 105.14 0.35 1.36 r p2
164.69 105.54 0.35 0.95 r p2
0.00 0.00 311.25 369.00 cl
176.85 202.73 305.27 342.82 cl
/bg { 0.9922 0.9647 0.8902 srgb } def
0.5765 0.6314 0.6314 srgb
1.07 setlinewidth
[] 0 setdash
1 setlinecap
1 setlinejoin
10.00 setmiterlimit
176.85 202.73 128.42 140.09 r p3
0.9333 0.9098 0.8353 srgb
0.53 setlinewidth
[] 0 setdash
0 setlinecap
np
176.85 225.01 m
128.42 0 l
o
np
176.85 256.85 m
128.42 0 l
o
np
176.85 288.69 m
128.42 0 l
o
np
176.85 320.53 m
128.42 0 l
o
np
201.94 202.73 m
0 140.09 l
o
np
240.87 202.73 m
0 140.09 l
o
np
279.80 202.73 m
0 140.09 l
o
1.07 setlinewidth
[] 0 setdash
np
176.85 209.09 m
128.42 0 l
o
np
176.85 240.93 m
128.42 0 l
o
np
176.85 272.77 m
128.42 0 l
o
np
176.85 304.61 m
128.42 0 l
o
np
176.85 336.45 m
128.42 0 l
o
np
182.47 202.73 m
0 140.09 l
o
np
221.40 202.73 m
0 140.09 l
o
np
260.33 202.73 m
0 140.09 l
o
np
299.26 202.73 m
0 140.09 l
o
/bg { 0.3490 0.3490 0.3490 srgb } def
182.69 272.77 0.35 63.68 r p2
183.08 272.77 0.35 59.35 r p2
183.47 272.77 0.35 55.88 r p2
183.86 272.77 0.35 53.22 r p2
184.25 272.77 0.35 50.66 r p2
184.63 272.77 0.35 48.71 r p2
185.02 272.77 0.35 46.99 r p2
185.41 272.77 0.35 45.60 r p2
185.80 272.77 0.35 44.09 r p2
186.19 272.77 0.35 42.90 r p2
186.58 272.77 0.35 41.77 r p2
186.97 272.77 0.35 40.86 r p2
187.36 272.77 0.35 39.96 r p2
187.75 272.77 0.35 38.86 r p2
188.14 272.77 0.35 38.13 r p2
188.53 272.77 0.35 37.02 r p2
188.92 272.77 0.35 35.78 r p2
189.31 272.77 0.35 34.78 r p2
189.70 272.77 0.35 33.61 r p2
190.08 272.77 0.35 32.77 r p2
190.47 272.77 0.35 32.08 r p2
190.86 272.77 0.35 31.85 r p2
191.25 272.77 0.35 31.32 r p2
191.64 272.77 0.35 31.32 r p2
192.03 272.77 0.35 31.46 r p2
192.42 272.77 0.35 31.63 r p2
192.81 272.77 0.35 32.02 r p2
193.20 272.77 0.35 32.18 r p2
193.59 272.77 0.35 31.96 r p2
193.98 272.77 0.35 31.50 r p2
194.37 272.77 0.35 31.44 r p2
194.76 272.77 0.35 31.74 r p2
195.15 272.77 0.35 32.29 r p2
195.53 272.77 0.35 32.53 r p2
195.92 272.77 0.35 32.85 r p2
196.31 272.77 0.35 33.00 r p2
196.70 272.77 0.35 33.20 r p2
197.09 272.77 0.35 33.19 r p2
197.48 272.77 0.35 32.77 r p2
197.87 272.77 0.35 32.71 r p2
198.26 272.77 0.35 32.77 r p2
198.65 272.77 0.35 32.69 r p2
199.04 272.77 0.35 33.00 r p2
199.43 272.77 0.35 33.12 r p2
199.82 272.77 0.35 32.97 r p2
200.21 272.77 0.35 32.54 r p2
200.60 272.77 0.35 32.40 r p2
200.98 272.77 0.35 32.08 r p2
201.37 272.77 0.35 31.79 r p2
201.76 272.77 0.35 31.66 r p2
202.15 272.77 0.35 31.20 r p2
202.54 272.77 0.35 30.59 r p2
202.93 272.77 0.35 29.34 r p2
203.32 272.77 0.35 28.46 r p2
203.71 272.77 0.35 27.82 r p2
204.10 272.77 0.35 27.36 r p2
204.49 272.77 0.35 26.73 r p2
204.88 272.77 0.35 26.48 r p2
205.27 272.77 0.35 26.09 r p2
205.66 272.77 0.35 25.82 r p2
206.05 272.77 0.35 25.85 r p2
206.43 272.77 0.35 25.59 r p2
206.82 272.77 0.35 24.80 r p2
207.21 272.77 0.35 23.97 r p2
207.60 272.77 0.35 23.38 r p2
207.99 272.77 0.35 23.08 r p2
208.38 272.77 0.35 22.67 r p2
208.77 272.77 0.35 22.55 r p2
209.16 272.77 0.35 22.26 r p2
209.55 272.77 0.35 22.19 r p2
209.94 272.77 0.35 22.00 r p2
210.33 272.77 0.35 22.09 r p2
210.72 272.77 0.35 22.42 r p2
211.11 272.77 0.35 22.62 r p2
211.50 272.77 0.35 23.13 r p2
211.88 272.77 0.35 23.33 r p2
212.27 272.77 0.35 22.91 r p2
212.66 272.77 0.35 22.95 r p2
213.05 272.77 0.35 23.15 r p2
213.44 272.77 0.35 23.13 r p2
213.83 272.77 0.35 23.38 r p2
214.22 272.77 0.35 23.63 r p2
214.61 272.77 0.35 23.92 r p2
215.00 272.77 0.35 24.36 r p2
215.39 272.77 0.35 24.44 r p2
215.78 272.77 0.35 24.55 r p2
216.17 272.77 0.35 24.82 r p2
216.56 272.77 0.35 24.88 r p2
216.95 272.77 0.35 25.10 r p2
217.33 272.77 0.35 24.87 r p2
217.72 272.77 0.35 24.52 r p2
218.11 272.77 0.35 24.60 r p2
218.50 272.77 0.35 24.29 r p2
218.89 272.77 0.35 23.59 r p2
219.28 272.77 0.35 22.92 r p2
219.67 272.77 0.35 22.34 r p2
220.06 272.77 0.35 21.56 r p2
220.45 272.77 0.35 21.23 r p2
220.84 272.77 0.35 20.36 r p2
221.23 272.77 0.35 19.91 r p2
221.62 272.77 0.35 19.38 r p2
222.01 272.77 0.35 19.07 r p2
222.40 272.77 0.35 18.81 r p2
222.78 272.77 0.35 18.25 r p2
223.17 272.77 0.35 17.80 r p2
223.56 272.77 0.35 17.31 r p2
223.95 272.77 0.35 16.64 r p2
224.34 272.77 0.35 16.15 r p2
224.73 272.77 0.35 15.97 r p2
225.12 272.77 0.35 16.36 r p2
225.51 272.77 0.35 16.74 r p2
225.90 272.77 0.35 16.99 r p2
226.29 272.77 0.35 17.03 r p2
226.68 272.77 0.35 16.89 r p2
227.07 272.77 0.35 16.78 r p2
227.46 272.77 0.35 16.56 r p2
227.85 272.77 0.35 16.50 r p2
228.23 272.77 0.35 16.37 r p2
228.62 272.77 0.35 16.29 r p2
229.01 272.77 0.35 15.69 r p2
229.40 272.77 0.35 15.37 r p2
229.79 272.77 0.35 15.02 r p2
230.18 272.77 0.35 14.54 r p2
230.57 272.77 0.35 14.72 r p2
230.96 272.77 0.35 14.73 r p2
231.35 272.77 0.35 14.43 r p2
231.74 272.77 0.35 14.04 r p2
232.13 272.77 0.35 13.80 r p2
232.52 272.77 0.35 13.89 r p2
232.91 272.77 0.35 13.42 r p2
233.30 272.77 0.35 13.11 r p2
233.68 272.77 0.35 13.10 r p2
234.07 272.77 0.35 13.08 r p2
234.46 272.77 0.35 13.17 r p2
234.85 272.77 0.35 13.13 r p2
235.24 272.77 0.35 12.95 r p2
235.63 272.77 0.35 13.05 r p2
236.02 272.77 0.35 13.42 r p2
236.41 272.77 0.35 13.31 r p2
236.80 272.77 0.35 13.20 r p2
237.19 272.77 0.35 12.86 r p2
237.58 272.77 0.35 12.51 r p2
237.97 272.77 0.35 12.13 r p2
238.36 272.77 0.35 11.71 r p2
238.75 272.77 0.35 11.35 r p2
239.13 272.77 0.35 11.00 r p2
239.52 272.77 0.35 10.62 r p2
239.91 272.77 0.35 10.36 r p2
240.30 272.77 0.35 9.95 r p2
240.69 272.77 0.35 9.24 r p2
241.08 272.77 0.35 8.43 r p2
241.47 272.77 0.35 8.21 r p2
241.86 272.77 0.35 8.05 r p2
242.25 272.77 0.35 7.48 r p2
242.64 272.77 0.35 7.36 r p2
243.03 272.77 0.35 7.18 r p2
243.42 272.77 0.35 6.55 r p2
243.81 272.77 0.35 5.91 r p2
244.20 272.77 0.35 5.91 r p2
244.58 272.77 0.35 5.67 r p2
244.97 272.77 0.35 6.01 r p2
245.36 272.77 0.35 5.93 r p2
245.75 272.77 0.35 5.79 r p2
246.14 272.77 0.35 5.72 r p2
246.53 272.77 0.35 5.47 r p2
246.92 272.77 0.35 5.17 r p2
247.31 272.77 0.35 4.81 r p2
247.70 272.77 0.35 4.33 r p2
248.09 272.77 0.35 4.15 r p2
248.48 272.77 0.35 4.06 r p2
248.87 272.77 0.35 3.95 r p2
249.26 272.77 0.35 3.86 r p2
249.65 272.77 0.35 4.35 r p2
250.03 272.77 0.35 4.86 r p2
250.42 272.77 0.35 5.86 r p2
250.81 272.77 0.35 6.94 r p2
251.20 272.77 0.35 7.71 r p2
251.59 272.77 0.35 8.37 r p2
251.98 272.77 0.35 8.01 r p2
252.37 272.77 0.35 8.02 r p2
252.76 272.77 0.35 7.58 r p2
253.15 272.77 0.35 6.80 r p2
253.54 272.77 0.35 6.80 r p2
253.93 272.77 0.35 7.07 r p2
254.32 272.77 0.35 7.16 r p2
254.71 272.77 0.35 7.25 r p2
255.10 272.77 0.35 7.25 r p2
255.48 272.77 0.35 7.41 r p2
255.87 272.77 0.35 7.47 r p2
256.26 272.77 0.35 7.44 r p2
256.65 272.77 0.35 7.14 r p2
257.04 272.77 0.35 6.84 r p2
257.43 272.77 0.35 6.74 r p2
257.82 272.77 0.35 6.20 r p2
258.21 272.77 0.35 5.57 r p2
258.60 272.77 0.35 5.00 r p2
258.99 272.77 0.35 4.37 r p2
259.38 272.77 0.35 3.80 r p2
259.77 272.77 0.35 3.64 r p2
260.16 272.77 0.35 2.99 r p2
260.55 272.77 0.35 2.81 r p2
260.93 272.77 0.35 2.61 r p2
261.32 272.77 0.35 2.85 r p2
261.71 272.77 0.35 3.25 r p2
262.10 272.77 0.35 3.33 r p2
262.49 272.77 0.35 2.98 r p2
262.88 272.77 0.35 2.44 r p2
263.27 272.77 0.35 2.06 r p2
263.66 272.77 0.35 1.19 r p2
264.05 272.77 0.35 0.58 r p2
264.44 272.75 0.35 0.02 r p2
264.83 272.72 0.35 0.05 r p2
265.22 272.77 0.35 0.01 r p2
265.61 272.56 0.35 0.21 r p2
266.00 272.71 0.35 0.06 r p2
266.38 272.77 0.35 0.14 r p2
266.77 272.77 0.35 0.91 r p2
267.16 272.77 0.35 0.72 r p2
267.55 272.77 0.35 0.32 r p2
267.94 272.77 0.35 0.62 r p2
268.33 272.77 0.35 0.80 r p2
268.72 272.77 0.35 0.89 r p2
269.11 272.77 0.35 1.09 r p2
269.50 272.77 0.35 1.30 r p2
269.89 272.77 0.35 1.32 r p2
270.28 272.77 0.35 1.76 r p2
270.67 272.77 0.35 2.06 r p2
271.06 272.77 0.35 1.86 r p2
271.45 272.77 0.35 2.05 r p2
271.83 272.77 0.35 1.78 r p2
272.22 272.77 0.35 1.69 r p2
272.61 272.77 0.35 1.49 r p2
273.00 272.77 0.35 1.32 r p2
273.39 272.77 0.35 1.08 r p2
273.78 272.77 0.35 1.25 r p2
274.17 272.77 0.35 1.32 r p2
274.56 272.77 0.35 1.01 r p2
274.95 272.77 0.35 0.76 r p2
275.34 272.77 0.35 0.00 r p2
275.73 272.61 0.35 0.17 r p2
276.12 272.47 0.35 0.30 r p2
276.51 272.05 0.35 0.72 r p2
276.90 271.64 0.35 1.13 r p2
277.28 271.26 0.35 1.51 r p2
277.67 271.15 0.35 1.62 r p2
278.06 270.72 0.35 2.05 r p2
278.45 270.79 0.35 1.98 r p2
278.84 270.59 0.35 2.18 r p2
279.23 270.92 0.35 1.85 r p2
279.62 271.29 0.35 1.48 r p2
280.01 270.85 0.35 1.93 r p2
280.40 270.84 0.35 1.93 r p2
280.79 270.87 0.35 1.90 r p2
281.18 270.54 0.35 2.23 r p2
281.57 270.26 0.35 2.51 r p2
281.96 270.30 0.35 2.47 r p2
282.35 270.12 0.35 2.65 r p2
282.73 270.06 0.35 2.71 r p2
283.12 270.33 0.35 2.44 r p2
283.51 270.37 0.35 2.40 r p2
283.90 270.92 0.35 1.86 r p2
284.29 271.28 0.35 1.49 r p2
284.68 271.75 0.35 1.02 r p2
285.07 272.21 0.35 0.56 r p2
285.46 272.50 0.35 0.27 r p2
285.85 272.77 0.35 0.15 r p2
286.24 272.77 0.35 0.00 r p2
286.63 272.56 0.35 0.21 r p2
287.02 272.53 0.35 0.24 r p2
287.41 272.54 0.35 0.23 r p2
287.80 272.53 0.35 0.25 r p2
288.18 272.67 0.35 0.11 r p2
288.57 272.77 0.35 0.10 r p2
288.96 272.77 0.35 0.45 r p2
289.35 272.77 0.35 0.68 r p2
289.74 272.77 0.35 1.18 r p2
290.13 272.77 0.35 1.78 r p2
290.52 272.77 0.35 2.13 r p2
290.91 272.77 0.35 2.49 r p2
291.30 272.77 0.35 2.58 r p2
291.69 272.77 0.35 2.68 r p2
292.08 272.77 0.35 2.57 r p2
292.47 272.77 0.35 2.17 r p2
292.86 272.77 0.35 1.63 r p2
293.25 272.77 0.35 1.18 r p2
293.63 272.77 0.35 0.95 r p2
294.02 272.77 0.35 0.97 r p2
294.41 272.77 0.35 0.96 r p2
294.80 272.77 0.35 1.07 r p2
295.19 272.77 0.35 1.04 r p2
295.58 272.77 0.35 0.80 r p2
295.97 272.77 0.35 0.71 r p2
296.36 272.77 0.35 0.36 r p2
296.75 272.46 0.35 0.31 r p2
297.14 272.10 0.35 0.67 r p2
297.53 271.87 0.35 0.90 r p2
297.92 271.57 0.35 1.20 r p2
298.31 271.72 0.35 1.05 r p2
298.70 271.16 0.35 1.61 r p2
299.08 271.08 0.35 1.69 r p2
0.00 0.00 311.25 369.00 cl
176.85 36.45 305.27 176.54 cl
/bg { 0.9922 0.9647 0.8902 srgb } def
0.5765 0.6314 0.6314 srgb
1.07 setlinewidth
[] 0 setdash
1 setlinecap
1 setlinejoin
10.00 setmiterlimit
176.85 36.45 128.42 140.09 r p3
0.9333 0.9098 0.8353 srgb
0.53 setlinewidth
[] 0 setdash
0 setlinecap
np
176.85 58.74 m
128.42 0 l
o
np
176.85 90.58 m
128.42 0 l
o
np
176.85 122.42 m
128.42 0 l
o
np
176.85 154.26 m
128.42 0 l
o
np
201.94 36.45 m
0 140.09 l
o
np
240.87 36.45 m
0 140.09 l
o
np
279.80 36.45 m
0 140.09 l
o
1.07 setlinewidth
[] 0 setdash
np
176.85 42.82 m
128.42 0 l
o
np
176.85 74.66 m
128.42 0 l
o
np
176.85 106.50 m
128.42 0 l
o
np
176.85 138.34 m
128.42 0 l
o
np
176.85 170.17 m
128.42 0 l
o
np
182.47 36.45 m
0 140.09 l
o
np
221.40 36.45 m
0 140.09 l
o
np
260.33 36.45 m
0 140.09 l
o
np
299.26 36.45 m
0 140.09 l
o
/bg { 0.3490 0.3490 0.3490 srgb } def
182.69 106.50 0.35 63.68 r p2
183.08 106.50 0.35 62.28 r p2
183.47 106.50 0.35 61.08 r p2
183.86 106.50 0.35 60.02 r p2
184.25 106.50 0.35 59.04 r p2
184.63 106.50 0.35 58.30 r p2
185.02 106.50 0.35 57.60 r p2
185.41 106.50 0.35 56.92 r p2
185.80 106.50 0.35 56.29 r p2
186.19 106.50 0.35 55.70 r p2
186.58 106.50 0.35 55.11 r p2
186.97 106.50 0.35 54.55 r p2
187.36 106.50 0.35 53.91 r p2
187.75 106.50 0.35 53.27 r p2
188.14 106.50 0.35 52.66 r p2
188.53 106.50 0.35 52.08 r p2
188.92 106.50 0.35 51.41 r p2
189.31 106.50 0.35 50.69 r p2
189.70 106.50 0.35 50.00 r p2
190.08 106.50 0.35 49.43 r p2
190.47 106.50 0.35 49.05 r p2
190.86 106.50 0.35 48.66 r p2
191.25 106.50 0.35 48.29 r p2
191.64 106.50 0.35 47.73 r p2
192.03 106.50 0.35 47.25 r p2
192.42 106.50 0.35 46.74 r p2
192.81 106.50 0.35 46.22 r p2
193.20 106.50 0.35 45.51 r p2
193.59 106.50 0.35 44.78 r p2
193.98 106.50 0.35 44.28 r p2
194.37 106.50 0.35 43.96 r p2
194.76 106.50 0.35 43.80 r p2
195.15 106.50 0.35 43.58 r p2
195.53 106.50 0.35 43.34 r p2
195.92 106.50 0.35 43.07 r p2
196.31 106.50 0.35 42.85 r p2
196.70 106.50 0.35 42.62 r p2
197.09 106.50 0.35 42.17 r p2
197.48 106.50 0.35 41.60 r p2
197.87 106.50 0.35 41.00 r p2
198.26 106.50 0.35 40.38 r p2
198.65 106.50 0.35 39.86 r p2
199.04 106.50 0.35 39.48 r p2
199.43 106.50 0.35 38.93 r p2
199.82 106.50 0.35 38.39 r p2
200.21 106.50 0.35 37.84 r p2
200.60 106.50 0.35 37.31 r p2
200.98 106.50 0.35 36.88 r p2
201.37 106.50 0.35 36.39 r p2
201.76 106.50 0.35 35.74 r p2
202.15 106.50 0.35 35.17 r p2
202.54 106.50 0.35 34.68 r p2
202.93 106.50 0.35 34.18 r p2
203.32 106.50 0.35 33.73 r p2
203.71 106.50 0.35 33.35 r p2
204.10 106.50 0.35 33.09 r p2
204.49 106.50 0.35 32.92 r p2
204.88 106.50 0.35 32.76 r p2
205.27 106.50 0.35 32.61 r p2
205.66 106.50 0.35 32.31 r p2
206.05 106.50 0.35 31.83 r p2
206.43 106.50 0.35 31.44 r p2
206.82 106.50 0.35 31.17 r p2
207.21 106.50 0.35 30.93 r p2
207.60 106.50 0.35 30.78 r p2
207.99 106.50 0.35 30.47 r p2
208.38 106.50 0.35 30.33 r p2
208.77 106.50 0.35 30.31 r p2
209.16 106.50 0.35 30.20 r p2
209.55 106.50 0.35 29.89 r p2
209.94 106.50 0.35 29.50 r p2
210.33 106.50 0.35 29.19 r p2
210.72 106.50 0.35 28.90 r p2
211.11 106.50 0.35 28.73 r p2
211.50 106.50 0.35 28.54 r p2
211.88 106.50 0.35 28.09 r p2
212.27 106.50 0.35 27.67 r p2
212.66 106.50 0.35 27.28 r p2
213.05 106.50 0.35 26.98 r p2
213.44 106.50 0.35 26.69 r p2
213.83 106.50 0.35 26.33 r p2
214.22 106.50 0.35 25.98 r p2
214.61 106.50 0.35 25.68 r p2
215.00 106.50 0.35 25.40 r p2
215.39 106.50 0.35 25.01 r p2
215.78 106.50 0.35 24.52 r p2
216.17 106.50 0.35 24.10 r p2
216.56 106.50 0.35 23.66 r p2
216.95 106.50 0.35 23.15 r p2
217.33 106.50 0.35 22.80 r p2
217.72 106.50 0.35 22.48 r p2
218.11 106.50 0.35 21.99 r p2
218.50 106.50 0.35 21.66 r p2
218.89 106.50 0.35 21.51 r p2
219.28 106.50 0.35 21.18 r p2
219.67 106.50 0.35 20.87 r p2
220.06 106.50 0.35 20.53 r p2
220.45 106.50 0.35 20.18 r p2
220.84 106.50 0.35 19.79 r p2
221.23 106.50 0.35 19.50 r p2
221.62 106.50 0.35 19.03 r p2
222.01 106.50 0.35 18.57 r p2
222.40 106.50 0.35 18.09 r p2
222.78 106.50 0.35 17.83 r p2
223.17 106.50 0.35 17.56 r p2
223.56 106.50 0.35 17.22 r p2
223.95 106.50 0.35 16.93 r p2
224.34 106.50 0.35 16.64 r p2
224.73 106.50 0.35 16.36 r p2
225.12 106.50 0.35 16.27 r p2
225.51 106.50 0.35 15.98 r p2
225.90 106.50 0.35 15.63 r p2
226.29 106.50 0.35 15.33 r p2
226.68 106.50 0.35 15.06 r p2
227.07 106.50 0.35 14.99 r p2
227.46 106.50 0.35 14.87 r p2
227.85 106.50 0.35 14.69 r p2
228.23 106.50 0.35 14.35 r p2
228.62 106.50 0.35 13.96 r p2
229.01 106.50 0.35 13.59 r p2
229.40 106.50 0.35 13.23 r p2
229.79 106.50 0.35 13.00 r p2
230.18 106.50 0.35 12.73 r p2
230.57 106.50 0.35 12.54 r p2
230.96 106.50 0.35 12.38 r p2
231.35 106.50 0.35 12.24 r p2
231.74 106.50 0.35 12.06 r p2
232.13 106.50 0.35 11.82 r p2
232.52 106.50 0.35 11.59 r p2
232.91 106.50 0.35 11.67 r p2
233.30 106.50 0.35 11.82 r p2
233.68 106.50 0.35 11.87 r p2
234.07 106.50 0.35 11.87 r p2
234.46 106.50 0.35 11.85 r p2
234.85 106.50 0.35 11.58 r p2
235.24 106.50 0.35 11.53 r p2
235.63 106.50 0.35 11.44 r p2
236.02 106.50 0.35 11.28 r p2
236.41 106.50 0.35 11.26 r p2
236.80 106.50 0.35 11.17 r p2
237.19 106.50 0.35 11.14 r p2
237.58 106.50 0.35 11.19 r p2
237.97 106.50 0.35 11.19 r p2
238.36 106.50 0.35 11.09 r p2
238.75 106.50 0.35 10.85 r p2
239.13 106.50 0.35 10.79 r p2
239.52 106.50 0.35 10.72 r p2
239.91 106.50 0.35 10.67 r p2
240.30 106.50 0.35 10.62 r p2
240.69 106.50 0.35 10.51 r p2
241.08 106.50 0.35 10.53 r p2
241.47 106.50 0.35 10.57 r p2
241.86 106.50 0.35 10.55 r p2
242.25 106.50 0.35 10.61 r p2
242.64 106.50 0.35 10.59 r p2
243.03 106.50 0.35 10.61 r p2
243.42 106.50 0.35 10.61 r p2
243.81 106.50 0.35 10.49 r p2
244.20 106.50 0.35 10.25 r p2
244.58 106.50 0.35 10.07 r p2
244.97 106.50 0.35 9.90 r p2
245.36 106.50 0.35 9.85 r p2
245.75 106.50 0.35 9.85 r p2
246.14 106.50 0.35 9.83 r p2
246.53 106.50 0.35 9.69 r p2
246.92 106.50 0.35 9.65 r p2
247.31 106.50 0.35 9.55 r p2
247.70 106.50 0.35 9.54 r p2
248.09 106.50 0.35 9.59 r p2
248.48 106.50 0.35 9.54 r p2
248.87 106.50 0.35 9.46 r p2
249.26 106.50 0.35 9.50 r p2
249.65 106.50 0.35 9.67 r p2
250.03 106.50 0.35 9.81 r p2
250.42 106.50 0.35 9.73 r p2
250.81 106.50 0.35 9.76 r p2
251.20 106.50 0.35 9.85 r p2
251.59 106.50 0.35 9.87 r p2
251.98 106.50 0.35 9.81 r p2
252.37 106.50 0.35 9.82 r p2
252.76 106.50 0.35 9.89 r p2
253.15 106.50 0.35 9.87 r p2
253.54 106.50 0.35 9.92 r p2
253.93 106.50 0.35 9.85 r p2
254.32 106.50 0.35 9.52 r p2
254.71 106.50 0.35 9.17 r p2
255.10 106.50 0.35 9.12 r p2
255.48 106.50 0.35 9.13 r p2
255.87 106.50 0.35 9.12 r p2
256.26 106.50 0.35 9.13 r p2
256.65 106.50 0.35 9.19 r p2
257.04 106.50 0.35 9.18 r p2
257.43 106.50 0.35 9.24 r p2
257.82 106.50 0.35 9.34 r p2
258.21 106.50 0.35 9.47 r p2
258.60 106.50 0.35 9.69 r p2
258.99 106.50 0.35 9.90 r p2
259.38 106.50 0.35 10.19 r p2
259.77 106.50 0.35 10.44 r p2
260.16 106.50 0.35 10.63 r p2
260.55 106.50 0.35 10.78 r p2
260.93 106.50 0.35 10.96 r p2
261.32 106.50 0.35 11.03 r p2
261.71 106.50 0.35 11.00 r p2
262.10 106.50 0.35 10.89 r p2
262.49 106.50 0.35 10.86 r p2
262.88 106.50 0.35 10.93 r p2
263.27 106.50 0.35 10.91 r p2
263.66 106.50 0.35 10.92 r p2
264.05 106.50 0.35 10.97 r p2
264.44 106.50 0.35 10.99 r p2
264.83 106.50 0.35 11.07 r p2
265.22 106.50 0.35 11.14 r p2
265.61 106.50 0.35 11.21 r p2
266.00 106.50 0.35 11.20 r p2
266.38 106.50 0.35 11.06 r p2
266.77 106.50 0.35 11.01 r p2
267.16 106.50 0.35 10.92 r p2
267.55 106.50 0.35 10.86 r p2
267.94 106.50 0.35 10.77 r p2
268.33 106.50 0.35 10.58 r p2
268.72 106.50 0.35 10.41 r p2
269.11 106.50 0.35 10.23 r p2
269.50 106.50 0.35 10.15 r p2
269.89 106.50 0.35 10.09 r p2
270.28 106.50 0.35 10.06 r p2
270.67 106.50 0.35 10.02 r p2
271.06 106.50 0.35 9.97 r p2
271.45 106.50 0.35 10.04 r p2
271.83 106.50 0.35 10.04 r p2
272.22 106.50 0.35 10.10 r p2
272.61 106.50 0.35 10.16 r p2
273.00 106.50 0.35 10.19 r p2
273.39 106.50 0.35 10.11 r p2
273.78 106.50 0.35 10.09 r p2
274.17 106.50 0.35 9.99 r p2
274.56 106.50 0.35 9.77 r p2
274.95 106.50 0.35 9.72 r p2
275.34 106.50 0.35 9.75 r p2
275.73 106.50 0.35 10.01 r p2
276.12 106.50 0.35 10.14 r p2
276.51 106.50 0.35 10.15 r p2
276.90 106.50 0.35 10.19 r p2
277.28 106.50 0.35 10.24 r p2
277.67 106.50 0.35 10.23 r p2
278.06 106.50 0.35 10.24 r p2
278.45 106.50 0.35 10.17 r p2
278.84 106.50 0.35 10.01 r p2
279.23 106.50 0.35 9.91 r p2
279.62 106.50 0.35 9.91 r p2
280.01 106.50 0.35 9.90 r p2
280.40 106.50 0.35 9.75 r p2
280.79 106.50 0.35 9.58 r p2
281.18 106.50 0.35 9.49 r p2
281.57 106.50 0.35 9.52 r p2
281.96 106.50 0.35 9.62 r p2
282.35 106.50 0.35 9.75 r p2
282.73 106.50 0.35 9.59 r p2
283.12 106.50 0.35 9.46 r p2
283.51 106.50 0.35 9.36 r p2
283.90 106.50 0.35 9.38 r p2
284.29 106.50 0.35 9.45 r p2
284.68 106.50 0.35 9.47 r p2
285.07 106.50 0.35 9.50 r p2
285.46 106.50 0.35 9.62 r p2
285.85 106.50 0.35 9.85 r p2
286.24 106.50 0.35 10.04 r p2
286.63 106.50 0.35 10.11 r p2
287.02 106.50 0.35 10.25 r p2
287.41 106.50 0.35 10.45 r p2
287.80 106.50 0.35 10.51 r p2
288.18 106.50 0.35 10.62 r p2
288.57 106.50 0.35 10.73 r p2
288.96 106.50 0.35 10.68 r p2
289.35 106.50 0.35 10.61 r p2
289.74 106.50 0.35 10.61 r p2
290.13 106.50 0.35 10.62 r p2
290.52 106.50 0.35 10.55 r p2
290.91 106.50 0.35 10.33 r p2
291.30 106.50 0.35 10.12 r p2
291.69 106.50 0.35 9.91 r p2
292.08 106.50 0.35 9.63 r p2
292.47 106.50 0.35 9.37 r p2
292.86 106.50 0.35 8.93 r p2
293.25 106.50 0.35 8.43 r p2
293.63 106.50 0.35 8.13 r p2
294.02 106.50 0.35 7.85 r p2
294.41 106.50 0.35 7.46 r p2
294.80 106.50 0.35 6.91 r p2
295.19 106.50 0.35 6.41 r p2
295.58 106.50 0.35 5.93 r p2
295.97 106.50 0.35 5.53 r p2
296.36 106.50 0.35 5.30 r p2
296.75 106.50 0.35 4.98 r p2
297.14 106.50 0.35 4.57 r p2
297.53 106.50 0.35 4.21 r p2
297.92 106.50 0.35 3.80 r p2
298.31 106.50 0.35 3.43 r p2
298.70 106.50 0.35 3.08 r p2
299.08 106.50 0.35 2.67 r p2
0.00 0.00 311.25 369.00 cl
42.45 176.54 170.87 196.75 cl
42.45 176.54 170.87 196.75 cl
/bg { 0.8510 0.8510 0.8510 srgb } def
0.2000 0.2000 0.2000 srgb
1.07 setlinewidth
[] 0 setdash
1 setlinecap
1 setlinejoin
10.00 setmiterlimit
42.45 176.54 128.42 20.21 r p3
/Font1 findfont 10 s
0.1020 0.1020 0.1020 srgb
106.66 183.06 (T0) .5 0 t
42.45 176.54 170.87 196.75 cl
42.45 176.54 170.87 196.75 cl
0.00 0.00 311.25 369.00 cl
176.85 176.54 305.27 196.75 cl
176.85 176.54 305.27 196.75 cl
/bg { 0.8510 0.8510 0.8510 srgb } def
0.2000 0.2000 0.2000 srgb
1.07 setlinewidth
[] 0 setdash
1 setlinecap
1 setlinejoin
10.00 setmiterlimit
176.85 176.54 128.42 20.21 r p3
/Font1 findfont 10 s
0.1020 0.1020 0.1020 srgb
241.06 183.06 (Tm) .5 0 t
176.85 176.54 305.27 196.75 cl
176.85 176.54 305.27 196.75 cl
0.00 0.00 311.25 369.00 cl
42.45 342.82 170.87 363.02 cl
42.45 342.82 170.87 363.02 cl
/bg { 0.8510 0.8510 0.8510 srgb } def
0.2000 0.2000 0.2000 srgb
1.07 setlinewidth
[] 0 setdash
1 setlinecap
1 setlinejoin
10.00 setmiterlimit
42.45 342.82 128.42 20.21 r p3
/Font1 findfont 10 s
0.1020 0.1020 0.1020 srgb
106.66 349.33 (a) .5 0 t
42.45 342.82 170.87 363.02 cl
42.45 342.82 170.87 363.02 cl
0.00 0.00 311.25 369.00 cl
176.85 342.82 305.27 363.02 cl
176.85 342.82 305.27 363.02 cl
/bg { 0.8510 0.8510 0.8510 srgb } def
0.2000 0.2000 0.2000 srgb
1.07 setlinewidth
[] 0 setdash
1 setlinecap
1 setlinejoin
10.00 setmiterlimit
176.85 342.82 128.42 20.21 r p3
/Font1 findfont 10 s
0.1020 0.1020 0.1020 srgb
241.06 349.33 (m) .5 0 t
176.85 342.82 305.27 363.02 cl
176.85 342.82 305.27 363.02 cl
0.00 0.00 311.25 369.00 cl
0.00 0.00 311.25 369.00 cl
0.00 0.00 311.25 369.00 cl
0.00 0.00 311.25 369.00 cl
0.00 0.00 311.25 369.00 cl
0.00 0.00 311.25 369.00 cl
0.00 0.00 311.25 369.00 cl
0.00 0.00 311.25 369.00 cl
0.00 0.00 311.25 369.00 cl
0.00 0.00 311.25 369.00 cl
0.00 0.00 311.25 369.00 cl
0.5765 0.6314 0.6314 srgb
1.07 setlinewidth
[] 0 setdash
0 setlinecap
1 setlinejoin
10.00 setmiterlimit
np
42.45 36.45 m
128.42 0 l
o
0.00 0.00 311.25 369.00 cl
0.00 0.00 311.25 369.00 cl
0.00 0.00 311.25 369.00 cl
0.5765 0.6314 0.6314 srgb
1.07 setlinewidth
[] 0 setdash
0 setlinecap
1 setlinejoin
10.00 setmiterlimit
np
48.07 33.46 m
0 2.99 l
o
np
87.00 33.46 m
0 2.99 l
o
np
125.93 33.46 m
0 2.99 l
o
np
164.86 33.46 m
0 2.99 l
o
0.00 0.00 311.25 369.00 cl
0.00 0.00 311.25 369.00 cl
/Font1 findfont 10 s
0.3020 0.3020 0.3020 srgb
48.07 23.89 (0) .5 0 t
87.00 23.89 (100) .5 0 t
125.93 23.89 (200) .5 0 t
164.86 23.89 (300) .5 0 t
0.00 0.00 311.25 369.00 cl
0.00 0.00 311.25 369.00 cl
0.00 0.00 311.25 369.00 cl
0.00 0.00 311.25 369.00 cl
0.00 0.00 311.25 369.00 cl
0.5765 0.6314 0.6314 srgb
1.07 setlinewidth
[] 0 setdash
0 setlinecap
1 setlinejoin
10.00 setmiterlimit
np
176.85 36.45 m
128.42 0 l
o
0.00 0.00 311.25 369.00 cl
0.00 0.00 311.25 369.00 cl
0.00 0.00 311.25 369.00 cl
0.5765 0.6314 0.6314 srgb
1.07 setlinewidth
[] 0 setdash
0 setlinecap
1 setlinejoin
10.00 setmiterlimit
np
182.47 33.46 m
0 2.99 l
o
np
221.40 33.46 m
0 2.99 l
o
np
260.33 33.46 m
0 2.99 l
o
np
299.26 33.46 m
0 2.99 l
o
0.00 0.00 311.25 369.00 cl
0.00 0.00 311.25 369.00 cl
/Font1 findfont 10 s
0.3020 0.3020 0.3020 srgb
182.47 23.89 (0) .5 0 t
221.40 23.89 (100) .5 0 t
260.33 23.89 (200) .5 0 t
299.26 23.89 (300) .5 0 t
0.00 0.00 311.25 369.00 cl
0.00 0.00 311.25 369.00 cl
0.00 0.00 311.25 369.00 cl
0.00 0.00 311.25 369.00 cl
0.00 0.00 311.25 369.00 cl
0.00 0.00 311.25 369.00 cl
0.00 0.00 311.25 369.00 cl
0.00 0.00 311.25 369.00 cl
0.00 0.00 311.25 369.00 cl
0.00 0.00 311.25 369.00 cl
0.00 0.00 311.25 369.00 cl
0.00 0.00 311.25 369.00 cl
0.00 0.00 311.25 369.00 cl
0.5765 0.6314 0.6314 srgb
1.07 setlinewidth
[] 0 setdash
0 setlinecap
1 setlinejoin
10.00 setmiterlimit
np
42.45 202.73 m
0 140.09 l
o
0.00 0.00 311.25 369.00 cl
0.00 0.00 311.25 369.00 cl
0.00 0.00 311.25 369.00 cl
/Font1 findfont 10 s
0.3020 0.3020 0.3020 srgb
37.07 205.50 (-1.0) 1 0 t
37.07 237.34 (-0.5) 1 0 t
37.07 269.18 (0.0) 1 0 t
37.07 301.02 (0.5) 1 0 t
37.07 332.86 (1.0) 1 0 t
0.00 0.00 311.25 369.00 cl
0.00 0.00 311.25 369.00 cl
0.5765 0.6314 0.6314 srgb
1.07 setlinewidth
[] 0 setdash
0 setlinecap
1 setlinejoin
10.00 setmiterlimit
np
39.46 209.09 m
2.99 0 l
o
np
39.46 240.93 m
2.99 0 l
o
np
39.46 272.77 m
2.99 0 l
o
np
39.46 304.61 m
2.99 0 l
o
np
39.46 336.45 m
2.99 0 l
o
0.00 0.00 311.25 369.00 cl
0.00 0.00 311.25 369.00 cl
0.00 0.00 311.25 369.00 cl
0.00 0.00 311.25 369.00 cl
0.00 0.00 311.25 369.00 cl
0.5765 0.6314 0.6314 srgb
1.07 setlinewidth
[] 0 setdash
0 setlinecap
1 setlinejoin
10.00 setmiterlimit
np
42.45 36.45 m
0 140.09 l
o
0.00 0.00 311.25 369.00 cl
0.00 0.00 311.25 369.00 cl
0.00 0.00 311.25 369.00 cl
/Font1 findfont 10 s
0.3020 0.3020 0.3020 srgb
37.07 39.23 (-1.0) 1 0 t
37.07 71.07 (-0.5) 1 0 t
37.07 102.91 (0.0) 1 0 t
37.07 134.75 (0.5) 1 0 t
37.07 166.58 (1.0) 1 0 t
0.00 0.00 311.25 369.00 cl
0.00 0.00 311.25 369.00 cl
0.5765 0.6314 0.6314 srgb
1.07 setlinewidth
[] 0 setdash
0 setlinecap
1 setlinejoin
10.00 setmiterlimit
np
39.46 42.82 m
2.99 0 l
o
np
39.46 74.66 m
2.99 0 l
o
np
39.46 106.50 m
2.99 0 l
o
np
39.46 138.34 m
2.99 0 l
o
np
39.46 170.17 m
2.99 0 l
o
0.00 0.00 311.25 369.00 cl
0.00 0.00 311.25 369.00 cl
0.00 0.00 311.25 369.00 cl
0.00 0.00 311.25 369.00 cl
0.00 0.00 311.25 369.00 cl
0.00 0.00 311.25 369.00 cl
0.00 0.00 311.25 369.00 cl
0.00 0.00 311.25 369.00 cl
0.00 0.00 311.25 369.00 cl
0.00 0.00 311.25 369.00 cl
0.00 0.00 311.25 369.00 cl
0.00 0.00 311.25 369.00 cl
0.00 0.00 311.25 369.00 cl
0.00 0.00 311.25 369.00 cl
/Font1 findfont 12 s
0.3961 0.4824 0.5137 srgb
173.86 8.23 (Lag) .5 0 t
0.00 0.00 311.25 369.00 cl
0.00 0.00 311.25 369.00 cl
/Font1 findfont 12 s
0.3961 0.4824 0.5137 srgb
14.59 149.28 (A) 90 ta
-0.360 (utocorrelation) tb gr
0.00 0.00 311.25 369.00 cl
0.00 0.00 311.25 369.00 cl
0.00 0.00 311.25 369.00 cl
0.00 0.00 311.25 369.00 cl
0.00 0.00 311.25 369.00 cl
0.00 0.00 311.25 369.00 cl
0.00 0.00 311.25 369.00 cl
0.00 0.00 311.25 369.00 cl
0.00 0.00 311.25 369.00 cl
0.00 0.00 311.25 369.00 cl
ep
%%Trailer
%%Pages: 1
%%EOF
