%!PS-Adobe-3.0 EPSF-3.0
%%DocumentNeededResources: font Helvetica
%%+ font Helvetica-Bold
%%+ font Helvetica-Oblique
%%+ font Helvetica-BoldOblique
%%+ font Symbol
%%Title: R Graphics Output
%%Creator: R Software
%%Pages: (atend)
%%BoundingBox: 0 0 330 464
%%EndComments
%%BeginProlog
/bp  { gs sRGB gs } def
% begin .ps.prolog
/gs  { gsave } bind def
/gr  { grestore } bind def
/ep  { showpage gr gr } bind def
/m   { moveto } bind def
/l  { rlineto } bind def
/np  { newpath } bind def
/cp  { closepath } bind def
/f   { fill } bind def
/o   { stroke } bind def
/c   { newpath 0 360 arc } bind def
/r   { 4 2 roll moveto 1 copy 3 -1 roll exch 0 exch rlineto 0 rlineto -1 mul 0 exch rlineto closepath } bind def
/p1  { stroke } bind def
/p2  { gsave bg fill grestore newpath } bind def
/p3  { gsave bg fill grestore stroke } bind def
/p6  { gsave bg eofill grestore newpath } bind def
/p7  { gsave bg eofill grestore stroke } bind def
/t   { 5 -2 roll moveto gsave rotate
       1 index stringwidth pop
       mul neg 0 rmoveto show grestore } bind def
/ta  { 4 -2 roll moveto gsave rotate show } bind def
/tb  { 2 -1 roll 0 rmoveto show } bind def
/cl  { grestore gsave newpath 3 index 3 index moveto 1 index
       4 -1 roll lineto  exch 1 index lineto lineto
       closepath clip newpath } bind def
/rgb { setrgbcolor } bind def
/s   { scalefont setfont } bind def
% end   .ps.prolog
/sRGB { [ /CIEBasedABC
          << /DecodeLMN
               [ { dup 0.03928 le
                        {12.92321 div}
                        {0.055 add 1.055 div 2.4 exp }
                     ifelse
                 } bind dup dup
               ]
             /MatrixLMN [0.412457 0.212673 0.019334
                         0.357576 0.715152 0.119192
                         0.180437 0.072175 0.950301]
             /WhitePoint [0.9505 1.0 1.0890]
           >>
         ] setcolorspace } bind def
/srgb { setcolor } bind def
% begin encoding
/WinAnsiEncoding [
 /.notdef /.notdef /.notdef /.notdef /.notdef /.notdef /.notdef /.notdef
 /.notdef /.notdef /.notdef /.notdef /.notdef /.notdef /.notdef /.notdef
 /.notdef /.notdef /.notdef /.notdef /.notdef /.notdef /.notdef /.notdef
 /.notdef /.notdef /.notdef /.notdef /.notdef /.notdef /.notdef /.notdef
 /space /exclam /quotedbl /numbersign /dollar /percent /ampersand /quoteright
 /parenleft /parenright /asterisk /plus /comma /minus /period /slash
 /zero /one /two /three /four /five /six /seven
 /eight /nine /colon /semicolon /less /equal /greater /question
 /at /A /B /C /D /E /F /G
 /H /I /J /K /L /M /N /O
 /P /Q /R /S /T /U /V /W
 /X /Y /Z /bracketleft /backslash /bracketright /asciicircum /underscore
 /grave /a /b /c /d /e /f /g
 /h /i /j /k /l /m /n /o
 /p /q /r /s /t /u /v /w
 /x /y /z /braceleft /bar /braceright /asciitilde /.notdef
 /Euro /.notdef /quotesinglbase /florin /quotedblbase /ellipsis /dagger /daggerdbl
 /circumflex /perthousand /Scaron /guilsinglleft /OE /.notdef /Zcaron /.notdef
 /.notdef /quoteleft /quoteright /quotedblleft /quotedblright /bullet /endash /emdash
 /tilde /trademark /scaron /guilsinglright /oe /.notdef /zcaron /Ydieresis
 /space /exclamdown /cent /sterling /currency /yen /brokenbar /section
 /dieresis /copyright /ordfeminine /guillemotleft /logicalnot /hyphen /registered /macron
 /degree /plusminus /twosuperior /threesuperior /acute /mu /paragraph /periodcentered
 /cedilla /onesuperior /ordmasculine /guillemotright /onequarter /onehalf /threequarters /questiondown
 /Agrave /Aacute /Acircumflex /Atilde /Adieresis /Aring /AE /Ccedilla
 /Egrave /Eacute /Ecircumflex /Edieresis /Igrave /Iacute /Icircumflex /Idieresis
 /Eth /Ntilde /Ograve /Oacute /Ocircumflex /Otilde /Odieresis /multiply
 /Oslash /Ugrave /Uacute /Ucircumflex /Udieresis /Yacute /Thorn /germandbls
 /agrave /aacute /acircumflex /atilde /adieresis /aring /ae /ccedilla
 /egrave /eacute /ecircumflex /edieresis /igrave /iacute /icircumflex /idieresis
 /eth /ntilde /ograve /oacute /ocircumflex /otilde /odieresis /divide
 /oslash /ugrave /uacute /ucircumflex /udieresis /yacute /thorn /ydieresis
]
 def
% end encoding
%%IncludeResource: font Helvetica
/Helvetica findfont
dup length dict begin
  {1 index /FID ne {def} {pop pop} ifelse} forall
  /Encoding WinAnsiEncoding def
  currentdict
  end
/Font1 exch definefont pop
%%IncludeResource: font Helvetica-Bold
/Helvetica-Bold findfont
dup length dict begin
  {1 index /FID ne {def} {pop pop} ifelse} forall
  /Encoding WinAnsiEncoding def
  currentdict
  end
/Font2 exch definefont pop
%%IncludeResource: font Helvetica-Oblique
/Helvetica-Oblique findfont
dup length dict begin
  {1 index /FID ne {def} {pop pop} ifelse} forall
  /Encoding WinAnsiEncoding def
  currentdict
  end
/Font3 exch definefont pop
%%IncludeResource: font Helvetica-BoldOblique
/Helvetica-BoldOblique findfont
dup length dict begin
  {1 index /FID ne {def} {pop pop} ifelse} forall
  /Encoding WinAnsiEncoding def
  currentdict
  end
/Font4 exch definefont pop
%%IncludeResource: font Symbol
/Symbol findfont
dup length dict begin
  {1 index /FID ne {def} {pop pop} ifelse} forall
  currentdict
  end
/Font5 exch definefont pop
%%EndProlog
%%Page: 1 1
bp
0.00 0.00 330.00 464.25 cl
0.00 0.00 330.00 464.25 cl
0.00 0.00 330.00 464.25 cl
0.00 0.00 330.00 464.25 cl
0.00 0.00 330.00 464.25 cl
0.00 0.00 330.00 464.25 cl
/bg { 0.9922 0.9647 0.8902 srgb } def
0.00 0.00 330.00 464.25 r p2
0.00 0.00 330.00 464.25 cl
42.45 366.96 324.02 438.07 cl
/bg { 0.9922 0.9647 0.8902 srgb } def
0.5765 0.6314 0.6314 srgb
1.07 setlinewidth
[] 0 setdash
1 setlinecap
1 setlinejoin
10.00 setmiterlimit
42.45 366.96 281.57 71.11 r p3
0.9333 0.9098 0.8353 srgb
0.53 setlinewidth
[] 0 setdash
0 setlinecap
np
42.45 381.91 m
281.57 0 l
o
np
42.45 405.34 m
281.57 0 l
o
np
42.45 428.78 m
281.57 0 l
o
np
97.77 366.96 m
0 71.11 l
o
np
183.15 366.96 m
0 71.11 l
o
np
268.53 366.96 m
0 71.11 l
o
1.07 setlinewidth
[] 0 setdash
np
42.45 370.19 m
281.57 0 l
o
np
42.45 393.63 m
281.57 0 l
o
np
42.45 417.06 m
281.57 0 l
o
np
55.08 366.96 m
0 71.11 l
o
np
140.46 366.96 m
0 71.11 l
o
np
225.84 366.96 m
0 71.11 l
o
np
311.22 366.96 m
0 71.11 l
o
0.00 0.00 330.00 464.25 cl
42.45 256.04 324.02 327.15 cl
/bg { 0.9922 0.9647 0.8902 srgb } def
0.5765 0.6314 0.6314 srgb
1.07 setlinewidth
[] 0 setdash
1 setlinecap
1 setlinejoin
10.00 setmiterlimit
42.45 256.04 281.57 71.11 r p3
0.9333 0.9098 0.8353 srgb
0.53 setlinewidth
[] 0 setdash
0 setlinecap
np
42.45 256.92 m
281.57 0 l
o
np
42.45 269.65 m
281.57 0 l
o
np
42.45 282.38 m
281.57 0 l
o
np
42.45 295.11 m
281.57 0 l
o
np
42.45 307.84 m
281.57 0 l
o
np
42.45 320.57 m
281.57 0 l
o
np
97.77 256.04 m
0 71.11 l
o
np
183.15 256.04 m
0 71.11 l
o
np
268.53 256.04 m
0 71.11 l
o
1.07 setlinewidth
[] 0 setdash
np
42.45 263.29 m
281.57 0 l
o
np
42.45 276.02 m
281.57 0 l
o
np
42.45 288.75 m
281.57 0 l
o
np
42.45 301.48 m
281.57 0 l
o
np
42.45 314.21 m
281.57 0 l
o
np
42.45 326.93 m
281.57 0 l
o
np
55.08 256.04 m
0 71.11 l
o
np
140.46 256.04 m
0 71.11 l
o
np
225.84 256.04 m
0 71.11 l
o
np
311.22 256.04 m
0 71.11 l
o
0.00 0.00 330.00 464.25 cl
42.45 145.12 324.02 216.23 cl
/bg { 0.9922 0.9647 0.8902 srgb } def
0.5765 0.6314 0.6314 srgb
1.07 setlinewidth
[] 0 setdash
1 setlinecap
1 setlinejoin
10.00 setmiterlimit
42.45 145.12 281.57 71.11 r p3
0.9333 0.9098 0.8353 srgb
0.53 setlinewidth
[] 0 setdash
0 setlinecap
np
42.45 157.11 m
281.57 0 l
o
np
42.45 176.84 m
281.57 0 l
o
np
42.45 196.58 m
281.57 0 l
o
np
97.77 145.12 m
0 71.11 l
o
np
183.15 145.12 m
0 71.11 l
o
np
268.53 145.12 m
0 71.11 l
o
1.07 setlinewidth
[] 0 setdash
np
42.45 147.24 m
281.57 0 l
o
np
42.45 166.97 m
281.57 0 l
o
np
42.45 186.71 m
281.57 0 l
o
np
42.45 206.44 m
281.57 0 l
o
np
55.08 145.12 m
0 71.11 l
o
np
140.46 145.12 m
0 71.11 l
o
np
225.84 145.12 m
0 71.11 l
o
np
311.22 145.12 m
0 71.11 l
o
0.00 0.00 330.00 464.25 cl
42.45 34.20 324.02 105.31 cl
/bg { 0.9922 0.9647 0.8902 srgb } def
0.5765 0.6314 0.6314 srgb
1.07 setlinewidth
[] 0 setdash
1 setlinecap
1 setlinejoin
10.00 setmiterlimit
42.45 34.20 281.57 71.11 r p3
0.9333 0.9098 0.8353 srgb
0.53 setlinewidth
[] 0 setdash
0 setlinecap
np
42.45 42.12 m
281.57 0 l
o
np
42.45 59.37 m
281.57 0 l
o
np
42.45 76.63 m
281.57 0 l
o
np
42.45 93.88 m
281.57 0 l
o
np
97.77 34.20 m
0 71.11 l
o
np
183.15 34.20 m
0 71.11 l
o
np
268.53 34.20 m
0 71.11 l
o
1.07 setlinewidth
[] 0 setdash
np
42.45 50.75 m
281.57 0 l
o
np
42.45 68.00 m
281.57 0 l
o
np
42.45 85.25 m
281.57 0 l
o
np
42.45 102.51 m
281.57 0 l
o
np
55.08 34.20 m
0 71.11 l
o
np
140.46 34.20 m
0 71.11 l
o
np
225.84 34.20 m
0 71.11 l
o
np
311.22 34.20 m
0 71.11 l
o
0.00 0.00 330.00 464.25 cl
42.45 105.31 324.02 125.51 cl
42.45 105.31 324.02 125.51 cl
/bg { 0.8510 0.8510 0.8510 srgb } def
0.2000 0.2000 0.2000 srgb
1.07 setlinewidth
[] 0 setdash
1 setlinecap
1 setlinejoin
10.00 setmiterlimit
42.45 105.31 281.57 20.21 r p3
/Font1 findfont 10 s
0.1020 0.1020 0.1020 srgb
183.24 111.82 (Tm) .5 0 t
42.45 105.31 324.02 125.51 cl
42.45 105.31 324.02 125.51 cl
0.00 0.00 330.00 464.25 cl
42.45 216.23 324.02 236.43 cl
42.45 216.23 324.02 236.43 cl
/bg { 0.8510 0.8510 0.8510 srgb } def
0.2000 0.2000 0.2000 srgb
1.07 setlinewidth
[] 0 setdash
1 setlinecap
1 setlinejoin
10.00 setmiterlimit
42.45 216.23 281.57 20.21 r p3
/Font1 findfont 10 s
0.1020 0.1020 0.1020 srgb
183.24 222.74 (T0) .5 0 t
42.45 216.23 324.02 236.43 cl
42.45 216.23 324.02 236.43 cl
0.00 0.00 330.00 464.25 cl
42.45 327.15 324.02 347.35 cl
42.45 327.15 324.02 347.35 cl
/bg { 0.8510 0.8510 0.8510 srgb } def
0.2000 0.2000 0.2000 srgb
1.07 setlinewidth
[] 0 setdash
1 setlinecap
1 setlinejoin
10.00 setmiterlimit
42.45 327.15 281.57 20.21 r p3
/Font1 findfont 10 s
0.1020 0.1020 0.1020 srgb
183.24 333.66 (m) .5 0 t
42.45 327.15 324.02 347.35 cl
42.45 327.15 324.02 347.35 cl
0.00 0.00 330.00 464.25 cl
42.45 438.07 324.02 458.27 cl
42.45 438.07 324.02 458.27 cl
/bg { 0.8510 0.8510 0.8510 srgb } def
0.2000 0.2000 0.2000 srgb
1.07 setlinewidth
[] 0 setdash
1 setlinecap
1 setlinejoin
10.00 setmiterlimit
42.45 438.07 281.57 20.21 r p3
/Font1 findfont 10 s
0.1020 0.1020 0.1020 srgb
183.24 444.58 (a) .5 0 t
42.45 438.07 324.02 458.27 cl
42.45 438.07 324.02 458.27 cl
0.00 0.00 330.00 464.25 cl
0.00 0.00 330.00 464.25 cl
0.00 0.00 330.00 464.25 cl
0.00 0.00 330.00 464.25 cl
0.00 0.00 330.00 464.25 cl
0.00 0.00 330.00 464.25 cl
0.00 0.00 330.00 464.25 cl
0.00 0.00 330.00 464.25 cl
0.00 0.00 330.00 464.25 cl
0.00 0.00 330.00 464.25 cl
0.00 0.00 330.00 464.25 cl
0.5765 0.6314 0.6314 srgb
1.07 setlinewidth
[] 0 setdash
0 setlinecap
1 setlinejoin
10.00 setmiterlimit
np
42.45 34.20 m
281.57 0 l
o
0.00 0.00 330.00 464.25 cl
0.00 0.00 330.00 464.25 cl
0.00 0.00 330.00 464.25 cl
0.5765 0.6314 0.6314 srgb
1.07 setlinewidth
[] 0 setdash
0 setlinecap
1 setlinejoin
10.00 setmiterlimit
np
55.08 31.21 m
0 2.99 l
o
np
140.46 31.21 m
0 2.99 l
o
np
225.84 31.21 m
0 2.99 l
o
np
311.22 31.21 m
0 2.99 l
o
0.00 0.00 330.00 464.25 cl
0.00 0.00 330.00 464.25 cl
/Font1 findfont 10 s
0.3020 0.3020 0.3020 srgb
55.08 21.64 (0) .5 0 t
140.46 21.64 (500) .5 0 t
225.84 21.64 (1000) .5 0 t
311.22 21.64 (1500) .5 0 t
0.00 0.00 330.00 464.25 cl
0.00 0.00 330.00 464.25 cl
0.00 0.00 330.00 464.25 cl
0.00 0.00 330.00 464.25 cl
0.00 0.00 330.00 464.25 cl
0.5765 0.6314 0.6314 srgb
1.07 setlinewidth
[] 0 setdash
0 setlinecap
1 setlinejoin
10.00 setmiterlimit
np
42.45 145.12 m
281.57 0 l
o
0.00 0.00 330.00 464.25 cl
0.00 0.00 330.00 464.25 cl
0.00 0.00 330.00 464.25 cl
0.5765 0.6314 0.6314 srgb
1.07 setlinewidth
[] 0 setdash
0 setlinecap
1 setlinejoin
10.00 setmiterlimit
np
55.08 142.13 m
0 2.99 l
o
np
140.46 142.13 m
0 2.99 l
o
np
225.84 142.13 m
0 2.99 l
o
np
311.22 142.13 m
0 2.99 l
o
0.00 0.00 330.00 464.25 cl
0.00 0.00 330.00 464.25 cl
/Font1 findfont 10 s
0.3020 0.3020 0.3020 srgb
55.08 132.56 (0) .5 0 t
140.46 132.56 (500) .5 0 t
225.84 132.56 (1000) .5 0 t
311.22 132.56 (1500) .5 0 t
0.00 0.00 330.00 464.25 cl
0.00 0.00 330.00 464.25 cl
0.00 0.00 330.00 464.25 cl
0.00 0.00 330.00 464.25 cl
0.00 0.00 330.00 464.25 cl
0.5765 0.6314 0.6314 srgb
1.07 setlinewidth
[] 0 setdash
0 setlinecap
1 setlinejoin
10.00 setmiterlimit
np
42.45 256.04 m
281.57 0 l
o
0.00 0.00 330.00 464.25 cl
0.00 0.00 330.00 464.25 cl
0.00 0.00 330.00 464.25 cl
0.5765 0.6314 0.6314 srgb
1.07 setlinewidth
[] 0 setdash
0 setlinecap
1 setlinejoin
10.00 setmiterlimit
np
55.08 253.05 m
0 2.99 l
o
np
140.46 253.05 m
0 2.99 l
o
np
225.84 253.05 m
0 2.99 l
o
np
311.22 253.05 m
0 2.99 l
o
0.00 0.00 330.00 464.25 cl
0.00 0.00 330.00 464.25 cl
/Font1 findfont 10 s
0.3020 0.3020 0.3020 srgb
55.08 243.48 (0) .5 0 t
140.46 243.48 (500) .5 0 t
225.84 243.48 (1000) .5 0 t
311.22 243.48 (1500) .5 0 t
0.00 0.00 330.00 464.25 cl
0.00 0.00 330.00 464.25 cl
0.00 0.00 330.00 464.25 cl
0.00 0.00 330.00 464.25 cl
0.00 0.00 330.00 464.25 cl
0.5765 0.6314 0.6314 srgb
1.07 setlinewidth
[] 0 setdash
0 setlinecap
1 setlinejoin
10.00 setmiterlimit
np
42.45 366.96 m
281.57 0 l
o
0.00 0.00 330.00 464.25 cl
0.00 0.00 330.00 464.25 cl
0.00 0.00 330.00 464.25 cl
0.5765 0.6314 0.6314 srgb
1.07 setlinewidth
[] 0 setdash
0 setlinecap
1 setlinejoin
10.00 setmiterlimit
np
55.08 363.97 m
0 2.99 l
o
np
140.46 363.97 m
0 2.99 l
o
np
225.84 363.97 m
0 2.99 l
o
np
311.22 363.97 m
0 2.99 l
o
0.00 0.00 330.00 464.25 cl
0.00 0.00 330.00 464.25 cl
/Font1 findfont 10 s
0.3020 0.3020 0.3020 srgb
55.08 354.40 (0) .5 0 t
140.46 354.40 (500) .5 0 t
225.84 354.40 (1000) .5 0 t
311.22 354.40 (1500) .5 0 t
0.00 0.00 330.00 464.25 cl
0.00 0.00 330.00 464.25 cl
0.00 0.00 330.00 464.25 cl
0.00 0.00 330.00 464.25 cl
0.00 0.00 330.00 464.25 cl
0.5765 0.6314 0.6314 srgb
1.07 setlinewidth
[] 0 setdash
0 setlinecap
1 setlinejoin
10.00 setmiterlimit
np
42.45 366.96 m
0 71.11 l
o
0.00 0.00 330.00 464.25 cl
0.00 0.00 330.00 464.25 cl
0.00 0.00 330.00 464.25 cl
/Font1 findfont 10 s
0.3020 0.3020 0.3020 srgb
37.07 366.60 (0.8) 1 0 t
37.07 390.04 (1.0) 1 0 t
37.07 413.47 (1.2) 1 0 t
0.00 0.00 330.00 464.25 cl
0.00 0.00 330.00 464.25 cl
0.5765 0.6314 0.6314 srgb
1.07 setlinewidth
[] 0 setdash
0 setlinecap
1 setlinejoin
10.00 setmiterlimit
np
39.46 370.19 m
2.99 0 l
o
np
39.46 393.63 m
2.99 0 l
o
np
39.46 417.06 m
2.99 0 l
o
0.00 0.00 330.00 464.25 cl
0.00 0.00 330.00 464.25 cl
0.00 0.00 330.00 464.25 cl
0.00 0.00 330.00 464.25 cl
0.00 0.00 330.00 464.25 cl
0.5765 0.6314 0.6314 srgb
1.07 setlinewidth
[] 0 setdash
0 setlinecap
1 setlinejoin
10.00 setmiterlimit
np
42.45 256.04 m
0 71.11 l
o
0.00 0.00 330.00 464.25 cl
0.00 0.00 330.00 464.25 cl
0.00 0.00 330.00 464.25 cl
/Font1 findfont 10 s
0.3020 0.3020 0.3020 srgb
37.07 259.70 (1.8) 1 0 t
37.07 272.43 (1.9) 1 0 t
37.07 285.16 (2.0) 1 0 t
37.07 297.89 (2.1) 1 0 t
37.07 310.62 (2.2) 1 0 t
37.07 323.34 (2.3) 1 0 t
0.00 0.00 330.00 464.25 cl
0.00 0.00 330.00 464.25 cl
0.5765 0.6314 0.6314 srgb
1.07 setlinewidth
[] 0 setdash
0 setlinecap
1 setlinejoin
10.00 setmiterlimit
np
39.46 263.29 m
2.99 0 l
o
np
39.46 276.02 m
2.99 0 l
o
np
39.46 288.75 m
2.99 0 l
o
np
39.46 301.48 m
2.99 0 l
o
np
39.46 314.21 m
2.99 0 l
o
np
39.46 326.93 m
2.99 0 l
o
0.00 0.00 330.00 464.25 cl
0.00 0.00 330.00 464.25 cl
0.00 0.00 330.00 464.25 cl
0.00 0.00 330.00 464.25 cl
0.00 0.00 330.00 464.25 cl
0.5765 0.6314 0.6314 srgb
1.07 setlinewidth
[] 0 setdash
0 setlinecap
1 setlinejoin
10.00 setmiterlimit
np
42.45 145.12 m
0 71.11 l
o
0.00 0.00 330.00 464.25 cl
0.00 0.00 330.00 464.25 cl
0.00 0.00 330.00 464.25 cl
/Font1 findfont 10 s
0.3020 0.3020 0.3020 srgb
37.07 143.65 (-1.6) 1 0 t
37.07 163.38 (-1.4) 1 0 t
37.07 183.12 (-1.2) 1 0 t
37.07 202.85 (-1.0) 1 0 t
0.00 0.00 330.00 464.25 cl
0.00 0.00 330.00 464.25 cl
0.5765 0.6314 0.6314 srgb
1.07 setlinewidth
[] 0 setdash
0 setlinecap
1 setlinejoin
10.00 setmiterlimit
np
39.46 147.24 m
2.99 0 l
o
np
39.46 166.97 m
2.99 0 l
o
np
39.46 186.71 m
2.99 0 l
o
np
39.46 206.44 m
2.99 0 l
o
0.00 0.00 330.00 464.25 cl
0.00 0.00 330.00 464.25 cl
0.00 0.00 330.00 464.25 cl
0.00 0.00 330.00 464.25 cl
0.00 0.00 330.00 464.25 cl
0.5765 0.6314 0.6314 srgb
1.07 setlinewidth
[] 0 setdash
0 setlinecap
1 setlinejoin
10.00 setmiterlimit
np
42.45 34.20 m
0 71.11 l
o
0.00 0.00 330.00 464.25 cl
0.00 0.00 330.00 464.25 cl
0.00 0.00 330.00 464.25 cl
/Font1 findfont 10 s
0.3020 0.3020 0.3020 srgb
37.07 47.16 (2.5) 1 0 t
37.07 64.41 (3.0) 1 0 t
37.07 81.66 (3.5) 1 0 t
37.07 98.92 (4.0) 1 0 t
0.00 0.00 330.00 464.25 cl
0.00 0.00 330.00 464.25 cl
0.5765 0.6314 0.6314 srgb
1.07 setlinewidth
[] 0 setdash
0 setlinecap
1 setlinejoin
10.00 setmiterlimit
np
39.46 50.75 m
2.99 0 l
o
np
39.46 68.00 m
2.99 0 l
o
np
39.46 85.25 m
2.99 0 l
o
np
39.46 102.51 m
2.99 0 l
o
0.00 0.00 330.00 464.25 cl
0.00 0.00 330.00 464.25 cl
0.00 0.00 330.00 464.25 cl
0.00 0.00 330.00 464.25 cl
0.00 0.00 330.00 464.25 cl
0.00 0.00 330.00 464.25 cl
0.00 0.00 330.00 464.25 cl
0.00 0.00 330.00 464.25 cl
0.00 0.00 330.00 464.25 cl
0.00 0.00 330.00 464.25 cl
0.00 0.00 330.00 464.25 cl
0.00 0.00 330.00 464.25 cl
0.00 0.00 330.00 464.25 cl
0.00 0.00 330.00 464.25 cl
/Font1 findfont 12 s
0.3961 0.4824 0.5137 srgb
161.56 5.98 (Iter) 0 ta
-0.120 (ation) tb gr
0.00 0.00 330.00 464.25 cl
0.00 0.00 330.00 464.25 cl
/Font1 findfont 12 s
0.3961 0.4824 0.5137 srgb
14.59 221.79 (v) 90 ta
-0.300 (alue) tb gr
0.00 0.00 330.00 464.25 cl
0.00 0.00 330.00 464.25 cl
0.00 0.00 330.00 464.25 cl
0.00 0.00 330.00 464.25 cl
0.00 0.00 330.00 464.25 cl
0.00 0.00 330.00 464.25 cl
0.00 0.00 330.00 464.25 cl
0.00 0.00 330.00 464.25 cl
0.00 0.00 330.00 464.25 cl
0.00 0.00 330.00 464.25 cl
ep
%%Trailer
%%Pages: 1
%%EOF
