%!PS-Adobe-3.0 EPSF-3.0
%%DocumentNeededResources: font Helvetica
%%+ font Helvetica-Bold
%%+ font Helvetica-Oblique
%%+ font Helvetica-BoldOblique
%%+ font Symbol
%%Title: R Graphics Output
%%Creator: R Software
%%Pages: (atend)
%%BoundingBox: 0 0 275 243
%%EndComments
%%BeginProlog
/bp  { gs sRGB gs } def
% begin .ps.prolog
/gs  { gsave } bind def
/gr  { grestore } bind def
/ep  { showpage gr gr } bind def
/m   { moveto } bind def
/l  { rlineto } bind def
/np  { newpath } bind def
/cp  { closepath } bind def
/f   { fill } bind def
/o   { stroke } bind def
/c   { newpath 0 360 arc } bind def
/r   { 4 2 roll moveto 1 copy 3 -1 roll exch 0 exch rlineto 0 rlineto -1 mul 0 exch rlineto closepath } bind def
/p1  { stroke } bind def
/p2  { gsave bg fill grestore newpath } bind def
/p3  { gsave bg fill grestore stroke } bind def
/p6  { gsave bg eofill grestore newpath } bind def
/p7  { gsave bg eofill grestore stroke } bind def
/t   { 5 -2 roll moveto gsave rotate
       1 index stringwidth pop
       mul neg 0 rmoveto show grestore } bind def
/ta  { 4 -2 roll moveto gsave rotate show } bind def
/tb  { 2 -1 roll 0 rmoveto show } bind def
/cl  { grestore gsave newpath 3 index 3 index moveto 1 index
       4 -1 roll lineto  exch 1 index lineto lineto
       closepath clip newpath } bind def
/rgb { setrgbcolor } bind def
/s   { scalefont setfont } bind def
% end   .ps.prolog
/sRGB { [ /CIEBasedABC
          << /DecodeLMN
               [ { dup 0.03928 le
                        {12.92321 div}
                        {0.055 add 1.055 div 2.4 exp }
                     ifelse
                 } bind dup dup
               ]
             /MatrixLMN [0.412457 0.212673 0.019334
                         0.357576 0.715152 0.119192
                         0.180437 0.072175 0.950301]
             /WhitePoint [0.9505 1.0 1.0890]
           >>
         ] setcolorspace } bind def
/srgb { setcolor } bind def
% begin encoding
/WinAnsiEncoding [
 /.notdef /.notdef /.notdef /.notdef /.notdef /.notdef /.notdef /.notdef
 /.notdef /.notdef /.notdef /.notdef /.notdef /.notdef /.notdef /.notdef
 /.notdef /.notdef /.notdef /.notdef /.notdef /.notdef /.notdef /.notdef
 /.notdef /.notdef /.notdef /.notdef /.notdef /.notdef /.notdef /.notdef
 /space /exclam /quotedbl /numbersign /dollar /percent /ampersand /quoteright
 /parenleft /parenright /asterisk /plus /comma /minus /period /slash
 /zero /one /two /three /four /five /six /seven
 /eight /nine /colon /semicolon /less /equal /greater /question
 /at /A /B /C /D /E /F /G
 /H /I /J /K /L /M /N /O
 /P /Q /R /S /T /U /V /W
 /X /Y /Z /bracketleft /backslash /bracketright /asciicircum /underscore
 /grave /a /b /c /d /e /f /g
 /h /i /j /k /l /m /n /o
 /p /q /r /s /t /u /v /w
 /x /y /z /braceleft /bar /braceright /asciitilde /.notdef
 /Euro /.notdef /quotesinglbase /florin /quotedblbase /ellipsis /dagger /daggerdbl
 /circumflex /perthousand /Scaron /guilsinglleft /OE /.notdef /Zcaron /.notdef
 /.notdef /quoteleft /quoteright /quotedblleft /quotedblright /bullet /endash /emdash
 /tilde /trademark /scaron /guilsinglright /oe /.notdef /zcaron /Ydieresis
 /space /exclamdown /cent /sterling /currency /yen /brokenbar /section
 /dieresis /copyright /ordfeminine /guillemotleft /logicalnot /hyphen /registered /macron
 /degree /plusminus /twosuperior /threesuperior /acute /mu /paragraph /periodcentered
 /cedilla /onesuperior /ordmasculine /guillemotright /onequarter /onehalf /threequarters /questiondown
 /Agrave /Aacute /Acircumflex /Atilde /Adieresis /Aring /AE /Ccedilla
 /Egrave /Eacute /Ecircumflex /Edieresis /Igrave /Iacute /Icircumflex /Idieresis
 /Eth /Ntilde /Ograve /Oacute /Ocircumflex /Otilde /Odieresis /multiply
 /Oslash /Ugrave /Uacute /Ucircumflex /Udieresis /Yacute /Thorn /germandbls
 /agrave /aacute /acircumflex /atilde /adieresis /aring /ae /ccedilla
 /egrave /eacute /ecircumflex /edieresis /igrave /iacute /icircumflex /idieresis
 /eth /ntilde /ograve /oacute /ocircumflex /otilde /odieresis /divide
 /oslash /ugrave /uacute /ucircumflex /udieresis /yacute /thorn /ydieresis
]
 def
% end encoding
%%IncludeResource: font Helvetica
/Helvetica findfont
dup length dict begin
  {1 index /FID ne {def} {pop pop} ifelse} forall
  /Encoding WinAnsiEncoding def
  currentdict
  end
/Font1 exch definefont pop
%%IncludeResource: font Helvetica-Bold
/Helvetica-Bold findfont
dup length dict begin
  {1 index /FID ne {def} {pop pop} ifelse} forall
  /Encoding WinAnsiEncoding def
  currentdict
  end
/Font2 exch definefont pop
%%IncludeResource: font Helvetica-Oblique
/Helvetica-Oblique findfont
dup length dict begin
  {1 index /FID ne {def} {pop pop} ifelse} forall
  /Encoding WinAnsiEncoding def
  currentdict
  end
/Font3 exch definefont pop
%%IncludeResource: font Helvetica-BoldOblique
/Helvetica-BoldOblique findfont
dup length dict begin
  {1 index /FID ne {def} {pop pop} ifelse} forall
  /Encoding WinAnsiEncoding def
  currentdict
  end
/Font4 exch definefont pop
%%IncludeResource: font Symbol
/Symbol findfont
dup length dict begin
  {1 index /FID ne {def} {pop pop} ifelse} forall
  currentdict
  end
/Font5 exch definefont pop
%%EndProlog
%%Page: 1 1
bp
0.00 0.00 275.25 243.00 cl
0.00 0.00 275.25 243.00 cl
0.00 0.00 275.25 243.00 cl
0.00 0.00 275.25 243.00 cl
0.00 0.00 275.25 243.00 cl
0.00 0.00 275.25 243.00 cl
0.00 0.00 275.25 243.00 cl
0.00 0.00 275.25 243.00 cl
0.00 0.00 275.25 243.00 cl
/bg { 1 1 1 srgb } def
1 1 1 srgb
1.07 setlinewidth
[] 0 setdash
1 setlinecap
1 setlinejoin
10.00 setmiterlimit
0.00 0.00 275.25 243.00 r p3
0.00 0.00 275.25 243.00 cl
0.00 0.00 275.25 243.00 cl
0.00 0.00 275.25 243.00 cl
44.53 33.51 269.77 237.52 cl
/bg { 0.9216 0.9216 0.9216 srgb } def
44.53 33.51 225.24 204.01 r p2
1 1 1 srgb
0.53 setlinewidth
[] 0 setdash
0 setlinecap
1 setlinejoin
10.00 setmiterlimit
np
44.53 61.41 m
225.24 0 l
o
np
44.53 115.70 m
225.24 0 l
o
np
44.53 169.99 m
225.24 0 l
o
np
44.53 224.28 m
225.24 0 l
o
np
65.04 33.51 m
0 204.01 l
o
np
122.19 33.51 m
0 204.01 l
o
np
179.34 33.51 m
0 204.01 l
o
np
236.49 33.51 m
0 204.01 l
o
1.07 setlinewidth
[] 0 setdash
np
44.53 34.26 m
225.24 0 l
o
np
44.53 88.55 m
225.24 0 l
o
np
44.53 142.84 m
225.24 0 l
o
np
44.53 197.13 m
225.24 0 l
o
np
93.62 33.51 m
0 204.01 l
o
np
150.77 33.51 m
0 204.01 l
o
np
207.91 33.51 m
0 204.01 l
o
np
265.06 33.51 m
0 204.01 l
o
/bg { 0.5294 0.8078 0.9216 srgb } def
0.5294 0.8078 0.9216 srgb
0.71 setlinewidth
[] 0 setdash
1 setlinecap
103.47 163.97 1.95 c p3
103.47 108.24 1.95 c p3
183.15 108.24 1.95 c p3
183.15 152.24 1.95 c p3
133.66 152.24 1.95 c p3
133.66 124.56 1.95 c p3
177.48 124.56 1.95 c p3
177.48 132.02 1.95 c p3
145.93 132.02 1.95 c p3
145.93 130.18 1.95 c p3
154.80 130.18 1.95 c p3
154.80 98.18 1.95 c p3
1.07 setlinewidth
[] 0 setdash
0 setlinecap
1.00 setmiterlimit
np
103.47 163.97 m
0 -55.73 l
79.68 0 l
0 44.00 l
-49.49 0 l
0 -27.68 l
43.82 0 l
0 7.46 l
-31.55 0 l
0 -1.84 l
8.87 0 l
0 -32.00 l
o
0.6353 0.8039 0.3529 srgb
np
75.66 183.04 m
-0.71 3.57 l
-0.41 3.79 l
0.02 3.78 l
0.58 3.79 l
0.52 1.59 l
0.97 2.19 l
2.97 3.79 l
0.24 0.21 l
4.18 2.42 l
3.87 1.15 l
0.31 0.07 l
4.18 0.37 l
4.18 -0.14 l
2.26 -0.30 l
1.92 -0.26 l
4.18 -0.91 l
4.17 -1.17 l
4.18 -1.37 l
0.19 -0.07 l
3.99 -1.59 l
4.18 -1.80 l
0.84 -0.40 l
3.34 -1.62 l
4.18 -2.14 l
0.05 -0.02 l
4.13 -2.34 l
2.45 -1.45 l
1.73 -1.03 l
4.18 -2.61 l
0.21 -0.14 l
3.96 -2.67 l
1.61 -1.12 l
2.57 -1.82 l
2.70 -1.96 l
1.48 -1.10 l
3.51 -2.69 l
0.67 -0.52 l
4.07 -3.26 l
0.11 -0.09 l
4.18 -3.52 l
0.20 -0.18 l
3.98 -3.51 l
0.30 -0.27 l
3.88 -3.57 l
0.22 -0.22 l
3.94 -3.78 l
0.01 -0.02 l
3.73 -3.77 l
0.45 -0.47 l
3.14 -3.31 l
1.04 -1.13 l
2.40 -2.66 l
1.78 -2.01 l
1.53 -1.77 l
2.65 -3.15 l
0.53 -0.64 l
3.01 -3.78 l
0.64 -0.83 l
2.21 -2.96 l
1.97 -2.69 l
0.77 -1.09 l
2.58 -3.79 l
0.83 -1.27 l
1.59 -2.51 l
2.30 -3.79 l
0.29 -0.51 l
1.78 -3.27 l
1.95 -3.79 l
0.44 -0.95 l
1.28 -2.83 l
1.53 -3.79 l
1.35 -3.78 l
0.02 -0.09 l
0.99 -3.70 l
0.73 -3.78 l
0.37 -3.79 l
-0.07 -3.78 l
-0.68 -3.79 l
-1.34 -3.39 l
-0.21 -0.39 l
-3.32 -3.79 l
-0.65 -0.49 l
-4.17 -2.06 l
-4.18 -1.00 l
-3.56 -0.23 l
-0.62 -0.03 l
-0.52 0.03 l
-3.66 0.23 l
-4.18 0.66 l
-4.18 0.97 l
-4.18 1.21 l
-2.07 0.71 l
-2.11 0.75 l
-4.18 1.68 l
-3.09 1.36 l
-1.08 0.48 l
-4.18 2.06 l
-2.38 1.24 l
-1.80 0.96 l
163.42 83.95 lineto
-0.79 0.47 l
-3.39 2.07 l
-2.71 1.71 l
-1.47 0.95 l
-4.18 2.79 l
-0.07 0.05 l
-4.11 2.94 l
-1.15 0.84 l
-3.02 2.27 l
-1.97 1.52 l
-2.21 1.74 l
-2.54 2.04 l
-1.64 1.36 l
-2.88 2.43 l
-1.30 1.12 l
-3.01 2.66 l
-1.17 1.06 l
-2.95 2.73 l
-1.23 1.16 l
-2.71 2.62 l
-1.47 1.45 l
-2.31 2.34 l
-1.87 1.93 l
-1.75 1.85 l
-2.43 2.62 l
-1.05 1.17 l
-3.12 3.52 l
-0.23 0.26 l
-3.16 3.79 l
-0.79 0.98 l
-2.22 2.80 l
-1.96 2.54 l
-0.94 1.25 l
-2.76 3.78 l
-0.48 0.70 l
-2.09 3.09 l
-2.09 3.18 l
-0.39 0.60 l
-2.26 3.79 l
-1.53 2.69 l
-0.61 1.09 l
-1.93 3.79 l
-1.64 3.44 l
-0.16 0.34 l
-1.51 3.79 l
-1.34 3.78 l
-1.12 3.79 l
-0.05 0.21 l
o
np
210.64 42.78 m
-1.25 0.32 l
-4.18 1.27 l
-4.18 1.40 l
-2.16 0.80 l
-2.02 0.76 l
-4.18 1.72 l
-3.00 1.30 l
-1.18 0.53 l
-4.18 1.98 l
-2.57 1.28 l
-1.61 0.81 l
-4.17 2.21 l
-1.39 0.76 l
-2.79 1.57 l
-3.85 2.22 l
-0.33 0.19 l
-4.18 2.56 l
-1.64 1.03 l
-2.54 1.62 l
-3.31 2.17 l
-0.87 0.57 l
-4.18 2.85 l
-0.52 0.36 l
-3.66 2.61 l
-1.62 1.18 l
-2.55 1.88 l
-2.53 1.90 l
-1.65 1.26 l
-3.26 2.53 l
-0.92 0.73 l
-3.80 3.05 l
-0.38 0.31 l
-4.18 3.47 l
-0.01 0.01 l
-4.17 3.59 l
-0.22 0.19 l
-3.96 3.51 l
-0.30 0.28 l
-3.88 3.54 l
-0.25 0.24 l
-3.93 3.71 l
-0.08 0.08 l
-3.88 3.78 l
-0.21 0.21 l
-3.55 3.58 l
-0.63 0.65 l
-3.02 3.13 l
-1.16 1.23 l
-2.38 2.56 l
-1.80 1.96 l
-1.64 1.82 l
-2.54 2.86 l
-0.81 0.93 l
-3.25 3.78 l
-0.12 0.15 l
-2.99 3.64 l
-1.19 1.47 l
-1.83 2.31 l
-2.35 3.01 l
-0.60 0.78 l
-2.82 3.78 l
-0.75 1.04 l
-1.96 2.75 l
-2.22 3.18 l
-0.42 0.60 l
-2.50 3.79 l
-1.26 1.97 l
-1.15 1.81 l
-2.30 3.79 l
-0.73 1.27 l
-1.43 2.51 l
-2.07 3.79 l
-0.68 1.31 l
o
np
242.58 42.78 m
0.24 0.11 l
4.18 2.61 l
1.23 1.07 l
2.94 3.44 l
0.24 0.34 l
1.83 3.79 l
1.14 3.78 l
0.58 3.79 l
0.14 3.78 l
-0.22 3.79 l
-0.51 3.78 l
-0.76 3.79 l
-0.96 3.78 l
-1.13 3.79 l
-0.35 0.98 l
-1.00 2.80 l
-1.50 3.79 l
-1.62 3.78 l
-0.05 0.12 l
-1.77 3.67 l
-1.90 3.78 l
-0.51 0.96 l
-1.55 2.83 l
-2.15 3.78 l
-0.48 0.81 l
-1.81 2.98 l
-2.37 3.78 l
0 0.01 l
-2.53 3.78 l
-1.65 2.42 l
-0.95 1.36 l
-2.70 3.79 l
-0.53 0.71 l
-2.30 3.07 l
-1.88 2.46 l
-1.03 1.33 l
-3.00 3.78 l
-0.15 0.18 l
-2.99 3.61 l
-1.18 1.40 l
-2.05 2.38 l
-2.13 2.45 l
-1.19 1.34 l
-2.99 3.32 l
-0.42 0.46 l
-3.53 3.79 l
-0.23 0.24 l
-3.43 3.54 l
-0.75 0.77 l
-3.01 3.02 l
-1.17 1.15 l
-2.71 2.63 l
-1.47 1.41 l
-2.52 2.38 l
-1.66 1.54 l
-2.45 2.24 l
-1.73 1.55 l
-2.52 2.24 l
-1.65 1.44 l
-2.73 2.34 l
-1.45 1.23 l
-3.08 2.56 l
-1.10 0.90 l
-3.59 2.88 l
-0.59 0.47 l
-4.18 3.25 l
-0.08 0.07 l
-4.10 3.06 l
-0.99 0.72 l
-3.19 2.30 l
-2.10 1.49 l
-2.08 1.45 l
-3.42 2.33 l
-0.75 0.51 l
-4.18 2.72 l
-0.88 0.56 l
-3.30 2.05 l
-2.85 1.73 l
-1.33 0.80 l
-4.18 2.41 l
-1.04 0.58 l
-3.14 1.71 l
-3.92 2.07 l
-0.26 0.14 l
-4.18 2.04 l
-3.42 1.61 l
o
np
174.59 42.78 m
-2.81 1.66 l
-3.54 2.13 l
-0.64 0.39 l
-4.18 2.62 l
-1.20 0.77 l
-2.98 1.94 l
-2.79 1.85 l
-1.39 0.93 l
-4.18 2.85 l
0 0 l
-4.18 2.97 l
-1.13 0.82 l
-3.04 2.23 l
-2.10 1.55 l
-2.08 1.57 l
-2.91 2.22 l
-1.27 0.98 l
-3.58 2.80 l
-0.60 0.48 l
-4.10 3.31 l
-0.08 0.06 l
-4.18 3.47 l
-0.30 0.25 l
-3.88 3.31 l
-0.55 0.48 l
-3.63 3.17 l
-0.69 0.61 l
-3.49 3.13 l
-0.71 0.66 l
-3.46 3.18 l
-0.65 0.60 l
-3.53 3.34 l
-0.47 0.45 l
-3.71 3.59 l
-0.20 0.19 l
-3.81 3.79 l
-0.17 0.17 l
-3.53 3.61 l
-0.65 0.67 l
-2.97 3.12 l
-1.21 1.29 l
-2.32 2.49 l
-1.86 2.03 l
-1.59 1.76 l
-2.59 2.89 l
-0.78 0.89 l
-3.29 3.79 l
-0.10 0.12 l
-3.08 3.66 l
-1.10 1.34 l
-2.01 2.45 l
-2.17 2.70 l
-0.86 1.08 l
-2.96 3.79 l
-0.36 0.47 l
-2.49 3.31 l
-1.69 2.29 l
o
np
259.53 104.12 m
-1.80 3.01 l
-2.31 3.78 l
-0.07 0.11 l
-2.38 3.68 l
-1.80 2.73 l
-0.70 1.05 l
-2.60 3.79 l
-0.87 1.24 l
-1.82 2.54 l
-2.36 3.25 l
-0.40 0.54 l
-2.86 3.78 l
-0.92 1.20 l
-2.02 2.59 l
-2.16 2.72 l
-0.86 1.06 l
-3.09 3.79 l
-0.23 0.28 l
-2.97 3.50 l
-1.21 1.41 l
-2.06 2.38 l
-2.12 2.40 l
-1.23 1.38 l
-2.95 3.26 l
-0.48 0.53 l
-3.52 3.78 l
-0.17 0.19 l
-3.45 3.60 l
-0.73 0.75 l
-2.98 3.03 l
-1.20 1.21 l
-2.60 2.58 l
-1.58 1.55 l
-2.31 2.23 l
-1.87 1.79 l
-2.12 2.00 l
-2.06 1.91 l
-2.03 1.87 l
-2.15 1.95 l
-2.05 1.84 l
-2.13 1.88 l
-2.18 1.90 l
-2.00 1.73 l
-2.42 2.06 l
-1.75 1.47 l
-2.79 2.31 l
-1.39 1.14 l
-3.28 2.65 l
-0.90 0.71 l
-3.91 3.07 l
-0.27 0.21 l
-4.18 3.19 l
-0.52 0.39 l
-3.66 2.70 l
-1.49 1.08 l
-2.69 1.93 l
-2.62 1.86 l
-1.56 1.08 l
-3.93 2.70 l
-0.24 0.17 l
-4.18 2.75 l
-1.34 0.87 l
o
np
154.79 42.78 m
-3.91 2.71 l
-1.53 1.08 l
-2.65 1.88 l
-2.64 1.90 l
-1.53 1.12 l
-3.62 2.67 l
-0.56 0.42 l
-4.18 3.16 l
-0.26 0.20 l
-3.92 3.06 l
-0.93 0.73 l
-3.25 2.59 l
-1.48 1.19 l
-2.70 2.20 l
-1.92 1.59 l
-2.26 1.89 l
-2.24 1.89 l
-1.94 1.65 l
-2.47 2.14 l
-1.71 1.49 l
-2.59 2.29 l
-1.58 1.42 l
-2.63 2.37 l
-1.55 1.42 l
-2.56 2.36 l
-1.62 1.52 l
-2.41 2.27 l
-1.77 1.69 l
-2.17 2.09 l
-2.01 1.97 l
-1.84 1.82 l
-2.34 2.33 l
-1.44 1.45 l
-2.74 2.80 l
-0.96 0.99 l
-3.22 3.35 l
-0.40 0.43 l
-3.55 3.79 l
-0.22 0.25 l
-3.23 3.53 l
-0.95 1.06 l
-2.44 2.73 l
-1.74 1.98 l
-1.57 1.80 l
-2.61 3.03 l
-0.65 0.76 l
-3.17 3.78 l
-0.36 0.44 l
o
np
259.53 124.65 m
-1.02 1.40 l
-2.79 3.79 l
-0.37 0.48 l
-2.52 3.30 l
-1.66 2.14 l
-1.29 1.65 l
-2.88 3.64 l
-0.12 0.14 l
-3.11 3.79 l
-0.95 1.15 l
-2.22 2.63 l
-1.96 2.31 l
-1.27 1.48 l
-2.91 3.34 l
-0.39 0.44 l
-3.38 3.79 l
-0.41 0.45 l
-3.06 3.33 l
-1.12 1.21 l
-2.41 2.58 l
-1.77 1.86 l
-1.84 1.92 l
-2.34 2.41 l
-1.34 1.38 l
-2.83 2.85 l
-0.94 0.93 l
-3.24 3.21 l
-0.60 0.58 l
-3.58 3.46 l
-0.34 0.32 l
-3.84 3.63 l
-0.17 0.16 l
-4.01 3.69 l
-0.10 0.09 l
-4.08 3.69 l
-0.11 0.10 l
-4.07 3.58 l
-0.23 0.20 l
-3.95 3.41 l
-0.44 0.38 l
-3.74 3.14 l
-0.76 0.64 l
-3.41 2.81 l
-1.20 0.98 l
-2.98 2.40 l
-1.75 1.38 l
-2.43 1.92 l
-2.41 1.87 l
-1.77 1.35 l
-3.20 2.43 l
-0.98 0.73 l
-4.12 3.06 l
o
np
139.40 42.78 m
-1.05 0.79 l
-4.00 3.00 l
-0.18 0.13 l
-4.18 3.22 l
-0.56 0.43 l
-3.62 2.86 l
-1.17 0.93 l
-3.01 2.41 l
-1.69 1.37 l
-2.49 2.05 l
-2.10 1.74 l
-2.08 1.74 l
-2.41 2.04 l
-1.77 1.51 l
-2.64 2.28 l
-1.53 1.34 l
-2.78 2.44 l
-1.40 1.25 l
-2.82 2.54 l
-1.36 1.23 l
-2.79 2.55 l
-1.39 1.29 l
-2.67 2.50 l
-1.51 1.43 l
-2.47 2.35 l
-1.71 1.65 l
-2.20 2.14 l
-1.98 1.94 l
-1.85 1.84 l
-2.33 2.33 l
-1.43 1.46 l
-2.74 2.80 l
-0.96 0.98 l
-3.22 3.37 l
-0.40 0.42 l
-3.56 3.78 l
-0.22 0.24 l
-3.25 3.55 l
-0.93 1.02 l
-2.49 2.76 l
-1.69 1.91 l
o
np
259.53 139.96 m
-0.98 1.23 l
-3.08 3.79 l
-0.12 0.14 l
-3.04 3.64 l
-1.14 1.35 l
-2.08 2.44 l
-2.09 2.43 l
-1.18 1.35 l
-3.00 3.41 l
-0.34 0.38 l
-3.41 3.78 l
-0.43 0.48 l
-3.05 3.31 l
-1.13 1.21 l
-2.42 2.57 l
-1.76 1.86 l
-1.85 1.93 l
-2.33 2.40 l
-1.35 1.38 l
-2.83 2.86 l
-0.92 0.93 l
-3.26 3.23 l
-0.56 0.55 l
-3.61 3.52 l
-0.28 0.27 l
-3.90 3.72 l
-0.08 0.06 l
-4.05 3.79 l
-0.05 0.05 l
-4.08 3.73 l
-0.10 0.09 l
-4.12 3.70 l
-0.06 0.05 l
-4.18 3.68 l
-0.06 0.05 l
-4.12 3.55 l
-0.27 0.24 l
-3.91 3.29 l
-0.58 0.49 l
-3.60 2.98 l
-0.99 0.81 l
-3.18 2.58 l
-1.51 1.20 l
-2.67 2.13 l
-2.12 1.66 l
o
np
126.33 42.78 m
-0.52 0.41 l
-4.18 3.31 l
-0.09 0.07 l
-4.09 3.30 l
-0.59 0.48 l
-3.59 2.96 l
-0.99 0.83 l
-3.19 2.67 l
-1.31 1.11 l
-2.86 2.45 l
-1.56 1.34 l
-2.62 2.28 l
-1.71 1.50 l
-2.47 2.19 l
-1.79 1.60 l
-2.39 2.16 l
-1.78 1.62 l
-2.40 2.21 l
-1.71 1.58 l
-2.47 2.31 l
-1.56 1.47 l
-2.62 2.50 l
-1.34 1.29 l
-2.84 2.75 l
-1.05 1.03 l
-3.12 3.09 l
-0.71 0.70 l
-3.47 3.49 l
-0.29 0.29 l
-3.69 3.79 l
-0.20 0.20 l
-3.42 3.58 l
-0.76 0.80 l
-2.81 2.99 l
-1.37 1.48 l
o
np
259.53 152.75 m
-3.10 3.58 l
-1.08 1.24 l
-2.24 2.55 l
-1.94 2.18 l
-1.43 1.60 l
-2.74 3.04 l
-0.69 0.75 l
-3.49 3.78 l
0 0.01 l
-3.56 3.78 l
-0.62 0.65 l
-3.01 3.13 l
-1.17 1.21 l
-2.52 2.58 l
-1.66 1.68 l
-2.09 2.10 l
-2.09 2.09 l
-1.72 1.70 l
-2.46 2.40 l
-1.43 1.38 l
-2.75 2.65 l
-1.19 1.14 l
-2.98 2.81 l
-1.05 0.97 l
-3.13 2.91 l
-0.96 0.88 l
-3.22 2.93 l
-0.95 0.85 l
-3.23 2.89 l
-1.01 0.90 l
-3.17 2.78 l
-1.16 1.00 l
-3.02 2.60 l
-1.39 1.19 l
-2.79 2.36 l
-1.70 1.42 l
-2.48 2.06 l
-2.10 1.73 l
o
np
114.80 42.78 m
-1.53 1.25 l
-3.08 2.54 l
-1.10 0.91 l
-3.43 2.87 l
-0.74 0.64 l
-3.70 3.15 l
-0.48 0.41 l
-3.89 3.37 l
-0.29 0.26 l
-4.00 3.53 l
-0.18 0.16 l
-4.04 3.62 l
-0.14 0.14 l
-4.00 3.65 l
-0.18 0.16 l
-3.90 3.62 l
-0.28 0.27 l
-3.73 3.52 l
-0.45 0.43 l
-3.49 3.35 l
-0.68 0.67 l
-3.20 3.12 l
-0.98 0.97 l
-2.84 2.81 l
-1.34 1.35 l
-2.41 2.44 l
-1.77 1.80 l
-1.93 1.98 l
-2.25 2.33 l
o
np
259.53 163.93 m
-3.39 3.76 l
-0.79 0.87 l
-2.67 2.91 l
-1.51 1.63 l
-2.01 2.16 l
-2.16 2.30 l
-1.41 1.48 l
-2.77 2.90 l
-0.86 0.89 l
-3.32 3.41 l
-0.37 0.37 l
-3.75 3.79 l
-0.06 0.06 l
-3.76 3.72 l
-0.42 0.42 l
-3.46 3.37 l
-0.72 0.70 l
-3.22 3.08 l
-0.96 0.92 l
-3.04 2.87 l
-1.14 1.06 l
-2.93 2.72 l
-1.24 1.15 l
-2.90 2.64 l
-1.28 1.16 l
-2.93 2.62 l
-1.25 1.12 l
-3.03 2.67 l
-1.15 1.01 l
-3.20 2.77 l
-0.98 0.84 l
-3.45 2.95 l
o
np
104.33 42.78 m
-3.59 3.04 l
-0.88 0.75 l
-3.30 2.84 l
-1.10 0.94 l
-3.08 2.70 l
-1.24 1.09 l
-2.94 2.60 l
-1.32 1.18 l
-2.86 2.58 l
-1.33 1.21 l
-2.85 2.60 l
-1.28 1.18 l
-2.90 2.70 l
-1.16 1.09 l
-3.01 2.85 l
-0.99 0.93 l
-3.19 3.06 l
-0.75 0.73 l
-3.43 3.34 l
-0.46 0.44 l
-3.72 3.69 l
-0.10 0.10 l
-3.76 3.78 l
-0.32 0.32 l
o
np
259.53 173.99 m
-1.17 1.27 l
-3.01 3.22 l
-0.52 0.56 l
-3.59 3.79 l
-0.07 0.07 l
-3.58 3.71 l
-0.59 0.61 l
-3.12 3.18 l
-1.06 1.08 l
-2.70 2.70 l
-1.48 1.48 l
-2.33 2.31 l
-1.85 1.81 l
-2.03 1.97 l
-2.15 2.08 l
-1.78 1.71 l
-2.40 2.28 l
-1.59 1.50 l
-2.59 2.42 l
-1.47 1.37 l
-2.71 2.49 l
-1.41 1.29 l
-2.76 2.52 l
-1.42 1.27 l
-2.76 2.47 l
-1.49 1.31 l
-2.69 2.37 l
-1.63 1.42 l
o
np
94.70 42.78 m
-2.32 2.01 l
-2.04 1.78 l
-2.14 1.87 l
-2.16 1.91 l
-2.02 1.80 l
-2.22 1.99 l
-1.96 1.77 l
-2.21 2.01 l
-1.97 1.80 l
-2.15 1.99 l
-2.02 1.89 l
-2.03 1.89 l
-2.15 2.04 l
-1.85 1.75 l
-2.33 2.24 l
-1.60 1.54 l
-2.58 2.51 l
-1.31 1.28 l
-2.87 2.83 l
o
np
259.53 183.24 m
-3.22 3.37 l
-0.96 1.00 l
-2.70 2.79 l
-1.48 1.50 l
-2.24 2.28 l
-1.93 1.95 l
-1.84 1.84 l
-2.34 2.33 l
-1.47 1.45 l
-2.71 2.65 l
-1.17 1.14 l
-3.01 2.90 l
-0.92 0.88 l
-3.26 3.10 l
-0.72 0.69 l
-3.46 3.23 l
-0.59 0.55 l
-3.59 3.31 l
-0.51 0.48 l
-3.67 3.33 l
-0.50 0.45 l
-3.67 3.29 l
-0.56 0.50 l
o
np
85.73 42.78 m
-1.71 1.50 l
-2.58 2.29 l
-1.60 1.43 l
-2.62 2.35 l
-1.56 1.41 l
-2.60 2.38 l
-1.57 1.44 l
-2.53 2.34 l
-1.65 1.54 l
-2.40 2.25 l
-1.78 1.68 l
-2.22 2.10 l
-1.96 1.89 l
-1.97 1.90 l
-2.21 2.14 l
o
np
259.53 191.82 m
-2.30 2.36 l
-1.88 1.92 l
-1.85 1.87 l
-2.33 2.34 l
-1.44 1.44 l
-2.73 2.71 l
-1.10 1.08 l
-3.08 3.01 l
-0.79 0.77 l
-3.39 3.27 l
-0.54 0.52 l
-3.64 3.45 l
-0.35 0.33 l
-3.83 3.59 l
-0.21 0.20 l
-3.97 3.67 l
-0.13 0.11 l
-4.05 3.69 l
-0.10 0.10 l
o
np
77.29 42.78 m
-1.63 1.46 l
-2.58 2.33 l
-1.59 1.44 l
-2.57 2.34 l
-1.61 1.49 l
-2.49 2.30 l
-1.69 1.58 l
-2.36 2.20 l
-1.82 1.73 l
-2.17 2.06 l
-2.01 1.92 l
o
np
259.53 199.87 m
-1.86 1.88 l
-2.32 2.32 l
-1.47 1.47 l
-2.71 2.68 l
-1.12 1.10 l
-3.05 2.98 l
-0.84 0.81 l
-3.34 3.22 l
-0.59 0.56 l
-3.59 3.41 l
-0.40 0.38 l
-3.78 3.54 l
-0.26 0.24 l
-3.92 3.63 l
-0.17 0.16 l
o
np
69.30 42.78 m
-1.99 1.82 l
-2.16 1.97 l
-2.02 1.86 l
-2.08 1.92 l
-2.10 1.97 l
-1.94 1.82 l
-2.24 2.11 l
o
np
259.53 207.48 m
-1.85 1.84 l
-2.33 2.30 l
-1.52 1.49 l
-2.66 2.59 l
-1.23 1.19 l
-2.94 2.83 l
-1.00 0.96 l
-3.18 3.02 l
-0.81 0.76 l
-3.37 3.16 l
-0.67 0.63 l
o
np
61.70 42.78 m
-2.75 2.54 l
-1.35 1.25 l
-2.83 2.64 l
o
np
259.53 214.71 m
-2.23 2.18 l
-1.95 1.90 l
-1.95 1.89 l
-2.23 2.14 l
-1.72 1.64 l
-2.45 2.33 l
-1.54 1.46 l
o
np
259.53 221.62 m
-2.94 2.84 l
-1.24 1.19 l
-2.72 2.60 l
o
np
259.53 228.24 m
0 0.01 l
o
0.4235 0.6510 0.8039 srgb
0.21 setlinewidth
[ 0.85 0.85] 0 setdash
10.00 setmiterlimit
np
44.53 139.52 m
225.24 0 l
o
np
149.27 33.51 m
0 204.01 l
o
/bg { 0.3412 0.3412 0.3412 srgb } def
0.3412 0.3412 0.3412 srgb
0.71 setlinewidth
[] 0 setdash
1 setlinecap
149.27 139.52 3.56 c p3
149.27 139.52 3.56 c p3
149.27 139.52 3.56 c p3
149.27 139.52 3.56 c p3
149.27 139.52 3.56 c p3
149.27 139.52 3.56 c p3
149.27 139.52 3.56 c p3
149.27 139.52 3.56 c p3
149.27 139.52 3.56 c p3
149.27 139.52 3.56 c p3
149.27 139.52 3.56 c p3
149.27 139.52 3.56 c p3
149.27 139.52 3.56 c p3
149.27 139.52 3.56 c p3
149.27 139.52 3.56 c p3
149.27 139.52 3.56 c p3
149.27 139.52 3.56 c p3
149.27 139.52 3.56 c p3
149.27 139.52 3.56 c p3
149.27 139.52 3.56 c p3
149.27 139.52 3.56 c p3
149.27 139.52 3.56 c p3
149.27 139.52 3.56 c p3
149.27 139.52 3.56 c p3
149.27 139.52 3.56 c p3
149.27 139.52 3.56 c p3
149.27 139.52 3.56 c p3
149.27 139.52 3.56 c p3
149.27 139.52 3.56 c p3
149.27 139.52 3.56 c p3
149.27 139.52 3.56 c p3
149.27 139.52 3.56 c p3
149.27 139.52 3.56 c p3
149.27 139.52 3.56 c p3
149.27 139.52 3.56 c p3
149.27 139.52 3.56 c p3
149.27 139.52 3.56 c p3
149.27 139.52 3.56 c p3
149.27 139.52 3.56 c p3
149.27 139.52 3.56 c p3
149.27 139.52 3.56 c p3
149.27 139.52 3.56 c p3
149.27 139.52 3.56 c p3
149.27 139.52 3.56 c p3
149.27 139.52 3.56 c p3
149.27 139.52 3.56 c p3
149.27 139.52 3.56 c p3
149.27 139.52 3.56 c p3
149.27 139.52 3.56 c p3
149.27 139.52 3.56 c p3
149.27 139.52 3.56 c p3
149.27 139.52 3.56 c p3
149.27 139.52 3.56 c p3
149.27 139.52 3.56 c p3
149.27 139.52 3.56 c p3
149.27 139.52 3.56 c p3
149.27 139.52 3.56 c p3
149.27 139.52 3.56 c p3
149.27 139.52 3.56 c p3
149.27 139.52 3.56 c p3
149.27 139.52 3.56 c p3
149.27 139.52 3.56 c p3
149.27 139.52 3.56 c p3
149.27 139.52 3.56 c p3
149.27 139.52 3.56 c p3
149.27 139.52 3.56 c p3
149.27 139.52 3.56 c p3
149.27 139.52 3.56 c p3
149.27 139.52 3.56 c p3
149.27 139.52 3.56 c p3
149.27 139.52 3.56 c p3
149.27 139.52 3.56 c p3
149.27 139.52 3.56 c p3
149.27 139.52 3.56 c p3
149.27 139.52 3.56 c p3
149.27 139.52 3.56 c p3
149.27 139.52 3.56 c p3
149.27 139.52 3.56 c p3
149.27 139.52 3.56 c p3
149.27 139.52 3.56 c p3
149.27 139.52 3.56 c p3
149.27 139.52 3.56 c p3
149.27 139.52 3.56 c p3
149.27 139.52 3.56 c p3
149.27 139.52 3.56 c p3
149.27 139.52 3.56 c p3
149.27 139.52 3.56 c p3
149.27 139.52 3.56 c p3
149.27 139.52 3.56 c p3
149.27 139.52 3.56 c p3
149.27 139.52 3.56 c p3
149.27 139.52 3.56 c p3
149.27 139.52 3.56 c p3
149.27 139.52 3.56 c p3
149.27 139.52 3.56 c p3
149.27 139.52 3.56 c p3
149.27 139.52 3.56 c p3
149.27 139.52 3.56 c p3
149.27 139.52 3.56 c p3
149.27 139.52 3.56 c p3
149.27 139.52 3.56 c p3
149.27 139.52 3.56 c p3
149.27 139.52 3.56 c p3
149.27 139.52 3.56 c p3
149.27 139.52 3.56 c p3
149.27 139.52 3.56 c p3
149.27 139.52 3.56 c p3
149.27 139.52 3.56 c p3
149.27 139.52 3.56 c p3
149.27 139.52 3.56 c p3
149.27 139.52 3.56 c p3
149.27 139.52 3.56 c p3
149.27 139.52 3.56 c p3
149.27 139.52 3.56 c p3
149.27 139.52 3.56 c p3
149.27 139.52 3.56 c p3
149.27 139.52 3.56 c p3
149.27 139.52 3.56 c p3
149.27 139.52 3.56 c p3
149.27 139.52 3.56 c p3
149.27 139.52 3.56 c p3
149.27 139.52 3.56 c p3
149.27 139.52 3.56 c p3
149.27 139.52 3.56 c p3
149.27 139.52 3.56 c p3
149.27 139.52 3.56 c p3
149.27 139.52 3.56 c p3
149.27 139.52 3.56 c p3
149.27 139.52 3.56 c p3
149.27 139.52 3.56 c p3
149.27 139.52 3.56 c p3
149.27 139.52 3.56 c p3
149.27 139.52 3.56 c p3
149.27 139.52 3.56 c p3
149.27 139.52 3.56 c p3
149.27 139.52 3.56 c p3
149.27 139.52 3.56 c p3
149.27 139.52 3.56 c p3
149.27 139.52 3.56 c p3
149.27 139.52 3.56 c p3
149.27 139.52 3.56 c p3
149.27 139.52 3.56 c p3
149.27 139.52 3.56 c p3
149.27 139.52 3.56 c p3
149.27 139.52 3.56 c p3
149.27 139.52 3.56 c p3
149.27 139.52 3.56 c p3
149.27 139.52 3.56 c p3
149.27 139.52 3.56 c p3
149.27 139.52 3.56 c p3
149.27 139.52 3.56 c p3
149.27 139.52 3.56 c p3
149.27 139.52 3.56 c p3
149.27 139.52 3.56 c p3
149.27 139.52 3.56 c p3
149.27 139.52 3.56 c p3
149.27 139.52 3.56 c p3
149.27 139.52 3.56 c p3
149.27 139.52 3.56 c p3
149.27 139.52 3.56 c p3
149.27 139.52 3.56 c p3
149.27 139.52 3.56 c p3
149.27 139.52 3.56 c p3
149.27 139.52 3.56 c p3
149.27 139.52 3.56 c p3
149.27 139.52 3.56 c p3
149.27 139.52 3.56 c p3
149.27 139.52 3.56 c p3
149.27 139.52 3.56 c p3
149.27 139.52 3.56 c p3
149.27 139.52 3.56 c p3
149.27 139.52 3.56 c p3
149.27 139.52 3.56 c p3
149.27 139.52 3.56 c p3
149.27 139.52 3.56 c p3
149.27 139.52 3.56 c p3
149.27 139.52 3.56 c p3
149.27 139.52 3.56 c p3
149.27 139.52 3.56 c p3
149.27 139.52 3.56 c p3
149.27 139.52 3.56 c p3
149.27 139.52 3.56 c p3
149.27 139.52 3.56 c p3
149.27 139.52 3.56 c p3
149.27 139.52 3.56 c p3
149.27 139.52 3.56 c p3
149.27 139.52 3.56 c p3
149.27 139.52 3.56 c p3
149.27 139.52 3.56 c p3
149.27 139.52 3.56 c p3
149.27 139.52 3.56 c p3
149.27 139.52 3.56 c p3
149.27 139.52 3.56 c p3
149.27 139.52 3.56 c p3
149.27 139.52 3.56 c p3
149.27 139.52 3.56 c p3
149.27 139.52 3.56 c p3
149.27 139.52 3.56 c p3
149.27 139.52 3.56 c p3
149.27 139.52 3.56 c p3
149.27 139.52 3.56 c p3
149.27 139.52 3.56 c p3
149.27 139.52 3.56 c p3
149.27 139.52 3.56 c p3
149.27 139.52 3.56 c p3
149.27 139.52 3.56 c p3
149.27 139.52 3.56 c p3
149.27 139.52 3.56 c p3
149.27 139.52 3.56 c p3
149.27 139.52 3.56 c p3
149.27 139.52 3.56 c p3
149.27 139.52 3.56 c p3
149.27 139.52 3.56 c p3
149.27 139.52 3.56 c p3
149.27 139.52 3.56 c p3
149.27 139.52 3.56 c p3
149.27 139.52 3.56 c p3
149.27 139.52 3.56 c p3
149.27 139.52 3.56 c p3
149.27 139.52 3.56 c p3
149.27 139.52 3.56 c p3
149.27 139.52 3.56 c p3
149.27 139.52 3.56 c p3
149.27 139.52 3.56 c p3
149.27 139.52 3.56 c p3
149.27 139.52 3.56 c p3
149.27 139.52 3.56 c p3
149.27 139.52 3.56 c p3
149.27 139.52 3.56 c p3
149.27 139.52 3.56 c p3
149.27 139.52 3.56 c p3
149.27 139.52 3.56 c p3
149.27 139.52 3.56 c p3
149.27 139.52 3.56 c p3
149.27 139.52 3.56 c p3
149.27 139.52 3.56 c p3
149.27 139.52 3.56 c p3
149.27 139.52 3.56 c p3
149.27 139.52 3.56 c p3
149.27 139.52 3.56 c p3
149.27 139.52 3.56 c p3
149.27 139.52 3.56 c p3
149.27 139.52 3.56 c p3
149.27 139.52 3.56 c p3
149.27 139.52 3.56 c p3
149.27 139.52 3.56 c p3
149.27 139.52 3.56 c p3
149.27 139.52 3.56 c p3
149.27 139.52 3.56 c p3
149.27 139.52 3.56 c p3
149.27 139.52 3.56 c p3
149.27 139.52 3.56 c p3
149.27 139.52 3.56 c p3
149.27 139.52 3.56 c p3
149.27 139.52 3.56 c p3
149.27 139.52 3.56 c p3
149.27 139.52 3.56 c p3
149.27 139.52 3.56 c p3
149.27 139.52 3.56 c p3
149.27 139.52 3.56 c p3
149.27 139.52 3.56 c p3
149.27 139.52 3.56 c p3
149.27 139.52 3.56 c p3
149.27 139.52 3.56 c p3
149.27 139.52 3.56 c p3
149.27 139.52 3.56 c p3
149.27 139.52 3.56 c p3
149.27 139.52 3.56 c p3
149.27 139.52 3.56 c p3
149.27 139.52 3.56 c p3
149.27 139.52 3.56 c p3
149.27 139.52 3.56 c p3
149.27 139.52 3.56 c p3
149.27 139.52 3.56 c p3
149.27 139.52 3.56 c p3
149.27 139.52 3.56 c p3
149.27 139.52 3.56 c p3
149.27 139.52 3.56 c p3
149.27 139.52 3.56 c p3
149.27 139.52 3.56 c p3
149.27 139.52 3.56 c p3
149.27 139.52 3.56 c p3
149.27 139.52 3.56 c p3
149.27 139.52 3.56 c p3
149.27 139.52 3.56 c p3
149.27 139.52 3.56 c p3
149.27 139.52 3.56 c p3
149.27 139.52 3.56 c p3
149.27 139.52 3.56 c p3
149.27 139.52 3.56 c p3
149.27 139.52 3.56 c p3
149.27 139.52 3.56 c p3
149.27 139.52 3.56 c p3
149.27 139.52 3.56 c p3
149.27 139.52 3.56 c p3
149.27 139.52 3.56 c p3
149.27 139.52 3.56 c p3
149.27 139.52 3.56 c p3
149.27 139.52 3.56 c p3
149.27 139.52 3.56 c p3
149.27 139.52 3.56 c p3
149.27 139.52 3.56 c p3
149.27 139.52 3.56 c p3
149.27 139.52 3.56 c p3
149.27 139.52 3.56 c p3
149.27 139.52 3.56 c p3
149.27 139.52 3.56 c p3
149.27 139.52 3.56 c p3
149.27 139.52 3.56 c p3
149.27 139.52 3.56 c p3
149.27 139.52 3.56 c p3
149.27 139.52 3.56 c p3
149.27 139.52 3.56 c p3
149.27 139.52 3.56 c p3
149.27 139.52 3.56 c p3
149.27 139.52 3.56 c p3
149.27 139.52 3.56 c p3
149.27 139.52 3.56 c p3
149.27 139.52 3.56 c p3
149.27 139.52 3.56 c p3
149.27 139.52 3.56 c p3
149.27 139.52 3.56 c p3
149.27 139.52 3.56 c p3
149.27 139.52 3.56 c p3
149.27 139.52 3.56 c p3
149.27 139.52 3.56 c p3
149.27 139.52 3.56 c p3
149.27 139.52 3.56 c p3
149.27 139.52 3.56 c p3
149.27 139.52 3.56 c p3
149.27 139.52 3.56 c p3
149.27 139.52 3.56 c p3
149.27 139.52 3.56 c p3
149.27 139.52 3.56 c p3
149.27 139.52 3.56 c p3
149.27 139.52 3.56 c p3
149.27 139.52 3.56 c p3
149.27 139.52 3.56 c p3
149.27 139.52 3.56 c p3
149.27 139.52 3.56 c p3
149.27 139.52 3.56 c p3
149.27 139.52 3.56 c p3
149.27 139.52 3.56 c p3
149.27 139.52 3.56 c p3
149.27 139.52 3.56 c p3
149.27 139.52 3.56 c p3
149.27 139.52 3.56 c p3
149.27 139.52 3.56 c p3
149.27 139.52 3.56 c p3
149.27 139.52 3.56 c p3
149.27 139.52 3.56 c p3
149.27 139.52 3.56 c p3
149.27 139.52 3.56 c p3
149.27 139.52 3.56 c p3
149.27 139.52 3.56 c p3
149.27 139.52 3.56 c p3
149.27 139.52 3.56 c p3
149.27 139.52 3.56 c p3
149.27 139.52 3.56 c p3
149.27 139.52 3.56 c p3
149.27 139.52 3.56 c p3
149.27 139.52 3.56 c p3
149.27 139.52 3.56 c p3
149.27 139.52 3.56 c p3
149.27 139.52 3.56 c p3
149.27 139.52 3.56 c p3
149.27 139.52 3.56 c p3
149.27 139.52 3.56 c p3
149.27 139.52 3.56 c p3
149.27 139.52 3.56 c p3
149.27 139.52 3.56 c p3
149.27 139.52 3.56 c p3
149.27 139.52 3.56 c p3
149.27 139.52 3.56 c p3
149.27 139.52 3.56 c p3
149.27 139.52 3.56 c p3
149.27 139.52 3.56 c p3
149.27 139.52 3.56 c p3
149.27 139.52 3.56 c p3
149.27 139.52 3.56 c p3
149.27 139.52 3.56 c p3
149.27 139.52 3.56 c p3
149.27 139.52 3.56 c p3
149.27 139.52 3.56 c p3
149.27 139.52 3.56 c p3
149.27 139.52 3.56 c p3
149.27 139.52 3.56 c p3
149.27 139.52 3.56 c p3
149.27 139.52 3.56 c p3
149.27 139.52 3.56 c p3
149.27 139.52 3.56 c p3
149.27 139.52 3.56 c p3
149.27 139.52 3.56 c p3
149.27 139.52 3.56 c p3
149.27 139.52 3.56 c p3
149.27 139.52 3.56 c p3
149.27 139.52 3.56 c p3
149.27 139.52 3.56 c p3
149.27 139.52 3.56 c p3
149.27 139.52 3.56 c p3
149.27 139.52 3.56 c p3
149.27 139.52 3.56 c p3
149.27 139.52 3.56 c p3
149.27 139.52 3.56 c p3
149.27 139.52 3.56 c p3
149.27 139.52 3.56 c p3
149.27 139.52 3.56 c p3
149.27 139.52 3.56 c p3
149.27 139.52 3.56 c p3
149.27 139.52 3.56 c p3
149.27 139.52 3.56 c p3
149.27 139.52 3.56 c p3
149.27 139.52 3.56 c p3
149.27 139.52 3.56 c p3
149.27 139.52 3.56 c p3
149.27 139.52 3.56 c p3
149.27 139.52 3.56 c p3
149.27 139.52 3.56 c p3
149.27 139.52 3.56 c p3
149.27 139.52 3.56 c p3
149.27 139.52 3.56 c p3
149.27 139.52 3.56 c p3
149.27 139.52 3.56 c p3
149.27 139.52 3.56 c p3
149.27 139.52 3.56 c p3
149.27 139.52 3.56 c p3
149.27 139.52 3.56 c p3
149.27 139.52 3.56 c p3
149.27 139.52 3.56 c p3
149.27 139.52 3.56 c p3
149.27 139.52 3.56 c p3
149.27 139.52 3.56 c p3
149.27 139.52 3.56 c p3
149.27 139.52 3.56 c p3
149.27 139.52 3.56 c p3
149.27 139.52 3.56 c p3
149.27 139.52 3.56 c p3
149.27 139.52 3.56 c p3
149.27 139.52 3.56 c p3
149.27 139.52 3.56 c p3
149.27 139.52 3.56 c p3
149.27 139.52 3.56 c p3
149.27 139.52 3.56 c p3
149.27 139.52 3.56 c p3
149.27 139.52 3.56 c p3
149.27 139.52 3.56 c p3
149.27 139.52 3.56 c p3
149.27 139.52 3.56 c p3
149.27 139.52 3.56 c p3
149.27 139.52 3.56 c p3
149.27 139.52 3.56 c p3
149.27 139.52 3.56 c p3
149.27 139.52 3.56 c p3
149.27 139.52 3.56 c p3
149.27 139.52 3.56 c p3
149.27 139.52 3.56 c p3
149.27 139.52 3.56 c p3
149.27 139.52 3.56 c p3
149.27 139.52 3.56 c p3
149.27 139.52 3.56 c p3
149.27 139.52 3.56 c p3
149.27 139.52 3.56 c p3
149.27 139.52 3.56 c p3
149.27 139.52 3.56 c p3
149.27 139.52 3.56 c p3
149.27 139.52 3.56 c p3
149.27 139.52 3.56 c p3
149.27 139.52 3.56 c p3
149.27 139.52 3.56 c p3
149.27 139.52 3.56 c p3
149.27 139.52 3.56 c p3
149.27 139.52 3.56 c p3
149.27 139.52 3.56 c p3
149.27 139.52 3.56 c p3
149.27 139.52 3.56 c p3
149.27 139.52 3.56 c p3
149.27 139.52 3.56 c p3
149.27 139.52 3.56 c p3
149.27 139.52 3.56 c p3
149.27 139.52 3.56 c p3
149.27 139.52 3.56 c p3
149.27 139.52 3.56 c p3
149.27 139.52 3.56 c p3
149.27 139.52 3.56 c p3
149.27 139.52 3.56 c p3
149.27 139.52 3.56 c p3
149.27 139.52 3.56 c p3
149.27 139.52 3.56 c p3
149.27 139.52 3.56 c p3
149.27 139.52 3.56 c p3
149.27 139.52 3.56 c p3
149.27 139.52 3.56 c p3
149.27 139.52 3.56 c p3
149.27 139.52 3.56 c p3
149.27 139.52 3.56 c p3
149.27 139.52 3.56 c p3
149.27 139.52 3.56 c p3
149.27 139.52 3.56 c p3
149.27 139.52 3.56 c p3
149.27 139.52 3.56 c p3
149.27 139.52 3.56 c p3
149.27 139.52 3.56 c p3
149.27 139.52 3.56 c p3
149.27 139.52 3.56 c p3
149.27 139.52 3.56 c p3
149.27 139.52 3.56 c p3
149.27 139.52 3.56 c p3
149.27 139.52 3.56 c p3
149.27 139.52 3.56 c p3
149.27 139.52 3.56 c p3
149.27 139.52 3.56 c p3
149.27 139.52 3.56 c p3
149.27 139.52 3.56 c p3
149.27 139.52 3.56 c p3
149.27 139.52 3.56 c p3
149.27 139.52 3.56 c p3
149.27 139.52 3.56 c p3
149.27 139.52 3.56 c p3
149.27 139.52 3.56 c p3
149.27 139.52 3.56 c p3
149.27 139.52 3.56 c p3
149.27 139.52 3.56 c p3
149.27 139.52 3.56 c p3
149.27 139.52 3.56 c p3
149.27 139.52 3.56 c p3
149.27 139.52 3.56 c p3
149.27 139.52 3.56 c p3
149.27 139.52 3.56 c p3
149.27 139.52 3.56 c p3
149.27 139.52 3.56 c p3
149.27 139.52 3.56 c p3
149.27 139.52 3.56 c p3
149.27 139.52 3.56 c p3
149.27 139.52 3.56 c p3
149.27 139.52 3.56 c p3
149.27 139.52 3.56 c p3
149.27 139.52 3.56 c p3
149.27 139.52 3.56 c p3
149.27 139.52 3.56 c p3
149.27 139.52 3.56 c p3
149.27 139.52 3.56 c p3
149.27 139.52 3.56 c p3
149.27 139.52 3.56 c p3
149.27 139.52 3.56 c p3
149.27 139.52 3.56 c p3
149.27 139.52 3.56 c p3
149.27 139.52 3.56 c p3
149.27 139.52 3.56 c p3
149.27 139.52 3.56 c p3
149.27 139.52 3.56 c p3
149.27 139.52 3.56 c p3
149.27 139.52 3.56 c p3
149.27 139.52 3.56 c p3
149.27 139.52 3.56 c p3
149.27 139.52 3.56 c p3
149.27 139.52 3.56 c p3
149.27 139.52 3.56 c p3
149.27 139.52 3.56 c p3
149.27 139.52 3.56 c p3
149.27 139.52 3.56 c p3
149.27 139.52 3.56 c p3
149.27 139.52 3.56 c p3
149.27 139.52 3.56 c p3
149.27 139.52 3.56 c p3
149.27 139.52 3.56 c p3
149.27 139.52 3.56 c p3
149.27 139.52 3.56 c p3
149.27 139.52 3.56 c p3
149.27 139.52 3.56 c p3
149.27 139.52 3.56 c p3
149.27 139.52 3.56 c p3
149.27 139.52 3.56 c p3
149.27 139.52 3.56 c p3
149.27 139.52 3.56 c p3
149.27 139.52 3.56 c p3
149.27 139.52 3.56 c p3
149.27 139.52 3.56 c p3
149.27 139.52 3.56 c p3
149.27 139.52 3.56 c p3
149.27 139.52 3.56 c p3
149.27 139.52 3.56 c p3
149.27 139.52 3.56 c p3
149.27 139.52 3.56 c p3
149.27 139.52 3.56 c p3
149.27 139.52 3.56 c p3
149.27 139.52 3.56 c p3
149.27 139.52 3.56 c p3
149.27 139.52 3.56 c p3
149.27 139.52 3.56 c p3
149.27 139.52 3.56 c p3
149.27 139.52 3.56 c p3
149.27 139.52 3.56 c p3
149.27 139.52 3.56 c p3
149.27 139.52 3.56 c p3
149.27 139.52 3.56 c p3
149.27 139.52 3.56 c p3
149.27 139.52 3.56 c p3
149.27 139.52 3.56 c p3
149.27 139.52 3.56 c p3
149.27 139.52 3.56 c p3
149.27 139.52 3.56 c p3
149.27 139.52 3.56 c p3
149.27 139.52 3.56 c p3
149.27 139.52 3.56 c p3
149.27 139.52 3.56 c p3
149.27 139.52 3.56 c p3
149.27 139.52 3.56 c p3
149.27 139.52 3.56 c p3
149.27 139.52 3.56 c p3
149.27 139.52 3.56 c p3
149.27 139.52 3.56 c p3
149.27 139.52 3.56 c p3
149.27 139.52 3.56 c p3
149.27 139.52 3.56 c p3
149.27 139.52 3.56 c p3
149.27 139.52 3.56 c p3
149.27 139.52 3.56 c p3
149.27 139.52 3.56 c p3
149.27 139.52 3.56 c p3
149.27 139.52 3.56 c p3
149.27 139.52 3.56 c p3
149.27 139.52 3.56 c p3
149.27 139.52 3.56 c p3
149.27 139.52 3.56 c p3
149.27 139.52 3.56 c p3
149.27 139.52 3.56 c p3
149.27 139.52 3.56 c p3
149.27 139.52 3.56 c p3
149.27 139.52 3.56 c p3
149.27 139.52 3.56 c p3
149.27 139.52 3.56 c p3
149.27 139.52 3.56 c p3
149.27 139.52 3.56 c p3
149.27 139.52 3.56 c p3
149.27 139.52 3.56 c p3
149.27 139.52 3.56 c p3
149.27 139.52 3.56 c p3
149.27 139.52 3.56 c p3
149.27 139.52 3.56 c p3
149.27 139.52 3.56 c p3
149.27 139.52 3.56 c p3
149.27 139.52 3.56 c p3
149.27 139.52 3.56 c p3
149.27 139.52 3.56 c p3
149.27 139.52 3.56 c p3
149.27 139.52 3.56 c p3
149.27 139.52 3.56 c p3
149.27 139.52 3.56 c p3
149.27 139.52 3.56 c p3
149.27 139.52 3.56 c p3
149.27 139.52 3.56 c p3
149.27 139.52 3.56 c p3
149.27 139.52 3.56 c p3
149.27 139.52 3.56 c p3
149.27 139.52 3.56 c p3
149.27 139.52 3.56 c p3
149.27 139.52 3.56 c p3
149.27 139.52 3.56 c p3
149.27 139.52 3.56 c p3
149.27 139.52 3.56 c p3
149.27 139.52 3.56 c p3
149.27 139.52 3.56 c p3
149.27 139.52 3.56 c p3
149.27 139.52 3.56 c p3
149.27 139.52 3.56 c p3
149.27 139.52 3.56 c p3
149.27 139.52 3.56 c p3
149.27 139.52 3.56 c p3
149.27 139.52 3.56 c p3
149.27 139.52 3.56 c p3
149.27 139.52 3.56 c p3
149.27 139.52 3.56 c p3
149.27 139.52 3.56 c p3
149.27 139.52 3.56 c p3
149.27 139.52 3.56 c p3
149.27 139.52 3.56 c p3
149.27 139.52 3.56 c p3
149.27 139.52 3.56 c p3
149.27 139.52 3.56 c p3
149.27 139.52 3.56 c p3
149.27 139.52 3.56 c p3
149.27 139.52 3.56 c p3
149.27 139.52 3.56 c p3
149.27 139.52 3.56 c p3
149.27 139.52 3.56 c p3
149.27 139.52 3.56 c p3
149.27 139.52 3.56 c p3
149.27 139.52 3.56 c p3
149.27 139.52 3.56 c p3
149.27 139.52 3.56 c p3
149.27 139.52 3.56 c p3
149.27 139.52 3.56 c p3
149.27 139.52 3.56 c p3
149.27 139.52 3.56 c p3
149.27 139.52 3.56 c p3
149.27 139.52 3.56 c p3
149.27 139.52 3.56 c p3
149.27 139.52 3.56 c p3
149.27 139.52 3.56 c p3
149.27 139.52 3.56 c p3
149.27 139.52 3.56 c p3
149.27 139.52 3.56 c p3
149.27 139.52 3.56 c p3
149.27 139.52 3.56 c p3
149.27 139.52 3.56 c p3
149.27 139.52 3.56 c p3
149.27 139.52 3.56 c p3
149.27 139.52 3.56 c p3
149.27 139.52 3.56 c p3
149.27 139.52 3.56 c p3
149.27 139.52 3.56 c p3
149.27 139.52 3.56 c p3
149.27 139.52 3.56 c p3
149.27 139.52 3.56 c p3
149.27 139.52 3.56 c p3
149.27 139.52 3.56 c p3
149.27 139.52 3.56 c p3
149.27 139.52 3.56 c p3
149.27 139.52 3.56 c p3
149.27 139.52 3.56 c p3
149.27 139.52 3.56 c p3
149.27 139.52 3.56 c p3
149.27 139.52 3.56 c p3
149.27 139.52 3.56 c p3
149.27 139.52 3.56 c p3
149.27 139.52 3.56 c p3
149.27 139.52 3.56 c p3
149.27 139.52 3.56 c p3
149.27 139.52 3.56 c p3
149.27 139.52 3.56 c p3
149.27 139.52 3.56 c p3
149.27 139.52 3.56 c p3
149.27 139.52 3.56 c p3
149.27 139.52 3.56 c p3
149.27 139.52 3.56 c p3
149.27 139.52 3.56 c p3
149.27 139.52 3.56 c p3
149.27 139.52 3.56 c p3
149.27 139.52 3.56 c p3
149.27 139.52 3.56 c p3
149.27 139.52 3.56 c p3
149.27 139.52 3.56 c p3
149.27 139.52 3.56 c p3
149.27 139.52 3.56 c p3
149.27 139.52 3.56 c p3
149.27 139.52 3.56 c p3
149.27 139.52 3.56 c p3
149.27 139.52 3.56 c p3
149.27 139.52 3.56 c p3
149.27 139.52 3.56 c p3
149.27 139.52 3.56 c p3
149.27 139.52 3.56 c p3
149.27 139.52 3.56 c p3
149.27 139.52 3.56 c p3
149.27 139.52 3.56 c p3
149.27 139.52 3.56 c p3
149.27 139.52 3.56 c p3
149.27 139.52 3.56 c p3
149.27 139.52 3.56 c p3
149.27 139.52 3.56 c p3
149.27 139.52 3.56 c p3
149.27 139.52 3.56 c p3
149.27 139.52 3.56 c p3
149.27 139.52 3.56 c p3
149.27 139.52 3.56 c p3
149.27 139.52 3.56 c p3
149.27 139.52 3.56 c p3
149.27 139.52 3.56 c p3
149.27 139.52 3.56 c p3
149.27 139.52 3.56 c p3
149.27 139.52 3.56 c p3
149.27 139.52 3.56 c p3
149.27 139.52 3.56 c p3
149.27 139.52 3.56 c p3
149.27 139.52 3.56 c p3
149.27 139.52 3.56 c p3
149.27 139.52 3.56 c p3
149.27 139.52 3.56 c p3
149.27 139.52 3.56 c p3
149.27 139.52 3.56 c p3
149.27 139.52 3.56 c p3
149.27 139.52 3.56 c p3
149.27 139.52 3.56 c p3
149.27 139.52 3.56 c p3
149.27 139.52 3.56 c p3
149.27 139.52 3.56 c p3
149.27 139.52 3.56 c p3
149.27 139.52 3.56 c p3
149.27 139.52 3.56 c p3
149.27 139.52 3.56 c p3
149.27 139.52 3.56 c p3
149.27 139.52 3.56 c p3
149.27 139.52 3.56 c p3
149.27 139.52 3.56 c p3
149.27 139.52 3.56 c p3
149.27 139.52 3.56 c p3
149.27 139.52 3.56 c p3
149.27 139.52 3.56 c p3
149.27 139.52 3.56 c p3
149.27 139.52 3.56 c p3
149.27 139.52 3.56 c p3
149.27 139.52 3.56 c p3
149.27 139.52 3.56 c p3
149.27 139.52 3.56 c p3
149.27 139.52 3.56 c p3
149.27 139.52 3.56 c p3
149.27 139.52 3.56 c p3
149.27 139.52 3.56 c p3
149.27 139.52 3.56 c p3
149.27 139.52 3.56 c p3
149.27 139.52 3.56 c p3
149.27 139.52 3.56 c p3
149.27 139.52 3.56 c p3
149.27 139.52 3.56 c p3
149.27 139.52 3.56 c p3
149.27 139.52 3.56 c p3
149.27 139.52 3.56 c p3
149.27 139.52 3.56 c p3
149.27 139.52 3.56 c p3
149.27 139.52 3.56 c p3
149.27 139.52 3.56 c p3
149.27 139.52 3.56 c p3
149.27 139.52 3.56 c p3
149.27 139.52 3.56 c p3
149.27 139.52 3.56 c p3
149.27 139.52 3.56 c p3
149.27 139.52 3.56 c p3
149.27 139.52 3.56 c p3
149.27 139.52 3.56 c p3
149.27 139.52 3.56 c p3
149.27 139.52 3.56 c p3
149.27 139.52 3.56 c p3
149.27 139.52 3.56 c p3
149.27 139.52 3.56 c p3
149.27 139.52 3.56 c p3
149.27 139.52 3.56 c p3
149.27 139.52 3.56 c p3
149.27 139.52 3.56 c p3
149.27 139.52 3.56 c p3
149.27 139.52 3.56 c p3
149.27 139.52 3.56 c p3
149.27 139.52 3.56 c p3
149.27 139.52 3.56 c p3
149.27 139.52 3.56 c p3
149.27 139.52 3.56 c p3
149.27 139.52 3.56 c p3
149.27 139.52 3.56 c p3
149.27 139.52 3.56 c p3
149.27 139.52 3.56 c p3
149.27 139.52 3.56 c p3
149.27 139.52 3.56 c p3
149.27 139.52 3.56 c p3
149.27 139.52 3.56 c p3
149.27 139.52 3.56 c p3
149.27 139.52 3.56 c p3
149.27 139.52 3.56 c p3
149.27 139.52 3.56 c p3
149.27 139.52 3.56 c p3
149.27 139.52 3.56 c p3
149.27 139.52 3.56 c p3
149.27 139.52 3.56 c p3
149.27 139.52 3.56 c p3
149.27 139.52 3.56 c p3
149.27 139.52 3.56 c p3
149.27 139.52 3.56 c p3
149.27 139.52 3.56 c p3
149.27 139.52 3.56 c p3
149.27 139.52 3.56 c p3
149.27 139.52 3.56 c p3
149.27 139.52 3.56 c p3
149.27 139.52 3.56 c p3
149.27 139.52 3.56 c p3
149.27 139.52 3.56 c p3
149.27 139.52 3.56 c p3
149.27 139.52 3.56 c p3
149.27 139.52 3.56 c p3
149.27 139.52 3.56 c p3
149.27 139.52 3.56 c p3
149.27 139.52 3.56 c p3
149.27 139.52 3.56 c p3
149.27 139.52 3.56 c p3
149.27 139.52 3.56 c p3
149.27 139.52 3.56 c p3
149.27 139.52 3.56 c p3
149.27 139.52 3.56 c p3
149.27 139.52 3.56 c p3
149.27 139.52 3.56 c p3
149.27 139.52 3.56 c p3
149.27 139.52 3.56 c p3
149.27 139.52 3.56 c p3
149.27 139.52 3.56 c p3
149.27 139.52 3.56 c p3
149.27 139.52 3.56 c p3
149.27 139.52 3.56 c p3
149.27 139.52 3.56 c p3
149.27 139.52 3.56 c p3
149.27 139.52 3.56 c p3
149.27 139.52 3.56 c p3
149.27 139.52 3.56 c p3
149.27 139.52 3.56 c p3
149.27 139.52 3.56 c p3
149.27 139.52 3.56 c p3
149.27 139.52 3.56 c p3
149.27 139.52 3.56 c p3
149.27 139.52 3.56 c p3
149.27 139.52 3.56 c p3
149.27 139.52 3.56 c p3
149.27 139.52 3.56 c p3
149.27 139.52 3.56 c p3
149.27 139.52 3.56 c p3
149.27 139.52 3.56 c p3
149.27 139.52 3.56 c p3
149.27 139.52 3.56 c p3
149.27 139.52 3.56 c p3
149.27 139.52 3.56 c p3
149.27 139.52 3.56 c p3
149.27 139.52 3.56 c p3
149.27 139.52 3.56 c p3
149.27 139.52 3.56 c p3
149.27 139.52 3.56 c p3
149.27 139.52 3.56 c p3
149.27 139.52 3.56 c p3
149.27 139.52 3.56 c p3
149.27 139.52 3.56 c p3
149.27 139.52 3.56 c p3
149.27 139.52 3.56 c p3
149.27 139.52 3.56 c p3
149.27 139.52 3.56 c p3
149.27 139.52 3.56 c p3
149.27 139.52 3.56 c p3
149.27 139.52 3.56 c p3
149.27 139.52 3.56 c p3
149.27 139.52 3.56 c p3
149.27 139.52 3.56 c p3
149.27 139.52 3.56 c p3
149.27 139.52 3.56 c p3
149.27 139.52 3.56 c p3
149.27 139.52 3.56 c p3
149.27 139.52 3.56 c p3
149.27 139.52 3.56 c p3
149.27 139.52 3.56 c p3
149.27 139.52 3.56 c p3
149.27 139.52 3.56 c p3
149.27 139.52 3.56 c p3
149.27 139.52 3.56 c p3
149.27 139.52 3.56 c p3
149.27 139.52 3.56 c p3
149.27 139.52 3.56 c p3
149.27 139.52 3.56 c p3
149.27 139.52 3.56 c p3
149.27 139.52 3.56 c p3
149.27 139.52 3.56 c p3
149.27 139.52 3.56 c p3
149.27 139.52 3.56 c p3
149.27 139.52 3.56 c p3
149.27 139.52 3.56 c p3
149.27 139.52 3.56 c p3
149.27 139.52 3.56 c p3
149.27 139.52 3.56 c p3
149.27 139.52 3.56 c p3
149.27 139.52 3.56 c p3
149.27 139.52 3.56 c p3
149.27 139.52 3.56 c p3
149.27 139.52 3.56 c p3
149.27 139.52 3.56 c p3
149.27 139.52 3.56 c p3
149.27 139.52 3.56 c p3
149.27 139.52 3.56 c p3
149.27 139.52 3.56 c p3
149.27 139.52 3.56 c p3
149.27 139.52 3.56 c p3
149.27 139.52 3.56 c p3
149.27 139.52 3.56 c p3
149.27 139.52 3.56 c p3
149.27 139.52 3.56 c p3
149.27 139.52 3.56 c p3
149.27 139.52 3.56 c p3
149.27 139.52 3.56 c p3
149.27 139.52 3.56 c p3
149.27 139.52 3.56 c p3
149.27 139.52 3.56 c p3
149.27 139.52 3.56 c p3
149.27 139.52 3.56 c p3
149.27 139.52 3.56 c p3
149.27 139.52 3.56 c p3
149.27 139.52 3.56 c p3
149.27 139.52 3.56 c p3
149.27 139.52 3.56 c p3
149.27 139.52 3.56 c p3
149.27 139.52 3.56 c p3
149.27 139.52 3.56 c p3
149.27 139.52 3.56 c p3
149.27 139.52 3.56 c p3
149.27 139.52 3.56 c p3
149.27 139.52 3.56 c p3
149.27 139.52 3.56 c p3
149.27 139.52 3.56 c p3
149.27 139.52 3.56 c p3
149.27 139.52 3.56 c p3
149.27 139.52 3.56 c p3
149.27 139.52 3.56 c p3
149.27 139.52 3.56 c p3
149.27 139.52 3.56 c p3
149.27 139.52 3.56 c p3
149.27 139.52 3.56 c p3
149.27 139.52 3.56 c p3
149.27 139.52 3.56 c p3
149.27 139.52 3.56 c p3
149.27 139.52 3.56 c p3
149.27 139.52 3.56 c p3
149.27 139.52 3.56 c p3
149.27 139.52 3.56 c p3
149.27 139.52 3.56 c p3
149.27 139.52 3.56 c p3
149.27 139.52 3.56 c p3
149.27 139.52 3.56 c p3
149.27 139.52 3.56 c p3
149.27 139.52 3.56 c p3
149.27 139.52 3.56 c p3
149.27 139.52 3.56 c p3
149.27 139.52 3.56 c p3
149.27 139.52 3.56 c p3
149.27 139.52 3.56 c p3
149.27 139.52 3.56 c p3
149.27 139.52 3.56 c p3
149.27 139.52 3.56 c p3
149.27 139.52 3.56 c p3
149.27 139.52 3.56 c p3
149.27 139.52 3.56 c p3
149.27 139.52 3.56 c p3
149.27 139.52 3.56 c p3
149.27 139.52 3.56 c p3
149.27 139.52 3.56 c p3
149.27 139.52 3.56 c p3
149.27 139.52 3.56 c p3
149.27 139.52 3.56 c p3
149.27 139.52 3.56 c p3
149.27 139.52 3.56 c p3
149.27 139.52 3.56 c p3
149.27 139.52 3.56 c p3
149.27 139.52 3.56 c p3
149.27 139.52 3.56 c p3
149.27 139.52 3.56 c p3
149.27 139.52 3.56 c p3
149.27 139.52 3.56 c p3
149.27 139.52 3.56 c p3
149.27 139.52 3.56 c p3
149.27 139.52 3.56 c p3
149.27 139.52 3.56 c p3
149.27 139.52 3.56 c p3
149.27 139.52 3.56 c p3
149.27 139.52 3.56 c p3
149.27 139.52 3.56 c p3
149.27 139.52 3.56 c p3
149.27 139.52 3.56 c p3
149.27 139.52 3.56 c p3
149.27 139.52 3.56 c p3
149.27 139.52 3.56 c p3
149.27 139.52 3.56 c p3
149.27 139.52 3.56 c p3
149.27 139.52 3.56 c p3
149.27 139.52 3.56 c p3
149.27 139.52 3.56 c p3
149.27 139.52 3.56 c p3
149.27 139.52 3.56 c p3
149.27 139.52 3.56 c p3
149.27 139.52 3.56 c p3
149.27 139.52 3.56 c p3
149.27 139.52 3.56 c p3
149.27 139.52 3.56 c p3
149.27 139.52 3.56 c p3
149.27 139.52 3.56 c p3
149.27 139.52 3.56 c p3
149.27 139.52 3.56 c p3
149.27 139.52 3.56 c p3
149.27 139.52 3.56 c p3
149.27 139.52 3.56 c p3
149.27 139.52 3.56 c p3
149.27 139.52 3.56 c p3
149.27 139.52 3.56 c p3
149.27 139.52 3.56 c p3
149.27 139.52 3.56 c p3
149.27 139.52 3.56 c p3
149.27 139.52 3.56 c p3
149.27 139.52 3.56 c p3
149.27 139.52 3.56 c p3
149.27 139.52 3.56 c p3
149.27 139.52 3.56 c p3
149.27 139.52 3.56 c p3
149.27 139.52 3.56 c p3
149.27 139.52 3.56 c p3
149.27 139.52 3.56 c p3
149.27 139.52 3.56 c p3
149.27 139.52 3.56 c p3
149.27 139.52 3.56 c p3
149.27 139.52 3.56 c p3
149.27 139.52 3.56 c p3
149.27 139.52 3.56 c p3
149.27 139.52 3.56 c p3
149.27 139.52 3.56 c p3
149.27 139.52 3.56 c p3
149.27 139.52 3.56 c p3
149.27 139.52 3.56 c p3
149.27 139.52 3.56 c p3
149.27 139.52 3.56 c p3
149.27 139.52 3.56 c p3
149.27 139.52 3.56 c p3
149.27 139.52 3.56 c p3
149.27 139.52 3.56 c p3
149.27 139.52 3.56 c p3
149.27 139.52 3.56 c p3
149.27 139.52 3.56 c p3
149.27 139.52 3.56 c p3
149.27 139.52 3.56 c p3
149.27 139.52 3.56 c p3
149.27 139.52 3.56 c p3
149.27 139.52 3.56 c p3
149.27 139.52 3.56 c p3
149.27 139.52 3.56 c p3
149.27 139.52 3.56 c p3
149.27 139.52 3.56 c p3
149.27 139.52 3.56 c p3
149.27 139.52 3.56 c p3
149.27 139.52 3.56 c p3
149.27 139.52 3.56 c p3
149.27 139.52 3.56 c p3
149.27 139.52 3.56 c p3
149.27 139.52 3.56 c p3
149.27 139.52 3.56 c p3
149.27 139.52 3.56 c p3
149.27 139.52 3.56 c p3
149.27 139.52 3.56 c p3
149.27 139.52 3.56 c p3
149.27 139.52 3.56 c p3
149.27 139.52 3.56 c p3
149.27 139.52 3.56 c p3
149.27 139.52 3.56 c p3
149.27 139.52 3.56 c p3
149.27 139.52 3.56 c p3
149.27 139.52 3.56 c p3
149.27 139.52 3.56 c p3
149.27 139.52 3.56 c p3
149.27 139.52 3.56 c p3
149.27 139.52 3.56 c p3
149.27 139.52 3.56 c p3
149.27 139.52 3.56 c p3
149.27 139.52 3.56 c p3
149.27 139.52 3.56 c p3
149.27 139.52 3.56 c p3
149.27 139.52 3.56 c p3
149.27 139.52 3.56 c p3
149.27 139.52 3.56 c p3
149.27 139.52 3.56 c p3
149.27 139.52 3.56 c p3
149.27 139.52 3.56 c p3
149.27 139.52 3.56 c p3
149.27 139.52 3.56 c p3
149.27 139.52 3.56 c p3
149.27 139.52 3.56 c p3
149.27 139.52 3.56 c p3
149.27 139.52 3.56 c p3
149.27 139.52 3.56 c p3
149.27 139.52 3.56 c p3
149.27 139.52 3.56 c p3
149.27 139.52 3.56 c p3
149.27 139.52 3.56 c p3
149.27 139.52 3.56 c p3
149.27 139.52 3.56 c p3
149.27 139.52 3.56 c p3
149.27 139.52 3.56 c p3
149.27 139.52 3.56 c p3
149.27 139.52 3.56 c p3
149.27 139.52 3.56 c p3
149.27 139.52 3.56 c p3
149.27 139.52 3.56 c p3
149.27 139.52 3.56 c p3
149.27 139.52 3.56 c p3
149.27 139.52 3.56 c p3
149.27 139.52 3.56 c p3
149.27 139.52 3.56 c p3
149.27 139.52 3.56 c p3
149.27 139.52 3.56 c p3
149.27 139.52 3.56 c p3
149.27 139.52 3.56 c p3
149.27 139.52 3.56 c p3
149.27 139.52 3.56 c p3
149.27 139.52 3.56 c p3
149.27 139.52 3.56 c p3
149.27 139.52 3.56 c p3
149.27 139.52 3.56 c p3
149.27 139.52 3.56 c p3
149.27 139.52 3.56 c p3
149.27 139.52 3.56 c p3
149.27 139.52 3.56 c p3
149.27 139.52 3.56 c p3
149.27 139.52 3.56 c p3
149.27 139.52 3.56 c p3
149.27 139.52 3.56 c p3
149.27 139.52 3.56 c p3
149.27 139.52 3.56 c p3
149.27 139.52 3.56 c p3
149.27 139.52 3.56 c p3
149.27 139.52 3.56 c p3
149.27 139.52 3.56 c p3
149.27 139.52 3.56 c p3
149.27 139.52 3.56 c p3
149.27 139.52 3.56 c p3
149.27 139.52 3.56 c p3
149.27 139.52 3.56 c p3
149.27 139.52 3.56 c p3
149.27 139.52 3.56 c p3
149.27 139.52 3.56 c p3
149.27 139.52 3.56 c p3
149.27 139.52 3.56 c p3
149.27 139.52 3.56 c p3
149.27 139.52 3.56 c p3
149.27 139.52 3.56 c p3
149.27 139.52 3.56 c p3
149.27 139.52 3.56 c p3
149.27 139.52 3.56 c p3
149.27 139.52 3.56 c p3
149.27 139.52 3.56 c p3
149.27 139.52 3.56 c p3
149.27 139.52 3.56 c p3
149.27 139.52 3.56 c p3
149.27 139.52 3.56 c p3
149.27 139.52 3.56 c p3
149.27 139.52 3.56 c p3
149.27 139.52 3.56 c p3
149.27 139.52 3.56 c p3
149.27 139.52 3.56 c p3
149.27 139.52 3.56 c p3
149.27 139.52 3.56 c p3
149.27 139.52 3.56 c p3
149.27 139.52 3.56 c p3
149.27 139.52 3.56 c p3
149.27 139.52 3.56 c p3
149.27 139.52 3.56 c p3
149.27 139.52 3.56 c p3
149.27 139.52 3.56 c p3
149.27 139.52 3.56 c p3
149.27 139.52 3.56 c p3
149.27 139.52 3.56 c p3
149.27 139.52 3.56 c p3
149.27 139.52 3.56 c p3
149.27 139.52 3.56 c p3
149.27 139.52 3.56 c p3
149.27 139.52 3.56 c p3
149.27 139.52 3.56 c p3
149.27 139.52 3.56 c p3
149.27 139.52 3.56 c p3
149.27 139.52 3.56 c p3
149.27 139.52 3.56 c p3
149.27 139.52 3.56 c p3
149.27 139.52 3.56 c p3
149.27 139.52 3.56 c p3
149.27 139.52 3.56 c p3
149.27 139.52 3.56 c p3
149.27 139.52 3.56 c p3
149.27 139.52 3.56 c p3
149.27 139.52 3.56 c p3
149.27 139.52 3.56 c p3
149.27 139.52 3.56 c p3
149.27 139.52 3.56 c p3
149.27 139.52 3.56 c p3
149.27 139.52 3.56 c p3
149.27 139.52 3.56 c p3
149.27 139.52 3.56 c p3
149.27 139.52 3.56 c p3
149.27 139.52 3.56 c p3
149.27 139.52 3.56 c p3
149.27 139.52 3.56 c p3
149.27 139.52 3.56 c p3
149.27 139.52 3.56 c p3
149.27 139.52 3.56 c p3
149.27 139.52 3.56 c p3
149.27 139.52 3.56 c p3
149.27 139.52 3.56 c p3
149.27 139.52 3.56 c p3
149.27 139.52 3.56 c p3
149.27 139.52 3.56 c p3
149.27 139.52 3.56 c p3
149.27 139.52 3.56 c p3
149.27 139.52 3.56 c p3
149.27 139.52 3.56 c p3
149.27 139.52 3.56 c p3
149.27 139.52 3.56 c p3
149.27 139.52 3.56 c p3
149.27 139.52 3.56 c p3
149.27 139.52 3.56 c p3
149.27 139.52 3.56 c p3
149.27 139.52 3.56 c p3
149.27 139.52 3.56 c p3
149.27 139.52 3.56 c p3
149.27 139.52 3.56 c p3
149.27 139.52 3.56 c p3
149.27 139.52 3.56 c p3
149.27 139.52 3.56 c p3
149.27 139.52 3.56 c p3
149.27 139.52 3.56 c p3
149.27 139.52 3.56 c p3
149.27 139.52 3.56 c p3
149.27 139.52 3.56 c p3
149.27 139.52 3.56 c p3
149.27 139.52 3.56 c p3
149.27 139.52 3.56 c p3
149.27 139.52 3.56 c p3
149.27 139.52 3.56 c p3
149.27 139.52 3.56 c p3
149.27 139.52 3.56 c p3
149.27 139.52 3.56 c p3
149.27 139.52 3.56 c p3
149.27 139.52 3.56 c p3
149.27 139.52 3.56 c p3
149.27 139.52 3.56 c p3
149.27 139.52 3.56 c p3
149.27 139.52 3.56 c p3
149.27 139.52 3.56 c p3
149.27 139.52 3.56 c p3
149.27 139.52 3.56 c p3
149.27 139.52 3.56 c p3
149.27 139.52 3.56 c p3
149.27 139.52 3.56 c p3
149.27 139.52 3.56 c p3
149.27 139.52 3.56 c p3
149.27 139.52 3.56 c p3
149.27 139.52 3.56 c p3
149.27 139.52 3.56 c p3
149.27 139.52 3.56 c p3
149.27 139.52 3.56 c p3
149.27 139.52 3.56 c p3
149.27 139.52 3.56 c p3
149.27 139.52 3.56 c p3
149.27 139.52 3.56 c p3
149.27 139.52 3.56 c p3
149.27 139.52 3.56 c p3
149.27 139.52 3.56 c p3
149.27 139.52 3.56 c p3
149.27 139.52 3.56 c p3
149.27 139.52 3.56 c p3
149.27 139.52 3.56 c p3
149.27 139.52 3.56 c p3
149.27 139.52 3.56 c p3
149.27 139.52 3.56 c p3
149.27 139.52 3.56 c p3
149.27 139.52 3.56 c p3
149.27 139.52 3.56 c p3
149.27 139.52 3.56 c p3
149.27 139.52 3.56 c p3
149.27 139.52 3.56 c p3
149.27 139.52 3.56 c p3
149.27 139.52 3.56 c p3
149.27 139.52 3.56 c p3
149.27 139.52 3.56 c p3
149.27 139.52 3.56 c p3
149.27 139.52 3.56 c p3
149.27 139.52 3.56 c p3
149.27 139.52 3.56 c p3
149.27 139.52 3.56 c p3
149.27 139.52 3.56 c p3
149.27 139.52 3.56 c p3
149.27 139.52 3.56 c p3
149.27 139.52 3.56 c p3
149.27 139.52 3.56 c p3
149.27 139.52 3.56 c p3
149.27 139.52 3.56 c p3
149.27 139.52 3.56 c p3
149.27 139.52 3.56 c p3
149.27 139.52 3.56 c p3
149.27 139.52 3.56 c p3
149.27 139.52 3.56 c p3
149.27 139.52 3.56 c p3
149.27 139.52 3.56 c p3
149.27 139.52 3.56 c p3
149.27 139.52 3.56 c p3
149.27 139.52 3.56 c p3
149.27 139.52 3.56 c p3
149.27 139.52 3.56 c p3
149.27 139.52 3.56 c p3
149.27 139.52 3.56 c p3
149.27 139.52 3.56 c p3
149.27 139.52 3.56 c p3
149.27 139.52 3.56 c p3
149.27 139.52 3.56 c p3
149.27 139.52 3.56 c p3
149.27 139.52 3.56 c p3
149.27 139.52 3.56 c p3
149.27 139.52 3.56 c p3
149.27 139.52 3.56 c p3
149.27 139.52 3.56 c p3
149.27 139.52 3.56 c p3
149.27 139.52 3.56 c p3
149.27 139.52 3.56 c p3
149.27 139.52 3.56 c p3
149.27 139.52 3.56 c p3
149.27 139.52 3.56 c p3
149.27 139.52 3.56 c p3
149.27 139.52 3.56 c p3
149.27 139.52 3.56 c p3
149.27 139.52 3.56 c p3
149.27 139.52 3.56 c p3
149.27 139.52 3.56 c p3
149.27 139.52 3.56 c p3
149.27 139.52 3.56 c p3
149.27 139.52 3.56 c p3
149.27 139.52 3.56 c p3
149.27 139.52 3.56 c p3
149.27 139.52 3.56 c p3
149.27 139.52 3.56 c p3
149.27 139.52 3.56 c p3
149.27 139.52 3.56 c p3
149.27 139.52 3.56 c p3
149.27 139.52 3.56 c p3
149.27 139.52 3.56 c p3
149.27 139.52 3.56 c p3
149.27 139.52 3.56 c p3
149.27 139.52 3.56 c p3
149.27 139.52 3.56 c p3
149.27 139.52 3.56 c p3
149.27 139.52 3.56 c p3
149.27 139.52 3.56 c p3
149.27 139.52 3.56 c p3
149.27 139.52 3.56 c p3
149.27 139.52 3.56 c p3
149.27 139.52 3.56 c p3
149.27 139.52 3.56 c p3
149.27 139.52 3.56 c p3
149.27 139.52 3.56 c p3
149.27 139.52 3.56 c p3
149.27 139.52 3.56 c p3
149.27 139.52 3.56 c p3
149.27 139.52 3.56 c p3
149.27 139.52 3.56 c p3
149.27 139.52 3.56 c p3
149.27 139.52 3.56 c p3
149.27 139.52 3.56 c p3
149.27 139.52 3.56 c p3
149.27 139.52 3.56 c p3
149.27 139.52 3.56 c p3
149.27 139.52 3.56 c p3
149.27 139.52 3.56 c p3
149.27 139.52 3.56 c p3
149.27 139.52 3.56 c p3
149.27 139.52 3.56 c p3
149.27 139.52 3.56 c p3
149.27 139.52 3.56 c p3
149.27 139.52 3.56 c p3
149.27 139.52 3.56 c p3
149.27 139.52 3.56 c p3
149.27 139.52 3.56 c p3
149.27 139.52 3.56 c p3
149.27 139.52 3.56 c p3
149.27 139.52 3.56 c p3
149.27 139.52 3.56 c p3
149.27 139.52 3.56 c p3
149.27 139.52 3.56 c p3
149.27 139.52 3.56 c p3
149.27 139.52 3.56 c p3
149.27 139.52 3.56 c p3
149.27 139.52 3.56 c p3
149.27 139.52 3.56 c p3
149.27 139.52 3.56 c p3
149.27 139.52 3.56 c p3
149.27 139.52 3.56 c p3
149.27 139.52 3.56 c p3
149.27 139.52 3.56 c p3
149.27 139.52 3.56 c p3
149.27 139.52 3.56 c p3
149.27 139.52 3.56 c p3
149.27 139.52 3.56 c p3
149.27 139.52 3.56 c p3
149.27 139.52 3.56 c p3
149.27 139.52 3.56 c p3
149.27 139.52 3.56 c p3
149.27 139.52 3.56 c p3
149.27 139.52 3.56 c p3
149.27 139.52 3.56 c p3
149.27 139.52 3.56 c p3
149.27 139.52 3.56 c p3
149.27 139.52 3.56 c p3
149.27 139.52 3.56 c p3
149.27 139.52 3.56 c p3
149.27 139.52 3.56 c p3
149.27 139.52 3.56 c p3
149.27 139.52 3.56 c p3
149.27 139.52 3.56 c p3
149.27 139.52 3.56 c p3
149.27 139.52 3.56 c p3
149.27 139.52 3.56 c p3
149.27 139.52 3.56 c p3
149.27 139.52 3.56 c p3
149.27 139.52 3.56 c p3
149.27 139.52 3.56 c p3
149.27 139.52 3.56 c p3
149.27 139.52 3.56 c p3
149.27 139.52 3.56 c p3
149.27 139.52 3.56 c p3
149.27 139.52 3.56 c p3
149.27 139.52 3.56 c p3
149.27 139.52 3.56 c p3
149.27 139.52 3.56 c p3
149.27 139.52 3.56 c p3
149.27 139.52 3.56 c p3
149.27 139.52 3.56 c p3
149.27 139.52 3.56 c p3
149.27 139.52 3.56 c p3
149.27 139.52 3.56 c p3
149.27 139.52 3.56 c p3
149.27 139.52 3.56 c p3
149.27 139.52 3.56 c p3
149.27 139.52 3.56 c p3
149.27 139.52 3.56 c p3
149.27 139.52 3.56 c p3
149.27 139.52 3.56 c p3
149.27 139.52 3.56 c p3
149.27 139.52 3.56 c p3
149.27 139.52 3.56 c p3
149.27 139.52 3.56 c p3
149.27 139.52 3.56 c p3
149.27 139.52 3.56 c p3
149.27 139.52 3.56 c p3
149.27 139.52 3.56 c p3
149.27 139.52 3.56 c p3
149.27 139.52 3.56 c p3
149.27 139.52 3.56 c p3
149.27 139.52 3.56 c p3
149.27 139.52 3.56 c p3
149.27 139.52 3.56 c p3
149.27 139.52 3.56 c p3
149.27 139.52 3.56 c p3
149.27 139.52 3.56 c p3
149.27 139.52 3.56 c p3
149.27 139.52 3.56 c p3
149.27 139.52 3.56 c p3
149.27 139.52 3.56 c p3
149.27 139.52 3.56 c p3
149.27 139.52 3.56 c p3
149.27 139.52 3.56 c p3
149.27 139.52 3.56 c p3
149.27 139.52 3.56 c p3
149.27 139.52 3.56 c p3
149.27 139.52 3.56 c p3
149.27 139.52 3.56 c p3
149.27 139.52 3.56 c p3
149.27 139.52 3.56 c p3
149.27 139.52 3.56 c p3
149.27 139.52 3.56 c p3
149.27 139.52 3.56 c p3
149.27 139.52 3.56 c p3
149.27 139.52 3.56 c p3
149.27 139.52 3.56 c p3
149.27 139.52 3.56 c p3
149.27 139.52 3.56 c p3
149.27 139.52 3.56 c p3
149.27 139.52 3.56 c p3
149.27 139.52 3.56 c p3
149.27 139.52 3.56 c p3
149.27 139.52 3.56 c p3
149.27 139.52 3.56 c p3
149.27 139.52 3.56 c p3
149.27 139.52 3.56 c p3
149.27 139.52 3.56 c p3
149.27 139.52 3.56 c p3
149.27 139.52 3.56 c p3
149.27 139.52 3.56 c p3
149.27 139.52 3.56 c p3
149.27 139.52 3.56 c p3
149.27 139.52 3.56 c p3
149.27 139.52 3.56 c p3
149.27 139.52 3.56 c p3
149.27 139.52 3.56 c p3
149.27 139.52 3.56 c p3
149.27 139.52 3.56 c p3
149.27 139.52 3.56 c p3
149.27 139.52 3.56 c p3
149.27 139.52 3.56 c p3
149.27 139.52 3.56 c p3
149.27 139.52 3.56 c p3
149.27 139.52 3.56 c p3
149.27 139.52 3.56 c p3
149.27 139.52 3.56 c p3
149.27 139.52 3.56 c p3
149.27 139.52 3.56 c p3
149.27 139.52 3.56 c p3
149.27 139.52 3.56 c p3
149.27 139.52 3.56 c p3
149.27 139.52 3.56 c p3
149.27 139.52 3.56 c p3
149.27 139.52 3.56 c p3
149.27 139.52 3.56 c p3
149.27 139.52 3.56 c p3
149.27 139.52 3.56 c p3
149.27 139.52 3.56 c p3
149.27 139.52 3.56 c p3
149.27 139.52 3.56 c p3
149.27 139.52 3.56 c p3
149.27 139.52 3.56 c p3
149.27 139.52 3.56 c p3
149.27 139.52 3.56 c p3
149.27 139.52 3.56 c p3
149.27 139.52 3.56 c p3
149.27 139.52 3.56 c p3
149.27 139.52 3.56 c p3
149.27 139.52 3.56 c p3
149.27 139.52 3.56 c p3
149.27 139.52 3.56 c p3
149.27 139.52 3.56 c p3
149.27 139.52 3.56 c p3
149.27 139.52 3.56 c p3
149.27 139.52 3.56 c p3
149.27 139.52 3.56 c p3
149.27 139.52 3.56 c p3
149.27 139.52 3.56 c p3
149.27 139.52 3.56 c p3
149.27 139.52 3.56 c p3
149.27 139.52 3.56 c p3
149.27 139.52 3.56 c p3
149.27 139.52 3.56 c p3
149.27 139.52 3.56 c p3
149.27 139.52 3.56 c p3
149.27 139.52 3.56 c p3
149.27 139.52 3.56 c p3
149.27 139.52 3.56 c p3
149.27 139.52 3.56 c p3
149.27 139.52 3.56 c p3
149.27 139.52 3.56 c p3
149.27 139.52 3.56 c p3
149.27 139.52 3.56 c p3
149.27 139.52 3.56 c p3
149.27 139.52 3.56 c p3
149.27 139.52 3.56 c p3
149.27 139.52 3.56 c p3
149.27 139.52 3.56 c p3
149.27 139.52 3.56 c p3
149.27 139.52 3.56 c p3
149.27 139.52 3.56 c p3
149.27 139.52 3.56 c p3
149.27 139.52 3.56 c p3
149.27 139.52 3.56 c p3
149.27 139.52 3.56 c p3
149.27 139.52 3.56 c p3
149.27 139.52 3.56 c p3
149.27 139.52 3.56 c p3
149.27 139.52 3.56 c p3
149.27 139.52 3.56 c p3
149.27 139.52 3.56 c p3
149.27 139.52 3.56 c p3
149.27 139.52 3.56 c p3
149.27 139.52 3.56 c p3
149.27 139.52 3.56 c p3
149.27 139.52 3.56 c p3
149.27 139.52 3.56 c p3
149.27 139.52 3.56 c p3
149.27 139.52 3.56 c p3
149.27 139.52 3.56 c p3
149.27 139.52 3.56 c p3
149.27 139.52 3.56 c p3
149.27 139.52 3.56 c p3
149.27 139.52 3.56 c p3
149.27 139.52 3.56 c p3
149.27 139.52 3.56 c p3
149.27 139.52 3.56 c p3
149.27 139.52 3.56 c p3
149.27 139.52 3.56 c p3
149.27 139.52 3.56 c p3
149.27 139.52 3.56 c p3
149.27 139.52 3.56 c p3
149.27 139.52 3.56 c p3
149.27 139.52 3.56 c p3
149.27 139.52 3.56 c p3
149.27 139.52 3.56 c p3
149.27 139.52 3.56 c p3
149.27 139.52 3.56 c p3
149.27 139.52 3.56 c p3
149.27 139.52 3.56 c p3
149.27 139.52 3.56 c p3
149.27 139.52 3.56 c p3
149.27 139.52 3.56 c p3
149.27 139.52 3.56 c p3
149.27 139.52 3.56 c p3
149.27 139.52 3.56 c p3
149.27 139.52 3.56 c p3
149.27 139.52 3.56 c p3
149.27 139.52 3.56 c p3
149.27 139.52 3.56 c p3
149.27 139.52 3.56 c p3
149.27 139.52 3.56 c p3
149.27 139.52 3.56 c p3
149.27 139.52 3.56 c p3
149.27 139.52 3.56 c p3
149.27 139.52 3.56 c p3
149.27 139.52 3.56 c p3
149.27 139.52 3.56 c p3
149.27 139.52 3.56 c p3
149.27 139.52 3.56 c p3
149.27 139.52 3.56 c p3
149.27 139.52 3.56 c p3
149.27 139.52 3.56 c p3
149.27 139.52 3.56 c p3
149.27 139.52 3.56 c p3
149.27 139.52 3.56 c p3
149.27 139.52 3.56 c p3
149.27 139.52 3.56 c p3
149.27 139.52 3.56 c p3
149.27 139.52 3.56 c p3
149.27 139.52 3.56 c p3
149.27 139.52 3.56 c p3
149.27 139.52 3.56 c p3
149.27 139.52 3.56 c p3
149.27 139.52 3.56 c p3
149.27 139.52 3.56 c p3
149.27 139.52 3.56 c p3
149.27 139.52 3.56 c p3
149.27 139.52 3.56 c p3
149.27 139.52 3.56 c p3
149.27 139.52 3.56 c p3
149.27 139.52 3.56 c p3
149.27 139.52 3.56 c p3
149.27 139.52 3.56 c p3
149.27 139.52 3.56 c p3
149.27 139.52 3.56 c p3
149.27 139.52 3.56 c p3
149.27 139.52 3.56 c p3
149.27 139.52 3.56 c p3
149.27 139.52 3.56 c p3
149.27 139.52 3.56 c p3
149.27 139.52 3.56 c p3
149.27 139.52 3.56 c p3
149.27 139.52 3.56 c p3
149.27 139.52 3.56 c p3
149.27 139.52 3.56 c p3
149.27 139.52 3.56 c p3
149.27 139.52 3.56 c p3
149.27 139.52 3.56 c p3
149.27 139.52 3.56 c p3
149.27 139.52 3.56 c p3
149.27 139.52 3.56 c p3
149.27 139.52 3.56 c p3
149.27 139.52 3.56 c p3
149.27 139.52 3.56 c p3
149.27 139.52 3.56 c p3
149.27 139.52 3.56 c p3
149.27 139.52 3.56 c p3
149.27 139.52 3.56 c p3
149.27 139.52 3.56 c p3
149.27 139.52 3.56 c p3
149.27 139.52 3.56 c p3
149.27 139.52 3.56 c p3
149.27 139.52 3.56 c p3
149.27 139.52 3.56 c p3
149.27 139.52 3.56 c p3
149.27 139.52 3.56 c p3
149.27 139.52 3.56 c p3
149.27 139.52 3.56 c p3
149.27 139.52 3.56 c p3
149.27 139.52 3.56 c p3
149.27 139.52 3.56 c p3
149.27 139.52 3.56 c p3
149.27 139.52 3.56 c p3
149.27 139.52 3.56 c p3
149.27 139.52 3.56 c p3
149.27 139.52 3.56 c p3
149.27 139.52 3.56 c p3
149.27 139.52 3.56 c p3
149.27 139.52 3.56 c p3
149.27 139.52 3.56 c p3
149.27 139.52 3.56 c p3
149.27 139.52 3.56 c p3
149.27 139.52 3.56 c p3
149.27 139.52 3.56 c p3
149.27 139.52 3.56 c p3
149.27 139.52 3.56 c p3
149.27 139.52 3.56 c p3
149.27 139.52 3.56 c p3
149.27 139.52 3.56 c p3
149.27 139.52 3.56 c p3
149.27 139.52 3.56 c p3
149.27 139.52 3.56 c p3
149.27 139.52 3.56 c p3
149.27 139.52 3.56 c p3
149.27 139.52 3.56 c p3
149.27 139.52 3.56 c p3
149.27 139.52 3.56 c p3
149.27 139.52 3.56 c p3
149.27 139.52 3.56 c p3
149.27 139.52 3.56 c p3
149.27 139.52 3.56 c p3
149.27 139.52 3.56 c p3
149.27 139.52 3.56 c p3
149.27 139.52 3.56 c p3
149.27 139.52 3.56 c p3
149.27 139.52 3.56 c p3
149.27 139.52 3.56 c p3
149.27 139.52 3.56 c p3
149.27 139.52 3.56 c p3
149.27 139.52 3.56 c p3
149.27 139.52 3.56 c p3
149.27 139.52 3.56 c p3
149.27 139.52 3.56 c p3
149.27 139.52 3.56 c p3
149.27 139.52 3.56 c p3
149.27 139.52 3.56 c p3
149.27 139.52 3.56 c p3
149.27 139.52 3.56 c p3
149.27 139.52 3.56 c p3
149.27 139.52 3.56 c p3
149.27 139.52 3.56 c p3
149.27 139.52 3.56 c p3
149.27 139.52 3.56 c p3
149.27 139.52 3.56 c p3
149.27 139.52 3.56 c p3
149.27 139.52 3.56 c p3
149.27 139.52 3.56 c p3
149.27 139.52 3.56 c p3
149.27 139.52 3.56 c p3
149.27 139.52 3.56 c p3
149.27 139.52 3.56 c p3
149.27 139.52 3.56 c p3
149.27 139.52 3.56 c p3
149.27 139.52 3.56 c p3
149.27 139.52 3.56 c p3
149.27 139.52 3.56 c p3
149.27 139.52 3.56 c p3
149.27 139.52 3.56 c p3
149.27 139.52 3.56 c p3
149.27 139.52 3.56 c p3
149.27 139.52 3.56 c p3
149.27 139.52 3.56 c p3
149.27 139.52 3.56 c p3
149.27 139.52 3.56 c p3
149.27 139.52 3.56 c p3
149.27 139.52 3.56 c p3
149.27 139.52 3.56 c p3
149.27 139.52 3.56 c p3
149.27 139.52 3.56 c p3
149.27 139.52 3.56 c p3
149.27 139.52 3.56 c p3
149.27 139.52 3.56 c p3
149.27 139.52 3.56 c p3
149.27 139.52 3.56 c p3
149.27 139.52 3.56 c p3
149.27 139.52 3.56 c p3
149.27 139.52 3.56 c p3
149.27 139.52 3.56 c p3
149.27 139.52 3.56 c p3
149.27 139.52 3.56 c p3
149.27 139.52 3.56 c p3
149.27 139.52 3.56 c p3
149.27 139.52 3.56 c p3
149.27 139.52 3.56 c p3
149.27 139.52 3.56 c p3
149.27 139.52 3.56 c p3
149.27 139.52 3.56 c p3
149.27 139.52 3.56 c p3
149.27 139.52 3.56 c p3
149.27 139.52 3.56 c p3
149.27 139.52 3.56 c p3
149.27 139.52 3.56 c p3
149.27 139.52 3.56 c p3
149.27 139.52 3.56 c p3
149.27 139.52 3.56 c p3
149.27 139.52 3.56 c p3
149.27 139.52 3.56 c p3
149.27 139.52 3.56 c p3
149.27 139.52 3.56 c p3
149.27 139.52 3.56 c p3
149.27 139.52 3.56 c p3
149.27 139.52 3.56 c p3
149.27 139.52 3.56 c p3
149.27 139.52 3.56 c p3
149.27 139.52 3.56 c p3
149.27 139.52 3.56 c p3
149.27 139.52 3.56 c p3
149.27 139.52 3.56 c p3
149.27 139.52 3.56 c p3
149.27 139.52 3.56 c p3
149.27 139.52 3.56 c p3
149.27 139.52 3.56 c p3
149.27 139.52 3.56 c p3
149.27 139.52 3.56 c p3
149.27 139.52 3.56 c p3
149.27 139.52 3.56 c p3
149.27 139.52 3.56 c p3
149.27 139.52 3.56 c p3
149.27 139.52 3.56 c p3
149.27 139.52 3.56 c p3
149.27 139.52 3.56 c p3
149.27 139.52 3.56 c p3
149.27 139.52 3.56 c p3
149.27 139.52 3.56 c p3
149.27 139.52 3.56 c p3
149.27 139.52 3.56 c p3
149.27 139.52 3.56 c p3
149.27 139.52 3.56 c p3
149.27 139.52 3.56 c p3
149.27 139.52 3.56 c p3
149.27 139.52 3.56 c p3
149.27 139.52 3.56 c p3
149.27 139.52 3.56 c p3
149.27 139.52 3.56 c p3
149.27 139.52 3.56 c p3
149.27 139.52 3.56 c p3
149.27 139.52 3.56 c p3
149.27 139.52 3.56 c p3
149.27 139.52 3.56 c p3
149.27 139.52 3.56 c p3
149.27 139.52 3.56 c p3
149.27 139.52 3.56 c p3
149.27 139.52 3.56 c p3
149.27 139.52 3.56 c p3
149.27 139.52 3.56 c p3
149.27 139.52 3.56 c p3
149.27 139.52 3.56 c p3
149.27 139.52 3.56 c p3
149.27 139.52 3.56 c p3
149.27 139.52 3.56 c p3
149.27 139.52 3.56 c p3
149.27 139.52 3.56 c p3
149.27 139.52 3.56 c p3
149.27 139.52 3.56 c p3
149.27 139.52 3.56 c p3
149.27 139.52 3.56 c p3
149.27 139.52 3.56 c p3
149.27 139.52 3.56 c p3
149.27 139.52 3.56 c p3
149.27 139.52 3.56 c p3
149.27 139.52 3.56 c p3
149.27 139.52 3.56 c p3
149.27 139.52 3.56 c p3
149.27 139.52 3.56 c p3
149.27 139.52 3.56 c p3
149.27 139.52 3.56 c p3
149.27 139.52 3.56 c p3
149.27 139.52 3.56 c p3
149.27 139.52 3.56 c p3
149.27 139.52 3.56 c p3
149.27 139.52 3.56 c p3
149.27 139.52 3.56 c p3
149.27 139.52 3.56 c p3
149.27 139.52 3.56 c p3
149.27 139.52 3.56 c p3
149.27 139.52 3.56 c p3
149.27 139.52 3.56 c p3
149.27 139.52 3.56 c p3
149.27 139.52 3.56 c p3
149.27 139.52 3.56 c p3
149.27 139.52 3.56 c p3
149.27 139.52 3.56 c p3
149.27 139.52 3.56 c p3
149.27 139.52 3.56 c p3
149.27 139.52 3.56 c p3
149.27 139.52 3.56 c p3
149.27 139.52 3.56 c p3
149.27 139.52 3.56 c p3
149.27 139.52 3.56 c p3
149.27 139.52 3.56 c p3
149.27 139.52 3.56 c p3
149.27 139.52 3.56 c p3
149.27 139.52 3.56 c p3
149.27 139.52 3.56 c p3
149.27 139.52 3.56 c p3
149.27 139.52 3.56 c p3
149.27 139.52 3.56 c p3
149.27 139.52 3.56 c p3
149.27 139.52 3.56 c p3
149.27 139.52 3.56 c p3
149.27 139.52 3.56 c p3
149.27 139.52 3.56 c p3
149.27 139.52 3.56 c p3
149.27 139.52 3.56 c p3
149.27 139.52 3.56 c p3
149.27 139.52 3.56 c p3
149.27 139.52 3.56 c p3
149.27 139.52 3.56 c p3
149.27 139.52 3.56 c p3
149.27 139.52 3.56 c p3
149.27 139.52 3.56 c p3
149.27 139.52 3.56 c p3
149.27 139.52 3.56 c p3
149.27 139.52 3.56 c p3
149.27 139.52 3.56 c p3
149.27 139.52 3.56 c p3
149.27 139.52 3.56 c p3
149.27 139.52 3.56 c p3
149.27 139.52 3.56 c p3
149.27 139.52 3.56 c p3
149.27 139.52 3.56 c p3
149.27 139.52 3.56 c p3
149.27 139.52 3.56 c p3
149.27 139.52 3.56 c p3
149.27 139.52 3.56 c p3
149.27 139.52 3.56 c p3
149.27 139.52 3.56 c p3
149.27 139.52 3.56 c p3
149.27 139.52 3.56 c p3
149.27 139.52 3.56 c p3
149.27 139.52 3.56 c p3
149.27 139.52 3.56 c p3
149.27 139.52 3.56 c p3
149.27 139.52 3.56 c p3
149.27 139.52 3.56 c p3
149.27 139.52 3.56 c p3
149.27 139.52 3.56 c p3
149.27 139.52 3.56 c p3
149.27 139.52 3.56 c p3
149.27 139.52 3.56 c p3
149.27 139.52 3.56 c p3
149.27 139.52 3.56 c p3
149.27 139.52 3.56 c p3
149.27 139.52 3.56 c p3
149.27 139.52 3.56 c p3
149.27 139.52 3.56 c p3
149.27 139.52 3.56 c p3
149.27 139.52 3.56 c p3
149.27 139.52 3.56 c p3
149.27 139.52 3.56 c p3
149.27 139.52 3.56 c p3
149.27 139.52 3.56 c p3
149.27 139.52 3.56 c p3
149.27 139.52 3.56 c p3
149.27 139.52 3.56 c p3
149.27 139.52 3.56 c p3
149.27 139.52 3.56 c p3
149.27 139.52 3.56 c p3
149.27 139.52 3.56 c p3
149.27 139.52 3.56 c p3
149.27 139.52 3.56 c p3
149.27 139.52 3.56 c p3
149.27 139.52 3.56 c p3
149.27 139.52 3.56 c p3
149.27 139.52 3.56 c p3
149.27 139.52 3.56 c p3
149.27 139.52 3.56 c p3
149.27 139.52 3.56 c p3
149.27 139.52 3.56 c p3
149.27 139.52 3.56 c p3
149.27 139.52 3.56 c p3
149.27 139.52 3.56 c p3
149.27 139.52 3.56 c p3
149.27 139.52 3.56 c p3
149.27 139.52 3.56 c p3
149.27 139.52 3.56 c p3
149.27 139.52 3.56 c p3
149.27 139.52 3.56 c p3
149.27 139.52 3.56 c p3
149.27 139.52 3.56 c p3
149.27 139.52 3.56 c p3
149.27 139.52 3.56 c p3
149.27 139.52 3.56 c p3
149.27 139.52 3.56 c p3
149.27 139.52 3.56 c p3
149.27 139.52 3.56 c p3
149.27 139.52 3.56 c p3
149.27 139.52 3.56 c p3
149.27 139.52 3.56 c p3
149.27 139.52 3.56 c p3
149.27 139.52 3.56 c p3
149.27 139.52 3.56 c p3
149.27 139.52 3.56 c p3
149.27 139.52 3.56 c p3
149.27 139.52 3.56 c p3
149.27 139.52 3.56 c p3
149.27 139.52 3.56 c p3
149.27 139.52 3.56 c p3
149.27 139.52 3.56 c p3
149.27 139.52 3.56 c p3
149.27 139.52 3.56 c p3
149.27 139.52 3.56 c p3
149.27 139.52 3.56 c p3
149.27 139.52 3.56 c p3
149.27 139.52 3.56 c p3
149.27 139.52 3.56 c p3
149.27 139.52 3.56 c p3
149.27 139.52 3.56 c p3
149.27 139.52 3.56 c p3
149.27 139.52 3.56 c p3
149.27 139.52 3.56 c p3
149.27 139.52 3.56 c p3
149.27 139.52 3.56 c p3
149.27 139.52 3.56 c p3
149.27 139.52 3.56 c p3
149.27 139.52 3.56 c p3
149.27 139.52 3.56 c p3
149.27 139.52 3.56 c p3
149.27 139.52 3.56 c p3
149.27 139.52 3.56 c p3
149.27 139.52 3.56 c p3
149.27 139.52 3.56 c p3
149.27 139.52 3.56 c p3
149.27 139.52 3.56 c p3
149.27 139.52 3.56 c p3
149.27 139.52 3.56 c p3
149.27 139.52 3.56 c p3
149.27 139.52 3.56 c p3
149.27 139.52 3.56 c p3
149.27 139.52 3.56 c p3
149.27 139.52 3.56 c p3
149.27 139.52 3.56 c p3
149.27 139.52 3.56 c p3
149.27 139.52 3.56 c p3
149.27 139.52 3.56 c p3
149.27 139.52 3.56 c p3
149.27 139.52 3.56 c p3
149.27 139.52 3.56 c p3
149.27 139.52 3.56 c p3
149.27 139.52 3.56 c p3
149.27 139.52 3.56 c p3
149.27 139.52 3.56 c p3
149.27 139.52 3.56 c p3
149.27 139.52 3.56 c p3
149.27 139.52 3.56 c p3
149.27 139.52 3.56 c p3
149.27 139.52 3.56 c p3
149.27 139.52 3.56 c p3
149.27 139.52 3.56 c p3
149.27 139.52 3.56 c p3
149.27 139.52 3.56 c p3
149.27 139.52 3.56 c p3
149.27 139.52 3.56 c p3
149.27 139.52 3.56 c p3
149.27 139.52 3.56 c p3
149.27 139.52 3.56 c p3
149.27 139.52 3.56 c p3
149.27 139.52 3.56 c p3
149.27 139.52 3.56 c p3
149.27 139.52 3.56 c p3
149.27 139.52 3.56 c p3
149.27 139.52 3.56 c p3
149.27 139.52 3.56 c p3
149.27 139.52 3.56 c p3
149.27 139.52 3.56 c p3
149.27 139.52 3.56 c p3
149.27 139.52 3.56 c p3
149.27 139.52 3.56 c p3
149.27 139.52 3.56 c p3
149.27 139.52 3.56 c p3
149.27 139.52 3.56 c p3
149.27 139.52 3.56 c p3
149.27 139.52 3.56 c p3
149.27 139.52 3.56 c p3
149.27 139.52 3.56 c p3
149.27 139.52 3.56 c p3
149.27 139.52 3.56 c p3
149.27 139.52 3.56 c p3
149.27 139.52 3.56 c p3
149.27 139.52 3.56 c p3
149.27 139.52 3.56 c p3
149.27 139.52 3.56 c p3
149.27 139.52 3.56 c p3
149.27 139.52 3.56 c p3
149.27 139.52 3.56 c p3
149.27 139.52 3.56 c p3
149.27 139.52 3.56 c p3
149.27 139.52 3.56 c p3
149.27 139.52 3.56 c p3
149.27 139.52 3.56 c p3
149.27 139.52 3.56 c p3
149.27 139.52 3.56 c p3
149.27 139.52 3.56 c p3
149.27 139.52 3.56 c p3
149.27 139.52 3.56 c p3
149.27 139.52 3.56 c p3
149.27 139.52 3.56 c p3
149.27 139.52 3.56 c p3
149.27 139.52 3.56 c p3
149.27 139.52 3.56 c p3
149.27 139.52 3.56 c p3
149.27 139.52 3.56 c p3
149.27 139.52 3.56 c p3
149.27 139.52 3.56 c p3
149.27 139.52 3.56 c p3
149.27 139.52 3.56 c p3
149.27 139.52 3.56 c p3
149.27 139.52 3.56 c p3
149.27 139.52 3.56 c p3
149.27 139.52 3.56 c p3
149.27 139.52 3.56 c p3
149.27 139.52 3.56 c p3
149.27 139.52 3.56 c p3
149.27 139.52 3.56 c p3
149.27 139.52 3.56 c p3
149.27 139.52 3.56 c p3
149.27 139.52 3.56 c p3
149.27 139.52 3.56 c p3
149.27 139.52 3.56 c p3
149.27 139.52 3.56 c p3
149.27 139.52 3.56 c p3
149.27 139.52 3.56 c p3
149.27 139.52 3.56 c p3
149.27 139.52 3.56 c p3
149.27 139.52 3.56 c p3
149.27 139.52 3.56 c p3
149.27 139.52 3.56 c p3
149.27 139.52 3.56 c p3
149.27 139.52 3.56 c p3
149.27 139.52 3.56 c p3
149.27 139.52 3.56 c p3
149.27 139.52 3.56 c p3
149.27 139.52 3.56 c p3
149.27 139.52 3.56 c p3
149.27 139.52 3.56 c p3
149.27 139.52 3.56 c p3
149.27 139.52 3.56 c p3
149.27 139.52 3.56 c p3
149.27 139.52 3.56 c p3
149.27 139.52 3.56 c p3
149.27 139.52 3.56 c p3
149.27 139.52 3.56 c p3
149.27 139.52 3.56 c p3
149.27 139.52 3.56 c p3
149.27 139.52 3.56 c p3
149.27 139.52 3.56 c p3
149.27 139.52 3.56 c p3
149.27 139.52 3.56 c p3
149.27 139.52 3.56 c p3
149.27 139.52 3.56 c p3
149.27 139.52 3.56 c p3
149.27 139.52 3.56 c p3
149.27 139.52 3.56 c p3
149.27 139.52 3.56 c p3
149.27 139.52 3.56 c p3
149.27 139.52 3.56 c p3
149.27 139.52 3.56 c p3
149.27 139.52 3.56 c p3
149.27 139.52 3.56 c p3
149.27 139.52 3.56 c p3
149.27 139.52 3.56 c p3
149.27 139.52 3.56 c p3
149.27 139.52 3.56 c p3
149.27 139.52 3.56 c p3
149.27 139.52 3.56 c p3
149.27 139.52 3.56 c p3
149.27 139.52 3.56 c p3
149.27 139.52 3.56 c p3
149.27 139.52 3.56 c p3
149.27 139.52 3.56 c p3
149.27 139.52 3.56 c p3
149.27 139.52 3.56 c p3
149.27 139.52 3.56 c p3
149.27 139.52 3.56 c p3
149.27 139.52 3.56 c p3
149.27 139.52 3.56 c p3
149.27 139.52 3.56 c p3
149.27 139.52 3.56 c p3
149.27 139.52 3.56 c p3
149.27 139.52 3.56 c p3
149.27 139.52 3.56 c p3
149.27 139.52 3.56 c p3
149.27 139.52 3.56 c p3
149.27 139.52 3.56 c p3
149.27 139.52 3.56 c p3
149.27 139.52 3.56 c p3
149.27 139.52 3.56 c p3
149.27 139.52 3.56 c p3
149.27 139.52 3.56 c p3
149.27 139.52 3.56 c p3
149.27 139.52 3.56 c p3
149.27 139.52 3.56 c p3
149.27 139.52 3.56 c p3
149.27 139.52 3.56 c p3
149.27 139.52 3.56 c p3
149.27 139.52 3.56 c p3
149.27 139.52 3.56 c p3
149.27 139.52 3.56 c p3
149.27 139.52 3.56 c p3
149.27 139.52 3.56 c p3
149.27 139.52 3.56 c p3
149.27 139.52 3.56 c p3
149.27 139.52 3.56 c p3
149.27 139.52 3.56 c p3
149.27 139.52 3.56 c p3
149.27 139.52 3.56 c p3
149.27 139.52 3.56 c p3
149.27 139.52 3.56 c p3
149.27 139.52 3.56 c p3
149.27 139.52 3.56 c p3
149.27 139.52 3.56 c p3
149.27 139.52 3.56 c p3
149.27 139.52 3.56 c p3
149.27 139.52 3.56 c p3
149.27 139.52 3.56 c p3
149.27 139.52 3.56 c p3
149.27 139.52 3.56 c p3
149.27 139.52 3.56 c p3
149.27 139.52 3.56 c p3
149.27 139.52 3.56 c p3
149.27 139.52 3.56 c p3
149.27 139.52 3.56 c p3
149.27 139.52 3.56 c p3
149.27 139.52 3.56 c p3
149.27 139.52 3.56 c p3
149.27 139.52 3.56 c p3
149.27 139.52 3.56 c p3
149.27 139.52 3.56 c p3
149.27 139.52 3.56 c p3
149.27 139.52 3.56 c p3
149.27 139.52 3.56 c p3
149.27 139.52 3.56 c p3
149.27 139.52 3.56 c p3
149.27 139.52 3.56 c p3
149.27 139.52 3.56 c p3
149.27 139.52 3.56 c p3
149.27 139.52 3.56 c p3
149.27 139.52 3.56 c p3
149.27 139.52 3.56 c p3
149.27 139.52 3.56 c p3
149.27 139.52 3.56 c p3
149.27 139.52 3.56 c p3
149.27 139.52 3.56 c p3
149.27 139.52 3.56 c p3
149.27 139.52 3.56 c p3
149.27 139.52 3.56 c p3
149.27 139.52 3.56 c p3
149.27 139.52 3.56 c p3
149.27 139.52 3.56 c p3
149.27 139.52 3.56 c p3
149.27 139.52 3.56 c p3
149.27 139.52 3.56 c p3
149.27 139.52 3.56 c p3
149.27 139.52 3.56 c p3
149.27 139.52 3.56 c p3
149.27 139.52 3.56 c p3
149.27 139.52 3.56 c p3
149.27 139.52 3.56 c p3
149.27 139.52 3.56 c p3
149.27 139.52 3.56 c p3
149.27 139.52 3.56 c p3
149.27 139.52 3.56 c p3
149.27 139.52 3.56 c p3
149.27 139.52 3.56 c p3
149.27 139.52 3.56 c p3
149.27 139.52 3.56 c p3
149.27 139.52 3.56 c p3
149.27 139.52 3.56 c p3
149.27 139.52 3.56 c p3
149.27 139.52 3.56 c p3
149.27 139.52 3.56 c p3
149.27 139.52 3.56 c p3
149.27 139.52 3.56 c p3
149.27 139.52 3.56 c p3
149.27 139.52 3.56 c p3
149.27 139.52 3.56 c p3
149.27 139.52 3.56 c p3
149.27 139.52 3.56 c p3
149.27 139.52 3.56 c p3
149.27 139.52 3.56 c p3
149.27 139.52 3.56 c p3
149.27 139.52 3.56 c p3
149.27 139.52 3.56 c p3
149.27 139.52 3.56 c p3
149.27 139.52 3.56 c p3
149.27 139.52 3.56 c p3
149.27 139.52 3.56 c p3
149.27 139.52 3.56 c p3
149.27 139.52 3.56 c p3
149.27 139.52 3.56 c p3
149.27 139.52 3.56 c p3
149.27 139.52 3.56 c p3
149.27 139.52 3.56 c p3
149.27 139.52 3.56 c p3
149.27 139.52 3.56 c p3
149.27 139.52 3.56 c p3
149.27 139.52 3.56 c p3
149.27 139.52 3.56 c p3
149.27 139.52 3.56 c p3
149.27 139.52 3.56 c p3
149.27 139.52 3.56 c p3
149.27 139.52 3.56 c p3
149.27 139.52 3.56 c p3
149.27 139.52 3.56 c p3
149.27 139.52 3.56 c p3
149.27 139.52 3.56 c p3
149.27 139.52 3.56 c p3
149.27 139.52 3.56 c p3
149.27 139.52 3.56 c p3
149.27 139.52 3.56 c p3
149.27 139.52 3.56 c p3
149.27 139.52 3.56 c p3
149.27 139.52 3.56 c p3
149.27 139.52 3.56 c p3
149.27 139.52 3.56 c p3
149.27 139.52 3.56 c p3
149.27 139.52 3.56 c p3
149.27 139.52 3.56 c p3
149.27 139.52 3.56 c p3
149.27 139.52 3.56 c p3
149.27 139.52 3.56 c p3
149.27 139.52 3.56 c p3
149.27 139.52 3.56 c p3
149.27 139.52 3.56 c p3
149.27 139.52 3.56 c p3
149.27 139.52 3.56 c p3
149.27 139.52 3.56 c p3
149.27 139.52 3.56 c p3
149.27 139.52 3.56 c p3
149.27 139.52 3.56 c p3
149.27 139.52 3.56 c p3
149.27 139.52 3.56 c p3
149.27 139.52 3.56 c p3
149.27 139.52 3.56 c p3
149.27 139.52 3.56 c p3
149.27 139.52 3.56 c p3
149.27 139.52 3.56 c p3
149.27 139.52 3.56 c p3
149.27 139.52 3.56 c p3
149.27 139.52 3.56 c p3
149.27 139.52 3.56 c p3
149.27 139.52 3.56 c p3
149.27 139.52 3.56 c p3
149.27 139.52 3.56 c p3
149.27 139.52 3.56 c p3
149.27 139.52 3.56 c p3
149.27 139.52 3.56 c p3
149.27 139.52 3.56 c p3
149.27 139.52 3.56 c p3
149.27 139.52 3.56 c p3
149.27 139.52 3.56 c p3
149.27 139.52 3.56 c p3
149.27 139.52 3.56 c p3
149.27 139.52 3.56 c p3
149.27 139.52 3.56 c p3
149.27 139.52 3.56 c p3
149.27 139.52 3.56 c p3
149.27 139.52 3.56 c p3
149.27 139.52 3.56 c p3
149.27 139.52 3.56 c p3
149.27 139.52 3.56 c p3
149.27 139.52 3.56 c p3
149.27 139.52 3.56 c p3
149.27 139.52 3.56 c p3
149.27 139.52 3.56 c p3
149.27 139.52 3.56 c p3
149.27 139.52 3.56 c p3
149.27 139.52 3.56 c p3
149.27 139.52 3.56 c p3
149.27 139.52 3.56 c p3
149.27 139.52 3.56 c p3
149.27 139.52 3.56 c p3
149.27 139.52 3.56 c p3
149.27 139.52 3.56 c p3
149.27 139.52 3.56 c p3
149.27 139.52 3.56 c p3
149.27 139.52 3.56 c p3
149.27 139.52 3.56 c p3
149.27 139.52 3.56 c p3
149.27 139.52 3.56 c p3
149.27 139.52 3.56 c p3
149.27 139.52 3.56 c p3
149.27 139.52 3.56 c p3
149.27 139.52 3.56 c p3
149.27 139.52 3.56 c p3
149.27 139.52 3.56 c p3
149.27 139.52 3.56 c p3
149.27 139.52 3.56 c p3
149.27 139.52 3.56 c p3
149.27 139.52 3.56 c p3
149.27 139.52 3.56 c p3
149.27 139.52 3.56 c p3
149.27 139.52 3.56 c p3
149.27 139.52 3.56 c p3
149.27 139.52 3.56 c p3
149.27 139.52 3.56 c p3
149.27 139.52 3.56 c p3
149.27 139.52 3.56 c p3
149.27 139.52 3.56 c p3
149.27 139.52 3.56 c p3
149.27 139.52 3.56 c p3
149.27 139.52 3.56 c p3
149.27 139.52 3.56 c p3
149.27 139.52 3.56 c p3
149.27 139.52 3.56 c p3
149.27 139.52 3.56 c p3
149.27 139.52 3.56 c p3
149.27 139.52 3.56 c p3
149.27 139.52 3.56 c p3
149.27 139.52 3.56 c p3
149.27 139.52 3.56 c p3
149.27 139.52 3.56 c p3
149.27 139.52 3.56 c p3
149.27 139.52 3.56 c p3
149.27 139.52 3.56 c p3
149.27 139.52 3.56 c p3
149.27 139.52 3.56 c p3
149.27 139.52 3.56 c p3
149.27 139.52 3.56 c p3
149.27 139.52 3.56 c p3
149.27 139.52 3.56 c p3
149.27 139.52 3.56 c p3
149.27 139.52 3.56 c p3
149.27 139.52 3.56 c p3
149.27 139.52 3.56 c p3
149.27 139.52 3.56 c p3
149.27 139.52 3.56 c p3
149.27 139.52 3.56 c p3
149.27 139.52 3.56 c p3
149.27 139.52 3.56 c p3
149.27 139.52 3.56 c p3
149.27 139.52 3.56 c p3
149.27 139.52 3.56 c p3
149.27 139.52 3.56 c p3
/Font1 findfont 14 s
0 0 0 srgb
97.19 172.54 (x) 0 0 t
/Font1 findfont 10 s
104.19 169.98 (3) 0 0 t
/Font1 findfont 14 s
145.74 86.85 (x) 0 0 t
/Font1 findfont 10 s
152.74 84.29 (13) 0 0 t
0.00 0.00 275.25 243.00 cl
0.00 0.00 275.25 243.00 cl
0.00 0.00 275.25 243.00 cl
0.00 0.00 275.25 243.00 cl
0.00 0.00 275.25 243.00 cl
0.00 0.00 275.25 243.00 cl
/Font1 findfont 9 s
0.3020 0.3020 0.3020 srgb
39.60 31.03 (2.46) 1 0 t
39.60 85.32 (2.49) 1 0 t
39.60 139.61 (2.52) 1 0 t
39.60 193.90 (2.55) 1 0 t
0.00 0.00 275.25 243.00 cl
0.00 0.00 275.25 243.00 cl
0.2000 0.2000 0.2000 srgb
1.07 setlinewidth
[] 0 setdash
0 setlinecap
1 setlinejoin
10.00 setmiterlimit
np
41.79 34.26 m
2.74 0 l
o
np
41.79 88.55 m
2.74 0 l
o
np
41.79 142.84 m
2.74 0 l
o
np
41.79 197.13 m
2.74 0 l
o
0.00 0.00 275.25 243.00 cl
0.00 0.00 275.25 243.00 cl
0.00 0.00 275.25 243.00 cl
0.00 0.00 275.25 243.00 cl
0.00 0.00 275.25 243.00 cl
0.00 0.00 275.25 243.00 cl
0.00 0.00 275.25 243.00 cl
0.00 0.00 275.25 243.00 cl
0.2000 0.2000 0.2000 srgb
1.07 setlinewidth
[] 0 setdash
0 setlinecap
1 setlinejoin
10.00 setmiterlimit
np
93.62 30.77 m
0 2.74 l
o
np
150.77 30.77 m
0 2.74 l
o
np
207.91 30.77 m
0 2.74 l
o
np
265.06 30.77 m
0 2.74 l
o
0.00 0.00 275.25 243.00 cl
0.00 0.00 275.25 243.00 cl
/Font1 findfont 9 s
0.3020 0.3020 0.3020 srgb
93.62 22.12 (-2.04) .5 0 t
150.77 22.12 (-2.01) .5 0 t
207.91 22.12 (-1.98) .5 0 t
265.06 22.12 (-1.95) .5 0 t
0.00 0.00 275.25 243.00 cl
0.00 0.00 275.25 243.00 cl
0.00 0.00 275.25 243.00 cl
0.00 0.00 275.25 243.00 cl
/Font1 findfont 11 s
0 0 0 srgb
151.57 9.84 (T) 0 0 t
/Font1 findfont 8 s
158.29 7.82 (0) 0 0 t
0.00 0.00 275.25 243.00 cl
0.00 0.00 275.25 243.00 cl
/Font1 findfont 11 s
0 0 0 srgb
15.57 124.60 (T) 0 90 t
/Font1 findfont 8 s
17.58 131.32 (m) 0 90 t
17.58 137.98 (a) 0 90 t
17.58 142.43 (x) 0 90 t
0.00 0.00 275.25 243.00 cl
0.00 0.00 275.25 243.00 cl
0.00 0.00 275.25 243.00 cl
0.00 0.00 275.25 243.00 cl
ep
%%Trailer
%%Pages: 1
%%EOF
