%!PS-Adobe-3.0 EPSF-3.0
%%DocumentNeededResources: font Helvetica
%%+ font Helvetica-Bold
%%+ font Helvetica-Oblique
%%+ font Helvetica-BoldOblique
%%+ font Symbol
%%Title: R Graphics Output
%%Creator: R Software
%%Pages: (atend)
%%BoundingBox: 0 0 275 230
%%EndComments
%%BeginProlog
/bp  { gs sRGB gs } def
% begin .ps.prolog
/gs  { gsave } bind def
/gr  { grestore } bind def
/ep  { showpage gr gr } bind def
/m   { moveto } bind def
/l  { rlineto } bind def
/np  { newpath } bind def
/cp  { closepath } bind def
/f   { fill } bind def
/o   { stroke } bind def
/c   { newpath 0 360 arc } bind def
/r   { 4 2 roll moveto 1 copy 3 -1 roll exch 0 exch rlineto 0 rlineto -1 mul 0 exch rlineto closepath } bind def
/p1  { stroke } bind def
/p2  { gsave bg fill grestore newpath } bind def
/p3  { gsave bg fill grestore stroke } bind def
/p6  { gsave bg eofill grestore newpath } bind def
/p7  { gsave bg eofill grestore stroke } bind def
/t   { 5 -2 roll moveto gsave rotate
       1 index stringwidth pop
       mul neg 0 rmoveto show grestore } bind def
/ta  { 4 -2 roll moveto gsave rotate show } bind def
/tb  { 2 -1 roll 0 rmoveto show } bind def
/cl  { grestore gsave newpath 3 index 3 index moveto 1 index
       4 -1 roll lineto  exch 1 index lineto lineto
       closepath clip newpath } bind def
/rgb { setrgbcolor } bind def
/s   { scalefont setfont } bind def
% end   .ps.prolog
/sRGB { [ /CIEBasedABC
          << /DecodeLMN
               [ { dup 0.03928 le
                        {12.92321 div}
                        {0.055 add 1.055 div 2.4 exp }
                     ifelse
                 } bind dup dup
               ]
             /MatrixLMN [0.412457 0.212673 0.019334
                         0.357576 0.715152 0.119192
                         0.180437 0.072175 0.950301]
             /WhitePoint [0.9505 1.0 1.0890]
           >>
         ] setcolorspace } bind def
/srgb { setcolor } bind def
% begin encoding
/WinAnsiEncoding [
 /.notdef /.notdef /.notdef /.notdef /.notdef /.notdef /.notdef /.notdef
 /.notdef /.notdef /.notdef /.notdef /.notdef /.notdef /.notdef /.notdef
 /.notdef /.notdef /.notdef /.notdef /.notdef /.notdef /.notdef /.notdef
 /.notdef /.notdef /.notdef /.notdef /.notdef /.notdef /.notdef /.notdef
 /space /exclam /quotedbl /numbersign /dollar /percent /ampersand /quoteright
 /parenleft /parenright /asterisk /plus /comma /minus /period /slash
 /zero /one /two /three /four /five /six /seven
 /eight /nine /colon /semicolon /less /equal /greater /question
 /at /A /B /C /D /E /F /G
 /H /I /J /K /L /M /N /O
 /P /Q /R /S /T /U /V /W
 /X /Y /Z /bracketleft /backslash /bracketright /asciicircum /underscore
 /grave /a /b /c /d /e /f /g
 /h /i /j /k /l /m /n /o
 /p /q /r /s /t /u /v /w
 /x /y /z /braceleft /bar /braceright /asciitilde /.notdef
 /Euro /.notdef /quotesinglbase /florin /quotedblbase /ellipsis /dagger /daggerdbl
 /circumflex /perthousand /Scaron /guilsinglleft /OE /.notdef /Zcaron /.notdef
 /.notdef /quoteleft /quoteright /quotedblleft /quotedblright /bullet /endash /emdash
 /tilde /trademark /scaron /guilsinglright /oe /.notdef /zcaron /Ydieresis
 /space /exclamdown /cent /sterling /currency /yen /brokenbar /section
 /dieresis /copyright /ordfeminine /guillemotleft /logicalnot /hyphen /registered /macron
 /degree /plusminus /twosuperior /threesuperior /acute /mu /paragraph /periodcentered
 /cedilla /onesuperior /ordmasculine /guillemotright /onequarter /onehalf /threequarters /questiondown
 /Agrave /Aacute /Acircumflex /Atilde /Adieresis /Aring /AE /Ccedilla
 /Egrave /Eacute /Ecircumflex /Edieresis /Igrave /Iacute /Icircumflex /Idieresis
 /Eth /Ntilde /Ograve /Oacute /Ocircumflex /Otilde /Odieresis /multiply
 /Oslash /Ugrave /Uacute /Ucircumflex /Udieresis /Yacute /Thorn /germandbls
 /agrave /aacute /acircumflex /atilde /adieresis /aring /ae /ccedilla
 /egrave /eacute /ecircumflex /edieresis /igrave /iacute /icircumflex /idieresis
 /eth /ntilde /ograve /oacute /ocircumflex /otilde /odieresis /divide
 /oslash /ugrave /uacute /ucircumflex /udieresis /yacute /thorn /ydieresis
]
 def
% end encoding
%%IncludeResource: font Helvetica
/Helvetica findfont
dup length dict begin
  {1 index /FID ne {def} {pop pop} ifelse} forall
  /Encoding WinAnsiEncoding def
  currentdict
  end
/Font1 exch definefont pop
%%IncludeResource: font Helvetica-Bold
/Helvetica-Bold findfont
dup length dict begin
  {1 index /FID ne {def} {pop pop} ifelse} forall
  /Encoding WinAnsiEncoding def
  currentdict
  end
/Font2 exch definefont pop
%%IncludeResource: font Helvetica-Oblique
/Helvetica-Oblique findfont
dup length dict begin
  {1 index /FID ne {def} {pop pop} ifelse} forall
  /Encoding WinAnsiEncoding def
  currentdict
  end
/Font3 exch definefont pop
%%IncludeResource: font Helvetica-BoldOblique
/Helvetica-BoldOblique findfont
dup length dict begin
  {1 index /FID ne {def} {pop pop} ifelse} forall
  /Encoding WinAnsiEncoding def
  currentdict
  end
/Font4 exch definefont pop
%%IncludeResource: font Symbol
/Symbol findfont
dup length dict begin
  {1 index /FID ne {def} {pop pop} ifelse} forall
  currentdict
  end
/Font5 exch definefont pop
%%EndProlog
%%Page: 1 1
bp
0.00 0.00 275.25 230.25 cl
0.00 0.00 275.25 230.25 cl
0.00 0.00 275.25 230.25 cl
0.00 0.00 275.25 230.25 cl
0.00 0.00 275.25 230.25 cl
0.00 0.00 275.25 230.25 cl
0.00 0.00 275.25 230.25 cl
0.00 0.00 275.25 230.25 cl
0.00 0.00 275.25 230.25 cl
/bg { 1 1 1 srgb } def
1 1 1 srgb
1.07 setlinewidth
[] 0 setdash
1 setlinecap
1 setlinejoin
10.00 setmiterlimit
0.00 0.00 275.25 230.25 r p3
0.00 0.00 275.25 230.25 cl
0.00 0.00 275.25 230.25 cl
0.00 0.00 275.25 230.25 cl
35.14 31.35 269.77 181.98 cl
/bg { 0.9216 0.9216 0.9216 srgb } def
35.14 31.35 234.63 150.63 r p2
1 1 1 srgb
0.53 setlinewidth
[] 0 setdash
0 setlinecap
1 setlinejoin
10.00 setmiterlimit
np
35.14 66.93 m
234.63 0 l
o
np
35.14 119.50 m
234.63 0 l
o
np
35.14 172.07 m
234.63 0 l
o
np
72.47 31.35 m
0 150.63 l
o
np
125.80 31.35 m
0 150.63 l
o
np
179.12 31.35 m
0 150.63 l
o
np
232.44 31.35 m
0 150.63 l
o
1.07 setlinewidth
[] 0 setdash
np
35.14 40.65 m
234.63 0 l
o
np
35.14 93.22 m
234.63 0 l
o
np
35.14 145.79 m
234.63 0 l
o
np
45.81 31.35 m
0 150.63 l
o
np
99.13 31.35 m
0 150.63 l
o
np
152.46 31.35 m
0 150.63 l
o
np
205.78 31.35 m
0 150.63 l
o
np
259.11 31.35 m
0 150.63 l
o
0.5294 0.8078 0.9216 srgb
0.71 setlinewidth
[] 0 setdash
1 setlinecap
47.94 40.50 1.95 c p1
50.08 38.19 1.95 c p1
52.21 39.33 1.95 c p1
54.34 40.80 1.95 c p1
56.47 43.04 1.95 c p1
58.61 39.88 1.95 c p1
60.74 45.45 1.95 c p1
62.87 51.63 1.95 c p1
65.01 53.58 1.95 c p1
67.14 60.45 1.95 c p1
69.27 66.62 1.95 c p1
71.40 71.95 1.95 c p1
73.54 78.59 1.95 c p1
75.67 82.71 1.95 c p1
77.80 87.69 1.95 c p1
79.94 88.40 1.95 c p1
82.07 98.91 1.95 c p1
84.20 104.90 1.95 c p1
86.34 109.74 1.95 c p1
88.47 111.80 1.95 c p1
90.60 120.80 1.95 c p1
92.73 121.49 1.95 c p1
94.87 124.73 1.95 c p1
97.00 130.48 1.95 c p1
99.13 129.42 1.95 c p1
101.27 132.89 1.95 c p1
103.40 141.58 1.95 c p1
105.53 139.08 1.95 c p1
107.67 144.84 1.95 c p1
109.80 140.56 1.95 c p1
111.93 145.21 1.95 c p1
114.06 148.29 1.95 c p1
116.20 149.87 1.95 c p1
118.33 148.75 1.95 c p1
120.46 152.42 1.95 c p1
122.60 151.52 1.95 c p1
124.73 156.58 1.95 c p1
126.86 158.58 1.95 c p1
128.99 152.74 1.95 c p1
131.13 161.06 1.95 c p1
133.26 156.83 1.95 c p1
135.39 161.29 1.95 c p1
137.53 162.56 1.95 c p1
139.66 161.53 1.95 c p1
141.79 161.32 1.95 c p1
143.93 163.69 1.95 c p1
146.06 164.89 1.95 c p1
148.19 166.40 1.95 c p1
150.32 160.77 1.95 c p1
152.46 162.14 1.95 c p1
154.59 169.05 1.95 c p1
156.72 168.68 1.95 c p1
158.86 167.79 1.95 c p1
160.99 168.75 1.95 c p1
163.12 169.52 1.95 c p1
165.26 162.31 1.95 c p1
167.39 170.54 1.95 c p1
169.52 167.46 1.95 c p1
171.65 169.22 1.95 c p1
173.79 168.36 1.95 c p1
175.92 171.03 1.95 c p1
178.05 168.67 1.95 c p1
180.19 170.68 1.95 c p1
182.32 168.95 1.95 c p1
184.45 167.64 1.95 c p1
186.59 172.63 1.95 c p1
188.72 171.79 1.95 c p1
190.85 173.99 1.95 c p1
192.98 170.62 1.95 c p1
195.12 172.96 1.95 c p1
197.25 174.86 1.95 c p1
199.38 170.21 1.95 c p1
201.52 168.11 1.95 c p1
203.65 170.47 1.95 c p1
205.78 170.60 1.95 c p1
207.91 171.44 1.95 c p1
210.05 174.79 1.95 c p1
212.18 170.57 1.95 c p1
214.31 172.10 1.95 c p1
216.45 170.89 1.95 c p1
218.58 171.46 1.95 c p1
220.71 172.13 1.95 c p1
222.85 174.30 1.95 c p1
224.98 171.80 1.95 c p1
227.11 173.09 1.95 c p1
229.24 173.26 1.95 c p1
231.38 173.58 1.95 c p1
233.51 170.48 1.95 c p1
235.64 175.13 1.95 c p1
237.78 170.94 1.95 c p1
239.91 171.54 1.95 c p1
242.04 174.74 1.95 c p1
244.18 174.53 1.95 c p1
246.31 169.53 1.95 c p1
248.44 170.01 1.95 c p1
250.57 169.00 1.95 c p1
252.71 172.26 1.95 c p1
254.84 172.23 1.95 c p1
256.97 172.67 1.95 c p1
259.11 173.07 1.95 c p1
1 0.4157 0.4157 srgb
1.07 setlinewidth
[] 0 setdash
0 setlinecap
1.00 setmiterlimit
np
47.94 40.07 m
2.14 0 l
2.13 0.01 l
2.13 0.20 l
2.13 0.78 l
2.14 1.76 l
2.13 2.87 l
2.13 3.91 l
2.14 4.73 l
2.13 5.31 l
2.13 5.68 l
2.13 5.86 l
2.14 5.88 l
2.13 5.80 l
2.13 5.65 l
2.14 5.43 l
2.13 5.19 l
2.13 4.93 l
2.14 4.65 l
2.13 4.39 l
2.13 4.11 l
2.13 3.85 l
2.14 3.61 l
2.13 3.36 l
2.13 3.14 l
2.14 2.92 l
2.13 2.72 l
2.13 2.53 l
2.14 2.36 l
2.13 2.19 l
2.13 2.03 l
2.13 1.89 l
2.14 1.76 l
2.13 1.64 l
2.13 1.51 l
2.14 1.41 l
2.13 1.31 l
2.13 1.22 l
2.13 1.12 l
2.14 1.05 l
2.13 0.98 l
2.13 0.90 l
2.14 0.84 l
2.13 0.78 l
2.13 0.72 l
2.14 0.67 l
2.13 0.63 l
2.13 0.58 l
2.13 0.54 l
2.14 0.50 l
2.13 0.46 l
2.13 0.43 l
2.14 0.40 l
2.13 0.37 l
2.13 0.35 l
2.14 0.32 l
2.13 0.29 l
2.13 0.28 l
2.13 0.26 l
2.14 0.23 l
2.13 0.22 l
2.13 0.21 l
2.14 0.19 l
2.13 0.18 l
2.13 0.16 l
2.14 0.15 l
2.13 0.15 l
2.13 0.13 l
2.13 0.12 l
2.14 0.11 l
2.13 0.11 l
2.13 0.09 l
2.14 0.10 l
2.13 0.08 l
2.13 0.08 l
2.13 0.07 l
2.14 0.07 l
2.13 0.06 l
2.13 0.06 l
2.14 0.05 l
2.13 0.05 l
2.13 0.05 l
2.14 0.04 l
2.13 0.04 l
2.13 0.04 l
2.13 0.03 l
2.14 0.04 l
2.13 0.03 l
2.13 0.02 l
2.14 0.03 l
2.13 0.02 l
2.13 0.03 l
2.14 0.02 l
2.13 0.02 l
2.13 0.01 l
2.13 0.02 l
2.14 0.01 l
2.13 0.02 l
2.13 0.01 l
2.14 0.01 l
o
/Font1 findfont 11 s
0 0 0 srgb
205.78 115.55 (Calculated Means:) .5 0 t
177.09 100.87 (T) 0 0 t
/Font1 findfont 8 s
183.81 98.85 (0) 0 0 t
/Font5 findfont 11 s
190.80 100.87 (=) 0 0 t
199.39 100.87 (-) 0 0 t
/Font1 findfont 11 s
206.95 100.87 (2.011) 0 0 t
175.54 85.08 (T) 0 0 t
/Font1 findfont 8 s
182.26 83.07 (m) 0 0 t
188.92 83.07 (a) 0 0 t
193.37 83.07 (x) 0 0 t
/Font5 findfont 11 s
199.92 85.08 (=) 0 0 t
/Font1 findfont 11 s
208.50 85.08 (2.518) 0 0 t
183.40 68.43 (a) 0 0 t
/Font5 findfont 11 s
192.06 68.43 (=) 0 0 t
/Font1 findfont 11 s
200.64 68.43 (0.752) 0 0 t
0.00 0.00 275.25 230.25 cl
0.00 0.00 275.25 230.25 cl
0.00 0.00 275.25 230.25 cl
0.00 0.00 275.25 230.25 cl
0.00 0.00 275.25 230.25 cl
0.00 0.00 275.25 230.25 cl
/Font1 findfont 9 s
0.3020 0.3020 0.3020 srgb
30.21 37.42 (-2) 1 0 t
30.21 89.99 (-1) 1 0 t
30.21 142.56 (0) 1 0 t
0.00 0.00 275.25 230.25 cl
0.00 0.00 275.25 230.25 cl
0.2000 0.2000 0.2000 srgb
1.07 setlinewidth
[] 0 setdash
0 setlinecap
1 setlinejoin
10.00 setmiterlimit
np
32.40 40.65 m
2.74 0 l
o
np
32.40 93.22 m
2.74 0 l
o
np
32.40 145.79 m
2.74 0 l
o
0.00 0.00 275.25 230.25 cl
0.00 0.00 275.25 230.25 cl
0.00 0.00 275.25 230.25 cl
0.00 0.00 275.25 230.25 cl
0.00 0.00 275.25 230.25 cl
0.00 0.00 275.25 230.25 cl
0.00 0.00 275.25 230.25 cl
0.00 0.00 275.25 230.25 cl
0.2000 0.2000 0.2000 srgb
1.07 setlinewidth
[] 0 setdash
0 setlinecap
1 setlinejoin
10.00 setmiterlimit
np
45.81 28.61 m
0 2.74 l
o
np
99.13 28.61 m
0 2.74 l
o
np
152.46 28.61 m
0 2.74 l
o
np
205.78 28.61 m
0 2.74 l
o
np
259.11 28.61 m
0 2.74 l
o
0.00 0.00 275.25 230.25 cl
0.00 0.00 275.25 230.25 cl
/Font1 findfont 9 s
0.3020 0.3020 0.3020 srgb
45.81 19.95 (0.00) .5 0 t
99.13 19.95 (0.25) .5 0 t
152.46 19.95 (0.50) .5 0 t
205.78 19.95 (0.75) .5 0 t
259.11 19.95 (1.00) .5 0 t
0.00 0.00 275.25 230.25 cl
0.00 0.00 275.25 230.25 cl
0.00 0.00 275.25 230.25 cl
0.00 0.00 275.25 230.25 cl
/Font1 findfont 11 s
0 0 0 srgb
152.46 7.67 (time) .5 0 t
0.00 0.00 275.25 230.25 cl
0.00 0.00 275.25 230.25 cl
/Font1 findfont 11 s
0 0 0 srgb
15.57 75.18 (T) 90 ta
-1.320 (emper) tb
-0.110 (ature) tb gr
0.00 0.00 275.25 230.25 cl
0.00 0.00 275.25 230.25 cl
0.00 0.00 275.25 230.25 cl
0.00 0.00 275.25 230.25 cl
/bg { 1 1 1 srgb } def
0.4118 0.4118 0.4118 srgb
1.07 setlinewidth
[] 0 setdash
1 setlinecap
1 setlinejoin
10.00 setmiterlimit
90.28 190.48 124.36 25.78 r p3
0.00 0.00 275.25 230.25 cl
0.00 0.00 275.25 230.25 cl
0.00 0.00 275.25 230.25 cl
0.00 0.00 275.25 230.25 cl
/bg { 0.9490 0.9490 0.9490 srgb } def
1 1 1 srgb
1.07 setlinewidth
[] 0 setdash
1 setlinecap
1 setlinejoin
10.00 setmiterlimit
98.85 194.73 17.28 17.28 r p3
0.00 0.00 275.25 230.25 cl
0.00 0.00 275.25 230.25 cl
0.5294 0.8078 0.9216 srgb
0.71 setlinewidth
[] 0 setdash
1 setlinecap
1 setlinejoin
10.00 setmiterlimit
107.49 203.37 1.95 c p1
0.00 0.00 275.25 230.25 cl
0.00 0.00 275.25 230.25 cl
0.00 0.00 275.25 230.25 cl
0.00 0.00 275.25 230.25 cl
/bg { 0.9490 0.9490 0.9490 srgb } def
1 1 1 srgb
1.07 setlinewidth
[] 0 setdash
1 setlinecap
1 setlinejoin
10.00 setmiterlimit
166.20 194.73 17.28 17.28 r p3
0.00 0.00 275.25 230.25 cl
0.00 0.00 275.25 230.25 cl
0.00 0.00 275.25 230.25 cl
0.00 0.00 275.25 230.25 cl
1 0.4157 0.4157 srgb
1.07 setlinewidth
[] 0 setdash
0 setlinecap
1 setlinejoin
10.00 setmiterlimit
np
167.93 203.37 m
13.82 0 l
o
0.00 0.00 275.25 230.25 cl
0.00 0.00 275.25 230.25 cl
/Font1 findfont 9 s
0 0 0 srgb
118.29 200.14 (e) 0 ta
-0.270 (xper) tb
0.135 (iment) tb gr
0.00 0.00 275.25 230.25 cl
0.00 0.00 275.25 230.25 cl
/Font1 findfont 9 s
0 0 0 srgb
185.64 200.14 (theor) 0 ta
0.270 (y) tb gr
0.00 0.00 275.25 230.25 cl
0.00 0.00 275.25 230.25 cl
0.00 0.00 275.25 230.25 cl
0.00 0.00 275.25 230.25 cl
0.00 0.00 275.25 230.25 cl
0.00 0.00 275.25 230.25 cl
ep
%%Trailer
%%Pages: 1
%%EOF
