%!PS-Adobe-3.0 EPSF-3.0
%%DocumentNeededResources: font Helvetica
%%+ font Helvetica-Bold
%%+ font Helvetica-Oblique
%%+ font Helvetica-BoldOblique
%%+ font Symbol
%%Title: R Graphics Output
%%Creator: R Software
%%Pages: (atend)
%%BoundingBox: 0 0 320 291
%%EndComments
%%BeginProlog
/bp  { gs sRGB gs } def
% begin .ps.prolog
/gs  { gsave } bind def
/gr  { grestore } bind def
/ep  { showpage gr gr } bind def
/m   { moveto } bind def
/l  { rlineto } bind def
/np  { newpath } bind def
/cp  { closepath } bind def
/f   { fill } bind def
/o   { stroke } bind def
/c   { newpath 0 360 arc } bind def
/r   { 4 2 roll moveto 1 copy 3 -1 roll exch 0 exch rlineto 0 rlineto -1 mul 0 exch rlineto closepath } bind def
/p1  { stroke } bind def
/p2  { gsave bg fill grestore newpath } bind def
/p3  { gsave bg fill grestore stroke } bind def
/p6  { gsave bg eofill grestore newpath } bind def
/p7  { gsave bg eofill grestore stroke } bind def
/t   { 5 -2 roll moveto gsave rotate
       1 index stringwidth pop
       mul neg 0 rmoveto show grestore } bind def
/ta  { 4 -2 roll moveto gsave rotate show } bind def
/tb  { 2 -1 roll 0 rmoveto show } bind def
/cl  { grestore gsave newpath 3 index 3 index moveto 1 index
       4 -1 roll lineto  exch 1 index lineto lineto
       closepath clip newpath } bind def
/rgb { setrgbcolor } bind def
/s   { scalefont setfont } bind def
% end   .ps.prolog
/sRGB { [ /CIEBasedABC
          << /DecodeLMN
               [ { dup 0.03928 le
                        {12.92321 div}
                        {0.055 add 1.055 div 2.4 exp }
                     ifelse
                 } bind dup dup
               ]
             /MatrixLMN [0.412457 0.212673 0.019334
                         0.357576 0.715152 0.119192
                         0.180437 0.072175 0.950301]
             /WhitePoint [0.9505 1.0 1.0890]
           >>
         ] setcolorspace } bind def
/srgb { setcolor } bind def
% begin encoding
/WinAnsiEncoding [
 /.notdef /.notdef /.notdef /.notdef /.notdef /.notdef /.notdef /.notdef
 /.notdef /.notdef /.notdef /.notdef /.notdef /.notdef /.notdef /.notdef
 /.notdef /.notdef /.notdef /.notdef /.notdef /.notdef /.notdef /.notdef
 /.notdef /.notdef /.notdef /.notdef /.notdef /.notdef /.notdef /.notdef
 /space /exclam /quotedbl /numbersign /dollar /percent /ampersand /quoteright
 /parenleft /parenright /asterisk /plus /comma /minus /period /slash
 /zero /one /two /three /four /five /six /seven
 /eight /nine /colon /semicolon /less /equal /greater /question
 /at /A /B /C /D /E /F /G
 /H /I /J /K /L /M /N /O
 /P /Q /R /S /T /U /V /W
 /X /Y /Z /bracketleft /backslash /bracketright /asciicircum /underscore
 /grave /a /b /c /d /e /f /g
 /h /i /j /k /l /m /n /o
 /p /q /r /s /t /u /v /w
 /x /y /z /braceleft /bar /braceright /asciitilde /.notdef
 /Euro /.notdef /quotesinglbase /florin /quotedblbase /ellipsis /dagger /daggerdbl
 /circumflex /perthousand /Scaron /guilsinglleft /OE /.notdef /Zcaron /.notdef
 /.notdef /quoteleft /quoteright /quotedblleft /quotedblright /bullet /endash /emdash
 /tilde /trademark /scaron /guilsinglright /oe /.notdef /zcaron /Ydieresis
 /space /exclamdown /cent /sterling /currency /yen /brokenbar /section
 /dieresis /copyright /ordfeminine /guillemotleft /logicalnot /hyphen /registered /macron
 /degree /plusminus /twosuperior /threesuperior /acute /mu /paragraph /periodcentered
 /cedilla /onesuperior /ordmasculine /guillemotright /onequarter /onehalf /threequarters /questiondown
 /Agrave /Aacute /Acircumflex /Atilde /Adieresis /Aring /AE /Ccedilla
 /Egrave /Eacute /Ecircumflex /Edieresis /Igrave /Iacute /Icircumflex /Idieresis
 /Eth /Ntilde /Ograve /Oacute /Ocircumflex /Otilde /Odieresis /multiply
 /Oslash /Ugrave /Uacute /Ucircumflex /Udieresis /Yacute /Thorn /germandbls
 /agrave /aacute /acircumflex /atilde /adieresis /aring /ae /ccedilla
 /egrave /eacute /ecircumflex /edieresis /igrave /iacute /icircumflex /idieresis
 /eth /ntilde /ograve /oacute /ocircumflex /otilde /odieresis /divide
 /oslash /ugrave /uacute /ucircumflex /udieresis /yacute /thorn /ydieresis
]
 def
% end encoding
%%IncludeResource: font Helvetica
/Helvetica findfont
dup length dict begin
  {1 index /FID ne {def} {pop pop} ifelse} forall
  /Encoding WinAnsiEncoding def
  currentdict
  end
/Font1 exch definefont pop
%%IncludeResource: font Helvetica-Bold
/Helvetica-Bold findfont
dup length dict begin
  {1 index /FID ne {def} {pop pop} ifelse} forall
  /Encoding WinAnsiEncoding def
  currentdict
  end
/Font2 exch definefont pop
%%IncludeResource: font Helvetica-Oblique
/Helvetica-Oblique findfont
dup length dict begin
  {1 index /FID ne {def} {pop pop} ifelse} forall
  /Encoding WinAnsiEncoding def
  currentdict
  end
/Font3 exch definefont pop
%%IncludeResource: font Helvetica-BoldOblique
/Helvetica-BoldOblique findfont
dup length dict begin
  {1 index /FID ne {def} {pop pop} ifelse} forall
  /Encoding WinAnsiEncoding def
  currentdict
  end
/Font4 exch definefont pop
%%IncludeResource: font Symbol
/Symbol findfont
dup length dict begin
  {1 index /FID ne {def} {pop pop} ifelse} forall
  currentdict
  end
/Font5 exch definefont pop
%%EndProlog
%%Page: 1 1
bp
0.00 0.00 319.50 291.00 cl
0.00 0.00 319.50 291.00 cl
0.00 0.00 319.50 291.00 cl
0.00 0.00 319.50 291.00 cl
0.00 0.00 319.50 291.00 cl
0.00 0.00 319.50 291.00 cl
0.00 0.00 319.50 291.00 cl
0.00 0.00 319.50 291.00 cl
0.00 0.00 319.50 291.00 cl
/bg { 1 1 1 srgb } def
1 1 1 srgb
1.07 setlinewidth
[] 0 setdash
1 setlinecap
1 setlinejoin
10.00 setmiterlimit
0.00 0.00 319.50 291.00 r p3
0.00 0.00 319.50 291.00 cl
0.00 0.00 319.50 291.00 cl
0.00 0.00 319.50 291.00 cl
42.40 31.35 314.02 285.52 cl
/bg { 0.9216 0.9216 0.9216 srgb } def
42.40 31.35 271.62 254.17 r p2
1 1 1 srgb
0.53 setlinewidth
[] 0 setdash
0 setlinecap
1 setlinejoin
10.00 setmiterlimit
np
42.40 64.18 m
271.62 0 l
o
np
42.40 127.92 m
271.62 0 l
o
np
42.40 191.66 m
271.62 0 l
o
np
42.40 255.41 m
271.62 0 l
o
np
91.24 31.35 m
0 254.17 l
o
np
170.77 31.35 m
0 254.17 l
o
np
250.29 31.35 m
0 254.17 l
o
1.07 setlinewidth
[] 0 setdash
np
42.40 32.30 m
271.62 0 l
o
np
42.40 96.05 m
271.62 0 l
o
np
42.40 159.79 m
271.62 0 l
o
np
42.40 223.53 m
271.62 0 l
o
np
51.48 31.35 m
0 254.17 l
o
np
131.01 31.35 m
0 254.17 l
o
np
210.53 31.35 m
0 254.17 l
o
np
290.06 31.35 m
0 254.17 l
o
0.5294 0.8078 0.9216 srgb
1.00 setmiterlimit
np
70.88 106.67 m
0 116.02 l
102.09 0 l
0 -24.96 l
34.51 0 l
0 -76.09 l
-60.20 0 l
0 -15.07 l
14.25 0 l
0 46.67 l
-68.15 0 l
0 120.73 l
55.96 0 l
0 -50.12 l
-9.80 0 l
0 -54.18 l
113.06 0 l
0 90.47 l
39.96 0 l
0 0.58 l
8.83 0 l
0 -56.81 l
-42.40 0 l
0 -31.18 l
23.77 0 l
0 -64.54 l
-95.55 0 l
0 -36.23 l
-33.52 0 l
0 11.16 l
9.50 0 l
0 -40.22 l
-8.78 0 l
0 43.53 l
-33.37 0 l
0 85.09 l
5.40 0 l
0 -55.71 l
49.28 0 l
0 60.85 l
-120.98 0 l
0 -9.88 l
38.92 0 l
0 22.86 l
91.50 0 l
0 -1.78 l
116.51 0 l
0 68.10 l
-113.43 0 l
0 -66.00 l
82.66 0 l
0 -67.24 l
23.92 0 l
0 63.07 l
-105.69 0 l
0 -56.37 l
23.80 0 l
0 6.59 l
35.33 0 l
0 -13.88 l
-103.35 0 l
0 108.06 l
17.75 0 l
0 -82.66 l
73.27 0 l
0 76.77 l
-107.61 0 l
0 -75.59 l
-33.58 0 l
0 44.22 l
153.36 0 l
0 -80.23 l
-81.44 0 l
0 74.57 l
108.42 0 l
0 -48.09 l
-114.58 0 l
0 11.96 l
22.92 0 l
0 -50.25 l
22.18 0 l
0 -26.86 l
-104.76 0 l
0 -21.13 l
-14.37 0 l
0 75.71 l
35.99 0 l
0 9.34 l
12.41 0 l
0 31.60 l
96.77 0 l
0 -52.83 l
-85.74 0 l
0 45.34 l
50.52 0 l
0 -1.53 l
-62.29 0 l
0 -4.08 l
84.40 0 l
o
/bg { 0.5294 0.8078 0.9216 srgb } def
0.71 setlinewidth
[] 0 setdash
1 setlinecap
10.00 setmiterlimit
70.88 106.67 1.95 c p3
70.88 222.69 1.95 c p3
172.97 222.69 1.95 c p3
172.97 197.73 1.95 c p3
207.48 197.73 1.95 c p3
207.48 121.64 1.95 c p3
147.28 121.64 1.95 c p3
147.28 106.57 1.95 c p3
161.53 106.57 1.95 c p3
161.53 153.24 1.95 c p3
93.38 153.24 1.95 c p3
93.38 273.97 1.95 c p3
149.34 273.97 1.95 c p3
149.34 223.85 1.95 c p3
139.54 223.85 1.95 c p3
139.54 169.67 1.95 c p3
252.60 169.67 1.95 c p3
252.60 260.14 1.95 c p3
292.56 260.14 1.95 c p3
292.56 260.72 1.95 c p3
301.39 260.72 1.95 c p3
301.39 203.91 1.95 c p3
258.99 203.91 1.95 c p3
258.99 172.73 1.95 c p3
282.76 172.73 1.95 c p3
282.76 108.19 1.95 c p3
187.21 108.19 1.95 c p3
187.21 71.96 1.95 c p3
153.69 71.96 1.95 c p3
153.69 83.12 1.95 c p3
163.19 83.12 1.95 c p3
163.19 42.90 1.95 c p3
154.41 42.90 1.95 c p3
154.41 86.43 1.95 c p3
121.04 86.43 1.95 c p3
121.04 171.52 1.95 c p3
126.44 171.52 1.95 c p3
126.44 115.81 1.95 c p3
175.72 115.81 1.95 c p3
175.72 176.66 1.95 c p3
54.74 176.66 1.95 c p3
54.74 166.78 1.95 c p3
93.66 166.78 1.95 c p3
93.66 189.64 1.95 c p3
185.16 189.64 1.95 c p3
185.16 187.86 1.95 c p3
301.67 187.86 1.95 c p3
301.67 255.96 1.95 c p3
188.24 255.96 1.95 c p3
188.24 189.96 1.95 c p3
270.90 189.96 1.95 c p3
270.90 122.72 1.95 c p3
294.82 122.72 1.95 c p3
294.82 185.79 1.95 c p3
189.13 185.79 1.95 c p3
189.13 129.42 1.95 c p3
212.93 129.42 1.95 c p3
212.93 136.01 1.95 c p3
248.26 136.01 1.95 c p3
248.26 122.13 1.95 c p3
144.91 122.13 1.95 c p3
144.91 230.19 1.95 c p3
162.66 230.19 1.95 c p3
162.66 147.53 1.95 c p3
235.93 147.53 1.95 c p3
235.93 224.30 1.95 c p3
128.32 224.30 1.95 c p3
128.32 148.71 1.95 c p3
94.74 148.71 1.95 c p3
94.74 192.93 1.95 c p3
248.10 192.93 1.95 c p3
248.10 112.70 1.95 c p3
166.66 112.70 1.95 c p3
166.66 187.27 1.95 c p3
275.08 187.27 1.95 c p3
275.08 139.18 1.95 c p3
160.50 139.18 1.95 c p3
160.50 151.14 1.95 c p3
183.42 151.14 1.95 c p3
183.42 100.89 1.95 c p3
205.60 100.89 1.95 c p3
205.60 74.03 1.95 c p3
100.84 74.03 1.95 c p3
100.84 52.90 1.95 c p3
86.47 52.90 1.95 c p3
86.47 128.61 1.95 c p3
122.46 128.61 1.95 c p3
122.46 137.95 1.95 c p3
134.87 137.95 1.95 c p3
134.87 169.55 1.95 c p3
231.64 169.55 1.95 c p3
231.64 116.72 1.95 c p3
145.90 116.72 1.95 c p3
145.90 162.06 1.95 c p3
196.42 162.06 1.95 c p3
196.42 160.53 1.95 c p3
134.13 160.53 1.95 c p3
134.13 156.45 1.95 c p3
218.53 156.45 1.95 c p3
0.6784 0.8471 0.9020 srgb
0.21 setlinewidth
[ 0.85 0.85] 0 setdash
0 setlinecap
np
42.40 223.53 m
271.62 0 l
o
np
210.53 31.35 m
0 254.17 l
o
/bg { 0.4980 1 0 srgb } def
0.4980 1 0 srgb
0.71 setlinewidth
[] 0 setdash
1 setlinecap
70.88 106.67 2.49 c p3
70.88 106.67 2.49 c p3
70.88 106.67 2.49 c p3
70.88 106.67 2.49 c p3
70.88 106.67 2.49 c p3
70.88 106.67 2.49 c p3
70.88 106.67 2.49 c p3
70.88 106.67 2.49 c p3
70.88 106.67 2.49 c p3
70.88 106.67 2.49 c p3
70.88 106.67 2.49 c p3
70.88 106.67 2.49 c p3
70.88 106.67 2.49 c p3
70.88 106.67 2.49 c p3
70.88 106.67 2.49 c p3
70.88 106.67 2.49 c p3
70.88 106.67 2.49 c p3
70.88 106.67 2.49 c p3
70.88 106.67 2.49 c p3
70.88 106.67 2.49 c p3
70.88 106.67 2.49 c p3
70.88 106.67 2.49 c p3
70.88 106.67 2.49 c p3
70.88 106.67 2.49 c p3
70.88 106.67 2.49 c p3
70.88 106.67 2.49 c p3
70.88 106.67 2.49 c p3
70.88 106.67 2.49 c p3
70.88 106.67 2.49 c p3
70.88 106.67 2.49 c p3
70.88 106.67 2.49 c p3
70.88 106.67 2.49 c p3
70.88 106.67 2.49 c p3
70.88 106.67 2.49 c p3
70.88 106.67 2.49 c p3
70.88 106.67 2.49 c p3
70.88 106.67 2.49 c p3
70.88 106.67 2.49 c p3
70.88 106.67 2.49 c p3
70.88 106.67 2.49 c p3
70.88 106.67 2.49 c p3
70.88 106.67 2.49 c p3
70.88 106.67 2.49 c p3
70.88 106.67 2.49 c p3
70.88 106.67 2.49 c p3
70.88 106.67 2.49 c p3
70.88 106.67 2.49 c p3
70.88 106.67 2.49 c p3
70.88 106.67 2.49 c p3
70.88 106.67 2.49 c p3
70.88 106.67 2.49 c p3
70.88 106.67 2.49 c p3
70.88 106.67 2.49 c p3
70.88 106.67 2.49 c p3
70.88 106.67 2.49 c p3
70.88 106.67 2.49 c p3
70.88 106.67 2.49 c p3
70.88 106.67 2.49 c p3
70.88 106.67 2.49 c p3
70.88 106.67 2.49 c p3
70.88 106.67 2.49 c p3
70.88 106.67 2.49 c p3
70.88 106.67 2.49 c p3
70.88 106.67 2.49 c p3
70.88 106.67 2.49 c p3
70.88 106.67 2.49 c p3
70.88 106.67 2.49 c p3
70.88 106.67 2.49 c p3
70.88 106.67 2.49 c p3
70.88 106.67 2.49 c p3
70.88 106.67 2.49 c p3
70.88 106.67 2.49 c p3
70.88 106.67 2.49 c p3
70.88 106.67 2.49 c p3
70.88 106.67 2.49 c p3
70.88 106.67 2.49 c p3
70.88 106.67 2.49 c p3
70.88 106.67 2.49 c p3
70.88 106.67 2.49 c p3
70.88 106.67 2.49 c p3
70.88 106.67 2.49 c p3
70.88 106.67 2.49 c p3
70.88 106.67 2.49 c p3
70.88 106.67 2.49 c p3
70.88 106.67 2.49 c p3
70.88 106.67 2.49 c p3
70.88 106.67 2.49 c p3
70.88 106.67 2.49 c p3
70.88 106.67 2.49 c p3
70.88 106.67 2.49 c p3
70.88 106.67 2.49 c p3
70.88 106.67 2.49 c p3
70.88 106.67 2.49 c p3
70.88 106.67 2.49 c p3
70.88 106.67 2.49 c p3
70.88 106.67 2.49 c p3
70.88 106.67 2.49 c p3
70.88 106.67 2.49 c p3
70.88 106.67 2.49 c p3
/bg { 1 0.5137 0.9804 srgb } def
1 0.5137 0.9804 srgb
218.53 156.45 2.49 c p3
218.53 156.45 2.49 c p3
218.53 156.45 2.49 c p3
218.53 156.45 2.49 c p3
218.53 156.45 2.49 c p3
218.53 156.45 2.49 c p3
218.53 156.45 2.49 c p3
218.53 156.45 2.49 c p3
218.53 156.45 2.49 c p3
218.53 156.45 2.49 c p3
218.53 156.45 2.49 c p3
218.53 156.45 2.49 c p3
218.53 156.45 2.49 c p3
218.53 156.45 2.49 c p3
218.53 156.45 2.49 c p3
218.53 156.45 2.49 c p3
218.53 156.45 2.49 c p3
218.53 156.45 2.49 c p3
218.53 156.45 2.49 c p3
218.53 156.45 2.49 c p3
218.53 156.45 2.49 c p3
218.53 156.45 2.49 c p3
218.53 156.45 2.49 c p3
218.53 156.45 2.49 c p3
218.53 156.45 2.49 c p3
218.53 156.45 2.49 c p3
218.53 156.45 2.49 c p3
218.53 156.45 2.49 c p3
218.53 156.45 2.49 c p3
218.53 156.45 2.49 c p3
218.53 156.45 2.49 c p3
218.53 156.45 2.49 c p3
218.53 156.45 2.49 c p3
218.53 156.45 2.49 c p3
218.53 156.45 2.49 c p3
218.53 156.45 2.49 c p3
218.53 156.45 2.49 c p3
218.53 156.45 2.49 c p3
218.53 156.45 2.49 c p3
218.53 156.45 2.49 c p3
218.53 156.45 2.49 c p3
218.53 156.45 2.49 c p3
218.53 156.45 2.49 c p3
218.53 156.45 2.49 c p3
218.53 156.45 2.49 c p3
218.53 156.45 2.49 c p3
218.53 156.45 2.49 c p3
218.53 156.45 2.49 c p3
218.53 156.45 2.49 c p3
218.53 156.45 2.49 c p3
218.53 156.45 2.49 c p3
218.53 156.45 2.49 c p3
218.53 156.45 2.49 c p3
218.53 156.45 2.49 c p3
218.53 156.45 2.49 c p3
218.53 156.45 2.49 c p3
218.53 156.45 2.49 c p3
218.53 156.45 2.49 c p3
218.53 156.45 2.49 c p3
218.53 156.45 2.49 c p3
218.53 156.45 2.49 c p3
218.53 156.45 2.49 c p3
218.53 156.45 2.49 c p3
218.53 156.45 2.49 c p3
218.53 156.45 2.49 c p3
218.53 156.45 2.49 c p3
218.53 156.45 2.49 c p3
218.53 156.45 2.49 c p3
218.53 156.45 2.49 c p3
218.53 156.45 2.49 c p3
218.53 156.45 2.49 c p3
218.53 156.45 2.49 c p3
218.53 156.45 2.49 c p3
218.53 156.45 2.49 c p3
218.53 156.45 2.49 c p3
218.53 156.45 2.49 c p3
218.53 156.45 2.49 c p3
218.53 156.45 2.49 c p3
218.53 156.45 2.49 c p3
218.53 156.45 2.49 c p3
218.53 156.45 2.49 c p3
218.53 156.45 2.49 c p3
218.53 156.45 2.49 c p3
218.53 156.45 2.49 c p3
218.53 156.45 2.49 c p3
218.53 156.45 2.49 c p3
218.53 156.45 2.49 c p3
218.53 156.45 2.49 c p3
218.53 156.45 2.49 c p3
218.53 156.45 2.49 c p3
218.53 156.45 2.49 c p3
218.53 156.45 2.49 c p3
218.53 156.45 2.49 c p3
218.53 156.45 2.49 c p3
218.53 156.45 2.49 c p3
218.53 156.45 2.49 c p3
218.53 156.45 2.49 c p3
218.53 156.45 2.49 c p3
218.53 156.45 2.49 c p3
/bg { 0 0 0 srgb } def
0 0 0 srgb
210.53 223.53 3.56 c p3
210.53 223.53 3.56 c p3
210.53 223.53 3.56 c p3
210.53 223.53 3.56 c p3
210.53 223.53 3.56 c p3
210.53 223.53 3.56 c p3
210.53 223.53 3.56 c p3
210.53 223.53 3.56 c p3
210.53 223.53 3.56 c p3
210.53 223.53 3.56 c p3
210.53 223.53 3.56 c p3
210.53 223.53 3.56 c p3
210.53 223.53 3.56 c p3
210.53 223.53 3.56 c p3
210.53 223.53 3.56 c p3
210.53 223.53 3.56 c p3
210.53 223.53 3.56 c p3
210.53 223.53 3.56 c p3
210.53 223.53 3.56 c p3
210.53 223.53 3.56 c p3
210.53 223.53 3.56 c p3
210.53 223.53 3.56 c p3
210.53 223.53 3.56 c p3
210.53 223.53 3.56 c p3
210.53 223.53 3.56 c p3
210.53 223.53 3.56 c p3
210.53 223.53 3.56 c p3
210.53 223.53 3.56 c p3
210.53 223.53 3.56 c p3
210.53 223.53 3.56 c p3
210.53 223.53 3.56 c p3
210.53 223.53 3.56 c p3
210.53 223.53 3.56 c p3
210.53 223.53 3.56 c p3
210.53 223.53 3.56 c p3
210.53 223.53 3.56 c p3
210.53 223.53 3.56 c p3
210.53 223.53 3.56 c p3
210.53 223.53 3.56 c p3
210.53 223.53 3.56 c p3
210.53 223.53 3.56 c p3
210.53 223.53 3.56 c p3
210.53 223.53 3.56 c p3
210.53 223.53 3.56 c p3
210.53 223.53 3.56 c p3
210.53 223.53 3.56 c p3
210.53 223.53 3.56 c p3
210.53 223.53 3.56 c p3
210.53 223.53 3.56 c p3
210.53 223.53 3.56 c p3
210.53 223.53 3.56 c p3
210.53 223.53 3.56 c p3
210.53 223.53 3.56 c p3
210.53 223.53 3.56 c p3
210.53 223.53 3.56 c p3
210.53 223.53 3.56 c p3
210.53 223.53 3.56 c p3
210.53 223.53 3.56 c p3
210.53 223.53 3.56 c p3
210.53 223.53 3.56 c p3
210.53 223.53 3.56 c p3
210.53 223.53 3.56 c p3
210.53 223.53 3.56 c p3
210.53 223.53 3.56 c p3
210.53 223.53 3.56 c p3
210.53 223.53 3.56 c p3
210.53 223.53 3.56 c p3
210.53 223.53 3.56 c p3
210.53 223.53 3.56 c p3
210.53 223.53 3.56 c p3
210.53 223.53 3.56 c p3
210.53 223.53 3.56 c p3
210.53 223.53 3.56 c p3
210.53 223.53 3.56 c p3
210.53 223.53 3.56 c p3
210.53 223.53 3.56 c p3
210.53 223.53 3.56 c p3
210.53 223.53 3.56 c p3
210.53 223.53 3.56 c p3
210.53 223.53 3.56 c p3
210.53 223.53 3.56 c p3
210.53 223.53 3.56 c p3
210.53 223.53 3.56 c p3
210.53 223.53 3.56 c p3
210.53 223.53 3.56 c p3
210.53 223.53 3.56 c p3
210.53 223.53 3.56 c p3
210.53 223.53 3.56 c p3
210.53 223.53 3.56 c p3
210.53 223.53 3.56 c p3
210.53 223.53 3.56 c p3
210.53 223.53 3.56 c p3
210.53 223.53 3.56 c p3
210.53 223.53 3.56 c p3
210.53 223.53 3.56 c p3
210.53 223.53 3.56 c p3
210.53 223.53 3.56 c p3
210.53 223.53 3.56 c p3
210.53 223.53 3.56 c p3
/Font1 findfont 11 s
67.78 90.98 (P) 0 0 t
/Font1 findfont 8 s
75.11 88.97 (1) 0 0 t
/Font1 findfont 11 s
216.38 140.83 (P) 0 0 t
/Font1 findfont 8 s
223.72 138.82 (99) 0 0 t
/Font1 findfont 11 s
206.86 206.84 (X) 0 0 t
0.00 0.00 319.50 291.00 cl
0.00 0.00 319.50 291.00 cl
0.00 0.00 319.50 291.00 cl
0.00 0.00 319.50 291.00 cl
0.00 0.00 319.50 291.00 cl
0.00 0.00 319.50 291.00 cl
/Font1 findfont 9 s
0.3020 0.3020 0.3020 srgb
37.47 29.07 (0.72) 1 0 t
37.47 92.82 (0.73) 1 0 t
37.47 156.56 (0.74) 1 0 t
37.47 220.30 (0.75) 1 0 t
0.00 0.00 319.50 291.00 cl
0.00 0.00 319.50 291.00 cl
0.2000 0.2000 0.2000 srgb
1.07 setlinewidth
[] 0 setdash
0 setlinecap
1 setlinejoin
10.00 setmiterlimit
np
39.66 32.30 m
2.74 0 l
o
np
39.66 96.05 m
2.74 0 l
o
np
39.66 159.79 m
2.74 0 l
o
np
39.66 223.53 m
2.74 0 l
o
0.00 0.00 319.50 291.00 cl
0.00 0.00 319.50 291.00 cl
0.00 0.00 319.50 291.00 cl
0.00 0.00 319.50 291.00 cl
0.00 0.00 319.50 291.00 cl
0.00 0.00 319.50 291.00 cl
0.00 0.00 319.50 291.00 cl
0.00 0.00 319.50 291.00 cl
0.2000 0.2000 0.2000 srgb
1.07 setlinewidth
[] 0 setdash
0 setlinecap
1 setlinejoin
10.00 setmiterlimit
np
51.48 28.61 m
0 2.74 l
o
np
131.01 28.61 m
0 2.74 l
o
np
210.53 28.61 m
0 2.74 l
o
np
290.06 28.61 m
0 2.74 l
o
0.00 0.00 319.50 291.00 cl
0.00 0.00 319.50 291.00 cl
/Font1 findfont 9 s
0.3020 0.3020 0.3020 srgb
51.48 19.95 (2.46) .5 0 t
131.01 19.95 (2.48) .5 0 t
210.53 19.95 (2.50) .5 0 t
290.06 19.95 (2.52) .5 0 t
0.00 0.00 319.50 291.00 cl
0.00 0.00 319.50 291.00 cl
0.00 0.00 319.50 291.00 cl
0.00 0.00 319.50 291.00 cl
/Font1 findfont 11 s
0 0 0 srgb
178.21 7.67 (Tmax) .5 0 t
0.00 0.00 319.50 291.00 cl
0.00 0.00 319.50 291.00 cl
/Font1 findfont 11 s
0 0 0 srgb
15.57 158.43 (Diffusivity) .5 90 t
0.00 0.00 319.50 291.00 cl
0.00 0.00 319.50 291.00 cl
0.00 0.00 319.50 291.00 cl
0.00 0.00 319.50 291.00 cl
ep
%%Trailer
%%Pages: 1
%%EOF
