%!PS-Adobe-3.0 EPSF-3.0
%%DocumentNeededResources: font Helvetica
%%+ font Helvetica-Bold
%%+ font Helvetica-Oblique
%%+ font Helvetica-BoldOblique
%%+ font Symbol
%%Title: R Graphics Output
%%Creator: R Software
%%Pages: (atend)
%%BoundingBox: 0 0 725 589
%%EndComments
%%BeginProlog
/bp  { gs sRGB gs } def
% begin .ps.prolog
/gs  { gsave } bind def
/gr  { grestore } bind def
/ep  { showpage gr gr } bind def
/m   { moveto } bind def
/l  { rlineto } bind def
/np  { newpath } bind def
/cp  { closepath } bind def
/f   { fill } bind def
/o   { stroke } bind def
/c   { newpath 0 360 arc } bind def
/r   { 4 2 roll moveto 1 copy 3 -1 roll exch 0 exch rlineto 0 rlineto -1 mul 0 exch rlineto closepath } bind def
/p1  { stroke } bind def
/p2  { gsave bg fill grestore newpath } bind def
/p3  { gsave bg fill grestore stroke } bind def
/p6  { gsave bg eofill grestore newpath } bind def
/p7  { gsave bg eofill grestore stroke } bind def
/t   { 5 -2 roll moveto gsave rotate
       1 index stringwidth pop
       mul neg 0 rmoveto show grestore } bind def
/ta  { 4 -2 roll moveto gsave rotate show } bind def
/tb  { 2 -1 roll 0 rmoveto show } bind def
/cl  { grestore gsave newpath 3 index 3 index moveto 1 index
       4 -1 roll lineto  exch 1 index lineto lineto
       closepath clip newpath } bind def
/rgb { setrgbcolor } bind def
/s   { scalefont setfont } bind def
% end   .ps.prolog
/sRGB { [ /CIEBasedABC
          << /DecodeLMN
               [ { dup 0.03928 le
                        {12.92321 div}
                        {0.055 add 1.055 div 2.4 exp }
                     ifelse
                 } bind dup dup
               ]
             /MatrixLMN [0.412457 0.212673 0.019334
                         0.357576 0.715152 0.119192
                         0.180437 0.072175 0.950301]
             /WhitePoint [0.9505 1.0 1.0890]
           >>
         ] setcolorspace } bind def
/srgb { setcolor } bind def
% begin encoding
/WinAnsiEncoding [
 /.notdef /.notdef /.notdef /.notdef /.notdef /.notdef /.notdef /.notdef
 /.notdef /.notdef /.notdef /.notdef /.notdef /.notdef /.notdef /.notdef
 /.notdef /.notdef /.notdef /.notdef /.notdef /.notdef /.notdef /.notdef
 /.notdef /.notdef /.notdef /.notdef /.notdef /.notdef /.notdef /.notdef
 /space /exclam /quotedbl /numbersign /dollar /percent /ampersand /quoteright
 /parenleft /parenright /asterisk /plus /comma /minus /period /slash
 /zero /one /two /three /four /five /six /seven
 /eight /nine /colon /semicolon /less /equal /greater /question
 /at /A /B /C /D /E /F /G
 /H /I /J /K /L /M /N /O
 /P /Q /R /S /T /U /V /W
 /X /Y /Z /bracketleft /backslash /bracketright /asciicircum /underscore
 /grave /a /b /c /d /e /f /g
 /h /i /j /k /l /m /n /o
 /p /q /r /s /t /u /v /w
 /x /y /z /braceleft /bar /braceright /asciitilde /.notdef
 /Euro /.notdef /quotesinglbase /florin /quotedblbase /ellipsis /dagger /daggerdbl
 /circumflex /perthousand /Scaron /guilsinglleft /OE /.notdef /Zcaron /.notdef
 /.notdef /quoteleft /quoteright /quotedblleft /quotedblright /bullet /endash /emdash
 /tilde /trademark /scaron /guilsinglright /oe /.notdef /zcaron /Ydieresis
 /space /exclamdown /cent /sterling /currency /yen /brokenbar /section
 /dieresis /copyright /ordfeminine /guillemotleft /logicalnot /hyphen /registered /macron
 /degree /plusminus /twosuperior /threesuperior /acute /mu /paragraph /periodcentered
 /cedilla /onesuperior /ordmasculine /guillemotright /onequarter /onehalf /threequarters /questiondown
 /Agrave /Aacute /Acircumflex /Atilde /Adieresis /Aring /AE /Ccedilla
 /Egrave /Eacute /Ecircumflex /Edieresis /Igrave /Iacute /Icircumflex /Idieresis
 /Eth /Ntilde /Ograve /Oacute /Ocircumflex /Otilde /Odieresis /multiply
 /Oslash /Ugrave /Uacute /Ucircumflex /Udieresis /Yacute /Thorn /germandbls
 /agrave /aacute /acircumflex /atilde /adieresis /aring /ae /ccedilla
 /egrave /eacute /ecircumflex /edieresis /igrave /iacute /icircumflex /idieresis
 /eth /ntilde /ograve /oacute /ocircumflex /otilde /odieresis /divide
 /oslash /ugrave /uacute /ucircumflex /udieresis /yacute /thorn /ydieresis
]
 def
% end encoding
%%IncludeResource: font Helvetica
/Helvetica findfont
dup length dict begin
  {1 index /FID ne {def} {pop pop} ifelse} forall
  /Encoding WinAnsiEncoding def
  currentdict
  end
/Font1 exch definefont pop
%%IncludeResource: font Helvetica-Bold
/Helvetica-Bold findfont
dup length dict begin
  {1 index /FID ne {def} {pop pop} ifelse} forall
  /Encoding WinAnsiEncoding def
  currentdict
  end
/Font2 exch definefont pop
%%IncludeResource: font Helvetica-Oblique
/Helvetica-Oblique findfont
dup length dict begin
  {1 index /FID ne {def} {pop pop} ifelse} forall
  /Encoding WinAnsiEncoding def
  currentdict
  end
/Font3 exch definefont pop
%%IncludeResource: font Helvetica-BoldOblique
/Helvetica-BoldOblique findfont
dup length dict begin
  {1 index /FID ne {def} {pop pop} ifelse} forall
  /Encoding WinAnsiEncoding def
  currentdict
  end
/Font4 exch definefont pop
%%IncludeResource: font Symbol
/Symbol findfont
dup length dict begin
  {1 index /FID ne {def} {pop pop} ifelse} forall
  currentdict
  end
/Font5 exch definefont pop
%%EndProlog
%%Page: 1 1
bp
/bg { 1 1 1 srgb } def
0.00 0.00 725.25 588.75 r p2
59.04 73.44 695.01 529.71 cl
59.04 73.44 695.01 529.71 cl
0 0 0 srgb
0.75 setlinewidth
[] 0 setdash
1 setlinecap
1 setlinejoin
10.00 setmiterlimit
np
82.59 271.26 m
10.71 1.47 l
10.71 -2.58 l
10.70 -1.47 l
10.71 0.74 l
10.71 1.47 l
10.70 11.42 l
10.71 71.09 l
10.71 78.47 l
10.70 44.20 l
10.71 5.53 l
10.71 -21.00 l
10.70 -34.26 l
10.71 -37.20 l
10.71 -31.32 l
10.70 -24.68 l
10.71 -18.41 l
10.71 -12.16 l
10.70 -5.89 l
10.71 -5.90 l
10.71 -2.95 l
10.70 -0.73 l
10.71 1.47 l
10.70 -1.47 l
10.71 -2.21 l
10.71 -1.48 l
10.70 -0.36 l
10.71 -1.48 l
10.71 3.32 l
10.70 -1.48 l
10.71 0.37 l
10.71 1.48 l
10.70 -0.74 l
10.71 1.10 l
10.71 -3.68 l
10.70 0.74 l
10.71 -1.48 l
10.71 2.21 l
10.70 1.11 l
10.71 -2.21 l
10.71 -1.84 l
10.70 1.84 l
10.71 -0.74 l
10.71 0.74 l
10.70 -1.11 l
10.71 -0.73 l
10.71 -0.37 l
10.70 0 l
10.71 1.47 l
10.71 -0.37 l
10.70 0.37 l
10.71 0.74 l
10.70 -1.47 l
10.71 1.10 l
10.71 -0.37 l
10.70 0.74 l
o
0.00 0.00 725.25 588.75 cl
0 0 0 srgb
0.75 setlinewidth
[] 0 setdash
1 setlinecap
1 setlinejoin
10.00 setmiterlimit
np
136.13 73.44 m
481.79 0 l
o
np
136.13 73.44 m
0 -7.20 l
o
np
296.72 73.44 m
0 -7.20 l
o
np
457.32 73.44 m
0 -7.20 l
o
np
617.92 73.44 m
0 -7.20 l
o
/Font1 findfont 16 s
136.13 47.52 (0.000) .5 0 t
296.72 47.52 (0.001) .5 0 t
457.32 47.52 (0.002) .5 0 t
617.92 47.52 (0.003) .5 0 t
np
59.04 90.34 m
0 422.47 l
o
np
59.04 90.34 m
-7.20 0 l
o
np
59.04 150.69 m
-7.20 0 l
o
np
59.04 211.05 m
-7.20 0 l
o
np
59.04 271.40 m
-7.20 0 l
o
np
59.04 331.75 m
-7.20 0 l
o
np
59.04 392.10 m
-7.20 0 l
o
np
59.04 452.46 m
-7.20 0 l
o
np
59.04 512.81 m
-7.20 0 l
o
41.76 90.34 (-0.15) .5 90 t
41.76 150.69 (-0.10) .5 90 t
41.76 211.05 (-0.05) .5 90 t
41.76 271.40 (0.00) .5 90 t
41.76 331.75 (0.05) .5 90 t
41.76 392.10 (0.10) .5 90 t
41.76 452.46 (0.15) .5 90 t
41.76 512.81 (0.20) .5 90 t
np
59.04 73.44 m
635.97 0 l
0 456.27 l
-635.97 0 l
0 -456.27 l
o
0.00 0.00 725.25 588.75 cl
/Font1 findfont 16 s
0 0 0 srgb
377.02 18.72 (Time \(s\)) .5 0 t
12.96 301.57 (Signal \(V\)) .5 90 t
59.04 73.44 695.01 529.71 cl
0.8275 0.8275 0.8275 srgb
0.75 setlinewidth
[ 0.00 3.00] 0 setdash
1 setlinecap
1 setlinejoin
10.00 setmiterlimit
np
136.13 73.44 m
0 456.27 l
o
np
296.72 73.44 m
0 456.27 l
o
np
457.32 73.44 m
0 456.27 l
o
np
617.92 73.44 m
0 456.27 l
o
np
59.04 90.34 m
635.97 0 l
o
np
59.04 150.69 m
635.97 0 l
o
np
59.04 211.05 m
635.97 0 l
o
np
59.04 271.40 m
635.97 0 l
o
np
59.04 331.75 m
635.97 0 l
o
np
59.04 392.10 m
635.97 0 l
o
np
59.04 452.46 m
635.97 0 l
o
np
59.04 512.81 m
635.97 0 l
o
1 0 0 srgb
0.75 setlinewidth
[] 0 setdash
np
71.89 270.91 m
10.70 1.10 l
10.71 -3.31 l
10.71 2.94 l
10.70 -2.94 l
10.71 1.84 l
10.71 0.37 l
10.70 14.00 l
10.71 34.62 l
10.71 28.37 l
10.70 10.68 l
10.71 -2.95 l
10.71 -15.84 l
10.70 -16.21 l
10.71 -16.57 l
10.71 -13.26 l
10.70 -11.42 l
10.71 -6.63 l
10.71 -6.27 l
10.70 -1.47 l
10.71 -2.58 l
10.71 -0.37 l
10.70 -1.10 l
10.71 -2.95 l
10.70 1.47 l
10.71 -0.36 l
10.71 0.36 l
10.70 0 l
10.71 -1.10 l
10.71 0.37 l
10.70 0.37 l
10.71 0.73 l
10.71 -0.37 l
10.70 0.74 l
10.71 0.74 l
10.71 -2.95 l
10.70 1.84 l
10.71 0 l
10.71 -0.73 l
10.70 2.57 l
10.71 -2.57 l
10.71 0.36 l
10.70 -0.73 l
10.71 1.84 l
10.71 -0.37 l
10.70 -0.37 l
10.71 -0.37 l
10.71 1.11 l
10.70 0 l
10.71 0 l
10.71 -0.74 l
10.70 -2.21 l
10.71 4.79 l
10.70 -3.68 l
10.71 1.84 l
10.71 -0.74 l
o
0 0.8039 0 srgb
np
71.89 274.54 m
10.70 -0.37 l
10.71 0 l
10.71 -1.11 l
10.70 0.37 l
10.71 -1.10 l
10.71 1.84 l
10.70 8.84 l
10.71 30.58 l
10.71 21.73 l
10.70 4.79 l
10.71 -8.48 l
10.71 -21.73 l
10.70 -21.00 l
10.71 -22.10 l
10.71 -15.10 l
10.70 -13.26 l
10.71 -7.37 l
10.71 -5.16 l
10.70 -4.05 l
10.71 -1.10 l
10.71 -0.74 l
10.70 -2.58 l
10.71 1.47 l
10.70 1.11 l
10.71 0.74 l
10.71 -1.48 l
10.70 -1.10 l
10.71 2.21 l
10.71 -0.74 l
10.70 0.37 l
10.71 -2.21 l
10.71 1.10 l
10.70 -0.36 l
10.71 2.94 l
10.71 -1.47 l
10.70 0.37 l
10.71 -0.37 l
10.71 1.11 l
10.70 -0.37 l
10.71 1.47 l
10.71 -1.84 l
10.70 -0.74 l
10.71 0.37 l
10.71 1.11 l
10.70 0 l
10.71 1.10 l
10.71 0.74 l
10.70 -2.21 l
10.71 2.21 l
10.71 0 l
10.70 -1.84 l
10.71 1.10 l
10.70 0.74 l
10.71 1.84 l
10.71 -1.11 l
o
0 0 1 srgb
np
71.89 270.87 m
10.70 0 l
10.71 0.74 l
10.71 -0.74 l
10.70 -1.47 l
10.71 2.21 l
10.71 0 l
10.70 5.89 l
10.71 9.95 l
10.71 2.58 l
10.70 -6.27 l
10.71 -20.99 l
10.71 -25.42 l
10.70 -24.31 l
10.71 -21.37 l
10.71 -16.94 l
10.70 -10.32 l
10.71 -9.20 l
10.71 -6.64 l
10.70 -1.47 l
10.71 -1.47 l
10.71 0.37 l
10.70 0 l
10.71 1.84 l
10.70 -1.48 l
10.71 1.11 l
10.71 1.84 l
10.70 0.74 l
10.71 -0.37 l
10.71 1.84 l
10.70 -0.74 l
10.71 1.11 l
10.71 1.10 l
10.70 0 l
10.71 -0.36 l
10.71 1.47 l
10.70 -0.74 l
10.71 1.11 l
10.71 0 l
10.70 1.10 l
10.71 1.11 l
10.71 -1.47 l
10.70 2.21 l
10.71 1.47 l
10.71 0.37 l
10.70 0.73 l
10.71 1.11 l
10.71 -0.37 l
10.70 -1.47 l
10.71 1.84 l
10.71 1.84 l
10.70 0 l
10.71 0.37 l
10.70 -0.74 l
10.71 2.21 l
10.71 2.21 l
o
0 0 0 srgb
np
320.47 506.80 m
28.57 0 l
o
1 0 0 srgb
np
320.47 483.89 m
28.57 0 l
o
0 0.8039 0 srgb
np
320.47 460.98 m
28.57 0 l
o
0 0 1 srgb
np
320.47 438.06 m
28.57 0 l
o
/Font1 findfont 16 s
0 0 0 srgb
363.33 501.05 (MOsb) 0 0 t
1 0 0 srgb
363.33 478.14 (MOsp220) 0 0 t
0 0.8039 0 srgb
363.33 455.23 (MOsp1000) 0 0 t
0 0 1 srgb
363.33 432.32 (MOl) 0 0 t
ep
%%Trailer
%%Pages: 1
%%EOF
