%!PS-Adobe-3.0 EPSF-3.0
%%DocumentNeededResources: font Helvetica
%%+ font Helvetica-Bold
%%+ font Helvetica-Oblique
%%+ font Helvetica-BoldOblique
%%+ font Symbol
%%Title: R Graphics Output
%%Creator: R Software
%%Pages: (atend)
%%BoundingBox: 0 0 421 330
%%EndComments
%%BeginProlog
/bp  { gs sRGB gs } def
% begin .ps.prolog
/gs  { gsave } bind def
/gr  { grestore } bind def
/ep  { showpage gr gr } bind def
/m   { moveto } bind def
/l  { rlineto } bind def
/np  { newpath } bind def
/cp  { closepath } bind def
/f   { fill } bind def
/o   { stroke } bind def
/c   { newpath 0 360 arc } bind def
/r   { 4 2 roll moveto 1 copy 3 -1 roll exch 0 exch rlineto 0 rlineto -1 mul 0 exch rlineto closepath } bind def
/p1  { stroke } bind def
/p2  { gsave bg fill grestore newpath } bind def
/p3  { gsave bg fill grestore stroke } bind def
/p6  { gsave bg eofill grestore newpath } bind def
/p7  { gsave bg eofill grestore stroke } bind def
/t   { 5 -2 roll moveto gsave rotate
       1 index stringwidth pop
       mul neg 0 rmoveto show grestore } bind def
/ta  { 4 -2 roll moveto gsave rotate show } bind def
/tb  { 2 -1 roll 0 rmoveto show } bind def
/cl  { grestore gsave newpath 3 index 3 index moveto 1 index
       4 -1 roll lineto  exch 1 index lineto lineto
       closepath clip newpath } bind def
/rgb { setrgbcolor } bind def
/s   { scalefont setfont } bind def
% end   .ps.prolog
/sRGB { [ /CIEBasedABC
          << /DecodeLMN
               [ { dup 0.03928 le
                        {12.92321 div}
                        {0.055 add 1.055 div 2.4 exp }
                     ifelse
                 } bind dup dup
               ]
             /MatrixLMN [0.412457 0.212673 0.019334
                         0.357576 0.715152 0.119192
                         0.180437 0.072175 0.950301]
             /WhitePoint [0.9505 1.0 1.0890]
           >>
         ] setcolorspace } bind def
/srgb { setcolor } bind def
% begin encoding
/WinAnsiEncoding [
 /.notdef /.notdef /.notdef /.notdef /.notdef /.notdef /.notdef /.notdef
 /.notdef /.notdef /.notdef /.notdef /.notdef /.notdef /.notdef /.notdef
 /.notdef /.notdef /.notdef /.notdef /.notdef /.notdef /.notdef /.notdef
 /.notdef /.notdef /.notdef /.notdef /.notdef /.notdef /.notdef /.notdef
 /space /exclam /quotedbl /numbersign /dollar /percent /ampersand /quoteright
 /parenleft /parenright /asterisk /plus /comma /minus /period /slash
 /zero /one /two /three /four /five /six /seven
 /eight /nine /colon /semicolon /less /equal /greater /question
 /at /A /B /C /D /E /F /G
 /H /I /J /K /L /M /N /O
 /P /Q /R /S /T /U /V /W
 /X /Y /Z /bracketleft /backslash /bracketright /asciicircum /underscore
 /grave /a /b /c /d /e /f /g
 /h /i /j /k /l /m /n /o
 /p /q /r /s /t /u /v /w
 /x /y /z /braceleft /bar /braceright /asciitilde /.notdef
 /Euro /.notdef /quotesinglbase /florin /quotedblbase /ellipsis /dagger /daggerdbl
 /circumflex /perthousand /Scaron /guilsinglleft /OE /.notdef /Zcaron /.notdef
 /.notdef /quoteleft /quoteright /quotedblleft /quotedblright /bullet /endash /emdash
 /tilde /trademark /scaron /guilsinglright /oe /.notdef /zcaron /Ydieresis
 /space /exclamdown /cent /sterling /currency /yen /brokenbar /section
 /dieresis /copyright /ordfeminine /guillemotleft /logicalnot /hyphen /registered /macron
 /degree /plusminus /twosuperior /threesuperior /acute /mu /paragraph /periodcentered
 /cedilla /onesuperior /ordmasculine /guillemotright /onequarter /onehalf /threequarters /questiondown
 /Agrave /Aacute /Acircumflex /Atilde /Adieresis /Aring /AE /Ccedilla
 /Egrave /Eacute /Ecircumflex /Edieresis /Igrave /Iacute /Icircumflex /Idieresis
 /Eth /Ntilde /Ograve /Oacute /Ocircumflex /Otilde /Odieresis /multiply
 /Oslash /Ugrave /Uacute /Ucircumflex /Udieresis /Yacute /Thorn /germandbls
 /agrave /aacute /acircumflex /atilde /adieresis /aring /ae /ccedilla
 /egrave /eacute /ecircumflex /edieresis /igrave /iacute /icircumflex /idieresis
 /eth /ntilde /ograve /oacute /ocircumflex /otilde /odieresis /divide
 /oslash /ugrave /uacute /ucircumflex /udieresis /yacute /thorn /ydieresis
]
 def
% end encoding
%%IncludeResource: font Helvetica
/Helvetica findfont
dup length dict begin
  {1 index /FID ne {def} {pop pop} ifelse} forall
  /Encoding WinAnsiEncoding def
  currentdict
  end
/Font1 exch definefont pop
%%IncludeResource: font Helvetica-Bold
/Helvetica-Bold findfont
dup length dict begin
  {1 index /FID ne {def} {pop pop} ifelse} forall
  /Encoding WinAnsiEncoding def
  currentdict
  end
/Font2 exch definefont pop
%%IncludeResource: font Helvetica-Oblique
/Helvetica-Oblique findfont
dup length dict begin
  {1 index /FID ne {def} {pop pop} ifelse} forall
  /Encoding WinAnsiEncoding def
  currentdict
  end
/Font3 exch definefont pop
%%IncludeResource: font Helvetica-BoldOblique
/Helvetica-BoldOblique findfont
dup length dict begin
  {1 index /FID ne {def} {pop pop} ifelse} forall
  /Encoding WinAnsiEncoding def
  currentdict
  end
/Font4 exch definefont pop
%%IncludeResource: font Symbol
/Symbol findfont
dup length dict begin
  {1 index /FID ne {def} {pop pop} ifelse} forall
  currentdict
  end
/Font5 exch definefont pop
%%EndProlog
%%Page: 1 1
bp
/bg { 1 1 1 srgb } def
0.00 0.00 420.75 330.00 r p2
50.40 50.40 406.35 315.60 cl
50.40 50.40 406.35 315.60 cl
1 0 0 srgb
0.75 setlinewidth
[] 0 setdash
1 setlinecap
1 setlinejoin
10.00 setmiterlimit
71.74 266.02 2.16 c p1
88.06 232.16 2.16 c p1
104.37 199.66 2.16 c p1
120.69 169.62 2.16 c p1
137.01 143.79 2.16 c p1
153.32 122.53 2.16 c p1
169.64 105.23 2.16 c p1
185.95 91.33 2.16 c p1
202.27 80.84 2.16 c p1
218.59 73.27 2.16 c p1
234.90 68.27 2.16 c p1
251.22 64.94 2.16 c p1
267.53 62.82 2.16 c p1
283.85 61.66 2.16 c p1
300.17 60.96 2.16 c p1
316.48 60.60 2.16 c p1
332.80 60.42 2.16 c p1
349.11 60.32 2.16 c p1
365.43 60.27 2.16 c p1
381.75 60.23 2.16 c p1
0.00 0.00 420.75 330.00 cl
0 0 0 srgb
0.75 setlinewidth
[] 0 setdash
1 setlinecap
1 setlinejoin
10.00 setmiterlimit
np
63.58 50.40 m
326.32 0 l
o
np
63.58 50.40 m
0 -2.65 l
o
np
128.85 50.40 m
0 -2.65 l
o
np
194.11 50.40 m
0 -2.65 l
o
np
259.38 50.40 m
0 -2.65 l
o
np
324.64 50.40 m
0 -2.65 l
o
np
389.90 50.40 m
0 -2.65 l
o
/Font1 findfont 16 s
63.58 28.80 (0.0) .5 0 t
128.85 28.80 (0.2) .5 0 t
194.11 28.80 (0.4) .5 0 t
259.38 28.80 (0.6) .5 0 t
324.64 28.80 (0.8) .5 0 t
389.90 28.80 (1.0) .5 0 t
np
50.40 60.22 m
0 223.23 l
o
np
50.40 60.22 m
-2.65 0 l
o
np
50.40 104.87 m
-2.65 0 l
o
np
50.40 149.52 m
-2.65 0 l
o
np
50.40 194.16 m
-2.65 0 l
o
np
50.40 238.81 m
-2.65 0 l
o
np
50.40 283.45 m
-2.65 0 l
o
37.44 60.22 (0.0) .5 90 t
37.44 104.87 (0.2) .5 90 t
37.44 149.52 (0.4) .5 90 t
37.44 194.16 (0.6) .5 90 t
37.44 238.81 (0.8) .5 90 t
37.44 283.45 (1.0) .5 90 t
np
50.40 50.40 m
355.95 0 l
0 265.20 l
-355.95 0 l
0 -265.20 l
o
0.00 0.00 420.75 330.00 cl
/Font1 findfont 16 s
0 0 0 srgb
228.37 10.08 (x) .5 0 t
18.72 183.00 (T) .5 90 t
50.40 50.40 406.35 315.60 cl
0.6784 0.8471 0.9020 srgb
0.75 setlinewidth
[] 0 setdash
1 setlinecap
1 setlinejoin
10.00 setmiterlimit
np
63.58 283.45 m
3.30 -7.19 l
3.30 -7.18 l
3.29 -7.16 l
3.30 -7.13 l
3.29 -7.07 l
3.30 -7.03 l
3.30 -6.95 l
3.29 -6.87 l
3.30 -6.78 l
3.29 -6.69 l
3.30 -6.58 l
3.30 -6.46 l
3.29 -6.33 l
3.30 -6.20 l
3.30 -6.06 l
3.29 -5.92 l
3.30 -5.76 l
3.29 -5.61 l
3.30 -5.44 l
3.30 -5.27 l
3.29 -5.11 l
3.30 -4.93 l
3.30 -4.77 l
3.29 -4.58 l
3.30 -4.41 l
3.29 -4.23 l
3.30 -4.06 l
3.30 -3.88 l
3.29 -3.71 l
3.30 -3.54 l
3.29 -3.36 l
3.30 -3.21 l
3.30 -3.04 l
3.29 -2.87 l
3.30 -2.73 l
3.30 -2.57 l
3.29 -2.43 l
3.30 -2.28 l
3.29 -2.15 l
3.30 -2.01 l
3.30 -1.89 l
3.29 -1.76 l
3.30 -1.65 l
3.29 -1.54 l
3.30 -1.43 l
3.30 -1.32 l
3.29 -1.24 l
3.30 -1.14 l
3.30 -1.05 l
3.29 -0.98 l
3.30 -0.90 l
3.29 -0.82 l
3.30 -0.76 l
3.30 -0.70 l
3.29 -0.63 l
3.30 -0.59 l
3.29 -0.53 l
3.30 -0.48 l
3.30 -0.44 l
3.29 -0.40 l
3.30 -0.37 l
3.30 -0.32 l
3.29 -0.30 l
3.30 -0.27 l
3.29 -0.24 l
3.30 -0.22 l
3.30 -0.19 l
3.29 -0.18 l
3.30 -0.15 l
3.29 -0.14 l
3.30 -0.13 l
3.30 -0.11 l
3.29 -0.10 l
3.30 -0.08 l
3.30 -0.08 l
3.29 -0.07 l
3.30 -0.06 l
3.29 -0.06 l
3.30 -0.04 l
3.30 -0.04 l
3.29 -0.04 l
3.30 -0.03 l
3.29 -0.03 l
3.30 -0.02 l
3.30 -0.03 l
3.29 -0.01 l
3.30 -0.02 l
3.30 -0.02 l
3.29 -0.01 l
3.30 -0.01 l
3.29 -0.01 l
3.30 -0.01 l
3.30 0 l
3.29 -0.01 l
3.30 -0.01 l
3.29 0 l
3.30 -0.01 l
3.30 0 l
3.29 -0.01 l
o
np
63.58 283.45 m
3.30 -5.08 l
3.30 -5.09 l
3.29 -5.07 l
3.30 -5.07 l
3.29 -5.04 l
3.30 -5.03 l
3.30 -5.00 l
3.29 -4.97 l
3.30 -4.94 l
3.29 -4.91 l
3.30 -4.86 l
3.30 -4.82 l
3.29 -4.78 l
3.30 -4.72 l
3.30 -4.67 l
3.29 -4.62 l
3.30 -4.55 l
3.29 -4.49 l
3.30 -4.43 l
3.30 -4.35 l
3.29 -4.29 l
3.30 -4.21 l
3.30 -4.14 l
3.29 -4.06 l
3.30 -3.99 l
3.29 -3.90 l
3.30 -3.82 l
3.30 -3.74 l
3.29 -3.65 l
3.30 -3.57 l
3.29 -3.48 l
3.30 -3.39 l
3.30 -3.31 l
3.29 -3.22 l
3.30 -3.13 l
3.30 -3.04 l
3.29 -2.96 l
3.30 -2.86 l
3.29 -2.78 l
3.30 -2.69 l
3.30 -2.61 l
3.29 -2.52 l
3.30 -2.43 l
3.29 -2.36 l
3.30 -2.26 l
3.30 -2.19 l
3.29 -2.11 l
3.30 -2.02 l
3.30 -1.95 l
3.29 -1.88 l
3.30 -1.79 l
3.29 -1.73 l
3.30 -1.65 l
3.30 -1.58 l
3.29 -1.52 l
3.30 -1.45 l
3.29 -1.38 l
3.30 -1.33 l
3.30 -1.26 l
3.29 -1.20 l
3.30 -1.14 l
3.30 -1.09 l
3.29 -1.04 l
3.30 -0.98 l
3.29 -0.94 l
3.30 -0.89 l
3.30 -0.84 l
3.29 -0.80 l
3.30 -0.75 l
3.29 -0.72 l
3.30 -0.67 l
3.30 -0.64 l
3.29 -0.60 l
3.30 -0.57 l
3.30 -0.54 l
3.29 -0.51 l
3.30 -0.48 l
3.29 -0.45 l
3.30 -0.43 l
3.30 -0.40 l
3.29 -0.38 l
3.30 -0.36 l
3.29 -0.34 l
3.30 -0.32 l
3.30 -0.30 l
3.29 -0.29 l
3.30 -0.27 l
3.30 -0.26 l
3.29 -0.24 l
3.30 -0.24 l
3.29 -0.23 l
3.30 -0.21 l
3.30 -0.21 l
3.29 -0.20 l
3.30 -0.20 l
3.29 -0.19 l
3.30 -0.19 l
3.30 -0.19 l
3.29 -0.19 l
o
np
63.58 283.45 m
3.30 -3.60 l
3.30 -3.60 l
3.29 -3.59 l
3.30 -3.59 l
3.29 -3.59 l
3.30 -3.58 l
3.30 -3.57 l
3.29 -3.56 l
3.30 -3.55 l
3.29 -3.53 l
3.30 -3.52 l
3.30 -3.51 l
3.29 -3.49 l
3.30 -3.47 l
3.30 -3.45 l
3.29 -3.43 l
3.30 -3.41 l
3.29 -3.38 l
3.30 -3.36 l
3.30 -3.34 l
3.29 -3.31 l
3.30 -3.28 l
3.30 -3.25 l
3.29 -3.22 l
3.30 -3.19 l
3.29 -3.16 l
3.30 -3.13 l
3.30 -3.09 l
3.29 -3.06 l
3.30 -3.03 l
3.29 -2.98 l
3.30 -2.96 l
3.30 -2.91 l
3.29 -2.88 l
3.30 -2.83 l
3.30 -2.80 l
3.29 -2.76 l
3.30 -2.72 l
3.29 -2.68 l
3.30 -2.64 l
3.30 -2.60 l
3.29 -2.55 l
3.30 -2.52 l
3.29 -2.47 l
3.30 -2.43 l
3.30 -2.39 l
3.29 -2.35 l
3.30 -2.31 l
3.30 -2.26 l
3.29 -2.22 l
3.30 -2.18 l
3.29 -2.14 l
3.30 -2.10 l
3.30 -2.06 l
3.29 -2.01 l
3.30 -1.98 l
3.29 -1.94 l
3.30 -1.89 l
3.30 -1.86 l
3.29 -1.82 l
3.30 -1.78 l
3.30 -1.75 l
3.29 -1.70 l
3.30 -1.67 l
3.29 -1.64 l
3.30 -1.60 l
3.30 -1.56 l
3.29 -1.53 l
3.30 -1.50 l
3.29 -1.47 l
3.30 -1.43 l
3.30 -1.41 l
3.29 -1.37 l
3.30 -1.35 l
3.30 -1.32 l
3.29 -1.29 l
3.30 -1.27 l
3.29 -1.24 l
3.30 -1.22 l
3.30 -1.20 l
3.29 -1.17 l
3.30 -1.15 l
3.29 -1.14 l
3.30 -1.11 l
3.30 -1.10 l
3.29 -1.08 l
3.30 -1.07 l
3.30 -1.05 l
3.29 -1.04 l
3.30 -1.03 l
3.29 -1.01 l
3.30 -1.01 l
3.30 -1.00 l
3.29 -0.99 l
3.30 -0.99 l
3.29 -0.98 l
3.30 -0.98 l
3.30 -0.97 l
3.29 -0.98 l
o
1 0 0 srgb
71.74 266.02 2.16 c p1
88.06 232.16 2.16 c p1
104.37 199.66 2.16 c p1
120.69 169.62 2.16 c p1
137.01 143.79 2.16 c p1
153.32 122.53 2.16 c p1
169.64 105.23 2.16 c p1
185.95 91.33 2.16 c p1
202.27 80.84 2.16 c p1
218.59 73.27 2.16 c p1
234.90 68.27 2.16 c p1
251.22 64.94 2.16 c p1
267.53 62.82 2.16 c p1
283.85 61.66 2.16 c p1
300.17 60.96 2.16 c p1
316.48 60.60 2.16 c p1
332.80 60.42 2.16 c p1
349.11 60.32 2.16 c p1
365.43 60.27 2.16 c p1
381.75 60.23 2.16 c p1
71.74 270.72 2.16 c p1
88.06 245.87 2.16 c p1
104.37 222.01 2.16 c p1
120.69 199.27 2.16 c p1
137.01 178.62 2.16 c p1
153.32 159.56 2.16 c p1
169.64 141.80 2.16 c p1
185.95 125.94 2.16 c p1
202.27 112.67 2.16 c p1
218.59 101.75 2.16 c p1
234.90 92.52 2.16 c p1
251.22 84.73 2.16 c p1
267.53 78.62 2.16 c p1
283.85 74.08 2.16 c p1
300.17 70.40 2.16 c p1
316.48 67.57 2.16 c p1
332.80 65.23 2.16 c p1
349.11 63.34 2.16 c p1
365.43 61.93 2.16 c p1
381.75 60.79 2.16 c p1
71.74 274.53 2.16 c p1
88.06 256.78 2.16 c p1
104.37 239.28 2.16 c p1
120.69 222.04 2.16 c p1
137.01 205.65 2.16 c p1
153.32 190.19 2.16 c p1
169.64 175.45 2.16 c p1
185.95 161.35 2.16 c p1
202.27 148.37 2.16 c p1
218.59 136.76 2.16 c p1
234.90 125.56 2.16 c p1
251.22 115.62 2.16 c p1
267.53 106.86 2.16 c p1
283.85 98.80 2.16 c p1
300.17 91.76 2.16 c p1
316.48 85.08 2.16 c p1
332.80 78.61 2.16 c p1
349.11 72.86 2.16 c p1
365.43 67.59 2.16 c p1
381.75 62.57 2.16 c p1
0.8235 0.4118 0.1176 srgb
np
69.45 266.44 m
4.58 0 l
o
np
71.74 264.15 m
0 4.59 l
o
np
85.77 233.60 m
4.58 0 l
o
np
88.06 231.30 m
0 4.59 l
o
np
102.08 202.53 m
4.58 0 l
o
np
104.37 200.24 m
0 4.58 l
o
np
118.40 168.00 m
4.58 0 l
o
np
120.69 165.71 m
0 4.58 l
o
np
134.71 144.07 m
4.59 0 l
o
np
137.01 141.78 m
0 4.58 l
o
np
151.03 119.65 m
4.58 0 l
o
np
153.32 117.36 m
0 4.58 l
o
np
167.35 103.88 m
4.58 0 l
o
np
169.64 101.58 m
0 4.59 l
o
np
183.66 90.26 m
4.58 0 l
o
np
185.95 87.97 m
0 4.58 l
o
np
199.98 79.67 m
4.58 0 l
o
np
202.27 77.37 m
0 4.59 l
o
np
216.29 73.98 m
4.59 0 l
o
np
218.59 71.69 m
0 4.59 l
o
np
232.61 68.52 m
4.58 0 l
o
np
234.90 66.22 m
0 4.59 l
o
np
248.93 64.84 m
4.58 0 l
o
np
251.22 62.55 m
0 4.58 l
o
np
265.24 63.31 m
4.58 0 l
o
np
267.53 61.02 m
0 4.59 l
o
np
281.56 62.33 m
4.58 0 l
o
np
283.85 60.04 m
0 4.58 l
o
np
297.87 60.94 m
4.59 0 l
o
np
300.17 58.65 m
0 4.58 l
o
np
314.19 60.61 m
4.58 0 l
o
np
316.48 58.32 m
0 4.58 l
o
np
330.51 60.45 m
4.58 0 l
o
np
332.80 58.15 m
0 4.59 l
o
np
346.82 60.31 m
4.58 0 l
o
np
349.11 58.02 m
0 4.58 l
o
np
363.14 60.28 m
4.58 0 l
o
np
365.43 57.99 m
0 4.58 l
o
np
379.45 60.22 m
4.59 0 l
o
np
381.75 57.93 m
0 4.58 l
o
np
69.45 271.23 m
4.58 0 l
o
np
71.74 268.94 m
0 4.58 l
o
np
85.77 249.33 m
4.58 0 l
o
np
88.06 247.04 m
0 4.58 l
o
np
102.08 225.20 m
4.58 0 l
o
np
104.37 222.91 m
0 4.58 l
o
np
118.40 196.86 m
4.58 0 l
o
np
120.69 194.57 m
0 4.58 l
o
np
134.71 176.31 m
4.59 0 l
o
np
137.01 174.02 m
0 4.59 l
o
np
151.03 157.77 m
4.58 0 l
o
np
153.32 155.48 m
0 4.59 l
o
np
167.35 139.85 m
4.58 0 l
o
np
169.64 137.56 m
0 4.58 l
o
np
183.66 125.10 m
4.58 0 l
o
np
185.95 122.81 m
0 4.59 l
o
np
199.98 110.09 m
4.58 0 l
o
np
202.27 107.80 m
0 4.58 l
o
np
216.29 100.14 m
4.59 0 l
o
np
218.59 97.85 m
0 4.58 l
o
np
232.61 90.06 m
4.58 0 l
o
np
234.90 87.77 m
0 4.58 l
o
np
248.93 83.36 m
4.58 0 l
o
np
251.22 81.07 m
0 4.58 l
o
np
265.24 78.21 m
4.58 0 l
o
np
267.53 75.92 m
0 4.59 l
o
np
281.56 72.54 m
4.58 0 l
o
np
283.85 70.25 m
0 4.59 l
o
np
297.87 69.71 m
4.59 0 l
o
np
300.17 67.42 m
0 4.58 l
o
np
314.19 66.18 m
4.58 0 l
o
np
316.48 63.89 m
0 4.58 l
o
np
330.51 64.16 m
4.58 0 l
o
np
332.80 61.87 m
0 4.58 l
o
np
346.82 62.64 m
4.58 0 l
o
np
349.11 60.35 m
0 4.59 l
o
np
363.14 61.24 m
4.58 0 l
o
np
365.43 58.95 m
0 4.58 l
o
np
379.45 61.16 m
4.59 0 l
o
np
381.75 58.87 m
0 4.58 l
o
np
69.45 273.40 m
4.58 0 l
o
np
71.74 271.11 m
0 4.58 l
o
np
85.77 255.83 m
4.58 0 l
o
np
88.06 253.54 m
0 4.58 l
o
np
102.08 235.46 m
4.58 0 l
o
np
104.37 233.17 m
0 4.58 l
o
np
118.40 224.32 m
4.58 0 l
o
np
120.69 222.03 m
0 4.58 l
o
np
134.71 205.51 m
4.59 0 l
o
np
137.01 203.22 m
0 4.58 l
o
np
151.03 189.75 m
4.58 0 l
o
np
153.32 187.46 m
0 4.58 l
o
np
167.35 175.40 m
4.58 0 l
o
np
169.64 173.11 m
0 4.58 l
o
np
183.66 163.07 m
4.58 0 l
o
np
185.95 160.77 m
0 4.59 l
o
np
199.98 148.85 m
4.58 0 l
o
np
202.27 146.55 m
0 4.59 l
o
np
216.29 135.15 m
4.59 0 l
o
np
218.59 132.86 m
0 4.58 l
o
np
232.61 124.43 m
4.58 0 l
o
np
234.90 122.14 m
0 4.59 l
o
np
248.93 114.84 m
4.58 0 l
o
np
251.22 112.54 m
0 4.59 l
o
np
265.24 105.33 m
4.58 0 l
o
np
267.53 103.04 m
0 4.58 l
o
np
281.56 100.26 m
4.58 0 l
o
np
283.85 97.97 m
0 4.58 l
o
np
297.87 90.53 m
4.59 0 l
o
np
300.17 88.23 m
0 4.59 l
o
np
314.19 83.92 m
4.58 0 l
o
np
316.48 81.63 m
0 4.58 l
o
np
330.51 77.98 m
4.58 0 l
o
np
332.80 75.69 m
0 4.58 l
o
np
346.82 71.41 m
4.58 0 l
o
np
349.11 69.12 m
0 4.58 l
o
np
363.14 67.76 m
4.58 0 l
o
np
365.43 65.47 m
0 4.58 l
o
np
379.45 62.97 m
4.59 0 l
o
np
381.75 60.68 m
0 4.58 l
o
0 0.5451 0.5451 srgb
np
71.74 268.13 m
2.18 -3.78 l
-4.36 0 l
2.18 3.78 l
o
np
88.06 233.63 m
2.18 -3.78 l
-4.36 0 l
2.18 3.78 l
o
np
104.37 200.91 m
2.19 -3.78 l
-4.37 0 l
2.18 3.78 l
o
np
120.69 171.29 m
2.18 -3.78 l
-4.36 0 l
2.18 3.78 l
o
np
137.01 145.80 m
2.18 -3.78 l
-4.37 0 l
2.19 3.78 l
o
np
153.32 124.28 m
2.18 -3.78 l
-4.36 0 l
2.18 3.78 l
o
np
169.64 107.32 m
2.18 -3.78 l
-4.36 0 l
2.18 3.78 l
o
np
185.95 94.03 m
2.19 -3.78 l
-4.37 0 l
2.18 3.78 l
o
np
202.27 83.76 m
2.18 -3.78 l
-4.36 0 l
2.18 3.78 l
o
np
218.59 76.44 m
2.18 -3.78 l
-4.37 0 l
2.19 3.78 l
o
np
234.90 71.30 m
2.18 -3.78 l
-4.36 0 l
2.18 3.78 l
o
np
251.22 68.01 m
2.18 -3.78 l
-4.36 0 l
2.18 3.78 l
o
np
267.53 65.99 m
2.19 -3.78 l
-4.37 0 l
2.18 3.78 l
o
np
283.85 64.55 m
2.18 -3.78 l
-4.36 0 l
2.18 3.78 l
o
np
300.17 63.75 m
2.18 -3.78 l
-4.37 0 l
2.19 3.78 l
o
np
316.48 63.32 m
2.18 -3.78 l
-4.36 0 l
2.18 3.78 l
o
np
332.80 63.01 m
2.18 -3.78 l
-4.36 0 l
2.18 3.78 l
o
np
349.11 62.84 m
2.19 -3.78 l
-4.37 0 l
2.18 3.78 l
o
np
365.43 62.79 m
2.18 -3.78 l
-4.36 0 l
2.18 3.78 l
o
np
381.75 62.75 m
2.18 -3.78 l
-4.37 0 l
2.19 3.78 l
o
np
71.74 273.09 m
2.18 -3.78 l
-4.36 0 l
2.18 3.78 l
o
np
88.06 248.07 m
2.18 -3.78 l
-4.36 0 l
2.18 3.78 l
o
np
104.37 224.62 m
2.19 -3.78 l
-4.37 0 l
2.18 3.78 l
o
np
120.69 202.46 m
2.18 -3.78 l
-4.36 0 l
2.18 3.78 l
o
np
137.01 181.08 m
2.18 -3.78 l
-4.37 0 l
2.19 3.78 l
o
np
153.32 161.28 m
2.18 -3.78 l
-4.36 0 l
2.18 3.78 l
o
np
169.64 144.13 m
2.18 -3.78 l
-4.36 0 l
2.18 3.78 l
o
np
185.95 128.84 m
2.19 -3.78 l
-4.37 0 l
2.18 3.78 l
o
np
202.27 115.18 m
2.18 -3.78 l
-4.36 0 l
2.18 3.78 l
o
np
218.59 103.44 m
2.18 -3.78 l
-4.37 0 l
2.19 3.78 l
o
np
234.90 93.61 m
2.18 -3.77 l
-4.36 0 l
2.18 3.77 l
o
np
251.22 86.25 m
2.18 -3.78 l
-4.36 0 l
2.18 3.78 l
o
np
267.53 80.41 m
2.19 -3.78 l
-4.37 0 l
2.18 3.78 l
o
np
283.85 75.70 m
2.18 -3.78 l
-4.36 0 l
2.18 3.78 l
o
np
300.17 72.07 m
2.18 -3.78 l
-4.37 0 l
2.19 3.78 l
o
np
316.48 69.37 m
2.18 -3.78 l
-4.36 0 l
2.18 3.78 l
o
np
332.80 67.43 m
2.18 -3.78 l
-4.36 0 l
2.18 3.78 l
o
np
349.11 65.73 m
2.19 -3.78 l
-4.37 0 l
2.18 3.78 l
o
np
365.43 64.38 m
2.18 -3.78 l
-4.36 0 l
2.18 3.78 l
o
np
381.75 63.25 m
2.18 -3.77 l
-4.37 0 l
2.19 3.77 l
o
np
71.74 277.14 m
2.18 -3.77 l
-4.36 0 l
2.18 3.77 l
o
np
88.06 259.45 m
2.18 -3.78 l
-4.36 0 l
2.18 3.78 l
o
np
104.37 241.80 m
2.19 -3.78 l
-4.37 0 l
2.18 3.78 l
o
np
120.69 224.74 m
2.18 -3.78 l
-4.36 0 l
2.18 3.78 l
o
np
137.01 208.41 m
2.18 -3.78 l
-4.37 0 l
2.19 3.78 l
o
np
153.32 192.77 m
2.18 -3.77 l
-4.36 0 l
2.18 3.77 l
o
np
169.64 178.22 m
2.18 -3.78 l
-4.36 0 l
2.18 3.78 l
o
np
185.95 164.73 m
2.19 -3.78 l
-4.37 0 l
2.18 3.78 l
o
np
202.27 152.20 m
2.18 -3.78 l
-4.36 0 l
2.18 3.78 l
o
np
218.59 140.27 m
2.18 -3.78 l
-4.37 0 l
2.19 3.78 l
o
np
234.90 129.01 m
2.18 -3.78 l
-4.36 0 l
2.18 3.78 l
o
np
251.22 118.86 m
2.18 -3.78 l
-4.36 0 l
2.18 3.78 l
o
np
267.53 109.68 m
2.19 -3.78 l
-4.37 0 l
2.18 3.78 l
o
np
283.85 101.36 m
2.18 -3.78 l
-4.36 0 l
2.18 3.78 l
o
np
300.17 93.56 m
2.18 -3.78 l
-4.37 0 l
2.19 3.78 l
o
np
316.48 86.75 m
2.18 -3.78 l
-4.36 0 l
2.18 3.78 l
o
np
332.80 81.15 m
2.18 -3.78 l
-4.36 0 l
2.18 3.78 l
o
np
349.11 75.68 m
2.19 -3.78 l
-4.37 0 l
2.18 3.78 l
o
np
365.43 70.31 m
2.18 -3.78 l
-4.36 0 l
2.18 3.78 l
o
np
381.75 65.24 m
2.18 -3.78 l
-4.37 0 l
2.19 3.78 l
o
0.6784 0.8471 0.9020 srgb
np
195.07 306.46 m
16.35 0 l
o
0.8235 0.4118 0.1176 srgb
np
200.19 297.32 m
6.11 0 l
o
np
203.25 294.26 m
0 6.11 l
o
1 0 0 srgb
203.25 288.18 2.16 c p1
0 0.5451 0.5451 srgb
np
203.25 282.39 m
2.90 -5.04 l
-5.81 0 l
2.91 5.04 l
o
/Font1 findfont 13 s
0 0 0 srgb
219.60 301.79 (Analytical) 0 0 t
219.60 292.65 (MC) 0 0 t
219.60 283.51 (T) 0 ta
-1.560 (r) tb
-0.130 (ails) tb gr
219.60 274.37 (Heat Flux) 0 0 t
229.86 235.70 (t =  0.0312 , 0.0625 , 0.125) 0 0 t
229.86 217.84 (s =  50 , 100 , 200) 0 0 t
229.86 191.05 (B =  10000) 0 0 t
229.86 173.19 (N =  20) 0 0 t
ep
%%Trailer
%%Pages: 1
%%EOF
