%!PS-Adobe-3.0 EPSF-3.0
%%DocumentNeededResources: font Helvetica
%%+ font Helvetica-Bold
%%+ font Helvetica-Oblique
%%+ font Helvetica-BoldOblique
%%+ font Symbol
%%Title: R Graphics Output
%%Creator: R Software
%%Pages: (atend)
%%BoundingBox: 0 0 525 525
%%EndComments
%%BeginProlog
/bp  { gs sRGB gs } def
% begin .ps.prolog
/gs  { gsave } bind def
/gr  { grestore } bind def
/ep  { showpage gr gr } bind def
/m   { moveto } bind def
/l  { rlineto } bind def
/np  { newpath } bind def
/cp  { closepath } bind def
/f   { fill } bind def
/o   { stroke } bind def
/c   { newpath 0 360 arc } bind def
/r   { 4 2 roll moveto 1 copy 3 -1 roll exch 0 exch rlineto 0 rlineto -1 mul 0 exch rlineto closepath } bind def
/p1  { stroke } bind def
/p2  { gsave bg fill grestore newpath } bind def
/p3  { gsave bg fill grestore stroke } bind def
/p6  { gsave bg eofill grestore newpath } bind def
/p7  { gsave bg eofill grestore stroke } bind def
/t   { 5 -2 roll moveto gsave rotate
       1 index stringwidth pop
       mul neg 0 rmoveto show grestore } bind def
/ta  { 4 -2 roll moveto gsave rotate show } bind def
/tb  { 2 -1 roll 0 rmoveto show } bind def
/cl  { grestore gsave newpath 3 index 3 index moveto 1 index
       4 -1 roll lineto  exch 1 index lineto lineto
       closepath clip newpath } bind def
/rgb { setrgbcolor } bind def
/s   { scalefont setfont } bind def
% end   .ps.prolog
/sRGB { [ /CIEBasedABC
          << /DecodeLMN
               [ { dup 0.03928 le
                        {12.92321 div}
                        {0.055 add 1.055 div 2.4 exp }
                     ifelse
                 } bind dup dup
               ]
             /MatrixLMN [0.412457 0.212673 0.019334
                         0.357576 0.715152 0.119192
                         0.180437 0.072175 0.950301]
             /WhitePoint [0.9505 1.0 1.0890]
           >>
         ] setcolorspace } bind def
/srgb { setcolor } bind def
% begin encoding
/WinAnsiEncoding [
 /.notdef /.notdef /.notdef /.notdef /.notdef /.notdef /.notdef /.notdef
 /.notdef /.notdef /.notdef /.notdef /.notdef /.notdef /.notdef /.notdef
 /.notdef /.notdef /.notdef /.notdef /.notdef /.notdef /.notdef /.notdef
 /.notdef /.notdef /.notdef /.notdef /.notdef /.notdef /.notdef /.notdef
 /space /exclam /quotedbl /numbersign /dollar /percent /ampersand /quoteright
 /parenleft /parenright /asterisk /plus /comma /minus /period /slash
 /zero /one /two /three /four /five /six /seven
 /eight /nine /colon /semicolon /less /equal /greater /question
 /at /A /B /C /D /E /F /G
 /H /I /J /K /L /M /N /O
 /P /Q /R /S /T /U /V /W
 /X /Y /Z /bracketleft /backslash /bracketright /asciicircum /underscore
 /grave /a /b /c /d /e /f /g
 /h /i /j /k /l /m /n /o
 /p /q /r /s /t /u /v /w
 /x /y /z /braceleft /bar /braceright /asciitilde /.notdef
 /Euro /.notdef /quotesinglbase /florin /quotedblbase /ellipsis /dagger /daggerdbl
 /circumflex /perthousand /Scaron /guilsinglleft /OE /.notdef /Zcaron /.notdef
 /.notdef /quoteleft /quoteright /quotedblleft /quotedblright /bullet /endash /emdash
 /tilde /trademark /scaron /guilsinglright /oe /.notdef /zcaron /Ydieresis
 /space /exclamdown /cent /sterling /currency /yen /brokenbar /section
 /dieresis /copyright /ordfeminine /guillemotleft /logicalnot /hyphen /registered /macron
 /degree /plusminus /twosuperior /threesuperior /acute /mu /paragraph /periodcentered
 /cedilla /onesuperior /ordmasculine /guillemotright /onequarter /onehalf /threequarters /questiondown
 /Agrave /Aacute /Acircumflex /Atilde /Adieresis /Aring /AE /Ccedilla
 /Egrave /Eacute /Ecircumflex /Edieresis /Igrave /Iacute /Icircumflex /Idieresis
 /Eth /Ntilde /Ograve /Oacute /Ocircumflex /Otilde /Odieresis /multiply
 /Oslash /Ugrave /Uacute /Ucircumflex /Udieresis /Yacute /Thorn /germandbls
 /agrave /aacute /acircumflex /atilde /adieresis /aring /ae /ccedilla
 /egrave /eacute /ecircumflex /edieresis /igrave /iacute /icircumflex /idieresis
 /eth /ntilde /ograve /oacute /ocircumflex /otilde /odieresis /divide
 /oslash /ugrave /uacute /ucircumflex /udieresis /yacute /thorn /ydieresis
]
 def
% end encoding
%%IncludeResource: font Helvetica
/Helvetica findfont
dup length dict begin
  {1 index /FID ne {def} {pop pop} ifelse} forall
  /Encoding WinAnsiEncoding def
  currentdict
  end
/Font1 exch definefont pop
%%IncludeResource: font Helvetica-Bold
/Helvetica-Bold findfont
dup length dict begin
  {1 index /FID ne {def} {pop pop} ifelse} forall
  /Encoding WinAnsiEncoding def
  currentdict
  end
/Font2 exch definefont pop
%%IncludeResource: font Helvetica-Oblique
/Helvetica-Oblique findfont
dup length dict begin
  {1 index /FID ne {def} {pop pop} ifelse} forall
  /Encoding WinAnsiEncoding def
  currentdict
  end
/Font3 exch definefont pop
%%IncludeResource: font Helvetica-BoldOblique
/Helvetica-BoldOblique findfont
dup length dict begin
  {1 index /FID ne {def} {pop pop} ifelse} forall
  /Encoding WinAnsiEncoding def
  currentdict
  end
/Font4 exch definefont pop
%%IncludeResource: font Symbol
/Symbol findfont
dup length dict begin
  {1 index /FID ne {def} {pop pop} ifelse} forall
  currentdict
  end
/Font5 exch definefont pop
%%EndProlog
%%Page: 1 1
bp
/bg { 1 1 1 srgb } def
0.00 0.00 525.00 525.00 r p2
59.04 73.44 232.26 465.96 cl
59.04 73.44 232.26 465.96 cl
0.00 0.00 525.00 525.00 cl
0 0 0 srgb
0.75 setlinewidth
[] 0 setdash
1 setlinecap
1 setlinejoin
10.00 setmiterlimit
np
65.46 73.44 m
152.75 0 l
o
np
65.46 73.44 m
0 -7.20 l
o
np
103.64 73.44 m
0 -7.20 l
o
np
141.83 73.44 m
0 -7.20 l
o
np
180.02 73.44 m
0 -7.20 l
o
np
218.21 73.44 m
0 -7.20 l
o
/Font1 findfont 16 s
65.46 47.52 (0) .5 0 t
103.64 47.52 (5) .5 0 t
141.83 47.52 (10) .5 0 t
180.02 47.52 (15) .5 0 t
218.21 47.52 (20) .5 0 t
np
59.04 87.98 m
0 363.44 l
o
np
59.04 87.98 m
-7.20 0 l
o
np
59.04 160.67 m
-7.20 0 l
o
np
59.04 233.36 m
-7.20 0 l
o
np
59.04 306.04 m
-7.20 0 l
o
np
59.04 378.73 m
-7.20 0 l
o
np
59.04 451.42 m
-7.20 0 l
o
41.76 87.98 (0) .5 90 t
41.76 160.67 (20) .5 90 t
41.76 233.36 (40) .5 90 t
41.76 306.04 (60) .5 90 t
41.76 378.73 (80) .5 90 t
41.76 451.42 (100) .5 90 t
np
59.04 73.44 m
173.22 0 l
0 392.52 l
-173.22 0 l
0 -392.52 l
o
0.00 0.00 262.50 525.00 cl
/Font2 findfont 19 s
0 0 0 srgb
145.65 488.66 (\(a\)) .5 0 t
/Font1 findfont 16 s
110.53 18.72 (Cell inde) 0 ta
-0.480 (x) tb gr
12.96 221.68 (P) 90 ta
-0.640 (ar) tb
0.640 (ticle inde) tb
-0.480 (x) tb gr
59.04 73.44 232.26 465.96 cl
0 0.6039 0.8039 srgb
0.60 setlinewidth
[] 0 setdash
1 setlinecap
1 setlinejoin
10.00 setmiterlimit
np
65.46 91.61 m
22.91 0 l
o
np
65.46 95.25 m
61.10 0 l
o
np
65.46 98.88 m
30.55 0 l
o
np
65.46 102.52 m
45.82 0 l
o
np
65.46 106.15 m
45.82 0 l
o
np
65.46 109.78 m
7.63 0 l
o
np
65.46 113.42 m
99.28 0 l
o
np
65.46 117.05 m
129.83 0 l
o
np
65.46 120.69 m
145.11 0 l
o
np
65.46 124.32 m
53.46 0 l
o
np
65.46 127.96 m
106.92 0 l
o
np
65.46 131.59 m
7.63 0 l
o
np
65.46 135.23 m
15.27 0 l
o
np
65.46 138.86 m
99.28 0 l
o
np
65.46 142.49 m
76.37 0 l
o
np
65.46 146.13 m
22.91 0 l
o
np
65.46 149.76 m
68.73 0 l
o
np
65.46 153.40 m
84.01 0 l
o
np
65.46 157.03 m
91.65 0 l
o
np
65.46 160.67 m
30.55 0 l
o
np
65.46 164.30 m
15.27 0 l
o
np
65.46 167.94 m
53.46 0 l
o
np
65.46 171.57 m
38.18 0 l
o
np
65.46 175.20 m
53.46 0 l
o
np
65.46 178.84 m
68.73 0 l
o
np
65.46 182.47 m
53.46 0 l
o
np
65.46 186.11 m
99.28 0 l
o
np
65.46 189.74 m
45.82 0 l
o
np
65.46 193.38 m
30.55 0 l
o
np
65.46 197.01 m
68.73 0 l
o
np
65.46 200.65 m
30.55 0 l
o
np
65.46 204.28 m
22.91 0 l
o
np
65.46 207.91 m
22.91 0 l
o
np
65.46 211.55 m
114.56 0 l
o
np
65.46 215.18 m
84.01 0 l
o
np
65.46 218.82 m
53.46 0 l
o
np
65.46 222.45 m
99.28 0 l
o
np
65.46 226.09 m
7.63 0 l
o
np
65.46 229.72 m
30.55 0 l
o
np
65.46 233.36 m
99.28 0 l
o
np
65.46 236.99 m
30.55 0 l
o
np
65.46 240.62 m
7.63 0 l
o
np
65.46 244.26 m
7.63 0 l
o
np
65.46 247.89 m
15.27 0 l
o
np
65.46 251.53 m
22.91 0 l
o
np
65.46 255.16 m
145.11 0 l
o
np
65.46 258.80 m
145.11 0 l
o
np
65.46 262.43 m
22.91 0 l
o
np
65.46 266.07 m
91.65 0 l
o
np
65.46 269.70 m
53.46 0 l
o
np
65.46 273.33 m
7.63 0 l
o
np
65.46 276.97 m
61.10 0 l
o
np
65.46 280.60 m
22.91 0 l
o
np
65.46 284.24 m
45.82 0 l
o
np
65.46 287.87 m
145.11 0 l
o
np
65.46 291.51 m
129.83 0 l
o
np
65.46 295.14 m
68.73 0 l
o
np
65.46 298.78 m
38.18 0 l
o
np
65.46 302.41 m
99.28 0 l
o
np
65.46 306.04 m
30.55 0 l
o
np
65.46 309.68 m
99.28 0 l
o
np
65.46 313.31 m
30.55 0 l
o
np
65.46 316.95 m
45.82 0 l
o
np
65.46 320.58 m
7.63 0 l
o
np
65.46 324.22 m
38.18 0 l
o
np
65.46 327.85 m
76.37 0 l
o
np
65.46 331.49 m
91.65 0 l
o
np
65.46 335.12 m
30.55 0 l
o
np
65.46 338.75 m
45.82 0 l
o
np
65.46 342.39 m
53.46 0 l
o
np
65.46 346.02 m
30.55 0 l
o
np
65.46 349.66 m
15.27 0 l
o
np
65.46 353.29 m
122.20 0 l
o
np
65.46 356.93 m
53.46 0 l
o
np
65.46 360.56 m
30.55 0 l
o
np
65.46 364.20 m
45.82 0 l
o
np
65.46 367.83 m
7.63 0 l
o
np
65.46 371.46 m
61.10 0 l
o
np
65.46 375.10 m
91.65 0 l
o
np
65.46 378.73 m
15.27 0 l
o
np
65.46 382.37 m
152.75 0 l
o
np
65.46 386.00 m
22.91 0 l
o
np
65.46 389.64 m
114.56 0 l
o
np
65.46 393.27 m
76.37 0 l
o
np
65.46 396.91 m
114.56 0 l
o
np
65.46 400.54 m
53.46 0 l
o
np
65.46 404.17 m
76.37 0 l
o
np
65.46 407.81 m
76.37 0 l
o
np
65.46 411.44 m
22.91 0 l
o
np
65.46 415.08 m
137.47 0 l
o
np
65.46 418.71 m
61.10 0 l
o
np
65.46 422.35 m
68.73 0 l
o
np
65.46 425.98 m
45.82 0 l
o
np
65.46 429.62 m
7.63 0 l
o
np
65.46 433.25 m
129.83 0 l
o
np
65.46 436.88 m
45.82 0 l
o
np
65.46 440.52 m
15.27 0 l
o
np
65.46 444.15 m
38.18 0 l
o
np
65.46 447.79 m
145.11 0 l
o
np
65.46 451.42 m
53.46 0 l
o
321.54 73.44 494.76 465.96 cl
321.54 73.44 494.76 465.96 cl
0.00 0.00 525.00 525.00 cl
0 0 0 srgb
0.75 setlinewidth
[] 0 setdash
1 setlinecap
1 setlinejoin
10.00 setmiterlimit
np
327.96 73.44 m
152.75 0 l
o
np
327.96 73.44 m
0 -7.20 l
o
np
366.14 73.44 m
0 -7.20 l
o
np
404.33 73.44 m
0 -7.20 l
o
np
442.52 73.44 m
0 -7.20 l
o
np
480.71 73.44 m
0 -7.20 l
o
/Font1 findfont 16 s
327.96 47.52 (0) .5 0 t
366.14 47.52 (5) .5 0 t
404.33 47.52 (10) .5 0 t
442.52 47.52 (15) .5 0 t
480.71 47.52 (20) .5 0 t
np
321.54 87.98 m
0 363.44 l
o
np
321.54 87.98 m
-7.20 0 l
o
np
321.54 160.67 m
-7.20 0 l
o
np
321.54 233.36 m
-7.20 0 l
o
np
321.54 306.04 m
-7.20 0 l
o
np
321.54 378.73 m
-7.20 0 l
o
np
321.54 451.42 m
-7.20 0 l
o
304.26 87.98 (0) .5 90 t
304.26 160.67 (20) .5 90 t
304.26 233.36 (40) .5 90 t
304.26 306.04 (60) .5 90 t
304.26 378.73 (80) .5 90 t
304.26 451.42 (100) .5 90 t
np
321.54 73.44 m
173.22 0 l
0 392.52 l
-173.22 0 l
0 -392.52 l
o
262.50 0.00 525.00 525.00 cl
/Font2 findfont 19 s
0 0 0 srgb
408.15 488.66 (\(b\)) .5 0 t
/Font1 findfont 16 s
373.03 18.72 (Cell inde) 0 ta
-0.480 (x) tb gr
275.46 221.24 (P) 90 ta
-0.640 (ar) tb
0.640 (ticle Inde) tb
-0.480 (x) tb gr
321.54 73.44 494.76 465.96 cl
0 0.6039 0.8039 srgb
0.60 setlinewidth
[] 0 setdash
1 setlinecap
1 setlinejoin
10.00 setmiterlimit
np
327.96 91.61 m
152.75 0 l
o
np
327.96 95.25 m
145.11 0 l
o
np
327.96 98.88 m
145.11 0 l
o
np
327.96 102.52 m
145.11 0 l
o
np
327.96 106.15 m
145.11 0 l
o
np
327.96 109.78 m
145.11 0 l
o
np
327.96 113.42 m
137.47 0 l
o
np
327.96 117.05 m
129.83 0 l
o
np
327.96 120.69 m
129.83 0 l
o
np
327.96 124.32 m
129.83 0 l
o
np
327.96 127.96 m
122.20 0 l
o
np
327.96 131.59 m
114.56 0 l
o
np
327.96 135.23 m
114.56 0 l
o
np
327.96 138.86 m
114.56 0 l
o
np
327.96 142.49 m
106.92 0 l
o
np
327.96 146.13 m
99.28 0 l
o
np
327.96 149.76 m
99.28 0 l
o
np
327.96 153.40 m
99.28 0 l
o
np
327.96 157.03 m
99.28 0 l
o
np
327.96 160.67 m
99.28 0 l
o
np
327.96 164.30 m
99.28 0 l
o
np
327.96 167.94 m
99.28 0 l
o
np
327.96 171.57 m
91.65 0 l
o
np
327.96 175.20 m
91.65 0 l
o
np
327.96 178.84 m
91.65 0 l
o
np
327.96 182.47 m
91.65 0 l
o
np
327.96 186.11 m
84.01 0 l
o
np
327.96 189.74 m
84.01 0 l
o
np
327.96 193.38 m
76.37 0 l
o
np
327.96 197.01 m
76.37 0 l
o
np
327.96 200.65 m
76.37 0 l
o
np
327.96 204.28 m
76.37 0 l
o
np
327.96 207.91 m
76.37 0 l
o
np
327.96 211.55 m
68.73 0 l
o
np
327.96 215.18 m
68.73 0 l
o
np
327.96 218.82 m
68.73 0 l
o
np
327.96 222.45 m
68.73 0 l
o
np
327.96 226.09 m
68.73 0 l
o
np
327.96 229.72 m
61.10 0 l
o
np
327.96 233.36 m
61.10 0 l
o
np
327.96 236.99 m
61.10 0 l
o
np
327.96 240.62 m
61.10 0 l
o
np
327.96 244.26 m
53.46 0 l
o
np
327.96 247.89 m
53.46 0 l
o
np
327.96 251.53 m
53.46 0 l
o
np
327.96 255.16 m
53.46 0 l
o
np
327.96 258.80 m
53.46 0 l
o
np
327.96 262.43 m
53.46 0 l
o
np
327.96 266.07 m
53.46 0 l
o
np
327.96 269.70 m
53.46 0 l
o
np
327.96 273.33 m
53.46 0 l
o
np
327.96 276.97 m
53.46 0 l
o
np
327.96 280.60 m
45.82 0 l
o
np
327.96 284.24 m
45.82 0 l
o
np
327.96 287.87 m
45.82 0 l
o
np
327.96 291.51 m
45.82 0 l
o
np
327.96 295.14 m
45.82 0 l
o
np
327.96 298.78 m
45.82 0 l
o
np
327.96 302.41 m
45.82 0 l
o
np
327.96 306.04 m
45.82 0 l
o
np
327.96 309.68 m
45.82 0 l
o
np
327.96 313.31 m
38.18 0 l
o
np
327.96 316.95 m
38.18 0 l
o
np
327.96 320.58 m
38.18 0 l
o
np
327.96 324.22 m
38.18 0 l
o
np
327.96 327.85 m
30.55 0 l
o
np
327.96 331.49 m
30.55 0 l
o
np
327.96 335.12 m
30.55 0 l
o
np
327.96 338.75 m
30.55 0 l
o
np
327.96 342.39 m
30.55 0 l
o
np
327.96 346.02 m
30.55 0 l
o
np
327.96 349.66 m
30.55 0 l
o
np
327.96 353.29 m
30.55 0 l
o
np
327.96 356.93 m
30.55 0 l
o
np
327.96 360.56 m
30.55 0 l
o
np
327.96 364.20 m
30.55 0 l
o
np
327.96 367.83 m
22.91 0 l
o
np
327.96 371.46 m
22.91 0 l
o
np
327.96 375.10 m
22.91 0 l
o
np
327.96 378.73 m
22.91 0 l
o
np
327.96 382.37 m
22.91 0 l
o
np
327.96 386.00 m
22.91 0 l
o
np
327.96 389.64 m
22.91 0 l
o
np
327.96 393.27 m
22.91 0 l
o
np
327.96 396.91 m
22.91 0 l
o
np
327.96 400.54 m
15.27 0 l
o
np
327.96 404.17 m
15.27 0 l
o
np
327.96 407.81 m
15.27 0 l
o
np
327.96 411.44 m
15.27 0 l
o
np
327.96 415.08 m
15.27 0 l
o
np
327.96 418.71 m
15.27 0 l
o
np
327.96 422.35 m
7.63 0 l
o
np
327.96 425.98 m
7.63 0 l
o
np
327.96 429.62 m
7.63 0 l
o
np
327.96 433.25 m
7.63 0 l
o
np
327.96 436.88 m
7.63 0 l
o
np
327.96 440.52 m
7.63 0 l
o
np
327.96 444.15 m
7.63 0 l
o
np
327.96 447.79 m
7.63 0 l
o
np
327.96 451.42 m
7.63 0 l
o
0 0 1 srgb
0.75 setlinewidth
[] 0 setdash
np
325.28 451.42 m
5.35 0 l
o
np
327.96 448.75 m
0 5.35 l
o
np
332.92 422.45 m
5.35 0 l
o
np
335.59 419.78 m
0 5.34 l
o
np
340.56 393.77 m
5.34 0 l
o
np
343.23 391.09 m
0 5.35 l
o
np
348.20 365.64 m
5.34 0 l
o
np
350.87 362.97 m
0 5.34 l
o
np
355.83 338.34 m
5.35 0 l
o
np
358.51 335.66 m
0 5.35 l
o
np
363.47 312.08 m
5.35 0 l
o
np
366.14 309.41 m
0 5.35 l
o
np
371.11 287.09 m
5.34 0 l
o
np
373.78 284.41 m
0 5.35 l
o
np
378.75 263.51 m
5.34 0 l
o
np
381.42 260.84 m
0 5.34 l
o
np
386.38 241.47 m
5.35 0 l
o
np
389.06 238.80 m
0 5.35 l
o
np
394.02 221.07 m
5.35 0 l
o
np
396.69 218.39 m
0 5.35 l
o
np
401.66 202.32 m
5.34 0 l
o
np
404.33 199.65 m
0 5.34 l
o
np
409.30 185.24 m
5.34 0 l
o
np
411.97 182.56 m
0 5.35 l
o
np
416.93 169.76 m
5.35 0 l
o
np
419.61 167.09 m
0 5.35 l
o
np
424.57 155.82 m
5.35 0 l
o
np
427.24 153.15 m
0 5.34 l
o
np
432.21 143.29 m
5.34 0 l
o
np
434.88 140.62 m
0 5.34 l
o
np
439.85 132.03 m
5.34 0 l
o
np
442.52 129.35 m
0 5.35 l
o
np
447.48 121.85 m
5.35 0 l
o
np
450.16 119.18 m
0 5.34 l
o
np
455.12 112.58 m
5.35 0 l
o
np
457.79 109.90 m
0 5.35 l
o
np
462.76 103.99 m
5.34 0 l
o
np
465.43 101.32 m
0 5.34 l
o
np
470.40 95.87 m
5.34 0 l
o
np
473.07 93.19 m
0 5.35 l
o
0 0.6039 0.8039 srgb
np
372.05 446.87 m
25.37 0 l
o
0 0 1 srgb
np
381.30 427.79 m
6.87 0 l
o
np
384.74 424.35 m
0 6.87 l
o
/Font1 findfont 14 s
0 0 0 srgb
410.11 441.85 (P) 0 ta
-0.560 (ar) tb
0.560 (ticle P) tb
-0.560 (ath) tb gr
410.11 422.76 (Analytical) 0 0 t
/Font1 findfont 13 s
419.61 301.60 (t =  0.125) .5 0 t
ep
%%Trailer
%%Pages: 1
%%EOF
