%!PS-Adobe-3.0 EPSF-3.0
%%DocumentNeededResources: font Helvetica
%%+ font Helvetica-Bold
%%+ font Helvetica-Oblique
%%+ font Helvetica-BoldOblique
%%+ font Symbol
%%Title: R Graphics Output
%%Creator: R Software
%%Pages: (atend)
%%BoundingBox: 0 0 450 413
%%EndComments
%%BeginProlog
/bp  { gs sRGB gs } def
% begin .ps.prolog
/gs  { gsave } bind def
/gr  { grestore } bind def
/ep  { showpage gr gr } bind def
/m   { moveto } bind def
/l  { rlineto } bind def
/np  { newpath } bind def
/cp  { closepath } bind def
/f   { fill } bind def
/o   { stroke } bind def
/c   { newpath 0 360 arc } bind def
/r   { 4 2 roll moveto 1 copy 3 -1 roll exch 0 exch rlineto 0 rlineto -1 mul 0 exch rlineto closepath } bind def
/p1  { stroke } bind def
/p2  { gsave bg fill grestore newpath } bind def
/p3  { gsave bg fill grestore stroke } bind def
/p6  { gsave bg eofill grestore newpath } bind def
/p7  { gsave bg eofill grestore stroke } bind def
/t   { 5 -2 roll moveto gsave rotate
       1 index stringwidth pop
       mul neg 0 rmoveto show grestore } bind def
/ta  { 4 -2 roll moveto gsave rotate show } bind def
/tb  { 2 -1 roll 0 rmoveto show } bind def
/cl  { grestore gsave newpath 3 index 3 index moveto 1 index
       4 -1 roll lineto  exch 1 index lineto lineto
       closepath clip newpath } bind def
/rgb { setrgbcolor } bind def
/s   { scalefont setfont } bind def
% end   .ps.prolog
/sRGB { [ /CIEBasedABC
          << /DecodeLMN
               [ { dup 0.03928 le
                        {12.92321 div}
                        {0.055 add 1.055 div 2.4 exp }
                     ifelse
                 } bind dup dup
               ]
             /MatrixLMN [0.412457 0.212673 0.019334
                         0.357576 0.715152 0.119192
                         0.180437 0.072175 0.950301]
             /WhitePoint [0.9505 1.0 1.0890]
           >>
         ] setcolorspace } bind def
/srgb { setcolor } bind def
% begin encoding
/WinAnsiEncoding [
 /.notdef /.notdef /.notdef /.notdef /.notdef /.notdef /.notdef /.notdef
 /.notdef /.notdef /.notdef /.notdef /.notdef /.notdef /.notdef /.notdef
 /.notdef /.notdef /.notdef /.notdef /.notdef /.notdef /.notdef /.notdef
 /.notdef /.notdef /.notdef /.notdef /.notdef /.notdef /.notdef /.notdef
 /space /exclam /quotedbl /numbersign /dollar /percent /ampersand /quoteright
 /parenleft /parenright /asterisk /plus /comma /minus /period /slash
 /zero /one /two /three /four /five /six /seven
 /eight /nine /colon /semicolon /less /equal /greater /question
 /at /A /B /C /D /E /F /G
 /H /I /J /K /L /M /N /O
 /P /Q /R /S /T /U /V /W
 /X /Y /Z /bracketleft /backslash /bracketright /asciicircum /underscore
 /grave /a /b /c /d /e /f /g
 /h /i /j /k /l /m /n /o
 /p /q /r /s /t /u /v /w
 /x /y /z /braceleft /bar /braceright /asciitilde /.notdef
 /Euro /.notdef /quotesinglbase /florin /quotedblbase /ellipsis /dagger /daggerdbl
 /circumflex /perthousand /Scaron /guilsinglleft /OE /.notdef /Zcaron /.notdef
 /.notdef /quoteleft /quoteright /quotedblleft /quotedblright /bullet /endash /emdash
 /tilde /trademark /scaron /guilsinglright /oe /.notdef /zcaron /Ydieresis
 /space /exclamdown /cent /sterling /currency /yen /brokenbar /section
 /dieresis /copyright /ordfeminine /guillemotleft /logicalnot /hyphen /registered /macron
 /degree /plusminus /twosuperior /threesuperior /acute /mu /paragraph /periodcentered
 /cedilla /onesuperior /ordmasculine /guillemotright /onequarter /onehalf /threequarters /questiondown
 /Agrave /Aacute /Acircumflex /Atilde /Adieresis /Aring /AE /Ccedilla
 /Egrave /Eacute /Ecircumflex /Edieresis /Igrave /Iacute /Icircumflex /Idieresis
 /Eth /Ntilde /Ograve /Oacute /Ocircumflex /Otilde /Odieresis /multiply
 /Oslash /Ugrave /Uacute /Ucircumflex /Udieresis /Yacute /Thorn /germandbls
 /agrave /aacute /acircumflex /atilde /adieresis /aring /ae /ccedilla
 /egrave /eacute /ecircumflex /edieresis /igrave /iacute /icircumflex /idieresis
 /eth /ntilde /ograve /oacute /ocircumflex /otilde /odieresis /divide
 /oslash /ugrave /uacute /ucircumflex /udieresis /yacute /thorn /ydieresis
]
 def
% end encoding
%%IncludeResource: font Helvetica
/Helvetica findfont
dup length dict begin
  {1 index /FID ne {def} {pop pop} ifelse} forall
  /Encoding WinAnsiEncoding def
  currentdict
  end
/Font1 exch definefont pop
%%IncludeResource: font Helvetica-Bold
/Helvetica-Bold findfont
dup length dict begin
  {1 index /FID ne {def} {pop pop} ifelse} forall
  /Encoding WinAnsiEncoding def
  currentdict
  end
/Font2 exch definefont pop
%%IncludeResource: font Helvetica-Oblique
/Helvetica-Oblique findfont
dup length dict begin
  {1 index /FID ne {def} {pop pop} ifelse} forall
  /Encoding WinAnsiEncoding def
  currentdict
  end
/Font3 exch definefont pop
%%IncludeResource: font Helvetica-BoldOblique
/Helvetica-BoldOblique findfont
dup length dict begin
  {1 index /FID ne {def} {pop pop} ifelse} forall
  /Encoding WinAnsiEncoding def
  currentdict
  end
/Font4 exch definefont pop
%%IncludeResource: font Symbol
/Symbol findfont
dup length dict begin
  {1 index /FID ne {def} {pop pop} ifelse} forall
  currentdict
  end
/Font5 exch definefont pop
%%EndProlog
%%Page: 1 1
bp
/bg { 1 1 1 srgb } def
0.00 0.00 450.00 412.50 r p2
59.04 73.44 194.76 353.46 cl
59.04 73.44 194.76 353.46 cl
0.00 0.00 450.00 412.50 cl
0 0 0 srgb
0.75 setlinewidth
[] 0 setdash
1 setlinecap
1 setlinejoin
10.00 setmiterlimit
np
64.07 73.44 m
119.68 0 l
o
np
64.07 73.44 m
0 -7.20 l
o
np
93.99 73.44 m
0 -7.20 l
o
np
123.91 73.44 m
0 -7.20 l
o
np
153.83 73.44 m
0 -7.20 l
o
np
183.75 73.44 m
0 -7.20 l
o
/Font1 findfont 16 s
64.07 47.52 (0) .5 0 t
93.99 47.52 (5) .5 0 t
123.91 47.52 (10) .5 0 t
183.75 47.52 (20) .5 0 t
np
59.04 83.81 m
0 259.28 l
o
np
59.04 83.81 m
-7.20 0 l
o
np
59.04 135.67 m
-7.20 0 l
o
np
59.04 187.52 m
-7.20 0 l
o
np
59.04 239.38 m
-7.20 0 l
o
np
59.04 291.23 m
-7.20 0 l
o
np
59.04 343.09 m
-7.20 0 l
o
41.76 83.81 (0) .5 90 t
41.76 135.67 (20) .5 90 t
41.76 187.52 (40) .5 90 t
41.76 239.38 (60) .5 90 t
41.76 291.23 (80) .5 90 t
41.76 343.09 (100) .5 90 t
np
59.04 73.44 m
135.72 0 l
0 280.02 l
-135.72 0 l
0 -280.02 l
o
0.00 0.00 225.00 412.50 cl
/Font2 findfont 19 s
0 0 0 srgb
126.90 376.16 (\(a\)) .5 0 t
/Font1 findfont 16 s
91.78 18.72 (Cell inde) 0 ta
-0.480 (x) tb gr
12.96 165.43 (P) 90 ta
-0.640 (ar) tb
0.640 (ticle inde) tb
-0.480 (x) tb gr
59.04 73.44 194.76 353.46 cl
0 0.6039 0.8039 srgb
0.60 setlinewidth
[] 0 setdash
1 setlinecap
1 setlinejoin
10.00 setmiterlimit
np
64.07 86.40 m
23.93 0 l
o
np
64.07 89.00 m
5.98 0 l
o
np
64.07 91.59 m
11.96 0 l
o
np
64.07 94.18 m
29.92 0 l
o
np
64.07 96.78 m
11.96 0 l
o
np
64.07 99.37 m
47.87 0 l
o
np
64.07 101.96 m
41.89 0 l
o
np
64.07 104.55 m
29.92 0 l
o
np
64.07 107.15 m
41.89 0 l
o
np
64.07 109.74 m
35.90 0 l
o
np
64.07 112.33 m
23.93 0 l
o
np
64.07 114.92 m
17.95 0 l
o
np
64.07 117.52 m
5.98 0 l
o
np
64.07 120.11 m
47.87 0 l
o
np
64.07 122.70 m
11.96 0 l
o
np
64.07 125.30 m
29.92 0 l
o
np
64.07 127.89 m
29.92 0 l
o
np
64.07 130.48 m
83.77 0 l
o
np
64.07 133.07 m
11.96 0 l
o
np
64.07 135.67 m
17.95 0 l
o
np
64.07 138.26 m
29.92 0 l
o
np
64.07 140.85 m
53.85 0 l
o
np
64.07 143.45 m
5.98 0 l
o
np
64.07 146.04 m
5.98 0 l
o
np
64.07 148.63 m
11.96 0 l
o
np
64.07 151.22 m
17.95 0 l
o
np
64.07 153.82 m
29.92 0 l
o
np
64.07 156.41 m
23.93 0 l
o
np
64.07 159.00 m
11.96 0 l
o
np
64.07 161.59 m
11.96 0 l
o
np
64.07 164.19 m
5.98 0 l
o
np
64.07 166.78 m
83.77 0 l
o
np
64.07 169.37 m
5.98 0 l
o
np
64.07 171.97 m
11.96 0 l
o
np
64.07 174.56 m
5.98 0 l
o
np
64.07 177.15 m
35.90 0 l
o
np
64.07 179.74 m
29.92 0 l
o
np
64.07 182.34 m
11.96 0 l
o
np
64.07 184.93 m
41.89 0 l
o
np
64.07 187.52 m
11.96 0 l
o
np
64.07 190.12 m
11.96 0 l
o
np
64.07 192.71 m
47.87 0 l
o
np
64.07 195.30 m
29.92 0 l
o
np
64.07 197.89 m
23.93 0 l
o
np
64.07 200.49 m
53.85 0 l
o
np
64.07 203.08 m
17.95 0 l
o
np
64.07 205.67 m
17.95 0 l
o
np
64.07 208.26 m
23.93 0 l
o
np
64.07 210.86 m
5.98 0 l
o
np
64.07 213.45 m
17.95 0 l
o
np
64.07 216.04 m
5.98 0 l
o
np
64.07 218.64 m
41.89 0 l
o
np
64.07 221.23 m
35.90 0 l
o
np
64.07 223.82 m
53.85 0 l
o
np
64.07 226.41 m
23.93 0 l
o
np
64.07 229.01 m
41.89 0 l
o
np
64.07 231.60 m
29.92 0 l
o
np
64.07 234.19 m
5.98 0 l
o
np
64.07 236.79 m
5.98 0 l
o
np
64.07 239.38 m
35.90 0 l
o
np
64.07 241.97 m
17.95 0 l
o
np
64.07 244.56 m
41.89 0 l
o
np
64.07 247.16 m
5.98 0 l
o
np
64.07 249.75 m
35.90 0 l
o
np
64.07 252.34 m
29.92 0 l
o
np
64.07 254.93 m
65.82 0 l
o
np
64.07 257.53 m
29.92 0 l
o
np
64.07 260.12 m
17.95 0 l
o
np
64.07 262.71 m
11.96 0 l
o
np
64.07 265.31 m
11.96 0 l
o
np
64.07 267.90 m
11.96 0 l
o
np
64.07 270.49 m
41.89 0 l
o
np
64.07 273.08 m
41.89 0 l
o
np
64.07 275.68 m
17.95 0 l
o
np
64.07 278.27 m
53.85 0 l
o
np
64.07 280.86 m
35.90 0 l
o
np
64.07 283.46 m
5.98 0 l
o
np
64.07 286.05 m
35.90 0 l
o
np
64.07 288.64 m
5.98 0 l
o
np
64.07 291.23 m
11.96 0 l
o
np
64.07 293.83 m
11.96 0 l
o
np
64.07 296.42 m
11.96 0 l
o
np
64.07 299.01 m
35.90 0 l
o
np
64.07 301.60 m
11.96 0 l
o
np
64.07 304.20 m
23.93 0 l
o
np
64.07 306.79 m
77.79 0 l
o
np
64.07 309.38 m
41.89 0 l
o
np
64.07 311.98 m
23.93 0 l
o
np
64.07 314.57 m
11.96 0 l
o
np
64.07 317.16 m
17.95 0 l
o
np
64.07 319.75 m
65.82 0 l
o
np
64.07 322.35 m
65.82 0 l
o
np
64.07 324.94 m
35.90 0 l
o
np
64.07 327.53 m
41.89 0 l
o
np
64.07 330.13 m
47.87 0 l
o
np
64.07 332.72 m
53.85 0 l
o
np
64.07 335.31 m
35.90 0 l
o
np
64.07 337.90 m
17.95 0 l
o
np
64.07 340.50 m
65.82 0 l
o
np
64.07 343.09 m
23.93 0 l
o
284.04 73.44 419.76 353.46 cl
284.04 73.44 419.76 353.46 cl
0.00 0.00 450.00 412.50 cl
0 0 0 srgb
0.75 setlinewidth
[] 0 setdash
1 setlinecap
1 setlinejoin
10.00 setmiterlimit
np
289.07 73.44 m
119.68 0 l
o
np
289.07 73.44 m
0 -7.20 l
o
np
318.99 73.44 m
0 -7.20 l
o
np
348.91 73.44 m
0 -7.20 l
o
np
378.83 73.44 m
0 -7.20 l
o
np
408.75 73.44 m
0 -7.20 l
o
/Font1 findfont 16 s
289.07 47.52 (0) .5 0 t
318.99 47.52 (5) .5 0 t
348.91 47.52 (10) .5 0 t
408.75 47.52 (20) .5 0 t
np
284.04 83.81 m
0 259.28 l
o
np
284.04 83.81 m
-7.20 0 l
o
np
284.04 135.67 m
-7.20 0 l
o
np
284.04 187.52 m
-7.20 0 l
o
np
284.04 239.38 m
-7.20 0 l
o
np
284.04 291.23 m
-7.20 0 l
o
np
284.04 343.09 m
-7.20 0 l
o
266.76 83.81 (0) .5 90 t
266.76 135.67 (20) .5 90 t
266.76 187.52 (40) .5 90 t
266.76 239.38 (60) .5 90 t
266.76 291.23 (80) .5 90 t
266.76 343.09 (100) .5 90 t
np
284.04 73.44 m
135.72 0 l
0 280.02 l
-135.72 0 l
0 -280.02 l
o
225.00 0.00 450.00 412.50 cl
/Font2 findfont 19 s
0 0 0 srgb
351.90 376.16 (\(b\)) .5 0 t
/Font1 findfont 16 s
316.78 18.72 (Cell inde) 0 ta
-0.480 (x) tb gr
237.96 164.99 (P) 90 ta
-0.640 (ar) tb
0.640 (ticle Inde) tb
-0.480 (x) tb gr
284.04 73.44 419.76 353.46 cl
0 0.6039 0.8039 srgb
0.60 setlinewidth
[] 0 setdash
1 setlinecap
1 setlinejoin
10.00 setmiterlimit
np
289.07 86.40 m
83.77 0 l
o
np
289.07 89.00 m
83.77 0 l
o
np
289.07 91.59 m
77.79 0 l
o
np
289.07 94.18 m
65.82 0 l
o
np
289.07 96.78 m
65.82 0 l
o
np
289.07 99.37 m
65.82 0 l
o
np
289.07 101.96 m
65.82 0 l
o
np
289.07 104.55 m
53.85 0 l
o
np
289.07 107.15 m
53.85 0 l
o
np
289.07 109.74 m
53.85 0 l
o
np
289.07 112.33 m
53.85 0 l
o
np
289.07 114.92 m
53.85 0 l
o
np
289.07 117.52 m
47.87 0 l
o
np
289.07 120.11 m
47.87 0 l
o
np
289.07 122.70 m
47.87 0 l
o
np
289.07 125.30 m
47.87 0 l
o
np
289.07 127.89 m
41.89 0 l
o
np
289.07 130.48 m
41.89 0 l
o
np
289.07 133.07 m
41.89 0 l
o
np
289.07 135.67 m
41.89 0 l
o
np
289.07 138.26 m
41.89 0 l
o
np
289.07 140.85 m
41.89 0 l
o
np
289.07 143.45 m
41.89 0 l
o
np
289.07 146.04 m
41.89 0 l
o
np
289.07 148.63 m
41.89 0 l
o
np
289.07 151.22 m
41.89 0 l
o
np
289.07 153.82 m
35.90 0 l
o
np
289.07 156.41 m
35.90 0 l
o
np
289.07 159.00 m
35.90 0 l
o
np
289.07 161.59 m
35.90 0 l
o
np
289.07 164.19 m
35.90 0 l
o
np
289.07 166.78 m
35.90 0 l
o
np
289.07 169.37 m
35.90 0 l
o
np
289.07 171.97 m
35.90 0 l
o
np
289.07 174.56 m
35.90 0 l
o
np
289.07 177.15 m
35.90 0 l
o
np
289.07 179.74 m
29.92 0 l
o
np
289.07 182.34 m
29.92 0 l
o
np
289.07 184.93 m
29.92 0 l
o
np
289.07 187.52 m
29.92 0 l
o
np
289.07 190.12 m
29.92 0 l
o
np
289.07 192.71 m
29.92 0 l
o
np
289.07 195.30 m
29.92 0 l
o
np
289.07 197.89 m
29.92 0 l
o
np
289.07 200.49 m
29.92 0 l
o
np
289.07 203.08 m
29.92 0 l
o
np
289.07 205.67 m
29.92 0 l
o
np
289.07 208.26 m
23.93 0 l
o
np
289.07 210.86 m
23.93 0 l
o
np
289.07 213.45 m
23.93 0 l
o
np
289.07 216.04 m
23.93 0 l
o
np
289.07 218.64 m
23.93 0 l
o
np
289.07 221.23 m
23.93 0 l
o
np
289.07 223.82 m
23.93 0 l
o
np
289.07 226.41 m
23.93 0 l
o
np
289.07 229.01 m
23.93 0 l
o
np
289.07 231.60 m
17.95 0 l
o
np
289.07 234.19 m
17.95 0 l
o
np
289.07 236.79 m
17.95 0 l
o
np
289.07 239.38 m
17.95 0 l
o
np
289.07 241.97 m
17.95 0 l
o
np
289.07 244.56 m
17.95 0 l
o
np
289.07 247.16 m
17.95 0 l
o
np
289.07 249.75 m
17.95 0 l
o
np
289.07 252.34 m
17.95 0 l
o
np
289.07 254.93 m
17.95 0 l
o
np
289.07 257.53 m
17.95 0 l
o
np
289.07 260.12 m
11.96 0 l
o
np
289.07 262.71 m
11.96 0 l
o
np
289.07 265.31 m
11.96 0 l
o
np
289.07 267.90 m
11.96 0 l
o
np
289.07 270.49 m
11.96 0 l
o
np
289.07 273.08 m
11.96 0 l
o
np
289.07 275.68 m
11.96 0 l
o
np
289.07 278.27 m
11.96 0 l
o
np
289.07 280.86 m
11.96 0 l
o
np
289.07 283.46 m
11.96 0 l
o
np
289.07 286.05 m
11.96 0 l
o
np
289.07 288.64 m
11.96 0 l
o
np
289.07 291.23 m
11.96 0 l
o
np
289.07 293.83 m
11.96 0 l
o
np
289.07 296.42 m
11.96 0 l
o
np
289.07 299.01 m
11.96 0 l
o
np
289.07 301.60 m
11.96 0 l
o
np
289.07 304.20 m
11.96 0 l
o
np
289.07 306.79 m
11.96 0 l
o
np
289.07 309.38 m
5.98 0 l
o
np
289.07 311.98 m
5.98 0 l
o
np
289.07 314.57 m
5.98 0 l
o
np
289.07 317.16 m
5.98 0 l
o
np
289.07 319.75 m
5.98 0 l
o
np
289.07 322.35 m
5.98 0 l
o
np
289.07 324.94 m
5.98 0 l
o
np
289.07 327.53 m
5.98 0 l
o
np
289.07 330.13 m
5.98 0 l
o
np
289.07 332.72 m
5.98 0 l
o
np
289.07 335.31 m
5.98 0 l
o
np
289.07 337.90 m
5.98 0 l
o
np
289.07 340.50 m
5.98 0 l
o
np
289.07 343.09 m
5.98 0 l
o
1 0 0 srgb
1.50 setlinewidth
[] 0 setdash
np
289.07 343.09 m
5.98 0 l
o
np
295.05 301.99 m
5.98 0 l
o
np
301.03 262.49 m
5.99 0 l
o
np
307.02 226.03 m
5.98 0 l
o
np
313.00 193.67 m
5.99 0 l
o
np
318.99 166.08 m
5.98 0 l
o
np
324.97 143.48 m
5.99 0 l
o
np
330.96 125.69 m
5.98 0 l
o
np
336.94 112.23 m
5.98 0 l
o
np
342.92 102.44 m
5.99 0 l
o
np
348.91 95.61 m
5.98 0 l
o
np
354.89 91.02 m
5.99 0 l
o
np
360.88 88.06 m
5.98 0 l
o
np
366.86 86.23 m
5.98 0 l
o
np
372.84 85.14 m
5.99 0 l
o
np
378.83 84.51 m
5.98 0 l
o
np
384.81 84.17 m
5.99 0 l
o
np
390.80 83.98 m
5.98 0 l
o
np
396.78 83.89 m
5.99 0 l
o
np
402.77 83.84 m
5.98 0 l
o
0 0.6039 0.8039 srgb
0.75 setlinewidth
[] 0 setdash
np
367.45 345.90 m
11.05 0 l
o
1 0 0 srgb
0.75 setlinewidth
[ 4.50 3.00] 0 setdash
np
367.45 338.33 m
11.05 0 l
o
/Font1 findfont 8 s
0 0 0 srgb
384.02 343.02 (P) 0 ta
-0.320 (ar) tb
0.320 (ticle P) tb
-0.320 (ath) tb gr
384.02 335.46 (Theor) 0 ta
0.240 (y) tb gr
/Font1 findfont 10 s
360.88 235.96 (t =  0.03125) .5 0 t
ep
%%Trailer
%%Pages: 1
%%EOF
