%!PS-Adobe-3.0 EPSF-3.0
%%DocumentNeededResources: font Helvetica
%%+ font Helvetica-Bold
%%+ font Helvetica-Oblique
%%+ font Helvetica-BoldOblique
%%+ font Symbol
%%Title: R Graphics Output
%%Creator: R Software
%%Pages: (atend)
%%BoundingBox: 0 0 567 382
%%EndComments
%%BeginProlog
/bp  { gs sRGB gs } def
% begin .ps.prolog
/gs  { gsave } bind def
/gr  { grestore } bind def
/ep  { showpage gr gr } bind def
/m   { moveto } bind def
/l  { rlineto } bind def
/np  { newpath } bind def
/cp  { closepath } bind def
/f   { fill } bind def
/o   { stroke } bind def
/c   { newpath 0 360 arc } bind def
/r   { 4 2 roll moveto 1 copy 3 -1 roll exch 0 exch rlineto 0 rlineto -1 mul 0 exch rlineto closepath } bind def
/p1  { stroke } bind def
/p2  { gsave bg fill grestore newpath } bind def
/p3  { gsave bg fill grestore stroke } bind def
/p6  { gsave bg eofill grestore newpath } bind def
/p7  { gsave bg eofill grestore stroke } bind def
/t   { 5 -2 roll moveto gsave rotate
       1 index stringwidth pop
       mul neg 0 rmoveto show grestore } bind def
/ta  { 4 -2 roll moveto gsave rotate show } bind def
/tb  { 2 -1 roll 0 rmoveto show } bind def
/cl  { grestore gsave newpath 3 index 3 index moveto 1 index
       4 -1 roll lineto  exch 1 index lineto lineto
       closepath clip newpath } bind def
/rgb { setrgbcolor } bind def
/s   { scalefont setfont } bind def
% end   .ps.prolog
/sRGB { [ /CIEBasedABC
          << /DecodeLMN
               [ { dup 0.03928 le
                        {12.92321 div}
                        {0.055 add 1.055 div 2.4 exp }
                     ifelse
                 } bind dup dup
               ]
             /MatrixLMN [0.412457 0.212673 0.019334
                         0.357576 0.715152 0.119192
                         0.180437 0.072175 0.950301]
             /WhitePoint [0.9505 1.0 1.0890]
           >>
         ] setcolorspace } bind def
/srgb { setcolor } bind def
% begin encoding
/WinAnsiEncoding [
 /.notdef /.notdef /.notdef /.notdef /.notdef /.notdef /.notdef /.notdef
 /.notdef /.notdef /.notdef /.notdef /.notdef /.notdef /.notdef /.notdef
 /.notdef /.notdef /.notdef /.notdef /.notdef /.notdef /.notdef /.notdef
 /.notdef /.notdef /.notdef /.notdef /.notdef /.notdef /.notdef /.notdef
 /space /exclam /quotedbl /numbersign /dollar /percent /ampersand /quoteright
 /parenleft /parenright /asterisk /plus /comma /minus /period /slash
 /zero /one /two /three /four /five /six /seven
 /eight /nine /colon /semicolon /less /equal /greater /question
 /at /A /B /C /D /E /F /G
 /H /I /J /K /L /M /N /O
 /P /Q /R /S /T /U /V /W
 /X /Y /Z /bracketleft /backslash /bracketright /asciicircum /underscore
 /grave /a /b /c /d /e /f /g
 /h /i /j /k /l /m /n /o
 /p /q /r /s /t /u /v /w
 /x /y /z /braceleft /bar /braceright /asciitilde /.notdef
 /Euro /.notdef /quotesinglbase /florin /quotedblbase /ellipsis /dagger /daggerdbl
 /circumflex /perthousand /Scaron /guilsinglleft /OE /.notdef /Zcaron /.notdef
 /.notdef /quoteleft /quoteright /quotedblleft /quotedblright /bullet /endash /emdash
 /tilde /trademark /scaron /guilsinglright /oe /.notdef /zcaron /Ydieresis
 /space /exclamdown /cent /sterling /currency /yen /brokenbar /section
 /dieresis /copyright /ordfeminine /guillemotleft /logicalnot /hyphen /registered /macron
 /degree /plusminus /twosuperior /threesuperior /acute /mu /paragraph /periodcentered
 /cedilla /onesuperior /ordmasculine /guillemotright /onequarter /onehalf /threequarters /questiondown
 /Agrave /Aacute /Acircumflex /Atilde /Adieresis /Aring /AE /Ccedilla
 /Egrave /Eacute /Ecircumflex /Edieresis /Igrave /Iacute /Icircumflex /Idieresis
 /Eth /Ntilde /Ograve /Oacute /Ocircumflex /Otilde /Odieresis /multiply
 /Oslash /Ugrave /Uacute /Ucircumflex /Udieresis /Yacute /Thorn /germandbls
 /agrave /aacute /acircumflex /atilde /adieresis /aring /ae /ccedilla
 /egrave /eacute /ecircumflex /edieresis /igrave /iacute /icircumflex /idieresis
 /eth /ntilde /ograve /oacute /ocircumflex /otilde /odieresis /divide
 /oslash /ugrave /uacute /ucircumflex /udieresis /yacute /thorn /ydieresis
]
 def
% end encoding
%%IncludeResource: font Helvetica
/Helvetica findfont
dup length dict begin
  {1 index /FID ne {def} {pop pop} ifelse} forall
  /Encoding WinAnsiEncoding def
  currentdict
  end
/Font1 exch definefont pop
%%IncludeResource: font Helvetica-Bold
/Helvetica-Bold findfont
dup length dict begin
  {1 index /FID ne {def} {pop pop} ifelse} forall
  /Encoding WinAnsiEncoding def
  currentdict
  end
/Font2 exch definefont pop
%%IncludeResource: font Helvetica-Oblique
/Helvetica-Oblique findfont
dup length dict begin
  {1 index /FID ne {def} {pop pop} ifelse} forall
  /Encoding WinAnsiEncoding def
  currentdict
  end
/Font3 exch definefont pop
%%IncludeResource: font Helvetica-BoldOblique
/Helvetica-BoldOblique findfont
dup length dict begin
  {1 index /FID ne {def} {pop pop} ifelse} forall
  /Encoding WinAnsiEncoding def
  currentdict
  end
/Font4 exch definefont pop
%%IncludeResource: font Symbol
/Symbol findfont
dup length dict begin
  {1 index /FID ne {def} {pop pop} ifelse} forall
  currentdict
  end
/Font5 exch definefont pop
%%EndProlog
%%Page: 1 1
bp
/bg { 1 1 1 srgb } def
0.00 0.00 567.00 381.75 r p2
59.04 73.44 253.26 322.71 cl
59.04 73.44 253.26 322.71 cl
0.00 0.00 567.00 381.75 cl
0 0 0 srgb
0.75 setlinewidth
[] 0 setdash
1 setlinecap
1 setlinejoin
10.00 setmiterlimit
np
66.23 73.44 m
171.27 0 l
o
np
66.23 73.44 m
0 -7.20 l
o
np
109.05 73.44 m
0 -7.20 l
o
np
151.87 73.44 m
0 -7.20 l
o
np
194.69 73.44 m
0 -7.20 l
o
np
237.50 73.44 m
0 -7.20 l
o
/Font1 findfont 16 s
66.23 47.52 (0) .5 0 t
109.05 47.52 (5) .5 0 t
151.87 47.52 (10) .5 0 t
194.69 47.52 (15) .5 0 t
237.50 47.52 (20) .5 0 t
np
59.04 82.67 m
0 230.81 l
o
np
59.04 82.67 m
-7.20 0 l
o
np
59.04 128.83 m
-7.20 0 l
o
np
59.04 174.99 m
-7.20 0 l
o
np
59.04 221.16 m
-7.20 0 l
o
np
59.04 267.32 m
-7.20 0 l
o
np
59.04 313.48 m
-7.20 0 l
o
41.76 82.67 (0) .5 90 t
41.76 128.83 (20) .5 90 t
41.76 174.99 (40) .5 90 t
41.76 221.16 (60) .5 90 t
41.76 267.32 (80) .5 90 t
41.76 313.48 (100) .5 90 t
np
59.04 73.44 m
194.22 0 l
0 249.27 l
-194.22 0 l
0 -249.27 l
o
0.00 0.00 283.50 381.75 cl
/Font2 findfont 19 s
0 0 0 srgb
156.15 345.41 (\(a\)) .5 0 t
/Font1 findfont 16 s
121.03 18.72 (Cell inde) 0 ta
-0.480 (x) tb gr
12.96 150.06 (P) 90 ta
-0.640 (ar) tb
0.640 (ticle inde) tb
-0.480 (x) tb gr
59.04 73.44 253.26 322.71 cl
0 0.6039 0.8039 srgb
0.60 setlinewidth
[] 0 setdash
1 setlinecap
1 setlinejoin
10.00 setmiterlimit
np
66.23 84.98 m
51.38 0 l
o
np
66.23 87.29 m
8.57 0 l
o
np
66.23 89.60 m
17.13 0 l
o
np
66.23 91.90 m
17.13 0 l
o
np
66.23 94.21 m
77.07 0 l
o
np
66.23 96.52 m
51.38 0 l
o
np
66.23 98.83 m
8.57 0 l
o
np
66.23 101.14 m
51.38 0 l
o
np
66.23 103.44 m
8.57 0 l
o
np
66.23 105.75 m
17.13 0 l
o
np
66.23 108.06 m
17.13 0 l
o
np
66.23 110.37 m
42.82 0 l
o
np
66.23 112.68 m
34.26 0 l
o
np
66.23 114.98 m
25.69 0 l
o
np
66.23 117.29 m
17.13 0 l
o
np
66.23 119.60 m
8.57 0 l
o
np
66.23 121.91 m
25.69 0 l
o
np
66.23 124.22 m
102.77 0 l
o
np
66.23 126.53 m
34.26 0 l
o
np
66.23 128.83 m
25.69 0 l
o
np
66.23 131.14 m
34.26 0 l
o
np
66.23 133.45 m
42.82 0 l
o
np
66.23 135.76 m
42.82 0 l
o
np
66.23 138.07 m
68.51 0 l
o
np
66.23 140.37 m
34.26 0 l
o
np
66.23 142.68 m
51.38 0 l
o
np
66.23 144.99 m
17.13 0 l
o
np
66.23 147.30 m
59.95 0 l
o
np
66.23 149.61 m
51.38 0 l
o
np
66.23 151.91 m
25.69 0 l
o
np
66.23 154.22 m
51.38 0 l
o
np
66.23 156.53 m
17.13 0 l
o
np
66.23 158.84 m
25.69 0 l
o
np
66.23 161.15 m
59.95 0 l
o
np
66.23 163.45 m
17.13 0 l
o
np
66.23 165.76 m
25.69 0 l
o
np
66.23 168.07 m
42.82 0 l
o
np
66.23 170.38 m
68.51 0 l
o
np
66.23 172.69 m
51.38 0 l
o
np
66.23 174.99 m
8.57 0 l
o
np
66.23 177.30 m
51.38 0 l
o
np
66.23 179.61 m
42.82 0 l
o
np
66.23 181.92 m
68.51 0 l
o
np
66.23 184.23 m
17.13 0 l
o
np
66.23 186.53 m
34.26 0 l
o
np
66.23 188.84 m
25.69 0 l
o
np
66.23 191.15 m
42.82 0 l
o
np
66.23 193.46 m
25.69 0 l
o
np
66.23 195.77 m
94.20 0 l
o
np
66.23 198.07 m
25.69 0 l
o
np
66.23 200.38 m
51.38 0 l
o
np
66.23 202.69 m
42.82 0 l
o
np
66.23 205.00 m
8.57 0 l
o
np
66.23 207.31 m
25.69 0 l
o
np
66.23 209.62 m
34.26 0 l
o
np
66.23 211.92 m
8.57 0 l
o
np
66.23 214.23 m
59.95 0 l
o
np
66.23 216.54 m
59.95 0 l
o
np
66.23 218.85 m
51.38 0 l
o
np
66.23 221.16 m
102.77 0 l
o
np
66.23 223.46 m
94.20 0 l
o
np
66.23 225.77 m
17.13 0 l
o
np
66.23 228.08 m
51.38 0 l
o
np
66.23 230.39 m
17.13 0 l
o
np
66.23 232.70 m
34.26 0 l
o
np
66.23 235.00 m
68.51 0 l
o
np
66.23 237.31 m
85.64 0 l
o
np
66.23 239.62 m
17.13 0 l
o
np
66.23 241.93 m
34.26 0 l
o
np
66.23 244.24 m
68.51 0 l
o
np
66.23 246.54 m
34.26 0 l
o
np
66.23 248.85 m
25.69 0 l
o
np
66.23 251.16 m
34.26 0 l
o
np
66.23 253.47 m
77.07 0 l
o
np
66.23 255.78 m
25.69 0 l
o
np
66.23 258.08 m
77.07 0 l
o
np
66.23 260.39 m
8.57 0 l
o
np
66.23 262.70 m
8.57 0 l
o
np
66.23 265.01 m
34.26 0 l
o
np
66.23 267.32 m
17.13 0 l
o
np
66.23 269.62 m
8.57 0 l
o
np
66.23 271.93 m
59.95 0 l
o
np
66.23 274.24 m
17.13 0 l
o
np
66.23 276.55 m
8.57 0 l
o
np
66.23 278.86 m
25.69 0 l
o
np
66.23 281.16 m
34.26 0 l
o
np
66.23 283.47 m
34.26 0 l
o
np
66.23 285.78 m
42.82 0 l
o
np
66.23 288.09 m
17.13 0 l
o
np
66.23 290.40 m
8.57 0 l
o
np
66.23 292.71 m
8.57 0 l
o
np
66.23 295.01 m
17.13 0 l
o
np
66.23 297.32 m
59.95 0 l
o
np
66.23 299.63 m
77.07 0 l
o
np
66.23 301.94 m
8.57 0 l
o
np
66.23 304.25 m
17.13 0 l
o
np
66.23 306.55 m
17.13 0 l
o
np
66.23 308.86 m
8.57 0 l
o
np
66.23 311.17 m
68.51 0 l
o
np
66.23 313.48 m
51.38 0 l
o
342.54 73.44 536.76 322.71 cl
342.54 73.44 536.76 322.71 cl
0.00 0.00 567.00 381.75 cl
0 0 0 srgb
0.75 setlinewidth
[] 0 setdash
1 setlinecap
1 setlinejoin
10.00 setmiterlimit
np
349.73 73.44 m
171.27 0 l
o
np
349.73 73.44 m
0 -7.20 l
o
np
392.55 73.44 m
0 -7.20 l
o
np
435.37 73.44 m
0 -7.20 l
o
np
478.19 73.44 m
0 -7.20 l
o
np
521.00 73.44 m
0 -7.20 l
o
/Font1 findfont 16 s
349.73 47.52 (0) .5 0 t
392.55 47.52 (5) .5 0 t
435.37 47.52 (10) .5 0 t
478.19 47.52 (15) .5 0 t
521.00 47.52 (20) .5 0 t
np
342.54 82.67 m
0 230.81 l
o
np
342.54 82.67 m
-7.20 0 l
o
np
342.54 128.83 m
-7.20 0 l
o
np
342.54 174.99 m
-7.20 0 l
o
np
342.54 221.16 m
-7.20 0 l
o
np
342.54 267.32 m
-7.20 0 l
o
np
342.54 313.48 m
-7.20 0 l
o
325.26 82.67 (0) .5 90 t
325.26 128.83 (20) .5 90 t
325.26 174.99 (40) .5 90 t
325.26 221.16 (60) .5 90 t
325.26 267.32 (80) .5 90 t
325.26 313.48 (100) .5 90 t
np
342.54 73.44 m
194.22 0 l
0 249.27 l
-194.22 0 l
0 -249.27 l
o
283.50 0.00 567.00 381.75 cl
/Font2 findfont 19 s
0 0 0 srgb
439.65 345.41 (\(b\)) .5 0 t
/Font1 findfont 16 s
404.53 18.72 (Cell inde) 0 ta
-0.480 (x) tb gr
296.46 149.61 (P) 90 ta
-0.640 (ar) tb
0.640 (ticle Inde) tb
-0.480 (x) tb gr
342.54 73.44 536.76 322.71 cl
0 0.6039 0.8039 srgb
0.60 setlinewidth
[] 0 setdash
1 setlinecap
1 setlinejoin
10.00 setmiterlimit
np
349.73 84.98 m
102.77 0 l
o
np
349.73 87.29 m
102.77 0 l
o
np
349.73 89.60 m
94.20 0 l
o
np
349.73 91.90 m
94.20 0 l
o
np
349.73 94.21 m
85.64 0 l
o
np
349.73 96.52 m
77.07 0 l
o
np
349.73 98.83 m
77.07 0 l
o
np
349.73 101.14 m
77.07 0 l
o
np
349.73 103.44 m
77.07 0 l
o
np
349.73 105.75 m
68.51 0 l
o
np
349.73 108.06 m
68.51 0 l
o
np
349.73 110.37 m
68.51 0 l
o
np
349.73 112.68 m
68.51 0 l
o
np
349.73 114.98 m
68.51 0 l
o
np
349.73 117.29 m
68.51 0 l
o
np
349.73 119.60 m
59.95 0 l
o
np
349.73 121.91 m
59.95 0 l
o
np
349.73 124.22 m
59.95 0 l
o
np
349.73 126.53 m
59.95 0 l
o
np
349.73 128.83 m
59.95 0 l
o
np
349.73 131.14 m
59.95 0 l
o
np
349.73 133.45 m
51.38 0 l
o
np
349.73 135.76 m
51.38 0 l
o
np
349.73 138.07 m
51.38 0 l
o
np
349.73 140.37 m
51.38 0 l
o
np
349.73 142.68 m
51.38 0 l
o
np
349.73 144.99 m
51.38 0 l
o
np
349.73 147.30 m
51.38 0 l
o
np
349.73 149.61 m
51.38 0 l
o
np
349.73 151.91 m
51.38 0 l
o
np
349.73 154.22 m
51.38 0 l
o
np
349.73 156.53 m
51.38 0 l
o
np
349.73 158.84 m
51.38 0 l
o
np
349.73 161.15 m
42.82 0 l
o
np
349.73 163.45 m
42.82 0 l
o
np
349.73 165.76 m
42.82 0 l
o
np
349.73 168.07 m
42.82 0 l
o
np
349.73 170.38 m
42.82 0 l
o
np
349.73 172.69 m
42.82 0 l
o
np
349.73 174.99 m
42.82 0 l
o
np
349.73 177.30 m
42.82 0 l
o
np
349.73 179.61 m
34.26 0 l
o
np
349.73 181.92 m
34.26 0 l
o
np
349.73 184.23 m
34.26 0 l
o
np
349.73 186.53 m
34.26 0 l
o
np
349.73 188.84 m
34.26 0 l
o
np
349.73 191.15 m
34.26 0 l
o
np
349.73 193.46 m
34.26 0 l
o
np
349.73 195.77 m
34.26 0 l
o
np
349.73 198.07 m
34.26 0 l
o
np
349.73 200.38 m
34.26 0 l
o
np
349.73 202.69 m
34.26 0 l
o
np
349.73 205.00 m
34.26 0 l
o
np
349.73 207.31 m
34.26 0 l
o
np
349.73 209.62 m
25.69 0 l
o
np
349.73 211.92 m
25.69 0 l
o
np
349.73 214.23 m
25.69 0 l
o
np
349.73 216.54 m
25.69 0 l
o
np
349.73 218.85 m
25.69 0 l
o
np
349.73 221.16 m
25.69 0 l
o
np
349.73 223.46 m
25.69 0 l
o
np
349.73 225.77 m
25.69 0 l
o
np
349.73 228.08 m
25.69 0 l
o
np
349.73 230.39 m
25.69 0 l
o
np
349.73 232.70 m
25.69 0 l
o
np
349.73 235.00 m
25.69 0 l
o
np
349.73 237.31 m
25.69 0 l
o
np
349.73 239.62 m
17.13 0 l
o
np
349.73 241.93 m
17.13 0 l
o
np
349.73 244.24 m
17.13 0 l
o
np
349.73 246.54 m
17.13 0 l
o
np
349.73 248.85 m
17.13 0 l
o
np
349.73 251.16 m
17.13 0 l
o
np
349.73 253.47 m
17.13 0 l
o
np
349.73 255.78 m
17.13 0 l
o
np
349.73 258.08 m
17.13 0 l
o
np
349.73 260.39 m
17.13 0 l
o
np
349.73 262.70 m
17.13 0 l
o
np
349.73 265.01 m
17.13 0 l
o
np
349.73 267.32 m
17.13 0 l
o
np
349.73 269.62 m
17.13 0 l
o
np
349.73 271.93 m
17.13 0 l
o
np
349.73 274.24 m
17.13 0 l
o
np
349.73 276.55 m
17.13 0 l
o
np
349.73 278.86 m
17.13 0 l
o
np
349.73 281.16 m
8.57 0 l
o
np
349.73 283.47 m
8.57 0 l
o
np
349.73 285.78 m
8.57 0 l
o
np
349.73 288.09 m
8.57 0 l
o
np
349.73 290.40 m
8.57 0 l
o
np
349.73 292.71 m
8.57 0 l
o
np
349.73 295.01 m
8.57 0 l
o
np
349.73 297.32 m
8.57 0 l
o
np
349.73 299.63 m
8.57 0 l
o
np
349.73 301.94 m
8.57 0 l
o
np
349.73 304.25 m
8.57 0 l
o
np
349.73 306.55 m
8.57 0 l
o
np
349.73 308.86 m
8.57 0 l
o
np
349.73 311.17 m
8.57 0 l
o
np
349.73 313.48 m
8.57 0 l
o
1 0 0 srgb
1.50 setlinewidth
[] 0 setdash
np
349.73 313.48 m
8.57 0 l
o
np
358.30 276.89 m
8.56 0 l
o
np
366.86 241.73 m
8.56 0 l
o
np
375.42 209.27 m
8.57 0 l
o
np
383.99 180.47 m
8.56 0 l
o
np
392.55 155.91 m
8.56 0 l
o
np
401.11 135.79 m
8.57 0 l
o
np
409.68 119.95 m
8.56 0 l
o
np
418.24 107.97 m
8.56 0 l
o
np
426.80 99.26 m
8.57 0 l
o
np
435.37 93.17 m
8.56 0 l
o
np
443.93 89.09 m
8.57 0 l
o
np
452.50 86.46 m
8.56 0 l
o
np
461.06 84.82 m
8.56 0 l
o
np
469.62 83.85 m
8.57 0 l
o
np
478.19 83.30 m
8.56 0 l
o
np
486.75 82.99 m
8.56 0 l
o
np
495.31 82.83 m
8.57 0 l
o
np
503.88 82.74 m
8.56 0 l
o
np
512.44 82.70 m
8.56 0 l
o
0 0.6039 0.8039 srgb
0.75 setlinewidth
[] 0 setdash
np
389.57 313.28 m
22.13 0 l
o
1 0 0 srgb
1.50 setlinewidth
[ 9.00 6.00] 0 setdash
np
389.57 303.85 m
22.13 0 l
o
/Font1 findfont 11 s
0 0 0 srgb
422.76 309.33 (P) 0 ta
-0.440 (ar) tb
0.440 (ticle P) tb
-0.440 (ath) tb gr
422.76 299.91 (Theor) 0 ta
0.330 (y) tb gr
/Font1 findfont 10 s
452.50 217.74 (t =  0.03125) .5 0 t
ep
%%Trailer
%%Pages: 1
%%EOF
