%!PS-Adobe-3.0 EPSF-3.0
%%DocumentNeededResources: font Helvetica
%%+ font Helvetica-Bold
%%+ font Helvetica-Oblique
%%+ font Helvetica-BoldOblique
%%+ font Symbol
%%Title: R Graphics Output
%%Creator: R Software
%%Pages: (atend)
%%BoundingBox: 0 0 444 399
%%EndComments
%%BeginProlog
/bp  { gs sRGB gs } def
% begin .ps.prolog
/gs  { gsave } bind def
/gr  { grestore } bind def
/ep  { showpage gr gr } bind def
/m   { moveto } bind def
/l  { rlineto } bind def
/np  { newpath } bind def
/cp  { closepath } bind def
/f   { fill } bind def
/o   { stroke } bind def
/c   { newpath 0 360 arc } bind def
/r   { 4 2 roll moveto 1 copy 3 -1 roll exch 0 exch rlineto 0 rlineto -1 mul 0 exch rlineto closepath } bind def
/p1  { stroke } bind def
/p2  { gsave bg fill grestore newpath } bind def
/p3  { gsave bg fill grestore stroke } bind def
/p6  { gsave bg eofill grestore newpath } bind def
/p7  { gsave bg eofill grestore stroke } bind def
/t   { 5 -2 roll moveto gsave rotate
       1 index stringwidth pop
       mul neg 0 rmoveto show grestore } bind def
/ta  { 4 -2 roll moveto gsave rotate show } bind def
/tb  { 2 -1 roll 0 rmoveto show } bind def
/cl  { grestore gsave newpath 3 index 3 index moveto 1 index
       4 -1 roll lineto  exch 1 index lineto lineto
       closepath clip newpath } bind def
/rgb { setrgbcolor } bind def
/s   { scalefont setfont } bind def
% end   .ps.prolog
/sRGB { [ /CIEBasedABC
          << /DecodeLMN
               [ { dup 0.03928 le
                        {12.92321 div}
                        {0.055 add 1.055 div 2.4 exp }
                     ifelse
                 } bind dup dup
               ]
             /MatrixLMN [0.412457 0.212673 0.019334
                         0.357576 0.715152 0.119192
                         0.180437 0.072175 0.950301]
             /WhitePoint [0.9505 1.0 1.0890]
           >>
         ] setcolorspace } bind def
/srgb { setcolor } bind def
% begin encoding
/WinAnsiEncoding [
 /.notdef /.notdef /.notdef /.notdef /.notdef /.notdef /.notdef /.notdef
 /.notdef /.notdef /.notdef /.notdef /.notdef /.notdef /.notdef /.notdef
 /.notdef /.notdef /.notdef /.notdef /.notdef /.notdef /.notdef /.notdef
 /.notdef /.notdef /.notdef /.notdef /.notdef /.notdef /.notdef /.notdef
 /space /exclam /quotedbl /numbersign /dollar /percent /ampersand /quoteright
 /parenleft /parenright /asterisk /plus /comma /minus /period /slash
 /zero /one /two /three /four /five /six /seven
 /eight /nine /colon /semicolon /less /equal /greater /question
 /at /A /B /C /D /E /F /G
 /H /I /J /K /L /M /N /O
 /P /Q /R /S /T /U /V /W
 /X /Y /Z /bracketleft /backslash /bracketright /asciicircum /underscore
 /grave /a /b /c /d /e /f /g
 /h /i /j /k /l /m /n /o
 /p /q /r /s /t /u /v /w
 /x /y /z /braceleft /bar /braceright /asciitilde /.notdef
 /Euro /.notdef /quotesinglbase /florin /quotedblbase /ellipsis /dagger /daggerdbl
 /circumflex /perthousand /Scaron /guilsinglleft /OE /.notdef /Zcaron /.notdef
 /.notdef /quoteleft /quoteright /quotedblleft /quotedblright /bullet /endash /emdash
 /tilde /trademark /scaron /guilsinglright /oe /.notdef /zcaron /Ydieresis
 /space /exclamdown /cent /sterling /currency /yen /brokenbar /section
 /dieresis /copyright /ordfeminine /guillemotleft /logicalnot /hyphen /registered /macron
 /degree /plusminus /twosuperior /threesuperior /acute /mu /paragraph /periodcentered
 /cedilla /onesuperior /ordmasculine /guillemotright /onequarter /onehalf /threequarters /questiondown
 /Agrave /Aacute /Acircumflex /Atilde /Adieresis /Aring /AE /Ccedilla
 /Egrave /Eacute /Ecircumflex /Edieresis /Igrave /Iacute /Icircumflex /Idieresis
 /Eth /Ntilde /Ograve /Oacute /Ocircumflex /Otilde /Odieresis /multiply
 /Oslash /Ugrave /Uacute /Ucircumflex /Udieresis /Yacute /Thorn /germandbls
 /agrave /aacute /acircumflex /atilde /adieresis /aring /ae /ccedilla
 /egrave /eacute /ecircumflex /edieresis /igrave /iacute /icircumflex /idieresis
 /eth /ntilde /ograve /oacute /ocircumflex /otilde /odieresis /divide
 /oslash /ugrave /uacute /ucircumflex /udieresis /yacute /thorn /ydieresis
]
 def
% end encoding
%%IncludeResource: font Helvetica
/Helvetica findfont
dup length dict begin
  {1 index /FID ne {def} {pop pop} ifelse} forall
  /Encoding WinAnsiEncoding def
  currentdict
  end
/Font1 exch definefont pop
%%IncludeResource: font Helvetica-Bold
/Helvetica-Bold findfont
dup length dict begin
  {1 index /FID ne {def} {pop pop} ifelse} forall
  /Encoding WinAnsiEncoding def
  currentdict
  end
/Font2 exch definefont pop
%%IncludeResource: font Helvetica-Oblique
/Helvetica-Oblique findfont
dup length dict begin
  {1 index /FID ne {def} {pop pop} ifelse} forall
  /Encoding WinAnsiEncoding def
  currentdict
  end
/Font3 exch definefont pop
%%IncludeResource: font Helvetica-BoldOblique
/Helvetica-BoldOblique findfont
dup length dict begin
  {1 index /FID ne {def} {pop pop} ifelse} forall
  /Encoding WinAnsiEncoding def
  currentdict
  end
/Font4 exch definefont pop
%%IncludeResource: font Symbol
/Symbol findfont
dup length dict begin
  {1 index /FID ne {def} {pop pop} ifelse} forall
  currentdict
  end
/Font5 exch definefont pop
%%EndProlog
%%Page: 1 1
bp
/bg { 1 1 1 srgb } def
0.00 0.00 444.00 399.00 r p2
59.04 73.44 191.76 339.96 cl
59.04 73.44 191.76 339.96 cl
0.00 0.00 444.00 399.00 cl
0 0 0 srgb
0.75 setlinewidth
[] 0 setdash
1 setlinecap
1 setlinejoin
10.00 setmiterlimit
np
63.96 73.44 m
117.03 0 l
o
np
63.96 73.44 m
0 -7.20 l
o
np
93.21 73.44 m
0 -7.20 l
o
np
122.47 73.44 m
0 -7.20 l
o
np
151.73 73.44 m
0 -7.20 l
o
np
180.99 73.44 m
0 -7.20 l
o
/Font1 findfont 16 s
63.96 47.52 (0) .5 0 t
93.21 47.52 (5) .5 0 t
122.47 47.52 (10) .5 0 t
180.99 47.52 (20) .5 0 t
np
59.04 83.31 m
0 246.78 l
o
np
59.04 83.31 m
-7.20 0 l
o
np
59.04 132.67 m
-7.20 0 l
o
np
59.04 182.02 m
-7.20 0 l
o
np
59.04 231.38 m
-7.20 0 l
o
np
59.04 280.73 m
-7.20 0 l
o
np
59.04 330.09 m
-7.20 0 l
o
41.76 83.31 (0) .5 90 t
41.76 132.67 (20) .5 90 t
41.76 182.02 (40) .5 90 t
41.76 231.38 (60) .5 90 t
41.76 280.73 (80) .5 90 t
41.76 330.09 (100) .5 90 t
np
59.04 73.44 m
132.72 0 l
0 266.52 l
-132.72 0 l
0 -266.52 l
o
0.00 0.00 222.00 399.00 cl
/Font2 findfont 19 s
0 0 0 srgb
125.40 362.66 (\(a\)) .5 0 t
/Font1 findfont 16 s
90.28 18.72 (Cell inde) 0 ta
-0.480 (x) tb gr
12.96 158.68 (P) 90 ta
-0.640 (ar) tb
0.640 (ticle inde) tb
-0.480 (x) tb gr
59.04 73.44 191.76 339.96 cl
0 0.6039 0.8039 srgb
0.60 setlinewidth
[] 0 setdash
1 setlinecap
1 setlinejoin
10.00 setmiterlimit
np
63.96 85.78 m
35.11 0 l
o
np
63.96 88.25 m
5.85 0 l
o
np
63.96 90.71 m
11.70 0 l
o
np
63.96 93.18 m
40.96 0 l
o
np
63.96 95.65 m
35.11 0 l
o
np
63.96 98.12 m
5.85 0 l
o
np
63.96 100.59 m
40.96 0 l
o
np
63.96 103.05 m
5.85 0 l
o
np
63.96 105.52 m
29.25 0 l
o
np
63.96 107.99 m
46.81 0 l
o
np
63.96 110.46 m
5.85 0 l
o
np
63.96 112.92 m
11.70 0 l
o
np
63.96 115.39 m
23.40 0 l
o
np
63.96 117.86 m
11.70 0 l
o
np
63.96 120.33 m
23.40 0 l
o
np
63.96 122.80 m
17.55 0 l
o
np
63.96 125.26 m
35.11 0 l
o
np
63.96 127.73 m
58.51 0 l
o
np
63.96 130.20 m
23.40 0 l
o
np
63.96 132.67 m
29.25 0 l
o
np
63.96 135.13 m
17.55 0 l
o
np
63.96 137.60 m
11.70 0 l
o
np
63.96 140.07 m
11.70 0 l
o
np
63.96 142.54 m
29.25 0 l
o
np
63.96 145.01 m
5.85 0 l
o
np
63.96 147.47 m
23.40 0 l
o
np
63.96 149.94 m
17.55 0 l
o
np
63.96 152.41 m
17.55 0 l
o
np
63.96 154.88 m
11.70 0 l
o
np
63.96 157.34 m
29.25 0 l
o
np
63.96 159.81 m
23.40 0 l
o
np
63.96 162.28 m
5.85 0 l
o
np
63.96 164.75 m
35.11 0 l
o
np
63.96 167.22 m
40.96 0 l
o
np
63.96 169.68 m
5.85 0 l
o
np
63.96 172.15 m
5.85 0 l
o
np
63.96 174.62 m
23.40 0 l
o
np
63.96 177.09 m
5.85 0 l
o
np
63.96 179.55 m
11.70 0 l
o
np
63.96 182.02 m
17.55 0 l
o
np
63.96 184.49 m
17.55 0 l
o
np
63.96 186.96 m
35.11 0 l
o
np
63.96 189.43 m
46.81 0 l
o
np
63.96 191.89 m
23.40 0 l
o
np
63.96 194.36 m
64.37 0 l
o
np
63.96 196.83 m
52.66 0 l
o
np
63.96 199.30 m
17.55 0 l
o
np
63.96 201.76 m
35.11 0 l
o
np
63.96 204.23 m
11.70 0 l
o
np
63.96 206.70 m
23.40 0 l
o
np
63.96 209.17 m
29.25 0 l
o
np
63.96 211.64 m
17.55 0 l
o
np
63.96 214.10 m
52.66 0 l
o
np
63.96 216.57 m
29.25 0 l
o
np
63.96 219.04 m
40.96 0 l
o
np
63.96 221.51 m
29.25 0 l
o
np
63.96 223.97 m
11.70 0 l
o
np
63.96 226.44 m
5.85 0 l
o
np
63.96 228.91 m
17.55 0 l
o
np
63.96 231.38 m
40.96 0 l
o
np
63.96 233.85 m
17.55 0 l
o
np
63.96 236.31 m
29.25 0 l
o
np
63.96 238.78 m
11.70 0 l
o
np
63.96 241.25 m
29.25 0 l
o
np
63.96 243.72 m
35.11 0 l
o
np
63.96 246.18 m
35.11 0 l
o
np
63.96 248.65 m
29.25 0 l
o
np
63.96 251.12 m
40.96 0 l
o
np
63.96 253.59 m
52.66 0 l
o
np
63.96 256.06 m
5.85 0 l
o
np
63.96 258.52 m
35.11 0 l
o
np
63.96 260.99 m
52.66 0 l
o
np
63.96 263.46 m
17.55 0 l
o
np
63.96 265.93 m
17.55 0 l
o
np
63.96 268.39 m
23.40 0 l
o
np
63.96 270.86 m
23.40 0 l
o
np
63.96 273.33 m
5.85 0 l
o
np
63.96 275.80 m
11.70 0 l
o
np
63.96 278.27 m
23.40 0 l
o
np
63.96 280.73 m
5.85 0 l
o
np
63.96 283.20 m
40.96 0 l
o
np
63.96 285.67 m
5.85 0 l
o
np
63.96 288.14 m
17.55 0 l
o
np
63.96 290.60 m
17.55 0 l
o
np
63.96 293.07 m
11.70 0 l
o
np
63.96 295.54 m
46.81 0 l
o
np
63.96 298.01 m
64.37 0 l
o
np
63.96 300.48 m
17.55 0 l
o
np
63.96 302.94 m
81.92 0 l
o
np
63.96 305.41 m
29.25 0 l
o
np
63.96 307.88 m
52.66 0 l
o
np
63.96 310.35 m
23.40 0 l
o
np
63.96 312.81 m
5.85 0 l
o
np
63.96 315.28 m
17.55 0 l
o
np
63.96 317.75 m
40.96 0 l
o
np
63.96 320.22 m
17.55 0 l
o
np
63.96 322.69 m
23.40 0 l
o
np
63.96 325.15 m
5.85 0 l
o
np
63.96 327.62 m
29.25 0 l
o
np
63.96 330.09 m
35.11 0 l
o
281.04 73.44 413.76 339.96 cl
281.04 73.44 413.76 339.96 cl
0.00 0.00 444.00 399.00 cl
0 0 0 srgb
0.75 setlinewidth
[] 0 setdash
1 setlinecap
1 setlinejoin
10.00 setmiterlimit
np
285.96 73.44 m
117.03 0 l
o
np
285.96 73.44 m
0 -7.20 l
o
np
315.21 73.44 m
0 -7.20 l
o
np
344.47 73.44 m
0 -7.20 l
o
np
373.73 73.44 m
0 -7.20 l
o
np
402.99 73.44 m
0 -7.20 l
o
/Font1 findfont 16 s
285.96 47.52 (0) .5 0 t
315.21 47.52 (5) .5 0 t
344.47 47.52 (10) .5 0 t
402.99 47.52 (20) .5 0 t
np
281.04 83.31 m
0 246.78 l
o
np
281.04 83.31 m
-7.20 0 l
o
np
281.04 132.67 m
-7.20 0 l
o
np
281.04 182.02 m
-7.20 0 l
o
np
281.04 231.38 m
-7.20 0 l
o
np
281.04 280.73 m
-7.20 0 l
o
np
281.04 330.09 m
-7.20 0 l
o
263.76 83.31 (0) .5 90 t
263.76 132.67 (20) .5 90 t
263.76 182.02 (40) .5 90 t
263.76 231.38 (60) .5 90 t
263.76 280.73 (80) .5 90 t
263.76 330.09 (100) .5 90 t
np
281.04 73.44 m
132.72 0 l
0 266.52 l
-132.72 0 l
0 -266.52 l
o
222.00 0.00 444.00 399.00 cl
/Font2 findfont 19 s
0 0 0 srgb
347.40 362.66 (\(b\)) .5 0 t
/Font1 findfont 16 s
312.28 18.72 (Cell inde) 0 ta
-0.480 (x) tb gr
234.96 158.24 (P) 90 ta
-0.640 (ar) tb
0.640 (ticle Inde) tb
-0.480 (x) tb gr
281.04 73.44 413.76 339.96 cl
0 0.6039 0.8039 srgb
0.60 setlinewidth
[] 0 setdash
1 setlinecap
1 setlinejoin
10.00 setmiterlimit
np
285.96 85.78 m
81.92 0 l
o
np
285.96 88.25 m
64.37 0 l
o
np
285.96 90.71 m
64.37 0 l
o
np
285.96 93.18 m
58.51 0 l
o
np
285.96 95.65 m
52.66 0 l
o
np
285.96 98.12 m
52.66 0 l
o
np
285.96 100.59 m
52.66 0 l
o
np
285.96 103.05 m
52.66 0 l
o
np
285.96 105.52 m
52.66 0 l
o
np
285.96 107.99 m
46.81 0 l
o
np
285.96 110.46 m
46.81 0 l
o
np
285.96 112.92 m
46.81 0 l
o
np
285.96 115.39 m
40.96 0 l
o
np
285.96 117.86 m
40.96 0 l
o
np
285.96 120.33 m
40.96 0 l
o
np
285.96 122.80 m
40.96 0 l
o
np
285.96 125.26 m
40.96 0 l
o
np
285.96 127.73 m
40.96 0 l
o
np
285.96 130.20 m
40.96 0 l
o
np
285.96 132.67 m
40.96 0 l
o
np
285.96 135.13 m
35.11 0 l
o
np
285.96 137.60 m
35.11 0 l
o
np
285.96 140.07 m
35.11 0 l
o
np
285.96 142.54 m
35.11 0 l
o
np
285.96 145.01 m
35.11 0 l
o
np
285.96 147.47 m
35.11 0 l
o
np
285.96 149.94 m
35.11 0 l
o
np
285.96 152.41 m
35.11 0 l
o
np
285.96 154.88 m
35.11 0 l
o
np
285.96 157.34 m
35.11 0 l
o
np
285.96 159.81 m
29.25 0 l
o
np
285.96 162.28 m
29.25 0 l
o
np
285.96 164.75 m
29.25 0 l
o
np
285.96 167.22 m
29.25 0 l
o
np
285.96 169.68 m
29.25 0 l
o
np
285.96 172.15 m
29.25 0 l
o
np
285.96 174.62 m
29.25 0 l
o
np
285.96 177.09 m
29.25 0 l
o
np
285.96 179.55 m
29.25 0 l
o
np
285.96 182.02 m
29.25 0 l
o
np
285.96 184.49 m
29.25 0 l
o
np
285.96 186.96 m
29.25 0 l
o
np
285.96 189.43 m
23.40 0 l
o
np
285.96 191.89 m
23.40 0 l
o
np
285.96 194.36 m
23.40 0 l
o
np
285.96 196.83 m
23.40 0 l
o
np
285.96 199.30 m
23.40 0 l
o
np
285.96 201.76 m
23.40 0 l
o
np
285.96 204.23 m
23.40 0 l
o
np
285.96 206.70 m
23.40 0 l
o
np
285.96 209.17 m
23.40 0 l
o
np
285.96 211.64 m
23.40 0 l
o
np
285.96 214.10 m
23.40 0 l
o
np
285.96 216.57 m
23.40 0 l
o
np
285.96 219.04 m
23.40 0 l
o
np
285.96 221.51 m
17.55 0 l
o
np
285.96 223.97 m
17.55 0 l
o
np
285.96 226.44 m
17.55 0 l
o
np
285.96 228.91 m
17.55 0 l
o
np
285.96 231.38 m
17.55 0 l
o
np
285.96 233.85 m
17.55 0 l
o
np
285.96 236.31 m
17.55 0 l
o
np
285.96 238.78 m
17.55 0 l
o
np
285.96 241.25 m
17.55 0 l
o
np
285.96 243.72 m
17.55 0 l
o
np
285.96 246.18 m
17.55 0 l
o
np
285.96 248.65 m
17.55 0 l
o
np
285.96 251.12 m
17.55 0 l
o
np
285.96 253.59 m
17.55 0 l
o
np
285.96 256.06 m
17.55 0 l
o
np
285.96 258.52 m
17.55 0 l
o
np
285.96 260.99 m
17.55 0 l
o
np
285.96 263.46 m
11.70 0 l
o
np
285.96 265.93 m
11.70 0 l
o
np
285.96 268.39 m
11.70 0 l
o
np
285.96 270.86 m
11.70 0 l
o
np
285.96 273.33 m
11.70 0 l
o
np
285.96 275.80 m
11.70 0 l
o
np
285.96 278.27 m
11.70 0 l
o
np
285.96 280.73 m
11.70 0 l
o
np
285.96 283.20 m
11.70 0 l
o
np
285.96 285.67 m
11.70 0 l
o
np
285.96 288.14 m
11.70 0 l
o
np
285.96 290.60 m
11.70 0 l
o
np
285.96 293.07 m
5.85 0 l
o
np
285.96 295.54 m
5.85 0 l
o
np
285.96 298.01 m
5.85 0 l
o
np
285.96 300.48 m
5.85 0 l
o
np
285.96 302.94 m
5.85 0 l
o
np
285.96 305.41 m
5.85 0 l
o
np
285.96 307.88 m
5.85 0 l
o
np
285.96 310.35 m
5.85 0 l
o
np
285.96 312.81 m
5.85 0 l
o
np
285.96 315.28 m
5.85 0 l
o
np
285.96 317.75 m
5.85 0 l
o
np
285.96 320.22 m
5.85 0 l
o
np
285.96 322.69 m
5.85 0 l
o
np
285.96 325.15 m
5.85 0 l
o
np
285.96 327.62 m
5.85 0 l
o
np
285.96 330.09 m
5.85 0 l
o
1 0 0 srgb
1.50 setlinewidth
[] 0 setdash
np
285.96 330.09 m
5.85 0 l
o
np
291.81 290.97 m
5.85 0 l
o
np
297.66 253.38 m
5.85 0 l
o
np
303.51 218.67 m
5.85 0 l
o
np
309.36 187.87 m
5.85 0 l
o
np
315.21 161.62 m
5.86 0 l
o
np
321.07 140.10 m
5.85 0 l
o
np
326.92 123.17 m
5.85 0 l
o
np
332.77 110.36 m
5.85 0 l
o
np
338.62 101.04 m
5.85 0 l
o
np
344.47 94.54 m
5.86 0 l
o
np
350.33 90.17 m
5.85 0 l
o
np
356.18 87.36 m
5.85 0 l
o
np
362.03 85.61 m
5.85 0 l
o
np
367.88 84.57 m
5.85 0 l
o
np
373.73 83.98 m
5.86 0 l
o
np
379.59 83.65 m
5.85 0 l
o
np
385.44 83.48 m
5.85 0 l
o
np
391.29 83.39 m
5.85 0 l
o
np
397.14 83.34 m
5.85 0 l
o
0 0.6039 0.8039 srgb
0.75 setlinewidth
[] 0 setdash
np
313.18 329.88 m
15.12 0 l
o
1 0 0 srgb
0.75 setlinewidth
[ 4.50 3.00] 0 setdash
np
313.18 319.80 m
15.12 0 l
o
/Font1 findfont 11 s
0 0 0 srgb
335.86 325.93 (P) 0 ta
-0.440 (ar) tb
0.440 (ticle P) tb
-0.440 (ath) tb gr
335.86 315.85 (Theor) 0 ta
0.330 (y) tb gr
/Font1 findfont 10 s
356.18 227.96 (t =  0.03125) .5 0 t
ep
%%Trailer
%%Pages: 1
%%EOF
