%!PS-Adobe-3.0 EPSF-3.0
%%DocumentNeededResources: font Helvetica
%%+ font Helvetica-Bold
%%+ font Helvetica-Oblique
%%+ font Helvetica-BoldOblique
%%+ font Symbol
%%Title: R Graphics Output
%%Creator: R Software
%%Pages: (atend)
%%BoundingBox: 0 0 450 450
%%EndComments
%%BeginProlog
/bp  { gs sRGB gs } def
% begin .ps.prolog
/gs  { gsave } bind def
/gr  { grestore } bind def
/ep  { showpage gr gr } bind def
/m   { moveto } bind def
/l  { rlineto } bind def
/np  { newpath } bind def
/cp  { closepath } bind def
/f   { fill } bind def
/o   { stroke } bind def
/c   { newpath 0 360 arc } bind def
/r   { 4 2 roll moveto 1 copy 3 -1 roll exch 0 exch rlineto 0 rlineto -1 mul 0 exch rlineto closepath } bind def
/p1  { stroke } bind def
/p2  { gsave bg fill grestore newpath } bind def
/p3  { gsave bg fill grestore stroke } bind def
/p6  { gsave bg eofill grestore newpath } bind def
/p7  { gsave bg eofill grestore stroke } bind def
/t   { 5 -2 roll moveto gsave rotate
       1 index stringwidth pop
       mul neg 0 rmoveto show grestore } bind def
/ta  { 4 -2 roll moveto gsave rotate show } bind def
/tb  { 2 -1 roll 0 rmoveto show } bind def
/cl  { grestore gsave newpath 3 index 3 index moveto 1 index
       4 -1 roll lineto  exch 1 index lineto lineto
       closepath clip newpath } bind def
/rgb { setrgbcolor } bind def
/s   { scalefont setfont } bind def
% end   .ps.prolog
/sRGB { [ /CIEBasedABC
          << /DecodeLMN
               [ { dup 0.03928 le
                        {12.92321 div}
                        {0.055 add 1.055 div 2.4 exp }
                     ifelse
                 } bind dup dup
               ]
             /MatrixLMN [0.412457 0.212673 0.019334
                         0.357576 0.715152 0.119192
                         0.180437 0.072175 0.950301]
             /WhitePoint [0.9505 1.0 1.0890]
           >>
         ] setcolorspace } bind def
/srgb { setcolor } bind def
% begin encoding
/WinAnsiEncoding [
 /.notdef /.notdef /.notdef /.notdef /.notdef /.notdef /.notdef /.notdef
 /.notdef /.notdef /.notdef /.notdef /.notdef /.notdef /.notdef /.notdef
 /.notdef /.notdef /.notdef /.notdef /.notdef /.notdef /.notdef /.notdef
 /.notdef /.notdef /.notdef /.notdef /.notdef /.notdef /.notdef /.notdef
 /space /exclam /quotedbl /numbersign /dollar /percent /ampersand /quoteright
 /parenleft /parenright /asterisk /plus /comma /minus /period /slash
 /zero /one /two /three /four /five /six /seven
 /eight /nine /colon /semicolon /less /equal /greater /question
 /at /A /B /C /D /E /F /G
 /H /I /J /K /L /M /N /O
 /P /Q /R /S /T /U /V /W
 /X /Y /Z /bracketleft /backslash /bracketright /asciicircum /underscore
 /grave /a /b /c /d /e /f /g
 /h /i /j /k /l /m /n /o
 /p /q /r /s /t /u /v /w
 /x /y /z /braceleft /bar /braceright /asciitilde /.notdef
 /Euro /.notdef /quotesinglbase /florin /quotedblbase /ellipsis /dagger /daggerdbl
 /circumflex /perthousand /Scaron /guilsinglleft /OE /.notdef /Zcaron /.notdef
 /.notdef /quoteleft /quoteright /quotedblleft /quotedblright /bullet /endash /emdash
 /tilde /trademark /scaron /guilsinglright /oe /.notdef /zcaron /Ydieresis
 /space /exclamdown /cent /sterling /currency /yen /brokenbar /section
 /dieresis /copyright /ordfeminine /guillemotleft /logicalnot /hyphen /registered /macron
 /degree /plusminus /twosuperior /threesuperior /acute /mu /paragraph /periodcentered
 /cedilla /onesuperior /ordmasculine /guillemotright /onequarter /onehalf /threequarters /questiondown
 /Agrave /Aacute /Acircumflex /Atilde /Adieresis /Aring /AE /Ccedilla
 /Egrave /Eacute /Ecircumflex /Edieresis /Igrave /Iacute /Icircumflex /Idieresis
 /Eth /Ntilde /Ograve /Oacute /Ocircumflex /Otilde /Odieresis /multiply
 /Oslash /Ugrave /Uacute /Ucircumflex /Udieresis /Yacute /Thorn /germandbls
 /agrave /aacute /acircumflex /atilde /adieresis /aring /ae /ccedilla
 /egrave /eacute /ecircumflex /edieresis /igrave /iacute /icircumflex /idieresis
 /eth /ntilde /ograve /oacute /ocircumflex /otilde /odieresis /divide
 /oslash /ugrave /uacute /ucircumflex /udieresis /yacute /thorn /ydieresis
]
 def
% end encoding
%%IncludeResource: font Helvetica
/Helvetica findfont
dup length dict begin
  {1 index /FID ne {def} {pop pop} ifelse} forall
  /Encoding WinAnsiEncoding def
  currentdict
  end
/Font1 exch definefont pop
%%IncludeResource: font Helvetica-Bold
/Helvetica-Bold findfont
dup length dict begin
  {1 index /FID ne {def} {pop pop} ifelse} forall
  /Encoding WinAnsiEncoding def
  currentdict
  end
/Font2 exch definefont pop
%%IncludeResource: font Helvetica-Oblique
/Helvetica-Oblique findfont
dup length dict begin
  {1 index /FID ne {def} {pop pop} ifelse} forall
  /Encoding WinAnsiEncoding def
  currentdict
  end
/Font3 exch definefont pop
%%IncludeResource: font Helvetica-BoldOblique
/Helvetica-BoldOblique findfont
dup length dict begin
  {1 index /FID ne {def} {pop pop} ifelse} forall
  /Encoding WinAnsiEncoding def
  currentdict
  end
/Font4 exch definefont pop
%%IncludeResource: font Symbol
/Symbol findfont
dup length dict begin
  {1 index /FID ne {def} {pop pop} ifelse} forall
  currentdict
  end
/Font5 exch definefont pop
%%EndProlog
%%Page: 1 1
bp
/bg { 1 1 1 srgb } def
0.00 0.00 450.00 450.00 r p2
59.04 73.44 194.76 390.96 cl
59.04 73.44 194.76 390.96 cl
0.00 0.00 450.00 450.00 cl
0 0 0 srgb
0.75 setlinewidth
[] 0 setdash
1 setlinecap
1 setlinejoin
10.00 setmiterlimit
np
64.07 73.44 m
119.68 0 l
o
np
64.07 73.44 m
0 -7.20 l
o
np
93.99 73.44 m
0 -7.20 l
o
np
123.91 73.44 m
0 -7.20 l
o
np
153.83 73.44 m
0 -7.20 l
o
np
183.75 73.44 m
0 -7.20 l
o
/Font1 findfont 16 s
64.07 47.52 (0) .5 0 t
93.99 47.52 (5) .5 0 t
123.91 47.52 (10) .5 0 t
183.75 47.52 (20) .5 0 t
np
59.04 85.20 m
0 294.00 l
o
np
59.04 85.20 m
-7.20 0 l
o
np
59.04 144.00 m
-7.20 0 l
o
np
59.04 202.80 m
-7.20 0 l
o
np
59.04 261.60 m
-7.20 0 l
o
np
59.04 320.40 m
-7.20 0 l
o
np
59.04 379.20 m
-7.20 0 l
o
41.76 85.20 (0) .5 90 t
41.76 144.00 (20) .5 90 t
41.76 202.80 (40) .5 90 t
41.76 261.60 (60) .5 90 t
41.76 320.40 (80) .5 90 t
41.76 379.20 (100) .5 90 t
np
59.04 73.44 m
135.72 0 l
0 317.52 l
-135.72 0 l
0 -317.52 l
o
0.00 0.00 225.00 450.00 cl
/Font2 findfont 19 s
0 0 0 srgb
126.90 413.66 (\(a\)) .5 0 t
/Font1 findfont 16 s
91.78 18.72 (Cell inde) 0 ta
-0.480 (x) tb gr
12.96 184.18 (P) 90 ta
-0.640 (ar) tb
0.640 (ticle inde) tb
-0.480 (x) tb gr
59.04 73.44 194.76 390.96 cl
0 0.6039 0.8039 srgb
0.60 setlinewidth
[ 1.80 3.00] 0 setdash
1 setlinecap
1 setlinejoin
10.00 setmiterlimit
np
64.07 88.14 m
71.81 0 l
o
np
64.07 91.08 m
11.96 0 l
o
np
64.07 94.02 m
5.98 0 l
o
np
64.07 96.96 m
53.85 0 l
o
np
64.07 99.90 m
47.87 0 l
o
np
64.07 102.84 m
11.96 0 l
o
np
64.07 105.78 m
29.92 0 l
o
np
64.07 108.72 m
29.92 0 l
o
np
64.07 111.66 m
17.95 0 l
o
np
64.07 114.60 m
35.90 0 l
o
np
64.07 117.54 m
11.96 0 l
o
np
64.07 120.48 m
35.90 0 l
o
np
64.07 123.42 m
11.96 0 l
o
np
64.07 126.36 m
35.90 0 l
o
np
64.07 129.30 m
59.84 0 l
o
np
64.07 132.24 m
17.95 0 l
o
np
64.07 135.18 m
23.93 0 l
o
np
64.07 138.12 m
17.95 0 l
o
np
64.07 141.06 m
35.90 0 l
o
np
64.07 144.00 m
23.93 0 l
o
np
64.07 146.94 m
59.84 0 l
o
np
64.07 149.88 m
23.93 0 l
o
np
64.07 152.82 m
17.95 0 l
o
np
64.07 155.76 m
17.95 0 l
o
np
64.07 158.70 m
41.89 0 l
o
np
64.07 161.64 m
53.85 0 l
o
np
64.07 164.58 m
47.87 0 l
o
np
64.07 167.52 m
5.98 0 l
o
np
64.07 170.46 m
17.95 0 l
o
np
64.07 173.40 m
11.96 0 l
o
np
64.07 176.34 m
41.89 0 l
o
np
64.07 179.28 m
5.98 0 l
o
np
64.07 182.22 m
17.95 0 l
o
np
64.07 185.16 m
65.82 0 l
o
np
64.07 188.10 m
11.96 0 l
o
np
64.07 191.04 m
29.92 0 l
o
np
64.07 193.98 m
5.98 0 l
o
np
64.07 196.92 m
23.93 0 l
o
np
64.07 199.86 m
29.92 0 l
o
np
64.07 202.80 m
47.87 0 l
o
np
64.07 205.74 m
5.98 0 l
o
np
64.07 208.68 m
71.81 0 l
o
np
64.07 211.62 m
23.93 0 l
o
np
64.07 214.56 m
29.92 0 l
o
np
64.07 217.50 m
23.93 0 l
o
np
64.07 220.44 m
23.93 0 l
o
np
64.07 223.38 m
11.96 0 l
o
np
64.07 226.32 m
71.81 0 l
o
np
64.07 229.26 m
17.95 0 l
o
np
64.07 232.20 m
35.90 0 l
o
np
64.07 235.14 m
47.87 0 l
o
np
64.07 238.08 m
53.85 0 l
o
np
64.07 241.02 m
59.84 0 l
o
np
64.07 243.96 m
47.87 0 l
o
np
64.07 246.90 m
35.90 0 l
o
np
64.07 249.84 m
11.96 0 l
o
np
64.07 252.78 m
5.98 0 l
o
np
64.07 255.72 m
5.98 0 l
o
np
64.07 258.66 m
41.89 0 l
o
np
64.07 261.60 m
47.87 0 l
o
np
64.07 264.54 m
5.98 0 l
o
np
64.07 267.48 m
47.87 0 l
o
np
64.07 270.42 m
29.92 0 l
o
np
64.07 273.36 m
17.95 0 l
o
np
64.07 276.30 m
53.85 0 l
o
np
64.07 279.24 m
23.93 0 l
o
np
64.07 282.18 m
17.95 0 l
o
np
64.07 285.12 m
11.96 0 l
o
np
64.07 288.06 m
23.93 0 l
o
np
64.07 291.00 m
11.96 0 l
o
np
64.07 293.94 m
11.96 0 l
o
np
64.07 296.88 m
23.93 0 l
o
np
64.07 299.82 m
17.95 0 l
o
np
64.07 302.76 m
5.98 0 l
o
np
64.07 305.70 m
11.96 0 l
o
np
64.07 308.64 m
5.98 0 l
o
np
64.07 311.58 m
23.93 0 l
o
np
64.07 314.52 m
23.93 0 l
o
np
64.07 317.46 m
29.92 0 l
o
np
64.07 320.40 m
11.96 0 l
o
np
64.07 323.34 m
11.96 0 l
o
np
64.07 326.28 m
17.95 0 l
o
np
64.07 329.22 m
35.90 0 l
o
np
64.07 332.16 m
41.89 0 l
o
np
64.07 335.10 m
17.95 0 l
o
np
64.07 338.04 m
53.85 0 l
o
np
64.07 340.98 m
35.90 0 l
o
np
64.07 343.92 m
29.92 0 l
o
np
64.07 346.86 m
5.98 0 l
o
np
64.07 349.80 m
17.95 0 l
o
np
64.07 352.74 m
5.98 0 l
o
np
64.07 355.68 m
11.96 0 l
o
np
64.07 358.62 m
29.92 0 l
o
np
64.07 361.56 m
11.96 0 l
o
np
64.07 364.50 m
29.92 0 l
o
np
64.07 367.44 m
11.96 0 l
o
np
64.07 370.38 m
23.93 0 l
o
np
64.07 373.32 m
23.93 0 l
o
np
64.07 376.26 m
41.89 0 l
o
np
64.07 379.20 m
5.98 0 l
o
284.04 73.44 419.76 390.96 cl
284.04 73.44 419.76 390.96 cl
0.00 0.00 450.00 450.00 cl
0 0 0 srgb
0.75 setlinewidth
[] 0 setdash
1 setlinecap
1 setlinejoin
10.00 setmiterlimit
np
289.07 73.44 m
119.68 0 l
o
np
289.07 73.44 m
0 -7.20 l
o
np
318.99 73.44 m
0 -7.20 l
o
np
348.91 73.44 m
0 -7.20 l
o
np
378.83 73.44 m
0 -7.20 l
o
np
408.75 73.44 m
0 -7.20 l
o
/Font1 findfont 16 s
289.07 47.52 (0) .5 0 t
318.99 47.52 (5) .5 0 t
348.91 47.52 (10) .5 0 t
408.75 47.52 (20) .5 0 t
np
284.04 85.20 m
0 294.00 l
o
np
284.04 85.20 m
-7.20 0 l
o
np
284.04 144.00 m
-7.20 0 l
o
np
284.04 202.80 m
-7.20 0 l
o
np
284.04 261.60 m
-7.20 0 l
o
np
284.04 320.40 m
-7.20 0 l
o
np
284.04 379.20 m
-7.20 0 l
o
266.76 85.20 (0) .5 90 t
266.76 144.00 (20) .5 90 t
266.76 202.80 (40) .5 90 t
266.76 261.60 (60) .5 90 t
266.76 320.40 (80) .5 90 t
266.76 379.20 (100) .5 90 t
np
284.04 73.44 m
135.72 0 l
0 317.52 l
-135.72 0 l
0 -317.52 l
o
225.00 0.00 450.00 450.00 cl
/Font2 findfont 19 s
0 0 0 srgb
351.90 413.66 (\(b\)) .5 0 t
/Font1 findfont 16 s
316.78 18.72 (Cell inde) 0 ta
-0.480 (x) tb gr
237.96 183.74 (P) 90 ta
-0.640 (ar) tb
0.640 (ticle Inde) tb
-0.480 (x) tb gr
284.04 73.44 419.76 390.96 cl
0 0.6039 0.8039 srgb
0.60 setlinewidth
[ 1.80 3.00] 0 setdash
1 setlinecap
1 setlinejoin
10.00 setmiterlimit
np
289.07 88.14 m
71.81 0 l
o
np
289.07 91.08 m
71.81 0 l
o
np
289.07 94.02 m
71.81 0 l
o
np
289.07 96.96 m
65.82 0 l
o
np
289.07 99.90 m
59.84 0 l
o
np
289.07 102.84 m
59.84 0 l
o
np
289.07 105.78 m
59.84 0 l
o
np
289.07 108.72 m
53.85 0 l
o
np
289.07 111.66 m
53.85 0 l
o
np
289.07 114.60 m
53.85 0 l
o
np
289.07 117.54 m
53.85 0 l
o
np
289.07 120.48 m
53.85 0 l
o
np
289.07 123.42 m
47.87 0 l
o
np
289.07 126.36 m
47.87 0 l
o
np
289.07 129.30 m
47.87 0 l
o
np
289.07 132.24 m
47.87 0 l
o
np
289.07 135.18 m
47.87 0 l
o
np
289.07 138.12 m
47.87 0 l
o
np
289.07 141.06 m
47.87 0 l
o
np
289.07 144.00 m
41.89 0 l
o
np
289.07 146.94 m
41.89 0 l
o
np
289.07 149.88 m
41.89 0 l
o
np
289.07 152.82 m
41.89 0 l
o
np
289.07 155.76 m
41.89 0 l
o
np
289.07 158.70 m
35.90 0 l
o
np
289.07 161.64 m
35.90 0 l
o
np
289.07 164.58 m
35.90 0 l
o
np
289.07 167.52 m
35.90 0 l
o
np
289.07 170.46 m
35.90 0 l
o
np
289.07 173.40 m
35.90 0 l
o
np
289.07 176.34 m
35.90 0 l
o
np
289.07 179.28 m
35.90 0 l
o
np
289.07 182.22 m
29.92 0 l
o
np
289.07 185.16 m
29.92 0 l
o
np
289.07 188.10 m
29.92 0 l
o
np
289.07 191.04 m
29.92 0 l
o
np
289.07 193.98 m
29.92 0 l
o
np
289.07 196.92 m
29.92 0 l
o
np
289.07 199.86 m
29.92 0 l
o
np
289.07 202.80 m
29.92 0 l
o
np
289.07 205.74 m
29.92 0 l
o
np
289.07 208.68 m
29.92 0 l
o
np
289.07 211.62 m
23.93 0 l
o
np
289.07 214.56 m
23.93 0 l
o
np
289.07 217.50 m
23.93 0 l
o
np
289.07 220.44 m
23.93 0 l
o
np
289.07 223.38 m
23.93 0 l
o
np
289.07 226.32 m
23.93 0 l
o
np
289.07 229.26 m
23.93 0 l
o
np
289.07 232.20 m
23.93 0 l
o
np
289.07 235.14 m
23.93 0 l
o
np
289.07 238.08 m
23.93 0 l
o
np
289.07 241.02 m
23.93 0 l
o
np
289.07 243.96 m
23.93 0 l
o
np
289.07 246.90 m
23.93 0 l
o
np
289.07 249.84 m
23.93 0 l
o
np
289.07 252.78 m
17.95 0 l
o
np
289.07 255.72 m
17.95 0 l
o
np
289.07 258.66 m
17.95 0 l
o
np
289.07 261.60 m
17.95 0 l
o
np
289.07 264.54 m
17.95 0 l
o
np
289.07 267.48 m
17.95 0 l
o
np
289.07 270.42 m
17.95 0 l
o
np
289.07 273.36 m
17.95 0 l
o
np
289.07 276.30 m
17.95 0 l
o
np
289.07 279.24 m
17.95 0 l
o
np
289.07 282.18 m
17.95 0 l
o
np
289.07 285.12 m
17.95 0 l
o
np
289.07 288.06 m
17.95 0 l
o
np
289.07 291.00 m
17.95 0 l
o
np
289.07 293.94 m
11.96 0 l
o
np
289.07 296.88 m
11.96 0 l
o
np
289.07 299.82 m
11.96 0 l
o
np
289.07 302.76 m
11.96 0 l
o
np
289.07 305.70 m
11.96 0 l
o
np
289.07 308.64 m
11.96 0 l
o
np
289.07 311.58 m
11.96 0 l
o
np
289.07 314.52 m
11.96 0 l
o
np
289.07 317.46 m
11.96 0 l
o
np
289.07 320.40 m
11.96 0 l
o
np
289.07 323.34 m
11.96 0 l
o
np
289.07 326.28 m
11.96 0 l
o
np
289.07 329.22 m
11.96 0 l
o
np
289.07 332.16 m
11.96 0 l
o
np
289.07 335.10 m
11.96 0 l
o
np
289.07 338.04 m
11.96 0 l
o
np
289.07 340.98 m
11.96 0 l
o
np
289.07 343.92 m
5.98 0 l
o
np
289.07 346.86 m
5.98 0 l
o
np
289.07 349.80 m
5.98 0 l
o
np
289.07 352.74 m
5.98 0 l
o
np
289.07 355.68 m
5.98 0 l
o
np
289.07 358.62 m
5.98 0 l
o
np
289.07 361.56 m
5.98 0 l
o
np
289.07 364.50 m
5.98 0 l
o
np
289.07 367.44 m
5.98 0 l
o
np
289.07 370.38 m
5.98 0 l
o
np
289.07 373.32 m
5.98 0 l
o
np
289.07 376.26 m
5.98 0 l
o
np
289.07 379.20 m
5.98 0 l
o
1 0 0 srgb
0.75 setlinewidth
[] 0 setdash
np
289.07 379.20 m
5.98 0 l
o
np
295.05 332.60 m
5.98 0 l
o
np
301.03 287.81 m
5.99 0 l
o
np
307.02 246.46 m
5.98 0 l
o
np
313.00 209.77 m
5.99 0 l
o
np
318.99 178.49 m
5.98 0 l
o
np
324.97 152.86 m
5.99 0 l
o
np
330.96 132.68 m
5.98 0 l
o
np
336.94 117.42 m
5.98 0 l
o
np
342.92 106.33 m
5.99 0 l
o
np
348.91 98.58 m
5.98 0 l
o
np
354.89 93.38 m
5.99 0 l
o
np
360.88 90.02 m
5.98 0 l
o
np
366.86 87.94 m
5.98 0 l
o
np
372.84 86.70 m
5.99 0 l
o
np
378.83 85.99 m
5.98 0 l
o
np
384.81 85.60 m
5.99 0 l
o
np
390.80 85.40 m
5.98 0 l
o
np
396.78 85.29 m
5.99 0 l
o
np
402.77 85.23 m
5.98 0 l
o
0 0.6039 0.8039 srgb
0.75 setlinewidth
[ 2.25 3.75] 0 setdash
np
323.61 375.52 m
19.88 0 l
o
1 0 0 srgb
0.75 setlinewidth
[ 4.50 3.00] 0 setdash
np
323.61 360.08 m
19.88 0 l
o
/Font1 findfont 14 s
0 0 0 srgb
353.43 370.49 (P) 0 ta
-0.560 (ar) tb
0.560 (ticle P) tb
-0.560 (ath) tb gr
353.43 355.05 (Theor) 0 ta
0.420 (y) tb gr
/Font1 findfont 13 s
360.88 257.15 (t =  0.03125) .5 0 t
ep
%%Trailer
%%Pages: 1
%%EOF
