%!PS-Adobe-3.0 EPSF-3.0
%%DocumentNeededResources: font Helvetica
%%+ font Helvetica-Bold
%%+ font Helvetica-Oblique
%%+ font Helvetica-BoldOblique
%%+ font Symbol
%%Title: R Graphics Output
%%Creator: R Software
%%Pages: (atend)
%%BoundingBox: 0 0 515 379
%%EndComments
%%BeginProlog
/bp  { gs sRGB gs } def
% begin .ps.prolog
/gs  { gsave } bind def
/gr  { grestore } bind def
/ep  { showpage gr gr } bind def
/m   { moveto } bind def
/l  { rlineto } bind def
/np  { newpath } bind def
/cp  { closepath } bind def
/f   { fill } bind def
/o   { stroke } bind def
/c   { newpath 0 360 arc } bind def
/r   { 4 2 roll moveto 1 copy 3 -1 roll exch 0 exch rlineto 0 rlineto -1 mul 0 exch rlineto closepath } bind def
/p1  { stroke } bind def
/p2  { gsave bg fill grestore newpath } bind def
/p3  { gsave bg fill grestore stroke } bind def
/p6  { gsave bg eofill grestore newpath } bind def
/p7  { gsave bg eofill grestore stroke } bind def
/t   { 5 -2 roll moveto gsave rotate
       1 index stringwidth pop
       mul neg 0 rmoveto show grestore } bind def
/ta  { 4 -2 roll moveto gsave rotate show } bind def
/tb  { 2 -1 roll 0 rmoveto show } bind def
/cl  { grestore gsave newpath 3 index 3 index moveto 1 index
       4 -1 roll lineto  exch 1 index lineto lineto
       closepath clip newpath } bind def
/rgb { setrgbcolor } bind def
/s   { scalefont setfont } bind def
% end   .ps.prolog
/sRGB { [ /CIEBasedABC
          << /DecodeLMN
               [ { dup 0.03928 le
                        {12.92321 div}
                        {0.055 add 1.055 div 2.4 exp }
                     ifelse
                 } bind dup dup
               ]
             /MatrixLMN [0.412457 0.212673 0.019334
                         0.357576 0.715152 0.119192
                         0.180437 0.072175 0.950301]
             /WhitePoint [0.9505 1.0 1.0890]
           >>
         ] setcolorspace } bind def
/srgb { setcolor } bind def
% begin encoding
/WinAnsiEncoding [
 /.notdef /.notdef /.notdef /.notdef /.notdef /.notdef /.notdef /.notdef
 /.notdef /.notdef /.notdef /.notdef /.notdef /.notdef /.notdef /.notdef
 /.notdef /.notdef /.notdef /.notdef /.notdef /.notdef /.notdef /.notdef
 /.notdef /.notdef /.notdef /.notdef /.notdef /.notdef /.notdef /.notdef
 /space /exclam /quotedbl /numbersign /dollar /percent /ampersand /quoteright
 /parenleft /parenright /asterisk /plus /comma /minus /period /slash
 /zero /one /two /three /four /five /six /seven
 /eight /nine /colon /semicolon /less /equal /greater /question
 /at /A /B /C /D /E /F /G
 /H /I /J /K /L /M /N /O
 /P /Q /R /S /T /U /V /W
 /X /Y /Z /bracketleft /backslash /bracketright /asciicircum /underscore
 /grave /a /b /c /d /e /f /g
 /h /i /j /k /l /m /n /o
 /p /q /r /s /t /u /v /w
 /x /y /z /braceleft /bar /braceright /asciitilde /.notdef
 /Euro /.notdef /quotesinglbase /florin /quotedblbase /ellipsis /dagger /daggerdbl
 /circumflex /perthousand /Scaron /guilsinglleft /OE /.notdef /Zcaron /.notdef
 /.notdef /quoteleft /quoteright /quotedblleft /quotedblright /bullet /endash /emdash
 /tilde /trademark /scaron /guilsinglright /oe /.notdef /zcaron /Ydieresis
 /space /exclamdown /cent /sterling /currency /yen /brokenbar /section
 /dieresis /copyright /ordfeminine /guillemotleft /logicalnot /hyphen /registered /macron
 /degree /plusminus /twosuperior /threesuperior /acute /mu /paragraph /periodcentered
 /cedilla /onesuperior /ordmasculine /guillemotright /onequarter /onehalf /threequarters /questiondown
 /Agrave /Aacute /Acircumflex /Atilde /Adieresis /Aring /AE /Ccedilla
 /Egrave /Eacute /Ecircumflex /Edieresis /Igrave /Iacute /Icircumflex /Idieresis
 /Eth /Ntilde /Ograve /Oacute /Ocircumflex /Otilde /Odieresis /multiply
 /Oslash /Ugrave /Uacute /Ucircumflex /Udieresis /Yacute /Thorn /germandbls
 /agrave /aacute /acircumflex /atilde /adieresis /aring /ae /ccedilla
 /egrave /eacute /ecircumflex /edieresis /igrave /iacute /icircumflex /idieresis
 /eth /ntilde /ograve /oacute /ocircumflex /otilde /odieresis /divide
 /oslash /ugrave /uacute /ucircumflex /udieresis /yacute /thorn /ydieresis
]
 def
% end encoding
%%IncludeResource: font Helvetica
/Helvetica findfont
dup length dict begin
  {1 index /FID ne {def} {pop pop} ifelse} forall
  /Encoding WinAnsiEncoding def
  currentdict
  end
/Font1 exch definefont pop
%%IncludeResource: font Helvetica-Bold
/Helvetica-Bold findfont
dup length dict begin
  {1 index /FID ne {def} {pop pop} ifelse} forall
  /Encoding WinAnsiEncoding def
  currentdict
  end
/Font2 exch definefont pop
%%IncludeResource: font Helvetica-Oblique
/Helvetica-Oblique findfont
dup length dict begin
  {1 index /FID ne {def} {pop pop} ifelse} forall
  /Encoding WinAnsiEncoding def
  currentdict
  end
/Font3 exch definefont pop
%%IncludeResource: font Helvetica-BoldOblique
/Helvetica-BoldOblique findfont
dup length dict begin
  {1 index /FID ne {def} {pop pop} ifelse} forall
  /Encoding WinAnsiEncoding def
  currentdict
  end
/Font4 exch definefont pop
%%IncludeResource: font Symbol
/Symbol findfont
dup length dict begin
  {1 index /FID ne {def} {pop pop} ifelse} forall
  currentdict
  end
/Font5 exch definefont pop
%%EndProlog
%%Page: 1 1
bp
/bg { 1 1 1 srgb } def
0.00 0.00 515.25 379.50 r p2
59.04 73.44 227.38 320.46 cl
59.04 73.44 227.38 320.46 cl
0.00 0.00 515.25 379.50 cl
0 0 0 srgb
0.75 setlinewidth
[] 0 setdash
1 setlinecap
1 setlinejoin
10.00 setmiterlimit
np
65.27 73.44 m
148.46 0 l
o
np
65.27 73.44 m
0 -7.20 l
o
np
102.39 73.44 m
0 -7.20 l
o
np
139.50 73.44 m
0 -7.20 l
o
np
176.61 73.44 m
0 -7.20 l
o
np
213.73 73.44 m
0 -7.20 l
o
/Font1 findfont 16 s
65.27 47.52 (0) .5 0 t
102.39 47.52 (5) .5 0 t
139.50 47.52 (10) .5 0 t
176.61 47.52 (15) .5 0 t
213.73 47.52 (20) .5 0 t
np
59.04 82.59 m
0 228.72 l
o
np
59.04 82.59 m
-7.20 0 l
o
np
59.04 128.33 m
-7.20 0 l
o
np
59.04 174.08 m
-7.20 0 l
o
np
59.04 219.82 m
-7.20 0 l
o
np
59.04 265.57 m
-7.20 0 l
o
np
59.04 311.31 m
-7.20 0 l
o
41.76 82.59 (0) .5 90 t
41.76 128.33 (20) .5 90 t
41.76 174.08 (40) .5 90 t
41.76 219.82 (60) .5 90 t
41.76 265.57 (80) .5 90 t
41.76 311.31 (100) .5 90 t
np
59.04 73.44 m
168.34 0 l
0 247.02 l
-168.34 0 l
0 -247.02 l
o
0.00 0.00 257.63 379.50 cl
/Font2 findfont 19 s
0 0 0 srgb
143.21 343.16 (\(a\)) .5 0 t
/Font1 findfont 16 s
108.09 18.72 (Cell inde) 0 ta
-0.480 (x) tb gr
12.96 148.93 (P) 90 ta
-0.640 (ar) tb
0.640 (ticle inde) tb
-0.480 (x) tb gr
59.04 73.44 227.38 320.46 cl
0 0.6039 0.8039 srgb
0.60 setlinewidth
[] 0 setdash
1 setlinecap
1 setlinejoin
10.00 setmiterlimit
np
65.27 84.88 m
44.54 0 l
o
np
65.27 87.16 m
7.43 0 l
o
np
65.27 89.45 m
14.85 0 l
o
np
65.27 91.74 m
51.96 0 l
o
np
65.27 94.02 m
44.54 0 l
o
np
65.27 96.31 m
7.43 0 l
o
np
65.27 98.60 m
51.96 0 l
o
np
65.27 100.89 m
7.43 0 l
o
np
65.27 103.17 m
37.12 0 l
o
np
65.27 105.46 m
59.39 0 l
o
np
65.27 107.75 m
7.43 0 l
o
np
65.27 110.04 m
14.85 0 l
o
np
65.27 112.32 m
29.70 0 l
o
np
65.27 114.61 m
14.85 0 l
o
np
65.27 116.90 m
29.70 0 l
o
np
65.27 119.18 m
22.27 0 l
o
np
65.27 121.47 m
44.54 0 l
o
np
65.27 123.76 m
74.23 0 l
o
np
65.27 126.05 m
29.70 0 l
o
np
65.27 128.33 m
37.12 0 l
o
np
65.27 130.62 m
22.27 0 l
o
np
65.27 132.91 m
14.85 0 l
o
np
65.27 135.19 m
14.85 0 l
o
np
65.27 137.48 m
37.12 0 l
o
np
65.27 139.77 m
7.43 0 l
o
np
65.27 142.06 m
29.70 0 l
o
np
65.27 144.34 m
22.27 0 l
o
np
65.27 146.63 m
22.27 0 l
o
np
65.27 148.92 m
14.85 0 l
o
np
65.27 151.21 m
37.12 0 l
o
np
65.27 153.49 m
29.70 0 l
o
np
65.27 155.78 m
7.43 0 l
o
np
65.27 158.07 m
44.54 0 l
o
np
65.27 160.35 m
51.96 0 l
o
np
65.27 162.64 m
7.43 0 l
o
np
65.27 164.93 m
7.43 0 l
o
np
65.27 167.22 m
29.70 0 l
o
np
65.27 169.50 m
7.43 0 l
o
np
65.27 171.79 m
14.85 0 l
o
np
65.27 174.08 m
22.27 0 l
o
np
65.27 176.36 m
22.27 0 l
o
np
65.27 178.65 m
44.54 0 l
o
np
65.27 180.94 m
59.39 0 l
o
np
65.27 183.23 m
29.70 0 l
o
np
65.27 185.51 m
81.65 0 l
o
np
65.27 187.80 m
66.81 0 l
o
np
65.27 190.09 m
22.27 0 l
o
np
65.27 192.38 m
44.54 0 l
o
np
65.27 194.66 m
14.85 0 l
o
np
65.27 196.95 m
29.70 0 l
o
np
65.27 199.24 m
37.12 0 l
o
np
65.27 201.52 m
22.27 0 l
o
np
65.27 203.81 m
66.81 0 l
o
np
65.27 206.10 m
37.12 0 l
o
np
65.27 208.39 m
51.96 0 l
o
np
65.27 210.67 m
37.12 0 l
o
np
65.27 212.96 m
14.85 0 l
o
np
65.27 215.25 m
7.43 0 l
o
np
65.27 217.53 m
22.27 0 l
o
np
65.27 219.82 m
51.96 0 l
o
np
65.27 222.11 m
22.27 0 l
o
np
65.27 224.40 m
37.12 0 l
o
np
65.27 226.68 m
14.85 0 l
o
np
65.27 228.97 m
37.12 0 l
o
np
65.27 231.26 m
44.54 0 l
o
np
65.27 233.55 m
44.54 0 l
o
np
65.27 235.83 m
37.12 0 l
o
np
65.27 238.12 m
51.96 0 l
o
np
65.27 240.41 m
66.81 0 l
o
np
65.27 242.69 m
7.43 0 l
o
np
65.27 244.98 m
44.54 0 l
o
np
65.27 247.27 m
66.81 0 l
o
np
65.27 249.56 m
22.27 0 l
o
np
65.27 251.84 m
22.27 0 l
o
np
65.27 254.13 m
29.70 0 l
o
np
65.27 256.42 m
29.70 0 l
o
np
65.27 258.70 m
7.43 0 l
o
np
65.27 260.99 m
14.85 0 l
o
np
65.27 263.28 m
29.70 0 l
o
np
65.27 265.57 m
7.43 0 l
o
np
65.27 267.85 m
51.96 0 l
o
np
65.27 270.14 m
7.43 0 l
o
np
65.27 272.43 m
22.27 0 l
o
np
65.27 274.72 m
22.27 0 l
o
np
65.27 277.00 m
14.85 0 l
o
np
65.27 279.29 m
59.39 0 l
o
np
65.27 281.58 m
81.65 0 l
o
np
65.27 283.86 m
22.27 0 l
o
np
65.27 286.15 m
103.92 0 l
o
np
65.27 288.44 m
37.12 0 l
o
np
65.27 290.73 m
66.81 0 l
o
np
65.27 293.01 m
29.70 0 l
o
np
65.27 295.30 m
7.43 0 l
o
np
65.27 297.59 m
22.27 0 l
o
np
65.27 299.87 m
51.96 0 l
o
np
65.27 302.16 m
22.27 0 l
o
np
65.27 304.45 m
29.70 0 l
o
np
65.27 306.74 m
7.43 0 l
o
np
65.27 309.02 m
37.12 0 l
o
np
65.27 311.31 m
44.54 0 l
o
316.66 73.44 485.01 320.46 cl
316.66 73.44 485.01 320.46 cl
0.00 0.00 515.25 379.50 cl
0 0 0 srgb
0.75 setlinewidth
[] 0 setdash
1 setlinecap
1 setlinejoin
10.00 setmiterlimit
np
322.90 73.44 m
148.45 0 l
o
np
322.90 73.44 m
0 -7.20 l
o
np
360.01 73.44 m
0 -7.20 l
o
np
397.13 73.44 m
0 -7.20 l
o
np
434.24 73.44 m
0 -7.20 l
o
np
471.35 73.44 m
0 -7.20 l
o
/Font1 findfont 16 s
322.90 47.52 (0) .5 0 t
360.01 47.52 (5) .5 0 t
397.13 47.52 (10) .5 0 t
434.24 47.52 (15) .5 0 t
471.35 47.52 (20) .5 0 t
np
316.66 82.59 m
0 228.72 l
o
np
316.66 82.59 m
-7.20 0 l
o
np
316.66 128.33 m
-7.20 0 l
o
np
316.66 174.08 m
-7.20 0 l
o
np
316.66 219.82 m
-7.20 0 l
o
np
316.66 265.57 m
-7.20 0 l
o
np
316.66 311.31 m
-7.20 0 l
o
299.39 82.59 (0) .5 90 t
299.39 128.33 (20) .5 90 t
299.39 174.08 (40) .5 90 t
299.39 219.82 (60) .5 90 t
299.39 265.57 (80) .5 90 t
299.39 311.31 (100) .5 90 t
np
316.66 73.44 m
168.35 0 l
0 247.02 l
-168.35 0 l
0 -247.02 l
o
257.63 0.00 515.25 379.50 cl
/Font2 findfont 19 s
0 0 0 srgb
400.84 343.16 (\(b\)) .5 0 t
/Font1 findfont 16 s
365.72 18.72 (Cell inde) 0 ta
-0.480 (x) tb gr
270.58 148.49 (P) 90 ta
-0.640 (ar) tb
0.640 (ticle Inde) tb
-0.480 (x) tb gr
316.66 73.44 485.01 320.46 cl
0 0.6039 0.8039 srgb
0.60 setlinewidth
[] 0 setdash
1 setlinecap
1 setlinejoin
10.00 setmiterlimit
np
322.90 84.88 m
103.92 0 l
o
np
322.90 87.16 m
81.65 0 l
o
np
322.90 89.45 m
81.65 0 l
o
np
322.90 91.74 m
74.23 0 l
o
np
322.90 94.02 m
66.80 0 l
o
np
322.90 96.31 m
66.80 0 l
o
np
322.90 98.60 m
66.80 0 l
o
np
322.90 100.89 m
66.80 0 l
o
np
322.90 103.17 m
66.80 0 l
o
np
322.90 105.46 m
59.38 0 l
o
np
322.90 107.75 m
59.38 0 l
o
np
322.90 110.04 m
59.38 0 l
o
np
322.90 112.32 m
51.96 0 l
o
np
322.90 114.61 m
51.96 0 l
o
np
322.90 116.90 m
51.96 0 l
o
np
322.90 119.18 m
51.96 0 l
o
np
322.90 121.47 m
51.96 0 l
o
np
322.90 123.76 m
51.96 0 l
o
np
322.90 126.05 m
51.96 0 l
o
np
322.90 128.33 m
51.96 0 l
o
np
322.90 130.62 m
44.54 0 l
o
np
322.90 132.91 m
44.54 0 l
o
np
322.90 135.19 m
44.54 0 l
o
np
322.90 137.48 m
44.54 0 l
o
np
322.90 139.77 m
44.54 0 l
o
np
322.90 142.06 m
44.54 0 l
o
np
322.90 144.34 m
44.54 0 l
o
np
322.90 146.63 m
44.54 0 l
o
np
322.90 148.92 m
44.54 0 l
o
np
322.90 151.21 m
44.54 0 l
o
np
322.90 153.49 m
37.11 0 l
o
np
322.90 155.78 m
37.11 0 l
o
np
322.90 158.07 m
37.11 0 l
o
np
322.90 160.35 m
37.11 0 l
o
np
322.90 162.64 m
37.11 0 l
o
np
322.90 164.93 m
37.11 0 l
o
np
322.90 167.22 m
37.11 0 l
o
np
322.90 169.50 m
37.11 0 l
o
np
322.90 171.79 m
37.11 0 l
o
np
322.90 174.08 m
37.11 0 l
o
np
322.90 176.36 m
37.11 0 l
o
np
322.90 178.65 m
37.11 0 l
o
np
322.90 180.94 m
29.69 0 l
o
np
322.90 183.23 m
29.69 0 l
o
np
322.90 185.51 m
29.69 0 l
o
np
322.90 187.80 m
29.69 0 l
o
np
322.90 190.09 m
29.69 0 l
o
np
322.90 192.38 m
29.69 0 l
o
np
322.90 194.66 m
29.69 0 l
o
np
322.90 196.95 m
29.69 0 l
o
np
322.90 199.24 m
29.69 0 l
o
np
322.90 201.52 m
29.69 0 l
o
np
322.90 203.81 m
29.69 0 l
o
np
322.90 206.10 m
29.69 0 l
o
np
322.90 208.39 m
29.69 0 l
o
np
322.90 210.67 m
22.27 0 l
o
np
322.90 212.96 m
22.27 0 l
o
np
322.90 215.25 m
22.27 0 l
o
np
322.90 217.53 m
22.27 0 l
o
np
322.90 219.82 m
22.27 0 l
o
np
322.90 222.11 m
22.27 0 l
o
np
322.90 224.40 m
22.27 0 l
o
np
322.90 226.68 m
22.27 0 l
o
np
322.90 228.97 m
22.27 0 l
o
np
322.90 231.26 m
22.27 0 l
o
np
322.90 233.55 m
22.27 0 l
o
np
322.90 235.83 m
22.27 0 l
o
np
322.90 238.12 m
22.27 0 l
o
np
322.90 240.41 m
22.27 0 l
o
np
322.90 242.69 m
22.27 0 l
o
np
322.90 244.98 m
22.27 0 l
o
np
322.90 247.27 m
22.27 0 l
o
np
322.90 249.56 m
14.85 0 l
o
np
322.90 251.84 m
14.85 0 l
o
np
322.90 254.13 m
14.85 0 l
o
np
322.90 256.42 m
14.85 0 l
o
np
322.90 258.70 m
14.85 0 l
o
np
322.90 260.99 m
14.85 0 l
o
np
322.90 263.28 m
14.85 0 l
o
np
322.90 265.57 m
14.85 0 l
o
np
322.90 267.85 m
14.85 0 l
o
np
322.90 270.14 m
14.85 0 l
o
np
322.90 272.43 m
14.85 0 l
o
np
322.90 274.72 m
14.85 0 l
o
np
322.90 277.00 m
7.42 0 l
o
np
322.90 279.29 m
7.42 0 l
o
np
322.90 281.58 m
7.42 0 l
o
np
322.90 283.86 m
7.42 0 l
o
np
322.90 286.15 m
7.42 0 l
o
np
322.90 288.44 m
7.42 0 l
o
np
322.90 290.73 m
7.42 0 l
o
np
322.90 293.01 m
7.42 0 l
o
np
322.90 295.30 m
7.42 0 l
o
np
322.90 297.59 m
7.42 0 l
o
np
322.90 299.87 m
7.42 0 l
o
np
322.90 302.16 m
7.42 0 l
o
np
322.90 304.45 m
7.42 0 l
o
np
322.90 306.74 m
7.42 0 l
o
np
322.90 309.02 m
7.42 0 l
o
np
322.90 311.31 m
7.42 0 l
o
1 0 0 srgb
1.50 setlinewidth
[] 0 setdash
np
322.90 311.31 m
7.42 0 l
o
np
330.32 275.05 m
7.43 0 l
o
np
337.75 240.21 m
7.42 0 l
o
np
345.17 208.04 m
7.42 0 l
o
np
352.59 179.50 m
7.42 0 l
o
np
360.01 155.16 m
7.43 0 l
o
np
367.44 135.23 m
7.42 0 l
o
np
374.86 119.53 m
7.42 0 l
o
np
382.28 107.66 m
7.42 0 l
o
np
389.70 99.02 m
7.43 0 l
o
np
397.13 93.00 m
7.42 0 l
o
np
404.55 88.95 m
7.42 0 l
o
np
411.97 86.34 m
7.42 0 l
o
np
419.39 84.72 m
7.43 0 l
o
np
426.82 83.76 m
7.42 0 l
o
np
434.24 83.21 m
7.42 0 l
o
np
441.66 82.90 m
7.42 0 l
o
np
449.08 82.74 m
7.43 0 l
o
np
456.51 82.66 m
7.42 0 l
o
np
463.93 82.62 m
7.42 0 l
o
0 0.6039 0.8039 srgb
0.75 setlinewidth
[] 0 setdash
np
357.43 311.12 m
19.18 0 l
o
1 0 0 srgb
0.75 setlinewidth
[ 4.50 3.00] 0 setdash
np
357.43 301.77 m
19.18 0 l
o
/Font1 findfont 11 s
0 0 0 srgb
386.20 307.17 (P) 0 ta
-0.440 (ar) tb
0.440 (ticle P) tb
-0.440 (ath) tb gr
386.20 297.83 (Theor) 0 ta
0.330 (y) tb gr
/Font1 findfont 10 s
411.97 216.40 (t =  0.03125) .5 0 t
ep
%%Trailer
%%Pages: 1
%%EOF
