%!PS-Adobe-3.0 EPSF-3.0
%%DocumentNeededResources: font Helvetica
%%+ font Helvetica-Bold
%%+ font Helvetica-Oblique
%%+ font Helvetica-BoldOblique
%%+ font Symbol
%%Title: R Graphics Output
%%Creator: R Software
%%Pages: (atend)
%%BoundingBox: 0 0 475 428
%%EndComments
%%BeginProlog
/bp  { gs sRGB gs } def
% begin .ps.prolog
/gs  { gsave } bind def
/gr  { grestore } bind def
/ep  { showpage gr gr } bind def
/m   { moveto } bind def
/l  { rlineto } bind def
/np  { newpath } bind def
/cp  { closepath } bind def
/f   { fill } bind def
/o   { stroke } bind def
/c   { newpath 0 360 arc } bind def
/r   { 4 2 roll moveto 1 copy 3 -1 roll exch 0 exch rlineto 0 rlineto -1 mul 0 exch rlineto closepath } bind def
/p1  { stroke } bind def
/p2  { gsave bg fill grestore newpath } bind def
/p3  { gsave bg fill grestore stroke } bind def
/p6  { gsave bg eofill grestore newpath } bind def
/p7  { gsave bg eofill grestore stroke } bind def
/t   { 5 -2 roll moveto gsave rotate
       1 index stringwidth pop
       mul neg 0 rmoveto show grestore } bind def
/ta  { 4 -2 roll moveto gsave rotate show } bind def
/tb  { 2 -1 roll 0 rmoveto show } bind def
/cl  { grestore gsave newpath 3 index 3 index moveto 1 index
       4 -1 roll lineto  exch 1 index lineto lineto
       closepath clip newpath } bind def
/rgb { setrgbcolor } bind def
/s   { scalefont setfont } bind def
% end   .ps.prolog
/sRGB { [ /CIEBasedABC
          << /DecodeLMN
               [ { dup 0.03928 le
                        {12.92321 div}
                        {0.055 add 1.055 div 2.4 exp }
                     ifelse
                 } bind dup dup
               ]
             /MatrixLMN [0.412457 0.212673 0.019334
                         0.357576 0.715152 0.119192
                         0.180437 0.072175 0.950301]
             /WhitePoint [0.9505 1.0 1.0890]
           >>
         ] setcolorspace } bind def
/srgb { setcolor } bind def
% begin encoding
/WinAnsiEncoding [
 /.notdef /.notdef /.notdef /.notdef /.notdef /.notdef /.notdef /.notdef
 /.notdef /.notdef /.notdef /.notdef /.notdef /.notdef /.notdef /.notdef
 /.notdef /.notdef /.notdef /.notdef /.notdef /.notdef /.notdef /.notdef
 /.notdef /.notdef /.notdef /.notdef /.notdef /.notdef /.notdef /.notdef
 /space /exclam /quotedbl /numbersign /dollar /percent /ampersand /quoteright
 /parenleft /parenright /asterisk /plus /comma /minus /period /slash
 /zero /one /two /three /four /five /six /seven
 /eight /nine /colon /semicolon /less /equal /greater /question
 /at /A /B /C /D /E /F /G
 /H /I /J /K /L /M /N /O
 /P /Q /R /S /T /U /V /W
 /X /Y /Z /bracketleft /backslash /bracketright /asciicircum /underscore
 /grave /a /b /c /d /e /f /g
 /h /i /j /k /l /m /n /o
 /p /q /r /s /t /u /v /w
 /x /y /z /braceleft /bar /braceright /asciitilde /.notdef
 /Euro /.notdef /quotesinglbase /florin /quotedblbase /ellipsis /dagger /daggerdbl
 /circumflex /perthousand /Scaron /guilsinglleft /OE /.notdef /Zcaron /.notdef
 /.notdef /quoteleft /quoteright /quotedblleft /quotedblright /bullet /endash /emdash
 /tilde /trademark /scaron /guilsinglright /oe /.notdef /zcaron /Ydieresis
 /space /exclamdown /cent /sterling /currency /yen /brokenbar /section
 /dieresis /copyright /ordfeminine /guillemotleft /logicalnot /hyphen /registered /macron
 /degree /plusminus /twosuperior /threesuperior /acute /mu /paragraph /periodcentered
 /cedilla /onesuperior /ordmasculine /guillemotright /onequarter /onehalf /threequarters /questiondown
 /Agrave /Aacute /Acircumflex /Atilde /Adieresis /Aring /AE /Ccedilla
 /Egrave /Eacute /Ecircumflex /Edieresis /Igrave /Iacute /Icircumflex /Idieresis
 /Eth /Ntilde /Ograve /Oacute /Ocircumflex /Otilde /Odieresis /multiply
 /Oslash /Ugrave /Uacute /Ucircumflex /Udieresis /Yacute /Thorn /germandbls
 /agrave /aacute /acircumflex /atilde /adieresis /aring /ae /ccedilla
 /egrave /eacute /ecircumflex /edieresis /igrave /iacute /icircumflex /idieresis
 /eth /ntilde /ograve /oacute /ocircumflex /otilde /odieresis /divide
 /oslash /ugrave /uacute /ucircumflex /udieresis /yacute /thorn /ydieresis
]
 def
% end encoding
%%IncludeResource: font Helvetica
/Helvetica findfont
dup length dict begin
  {1 index /FID ne {def} {pop pop} ifelse} forall
  /Encoding WinAnsiEncoding def
  currentdict
  end
/Font1 exch definefont pop
%%IncludeResource: font Helvetica-Bold
/Helvetica-Bold findfont
dup length dict begin
  {1 index /FID ne {def} {pop pop} ifelse} forall
  /Encoding WinAnsiEncoding def
  currentdict
  end
/Font2 exch definefont pop
%%IncludeResource: font Helvetica-Oblique
/Helvetica-Oblique findfont
dup length dict begin
  {1 index /FID ne {def} {pop pop} ifelse} forall
  /Encoding WinAnsiEncoding def
  currentdict
  end
/Font3 exch definefont pop
%%IncludeResource: font Helvetica-BoldOblique
/Helvetica-BoldOblique findfont
dup length dict begin
  {1 index /FID ne {def} {pop pop} ifelse} forall
  /Encoding WinAnsiEncoding def
  currentdict
  end
/Font4 exch definefont pop
%%IncludeResource: font Symbol
/Symbol findfont
dup length dict begin
  {1 index /FID ne {def} {pop pop} ifelse} forall
  currentdict
  end
/Font5 exch definefont pop
%%EndProlog
%%Page: 1 1
bp
/bg { 1 1 1 srgb } def
0.00 0.00 474.75 427.50 r p2
59.04 73.44 444.51 368.46 cl
59.04 73.44 444.51 368.46 cl
0 0 0 srgb
0.75 setlinewidth
[] 0 setdash
1 setlinecap
1 setlinejoin
10.00 setmiterlimit
81.81 29.73 2.70 c p1
98.81 29.73 2.70 c p1
115.81 29.73 2.70 c p1
132.80 29.73 2.70 c p1
149.80 29.73 2.70 c p1
166.79 29.73 2.70 c p1
183.79 29.73 2.70 c p1
200.79 29.73 2.70 c p1
217.78 29.73 2.70 c p1
234.78 29.73 2.70 c p1
251.77 29.73 2.70 c p1
268.77 29.73 2.70 c p1
285.77 29.73 2.70 c p1
302.76 29.73 2.70 c p1
319.76 29.73 2.70 c p1
336.76 29.73 2.70 c p1
353.75 29.73 2.70 c p1
370.75 29.73 2.70 c p1
387.74 29.73 2.70 c p1
404.74 29.73 2.70 c p1
0.00 0.00 474.75 427.50 cl
0 0 0 srgb
0.75 setlinewidth
[] 0 setdash
1 setlinecap
1 setlinejoin
10.00 setmiterlimit
np
73.32 73.44 m
339.92 0 l
o
np
73.32 73.44 m
0 -7.20 l
o
np
158.30 73.44 m
0 -7.20 l
o
np
243.28 73.44 m
0 -7.20 l
o
np
328.26 73.44 m
0 -7.20 l
o
np
413.24 73.44 m
0 -7.20 l
o
/Font1 findfont 16 s
73.32 47.52 (0) .5 0 t
158.30 47.52 (5) .5 0 t
243.28 47.52 (10) .5 0 t
328.26 47.52 (15) .5 0 t
413.24 47.52 (20) .5 0 t
np
59.04 84.37 m
0 273.16 l
o
np
59.04 84.37 m
-7.20 0 l
o
np
59.04 139.00 m
-7.20 0 l
o
np
59.04 193.63 m
-7.20 0 l
o
np
59.04 248.27 m
-7.20 0 l
o
np
59.04 302.90 m
-7.20 0 l
o
np
59.04 357.53 m
-7.20 0 l
o
41.76 84.37 (0) .5 90 t
41.76 139.00 (100) .5 90 t
41.76 193.63 (200) .5 90 t
41.76 248.27 (300) .5 90 t
41.76 302.90 (400) .5 90 t
41.76 357.53 (500) .5 90 t
np
59.04 73.44 m
385.47 0 l
0 295.02 l
-385.47 0 l
0 -295.02 l
o
0.00 0.00 474.75 427.50 cl
/Font1 findfont 16 s
0 0 0 srgb
216.65 18.72 (Cell inde) 0 ta
-0.480 (x) tb gr
12.96 172.93 (P) 90 ta
-0.640 (ar) tb
0.640 (ticle inde) tb
-0.480 (x) tb gr
59.04 73.44 444.51 368.46 cl
0.6784 0.8471 0.9020 srgb
0.60 setlinewidth
[] 0 setdash
1 setlinecap
1 setlinejoin
10.00 setmiterlimit
np
73.32 84.91 m
16.99 0 l
o
np
73.32 85.46 m
254.94 0 l
o
np
73.32 86.01 m
237.94 0 l
o
np
73.32 86.55 m
101.97 0 l
o
np
73.32 87.10 m
118.97 0 l
o
np
73.32 87.64 m
101.97 0 l
o
np
73.32 88.19 m
67.98 0 l
o
np
73.32 88.74 m
33.99 0 l
o
np
73.32 89.28 m
254.94 0 l
o
np
73.32 89.83 m
16.99 0 l
o
np
73.32 90.38 m
237.94 0 l
o
np
73.32 90.92 m
84.98 0 l
o
np
73.32 91.47 m
169.96 0 l
o
np
73.32 92.02 m
16.99 0 l
o
np
73.32 92.56 m
16.99 0 l
o
np
73.32 93.11 m
254.94 0 l
o
np
73.32 93.65 m
33.99 0 l
o
np
73.32 94.20 m
50.98 0 l
o
np
73.32 94.75 m
67.98 0 l
o
np
73.32 95.29 m
84.98 0 l
o
np
73.32 95.84 m
67.98 0 l
o
np
73.32 96.39 m
33.99 0 l
o
np
73.32 96.93 m
33.99 0 l
o
np
73.32 97.48 m
135.96 0 l
o
np
73.32 98.03 m
16.99 0 l
o
np
73.32 98.57 m
16.99 0 l
o
np
73.32 99.12 m
101.97 0 l
o
np
73.32 99.66 m
33.99 0 l
o
np
73.32 100.21 m
84.98 0 l
o
np
73.32 100.76 m
50.98 0 l
o
np
73.32 101.30 m
33.99 0 l
o
np
73.32 101.85 m
237.94 0 l
o
np
73.32 102.40 m
203.95 0 l
o
np
73.32 102.94 m
135.96 0 l
o
np
73.32 103.49 m
186.95 0 l
o
np
73.32 104.03 m
254.94 0 l
o
np
73.32 104.58 m
220.95 0 l
o
np
73.32 105.13 m
152.96 0 l
o
np
73.32 105.67 m
169.96 0 l
o
np
73.32 106.22 m
16.99 0 l
o
np
73.32 106.77 m
220.95 0 l
o
np
73.32 107.31 m
16.99 0 l
o
np
73.32 107.86 m
50.98 0 l
o
np
73.32 108.41 m
203.95 0 l
o
np
73.32 108.95 m
203.95 0 l
o
np
73.32 109.50 m
169.96 0 l
o
np
73.32 110.04 m
16.99 0 l
o
np
73.32 110.59 m
101.97 0 l
o
np
73.32 111.14 m
101.97 0 l
o
np
73.32 111.68 m
16.99 0 l
o
np
73.32 112.23 m
67.98 0 l
o
np
73.32 112.78 m
67.98 0 l
o
np
73.32 113.32 m
305.93 0 l
o
np
73.32 113.87 m
186.95 0 l
o
np
73.32 114.41 m
152.96 0 l
o
np
73.32 114.96 m
16.99 0 l
o
np
73.32 115.51 m
101.97 0 l
o
np
73.32 116.05 m
67.98 0 l
o
np
73.32 116.60 m
186.95 0 l
o
np
73.32 117.15 m
16.99 0 l
o
np
73.32 117.69 m
220.95 0 l
o
np
73.32 118.24 m
220.95 0 l
o
np
73.32 118.79 m
135.96 0 l
o
np
73.32 119.33 m
186.95 0 l
o
np
73.32 119.88 m
322.92 0 l
o
np
73.32 120.42 m
254.94 0 l
o
np
73.32 120.97 m
33.99 0 l
o
np
73.32 121.52 m
50.98 0 l
o
np
73.32 122.06 m
16.99 0 l
o
np
73.32 122.61 m
271.93 0 l
o
np
73.32 123.16 m
118.97 0 l
o
np
73.32 123.70 m
203.95 0 l
o
np
73.32 124.25 m
101.97 0 l
o
np
73.32 124.80 m
203.95 0 l
o
np
73.32 125.34 m
84.98 0 l
o
np
73.32 125.89 m
84.98 0 l
o
np
73.32 126.43 m
271.93 0 l
o
np
73.32 126.98 m
33.99 0 l
o
np
73.32 127.53 m
135.96 0 l
o
np
73.32 128.07 m
16.99 0 l
o
np
73.32 128.62 m
33.99 0 l
o
np
73.32 129.17 m
84.98 0 l
o
np
73.32 129.71 m
50.98 0 l
o
np
73.32 130.26 m
203.95 0 l
o
np
73.32 130.81 m
118.97 0 l
o
np
73.32 131.35 m
237.94 0 l
o
np
73.32 131.90 m
152.96 0 l
o
np
73.32 132.44 m
237.94 0 l
o
np
73.32 132.99 m
220.95 0 l
o
np
73.32 133.54 m
67.98 0 l
o
np
73.32 134.08 m
152.96 0 l
o
np
73.32 134.63 m
152.96 0 l
o
np
73.32 135.18 m
84.98 0 l
o
np
73.32 135.72 m
84.98 0 l
o
np
73.32 136.27 m
84.98 0 l
o
np
73.32 136.81 m
33.99 0 l
o
np
73.32 137.36 m
322.92 0 l
o
np
73.32 137.91 m
186.95 0 l
o
np
73.32 138.45 m
322.92 0 l
o
np
73.32 139.00 m
84.98 0 l
o
np
73.32 139.55 m
152.96 0 l
o
np
73.32 140.09 m
339.92 0 l
o
np
73.32 140.64 m
152.96 0 l
o
np
73.32 141.19 m
186.95 0 l
o
np
73.32 141.73 m
84.98 0 l
o
np
73.32 142.28 m
203.95 0 l
o
np
73.32 142.82 m
220.95 0 l
o
np
73.32 143.37 m
169.96 0 l
o
np
73.32 143.92 m
254.94 0 l
o
np
73.32 144.46 m
67.98 0 l
o
np
73.32 145.01 m
169.96 0 l
o
np
73.32 145.56 m
288.93 0 l
o
np
73.32 146.10 m
305.93 0 l
o
np
73.32 146.65 m
101.97 0 l
o
np
73.32 147.20 m
67.98 0 l
o
np
73.32 147.74 m
135.96 0 l
o
np
73.32 148.29 m
254.94 0 l
o
np
73.32 148.83 m
33.99 0 l
o
np
73.32 149.38 m
288.93 0 l
o
np
73.32 149.93 m
169.96 0 l
o
np
73.32 150.47 m
67.98 0 l
o
np
73.32 151.02 m
84.98 0 l
o
np
73.32 151.57 m
254.94 0 l
o
np
73.32 152.11 m
84.98 0 l
o
np
73.32 152.66 m
67.98 0 l
o
np
73.32 153.20 m
169.96 0 l
o
np
73.32 153.75 m
203.95 0 l
o
np
73.32 154.30 m
101.97 0 l
o
np
73.32 154.84 m
50.98 0 l
o
np
73.32 155.39 m
305.93 0 l
o
np
73.32 155.94 m
271.93 0 l
o
np
73.32 156.48 m
101.97 0 l
o
np
73.32 157.03 m
33.99 0 l
o
np
73.32 157.58 m
84.98 0 l
o
np
73.32 158.12 m
169.96 0 l
o
np
73.32 158.67 m
152.96 0 l
o
np
73.32 159.21 m
254.94 0 l
o
np
73.32 159.76 m
152.96 0 l
o
np
73.32 160.31 m
33.99 0 l
o
np
73.32 160.85 m
16.99 0 l
o
np
73.32 161.40 m
101.97 0 l
o
np
73.32 161.95 m
305.93 0 l
o
np
73.32 162.49 m
33.99 0 l
o
np
73.32 163.04 m
186.95 0 l
o
np
73.32 163.59 m
50.98 0 l
o
np
73.32 164.13 m
322.92 0 l
o
np
73.32 164.68 m
169.96 0 l
o
np
73.32 165.22 m
339.92 0 l
o
np
73.32 165.77 m
322.92 0 l
o
np
73.32 166.32 m
16.99 0 l
o
np
73.32 166.86 m
152.96 0 l
o
np
73.32 167.41 m
135.96 0 l
o
np
73.32 167.96 m
135.96 0 l
o
np
73.32 168.50 m
288.93 0 l
o
np
73.32 169.05 m
271.93 0 l
o
np
73.32 169.59 m
84.98 0 l
o
np
73.32 170.14 m
118.97 0 l
o
np
73.32 170.69 m
67.98 0 l
o
np
73.32 171.23 m
237.94 0 l
o
np
73.32 171.78 m
203.95 0 l
o
np
73.32 172.33 m
271.93 0 l
o
np
73.32 172.87 m
271.93 0 l
o
np
73.32 173.42 m
254.94 0 l
o
np
73.32 173.97 m
118.97 0 l
o
np
73.32 174.51 m
186.95 0 l
o
np
73.32 175.06 m
50.98 0 l
o
np
73.32 175.60 m
339.92 0 l
o
np
73.32 176.15 m
33.99 0 l
o
np
73.32 176.70 m
67.98 0 l
o
np
73.32 177.24 m
186.95 0 l
o
np
73.32 177.79 m
186.95 0 l
o
np
73.32 178.34 m
135.96 0 l
o
np
73.32 178.88 m
33.99 0 l
o
np
73.32 179.43 m
101.97 0 l
o
np
73.32 179.97 m
186.95 0 l
o
np
73.32 180.52 m
186.95 0 l
o
np
73.32 181.07 m
135.96 0 l
o
np
73.32 181.61 m
169.96 0 l
o
np
73.32 182.16 m
50.98 0 l
o
np
73.32 182.71 m
67.98 0 l
o
np
73.32 183.25 m
118.97 0 l
o
np
73.32 183.80 m
135.96 0 l
o
np
73.32 184.35 m
84.98 0 l
o
np
73.32 184.89 m
101.97 0 l
o
np
73.32 185.44 m
152.96 0 l
o
np
73.32 185.98 m
50.98 0 l
o
np
73.32 186.53 m
50.98 0 l
o
np
73.32 187.08 m
305.93 0 l
o
np
73.32 187.62 m
237.94 0 l
o
np
73.32 188.17 m
152.96 0 l
o
np
73.32 188.72 m
288.93 0 l
o
np
73.32 189.26 m
67.98 0 l
o
np
73.32 189.81 m
288.93 0 l
o
np
73.32 190.36 m
118.97 0 l
o
np
73.32 190.90 m
67.98 0 l
o
np
73.32 191.45 m
152.96 0 l
o
np
73.32 191.99 m
305.93 0 l
o
np
73.32 192.54 m
50.98 0 l
o
np
73.32 193.09 m
16.99 0 l
o
np
73.32 193.63 m
101.97 0 l
o
np
73.32 194.18 m
101.97 0 l
o
np
73.32 194.73 m
135.96 0 l
o
np
73.32 195.27 m
101.97 0 l
o
np
73.32 195.82 m
169.96 0 l
o
np
73.32 196.37 m
101.97 0 l
o
np
73.32 196.91 m
118.97 0 l
o
np
73.32 197.46 m
33.99 0 l
o
np
73.32 198.00 m
271.93 0 l
o
np
73.32 198.55 m
101.97 0 l
o
np
73.32 199.10 m
135.96 0 l
o
np
73.32 199.64 m
203.95 0 l
o
np
73.32 200.19 m
67.98 0 l
o
np
73.32 200.74 m
67.98 0 l
o
np
73.32 201.28 m
16.99 0 l
o
np
73.32 201.83 m
169.96 0 l
o
np
73.32 202.37 m
152.96 0 l
o
np
73.32 202.92 m
101.97 0 l
o
np
73.32 203.47 m
67.98 0 l
o
np
73.32 204.01 m
67.98 0 l
o
np
73.32 204.56 m
67.98 0 l
o
np
73.32 205.11 m
50.98 0 l
o
np
73.32 205.65 m
220.95 0 l
o
np
73.32 206.20 m
203.95 0 l
o
np
73.32 206.75 m
186.95 0 l
o
np
73.32 207.29 m
50.98 0 l
o
np
73.32 207.84 m
67.98 0 l
o
np
73.32 208.38 m
322.92 0 l
o
np
73.32 208.93 m
305.93 0 l
o
np
73.32 209.48 m
118.97 0 l
o
np
73.32 210.02 m
339.92 0 l
o
np
73.32 210.57 m
169.96 0 l
o
np
73.32 211.12 m
50.98 0 l
o
np
73.32 211.66 m
288.93 0 l
o
np
73.32 212.21 m
33.99 0 l
o
np
73.32 212.76 m
135.96 0 l
o
np
73.32 213.30 m
84.98 0 l
o
np
73.32 213.85 m
50.98 0 l
o
np
73.32 214.39 m
254.94 0 l
o
np
73.32 214.94 m
135.96 0 l
o
np
73.32 215.49 m
339.92 0 l
o
np
73.32 216.03 m
16.99 0 l
o
np
73.32 216.58 m
305.93 0 l
o
np
73.32 217.13 m
339.92 0 l
o
np
73.32 217.67 m
118.97 0 l
o
np
73.32 218.22 m
203.95 0 l
o
np
73.32 218.76 m
67.98 0 l
o
np
73.32 219.31 m
339.92 0 l
o
np
73.32 219.86 m
33.99 0 l
o
np
73.32 220.40 m
33.99 0 l
o
np
73.32 220.95 m
16.99 0 l
o
np
73.32 221.50 m
118.97 0 l
o
np
73.32 222.04 m
271.93 0 l
o
np
73.32 222.59 m
84.98 0 l
o
np
73.32 223.14 m
220.95 0 l
o
np
73.32 223.68 m
101.97 0 l
o
np
73.32 224.23 m
254.94 0 l
o
np
73.32 224.77 m
67.98 0 l
o
np
73.32 225.32 m
101.97 0 l
o
np
73.32 225.87 m
152.96 0 l
o
np
73.32 226.41 m
84.98 0 l
o
np
73.32 226.96 m
118.97 0 l
o
np
73.32 227.51 m
203.95 0 l
o
np
73.32 228.05 m
33.99 0 l
o
np
73.32 228.60 m
16.99 0 l
o
np
73.32 229.14 m
203.95 0 l
o
np
73.32 229.69 m
33.99 0 l
o
np
73.32 230.24 m
254.94 0 l
o
np
73.32 230.78 m
16.99 0 l
o
np
73.32 231.33 m
186.95 0 l
o
np
73.32 231.88 m
339.92 0 l
o
np
73.32 232.42 m
203.95 0 l
o
np
73.32 232.97 m
67.98 0 l
o
np
73.32 233.52 m
16.99 0 l
o
np
73.32 234.06 m
67.98 0 l
o
np
73.32 234.61 m
288.93 0 l
o
np
73.32 235.15 m
67.98 0 l
o
np
73.32 235.70 m
101.97 0 l
o
np
73.32 236.25 m
84.98 0 l
o
np
73.32 236.79 m
186.95 0 l
o
np
73.32 237.34 m
33.99 0 l
o
np
73.32 237.89 m
135.96 0 l
o
np
73.32 238.43 m
118.97 0 l
o
np
73.32 238.98 m
152.96 0 l
o
np
73.32 239.53 m
288.93 0 l
o
np
73.32 240.07 m
84.98 0 l
o
np
73.32 240.62 m
50.98 0 l
o
np
73.32 241.16 m
50.98 0 l
o
np
73.32 241.71 m
16.99 0 l
o
np
73.32 242.26 m
322.92 0 l
o
np
73.32 242.80 m
152.96 0 l
o
np
73.32 243.35 m
33.99 0 l
o
np
73.32 243.90 m
84.98 0 l
o
np
73.32 244.44 m
186.95 0 l
o
np
73.32 244.99 m
67.98 0 l
o
np
73.32 245.54 m
305.93 0 l
o
np
73.32 246.08 m
135.96 0 l
o
np
73.32 246.63 m
271.93 0 l
o
np
73.32 247.17 m
288.93 0 l
o
np
73.32 247.72 m
169.96 0 l
o
np
73.32 248.27 m
135.96 0 l
o
np
73.32 248.81 m
84.98 0 l
o
np
73.32 249.36 m
220.95 0 l
o
np
73.32 249.91 m
271.93 0 l
o
np
73.32 250.45 m
203.95 0 l
o
np
73.32 251.00 m
135.96 0 l
o
np
73.32 251.54 m
152.96 0 l
o
np
73.32 252.09 m
203.95 0 l
o
np
73.32 252.64 m
186.95 0 l
o
np
73.32 253.18 m
186.95 0 l
o
np
73.32 253.73 m
84.98 0 l
o
np
73.32 254.28 m
152.96 0 l
o
np
73.32 254.82 m
169.96 0 l
o
np
73.32 255.37 m
288.93 0 l
o
np
73.32 255.92 m
152.96 0 l
o
np
73.32 256.46 m
33.99 0 l
o
np
73.32 257.01 m
288.93 0 l
o
np
73.32 257.55 m
322.92 0 l
o
np
73.32 258.10 m
50.98 0 l
o
np
73.32 258.65 m
84.98 0 l
o
np
73.32 259.19 m
339.92 0 l
o
np
73.32 259.74 m
33.99 0 l
o
np
73.32 260.29 m
67.98 0 l
o
np
73.32 260.83 m
67.98 0 l
o
np
73.32 261.38 m
67.98 0 l
o
np
73.32 261.93 m
16.99 0 l
o
np
73.32 262.47 m
152.96 0 l
o
np
73.32 263.02 m
220.95 0 l
o
np
73.32 263.56 m
135.96 0 l
o
np
73.32 264.11 m
152.96 0 l
o
np
73.32 264.66 m
135.96 0 l
o
np
73.32 265.20 m
16.99 0 l
o
np
73.32 265.75 m
152.96 0 l
o
np
73.32 266.30 m
254.94 0 l
o
np
73.32 266.84 m
152.96 0 l
o
np
73.32 267.39 m
118.97 0 l
o
np
73.32 267.93 m
135.96 0 l
o
np
73.32 268.48 m
186.95 0 l
o
np
73.32 269.03 m
322.92 0 l
o
np
73.32 269.57 m
135.96 0 l
o
np
73.32 270.12 m
33.99 0 l
o
np
73.32 270.67 m
16.99 0 l
o
np
73.32 271.21 m
254.94 0 l
o
np
73.32 271.76 m
186.95 0 l
o
np
73.32 272.31 m
101.97 0 l
o
np
73.32 272.85 m
254.94 0 l
o
np
73.32 273.40 m
101.97 0 l
o
np
73.32 273.94 m
271.93 0 l
o
np
73.32 274.49 m
84.98 0 l
o
np
73.32 275.04 m
220.95 0 l
o
np
73.32 275.58 m
16.99 0 l
o
np
73.32 276.13 m
118.97 0 l
o
np
73.32 276.68 m
339.92 0 l
o
np
73.32 277.22 m
135.96 0 l
o
np
73.32 277.77 m
67.98 0 l
o
np
73.32 278.32 m
169.96 0 l
o
np
73.32 278.86 m
50.98 0 l
o
np
73.32 279.41 m
84.98 0 l
o
np
73.32 279.95 m
33.99 0 l
o
np
73.32 280.50 m
50.98 0 l
o
np
73.32 281.05 m
84.98 0 l
o
np
73.32 281.59 m
16.99 0 l
o
np
73.32 282.14 m
67.98 0 l
o
np
73.32 282.69 m
33.99 0 l
o
np
73.32 283.23 m
169.96 0 l
o
np
73.32 283.78 m
152.96 0 l
o
np
73.32 284.32 m
67.98 0 l
o
np
73.32 284.87 m
16.99 0 l
o
np
73.32 285.42 m
67.98 0 l
o
np
73.32 285.96 m
33.99 0 l
o
np
73.32 286.51 m
152.96 0 l
o
np
73.32 287.06 m
271.93 0 l
o
np
73.32 287.60 m
84.98 0 l
o
np
73.32 288.15 m
135.96 0 l
o
np
73.32 288.70 m
67.98 0 l
o
np
73.32 289.24 m
33.99 0 l
o
np
73.32 289.79 m
101.97 0 l
o
np
73.32 290.33 m
50.98 0 l
o
np
73.32 290.88 m
84.98 0 l
o
np
73.32 291.43 m
169.96 0 l
o
np
73.32 291.97 m
84.98 0 l
o
np
73.32 292.52 m
67.98 0 l
o
np
73.32 293.07 m
254.94 0 l
o
np
73.32 293.61 m
135.96 0 l
o
np
73.32 294.16 m
118.97 0 l
o
np
73.32 294.71 m
322.92 0 l
o
np
73.32 295.25 m
186.95 0 l
o
np
73.32 295.80 m
135.96 0 l
o
np
73.32 296.34 m
67.98 0 l
o
np
73.32 296.89 m
33.99 0 l
o
np
73.32 297.44 m
339.92 0 l
o
np
73.32 297.98 m
67.98 0 l
o
np
73.32 298.53 m
152.96 0 l
o
np
73.32 299.08 m
50.98 0 l
o
np
73.32 299.62 m
305.93 0 l
o
np
73.32 300.17 m
67.98 0 l
o
np
73.32 300.71 m
84.98 0 l
o
np
73.32 301.26 m
84.98 0 l
o
np
73.32 301.81 m
84.98 0 l
o
np
73.32 302.35 m
101.97 0 l
o
np
73.32 302.90 m
135.96 0 l
o
np
73.32 303.45 m
33.99 0 l
o
np
73.32 303.99 m
322.92 0 l
o
np
73.32 304.54 m
135.96 0 l
o
np
73.32 305.09 m
135.96 0 l
o
np
73.32 305.63 m
101.97 0 l
o
np
73.32 306.18 m
237.94 0 l
o
np
73.32 306.72 m
67.98 0 l
o
np
73.32 307.27 m
67.98 0 l
o
np
73.32 307.82 m
33.99 0 l
o
np
73.32 308.36 m
84.98 0 l
o
np
73.32 308.91 m
288.93 0 l
o
np
73.32 309.46 m
33.99 0 l
o
np
73.32 310.00 m
118.97 0 l
o
np
73.32 310.55 m
322.92 0 l
o
np
73.32 311.10 m
254.94 0 l
o
np
73.32 311.64 m
67.98 0 l
o
np
73.32 312.19 m
50.98 0 l
o
np
73.32 312.73 m
16.99 0 l
o
np
73.32 313.28 m
339.92 0 l
o
np
73.32 313.83 m
186.95 0 l
o
np
73.32 314.37 m
186.95 0 l
o
np
73.32 314.92 m
135.96 0 l
o
np
73.32 315.47 m
84.98 0 l
o
np
73.32 316.01 m
67.98 0 l
o
np
73.32 316.56 m
33.99 0 l
o
np
73.32 317.10 m
288.93 0 l
o
np
73.32 317.65 m
16.99 0 l
o
np
73.32 318.20 m
237.94 0 l
o
np
73.32 318.74 m
16.99 0 l
o
np
73.32 319.29 m
50.98 0 l
o
np
73.32 319.84 m
203.95 0 l
o
np
73.32 320.38 m
33.99 0 l
o
np
73.32 320.93 m
101.97 0 l
o
np
73.32 321.48 m
33.99 0 l
o
np
73.32 322.02 m
16.99 0 l
o
np
73.32 322.57 m
118.97 0 l
o
np
73.32 323.11 m
152.96 0 l
o
np
73.32 323.66 m
169.96 0 l
o
np
73.32 324.21 m
16.99 0 l
o
np
73.32 324.75 m
254.94 0 l
o
np
73.32 325.30 m
271.93 0 l
o
np
73.32 325.85 m
67.98 0 l
o
np
73.32 326.39 m
33.99 0 l
o
np
73.32 326.94 m
305.93 0 l
o
np
73.32 327.49 m
84.98 0 l
o
np
73.32 328.03 m
33.99 0 l
o
np
73.32 328.58 m
186.95 0 l
o
np
73.32 329.12 m
237.94 0 l
o
np
73.32 329.67 m
135.96 0 l
o
np
73.32 330.22 m
322.92 0 l
o
np
73.32 330.76 m
33.99 0 l
o
np
73.32 331.31 m
135.96 0 l
o
np
73.32 331.86 m
322.92 0 l
o
np
73.32 332.40 m
33.99 0 l
o
np
73.32 332.95 m
16.99 0 l
o
np
73.32 333.49 m
118.97 0 l
o
np
73.32 334.04 m
220.95 0 l
o
np
73.32 334.59 m
101.97 0 l
o
np
73.32 335.13 m
16.99 0 l
o
np
73.32 335.68 m
101.97 0 l
o
np
73.32 336.23 m
186.95 0 l
o
np
73.32 336.77 m
203.95 0 l
o
np
73.32 337.32 m
84.98 0 l
o
np
73.32 337.87 m
101.97 0 l
o
np
73.32 338.41 m
67.98 0 l
o
np
73.32 338.96 m
84.98 0 l
o
np
73.32 339.50 m
50.98 0 l
o
np
73.32 340.05 m
220.95 0 l
o
np
73.32 340.60 m
16.99 0 l
o
np
73.32 341.14 m
16.99 0 l
o
np
73.32 341.69 m
118.97 0 l
o
np
73.32 342.24 m
152.96 0 l
o
np
73.32 342.78 m
220.95 0 l
o
np
73.32 343.33 m
203.95 0 l
o
np
73.32 343.88 m
16.99 0 l
o
np
73.32 344.42 m
118.97 0 l
o
np
73.32 344.97 m
84.98 0 l
o
np
73.32 345.51 m
135.96 0 l
o
np
73.32 346.06 m
101.97 0 l
o
np
73.32 346.61 m
67.98 0 l
o
np
73.32 347.15 m
186.95 0 l
o
np
73.32 347.70 m
101.97 0 l
o
np
73.32 348.25 m
67.98 0 l
o
np
73.32 348.79 m
50.98 0 l
o
np
73.32 349.34 m
84.98 0 l
o
np
73.32 349.88 m
254.94 0 l
o
np
73.32 350.43 m
67.98 0 l
o
np
73.32 350.98 m
186.95 0 l
o
np
73.32 351.52 m
288.93 0 l
o
np
73.32 352.07 m
84.98 0 l
o
np
73.32 352.62 m
135.96 0 l
o
np
73.32 353.16 m
33.99 0 l
o
np
73.32 353.71 m
237.94 0 l
o
np
73.32 354.26 m
169.96 0 l
o
np
73.32 354.80 m
16.99 0 l
o
np
73.32 355.35 m
16.99 0 l
o
np
73.32 355.89 m
152.96 0 l
o
np
73.32 356.44 m
118.97 0 l
o
np
73.32 356.99 m
220.95 0 l
o
np
73.32 357.53 m
50.98 0 l
o
0 0 1 srgb
0.75 setlinewidth
[] 0 setdash
np
78.00 357.53 m
7.63 0 l
o
np
81.81 353.71 m
0 7.64 l
o
np
94.99 335.76 m
7.64 0 l
o
np
98.81 331.94 m
0 7.64 l
o
np
111.99 314.20 m
7.64 0 l
o
np
115.81 310.38 m
0 7.64 l
o
np
128.98 293.06 m
7.64 0 l
o
np
132.80 289.24 m
0 7.64 l
o
np
145.98 272.54 m
7.64 0 l
o
np
149.80 268.72 m
0 7.64 l
o
np
162.98 252.81 m
7.63 0 l
o
np
166.79 248.99 m
0 7.63 l
o
np
179.97 234.02 m
7.64 0 l
o
np
183.79 230.20 m
0 7.64 l
o
np
196.97 216.30 m
7.64 0 l
o
np
200.79 212.48 m
0 7.63 l
o
np
213.96 199.74 m
7.64 0 l
o
np
217.78 195.92 m
0 7.63 l
o
np
230.96 184.40 m
7.64 0 l
o
np
234.78 180.58 m
0 7.63 l
o
np
247.96 170.31 m
7.63 0 l
o
np
251.77 166.49 m
0 7.64 l
o
np
264.95 157.47 m
7.64 0 l
o
np
268.77 153.65 m
0 7.63 l
o
np
281.95 145.84 m
7.64 0 l
o
np
285.77 142.02 m
0 7.64 l
o
np
298.94 135.36 m
7.64 0 l
o
np
302.76 131.54 m
0 7.64 l
o
np
315.94 125.94 m
7.64 0 l
o
np
319.76 122.12 m
0 7.64 l
o
np
332.94 117.47 m
7.63 0 l
o
np
336.76 113.65 m
0 7.64 l
o
np
349.93 109.83 m
7.64 0 l
o
np
353.75 106.01 m
0 7.64 l
o
np
366.93 102.86 m
7.64 0 l
o
np
370.75 99.04 m
0 7.63 l
o
np
383.92 96.40 m
7.64 0 l
o
np
387.74 92.58 m
0 7.64 l
o
np
400.92 90.30 m
7.64 0 l
o
np
404.74 86.48 m
0 7.63 l
o
ep
%%Trailer
%%Pages: 1
%%EOF
