%!PS-Adobe-3.0 EPSF-3.0
%%DocumentNeededResources: font Helvetica
%%+ font Helvetica-Bold
%%+ font Helvetica-Oblique
%%+ font Helvetica-BoldOblique
%%+ font Symbol
%%Title: R Graphics Output
%%Creator: R Software
%%Pages: (atend)
%%BoundingBox: 0 0 475 405
%%EndComments
%%BeginProlog
/bp  { gs sRGB gs } def
% begin .ps.prolog
/gs  { gsave } bind def
/gr  { grestore } bind def
/ep  { showpage gr gr } bind def
/m   { moveto } bind def
/l  { rlineto } bind def
/np  { newpath } bind def
/cp  { closepath } bind def
/f   { fill } bind def
/o   { stroke } bind def
/c   { newpath 0 360 arc } bind def
/r   { 4 2 roll moveto 1 copy 3 -1 roll exch 0 exch rlineto 0 rlineto -1 mul 0 exch rlineto closepath } bind def
/p1  { stroke } bind def
/p2  { gsave bg fill grestore newpath } bind def
/p3  { gsave bg fill grestore stroke } bind def
/p6  { gsave bg eofill grestore newpath } bind def
/p7  { gsave bg eofill grestore stroke } bind def
/t   { 5 -2 roll moveto gsave rotate
       1 index stringwidth pop
       mul neg 0 rmoveto show grestore } bind def
/ta  { 4 -2 roll moveto gsave rotate show } bind def
/tb  { 2 -1 roll 0 rmoveto show } bind def
/cl  { grestore gsave newpath 3 index 3 index moveto 1 index
       4 -1 roll lineto  exch 1 index lineto lineto
       closepath clip newpath } bind def
/rgb { setrgbcolor } bind def
/s   { scalefont setfont } bind def
% end   .ps.prolog
/sRGB { [ /CIEBasedABC
          << /DecodeLMN
               [ { dup 0.03928 le
                        {12.92321 div}
                        {0.055 add 1.055 div 2.4 exp }
                     ifelse
                 } bind dup dup
               ]
             /MatrixLMN [0.412457 0.212673 0.019334
                         0.357576 0.715152 0.119192
                         0.180437 0.072175 0.950301]
             /WhitePoint [0.9505 1.0 1.0890]
           >>
         ] setcolorspace } bind def
/srgb { setcolor } bind def
% begin encoding
/WinAnsiEncoding [
 /.notdef /.notdef /.notdef /.notdef /.notdef /.notdef /.notdef /.notdef
 /.notdef /.notdef /.notdef /.notdef /.notdef /.notdef /.notdef /.notdef
 /.notdef /.notdef /.notdef /.notdef /.notdef /.notdef /.notdef /.notdef
 /.notdef /.notdef /.notdef /.notdef /.notdef /.notdef /.notdef /.notdef
 /space /exclam /quotedbl /numbersign /dollar /percent /ampersand /quoteright
 /parenleft /parenright /asterisk /plus /comma /minus /period /slash
 /zero /one /two /three /four /five /six /seven
 /eight /nine /colon /semicolon /less /equal /greater /question
 /at /A /B /C /D /E /F /G
 /H /I /J /K /L /M /N /O
 /P /Q /R /S /T /U /V /W
 /X /Y /Z /bracketleft /backslash /bracketright /asciicircum /underscore
 /grave /a /b /c /d /e /f /g
 /h /i /j /k /l /m /n /o
 /p /q /r /s /t /u /v /w
 /x /y /z /braceleft /bar /braceright /asciitilde /.notdef
 /Euro /.notdef /quotesinglbase /florin /quotedblbase /ellipsis /dagger /daggerdbl
 /circumflex /perthousand /Scaron /guilsinglleft /OE /.notdef /Zcaron /.notdef
 /.notdef /quoteleft /quoteright /quotedblleft /quotedblright /bullet /endash /emdash
 /tilde /trademark /scaron /guilsinglright /oe /.notdef /zcaron /Ydieresis
 /space /exclamdown /cent /sterling /currency /yen /brokenbar /section
 /dieresis /copyright /ordfeminine /guillemotleft /logicalnot /hyphen /registered /macron
 /degree /plusminus /twosuperior /threesuperior /acute /mu /paragraph /periodcentered
 /cedilla /onesuperior /ordmasculine /guillemotright /onequarter /onehalf /threequarters /questiondown
 /Agrave /Aacute /Acircumflex /Atilde /Adieresis /Aring /AE /Ccedilla
 /Egrave /Eacute /Ecircumflex /Edieresis /Igrave /Iacute /Icircumflex /Idieresis
 /Eth /Ntilde /Ograve /Oacute /Ocircumflex /Otilde /Odieresis /multiply
 /Oslash /Ugrave /Uacute /Ucircumflex /Udieresis /Yacute /Thorn /germandbls
 /agrave /aacute /acircumflex /atilde /adieresis /aring /ae /ccedilla
 /egrave /eacute /ecircumflex /edieresis /igrave /iacute /icircumflex /idieresis
 /eth /ntilde /ograve /oacute /ocircumflex /otilde /odieresis /divide
 /oslash /ugrave /uacute /ucircumflex /udieresis /yacute /thorn /ydieresis
]
 def
% end encoding
%%IncludeResource: font Helvetica
/Helvetica findfont
dup length dict begin
  {1 index /FID ne {def} {pop pop} ifelse} forall
  /Encoding WinAnsiEncoding def
  currentdict
  end
/Font1 exch definefont pop
%%IncludeResource: font Helvetica-Bold
/Helvetica-Bold findfont
dup length dict begin
  {1 index /FID ne {def} {pop pop} ifelse} forall
  /Encoding WinAnsiEncoding def
  currentdict
  end
/Font2 exch definefont pop
%%IncludeResource: font Helvetica-Oblique
/Helvetica-Oblique findfont
dup length dict begin
  {1 index /FID ne {def} {pop pop} ifelse} forall
  /Encoding WinAnsiEncoding def
  currentdict
  end
/Font3 exch definefont pop
%%IncludeResource: font Helvetica-BoldOblique
/Helvetica-BoldOblique findfont
dup length dict begin
  {1 index /FID ne {def} {pop pop} ifelse} forall
  /Encoding WinAnsiEncoding def
  currentdict
  end
/Font4 exch definefont pop
%%IncludeResource: font Symbol
/Symbol findfont
dup length dict begin
  {1 index /FID ne {def} {pop pop} ifelse} forall
  currentdict
  end
/Font5 exch definefont pop
%%EndProlog
%%Page: 1 1
bp
/bg { 1 1 1 srgb } def
0.00 0.00 474.75 405.00 r p2
59.04 73.44 207.13 345.96 cl
59.04 73.44 207.13 345.96 cl
0.00 0.00 474.75 405.00 cl
0 0 0 srgb
0.75 setlinewidth
[] 0 setdash
1 setlinecap
1 setlinejoin
10.00 setmiterlimit
np
64.52 73.44 m
130.60 0 l
o
np
64.52 73.44 m
0 -7.20 l
o
np
97.17 73.44 m
0 -7.20 l
o
np
129.82 73.44 m
0 -7.20 l
o
np
162.47 73.44 m
0 -7.20 l
o
np
195.12 73.44 m
0 -7.20 l
o
/Font1 findfont 16 s
64.52 47.52 (0) .5 0 t
97.17 47.52 (5) .5 0 t
129.82 47.52 (10) .5 0 t
162.47 47.52 (15) .5 0 t
195.12 47.52 (20) .5 0 t
np
59.04 83.53 m
0 252.34 l
o
np
59.04 83.53 m
-7.20 0 l
o
np
59.04 134.00 m
-7.20 0 l
o
np
59.04 184.47 m
-7.20 0 l
o
np
59.04 234.93 m
-7.20 0 l
o
np
59.04 285.40 m
-7.20 0 l
o
np
59.04 335.87 m
-7.20 0 l
o
41.76 83.53 (0) .5 90 t
41.76 134.00 (20) .5 90 t
41.76 184.47 (40) .5 90 t
41.76 234.93 (60) .5 90 t
41.76 285.40 (80) .5 90 t
41.76 335.87 (100) .5 90 t
np
59.04 73.44 m
148.09 0 l
0 272.52 l
-148.09 0 l
0 -272.52 l
o
0.00 0.00 237.38 405.00 cl
/Font1 findfont 16 s
0 0 0 srgb
97.97 18.72 (Cell inde) 0 ta
-0.480 (x) tb gr
12.96 161.68 (P) 90 ta
-0.640 (ar) tb
0.640 (ticle inde) tb
-0.480 (x) tb gr
59.04 73.44 207.13 345.96 cl
0.6784 0.8471 0.9020 srgb
0.60 setlinewidth
[] 0 setdash
1 setlinecap
1 setlinejoin
10.00 setmiterlimit
np
64.52 86.06 m
84.89 0 l
o
np
64.52 88.58 m
78.36 0 l
o
np
64.52 91.10 m
71.83 0 l
o
np
64.52 93.63 m
26.12 0 l
o
np
64.52 96.15 m
52.24 0 l
o
np
64.52 98.67 m
58.77 0 l
o
np
64.52 101.20 m
6.53 0 l
o
np
64.52 103.72 m
65.30 0 l
o
np
64.52 106.24 m
130.60 0 l
o
np
64.52 108.77 m
78.36 0 l
o
np
64.52 111.29 m
91.42 0 l
o
np
64.52 113.81 m
45.71 0 l
o
np
64.52 116.34 m
6.53 0 l
o
np
64.52 118.86 m
13.06 0 l
o
np
64.52 121.38 m
19.59 0 l
o
np
64.52 123.91 m
45.71 0 l
o
np
64.52 126.43 m
39.18 0 l
o
np
64.52 128.95 m
45.71 0 l
o
np
64.52 131.48 m
91.42 0 l
o
np
64.52 134.00 m
39.18 0 l
o
np
64.52 136.52 m
71.83 0 l
o
np
64.52 139.05 m
6.53 0 l
o
np
64.52 141.57 m
84.89 0 l
o
np
64.52 144.09 m
71.83 0 l
o
np
64.52 146.62 m
19.59 0 l
o
np
64.52 149.14 m
13.06 0 l
o
np
64.52 151.66 m
52.24 0 l
o
np
64.52 154.19 m
6.53 0 l
o
np
64.52 156.71 m
26.12 0 l
o
np
64.52 159.23 m
52.24 0 l
o
np
64.52 161.76 m
39.18 0 l
o
np
64.52 164.28 m
13.06 0 l
o
np
64.52 166.80 m
39.18 0 l
o
np
64.52 169.33 m
71.83 0 l
o
np
64.52 171.85 m
71.83 0 l
o
np
64.52 174.37 m
39.18 0 l
o
np
64.52 176.90 m
39.18 0 l
o
np
64.52 179.42 m
39.18 0 l
o
np
64.52 181.94 m
39.18 0 l
o
np
64.52 184.47 m
71.83 0 l
o
np
64.52 186.99 m
19.59 0 l
o
np
64.52 189.51 m
13.06 0 l
o
np
64.52 192.04 m
104.48 0 l
o
np
64.52 194.56 m
39.18 0 l
o
np
64.52 197.08 m
84.89 0 l
o
np
64.52 199.61 m
39.18 0 l
o
np
64.52 202.13 m
71.83 0 l
o
np
64.52 204.65 m
32.65 0 l
o
np
64.52 207.18 m
45.71 0 l
o
np
64.52 209.70 m
117.54 0 l
o
np
64.52 212.22 m
97.95 0 l
o
np
64.52 214.75 m
32.65 0 l
o
np
64.52 217.27 m
65.30 0 l
o
np
64.52 219.79 m
84.89 0 l
o
np
64.52 222.32 m
65.30 0 l
o
np
64.52 224.84 m
117.54 0 l
o
np
64.52 227.36 m
6.53 0 l
o
np
64.52 229.89 m
13.06 0 l
o
np
64.52 232.41 m
32.65 0 l
o
np
64.52 234.93 m
6.53 0 l
o
np
64.52 237.46 m
104.48 0 l
o
np
64.52 239.98 m
39.18 0 l
o
np
64.52 242.50 m
39.18 0 l
o
np
64.52 245.03 m
58.77 0 l
o
np
64.52 247.55 m
13.06 0 l
o
np
64.52 250.07 m
91.42 0 l
o
np
64.52 252.60 m
78.36 0 l
o
np
64.52 255.12 m
78.36 0 l
o
np
64.52 257.64 m
58.77 0 l
o
np
64.52 260.17 m
6.53 0 l
o
np
64.52 262.69 m
39.18 0 l
o
np
64.52 265.21 m
91.42 0 l
o
np
64.52 267.74 m
13.06 0 l
o
np
64.52 270.26 m
65.30 0 l
o
np
64.52 272.78 m
45.71 0 l
o
np
64.52 275.31 m
78.36 0 l
o
np
64.52 277.83 m
45.71 0 l
o
np
64.52 280.35 m
6.53 0 l
o
np
64.52 282.88 m
84.89 0 l
o
np
64.52 285.40 m
111.01 0 l
o
np
64.52 287.92 m
91.42 0 l
o
np
64.52 290.45 m
13.06 0 l
o
np
64.52 292.97 m
13.06 0 l
o
np
64.52 295.49 m
6.53 0 l
o
np
64.52 298.02 m
117.54 0 l
o
np
64.52 300.54 m
71.83 0 l
o
np
64.52 303.06 m
13.06 0 l
o
np
64.52 305.59 m
97.95 0 l
o
np
64.52 308.11 m
97.95 0 l
o
np
64.52 310.63 m
117.54 0 l
o
np
64.52 313.16 m
124.07 0 l
o
np
64.52 315.68 m
6.53 0 l
o
np
64.52 318.20 m
39.18 0 l
o
np
64.52 320.73 m
45.71 0 l
o
np
64.52 323.25 m
71.83 0 l
o
np
64.52 325.77 m
19.59 0 l
o
np
64.52 328.30 m
19.59 0 l
o
np
64.52 330.82 m
32.65 0 l
o
np
64.52 333.34 m
13.06 0 l
o
np
64.52 335.87 m
52.24 0 l
o
296.41 73.44 444.51 345.96 cl
296.41 73.44 444.51 345.96 cl
0.00 0.00 474.75 405.00 cl
0 0 0 srgb
0.75 setlinewidth
[] 0 setdash
1 setlinecap
1 setlinejoin
10.00 setmiterlimit
np
301.90 73.44 m
130.60 0 l
o
np
301.90 73.44 m
0 -7.20 l
o
np
334.55 73.44 m
0 -7.20 l
o
np
367.20 73.44 m
0 -7.20 l
o
np
399.85 73.44 m
0 -7.20 l
o
np
432.50 73.44 m
0 -7.20 l
o
/Font1 findfont 16 s
301.90 47.52 (0) .5 0 t
334.55 47.52 (5) .5 0 t
367.20 47.52 (10) .5 0 t
399.85 47.52 (15) .5 0 t
432.50 47.52 (20) .5 0 t
np
296.41 83.53 m
0 252.34 l
o
np
296.41 83.53 m
-7.20 0 l
o
np
296.41 134.00 m
-7.20 0 l
o
np
296.41 184.47 m
-7.20 0 l
o
np
296.41 234.93 m
-7.20 0 l
o
np
296.41 285.40 m
-7.20 0 l
o
np
296.41 335.87 m
-7.20 0 l
o
279.13 83.53 (0) .5 90 t
279.13 134.00 (20) .5 90 t
279.13 184.47 (40) .5 90 t
279.13 234.93 (60) .5 90 t
279.13 285.40 (80) .5 90 t
279.13 335.87 (100) .5 90 t
np
296.41 73.44 m
148.10 0 l
0 272.52 l
-148.10 0 l
0 -272.52 l
o
237.38 0.00 474.75 405.00 cl
/Font1 findfont 16 s
0 0 0 srgb
335.34 18.72 (Cell inde) 0 ta
-0.480 (x) tb gr
250.34 112.76 (Sor) 90 ta
0.640 (ted P) tb
-0.640 (ar) tb
0.640 (ticle P) tb
-0.640 (aths Inde) tb
-0.480 (x) tb gr
296.41 73.44 444.51 345.96 cl
0.6784 0.8471 0.9020 srgb
0.60 setlinewidth
[] 0 setdash
1 setlinecap
1 setlinejoin
10.00 setmiterlimit
np
301.90 86.06 m
130.60 0 l
o
np
301.90 88.58 m
124.07 0 l
o
np
301.90 91.10 m
117.54 0 l
o
np
301.90 93.63 m
117.54 0 l
o
np
301.90 96.15 m
117.54 0 l
o
np
301.90 98.67 m
117.54 0 l
o
np
301.90 101.20 m
111.01 0 l
o
np
301.90 103.72 m
104.48 0 l
o
np
301.90 106.24 m
104.48 0 l
o
np
301.90 108.77 m
97.95 0 l
o
np
301.90 111.29 m
97.95 0 l
o
np
301.90 113.81 m
97.95 0 l
o
np
301.90 116.34 m
91.42 0 l
o
np
301.90 118.86 m
91.42 0 l
o
np
301.90 121.38 m
91.42 0 l
o
np
301.90 123.91 m
91.42 0 l
o
np
301.90 126.43 m
91.42 0 l
o
np
301.90 128.95 m
84.89 0 l
o
np
301.90 131.48 m
84.89 0 l
o
np
301.90 134.00 m
84.89 0 l
o
np
301.90 136.52 m
84.89 0 l
o
np
301.90 139.05 m
84.89 0 l
o
np
301.90 141.57 m
78.36 0 l
o
np
301.90 144.09 m
78.36 0 l
o
np
301.90 146.62 m
78.36 0 l
o
np
301.90 149.14 m
78.36 0 l
o
np
301.90 151.66 m
78.36 0 l
o
np
301.90 154.19 m
71.83 0 l
o
np
301.90 156.71 m
71.83 0 l
o
np
301.90 159.23 m
71.83 0 l
o
np
301.90 161.76 m
71.83 0 l
o
np
301.90 164.28 m
71.83 0 l
o
np
301.90 166.80 m
71.83 0 l
o
np
301.90 169.33 m
71.83 0 l
o
np
301.90 171.85 m
71.83 0 l
o
np
301.90 174.37 m
71.83 0 l
o
np
301.90 176.90 m
65.30 0 l
o
np
301.90 179.42 m
65.30 0 l
o
np
301.90 181.94 m
65.30 0 l
o
np
301.90 184.47 m
65.30 0 l
o
np
301.90 186.99 m
58.77 0 l
o
np
301.90 189.51 m
58.77 0 l
o
np
301.90 192.04 m
58.77 0 l
o
np
301.90 194.56 m
52.24 0 l
o
np
301.90 197.08 m
52.24 0 l
o
np
301.90 199.61 m
52.24 0 l
o
np
301.90 202.13 m
52.24 0 l
o
np
301.90 204.65 m
45.71 0 l
o
np
301.90 207.18 m
45.71 0 l
o
np
301.90 209.70 m
45.71 0 l
o
np
301.90 212.22 m
45.71 0 l
o
np
301.90 214.75 m
45.71 0 l
o
np
301.90 217.27 m
45.71 0 l
o
np
301.90 219.79 m
45.71 0 l
o
np
301.90 222.32 m
39.18 0 l
o
np
301.90 224.84 m
39.18 0 l
o
np
301.90 227.36 m
39.18 0 l
o
np
301.90 229.89 m
39.18 0 l
o
np
301.90 232.41 m
39.18 0 l
o
np
301.90 234.93 m
39.18 0 l
o
np
301.90 237.46 m
39.18 0 l
o
np
301.90 239.98 m
39.18 0 l
o
np
301.90 242.50 m
39.18 0 l
o
np
301.90 245.03 m
39.18 0 l
o
np
301.90 247.55 m
39.18 0 l
o
np
301.90 250.07 m
39.18 0 l
o
np
301.90 252.60 m
39.18 0 l
o
np
301.90 255.12 m
39.18 0 l
o
np
301.90 257.64 m
32.65 0 l
o
np
301.90 260.17 m
32.65 0 l
o
np
301.90 262.69 m
32.65 0 l
o
np
301.90 265.21 m
32.65 0 l
o
np
301.90 267.74 m
26.12 0 l
o
np
301.90 270.26 m
26.12 0 l
o
np
301.90 272.78 m
19.59 0 l
o
np
301.90 275.31 m
19.59 0 l
o
np
301.90 277.83 m
19.59 0 l
o
np
301.90 280.35 m
19.59 0 l
o
np
301.90 282.88 m
19.59 0 l
o
np
301.90 285.40 m
13.06 0 l
o
np
301.90 287.92 m
13.06 0 l
o
np
301.90 290.45 m
13.06 0 l
o
np
301.90 292.97 m
13.06 0 l
o
np
301.90 295.49 m
13.06 0 l
o
np
301.90 298.02 m
13.06 0 l
o
np
301.90 300.54 m
13.06 0 l
o
np
301.90 303.06 m
13.06 0 l
o
np
301.90 305.59 m
13.06 0 l
o
np
301.90 308.11 m
13.06 0 l
o
np
301.90 310.63 m
13.06 0 l
o
np
301.90 313.16 m
6.53 0 l
o
np
301.90 315.68 m
6.53 0 l
o
np
301.90 318.20 m
6.53 0 l
o
np
301.90 320.73 m
6.53 0 l
o
np
301.90 323.25 m
6.53 0 l
o
np
301.90 325.77 m
6.53 0 l
o
np
301.90 328.30 m
6.53 0 l
o
np
301.90 330.82 m
6.53 0 l
o
np
301.90 333.34 m
6.53 0 l
o
np
301.90 335.87 m
6.53 0 l
o
0 0 1 srgb
0.75 setlinewidth
[] 0 setdash
np
301.35 335.87 m
7.63 0 l
o
np
305.16 332.05 m
0 7.64 l
o
np
307.88 315.75 m
7.63 0 l
o
np
311.69 311.93 m
0 7.64 l
o
np
314.41 295.84 m
7.63 0 l
o
np
318.22 292.02 m
0 7.64 l
o
np
320.94 276.31 m
7.63 0 l
o
np
324.75 272.49 m
0 7.64 l
o
np
327.47 257.35 m
7.63 0 l
o
np
331.28 253.53 m
0 7.64 l
o
np
334.00 239.13 m
7.63 0 l
o
np
337.81 235.31 m
0 7.63 l
o
np
340.53 221.77 m
7.63 0 l
o
np
344.34 217.95 m
0 7.64 l
o
np
347.05 205.40 m
7.64 0 l
o
np
350.87 201.58 m
0 7.64 l
o
np
353.58 190.10 m
7.64 0 l
o
np
357.40 186.28 m
0 7.64 l
o
np
360.11 175.93 m
7.64 0 l
o
np
363.93 172.12 m
0 7.63 l
o
np
366.64 162.92 m
7.64 0 l
o
np
370.46 159.10 m
0 7.64 l
o
np
373.17 151.06 m
7.64 0 l
o
np
376.99 147.24 m
0 7.64 l
o
np
379.70 140.32 m
7.64 0 l
o
np
383.52 136.50 m
0 7.63 l
o
np
386.23 130.64 m
7.64 0 l
o
np
390.05 126.82 m
0 7.63 l
o
np
392.76 121.94 m
7.64 0 l
o
np
396.58 118.12 m
0 7.63 l
o
np
399.29 114.11 m
7.64 0 l
o
np
403.11 110.30 m
0 7.63 l
o
np
405.82 107.05 m
7.64 0 l
o
np
409.64 103.23 m
0 7.64 l
o
np
412.35 100.61 m
7.64 0 l
o
np
416.17 96.79 m
0 7.64 l
o
np
418.88 94.65 m
7.64 0 l
o
np
422.70 90.83 m
0 7.64 l
o
np
425.41 89.01 m
7.64 0 l
o
np
429.23 85.19 m
0 7.64 l
o
ep
%%Trailer
%%Pages: 1
%%EOF
