%!PS-Adobe-3.0 EPSF-3.0
%%DocumentNeededResources: font Helvetica
%%+ font Helvetica-Bold
%%+ font Helvetica-Oblique
%%+ font Helvetica-BoldOblique
%%+ font Symbol
%%Title: R Graphics Output
%%Creator: R Software
%%Pages: (atend)
%%BoundingBox: 0 0 475 556
%%EndComments
%%BeginProlog
/bp  { gs sRGB gs } def
% begin .ps.prolog
/gs  { gsave } bind def
/gr  { grestore } bind def
/ep  { showpage gr gr } bind def
/m   { moveto } bind def
/l  { rlineto } bind def
/np  { newpath } bind def
/cp  { closepath } bind def
/f   { fill } bind def
/o   { stroke } bind def
/c   { newpath 0 360 arc } bind def
/r   { 4 2 roll moveto 1 copy 3 -1 roll exch 0 exch rlineto 0 rlineto -1 mul 0 exch rlineto closepath } bind def
/p1  { stroke } bind def
/p2  { gsave bg fill grestore newpath } bind def
/p3  { gsave bg fill grestore stroke } bind def
/p6  { gsave bg eofill grestore newpath } bind def
/p7  { gsave bg eofill grestore stroke } bind def
/t   { 5 -2 roll moveto gsave rotate
       1 index stringwidth pop
       mul neg 0 rmoveto show grestore } bind def
/ta  { 4 -2 roll moveto gsave rotate show } bind def
/tb  { 2 -1 roll 0 rmoveto show } bind def
/cl  { grestore gsave newpath 3 index 3 index moveto 1 index
       4 -1 roll lineto  exch 1 index lineto lineto
       closepath clip newpath } bind def
/rgb { setrgbcolor } bind def
/s   { scalefont setfont } bind def
% end   .ps.prolog
/sRGB { [ /CIEBasedABC
          << /DecodeLMN
               [ { dup 0.03928 le
                        {12.92321 div}
                        {0.055 add 1.055 div 2.4 exp }
                     ifelse
                 } bind dup dup
               ]
             /MatrixLMN [0.412457 0.212673 0.019334
                         0.357576 0.715152 0.119192
                         0.180437 0.072175 0.950301]
             /WhitePoint [0.9505 1.0 1.0890]
           >>
         ] setcolorspace } bind def
/srgb { setcolor } bind def
% begin encoding
/WinAnsiEncoding [
 /.notdef /.notdef /.notdef /.notdef /.notdef /.notdef /.notdef /.notdef
 /.notdef /.notdef /.notdef /.notdef /.notdef /.notdef /.notdef /.notdef
 /.notdef /.notdef /.notdef /.notdef /.notdef /.notdef /.notdef /.notdef
 /.notdef /.notdef /.notdef /.notdef /.notdef /.notdef /.notdef /.notdef
 /space /exclam /quotedbl /numbersign /dollar /percent /ampersand /quoteright
 /parenleft /parenright /asterisk /plus /comma /minus /period /slash
 /zero /one /two /three /four /five /six /seven
 /eight /nine /colon /semicolon /less /equal /greater /question
 /at /A /B /C /D /E /F /G
 /H /I /J /K /L /M /N /O
 /P /Q /R /S /T /U /V /W
 /X /Y /Z /bracketleft /backslash /bracketright /asciicircum /underscore
 /grave /a /b /c /d /e /f /g
 /h /i /j /k /l /m /n /o
 /p /q /r /s /t /u /v /w
 /x /y /z /braceleft /bar /braceright /asciitilde /.notdef
 /Euro /.notdef /quotesinglbase /florin /quotedblbase /ellipsis /dagger /daggerdbl
 /circumflex /perthousand /Scaron /guilsinglleft /OE /.notdef /Zcaron /.notdef
 /.notdef /quoteleft /quoteright /quotedblleft /quotedblright /bullet /endash /emdash
 /tilde /trademark /scaron /guilsinglright /oe /.notdef /zcaron /Ydieresis
 /space /exclamdown /cent /sterling /currency /yen /brokenbar /section
 /dieresis /copyright /ordfeminine /guillemotleft /logicalnot /hyphen /registered /macron
 /degree /plusminus /twosuperior /threesuperior /acute /mu /paragraph /periodcentered
 /cedilla /onesuperior /ordmasculine /guillemotright /onequarter /onehalf /threequarters /questiondown
 /Agrave /Aacute /Acircumflex /Atilde /Adieresis /Aring /AE /Ccedilla
 /Egrave /Eacute /Ecircumflex /Edieresis /Igrave /Iacute /Icircumflex /Idieresis
 /Eth /Ntilde /Ograve /Oacute /Ocircumflex /Otilde /Odieresis /multiply
 /Oslash /Ugrave /Uacute /Ucircumflex /Udieresis /Yacute /Thorn /germandbls
 /agrave /aacute /acircumflex /atilde /adieresis /aring /ae /ccedilla
 /egrave /eacute /ecircumflex /edieresis /igrave /iacute /icircumflex /idieresis
 /eth /ntilde /ograve /oacute /ocircumflex /otilde /odieresis /divide
 /oslash /ugrave /uacute /ucircumflex /udieresis /yacute /thorn /ydieresis
]
 def
% end encoding
%%IncludeResource: font Helvetica
/Helvetica findfont
dup length dict begin
  {1 index /FID ne {def} {pop pop} ifelse} forall
  /Encoding WinAnsiEncoding def
  currentdict
  end
/Font1 exch definefont pop
%%IncludeResource: font Helvetica-Bold
/Helvetica-Bold findfont
dup length dict begin
  {1 index /FID ne {def} {pop pop} ifelse} forall
  /Encoding WinAnsiEncoding def
  currentdict
  end
/Font2 exch definefont pop
%%IncludeResource: font Helvetica-Oblique
/Helvetica-Oblique findfont
dup length dict begin
  {1 index /FID ne {def} {pop pop} ifelse} forall
  /Encoding WinAnsiEncoding def
  currentdict
  end
/Font3 exch definefont pop
%%IncludeResource: font Helvetica-BoldOblique
/Helvetica-BoldOblique findfont
dup length dict begin
  {1 index /FID ne {def} {pop pop} ifelse} forall
  /Encoding WinAnsiEncoding def
  currentdict
  end
/Font4 exch definefont pop
%%IncludeResource: font Symbol
/Symbol findfont
dup length dict begin
  {1 index /FID ne {def} {pop pop} ifelse} forall
  currentdict
  end
/Font5 exch definefont pop
%%EndProlog
%%Page: 1 1
bp
/bg { 1 1 1 srgb } def
0.00 0.00 474.75 555.75 r p2
59.04 73.44 444.51 496.71 cl
59.04 73.44 444.51 496.71 cl
0.00 0.00 474.75 555.75 cl
0 0 0 srgb
0.75 setlinewidth
[] 0 setdash
1 setlinecap
1 setlinejoin
10.00 setmiterlimit
np
73.32 73.44 m
339.92 0 l
o
np
73.32 73.44 m
0 -7.20 l
o
np
158.30 73.44 m
0 -7.20 l
o
np
243.28 73.44 m
0 -7.20 l
o
np
328.26 73.44 m
0 -7.20 l
o
np
413.24 73.44 m
0 -7.20 l
o
/Font1 findfont 16 s
73.32 47.52 (0) .5 0 t
158.30 47.52 (5) .5 0 t
243.28 47.52 (10) .5 0 t
328.26 47.52 (15) .5 0 t
413.24 47.52 (20) .5 0 t
np
59.04 89.12 m
0 391.91 l
o
np
59.04 89.12 m
-7.20 0 l
o
np
59.04 167.50 m
-7.20 0 l
o
np
59.04 245.88 m
-7.20 0 l
o
np
59.04 324.27 m
-7.20 0 l
o
np
59.04 402.65 m
-7.20 0 l
o
np
59.04 481.03 m
-7.20 0 l
o
41.76 89.12 (0) .5 90 t
41.76 167.50 (20) .5 90 t
41.76 245.88 (40) .5 90 t
41.76 324.27 (60) .5 90 t
41.76 402.65 (80) .5 90 t
41.76 481.03 (100) .5 90 t
np
59.04 73.44 m
385.47 0 l
0 423.27 l
-385.47 0 l
0 -423.27 l
o
0.00 0.00 474.75 555.75 cl
/Font1 findfont 16 s
0 0 0 srgb
216.65 18.72 (Cell inde) 0 ta
-0.480 (x) tb gr
12.96 237.06 (P) 90 ta
-0.640 (ar) tb
0.640 (ticle inde) tb
-0.480 (x) tb gr
59.04 73.44 444.51 496.71 cl
0.6784 0.8471 0.9020 srgb
0.60 setlinewidth
[] 0 setdash
1 setlinecap
1 setlinejoin
10.00 setmiterlimit
np
73.32 93.04 m
220.95 0 l
o
np
73.32 96.95 m
203.95 0 l
o
np
73.32 100.87 m
186.95 0 l
o
np
73.32 104.79 m
67.98 0 l
o
np
73.32 108.71 m
135.96 0 l
o
np
73.32 112.63 m
152.96 0 l
o
np
73.32 116.55 m
16.99 0 l
o
np
73.32 120.47 m
169.96 0 l
o
np
73.32 124.39 m
339.92 0 l
o
np
73.32 128.31 m
203.95 0 l
o
np
73.32 132.23 m
237.94 0 l
o
np
73.32 136.15 m
118.97 0 l
o
np
73.32 140.07 m
16.99 0 l
o
np
73.32 143.98 m
33.99 0 l
o
np
73.32 147.90 m
50.98 0 l
o
np
73.32 151.82 m
118.97 0 l
o
np
73.32 155.74 m
101.97 0 l
o
np
73.32 159.66 m
118.97 0 l
o
np
73.32 163.58 m
237.94 0 l
o
np
73.32 167.50 m
101.97 0 l
o
np
73.32 171.42 m
186.95 0 l
o
np
73.32 175.34 m
16.99 0 l
o
np
73.32 179.26 m
220.95 0 l
o
np
73.32 183.18 m
186.95 0 l
o
np
73.32 187.10 m
50.98 0 l
o
np
73.32 191.01 m
33.99 0 l
o
np
73.32 194.93 m
135.96 0 l
o
np
73.32 198.85 m
16.99 0 l
o
np
73.32 202.77 m
67.98 0 l
o
np
73.32 206.69 m
135.96 0 l
o
np
73.32 210.61 m
101.97 0 l
o
np
73.32 214.53 m
33.99 0 l
o
np
73.32 218.45 m
101.97 0 l
o
np
73.32 222.37 m
186.95 0 l
o
np
73.32 226.29 m
186.95 0 l
o
np
73.32 230.21 m
101.97 0 l
o
np
73.32 234.13 m
101.97 0 l
o
np
73.32 238.04 m
101.97 0 l
o
np
73.32 241.96 m
101.97 0 l
o
np
73.32 245.88 m
186.95 0 l
o
np
73.32 249.80 m
50.98 0 l
o
np
73.32 253.72 m
33.99 0 l
o
np
73.32 257.64 m
271.93 0 l
o
np
73.32 261.56 m
101.97 0 l
o
np
73.32 265.48 m
220.95 0 l
o
np
73.32 269.40 m
101.97 0 l
o
np
73.32 273.32 m
186.95 0 l
o
np
73.32 277.24 m
84.98 0 l
o
np
73.32 281.16 m
118.97 0 l
o
np
73.32 285.07 m
305.93 0 l
o
np
73.32 288.99 m
254.94 0 l
o
np
73.32 292.91 m
84.98 0 l
o
np
73.32 296.83 m
169.96 0 l
o
np
73.32 300.75 m
220.95 0 l
o
np
73.32 304.67 m
169.96 0 l
o
np
73.32 308.59 m
305.93 0 l
o
np
73.32 312.51 m
16.99 0 l
o
np
73.32 316.43 m
33.99 0 l
o
np
73.32 320.35 m
84.98 0 l
o
np
73.32 324.27 m
16.99 0 l
o
np
73.32 328.19 m
271.93 0 l
o
np
73.32 332.10 m
101.97 0 l
o
np
73.32 336.02 m
101.97 0 l
o
np
73.32 339.94 m
152.96 0 l
o
np
73.32 343.86 m
33.99 0 l
o
np
73.32 347.78 m
237.94 0 l
o
np
73.32 351.70 m
203.95 0 l
o
np
73.32 355.62 m
203.95 0 l
o
np
73.32 359.54 m
152.96 0 l
o
np
73.32 363.46 m
16.99 0 l
o
np
73.32 367.38 m
101.97 0 l
o
np
73.32 371.30 m
237.94 0 l
o
np
73.32 375.22 m
33.99 0 l
o
np
73.32 379.13 m
169.96 0 l
o
np
73.32 383.05 m
118.97 0 l
o
np
73.32 386.97 m
203.95 0 l
o
np
73.32 390.89 m
118.97 0 l
o
np
73.32 394.81 m
16.99 0 l
o
np
73.32 398.73 m
220.95 0 l
o
np
73.32 402.65 m
288.93 0 l
o
np
73.32 406.57 m
237.94 0 l
o
np
73.32 410.49 m
33.99 0 l
o
np
73.32 414.41 m
33.99 0 l
o
np
73.32 418.33 m
16.99 0 l
o
np
73.32 422.25 m
305.93 0 l
o
np
73.32 426.16 m
186.95 0 l
o
np
73.32 430.08 m
33.99 0 l
o
np
73.32 434.00 m
254.94 0 l
o
np
73.32 437.92 m
254.94 0 l
o
np
73.32 441.84 m
305.93 0 l
o
np
73.32 445.76 m
322.92 0 l
o
np
73.32 449.68 m
16.99 0 l
o
np
73.32 453.60 m
101.97 0 l
o
np
73.32 457.52 m
118.97 0 l
o
np
73.32 461.44 m
186.95 0 l
o
np
73.32 465.36 m
50.98 0 l
o
np
73.32 469.28 m
50.98 0 l
o
np
73.32 473.19 m
84.98 0 l
o
np
73.32 477.11 m
33.99 0 l
o
np
73.32 481.03 m
135.96 0 l
o
ep
%%Trailer
%%Pages: 1
%%EOF
