%!PS-Adobe-3.0 EPSF-3.0
%%DocumentNeededResources: font Helvetica
%%+ font Helvetica-Bold
%%+ font Helvetica-Oblique
%%+ font Helvetica-BoldOblique
%%+ font Symbol
%%Title: R Graphics Output
%%Creator: R Software
%%Pages: (atend)
%%BoundingBox: 0 0 635 436
%%EndComments
%%BeginProlog
/bp  { gs sRGB gs } def
% begin .ps.prolog
/gs  { gsave } bind def
/gr  { grestore } bind def
/ep  { showpage gr gr } bind def
/m   { moveto } bind def
/l  { rlineto } bind def
/np  { newpath } bind def
/cp  { closepath } bind def
/f   { fill } bind def
/o   { stroke } bind def
/c   { newpath 0 360 arc } bind def
/r   { 4 2 roll moveto 1 copy 3 -1 roll exch 0 exch rlineto 0 rlineto -1 mul 0 exch rlineto closepath } bind def
/p1  { stroke } bind def
/p2  { gsave bg fill grestore newpath } bind def
/p3  { gsave bg fill grestore stroke } bind def
/p6  { gsave bg eofill grestore newpath } bind def
/p7  { gsave bg eofill grestore stroke } bind def
/t   { 5 -2 roll moveto gsave rotate
       1 index stringwidth pop
       mul neg 0 rmoveto show grestore } bind def
/ta  { 4 -2 roll moveto gsave rotate show } bind def
/tb  { 2 -1 roll 0 rmoveto show } bind def
/cl  { grestore gsave newpath 3 index 3 index moveto 1 index
       4 -1 roll lineto  exch 1 index lineto lineto
       closepath clip newpath } bind def
/rgb { setrgbcolor } bind def
/s   { scalefont setfont } bind def
% end   .ps.prolog
/sRGB { [ /CIEBasedABC
          << /DecodeLMN
               [ { dup 0.03928 le
                        {12.92321 div}
                        {0.055 add 1.055 div 2.4 exp }
                     ifelse
                 } bind dup dup
               ]
             /MatrixLMN [0.412457 0.212673 0.019334
                         0.357576 0.715152 0.119192
                         0.180437 0.072175 0.950301]
             /WhitePoint [0.9505 1.0 1.0890]
           >>
         ] setcolorspace } bind def
/srgb { setcolor } bind def
% begin encoding
/WinAnsiEncoding [
 /.notdef /.notdef /.notdef /.notdef /.notdef /.notdef /.notdef /.notdef
 /.notdef /.notdef /.notdef /.notdef /.notdef /.notdef /.notdef /.notdef
 /.notdef /.notdef /.notdef /.notdef /.notdef /.notdef /.notdef /.notdef
 /.notdef /.notdef /.notdef /.notdef /.notdef /.notdef /.notdef /.notdef
 /space /exclam /quotedbl /numbersign /dollar /percent /ampersand /quoteright
 /parenleft /parenright /asterisk /plus /comma /minus /period /slash
 /zero /one /two /three /four /five /six /seven
 /eight /nine /colon /semicolon /less /equal /greater /question
 /at /A /B /C /D /E /F /G
 /H /I /J /K /L /M /N /O
 /P /Q /R /S /T /U /V /W
 /X /Y /Z /bracketleft /backslash /bracketright /asciicircum /underscore
 /grave /a /b /c /d /e /f /g
 /h /i /j /k /l /m /n /o
 /p /q /r /s /t /u /v /w
 /x /y /z /braceleft /bar /braceright /asciitilde /.notdef
 /Euro /.notdef /quotesinglbase /florin /quotedblbase /ellipsis /dagger /daggerdbl
 /circumflex /perthousand /Scaron /guilsinglleft /OE /.notdef /Zcaron /.notdef
 /.notdef /quoteleft /quoteright /quotedblleft /quotedblright /bullet /endash /emdash
 /tilde /trademark /scaron /guilsinglright /oe /.notdef /zcaron /Ydieresis
 /space /exclamdown /cent /sterling /currency /yen /brokenbar /section
 /dieresis /copyright /ordfeminine /guillemotleft /logicalnot /hyphen /registered /macron
 /degree /plusminus /twosuperior /threesuperior /acute /mu /paragraph /periodcentered
 /cedilla /onesuperior /ordmasculine /guillemotright /onequarter /onehalf /threequarters /questiondown
 /Agrave /Aacute /Acircumflex /Atilde /Adieresis /Aring /AE /Ccedilla
 /Egrave /Eacute /Ecircumflex /Edieresis /Igrave /Iacute /Icircumflex /Idieresis
 /Eth /Ntilde /Ograve /Oacute /Ocircumflex /Otilde /Odieresis /multiply
 /Oslash /Ugrave /Uacute /Ucircumflex /Udieresis /Yacute /Thorn /germandbls
 /agrave /aacute /acircumflex /atilde /adieresis /aring /ae /ccedilla
 /egrave /eacute /ecircumflex /edieresis /igrave /iacute /icircumflex /idieresis
 /eth /ntilde /ograve /oacute /ocircumflex /otilde /odieresis /divide
 /oslash /ugrave /uacute /ucircumflex /udieresis /yacute /thorn /ydieresis
]
 def
% end encoding
%%IncludeResource: font Helvetica
/Helvetica findfont
dup length dict begin
  {1 index /FID ne {def} {pop pop} ifelse} forall
  /Encoding WinAnsiEncoding def
  currentdict
  end
/Font1 exch definefont pop
%%IncludeResource: font Helvetica-Bold
/Helvetica-Bold findfont
dup length dict begin
  {1 index /FID ne {def} {pop pop} ifelse} forall
  /Encoding WinAnsiEncoding def
  currentdict
  end
/Font2 exch definefont pop
%%IncludeResource: font Helvetica-Oblique
/Helvetica-Oblique findfont
dup length dict begin
  {1 index /FID ne {def} {pop pop} ifelse} forall
  /Encoding WinAnsiEncoding def
  currentdict
  end
/Font3 exch definefont pop
%%IncludeResource: font Helvetica-BoldOblique
/Helvetica-BoldOblique findfont
dup length dict begin
  {1 index /FID ne {def} {pop pop} ifelse} forall
  /Encoding WinAnsiEncoding def
  currentdict
  end
/Font4 exch definefont pop
%%IncludeResource: font Symbol
/Symbol findfont
dup length dict begin
  {1 index /FID ne {def} {pop pop} ifelse} forall
  currentdict
  end
/Font5 exch definefont pop
%%EndProlog
%%Page: 1 1
bp
/bg { 1 1 1 srgb } def
0.00 0.00 635.25 435.75 r p2
59.04 73.44 287.39 376.71 cl
59.04 73.44 287.39 376.71 cl
0.00 0.00 635.25 435.75 cl
0 0 0 srgb
0.75 setlinewidth
[] 0 setdash
1 setlinecap
1 setlinejoin
10.00 setmiterlimit
np
67.50 73.44 m
201.36 0 l
o
np
67.50 73.44 m
0 -7.20 l
o
np
117.84 73.44 m
0 -7.20 l
o
np
168.18 73.44 m
0 -7.20 l
o
np
218.52 73.44 m
0 -7.20 l
o
np
268.86 73.44 m
0 -7.20 l
o
/Font1 findfont 16 s
67.50 47.52 (0) .5 0 t
117.84 47.52 (5) .5 0 t
168.18 47.52 (10) .5 0 t
218.52 47.52 (15) .5 0 t
268.86 47.52 (20) .5 0 t
np
59.04 84.67 m
0 280.81 l
o
np
59.04 84.67 m
-7.20 0 l
o
np
59.04 140.83 m
-7.20 0 l
o
np
59.04 196.99 m
-7.20 0 l
o
np
59.04 253.16 m
-7.20 0 l
o
np
59.04 309.32 m
-7.20 0 l
o
np
59.04 365.48 m
-7.20 0 l
o
41.76 84.67 (0) .5 90 t
41.76 140.83 (20) .5 90 t
41.76 196.99 (40) .5 90 t
41.76 253.16 (60) .5 90 t
41.76 309.32 (80) .5 90 t
41.76 365.48 (100) .5 90 t
np
59.04 73.44 m
228.35 0 l
0 303.27 l
-228.35 0 l
0 -303.27 l
o
0.00 0.00 317.63 435.75 cl
/Font2 findfont 19 s
0 0 0 srgb
173.21 399.41 (\(a\)) .5 0 t
/Font1 findfont 16 s
138.09 18.72 (Cell inde) 0 ta
-0.480 (x) tb gr
12.96 177.06 (P) 90 ta
-0.640 (ar) tb
0.640 (ticle inde) tb
-0.480 (x) tb gr
59.04 73.44 287.39 376.71 cl
0.6784 0.8471 0.9020 srgb
0.60 setlinewidth
[] 0 setdash
1 setlinecap
1 setlinejoin
10.00 setmiterlimit
np
67.50 87.48 m
130.88 0 l
o
np
67.50 90.29 m
120.81 0 l
o
np
67.50 93.10 m
110.75 0 l
o
np
67.50 95.90 m
40.27 0 l
o
np
67.50 98.71 m
80.54 0 l
o
np
67.50 101.52 m
90.61 0 l
o
np
67.50 104.33 m
10.07 0 l
o
np
67.50 107.14 m
100.68 0 l
o
np
67.50 109.94 m
201.36 0 l
o
np
67.50 112.75 m
120.81 0 l
o
np
67.50 115.56 m
140.95 0 l
o
np
67.50 118.37 m
70.47 0 l
o
np
67.50 121.18 m
10.07 0 l
o
np
67.50 123.98 m
20.13 0 l
o
np
67.50 126.79 m
30.20 0 l
o
np
67.50 129.60 m
70.47 0 l
o
np
67.50 132.41 m
60.41 0 l
o
np
67.50 135.22 m
70.47 0 l
o
np
67.50 138.03 m
140.95 0 l
o
np
67.50 140.83 m
60.41 0 l
o
np
67.50 143.64 m
110.75 0 l
o
np
67.50 146.45 m
10.07 0 l
o
np
67.50 149.26 m
130.88 0 l
o
np
67.50 152.07 m
110.75 0 l
o
np
67.50 154.87 m
30.20 0 l
o
np
67.50 157.68 m
20.13 0 l
o
np
67.50 160.49 m
80.54 0 l
o
np
67.50 163.30 m
10.07 0 l
o
np
67.50 166.11 m
40.27 0 l
o
np
67.50 168.91 m
80.54 0 l
o
np
67.50 171.72 m
60.41 0 l
o
np
67.50 174.53 m
20.13 0 l
o
np
67.50 177.34 m
60.41 0 l
o
np
67.50 180.15 m
110.75 0 l
o
np
67.50 182.95 m
110.75 0 l
o
np
67.50 185.76 m
60.41 0 l
o
np
67.50 188.57 m
60.41 0 l
o
np
67.50 191.38 m
60.41 0 l
o
np
67.50 194.19 m
60.41 0 l
o
np
67.50 196.99 m
110.75 0 l
o
np
67.50 199.80 m
30.20 0 l
o
np
67.50 202.61 m
20.13 0 l
o
np
67.50 205.42 m
161.09 0 l
o
np
67.50 208.23 m
60.41 0 l
o
np
67.50 211.03 m
130.88 0 l
o
np
67.50 213.84 m
60.41 0 l
o
np
67.50 216.65 m
110.75 0 l
o
np
67.50 219.46 m
50.34 0 l
o
np
67.50 222.27 m
70.47 0 l
o
np
67.50 225.07 m
181.22 0 l
o
np
67.50 227.88 m
151.02 0 l
o
np
67.50 230.69 m
50.34 0 l
o
np
67.50 233.50 m
100.68 0 l
o
np
67.50 236.31 m
130.88 0 l
o
np
67.50 239.12 m
100.68 0 l
o
np
67.50 241.92 m
181.22 0 l
o
np
67.50 244.73 m
10.07 0 l
o
np
67.50 247.54 m
20.13 0 l
o
np
67.50 250.35 m
50.34 0 l
o
np
67.50 253.16 m
10.07 0 l
o
np
67.50 255.96 m
161.09 0 l
o
np
67.50 258.77 m
60.41 0 l
o
np
67.50 261.58 m
60.41 0 l
o
np
67.50 264.39 m
90.61 0 l
o
np
67.50 267.20 m
20.13 0 l
o
np
67.50 270.00 m
140.95 0 l
o
np
67.50 272.81 m
120.81 0 l
o
np
67.50 275.62 m
120.81 0 l
o
np
67.50 278.43 m
90.61 0 l
o
np
67.50 281.24 m
10.07 0 l
o
np
67.50 284.04 m
60.41 0 l
o
np
67.50 286.85 m
140.95 0 l
o
np
67.50 289.66 m
20.13 0 l
o
np
67.50 292.47 m
100.68 0 l
o
np
67.50 295.28 m
70.47 0 l
o
np
67.50 298.08 m
120.81 0 l
o
np
67.50 300.89 m
70.47 0 l
o
np
67.50 303.70 m
10.07 0 l
o
np
67.50 306.51 m
130.88 0 l
o
np
67.50 309.32 m
171.16 0 l
o
np
67.50 312.12 m
140.95 0 l
o
np
67.50 314.93 m
20.13 0 l
o
np
67.50 317.74 m
20.13 0 l
o
np
67.50 320.55 m
10.07 0 l
o
np
67.50 323.36 m
181.22 0 l
o
np
67.50 326.16 m
110.75 0 l
o
np
67.50 328.97 m
20.13 0 l
o
np
67.50 331.78 m
151.02 0 l
o
np
67.50 334.59 m
151.02 0 l
o
np
67.50 337.40 m
181.22 0 l
o
np
67.50 340.21 m
191.29 0 l
o
np
67.50 343.01 m
10.07 0 l
o
np
67.50 345.82 m
60.41 0 l
o
np
67.50 348.63 m
70.47 0 l
o
np
67.50 351.44 m
110.75 0 l
o
np
67.50 354.25 m
30.20 0 l
o
np
67.50 357.05 m
30.20 0 l
o
np
67.50 359.86 m
50.34 0 l
o
np
67.50 362.67 m
20.13 0 l
o
np
67.50 365.48 m
80.54 0 l
o
376.67 73.44 605.01 376.71 cl
376.67 73.44 605.01 376.71 cl
0.00 0.00 635.25 435.75 cl
0 0 0 srgb
0.75 setlinewidth
[] 0 setdash
1 setlinecap
1 setlinejoin
10.00 setmiterlimit
np
385.12 73.44 m
201.36 0 l
o
np
385.12 73.44 m
0 -7.20 l
o
np
435.46 73.44 m
0 -7.20 l
o
np
485.80 73.44 m
0 -7.20 l
o
np
536.14 73.44 m
0 -7.20 l
o
np
586.48 73.44 m
0 -7.20 l
o
/Font1 findfont 16 s
385.12 47.52 (0) .5 0 t
435.46 47.52 (5) .5 0 t
485.80 47.52 (10) .5 0 t
536.14 47.52 (15) .5 0 t
586.48 47.52 (20) .5 0 t
np
376.67 84.67 m
0 280.81 l
o
np
376.67 84.67 m
-7.20 0 l
o
np
376.67 140.83 m
-7.20 0 l
o
np
376.67 196.99 m
-7.20 0 l
o
np
376.67 253.16 m
-7.20 0 l
o
np
376.67 309.32 m
-7.20 0 l
o
np
376.67 365.48 m
-7.20 0 l
o
359.39 84.67 (0) .5 90 t
359.39 140.83 (20) .5 90 t
359.39 196.99 (40) .5 90 t
359.39 253.16 (60) .5 90 t
359.39 309.32 (80) .5 90 t
359.39 365.48 (100) .5 90 t
np
376.67 73.44 m
228.34 0 l
0 303.27 l
-228.34 0 l
0 -303.27 l
o
317.63 0.00 635.25 435.75 cl
/Font2 findfont 19 s
0 0 0 srgb
490.84 399.41 (\(b\)) .5 0 t
/Font1 findfont 16 s
455.72 18.72 (Cell inde) 0 ta
-0.480 (x) tb gr
330.59 176.61 (P) 90 ta
-0.640 (ar) tb
0.640 (ticle Inde) tb
-0.480 (x) tb gr
376.67 73.44 605.01 376.71 cl
0.6784 0.8471 0.9020 srgb
0.60 setlinewidth
[] 0 setdash
1 setlinecap
1 setlinejoin
10.00 setmiterlimit
np
385.12 87.48 m
201.36 0 l
o
np
385.12 90.29 m
191.30 0 l
o
np
385.12 93.10 m
181.23 0 l
o
np
385.12 95.90 m
181.23 0 l
o
np
385.12 98.71 m
181.23 0 l
o
np
385.12 101.52 m
181.23 0 l
o
np
385.12 104.33 m
171.16 0 l
o
np
385.12 107.14 m
161.09 0 l
o
np
385.12 109.94 m
161.09 0 l
o
np
385.12 112.75 m
151.02 0 l
o
np
385.12 115.56 m
151.02 0 l
o
np
385.12 118.37 m
151.02 0 l
o
np
385.12 121.18 m
140.96 0 l
o
np
385.12 123.98 m
140.96 0 l
o
np
385.12 126.79 m
140.96 0 l
o
np
385.12 129.60 m
140.96 0 l
o
np
385.12 132.41 m
140.96 0 l
o
np
385.12 135.22 m
130.89 0 l
o
np
385.12 138.03 m
130.89 0 l
o
np
385.12 140.83 m
130.89 0 l
o
np
385.12 143.64 m
130.89 0 l
o
np
385.12 146.45 m
130.89 0 l
o
np
385.12 149.26 m
120.82 0 l
o
np
385.12 152.07 m
120.82 0 l
o
np
385.12 154.87 m
120.82 0 l
o
np
385.12 157.68 m
120.82 0 l
o
np
385.12 160.49 m
120.82 0 l
o
np
385.12 163.30 m
110.75 0 l
o
np
385.12 166.11 m
110.75 0 l
o
np
385.12 168.91 m
110.75 0 l
o
np
385.12 171.72 m
110.75 0 l
o
np
385.12 174.53 m
110.75 0 l
o
np
385.12 177.34 m
110.75 0 l
o
np
385.12 180.15 m
110.75 0 l
o
np
385.12 182.95 m
110.75 0 l
o
np
385.12 185.76 m
110.75 0 l
o
np
385.12 188.57 m
100.68 0 l
o
np
385.12 191.38 m
100.68 0 l
o
np
385.12 194.19 m
100.68 0 l
o
np
385.12 196.99 m
100.68 0 l
o
np
385.12 199.80 m
90.62 0 l
o
np
385.12 202.61 m
90.62 0 l
o
np
385.12 205.42 m
90.62 0 l
o
np
385.12 208.23 m
80.55 0 l
o
np
385.12 211.03 m
80.55 0 l
o
np
385.12 213.84 m
80.55 0 l
o
np
385.12 216.65 m
80.55 0 l
o
np
385.12 219.46 m
70.48 0 l
o
np
385.12 222.27 m
70.48 0 l
o
np
385.12 225.07 m
70.48 0 l
o
np
385.12 227.88 m
70.48 0 l
o
np
385.12 230.69 m
70.48 0 l
o
np
385.12 233.50 m
70.48 0 l
o
np
385.12 236.31 m
70.48 0 l
o
np
385.12 239.12 m
60.41 0 l
o
np
385.12 241.92 m
60.41 0 l
o
np
385.12 244.73 m
60.41 0 l
o
np
385.12 247.54 m
60.41 0 l
o
np
385.12 250.35 m
60.41 0 l
o
np
385.12 253.16 m
60.41 0 l
o
np
385.12 255.96 m
60.41 0 l
o
np
385.12 258.77 m
60.41 0 l
o
np
385.12 261.58 m
60.41 0 l
o
np
385.12 264.39 m
60.41 0 l
o
np
385.12 267.20 m
60.41 0 l
o
np
385.12 270.00 m
60.41 0 l
o
np
385.12 272.81 m
60.41 0 l
o
np
385.12 275.62 m
60.41 0 l
o
np
385.12 278.43 m
50.34 0 l
o
np
385.12 281.24 m
50.34 0 l
o
np
385.12 284.04 m
50.34 0 l
o
np
385.12 286.85 m
50.34 0 l
o
np
385.12 289.66 m
40.27 0 l
o
np
385.12 292.47 m
40.27 0 l
o
np
385.12 295.28 m
30.21 0 l
o
np
385.12 298.08 m
30.21 0 l
o
np
385.12 300.89 m
30.21 0 l
o
np
385.12 303.70 m
30.21 0 l
o
np
385.12 306.51 m
30.21 0 l
o
np
385.12 309.32 m
20.14 0 l
o
np
385.12 312.12 m
20.14 0 l
o
np
385.12 314.93 m
20.14 0 l
o
np
385.12 317.74 m
20.14 0 l
o
np
385.12 320.55 m
20.14 0 l
o
np
385.12 323.36 m
20.14 0 l
o
np
385.12 326.16 m
20.14 0 l
o
np
385.12 328.97 m
20.14 0 l
o
np
385.12 331.78 m
20.14 0 l
o
np
385.12 334.59 m
20.14 0 l
o
np
385.12 337.40 m
20.14 0 l
o
np
385.12 340.21 m
10.07 0 l
o
np
385.12 343.01 m
10.07 0 l
o
np
385.12 345.82 m
10.07 0 l
o
np
385.12 348.63 m
10.07 0 l
o
np
385.12 351.44 m
10.07 0 l
o
np
385.12 354.25 m
10.07 0 l
o
np
385.12 357.05 m
10.07 0 l
o
np
385.12 359.86 m
10.07 0 l
o
np
385.12 362.67 m
10.07 0 l
o
np
385.12 365.48 m
10.07 0 l
o
0 0 1 srgb
0.75 setlinewidth
[] 0 setdash
np
387.48 365.48 m
5.35 0 l
o
np
390.16 362.80 m
0 5.35 l
o
np
397.55 343.09 m
5.35 0 l
o
np
400.22 340.42 m
0 5.35 l
o
np
407.62 320.93 m
5.35 0 l
o
np
410.29 318.26 m
0 5.34 l
o
np
417.69 299.20 m
5.34 0 l
o
np
420.36 296.53 m
0 5.34 l
o
np
427.76 278.10 m
5.34 0 l
o
np
430.43 275.43 m
0 5.35 l
o
np
437.82 257.82 m
5.35 0 l
o
np
440.50 255.15 m
0 5.34 l
o
np
447.89 238.51 m
5.35 0 l
o
np
450.57 235.83 m
0 5.35 l
o
np
457.96 220.29 m
5.35 0 l
o
np
460.63 217.62 m
0 5.34 l
o
np
468.03 203.27 m
5.34 0 l
o
np
470.70 200.59 m
0 5.35 l
o
np
478.10 187.50 m
5.34 0 l
o
np
480.77 184.83 m
0 5.34 l
o
np
488.16 173.02 m
5.35 0 l
o
np
490.84 170.34 m
0 5.35 l
o
np
498.23 159.82 m
5.35 0 l
o
np
500.91 157.14 m
0 5.35 l
o
np
508.30 147.86 m
5.35 0 l
o
np
510.97 145.19 m
0 5.34 l
o
np
518.37 137.09 m
5.34 0 l
o
np
521.04 134.42 m
0 5.34 l
o
np
528.44 127.41 m
5.34 0 l
o
np
531.11 124.74 m
0 5.34 l
o
np
538.51 118.70 m
5.34 0 l
o
np
541.18 116.03 m
0 5.35 l
o
np
548.57 110.84 m
5.35 0 l
o
np
551.25 108.17 m
0 5.35 l
o
np
558.64 103.68 m
5.35 0 l
o
np
561.31 101.01 m
0 5.34 l
o
np
568.71 97.04 m
5.35 0 l
o
np
571.38 94.37 m
0 5.35 l
o
np
578.78 90.77 m
5.34 0 l
o
np
581.45 88.09 m
0 5.35 l
o
0.6784 0.8471 0.9020 srgb
np
440.18 362.31 m
21.60 0 l
o
0 0 1 srgb
np
447.16 347.91 m
7.64 0 l
o
np
450.98 344.09 m
0 7.64 l
o
/Font1 findfont 16 s
0 0 0 srgb
472.58 356.57 (P) 0 ta
-0.640 (ar) tb
0.640 (ticle P) tb
-0.640 (ath) tb gr
472.58 342.17 (Analytical) 0 0 t
505.94 247.68 (t =  0.125) .5 0 t
ep
%%Trailer
%%Pages: 1
%%EOF
