%!PS-Adobe-3.0 EPSF-3.0
%%DocumentNeededResources: font Helvetica
%%+ font Helvetica-Bold
%%+ font Helvetica-Oblique
%%+ font Helvetica-BoldOblique
%%+ font Symbol
%%Title: R Graphics Output
%%Creator: R Software
%%Pages: (atend)
%%BoundingBox: 0 0 354 298
%%EndComments
%%BeginProlog
/bp  { gs sRGB gs } def
% begin .ps.prolog
/gs  { gsave } bind def
/gr  { grestore } bind def
/ep  { showpage gr gr } bind def
/m   { moveto } bind def
/l  { rlineto } bind def
/np  { newpath } bind def
/cp  { closepath } bind def
/f   { fill } bind def
/o   { stroke } bind def
/c   { newpath 0 360 arc } bind def
/r   { 4 2 roll moveto 1 copy 3 -1 roll exch 0 exch rlineto 0 rlineto -1 mul 0 exch rlineto closepath } bind def
/p1  { stroke } bind def
/p2  { gsave bg fill grestore newpath } bind def
/p3  { gsave bg fill grestore stroke } bind def
/p6  { gsave bg eofill grestore newpath } bind def
/p7  { gsave bg eofill grestore stroke } bind def
/t   { 5 -2 roll moveto gsave rotate
       1 index stringwidth pop
       mul neg 0 rmoveto show grestore } bind def
/ta  { 4 -2 roll moveto gsave rotate show } bind def
/tb  { 2 -1 roll 0 rmoveto show } bind def
/cl  { grestore gsave newpath 3 index 3 index moveto 1 index
       4 -1 roll lineto  exch 1 index lineto lineto
       closepath clip newpath } bind def
/rgb { setrgbcolor } bind def
/s   { scalefont setfont } bind def
% end   .ps.prolog
/sRGB { [ /CIEBasedABC
          << /DecodeLMN
               [ { dup 0.03928 le
                        {12.92321 div}
                        {0.055 add 1.055 div 2.4 exp }
                     ifelse
                 } bind dup dup
               ]
             /MatrixLMN [0.412457 0.212673 0.019334
                         0.357576 0.715152 0.119192
                         0.180437 0.072175 0.950301]
             /WhitePoint [0.9505 1.0 1.0890]
           >>
         ] setcolorspace } bind def
/srgb { setcolor } bind def
% begin encoding
/WinAnsiEncoding [
 /.notdef /.notdef /.notdef /.notdef /.notdef /.notdef /.notdef /.notdef
 /.notdef /.notdef /.notdef /.notdef /.notdef /.notdef /.notdef /.notdef
 /.notdef /.notdef /.notdef /.notdef /.notdef /.notdef /.notdef /.notdef
 /.notdef /.notdef /.notdef /.notdef /.notdef /.notdef /.notdef /.notdef
 /space /exclam /quotedbl /numbersign /dollar /percent /ampersand /quoteright
 /parenleft /parenright /asterisk /plus /comma /minus /period /slash
 /zero /one /two /three /four /five /six /seven
 /eight /nine /colon /semicolon /less /equal /greater /question
 /at /A /B /C /D /E /F /G
 /H /I /J /K /L /M /N /O
 /P /Q /R /S /T /U /V /W
 /X /Y /Z /bracketleft /backslash /bracketright /asciicircum /underscore
 /grave /a /b /c /d /e /f /g
 /h /i /j /k /l /m /n /o
 /p /q /r /s /t /u /v /w
 /x /y /z /braceleft /bar /braceright /asciitilde /.notdef
 /Euro /.notdef /quotesinglbase /florin /quotedblbase /ellipsis /dagger /daggerdbl
 /circumflex /perthousand /Scaron /guilsinglleft /OE /.notdef /Zcaron /.notdef
 /.notdef /quoteleft /quoteright /quotedblleft /quotedblright /bullet /endash /emdash
 /tilde /trademark /scaron /guilsinglright /oe /.notdef /zcaron /Ydieresis
 /space /exclamdown /cent /sterling /currency /yen /brokenbar /section
 /dieresis /copyright /ordfeminine /guillemotleft /logicalnot /hyphen /registered /macron
 /degree /plusminus /twosuperior /threesuperior /acute /mu /paragraph /periodcentered
 /cedilla /onesuperior /ordmasculine /guillemotright /onequarter /onehalf /threequarters /questiondown
 /Agrave /Aacute /Acircumflex /Atilde /Adieresis /Aring /AE /Ccedilla
 /Egrave /Eacute /Ecircumflex /Edieresis /Igrave /Iacute /Icircumflex /Idieresis
 /Eth /Ntilde /Ograve /Oacute /Ocircumflex /Otilde /Odieresis /multiply
 /Oslash /Ugrave /Uacute /Ucircumflex /Udieresis /Yacute /Thorn /germandbls
 /agrave /aacute /acircumflex /atilde /adieresis /aring /ae /ccedilla
 /egrave /eacute /ecircumflex /edieresis /igrave /iacute /icircumflex /idieresis
 /eth /ntilde /ograve /oacute /ocircumflex /otilde /odieresis /divide
 /oslash /ugrave /uacute /ucircumflex /udieresis /yacute /thorn /ydieresis
]
 def
% end encoding
%%IncludeResource: font Helvetica
/Helvetica findfont
dup length dict begin
  {1 index /FID ne {def} {pop pop} ifelse} forall
  /Encoding WinAnsiEncoding def
  currentdict
  end
/Font1 exch definefont pop
%%IncludeResource: font Helvetica-Bold
/Helvetica-Bold findfont
dup length dict begin
  {1 index /FID ne {def} {pop pop} ifelse} forall
  /Encoding WinAnsiEncoding def
  currentdict
  end
/Font2 exch definefont pop
%%IncludeResource: font Helvetica-Oblique
/Helvetica-Oblique findfont
dup length dict begin
  {1 index /FID ne {def} {pop pop} ifelse} forall
  /Encoding WinAnsiEncoding def
  currentdict
  end
/Font3 exch definefont pop
%%IncludeResource: font Helvetica-BoldOblique
/Helvetica-BoldOblique findfont
dup length dict begin
  {1 index /FID ne {def} {pop pop} ifelse} forall
  /Encoding WinAnsiEncoding def
  currentdict
  end
/Font4 exch definefont pop
%%IncludeResource: font Symbol
/Symbol findfont
dup length dict begin
  {1 index /FID ne {def} {pop pop} ifelse} forall
  currentdict
  end
/Font5 exch definefont pop
%%EndProlog
%%Page: 1 1
bp
/bg { 1 1 1 srgb } def
0.00 0.00 354.00 297.75 r p2
59.04 73.44 323.76 238.71 cl
59.04 73.44 323.76 238.71 cl
0.2745 0.5098 0.7059 srgb
0.75 setlinewidth
[] 0 setdash
1 setlinecap
1 setlinejoin
10.00 setmiterlimit
np
68.84 102.00 m
0.25 0 l
0.25 7.93 l
0.24 0 l
0.25 0 l
0.24 0 l
0.25 0 l
0.24 0 l
0.25 24.37 l
0.24 0 l
0.25 0 l
0.24 0 l
0.25 -22.81 l
0.24 0 l
0.25 0 l
0.24 1.22 l
0.25 0 l
0.25 0 l
0.24 0 l
0.25 0 l
0.24 0 l
0.25 -33.15 l
0.24 0 l
0.25 31.85 l
0.24 29.71 l
0.25 0 l
0.24 23.90 l
0.25 0 l
0.24 0 l
0.25 -1.72 l
0.25 -17.49 l
0.24 0.16 l
0.25 0 l
0.24 0 l
0.25 0 l
0.24 0 l
0.25 -8.10 l
0.24 0 l
0.25 0 l
0.24 8.71 l
0.25 0.68 l
0.24 0 l
0.25 4.12 l
0.24 10.57 l
0.25 0 l
0.25 0 l
0.24 0 l
0.25 12.71 l
0.24 0 l
0.25 -1.38 l
0.24 -3.63 l
0.25 0 l
0.24 0 l
0.25 -0.56 l
0.24 -25.40 l
0.25 0 l
0.24 13.19 l
0.25 0 l
0.25 0 l
0.24 -27.53 l
0.25 0 l
0.24 0 l
0.25 0 l
0.24 0 l
0.25 0 l
0.24 0 l
0.25 0 l
0.24 0 l
0.25 0 l
0.24 0 l
0.25 47.12 l
0.24 0 l
0.25 0 l
0.25 0 l
0.24 0 l
0.25 22.40 l
0.24 0 l
0.25 0 l
0.24 8.31 l
0.25 -2.19 l
0.24 9.40 l
0.25 -3.09 l
0.24 0 l
0.25 0 l
0.24 0 l
0.25 -5.64 l
0.25 0 l
0.24 24.55 l
0.25 -18.82 l
0.24 0 l
0.25 0 l
0.24 0 l
0.25 0 l
0.24 0 l
0.25 0 l
0.24 14.49 l
0.25 0 l
0.24 0 l
0.25 0 l
0.24 -5.96 l
93.38 219.92 lineto
0.25 -37.95 l
0.24 0 l
0.25 0 l
0.24 0 l
0.25 -52.05 l
0.24 13.85 l
0.25 -1.49 l
0.24 0 l
0.25 0 l
0.24 0 l
0.25 14.76 l
0.24 -18.81 l
0.25 0 l
0.25 0 l
0.24 0 l
0.25 0 l
0.24 0 l
0.25 29.45 l
0.24 0 l
0.25 0 l
0.24 -30.61 l
0.25 6.88 l
0.24 -14.76 l
0.25 0 l
0.24 0 l
0.25 -12.87 l
0.24 0 l
0.25 14.81 l
0.25 0 l
0.24 0 l
0.25 0 l
0.24 0 l
0.25 -6.01 l
0.24 3.82 l
0.25 11.97 l
0.24 -43.60 l
0.25 -1.36 l
0.24 22.35 l
0.25 0 l
0.24 0 l
0.25 0 l
0.25 0 l
0.24 0 l
0.25 0 l
0.24 0 l
0.25 0 l
0.24 -2.27 l
0.25 22.14 l
0.24 0 l
0.25 0 l
0.24 1.22 l
0.25 12.63 l
0.24 0 l
0.25 0 l
0.24 0 l
0.25 -17.32 l
0.25 -17.14 l
0.24 0 l
0.25 0 l
0.24 0 l
0.25 0 l
0.24 -7.21 l
0.25 0 l
0.24 0 l
0.25 0 l
0.24 0 l
0.25 0 l
0.24 18.04 l
0.25 0 l
0.25 0 l
0.24 10.36 l
0.25 -4.35 l
0.24 0 l
0.25 9.08 l
0.24 0 l
0.25 0 l
0.24 0 l
0.25 12.97 l
0.24 -14.13 l
0.25 0 l
0.24 -9.81 l
0.25 -31.70 l
0.24 0 l
0.25 -5.78 l
0.25 0 l
0.24 0 l
0.25 0 l
0.24 0 l
0.25 0 l
0.24 0 l
0.25 0 l
0.24 17.54 l
0.25 0 l
0.24 7.31 l
0.25 0 l
0.24 -15.45 l
0.25 0 l
0.25 0 l
0.24 19.94 l
117.92 112.05 lineto
0.24 10.17 l
0.25 0 l
0.24 0 l
0.25 -16.15 l
0.24 7.99 l
0.25 4.56 l
0.24 1.18 l
0.25 0 l
0.24 0 l
0.25 32.21 l
0.24 0 l
0.25 -29.68 l
0.25 0 l
0.24 7.52 l
0.25 0 l
0.24 0 l
0.25 -15.63 l
0.24 0 l
0.25 6.55 l
0.24 0 l
0.25 24.36 l
0.24 24.86 l
0.25 8.03 l
0.24 9.41 l
0.25 8.49 l
0.25 0 l
0.24 0 l
0.25 0 l
0.24 0 l
0.25 7.14 l
0.24 9.99 l
0.25 -1.27 l
0.24 0 l
0.25 0 l
0.24 0 l
0.25 -3.99 l
0.24 -25.04 l
0.25 -23.15 l
0.24 7.44 l
0.25 0 l
0.25 0 l
0.24 -1.85 l
0.25 -24.27 l
0.24 -6.71 l
0.25 0 l
0.24 0 l
0.25 -8.82 l
0.24 27.77 l
0.25 -21.83 l
0.24 0 l
0.25 0 l
0.24 0 l
0.25 0 l
0.25 0 l
0.24 24.42 l
0.25 0 l
0.24 -17.59 l
0.25 14.11 l
0.24 -23.16 l
0.25 0.94 l
0.24 0 l
0.25 0 l
0.24 0 l
0.25 21.65 l
0.24 0 l
0.25 -6.43 l
0.24 0 l
0.25 0 l
0.25 0 l
0.24 0 l
0.25 0 l
0.24 0 l
0.25 0 l
0.24 0 l
0.25 0 l
0.24 0 l
0.25 0 l
0.24 0 l
0.25 5.77 l
0.24 -10.68 l
0.25 0 l
0.25 0 l
0.24 0 l
0.25 0 l
0.24 -15.23 l
0.25 -13.75 l
0.24 0 l
0.25 -8.38 l
0.24 0 l
0.25 25.07 l
0.24 0 l
0.25 13.49 l
0.24 0 l
0.25 7.35 l
0.24 0 l
0.25 0.15 l
0.25 -27.73 l
0.24 -0.68 l
0.25 0 l
142.45 128.61 lineto
0.25 0 l
0.24 0 l
0.25 0 l
0.24 17.07 l
0.25 0 l
0.24 0 l
0.25 0 l
0.24 -22.35 l
0.25 0 l
0.25 29.90 l
0.24 0 l
0.25 0 l
0.24 0 l
0.25 -11.02 l
0.24 0 l
0.25 0 l
0.24 -1.95 l
0.25 0 l
0.24 0 l
0.25 0 l
0.24 0 l
0.25 0 l
0.24 -12.30 l
0.25 0 l
0.25 0 l
0.24 0 l
0.25 -16.10 l
0.24 0 l
0.25 0 l
0.24 -2.39 l
0.25 4.97 l
0.24 0 l
0.25 15.22 l
0.24 -11.31 l
0.25 59.88 l
0.24 20.11 l
0.25 -2.50 l
0.25 -13.10 l
0.24 0 l
0.25 0 l
0.24 -17.73 l
0.25 0 l
0.24 0.84 l
0.25 -5.29 l
0.24 0 l
0.25 0 l
0.24 0 l
0.25 0 l
0.24 0 l
0.25 0 l
0.24 0 l
0.25 0 l
0.25 -1.92 l
0.24 0 l
0.25 -14.39 l
0.24 1.37 l
0.25 0 l
0.24 0 l
0.25 0 l
0.24 -18.91 l
0.25 0 l
0.24 0 l
0.25 1.31 l
0.24 -16.77 l
0.25 0 l
0.25 -4.91 l
0.24 0 l
0.25 -10.78 l
0.24 0 l
0.25 0 l
0.24 0 l
0.25 0 l
0.24 0 l
0.25 4.26 l
0.24 0 l
0.25 0 l
0.24 -11.86 l
0.25 24.90 l
0.24 0 l
0.25 0 l
0.25 0 l
0.24 0 l
0.25 26.70 l
0.24 9.55 l
0.25 0 l
0.24 4.69 l
0.25 -2.39 l
0.24 0 l
0.25 26.22 l
0.24 -32.68 l
0.25 0 l
0.24 0 l
0.25 0 l
0.24 -1.50 l
0.25 0 l
0.25 0 l
0.24 0 l
0.25 0 l
0.24 0 l
166.99 149.63 lineto
0.24 0 l
0.25 -19.67 l
0.24 0 l
0.25 0 l
0.24 0 l
0.25 0 l
0.24 2.27 l
0.25 0 l
0.25 17.48 l
0.24 0 l
0.25 2.51 l
0.24 0 l
0.25 0 l
0.24 0 l
0.25 -8.89 l
0.24 0 l
0.25 16.70 l
0.24 0 l
0.25 -6.64 l
0.24 -18.91 l
0.25 0 l
0.24 0 l
0.25 0 l
0.25 -1.39 l
0.24 -11.71 l
0.25 0 l
0.24 3.22 l
0.25 23.60 l
0.24 3.78 l
0.25 0 l
0.24 -9.63 l
0.25 0 l
0.24 0 l
0.25 3.34 l
0.24 0 l
0.25 0 l
0.25 0 l
0.24 0 l
0.25 0 l
0.24 0 l
0.25 0 l
0.24 -2.14 l
0.25 32.15 l
0.24 6.44 l
0.25 0 l
0.24 18.50 l
0.25 7.97 l
0.24 -30.71 l
0.25 0 l
0.24 0 l
0.25 0 l
0.25 0 l
0.24 0 l
0.25 18.59 l
0.24 -10.47 l
0.25 0 l
0.24 0 l
0.25 0 l
0.24 20.12 l
0.25 0 l
0.24 -2.66 l
0.25 19.33 l
0.24 0 l
0.25 0 l
0.25 2.77 l
0.24 0 l
0.25 -10.39 l
0.24 -13.82 l
0.25 0 l
0.24 0 l
0.25 0 l
0.24 -14.67 l
0.25 -18.99 l
0.24 0 l
0.25 0 l
0.24 0 l
0.25 -4.98 l
0.24 -9.94 l
0.25 -11.72 l
0.25 0 l
0.24 0 l
0.25 -31.21 l
0.24 29.47 l
0.25 24.78 l
0.24 16.62 l
0.25 0 l
0.24 0 l
0.25 0 l
0.24 0 l
0.25 -11.49 l
0.24 6.12 l
0.25 0 l
0.25 0 l
0.24 0 l
0.25 2.06 l
0.24 -11.77 l
0.25 -15.20 l
0.24 0 l
0.25 -2.24 l
191.52 151.15 lineto
0.25 -48.35 l
0.24 0 l
0.25 0 l
0.24 -5.45 l
0.25 0 l
0.24 0 l
0.25 14.53 l
0.25 0 l
0.24 0 l
0.25 0 l
0.24 9.63 l
0.25 18.44 l
0.24 -3.77 l
0.25 11.64 l
0.24 0 l
0.25 0 l
0.24 -4.36 l
0.25 3.01 l
0.24 0 l
0.25 -5.90 l
0.25 0 l
0.24 0 l
0.25 0 l
0.24 0 l
0.25 0 l
0.24 0 l
0.25 0 l
0.24 6.94 l
0.25 33.74 l
0.24 -10.28 l
0.25 0 l
0.24 0 l
0.25 0 l
0.24 -10.30 l
0.25 0.02 l
0.25 0 l
0.24 0 l
0.25 -13.73 l
0.24 9.53 l
0.25 0 l
0.24 0 l
0.25 12.36 l
0.24 0 l
0.25 -1.31 l
0.24 0 l
0.25 -15.63 l
0.24 3.14 l
0.25 0 l
0.25 0 l
0.24 0 l
0.25 11.26 l
0.24 0 l
0.25 0 l
0.24 0 l
0.25 7.58 l
0.24 6.59 l
0.25 0 l
0.24 -8.99 l
0.25 23.41 l
0.24 0 l
0.25 0 l
0.24 0 l
0.25 14.56 l
0.25 0 l
0.24 0 l
0.25 0 l
0.24 -18.93 l
0.25 0 l
0.24 0 l
0.25 -16.77 l
0.24 -5.24 l
0.25 0 l
0.24 0 l
0.25 -26.23 l
0.24 -8.29 l
0.25 0 l
0.25 0 l
0.24 0 l
0.25 9.63 l
0.24 0 l
0.25 2.25 l
0.24 0 l
0.25 -9.86 l
0.24 -3.31 l
0.25 0 l
0.24 0 l
0.25 -3.21 l
0.24 0 l
0.25 9.41 l
0.24 0 l
0.25 -11.25 l
0.25 0 l
0.24 11.48 l
0.25 -11.20 l
0.24 28.94 l
0.25 0 l
0.24 -1.51 l
0.25 0 l
0.24 22.27 l
216.06 177.64 lineto
0.24 0 l
0.25 0 l
0.24 0 l
0.25 12.05 l
0.25 0 l
0.24 0 l
0.25 0 l
0.24 -5.37 l
0.25 0 l
0.24 0 l
0.25 0 l
0.24 0 l
0.25 0 l
0.24 7.86 l
0.25 0 l
0.24 -16.56 l
0.25 0 l
0.24 1.68 l
0.25 0 l
0.25 -0.10 l
0.24 0 l
0.25 0 l
0.24 0 l
0.25 0 l
0.24 28.15 l
0.25 -34.03 l
0.24 0 l
0.25 0 l
0.24 0 l
0.25 0 l
0.24 0 l
0.25 0 l
0.25 8.00 l
0.24 0 l
0.25 0 l
0.24 2.98 l
0.25 0 l
0.24 1.43 l
0.25 0 l
0.24 1.92 l
0.25 28.96 l
0.24 0 l
0.25 1.97 l
0.24 0 l
0.25 -34.84 l
0.24 0 l
0.25 0 l
0.25 0 l
0.24 0 l
0.25 0 l
0.24 -20.52 l
0.25 -23.86 l
0.24 -6.77 l
0.25 0 l
0.24 0 l
0.25 0 l
0.24 0 l
0.25 0 l
0.24 0 l
0.25 0 l
0.25 0 l
0.24 0 l
0.25 0 l
0.24 0 l
0.25 7.15 l
0.24 0 l
0.25 -5.25 l
0.24 0 l
0.25 0 l
0.24 0 l
0.25 0 l
0.24 0 l
0.25 0 l
0.24 26.06 l
0.25 0 l
0.25 12.64 l
0.24 0 l
0.25 -20.79 l
0.24 0 l
0.25 0 l
0.24 0 l
0.25 24.11 l
0.24 0 l
0.25 0 l
0.24 0 l
0.25 -2.35 l
0.24 -6.88 l
0.25 0 l
0.25 -22.65 l
0.24 -2.44 l
0.25 0 l
0.24 -17.69 l
0.25 0 l
0.24 -18.73 l
0.25 0 l
0.24 -1.34 l
0.25 0 l
0.24 24.23 l
0.25 0 l
240.59 115.17 lineto
0.25 0 l
0.24 -8.10 l
0.25 -19.84 l
0.25 0 l
0.24 5.48 l
0.25 0 l
0.24 0 l
0.25 26.15 l
0.24 0 l
0.25 -13.81 l
0.24 0 l
0.25 10.67 l
0.24 -28.98 l
0.25 0 l
0.24 0 l
0.25 0 l
0.25 25.97 l
0.24 0 l
0.25 0 l
0.24 6.25 l
0.25 26.09 l
0.24 0 l
0.25 -11.39 l
0.24 0 l
0.25 0 l
0.24 19.51 l
0.25 12.07 l
0.24 16.40 l
0.25 2.83 l
0.24 -16.82 l
0.25 0 l
0.25 0 l
0.24 0 l
0.25 0 l
0.24 0 l
0.25 0 l
0.24 -28.26 l
0.25 28.29 l
0.24 0 l
0.25 -10.35 l
0.24 -8.07 l
0.25 2.33 l
0.24 0 l
0.25 0 l
0.25 18.99 l
0.24 -30.40 l
0.25 22.75 l
0.24 10.24 l
0.25 0 l
0.24 0.60 l
0.25 0 l
0.24 0 l
0.25 6.82 l
0.24 17.20 l
0.25 0 l
0.24 8.83 l
0.25 0 l
0.24 0 l
0.25 -22.96 l
0.25 -14.52 l
0.24 0 l
0.25 -0.26 l
0.24 -12.22 l
0.25 35.40 l
0.24 -8.94 l
0.25 -21.04 l
0.24 -10.46 l
0.25 0 l
0.24 34.27 l
0.25 0 l
0.24 11.60 l
0.25 0 l
0.25 12.36 l
0.24 0 l
0.25 0 l
0.24 -13.57 l
0.25 1.03 l
0.24 -32.43 l
0.25 7.72 l
0.24 0 l
0.25 17.04 l
0.24 0 l
0.25 -13.20 l
0.24 0 l
0.25 14.49 l
0.24 -21.73 l
0.25 -8.82 l
0.25 -9.09 l
0.24 -5.74 l
0.25 -1.30 l
0.24 0 l
0.25 0 l
0.24 0 l
0.25 0 l
0.24 0 l
0.25 19.66 l
0.24 0 l
0.25 5.67 l
0.24 -1.81 l
265.13 187.18 lineto
0.25 8.25 l
0.24 0 l
0.25 0 l
0.24 0 l
0.25 -2.09 l
0.24 20.65 l
0.25 0 l
0.24 -9.74 l
0.25 -21.92 l
0.24 0 l
0.25 -5.46 l
0.24 20.20 l
0.25 0 l
0.24 -54.42 l
0.25 0 l
0.25 40.28 l
0.24 0 l
0.25 6.45 l
0.24 0 l
0.25 -16.00 l
0.24 0 l
0.25 0 l
0.24 0 l
0.25 0 l
0.24 10.89 l
0.25 -6.25 l
0.24 3.06 l
0.25 0 l
0.25 1.94 l
0.24 0 l
0.25 0 l
0.24 -22.54 l
0.25 0 l
0.24 0 l
0.25 -14.11 l
0.24 0 l
0.25 0 l
0.24 0 l
0.25 0 l
0.24 -26.29 l
0.25 0 l
0.24 0 l
0.25 0 l
0.25 0 l
0.24 0 l
0.25 0 l
0.24 0 l
0.25 -5.07 l
0.24 0 l
0.25 0 l
0.24 -1.46 l
0.25 0 l
0.24 0 l
0.25 0 l
0.24 -10.22 l
0.25 0 l
0.25 0 l
0.24 7.89 l
0.25 6.26 l
0.24 0 l
0.25 0 l
0.24 0 l
0.25 0 l
0.24 0 l
0.25 0 l
0.24 0 l
0.25 0 l
0.24 0 l
0.25 -8.74 l
0.24 8.47 l
0.25 0 l
0.25 9.84 l
0.24 26.18 l
0.25 0 l
0.24 0 l
0.25 0 l
0.24 0 l
0.25 18.16 l
0.24 -5.40 l
0.25 0.28 l
0.24 0 l
0.25 0 l
0.24 -15.04 l
0.25 5.34 l
0.25 -14.16 l
0.24 0 l
0.25 0 l
0.24 0 l
0.25 0 l
0.24 0 l
0.25 2.00 l
0.24 0 l
0.25 0 l
0.24 -0.53 l
0.25 -3.82 l
0.24 -21.56 l
0.25 43.04 l
0.24 22.53 l
0.25 0 l
289.67 184.07 lineto
0.24 0 l
0.25 0 l
0.24 -4.20 l
0.25 0 l
0.24 0 l
0.25 0 l
0.24 3.21 l
0.25 0 l
0.24 -8.09 l
0.25 0 l
0.24 6.17 l
0.25 0 l
0.25 0 l
0.24 1.45 l
0.25 0 l
0.24 0 l
0.25 0 l
0.24 0 l
0.25 0 l
0.24 2.10 l
0.25 0 l
0.24 0 l
0.25 0 l
0.24 0 l
0.25 0 l
0.24 0 l
0.25 1.78 l
0.25 0 l
0.24 -16.39 l
0.25 -13.48 l
0.24 0 l
0.25 0 l
0.24 29.68 l
0.25 0 l
0.24 24.00 l
0.25 0 l
0.24 0 l
0.25 0 l
0.24 22.29 l
0.25 0 l
0.25 0 l
0.24 0 l
0.25 -18.28 l
0.24 0 l
0.25 0 l
0.24 0 l
0.25 13.96 l
0.24 0 l
0.25 -0.67 l
0.24 -9.99 l
0.25 0 l
0.24 -34.25 l
0.25 0 l
0.24 -8.43 l
0.25 10.22 l
0.25 0 l
0.24 0 l
0.25 -0.89 l
0.24 -8.29 l
0.25 0 l
0.24 0 l
0.25 0 l
0.24 0 l
0.25 0 l
0.24 -16.80 l
0.25 0 l
0.24 0 l
0.25 0 l
0.25 0 l
0.24 -14.90 l
0.25 19.17 l
0.24 0 l
0.25 0 l
0.24 0 l
0.25 -6.48 l
0.24 0 l
0.25 0 l
0.24 0 l
0.25 -8.31 l
0.24 -9.47 l
0.25 -33.71 l
0.24 0.29 l
0.25 0 l
0.25 6.90 l
0.24 0 l
0.25 6.51 l
0.24 -18.01 l
0.25 0 l
0.24 0 l
0.25 0 l
0.24 0 l
0.25 -11.85 l
0.24 0 l
0.25 5.14 l
0.24 0 l
0.25 0 l
0.25 0 l
0.24 0 l
0.25 0 l
o
0.00 0.00 354.00 297.75 cl
/Font1 findfont 12 s
0 0 0 srgb
170.06 18.72 (iter) 0 ta
-0.120 (ation) tb gr
12.96 156.08 (a) .5 90 t
0.00 0.00 354.00 297.75 cl
0 0 0 srgb
0.75 setlinewidth
[] 0 setdash
1 setlinecap
1 setlinejoin
10.00 setmiterlimit
np
68.60 73.44 m
245.36 0 l
o
np
68.60 73.44 m
0 -7.20 l
o
np
117.67 73.44 m
0 -7.20 l
o
np
166.74 73.44 m
0 -7.20 l
o
np
215.81 73.44 m
0 -7.20 l
o
np
264.88 73.44 m
0 -7.20 l
o
np
313.96 73.44 m
0 -7.20 l
o
/Font1 findfont 12 s
68.60 47.52 (0) .5 0 t
117.67 47.52 (200) .5 0 t
166.74 47.52 (400) .5 0 t
215.81 47.52 (600) .5 0 t
264.88 47.52 (800) .5 0 t
313.96 47.52 (1000) .5 0 t
np
59.04 89.23 m
0 140.85 l
o
np
59.04 89.23 m
-7.20 0 l
o
np
59.04 124.44 m
-7.20 0 l
o
np
59.04 159.66 m
-7.20 0 l
o
np
59.04 194.87 m
-7.20 0 l
o
np
59.04 230.08 m
-7.20 0 l
o
41.76 89.23 (0.6) .5 90 t
41.76 124.44 (0.7) .5 90 t
41.76 159.66 (0.8) .5 90 t
41.76 194.87 (0.9) .5 90 t
41.76 230.08 (1.0) .5 90 t
59.04 73.44 323.76 238.71 cl
1 0 0 srgb
0.75 setlinewidth
[] 0 setdash
1 setlinecap
1 setlinejoin
10.00 setmiterlimit
np
71.05 152.23 m
242.91 0 l
o
0 1 0 srgb
np
71.05 95.03 m
242.91 0 l
o
np
71.05 214.61 m
242.91 0 l
o
ep
%%Trailer
%%Pages: 1
%%EOF
