%!PS-Adobe-3.0 EPSF-3.0
%%DocumentNeededResources: font Helvetica
%%+ font Helvetica-Bold
%%+ font Helvetica-Oblique
%%+ font Helvetica-BoldOblique
%%+ font Symbol
%%Title: R Graphics Output
%%Creator: R Software
%%Pages: (atend)
%%BoundingBox: 0 0 396 298
%%EndComments
%%BeginProlog
/bp  { gs sRGB gs } def
% begin .ps.prolog
/gs  { gsave } bind def
/gr  { grestore } bind def
/ep  { showpage gr gr } bind def
/m   { moveto } bind def
/l  { rlineto } bind def
/np  { newpath } bind def
/cp  { closepath } bind def
/f   { fill } bind def
/o   { stroke } bind def
/c   { newpath 0 360 arc } bind def
/r   { 4 2 roll moveto 1 copy 3 -1 roll exch 0 exch rlineto 0 rlineto -1 mul 0 exch rlineto closepath } bind def
/p1  { stroke } bind def
/p2  { gsave bg fill grestore newpath } bind def
/p3  { gsave bg fill grestore stroke } bind def
/p6  { gsave bg eofill grestore newpath } bind def
/p7  { gsave bg eofill grestore stroke } bind def
/t   { 5 -2 roll moveto gsave rotate
       1 index stringwidth pop
       mul neg 0 rmoveto show grestore } bind def
/ta  { 4 -2 roll moveto gsave rotate show } bind def
/tb  { 2 -1 roll 0 rmoveto show } bind def
/cl  { grestore gsave newpath 3 index 3 index moveto 1 index
       4 -1 roll lineto  exch 1 index lineto lineto
       closepath clip newpath } bind def
/rgb { setrgbcolor } bind def
/s   { scalefont setfont } bind def
% end   .ps.prolog
/sRGB { [ /CIEBasedABC
          << /DecodeLMN
               [ { dup 0.03928 le
                        {12.92321 div}
                        {0.055 add 1.055 div 2.4 exp }
                     ifelse
                 } bind dup dup
               ]
             /MatrixLMN [0.412457 0.212673 0.019334
                         0.357576 0.715152 0.119192
                         0.180437 0.072175 0.950301]
             /WhitePoint [0.9505 1.0 1.0890]
           >>
         ] setcolorspace } bind def
/srgb { setcolor } bind def
% begin encoding
/WinAnsiEncoding [
 /.notdef /.notdef /.notdef /.notdef /.notdef /.notdef /.notdef /.notdef
 /.notdef /.notdef /.notdef /.notdef /.notdef /.notdef /.notdef /.notdef
 /.notdef /.notdef /.notdef /.notdef /.notdef /.notdef /.notdef /.notdef
 /.notdef /.notdef /.notdef /.notdef /.notdef /.notdef /.notdef /.notdef
 /space /exclam /quotedbl /numbersign /dollar /percent /ampersand /quoteright
 /parenleft /parenright /asterisk /plus /comma /minus /period /slash
 /zero /one /two /three /four /five /six /seven
 /eight /nine /colon /semicolon /less /equal /greater /question
 /at /A /B /C /D /E /F /G
 /H /I /J /K /L /M /N /O
 /P /Q /R /S /T /U /V /W
 /X /Y /Z /bracketleft /backslash /bracketright /asciicircum /underscore
 /grave /a /b /c /d /e /f /g
 /h /i /j /k /l /m /n /o
 /p /q /r /s /t /u /v /w
 /x /y /z /braceleft /bar /braceright /asciitilde /.notdef
 /Euro /.notdef /quotesinglbase /florin /quotedblbase /ellipsis /dagger /daggerdbl
 /circumflex /perthousand /Scaron /guilsinglleft /OE /.notdef /Zcaron /.notdef
 /.notdef /quoteleft /quoteright /quotedblleft /quotedblright /bullet /endash /emdash
 /tilde /trademark /scaron /guilsinglright /oe /.notdef /zcaron /Ydieresis
 /space /exclamdown /cent /sterling /currency /yen /brokenbar /section
 /dieresis /copyright /ordfeminine /guillemotleft /logicalnot /hyphen /registered /macron
 /degree /plusminus /twosuperior /threesuperior /acute /mu /paragraph /periodcentered
 /cedilla /onesuperior /ordmasculine /guillemotright /onequarter /onehalf /threequarters /questiondown
 /Agrave /Aacute /Acircumflex /Atilde /Adieresis /Aring /AE /Ccedilla
 /Egrave /Eacute /Ecircumflex /Edieresis /Igrave /Iacute /Icircumflex /Idieresis
 /Eth /Ntilde /Ograve /Oacute /Ocircumflex /Otilde /Odieresis /multiply
 /Oslash /Ugrave /Uacute /Ucircumflex /Udieresis /Yacute /Thorn /germandbls
 /agrave /aacute /acircumflex /atilde /adieresis /aring /ae /ccedilla
 /egrave /eacute /ecircumflex /edieresis /igrave /iacute /icircumflex /idieresis
 /eth /ntilde /ograve /oacute /ocircumflex /otilde /odieresis /divide
 /oslash /ugrave /uacute /ucircumflex /udieresis /yacute /thorn /ydieresis
]
 def
% end encoding
%%IncludeResource: font Helvetica
/Helvetica findfont
dup length dict begin
  {1 index /FID ne {def} {pop pop} ifelse} forall
  /Encoding WinAnsiEncoding def
  currentdict
  end
/Font1 exch definefont pop
%%IncludeResource: font Helvetica-Bold
/Helvetica-Bold findfont
dup length dict begin
  {1 index /FID ne {def} {pop pop} ifelse} forall
  /Encoding WinAnsiEncoding def
  currentdict
  end
/Font2 exch definefont pop
%%IncludeResource: font Helvetica-Oblique
/Helvetica-Oblique findfont
dup length dict begin
  {1 index /FID ne {def} {pop pop} ifelse} forall
  /Encoding WinAnsiEncoding def
  currentdict
  end
/Font3 exch definefont pop
%%IncludeResource: font Helvetica-BoldOblique
/Helvetica-BoldOblique findfont
dup length dict begin
  {1 index /FID ne {def} {pop pop} ifelse} forall
  /Encoding WinAnsiEncoding def
  currentdict
  end
/Font4 exch definefont pop
%%IncludeResource: font Symbol
/Symbol findfont
dup length dict begin
  {1 index /FID ne {def} {pop pop} ifelse} forall
  currentdict
  end
/Font5 exch definefont pop
%%EndProlog
%%Page: 1 1
bp
/bg { 1 1 1 srgb } def
0.00 0.00 396.00 297.75 r p2
59.04 73.44 365.76 238.71 cl
59.04 73.44 365.76 238.71 cl
0 0 0 srgb
0.75 setlinewidth
[] 0 setdash
1 setlinecap
1 setlinejoin
10.00 setmiterlimit
np
70.40 171.69 m
0.28 49.90 l
0.29 0 l
0.28 0 l
0.29 5.21 l
0.28 0 l
0.29 0 l
0.28 -15.10 l
0.28 0 l
0.29 0 l
0.28 0 l
0.29 3.56 l
0.28 17.33 l
0.29 -9.68 l
0.28 0 l
0.28 0 l
0.29 -13.11 l
0.28 0 l
0.29 0 l
0.28 0 l
0.29 0 l
0.28 3.13 l
0.28 -2.37 l
0.29 0 l
0.28 0 l
0.29 5.79 l
0.28 -30.89 l
0.29 0 l
0.28 0 l
0.28 4.37 l
0.29 0 l
0.28 -0.01 l
0.29 0 l
0.28 0 l
0.29 0 l
0.28 -44.04 l
0.28 0 l
0.29 0 l
0.28 2.09 l
0.29 0 l
0.28 12.91 l
0.29 -26.29 l
0.28 0 l
0.28 0 l
0.29 -1.21 l
0.28 0 l
0.29 0 l
0.28 0 l
0.29 0 l
0.28 6.37 l
0.28 -0.11 l
0.29 0 l
0.28 23.46 l
0.29 0 l
0.28 0 l
0.29 8.99 l
0.28 0 l
0.28 0 l
0.29 0 l
0.28 12.10 l
0.29 18.81 l
0.28 0.87 l
0.29 -6.62 l
0.28 0 l
0.28 -15.98 l
0.29 0 l
0.28 -15.73 l
0.29 0 l
0.28 -1.54 l
0.29 0 l
0.28 0 l
0.28 8.59 l
0.29 8.22 l
0.28 5.70 l
0.29 0 l
0.28 0 l
0.29 0 l
0.28 0 l
0.28 0 l
0.29 0 l
0.28 0 l
0.29 0 l
0.28 0 l
0.29 8.80 l
0.28 -29.79 l
0.28 -15.32 l
0.29 0 l
0.28 -2.57 l
0.29 0 l
0.28 14.89 l
0.29 -9.08 l
0.28 0 l
0.28 0 l
0.29 0 l
0.28 4.45 l
0.29 -19.03 l
0.28 0 l
0.29 0 l
0.28 0 l
0.28 0 l
98.83 138.76 lineto
0.28 0 l
0.29 -6.15 l
0.28 5.05 l
0.29 0 l
0.28 0 l
0.28 34.96 l
0.29 -17.95 l
0.28 -14.87 l
0.29 0 l
0.28 0 l
0.29 -0.03 l
0.28 0 l
0.28 24.05 l
0.29 -27.70 l
0.28 0 l
0.29 20.12 l
0.28 0 l
0.29 0 l
0.28 0 l
0.28 0 l
0.29 0 l
0.28 -18.54 l
0.29 0 l
0.28 0 l
0.29 0 l
0.28 0 l
0.28 2.22 l
0.29 0 l
0.28 7.31 l
0.29 0 l
0.28 0 l
0.29 0 l
0.28 0 l
0.28 0 l
0.29 0 l
0.28 0 l
0.29 34.57 l
0.28 -15.47 l
0.29 16.34 l
0.28 0 l
0.28 -5.82 l
0.29 -1.46 l
0.28 -6.35 l
0.29 0 l
0.28 10.67 l
0.29 0 l
0.28 0 l
0.28 0 l
0.29 0 l
0.28 0 l
0.29 0 l
0.28 0 l
0.29 0 l
0.28 0 l
0.28 0 l
0.29 0 l
0.28 -7.37 l
0.29 -3.67 l
0.28 0 l
0.29 0 l
0.28 0 l
0.28 0 l
0.29 0 l
0.28 11.02 l
0.29 0 l
0.28 0 l
0.29 0 l
0.28 -5.79 l
0.28 0 l
0.29 0 l
0.28 -32.78 l
0.29 -7.31 l
0.28 21.29 l
0.29 0 l
0.28 0 l
0.28 0 l
0.29 0 l
0.28 0 l
0.29 -3.26 l
0.28 -18.96 l
0.29 0 l
0.28 0 l
0.28 -6.82 l
0.29 0 l
0.28 0.28 l
0.29 6.66 l
0.28 0 l
0.29 0 l
0.28 0 l
0.28 9.28 l
0.29 -1.85 l
0.28 0 l
0.29 -24.35 l
0.28 0 l
0.29 0 l
0.28 0 l
0.28 0 l
0.29 0 l
0.28 0 l
127.26 116.08 lineto
0.28 0 l
0.29 -12.89 l
0.28 0 l
0.28 0 l
0.29 -15.34 l
0.28 0 l
0.29 5.77 l
0.28 0 l
0.29 0 l
0.28 11.31 l
0.28 28.64 l
0.29 -16.22 l
0.28 -11.10 l
0.29 0 l
0.28 -11.70 l
0.29 20.98 l
0.28 0 l
0.28 0 l
0.29 0 l
0.28 -23.85 l
0.29 0 l
0.28 0 l
0.29 13.36 l
0.28 0 l
0.28 0 l
0.29 0 l
0.28 0 l
0.29 0 l
0.28 0 l
0.29 0 l
0.28 0 l
0.28 0 l
0.29 -3.67 l
0.28 0 l
0.29 -5.00 l
0.28 0 l
0.29 0 l
0.28 0 l
0.28 0 l
0.29 0 l
0.28 0 l
0.29 0 l
0.28 0 l
0.29 0 l
0.28 0 l
0.28 0 l
0.29 0 l
0.28 14.05 l
0.29 0 l
0.28 0 l
0.29 0 l
0.28 0 l
0.28 8.32 l
0.29 0 l
0.28 0 l
0.29 0 l
0.28 5.16 l
0.29 -18.83 l
0.28 15.12 l
0.28 0 l
0.29 0 l
0.28 0 l
0.29 0 l
0.28 -5.26 l
0.29 0 l
0.28 2.23 l
0.28 -20.62 l
0.29 0 l
0.28 0 l
0.29 10.69 l
0.28 0 l
0.29 10.58 l
0.28 0 l
0.28 0 l
0.29 0 l
0.28 -7.55 l
0.29 0 l
0.28 1.03 l
0.29 0.21 l
0.28 0 l
0.28 0 l
0.29 0 l
0.28 0 l
0.29 0 l
0.28 0 l
0.29 -9.85 l
0.28 10.13 l
0.28 0 l
0.29 0 l
0.28 0.72 l
0.29 0 l
0.28 0 l
0.29 0 l
0.28 0 l
0.28 0 l
0.29 0 l
0.28 0 l
0.29 0 l
0.28 0 l
155.69 112.50 lineto
0.28 -6.85 l
0.28 0 l
0.29 0 l
0.28 0 l
0.29 0 l
0.28 0 l
0.29 0 l
0.28 0 l
0.28 0 l
0.29 0 l
0.28 0 l
0.29 0 l
0.28 0 l
0.29 0 l
0.28 11.47 l
0.28 0 l
0.29 0 l
0.28 0 l
0.29 0 l
0.28 22.37 l
0.29 0 l
0.28 -14.02 l
0.28 0 l
0.29 0 l
0.28 0 l
0.29 -7.47 l
0.28 0 l
0.29 0 l
0.28 0 l
0.28 0 l
0.29 1.01 l
0.28 -11.28 l
0.29 0 l
0.28 0 l
0.29 8.98 l
0.28 0 l
0.28 0 l
0.29 5.81 l
0.28 9.37 l
0.29 0 l
0.28 0 l
0.29 -14.70 l
0.28 0 l
0.28 -6.55 l
0.29 0 l
0.28 0 l
0.29 0 l
0.28 0 l
0.29 0 l
0.28 0 l
0.28 0 l
0.29 15.20 l
0.28 -13.32 l
0.29 0 l
0.28 0 l
0.29 0 l
0.28 -16.68 l
0.28 10.90 l
0.29 0 l
0.28 -9.67 l
0.29 27.94 l
0.28 0 l
0.29 0 l
0.28 0 l
0.28 0 l
0.29 0 l
0.28 0.63 l
0.29 0 l
0.28 0 l
0.29 29.45 l
0.28 0 l
0.28 -23.99 l
0.29 0 l
0.28 0 l
0.29 0 l
0.28 0.71 l
0.29 0 l
0.28 0 l
0.28 1.66 l
0.29 4.31 l
0.28 0 l
0.29 0 l
0.28 0 l
0.29 0 l
0.28 0 l
0.28 -0.13 l
0.29 0 l
0.28 0 l
0.29 0 l
0.28 0 l
0.29 0 l
0.28 0 l
0.28 0 l
0.29 -19.11 l
0.28 0 l
0.29 0 l
0.28 0 l
0.29 0 l
0.28 -17.05 l
184.11 113.20 lineto
0.29 0 l
0.28 0 l
0.29 0 l
0.28 -0.98 l
0.29 -15.55 l
0.28 12.67 l
0.28 0 l
0.29 0 l
0.28 0 l
0.29 0 l
0.28 0 l
0.29 0 l
0.28 0 l
0.28 0 l
0.29 0 l
0.28 0 l
0.29 6.60 l
0.28 0 l
0.29 9.87 l
0.28 0 l
0.28 -5.76 l
0.29 12.70 l
0.28 0.84 l
0.29 0 l
0.28 0 l
0.29 0 l
0.28 -14.02 l
0.28 0 l
0.29 0 l
0.28 0 l
0.29 0 l
0.28 0 l
0.29 7.94 l
0.28 0 l
0.28 0 l
0.29 0 l
0.28 0 l
0.29 -16.41 l
0.28 0 l
0.29 0 l
0.28 0 l
0.28 0 l
0.29 2.75 l
0.28 17.26 l
0.29 0 l
0.28 0 l
0.29 0 l
0.28 0 l
0.28 0 l
0.29 0 l
0.28 0 l
0.29 0.14 l
0.28 0 l
0.29 0 l
0.28 0 l
0.28 0 l
0.29 0 l
0.28 0 l
0.29 0 l
0.28 0 l
0.29 0 l
0.28 -3.05 l
0.28 0 l
0.29 0 l
0.28 0 l
0.29 -16.47 l
0.28 -14.96 l
0.29 7.45 l
0.28 -4.07 l
0.28 0 l
0.29 0 l
0.28 12.65 l
0.29 0 l
0.28 0 l
0.29 0 l
0.28 0 l
0.28 -8.84 l
0.29 -8.31 l
0.28 0 l
0.29 0 l
0.28 0 l
0.29 0 l
0.28 0 l
0.28 3.96 l
0.29 0 l
0.28 0 l
0.29 0 l
0.28 0 l
0.29 0 l
0.28 0.77 l
0.28 0 l
0.29 0 l
0.28 0 l
0.29 0 l
0.28 -4.36 l
0.29 0 l
0.28 11.56 l
0.28 0 l
0.29 0 l
212.54 107.58 lineto
0.29 -15.07 l
0.28 0 l
0.28 5.70 l
0.29 -8.89 l
0.28 0 l
0.29 0 l
0.28 12.37 l
0.29 18.83 l
0.28 0 l
0.28 -25.63 l
0.29 0 l
0.28 -15.33 l
0.29 20.26 l
0.28 0.10 l
0.29 0 l
0.28 -10.82 l
0.28 0 l
0.29 0 l
0.28 0 l
0.29 8.90 l
0.28 0 l
0.29 0 l
0.28 21.52 l
0.28 0 l
0.29 0 l
0.28 0 l
0.29 0 l
0.28 0 l
0.29 -7.93 l
0.28 0 l
0.28 0 l
0.29 0 l
0.28 0 l
0.29 0 l
0.28 12.37 l
0.29 0 l
0.28 0 l
0.28 0 l
0.29 0 l
0.28 12.83 l
0.29 0 l
0.28 0 l
0.29 0 l
0.28 0 l
0.28 0 l
0.29 0 l
0.28 0 l
0.29 0 l
0.28 -14.62 l
0.29 0 l
0.28 0 l
0.28 7.67 l
0.29 -7.35 l
0.28 0 l
0.29 0 l
0.28 13.14 l
0.29 0 l
0.28 3.67 l
0.28 0 l
0.29 0 l
0.28 0 l
0.29 1.16 l
0.28 0 l
0.29 0 l
0.28 -17.39 l
0.28 0 l
0.29 -3.87 l
0.28 0 l
0.29 0 l
0.28 24.34 l
0.29 0 l
0.28 0 l
0.28 0 l
0.29 -10.51 l
0.28 0 l
0.29 17.16 l
0.28 -18.87 l
0.29 7.29 l
0.28 0 l
0.28 5.69 l
0.29 0 l
0.28 0 l
0.29 0 l
0.28 0 l
0.29 0 l
0.28 0 l
0.28 0 l
0.29 8.94 l
0.28 -3.84 l
0.29 0 l
0.28 -18.78 l
0.29 18.06 l
0.28 0 l
0.28 0 l
0.29 0 l
0.28 9.98 l
0.29 0 l
0.28 0 l
0.29 -3.52 l
240.97 155.14 lineto
0.28 0 l
0.29 0 l
0.28 0 l
0.29 0 l
0.28 1.64 l
0.29 0 l
0.28 -22.27 l
0.28 0 l
0.29 0 l
0.28 0 l
0.29 0 l
0.28 0 l
0.29 0 l
0.28 0 l
0.28 0 l
0.29 0 l
0.28 0 l
0.29 0 l
0.28 0 l
0.29 0 l
0.28 0 l
0.28 0 l
0.29 0 l
0.28 0 l
0.29 0 l
0.28 0 l
0.29 0 l
0.28 -8.39 l
0.28 0 l
0.29 15.65 l
0.28 0 l
0.29 0 l
0.28 0 l
0.29 0 l
0.28 -12.91 l
0.28 0 l
0.29 0 l
0.28 14.82 l
0.29 0 l
0.28 0 l
0.29 0 l
0.28 0 l
0.28 2.75 l
0.29 -19.80 l
0.28 10.61 l
0.29 0 l
0.28 -11.88 l
0.29 0 l
0.28 0 l
0.28 0 l
0.29 0.26 l
0.28 0 l
0.29 0 l
0.28 0 l
0.29 0 l
0.28 -15.39 l
0.28 0 l
0.29 0 l
0.28 0 l
0.29 0 l
0.28 0 l
0.29 0 l
0.28 0 l
0.28 -12.26 l
0.29 0 l
0.28 0 l
0.29 22.92 l
0.28 -0.48 l
0.29 1.90 l
0.28 15.71 l
0.28 6.43 l
0.29 0 l
0.28 -13.27 l
0.29 0 l
0.28 0 l
0.29 14.83 l
0.28 0 l
0.28 0 l
0.29 -3.80 l
0.28 0 l
0.29 0 l
0.28 -1.53 l
0.29 0 l
0.28 0 l
0.28 3.62 l
0.29 0 l
0.28 0 l
0.29 0 l
0.28 -12.32 l
0.29 15.99 l
0.28 -2.23 l
0.28 0 l
0.29 0 l
0.28 0 l
0.29 0 l
0.28 0 l
0.29 0 l
0.28 0 l
0.28 0 l
269.40 141.00 lineto
0.28 -0.83 l
0.29 0 l
0.28 0 l
0.29 0 l
0.28 29.36 l
0.28 11.25 l
0.29 -19.87 l
0.28 0 l
0.29 -16.68 l
0.28 0 l
0.29 0 l
0.28 0 l
0.28 0 l
0.29 0 l
0.28 0 l
0.29 0 l
0.28 0 l
0.29 0 l
0.28 0 l
0.28 0 l
0.29 0 l
0.28 -9.31 l
0.29 -7.00 l
0.28 0 l
0.29 0 l
0.28 0 l
0.28 0 l
0.29 0 l
0.28 0 l
0.29 -20.11 l
0.28 0 l
0.29 0 l
0.28 -3.18 l
0.28 0 l
0.29 0 l
0.28 0 l
0.29 -13.87 l
0.28 19.23 l
0.29 3.19 l
0.28 21.16 l
0.28 -14.05 l
0.29 0 l
0.28 -17.97 l
0.29 0 l
0.28 0 l
0.29 0 l
0.28 -13.31 l
0.28 0 l
0.29 0 l
0.28 0 l
0.29 0 l
0.28 0 l
0.29 0 l
0.28 0 l
0.28 0 l
0.29 0 l
0.28 0 l
0.29 0 l
0.28 0 l
0.29 18.03 l
0.28 0 l
0.28 9.91 l
0.29 0 l
0.28 0 l
0.29 -12.34 l
0.28 0 l
0.29 0 l
0.28 0 l
0.28 14.53 l
0.29 -2.13 l
0.28 0 l
0.29 0 l
0.28 0 l
0.29 0 l
0.28 0 l
0.28 0 l
0.29 5.76 l
0.28 14.42 l
0.29 0 l
0.28 -0.20 l
0.29 0 l
0.28 0 l
0.28 0 l
0.29 0 l
0.28 -1.19 l
0.29 0 l
0.28 0 l
0.29 30.98 l
0.28 -14.34 l
0.28 0 l
0.29 0 l
0.28 0 l
0.29 8.61 l
0.28 0 l
0.29 0 l
0.28 0 l
0.28 0 l
0.29 23.86 l
0.28 0 l
297.83 184.91 lineto
0.28 0 l
0.29 0 l
0.28 3.68 l
0.28 -9.68 l
0.29 0 l
0.28 -27.15 l
0.29 0 l
0.28 25.14 l
0.29 0 l
0.28 0 l
0.28 0 l
0.29 0 l
0.28 0 l
0.29 0 l
0.28 -4.14 l
0.29 5.41 l
0.28 0 l
0.28 0 l
0.29 0 l
0.28 -8.59 l
0.29 0 l
0.28 0 l
0.29 0 l
0.28 8.83 l
0.28 0 l
0.29 0 l
0.28 0 l
0.29 0 l
0.28 0 l
0.29 0 l
0.28 -6.02 l
0.28 -11.65 l
0.29 0 l
0.28 0 l
0.29 0 l
0.28 0 l
0.29 0 l
0.28 0 l
0.28 0 l
0.29 0 l
0.28 0 l
0.29 11.02 l
0.28 -29.77 l
0.29 0 l
0.28 27.53 l
0.28 0 l
0.29 0 l
0.28 -15.53 l
0.29 -14.01 l
0.28 0.14 l
0.29 -32.65 l
0.28 0 l
0.28 0 l
0.29 0 l
0.28 0 l
0.29 0 l
0.28 0 l
0.29 0 l
0.28 0 l
0.28 0 l
0.29 21.95 l
0.28 0 l
0.29 0 l
0.28 19.99 l
0.29 -5.45 l
0.28 0 l
0.28 0 l
0.29 0 l
0.28 0 l
0.29 0 l
0.28 0 l
0.29 0 l
0.28 0 l
0.28 0 l
0.29 0 l
0.28 0 l
0.29 -14.67 l
0.28 -10.34 l
0.29 0 l
0.28 0 l
0.28 0 l
0.29 0 l
0.28 0 l
0.29 -8.99 l
0.28 0.78 l
0.29 8.40 l
0.28 0 l
0.28 0 l
0.29 0 l
0.28 -2.96 l
0.29 0 l
0.28 0 l
0.29 0 l
0.28 -9.71 l
0.28 0 l
0.29 -17.29 l
0.28 0 l
0.29 0 l
0.28 0 l
326.26 89.18 lineto
0.28 0 l
0.28 0 l
0.29 10.38 l
0.28 0 l
0.29 0 l
0.28 0 l
0.29 23.96 l
0.28 0 l
0.28 -26.72 l
0.29 0 l
0.28 0 l
0.29 24.70 l
0.28 0 l
0.29 0 l
0.28 0 l
0.28 0 l
0.29 0 l
0.28 -4.35 l
0.29 0 l
0.28 0 l
0.29 0 l
0.28 0 l
0.28 0 l
0.29 20.74 l
0.28 0 l
0.29 -2.90 l
0.28 0 l
0.29 0 l
0.28 0 l
0.28 0 l
0.29 -21.93 l
0.28 4.85 l
0.29 3.37 l
0.28 0 l
0.29 -6.89 l
0.28 0 l
0.28 0 l
0.29 0 l
0.28 -1.35 l
0.29 0 l
0.28 0 l
0.29 0 l
0.28 0 l
0.28 0 l
0.29 0 l
0.28 9.89 l
0.29 0 l
0.28 0 l
0.29 21.14 l
0.28 0 l
0.28 0 l
0.29 0 l
0.28 -15.40 l
0.29 0 l
0.28 -6.67 l
0.29 0 l
0.28 0 l
0.28 0 l
0.29 0 l
0.28 4.80 l
0.29 0 l
0.28 0 l
0.29 0 l
0.28 0 l
0.28 0 l
0.29 7.73 l
0.28 0 l
0.29 -14.93 l
0.28 0 l
0.29 0 l
0.28 12.52 l
0.28 16.22 l
0.29 -9.65 l
0.28 10.63 l
0.29 0 l
0.28 0 l
0.29 0 l
0.28 15.58 l
0.28 0 l
0.29 -36.33 l
0.28 0 l
0.29 38.25 l
0.28 -2.90 l
0.29 0 l
0.28 -6.06 l
0.28 0 l
0.29 -9.95 l
0.28 0 l
0.29 0 l
0.28 0 l
0.29 -45.73 l
0.28 16.91 l
0.28 18.56 l
0.29 3.29 l
0.28 9.03 l
0.29 14.54 l
0.28 0 l
0.29 0 l
0.28 0 l
o
0.00 0.00 396.00 297.75 cl
/Font1 findfont 12 s
0 0 0 srgb
191.06 18.72 (iter) 0 ta
-0.120 (ation) tb gr
12.96 156.08 (Bi) .5 90 t
0.00 0.00 396.00 297.75 cl
0 0 0 srgb
0.75 setlinewidth
[] 0 setdash
1 setlinecap
1 setlinejoin
10.00 setmiterlimit
np
70.12 73.44 m
284.28 0 l
o
np
70.12 73.44 m
0 -7.20 l
o
np
126.97 73.44 m
0 -7.20 l
o
np
183.83 73.44 m
0 -7.20 l
o
np
240.69 73.44 m
0 -7.20 l
o
np
297.54 73.44 m
0 -7.20 l
o
np
354.40 73.44 m
0 -7.20 l
o
/Font1 findfont 12 s
70.12 47.52 (0) .5 0 t
126.97 47.52 (200) .5 0 t
183.83 47.52 (400) .5 0 t
240.69 47.52 (600) .5 0 t
297.54 47.52 (800) .5 0 t
354.40 47.52 (1000) .5 0 t
np
59.04 92.12 m
0 141.04 l
o
np
59.04 92.12 m
-7.20 0 l
o
np
59.04 115.63 m
-7.20 0 l
o
np
59.04 139.13 m
-7.20 0 l
o
np
59.04 162.64 m
-7.20 0 l
o
np
59.04 186.15 m
-7.20 0 l
o
np
59.04 209.65 m
-7.20 0 l
o
np
59.04 233.16 m
-7.20 0 l
o
41.76 92.12 (0.3) .5 90 t
41.76 139.13 (0.5) .5 90 t
41.76 186.15 (0.7) .5 90 t
41.76 233.16 (0.9) .5 90 t
59.04 73.44 365.76 238.71 cl
1 0 0 srgb
0.75 setlinewidth
[] 0 setdash
1 setlinecap
1 setlinejoin
10.00 setmiterlimit
np
72.96 133.43 m
281.44 0 l
o
0 1 0 srgb
np
72.96 89.18 m
281.44 0 l
o
np
72.96 203.92 m
281.44 0 l
o
ep
%%Trailer
%%Pages: 1
%%EOF
