%!PS-Adobe-3.0 EPSF-3.0
%%DocumentNeededResources: font Helvetica
%%+ font Helvetica-Bold
%%+ font Helvetica-Oblique
%%+ font Helvetica-BoldOblique
%%+ font Symbol
%%Title: R Graphics Output
%%Creator: R Software
%%Pages: (atend)
%%BoundingBox: 0 0 396 298
%%EndComments
%%BeginProlog
/bp  { gs sRGB gs } def
% begin .ps.prolog
/gs  { gsave } bind def
/gr  { grestore } bind def
/ep  { showpage gr gr } bind def
/m   { moveto } bind def
/l  { rlineto } bind def
/np  { newpath } bind def
/cp  { closepath } bind def
/f   { fill } bind def
/o   { stroke } bind def
/c   { newpath 0 360 arc } bind def
/r   { 4 2 roll moveto 1 copy 3 -1 roll exch 0 exch rlineto 0 rlineto -1 mul 0 exch rlineto closepath } bind def
/p1  { stroke } bind def
/p2  { gsave bg fill grestore newpath } bind def
/p3  { gsave bg fill grestore stroke } bind def
/p6  { gsave bg eofill grestore newpath } bind def
/p7  { gsave bg eofill grestore stroke } bind def
/t   { 5 -2 roll moveto gsave rotate
       1 index stringwidth pop
       mul neg 0 rmoveto show grestore } bind def
/ta  { 4 -2 roll moveto gsave rotate show } bind def
/tb  { 2 -1 roll 0 rmoveto show } bind def
/cl  { grestore gsave newpath 3 index 3 index moveto 1 index
       4 -1 roll lineto  exch 1 index lineto lineto
       closepath clip newpath } bind def
/rgb { setrgbcolor } bind def
/s   { scalefont setfont } bind def
% end   .ps.prolog
/sRGB { [ /CIEBasedABC
          << /DecodeLMN
               [ { dup 0.03928 le
                        {12.92321 div}
                        {0.055 add 1.055 div 2.4 exp }
                     ifelse
                 } bind dup dup
               ]
             /MatrixLMN [0.412457 0.212673 0.019334
                         0.357576 0.715152 0.119192
                         0.180437 0.072175 0.950301]
             /WhitePoint [0.9505 1.0 1.0890]
           >>
         ] setcolorspace } bind def
/srgb { setcolor } bind def
% begin encoding
/WinAnsiEncoding [
 /.notdef /.notdef /.notdef /.notdef /.notdef /.notdef /.notdef /.notdef
 /.notdef /.notdef /.notdef /.notdef /.notdef /.notdef /.notdef /.notdef
 /.notdef /.notdef /.notdef /.notdef /.notdef /.notdef /.notdef /.notdef
 /.notdef /.notdef /.notdef /.notdef /.notdef /.notdef /.notdef /.notdef
 /space /exclam /quotedbl /numbersign /dollar /percent /ampersand /quoteright
 /parenleft /parenright /asterisk /plus /comma /minus /period /slash
 /zero /one /two /three /four /five /six /seven
 /eight /nine /colon /semicolon /less /equal /greater /question
 /at /A /B /C /D /E /F /G
 /H /I /J /K /L /M /N /O
 /P /Q /R /S /T /U /V /W
 /X /Y /Z /bracketleft /backslash /bracketright /asciicircum /underscore
 /grave /a /b /c /d /e /f /g
 /h /i /j /k /l /m /n /o
 /p /q /r /s /t /u /v /w
 /x /y /z /braceleft /bar /braceright /asciitilde /.notdef
 /Euro /.notdef /quotesinglbase /florin /quotedblbase /ellipsis /dagger /daggerdbl
 /circumflex /perthousand /Scaron /guilsinglleft /OE /.notdef /Zcaron /.notdef
 /.notdef /quoteleft /quoteright /quotedblleft /quotedblright /bullet /endash /emdash
 /tilde /trademark /scaron /guilsinglright /oe /.notdef /zcaron /Ydieresis
 /space /exclamdown /cent /sterling /currency /yen /brokenbar /section
 /dieresis /copyright /ordfeminine /guillemotleft /logicalnot /hyphen /registered /macron
 /degree /plusminus /twosuperior /threesuperior /acute /mu /paragraph /periodcentered
 /cedilla /onesuperior /ordmasculine /guillemotright /onequarter /onehalf /threequarters /questiondown
 /Agrave /Aacute /Acircumflex /Atilde /Adieresis /Aring /AE /Ccedilla
 /Egrave /Eacute /Ecircumflex /Edieresis /Igrave /Iacute /Icircumflex /Idieresis
 /Eth /Ntilde /Ograve /Oacute /Ocircumflex /Otilde /Odieresis /multiply
 /Oslash /Ugrave /Uacute /Ucircumflex /Udieresis /Yacute /Thorn /germandbls
 /agrave /aacute /acircumflex /atilde /adieresis /aring /ae /ccedilla
 /egrave /eacute /ecircumflex /edieresis /igrave /iacute /icircumflex /idieresis
 /eth /ntilde /ograve /oacute /ocircumflex /otilde /odieresis /divide
 /oslash /ugrave /uacute /ucircumflex /udieresis /yacute /thorn /ydieresis
]
 def
% end encoding
%%IncludeResource: font Helvetica
/Helvetica findfont
dup length dict begin
  {1 index /FID ne {def} {pop pop} ifelse} forall
  /Encoding WinAnsiEncoding def
  currentdict
  end
/Font1 exch definefont pop
%%IncludeResource: font Helvetica-Bold
/Helvetica-Bold findfont
dup length dict begin
  {1 index /FID ne {def} {pop pop} ifelse} forall
  /Encoding WinAnsiEncoding def
  currentdict
  end
/Font2 exch definefont pop
%%IncludeResource: font Helvetica-Oblique
/Helvetica-Oblique findfont
dup length dict begin
  {1 index /FID ne {def} {pop pop} ifelse} forall
  /Encoding WinAnsiEncoding def
  currentdict
  end
/Font3 exch definefont pop
%%IncludeResource: font Helvetica-BoldOblique
/Helvetica-BoldOblique findfont
dup length dict begin
  {1 index /FID ne {def} {pop pop} ifelse} forall
  /Encoding WinAnsiEncoding def
  currentdict
  end
/Font4 exch definefont pop
%%IncludeResource: font Symbol
/Symbol findfont
dup length dict begin
  {1 index /FID ne {def} {pop pop} ifelse} forall
  currentdict
  end
/Font5 exch definefont pop
%%EndProlog
%%Page: 1 1
bp
/bg { 1 1 1 srgb } def
0.00 0.00 396.00 297.75 r p2
59.04 73.44 365.76 238.71 cl
1 0 0 srgb
0.75 setlinewidth
[] 0 setdash
1 setlinecap
1 setlinejoin
10.00 setmiterlimit
70.40 95.08 2.70 c p1
73.27 88.07 2.70 c p1
76.14 86.66 2.70 c p1
79.01 103.57 2.70 c p1
81.87 79.56 2.70 c p1
84.74 97.85 2.70 c p1
87.61 89.50 2.70 c p1
90.48 105.24 2.70 c p1
93.35 108.06 2.70 c p1
96.22 109.73 2.70 c p1
99.09 119.45 2.70 c p1
101.96 128.83 2.70 c p1
104.82 125.08 2.70 c p1
107.69 148.03 2.70 c p1
110.56 157.77 2.70 c p1
113.43 140.42 2.70 c p1
116.30 158.32 2.70 c p1
119.17 169.91 2.70 c p1
122.04 171.10 2.70 c p1
124.91 186.44 2.70 c p1
127.77 176.31 2.70 c p1
130.64 189.71 2.70 c p1
133.51 177.23 2.70 c p1
136.38 194.47 2.70 c p1
139.25 185.75 2.70 c p1
142.12 201.32 2.70 c p1
144.99 201.77 2.70 c p1
147.85 200.89 2.70 c p1
150.72 209.38 2.70 c p1
153.59 213.85 2.70 c p1
156.46 199.66 2.70 c p1
159.33 200.54 2.70 c p1
162.20 213.57 2.70 c p1
165.07 224.77 2.70 c p1
167.94 224.60 2.70 c p1
170.80 205.96 2.70 c p1
173.67 232.59 2.70 c p1
176.54 206.56 2.70 c p1
179.41 223.70 2.70 c p1
182.28 213.59 2.70 c p1
185.15 205.00 2.70 c p1
188.02 219.58 2.70 c p1
190.88 216.73 2.70 c p1
193.75 216.98 2.70 c p1
196.62 220.76 2.70 c p1
199.49 222.11 2.70 c p1
202.36 209.97 2.70 c p1
205.23 216.11 2.70 c p1
208.10 209.61 2.70 c p1
210.97 219.78 2.70 c p1
213.83 221.66 2.70 c p1
216.70 202.96 2.70 c p1
219.57 202.25 2.70 c p1
222.44 205.36 2.70 c p1
225.31 206.11 2.70 c p1
228.18 212.58 2.70 c p1
231.05 207.62 2.70 c p1
233.92 200.81 2.70 c p1
236.78 206.22 2.70 c p1
239.65 204.71 2.70 c p1
242.52 206.52 2.70 c p1
245.39 205.90 2.70 c p1
248.26 186.39 2.70 c p1
251.13 202.60 2.70 c p1
254.00 213.06 2.70 c p1
256.86 191.60 2.70 c p1
259.73 200.24 2.70 c p1
262.60 204.54 2.70 c p1
265.47 195.23 2.70 c p1
268.34 201.11 2.70 c p1
271.21 206.65 2.70 c p1
274.08 195.90 2.70 c p1
276.95 186.17 2.70 c p1
279.81 198.64 2.70 c p1
282.68 189.08 2.70 c p1
285.55 204.63 2.70 c p1
288.42 191.48 2.70 c p1
291.29 185.35 2.70 c p1
294.16 194.40 2.70 c p1
297.03 190.06 2.70 c p1
299.89 187.17 2.70 c p1
302.76 203.74 2.70 c p1
305.63 197.39 2.70 c p1
308.50 190.73 2.70 c p1
311.37 192.08 2.70 c p1
314.24 193.00 2.70 c p1
317.11 193.78 2.70 c p1
319.98 182.15 2.70 c p1
322.84 176.62 2.70 c p1
325.71 189.75 2.70 c p1
328.58 192.38 2.70 c p1
331.45 180.11 2.70 c p1
334.32 183.52 2.70 c p1
337.19 179.89 2.70 c p1
340.06 184.41 2.70 c p1
342.93 172.75 2.70 c p1
345.79 166.53 2.70 c p1
348.66 166.87 2.70 c p1
351.53 180.71 2.70 c p1
354.40 179.26 2.70 c p1
0.00 0.00 396.00 297.75 cl
0 0 0 srgb
0.75 setlinewidth
[] 0 setdash
1 setlinecap
1 setlinejoin
10.00 setmiterlimit
np
67.53 73.44 m
286.87 0 l
o
np
67.53 73.44 m
0 -7.20 l
o
np
124.91 73.44 m
0 -7.20 l
o
np
182.28 73.44 m
0 -7.20 l
o
np
239.65 73.44 m
0 -7.20 l
o
np
297.03 73.44 m
0 -7.20 l
o
np
354.40 73.44 m
0 -7.20 l
o
/Font1 findfont 12 s
67.53 47.52 (0.0) .5 0 t
124.91 47.52 (0.2) .5 0 t
182.28 47.52 (0.4) .5 0 t
239.65 47.52 (0.6) .5 0 t
297.03 47.52 (0.8) .5 0 t
354.40 47.52 (1.0) .5 0 t
np
59.04 87.19 m
0 118.05 l
o
np
59.04 87.19 m
-7.20 0 l
o
np
59.04 126.54 m
-7.20 0 l
o
np
59.04 165.89 m
-7.20 0 l
o
np
59.04 205.24 m
-7.20 0 l
o
41.76 87.19 (0.0) .5 90 t
41.76 126.54 (0.2) .5 90 t
41.76 165.89 (0.4) .5 90 t
41.76 205.24 (0.6) .5 90 t
np
59.04 73.44 m
306.72 0 l
0 165.27 l
-306.72 0 l
0 -165.27 l
o
0.00 0.00 396.00 297.75 cl
/Font1 findfont 12 s
0 0 0 srgb
212.40 18.72 (x) .5 0 t
12.96 156.08 (y) .5 90 t
ep
%%Trailer
%%Pages: 1
%%EOF
