%!PS-Adobe-3.0 EPSF-3.0
%%DocumentNeededResources: font Helvetica
%%+ font Helvetica-Bold
%%+ font Helvetica-Oblique
%%+ font Helvetica-BoldOblique
%%+ font Symbol
%%Title: R Graphics Output
%%Creator: R Software
%%Pages: (atend)
%%BoundingBox: 0 0 375 300
%%EndComments
%%BeginProlog
/bp  { gs sRGB gs } def
% begin .ps.prolog
/gs  { gsave } bind def
/gr  { grestore } bind def
/ep  { showpage gr gr } bind def
/m   { moveto } bind def
/l  { rlineto } bind def
/np  { newpath } bind def
/cp  { closepath } bind def
/f   { fill } bind def
/o   { stroke } bind def
/c   { newpath 0 360 arc } bind def
/r   { 4 2 roll moveto 1 copy 3 -1 roll exch 0 exch rlineto 0 rlineto -1 mul 0 exch rlineto closepath } bind def
/p1  { stroke } bind def
/p2  { gsave bg fill grestore newpath } bind def
/p3  { gsave bg fill grestore stroke } bind def
/p6  { gsave bg eofill grestore newpath } bind def
/p7  { gsave bg eofill grestore stroke } bind def
/t   { 5 -2 roll moveto gsave rotate
       1 index stringwidth pop
       mul neg 0 rmoveto show grestore } bind def
/ta  { 4 -2 roll moveto gsave rotate show } bind def
/tb  { 2 -1 roll 0 rmoveto show } bind def
/cl  { grestore gsave newpath 3 index 3 index moveto 1 index
       4 -1 roll lineto  exch 1 index lineto lineto
       closepath clip newpath } bind def
/rgb { setrgbcolor } bind def
/s   { scalefont setfont } bind def
% end   .ps.prolog
/sRGB { [ /CIEBasedABC
          << /DecodeLMN
               [ { dup 0.03928 le
                        {12.92321 div}
                        {0.055 add 1.055 div 2.4 exp }
                     ifelse
                 } bind dup dup
               ]
             /MatrixLMN [0.412457 0.212673 0.019334
                         0.357576 0.715152 0.119192
                         0.180437 0.072175 0.950301]
             /WhitePoint [0.9505 1.0 1.0890]
           >>
         ] setcolorspace } bind def
/srgb { setcolor } bind def
% begin encoding
/WinAnsiEncoding [
 /.notdef /.notdef /.notdef /.notdef /.notdef /.notdef /.notdef /.notdef
 /.notdef /.notdef /.notdef /.notdef /.notdef /.notdef /.notdef /.notdef
 /.notdef /.notdef /.notdef /.notdef /.notdef /.notdef /.notdef /.notdef
 /.notdef /.notdef /.notdef /.notdef /.notdef /.notdef /.notdef /.notdef
 /space /exclam /quotedbl /numbersign /dollar /percent /ampersand /quoteright
 /parenleft /parenright /asterisk /plus /comma /minus /period /slash
 /zero /one /two /three /four /five /six /seven
 /eight /nine /colon /semicolon /less /equal /greater /question
 /at /A /B /C /D /E /F /G
 /H /I /J /K /L /M /N /O
 /P /Q /R /S /T /U /V /W
 /X /Y /Z /bracketleft /backslash /bracketright /asciicircum /underscore
 /grave /a /b /c /d /e /f /g
 /h /i /j /k /l /m /n /o
 /p /q /r /s /t /u /v /w
 /x /y /z /braceleft /bar /braceright /asciitilde /.notdef
 /Euro /.notdef /quotesinglbase /florin /quotedblbase /ellipsis /dagger /daggerdbl
 /circumflex /perthousand /Scaron /guilsinglleft /OE /.notdef /Zcaron /.notdef
 /.notdef /quoteleft /quoteright /quotedblleft /quotedblright /bullet /endash /emdash
 /tilde /trademark /scaron /guilsinglright /oe /.notdef /zcaron /Ydieresis
 /space /exclamdown /cent /sterling /currency /yen /brokenbar /section
 /dieresis /copyright /ordfeminine /guillemotleft /logicalnot /hyphen /registered /macron
 /degree /plusminus /twosuperior /threesuperior /acute /mu /paragraph /periodcentered
 /cedilla /onesuperior /ordmasculine /guillemotright /onequarter /onehalf /threequarters /questiondown
 /Agrave /Aacute /Acircumflex /Atilde /Adieresis /Aring /AE /Ccedilla
 /Egrave /Eacute /Ecircumflex /Edieresis /Igrave /Iacute /Icircumflex /Idieresis
 /Eth /Ntilde /Ograve /Oacute /Ocircumflex /Otilde /Odieresis /multiply
 /Oslash /Ugrave /Uacute /Ucircumflex /Udieresis /Yacute /Thorn /germandbls
 /agrave /aacute /acircumflex /atilde /adieresis /aring /ae /ccedilla
 /egrave /eacute /ecircumflex /edieresis /igrave /iacute /icircumflex /idieresis
 /eth /ntilde /ograve /oacute /ocircumflex /otilde /odieresis /divide
 /oslash /ugrave /uacute /ucircumflex /udieresis /yacute /thorn /ydieresis
]
 def
% end encoding
%%IncludeResource: font Helvetica
/Helvetica findfont
dup length dict begin
  {1 index /FID ne {def} {pop pop} ifelse} forall
  /Encoding WinAnsiEncoding def
  currentdict
  end
/Font1 exch definefont pop
%%IncludeResource: font Helvetica-Bold
/Helvetica-Bold findfont
dup length dict begin
  {1 index /FID ne {def} {pop pop} ifelse} forall
  /Encoding WinAnsiEncoding def
  currentdict
  end
/Font2 exch definefont pop
%%IncludeResource: font Helvetica-Oblique
/Helvetica-Oblique findfont
dup length dict begin
  {1 index /FID ne {def} {pop pop} ifelse} forall
  /Encoding WinAnsiEncoding def
  currentdict
  end
/Font3 exch definefont pop
%%IncludeResource: font Helvetica-BoldOblique
/Helvetica-BoldOblique findfont
dup length dict begin
  {1 index /FID ne {def} {pop pop} ifelse} forall
  /Encoding WinAnsiEncoding def
  currentdict
  end
/Font4 exch definefont pop
%%IncludeResource: font Symbol
/Symbol findfont
dup length dict begin
  {1 index /FID ne {def} {pop pop} ifelse} forall
  currentdict
  end
/Font5 exch definefont pop
%%EndProlog
%%Page: 1 1
bp
/bg { 1 1 1 srgb } def
0.00 0.00 375.00 300.00 r p2
59.04 73.44 344.76 240.96 cl
1 0 0 srgb
0.75 setlinewidth
[] 0 setdash
1 setlinecap
1 setlinejoin
10.00 setmiterlimit
69.62 95.38 2.70 c p1
72.29 88.27 2.70 c p1
74.97 86.84 2.70 c p1
77.64 103.98 2.70 c p1
80.31 79.64 2.70 c p1
82.98 98.18 2.70 c p1
85.66 89.72 2.70 c p1
88.33 105.67 2.70 c p1
91.00 108.53 2.70 c p1
93.67 110.23 2.70 c p1
96.34 120.07 2.70 c p1
99.02 129.59 2.70 c p1
101.69 125.79 2.70 c p1
104.36 149.04 2.70 c p1
107.03 158.92 2.70 c p1
109.71 141.33 2.70 c p1
112.38 159.47 2.70 c p1
115.05 171.23 2.70 c p1
117.72 172.43 2.70 c p1
120.40 187.98 2.70 c p1
123.07 177.72 2.70 c p1
125.74 191.29 2.70 c p1
128.41 178.65 2.70 c p1
131.08 196.11 2.70 c p1
133.76 187.28 2.70 c p1
136.43 203.06 2.70 c p1
139.10 203.52 2.70 c p1
141.77 202.63 2.70 c p1
144.45 211.23 2.70 c p1
147.12 215.76 2.70 c p1
149.79 201.38 2.70 c p1
152.46 202.27 2.70 c p1
155.14 215.48 2.70 c p1
157.81 226.83 2.70 c p1
160.48 226.65 2.70 c p1
163.15 207.76 2.70 c p1
165.82 234.76 2.70 c p1
168.50 208.38 2.70 c p1
171.17 225.75 2.70 c p1
173.84 215.50 2.70 c p1
176.51 206.79 2.70 c p1
179.19 221.57 2.70 c p1
181.86 218.68 2.70 c p1
184.53 218.93 2.70 c p1
187.20 222.76 2.70 c p1
189.87 224.13 2.70 c p1
192.55 211.83 2.70 c p1
195.22 218.06 2.70 c p1
197.89 211.46 2.70 c p1
200.56 221.77 2.70 c p1
203.24 223.67 2.70 c p1
205.91 204.73 2.70 c p1
208.58 204.00 2.70 c p1
211.25 207.16 2.70 c p1
213.93 207.92 2.70 c p1
216.60 214.48 2.70 c p1
219.27 209.45 2.70 c p1
221.94 202.55 2.70 c p1
224.61 208.02 2.70 c p1
227.29 206.50 2.70 c p1
229.96 208.34 2.70 c p1
232.63 207.70 2.70 c p1
235.30 187.93 2.70 c p1
237.98 204.36 2.70 c p1
240.65 214.96 2.70 c p1
243.32 193.21 2.70 c p1
245.99 201.97 2.70 c p1
248.66 206.32 2.70 c p1
251.34 196.89 2.70 c p1
254.01 202.85 2.70 c p1
256.68 208.46 2.70 c p1
259.35 197.57 2.70 c p1
262.03 187.70 2.70 c p1
264.70 200.35 2.70 c p1
267.37 190.66 2.70 c p1
270.04 206.41 2.70 c p1
272.72 193.09 2.70 c p1
275.39 186.87 2.70 c p1
278.06 196.04 2.70 c p1
280.73 191.65 2.70 c p1
283.40 188.72 2.70 c p1
286.08 205.52 2.70 c p1
288.75 199.08 2.70 c p1
291.42 192.33 2.70 c p1
294.09 193.69 2.70 c p1
296.77 194.63 2.70 c p1
299.44 195.42 2.70 c p1
302.11 183.63 2.70 c p1
304.78 178.03 2.70 c p1
307.45 191.33 2.70 c p1
310.13 194.00 2.70 c p1
312.80 181.56 2.70 c p1
315.47 185.02 2.70 c p1
318.14 181.34 2.70 c p1
320.82 185.92 2.70 c p1
323.49 174.10 2.70 c p1
326.16 167.80 2.70 c p1
328.83 168.14 2.70 c p1
331.51 182.17 2.70 c p1
334.18 180.70 2.70 c p1
0.00 0.00 375.00 300.00 cl
0 0 0 srgb
0.75 setlinewidth
[] 0 setdash
1 setlinecap
1 setlinejoin
10.00 setmiterlimit
np
66.95 73.44 m
267.23 0 l
o
np
66.95 73.44 m
0 -7.20 l
o
np
120.40 73.44 m
0 -7.20 l
o
np
173.84 73.44 m
0 -7.20 l
o
np
227.29 73.44 m
0 -7.20 l
o
np
280.73 73.44 m
0 -7.20 l
o
np
334.18 73.44 m
0 -7.20 l
o
/Font1 findfont 12 s
66.95 47.52 (0.0) .5 0 t
120.40 47.52 (0.2) .5 0 t
173.84 47.52 (0.4) .5 0 t
227.29 47.52 (0.6) .5 0 t
280.73 47.52 (0.8) .5 0 t
334.18 47.52 (1.0) .5 0 t
np
59.04 87.38 m
0 119.65 l
o
np
59.04 87.38 m
-7.20 0 l
o
np
59.04 127.26 m
-7.20 0 l
o
np
59.04 167.15 m
-7.20 0 l
o
np
59.04 207.03 m
-7.20 0 l
o
41.76 87.38 (0.0) .5 90 t
41.76 127.26 (0.2) .5 90 t
41.76 167.15 (0.4) .5 90 t
41.76 207.03 (0.6) .5 90 t
np
59.04 73.44 m
285.72 0 l
0 167.52 l
-285.72 0 l
0 -167.52 l
o
0.00 0.00 375.00 300.00 cl
/Font1 findfont 12 s
0 0 0 srgb
201.90 18.72 (x) .5 0 t
12.96 157.20 (y) .5 90 t
ep
%%Trailer
%%Pages: 1
%%EOF
