%!PS-Adobe-3.0 EPSF-3.0
%%DocumentNeededResources: font Helvetica
%%+ font Helvetica-Bold
%%+ font Helvetica-Oblique
%%+ font Helvetica-BoldOblique
%%+ font Symbol
%%Title: R Graphics Output
%%Creator: R Software
%%Pages: (atend)
%%BoundingBox: 0 0 354 298
%%EndComments
%%BeginProlog
/bp  { gs sRGB gs } def
% begin .ps.prolog
/gs  { gsave } bind def
/gr  { grestore } bind def
/ep  { showpage gr gr } bind def
/m   { moveto } bind def
/l  { rlineto } bind def
/np  { newpath } bind def
/cp  { closepath } bind def
/f   { fill } bind def
/o   { stroke } bind def
/c   { newpath 0 360 arc } bind def
/r   { 4 2 roll moveto 1 copy 3 -1 roll exch 0 exch rlineto 0 rlineto -1 mul 0 exch rlineto closepath } bind def
/p1  { stroke } bind def
/p2  { gsave bg fill grestore newpath } bind def
/p3  { gsave bg fill grestore stroke } bind def
/p6  { gsave bg eofill grestore newpath } bind def
/p7  { gsave bg eofill grestore stroke } bind def
/t   { 5 -2 roll moveto gsave rotate
       1 index stringwidth pop
       mul neg 0 rmoveto show grestore } bind def
/ta  { 4 -2 roll moveto gsave rotate show } bind def
/tb  { 2 -1 roll 0 rmoveto show } bind def
/cl  { grestore gsave newpath 3 index 3 index moveto 1 index
       4 -1 roll lineto  exch 1 index lineto lineto
       closepath clip newpath } bind def
/rgb { setrgbcolor } bind def
/s   { scalefont setfont } bind def
% end   .ps.prolog
/sRGB { [ /CIEBasedABC
          << /DecodeLMN
               [ { dup 0.03928 le
                        {12.92321 div}
                        {0.055 add 1.055 div 2.4 exp }
                     ifelse
                 } bind dup dup
               ]
             /MatrixLMN [0.412457 0.212673 0.019334
                         0.357576 0.715152 0.119192
                         0.180437 0.072175 0.950301]
             /WhitePoint [0.9505 1.0 1.0890]
           >>
         ] setcolorspace } bind def
/srgb { setcolor } bind def
% begin encoding
/WinAnsiEncoding [
 /.notdef /.notdef /.notdef /.notdef /.notdef /.notdef /.notdef /.notdef
 /.notdef /.notdef /.notdef /.notdef /.notdef /.notdef /.notdef /.notdef
 /.notdef /.notdef /.notdef /.notdef /.notdef /.notdef /.notdef /.notdef
 /.notdef /.notdef /.notdef /.notdef /.notdef /.notdef /.notdef /.notdef
 /space /exclam /quotedbl /numbersign /dollar /percent /ampersand /quoteright
 /parenleft /parenright /asterisk /plus /comma /minus /period /slash
 /zero /one /two /three /four /five /six /seven
 /eight /nine /colon /semicolon /less /equal /greater /question
 /at /A /B /C /D /E /F /G
 /H /I /J /K /L /M /N /O
 /P /Q /R /S /T /U /V /W
 /X /Y /Z /bracketleft /backslash /bracketright /asciicircum /underscore
 /grave /a /b /c /d /e /f /g
 /h /i /j /k /l /m /n /o
 /p /q /r /s /t /u /v /w
 /x /y /z /braceleft /bar /braceright /asciitilde /.notdef
 /Euro /.notdef /quotesinglbase /florin /quotedblbase /ellipsis /dagger /daggerdbl
 /circumflex /perthousand /Scaron /guilsinglleft /OE /.notdef /Zcaron /.notdef
 /.notdef /quoteleft /quoteright /quotedblleft /quotedblright /bullet /endash /emdash
 /tilde /trademark /scaron /guilsinglright /oe /.notdef /zcaron /Ydieresis
 /space /exclamdown /cent /sterling /currency /yen /brokenbar /section
 /dieresis /copyright /ordfeminine /guillemotleft /logicalnot /hyphen /registered /macron
 /degree /plusminus /twosuperior /threesuperior /acute /mu /paragraph /periodcentered
 /cedilla /onesuperior /ordmasculine /guillemotright /onequarter /onehalf /threequarters /questiondown
 /Agrave /Aacute /Acircumflex /Atilde /Adieresis /Aring /AE /Ccedilla
 /Egrave /Eacute /Ecircumflex /Edieresis /Igrave /Iacute /Icircumflex /Idieresis
 /Eth /Ntilde /Ograve /Oacute /Ocircumflex /Otilde /Odieresis /multiply
 /Oslash /Ugrave /Uacute /Ucircumflex /Udieresis /Yacute /Thorn /germandbls
 /agrave /aacute /acircumflex /atilde /adieresis /aring /ae /ccedilla
 /egrave /eacute /ecircumflex /edieresis /igrave /iacute /icircumflex /idieresis
 /eth /ntilde /ograve /oacute /ocircumflex /otilde /odieresis /divide
 /oslash /ugrave /uacute /ucircumflex /udieresis /yacute /thorn /ydieresis
]
 def
% end encoding
%%IncludeResource: font Helvetica
/Helvetica findfont
dup length dict begin
  {1 index /FID ne {def} {pop pop} ifelse} forall
  /Encoding WinAnsiEncoding def
  currentdict
  end
/Font1 exch definefont pop
%%IncludeResource: font Helvetica-Bold
/Helvetica-Bold findfont
dup length dict begin
  {1 index /FID ne {def} {pop pop} ifelse} forall
  /Encoding WinAnsiEncoding def
  currentdict
  end
/Font2 exch definefont pop
%%IncludeResource: font Helvetica-Oblique
/Helvetica-Oblique findfont
dup length dict begin
  {1 index /FID ne {def} {pop pop} ifelse} forall
  /Encoding WinAnsiEncoding def
  currentdict
  end
/Font3 exch definefont pop
%%IncludeResource: font Helvetica-BoldOblique
/Helvetica-BoldOblique findfont
dup length dict begin
  {1 index /FID ne {def} {pop pop} ifelse} forall
  /Encoding WinAnsiEncoding def
  currentdict
  end
/Font4 exch definefont pop
%%IncludeResource: font Symbol
/Symbol findfont
dup length dict begin
  {1 index /FID ne {def} {pop pop} ifelse} forall
  currentdict
  end
/Font5 exch definefont pop
%%EndProlog
%%Page: 1 1
bp
/bg { 1 1 1 srgb } def
0.00 0.00 354.00 297.75 r p2
59.04 73.44 323.76 238.71 cl
59.04 73.44 323.76 238.71 cl
0.2745 0.5098 0.7059 srgb
0.75 setlinewidth
[] 0 setdash
1 setlinecap
1 setlinejoin
10.00 setmiterlimit
np
68.84 100.97 m
0.25 0 l
0.25 -1.22 l
0.24 0 l
0.25 0 l
0.24 0 l
0.25 0 l
0.24 0 l
0.25 10.00 l
0.24 0 l
0.25 0 l
0.24 0 l
0.25 10.84 l
0.24 0 l
0.25 0 l
0.24 -11.26 l
0.25 0 l
0.25 0 l
0.24 0 l
0.25 0 l
0.24 0 l
0.25 42.02 l
0.24 0 l
0.25 -14.86 l
0.24 -20.63 l
0.25 0 l
0.24 28.99 l
0.25 0 l
0.24 0 l
0.25 -9.88 l
0.25 -11.31 l
0.24 -12.86 l
0.25 0 l
0.24 0 l
0.25 0 l
0.24 0 l
0.25 -7.75 l
0.24 0 l
0.25 0 l
0.24 36.89 l
0.25 -29.35 l
0.24 0 l
0.25 3.31 l
0.24 10.98 l
0.25 0 l
0.25 0 l
0.24 0 l
0.25 1.23 l
0.24 0 l
0.25 14.53 l
0.24 -20.05 l
0.25 0 l
0.24 0 l
0.25 44.53 l
0.24 2.66 l
0.25 0 l
0.24 34.96 l
0.25 0 l
0.25 0 l
0.24 29.79 l
0.25 0 l
0.24 0 l
0.25 0 l
0.24 0 l
0.25 0 l
0.24 0 l
0.25 0 l
0.24 0 l
0.25 0 l
0.24 0 l
0.25 -21.94 l
0.24 0 l
0.25 0 l
0.25 0 l
0.24 0 l
0.25 -37.09 l
0.24 0 l
0.25 0 l
0.24 -0.88 l
0.25 -26.91 l
0.24 -10.75 l
0.25 6.63 l
0.24 0 l
0.25 0 l
0.24 0 l
0.25 -39.88 l
0.25 0 l
0.24 55.85 l
0.25 16.90 l
0.24 0 l
0.25 0 l
0.24 0 l
0.25 0 l
0.24 0 l
0.25 0 l
0.24 -49.23 l
0.25 0 l
0.24 0 l
0.25 0 l
0.24 -5.22 l
93.38 120.01 lineto
0.25 43.61 l
0.24 0 l
0.25 0 l
0.24 0 l
0.25 8.26 l
0.24 2.94 l
0.25 9.95 l
0.24 0 l
0.25 0 l
0.24 0 l
0.25 -4.40 l
0.24 -8.41 l
0.25 0 l
0.25 0 l
0.24 0 l
0.25 0 l
0.24 0 l
0.25 -16.85 l
0.24 0 l
0.25 0 l
0.24 8.62 l
0.25 36.85 l
0.24 4.29 l
0.25 0 l
0.24 0 l
0.25 7.64 l
0.24 0 l
0.25 13.99 l
0.25 0 l
0.24 0 l
0.25 0 l
0.24 0 l
0.25 -10.14 l
0.24 -33.01 l
0.25 1.56 l
0.24 29.69 l
0.25 -6.71 l
0.24 1.58 l
0.25 0 l
0.24 0 l
0.25 0 l
0.25 0 l
0.24 0 l
0.25 0 l
0.24 0 l
0.25 0 l
0.24 8.40 l
0.25 -14.19 l
0.24 0 l
0.25 0 l
0.24 -9.51 l
0.25 -14.74 l
0.24 0 l
0.25 0 l
0.24 0 l
0.25 13.41 l
0.25 -7.02 l
0.24 0 l
0.25 0 l
0.24 0 l
0.25 0 l
0.24 15.34 l
0.25 0 l
0.24 0 l
0.25 0 l
0.24 0 l
0.25 0 l
0.24 -18.34 l
0.25 0 l
0.25 0 l
0.24 49.77 l
0.25 -39.60 l
0.24 0 l
0.25 -12.36 l
0.24 0 l
0.25 0 l
0.24 0 l
0.25 50.60 l
0.24 -46.25 l
0.25 0 l
0.24 -42.25 l
0.25 32.90 l
0.24 0 l
0.25 39.15 l
0.25 0 l
0.24 0 l
0.25 0 l
0.24 0 l
0.25 0 l
0.24 0 l
0.25 0 l
0.24 -23.97 l
0.25 0 l
0.24 6.23 l
0.25 0 l
0.24 9.58 l
0.25 0 l
0.25 0 l
0.24 1.39 l
117.92 192.81 lineto
0.24 -1.08 l
0.25 0 l
0.24 0 l
0.25 -0.79 l
0.24 7.37 l
0.25 -30.78 l
0.24 -29.05 l
0.25 0 l
0.24 0 l
0.25 -1.44 l
0.24 0 l
0.25 5.68 l
0.25 0 l
0.24 7.99 l
0.25 0 l
0.24 0 l
0.25 8.61 l
0.24 0 l
0.25 -32.88 l
0.24 0 l
0.25 -40.20 l
0.24 64.33 l
0.25 -25.24 l
0.24 -7.03 l
0.25 12.98 l
0.25 0 l
0.24 0 l
0.25 0 l
0.24 0 l
0.25 -5.31 l
0.24 -10.05 l
0.25 42.91 l
0.24 0 l
0.25 0 l
0.24 0 l
0.25 16.25 l
0.24 -33.66 l
0.25 -17.22 l
0.24 -12.72 l
0.25 0 l
0.25 0 l
0.24 27.94 l
0.25 12.80 l
0.24 -15.59 l
0.25 0 l
0.24 0 l
0.25 6.46 l
0.24 -34.49 l
0.25 5.87 l
0.24 0 l
0.25 0 l
0.24 0 l
0.25 0 l
0.25 0 l
0.24 -5.69 l
0.25 0 l
0.24 45.00 l
0.25 33.07 l
0.24 -23.78 l
0.25 28.83 l
0.24 0 l
0.25 0 l
0.24 0 l
0.25 16.68 l
0.24 0 l
0.25 20.74 l
0.24 0 l
0.25 0 l
0.25 0 l
0.24 0 l
0.25 0 l
0.24 0 l
0.25 0 l
0.24 0 l
0.25 0 l
0.24 0 l
0.25 0 l
0.24 0 l
0.25 -13.53 l
0.24 3.94 l
0.25 0 l
0.25 0 l
0.24 0 l
0.25 0 l
0.24 -4.56 l
0.25 -13.68 l
0.24 0 l
0.25 19.20 l
0.24 0 l
0.25 -42.33 l
0.24 0 l
0.25 29.10 l
0.24 0 l
0.25 -14.81 l
0.24 0 l
0.25 8.55 l
0.25 -45.00 l
0.24 7.42 l
0.25 0 l
142.45 154.87 lineto
0.25 0 l
0.24 0 l
0.25 0 l
0.24 -6.27 l
0.25 0 l
0.24 0 l
0.25 0 l
0.24 32.21 l
0.25 0 l
0.25 -0.30 l
0.24 0 l
0.25 0 l
0.24 0 l
0.25 3.22 l
0.24 0 l
0.25 0 l
0.24 14.19 l
0.25 0 l
0.24 0 l
0.25 0 l
0.24 0 l
0.25 0 l
0.24 25.29 l
0.25 0 l
0.25 0 l
0.24 0 l
0.25 4.68 l
0.24 0 l
0.25 0 l
0.24 -11.38 l
0.25 -16.06 l
0.24 0 l
0.25 -2.26 l
0.24 -42.34 l
0.25 35.68 l
0.24 -50.09 l
0.25 40.50 l
0.25 -2.46 l
0.24 0 l
0.25 0 l
0.24 -35.09 l
0.25 0 l
0.24 27.41 l
0.25 39.09 l
0.24 0 l
0.25 0 l
0.24 0 l
0.25 0 l
0.24 0 l
0.25 0 l
0.24 0 l
0.25 0 l
0.25 -14.43 l
0.24 0 l
0.25 2.16 l
0.24 8.52 l
0.25 0 l
0.24 0 l
0.25 0 l
0.24 4.05 l
0.25 0 l
0.24 0 l
0.25 6.35 l
0.24 14.22 l
0.25 0 l
0.25 -8.56 l
0.24 0 l
0.25 -6.49 l
0.24 0 l
0.25 0 l
0.24 0 l
0.25 0 l
0.24 0 l
0.25 -4.66 l
0.24 0 l
0.25 0 l
0.24 14.76 l
0.25 -29.15 l
0.24 0 l
0.25 0 l
0.25 0 l
0.24 0 l
0.25 -24.29 l
0.24 10.06 l
0.25 0 l
0.24 -17.82 l
0.25 -26.16 l
0.24 0 l
0.25 -22.05 l
0.24 40.40 l
0.25 0 l
0.24 0 l
0.25 0 l
0.24 -10.08 l
0.25 0 l
0.25 0 l
0.24 0 l
0.25 0 l
0.24 0 l
166.99 166.14 lineto
0.24 0 l
0.25 13.72 l
0.24 0 l
0.25 0 l
0.24 0 l
0.25 0 l
0.24 14.31 l
0.25 0 l
0.25 35.45 l
0.24 0 l
0.25 -15.76 l
0.24 0 l
0.25 0 l
0.24 0 l
0.25 -48.59 l
0.24 0 l
0.25 9.38 l
0.24 0 l
0.25 -9.35 l
0.24 20.01 l
0.25 0 l
0.24 0 l
0.25 0 l
0.25 0.05 l
0.24 -24.37 l
0.25 0 l
0.24 45.27 l
0.25 -14.43 l
0.24 20.61 l
0.25 0 l
0.24 -5.80 l
0.25 0 l
0.24 0 l
0.25 13.43 l
0.24 0 l
0.25 0 l
0.25 0 l
0.24 0 l
0.25 0 l
0.24 0 l
0.25 0 l
0.24 -48.79 l
0.25 33.33 l
0.24 -21.96 l
0.25 0 l
0.24 11.17 l
0.25 -50.20 l
0.24 5.99 l
0.25 0 l
0.24 0 l
0.25 0 l
0.25 0 l
0.24 0 l
0.25 -5.71 l
0.24 1.92 l
0.25 0 l
0.24 0 l
0.25 0 l
0.24 -46.66 l
0.25 0 l
0.24 -0.67 l
0.25 71.37 l
0.24 0 l
0.25 0 l
0.25 -15.83 l
0.24 0 l
0.25 13.88 l
0.24 15.62 l
0.25 0 l
0.24 0 l
0.25 0 l
0.24 20.72 l
0.25 -8.64 l
0.24 0 l
0.25 0 l
0.24 0 l
0.25 6.30 l
0.24 3.74 l
0.25 -9.65 l
0.25 0 l
0.24 0 l
0.25 -12.94 l
0.24 3.33 l
0.25 -30.80 l
0.24 5.93 l
0.25 0 l
0.24 0 l
0.25 0 l
0.24 0 l
0.25 -6.66 l
0.24 28.03 l
0.25 0 l
0.25 0 l
0.24 0 l
0.25 -4.79 l
0.24 32.05 l
0.25 -8.23 l
0.24 0 l
0.25 9.58 l
191.52 194.27 lineto
0.25 5.05 l
0.24 0 l
0.25 0 l
0.24 19.73 l
0.25 0 l
0.24 0 l
0.25 4.89 l
0.25 0 l
0.24 0 l
0.25 0 l
0.24 1.80 l
0.25 -7.25 l
0.24 -26.56 l
0.25 -10.13 l
0.24 0 l
0.25 0 l
0.24 2.89 l
0.25 -18.99 l
0.24 0 l
0.25 -11.02 l
0.25 0 l
0.24 0 l
0.25 0 l
0.24 0 l
0.25 0 l
0.24 0 l
0.25 0 l
0.24 1.52 l
0.25 12.49 l
0.24 4.29 l
0.25 0 l
0.24 0 l
0.25 0 l
0.24 -2.77 l
0.25 -7.30 l
0.25 0 l
0.24 0 l
0.25 7.51 l
0.24 13.06 l
0.25 0 l
0.24 0 l
0.25 3.18 l
0.24 0 l
0.25 -65.72 l
0.24 0 l
0.25 7.92 l
0.24 8.65 l
0.25 0 l
0.25 0 l
0.24 0 l
0.25 13.88 l
0.24 0 l
0.25 0 l
0.24 0 l
0.25 -16.64 l
0.24 -8.80 l
0.25 0 l
0.24 16.32 l
0.25 21.14 l
0.24 0 l
0.25 0 l
0.24 0 l
0.25 -0.50 l
0.25 0 l
0.24 0 l
0.25 0 l
0.24 -4.25 l
0.25 0 l
0.24 0 l
0.25 -5.68 l
0.24 30.84 l
0.25 0 l
0.24 0 l
0.25 3.54 l
0.24 32.29 l
0.25 0 l
0.25 0 l
0.24 0 l
0.25 8.26 l
0.24 0 l
0.25 -44.13 l
0.24 0 l
0.25 11.10 l
0.24 -14.31 l
0.25 0 l
0.24 0 l
0.25 -32.63 l
0.24 0 l
0.25 -25.92 l
0.24 0 l
0.25 54.83 l
0.25 0 l
0.24 -63.45 l
0.25 -6.52 l
0.24 -26.82 l
0.25 0 l
0.24 21.38 l
0.25 0 l
0.24 24.14 l
216.06 125.58 lineto
0.24 0 l
0.25 0 l
0.24 0 l
0.25 3.43 l
0.25 0 l
0.24 0 l
0.25 0 l
0.24 -20.30 l
0.25 0 l
0.24 0 l
0.25 0 l
0.24 0 l
0.25 0 l
0.24 18.03 l
0.25 0 l
0.24 18.46 l
0.25 0 l
0.24 46.47 l
0.25 0 l
0.25 2.54 l
0.24 0 l
0.25 0 l
0.24 0 l
0.25 0 l
0.24 -30.50 l
0.25 -30.06 l
0.24 0 l
0.25 0 l
0.24 0 l
0.25 0 l
0.24 0 l
0.25 0 l
0.25 20.27 l
0.24 0 l
0.25 0 l
0.24 28.13 l
0.25 0 l
0.24 -10.17 l
0.25 0 l
0.24 9.00 l
0.25 -8.47 l
0.24 0 l
0.25 15.18 l
0.24 0 l
0.25 4.67 l
0.24 0 l
0.25 0 l
0.25 0 l
0.24 0 l
0.25 0 l
0.24 28.07 l
0.25 -14.88 l
0.24 -4.50 l
0.25 0 l
0.24 0 l
0.25 0 l
0.24 0 l
0.25 0 l
0.24 0 l
0.25 0 l
0.25 0 l
0.24 0 l
0.25 0 l
0.24 0 l
0.25 -8.11 l
0.24 0 l
0.25 -9.06 l
0.24 0 l
0.25 0 l
0.24 0 l
0.25 0 l
0.24 0 l
0.25 0 l
0.24 -11.25 l
0.25 0 l
0.25 -2.47 l
0.24 0 l
0.25 -11.25 l
0.24 0 l
0.25 0 l
0.24 0 l
0.25 16.56 l
0.24 0 l
0.25 0 l
0.24 0 l
0.25 3.70 l
0.24 23.65 l
0.25 0 l
0.25 -13.40 l
0.24 4.09 l
0.25 0 l
0.24 0.41 l
0.25 0 l
0.24 -21.65 l
0.25 0 l
0.24 20.14 l
0.25 0 l
0.24 20.53 l
0.25 0 l
240.59 229.13 lineto
0.25 0 l
0.24 -29.52 l
0.25 16.72 l
0.25 0 l
0.24 -20.64 l
0.25 0 l
0.24 0 l
0.25 -7.00 l
0.24 0 l
0.25 25.42 l
0.24 0 l
0.25 -11.90 l
0.24 15.16 l
0.25 0 l
0.24 0 l
0.25 0 l
0.25 -6.12 l
0.24 0 l
0.25 0 l
0.24 -21.15 l
0.25 -45.56 l
0.24 0 l
0.25 0.02 l
0.24 0 l
0.25 0 l
0.24 23.03 l
0.25 -37.22 l
0.24 -13.28 l
0.25 -11.21 l
0.24 2.91 l
0.25 0 l
0.25 0 l
0.24 0 l
0.25 0 l
0.24 0 l
0.25 0 l
0.24 0.42 l
0.25 16.64 l
0.24 0 l
0.25 -14.71 l
0.24 23.00 l
0.25 13.83 l
0.24 0 l
0.25 0 l
0.25 6.08 l
0.24 -3.53 l
0.25 5.48 l
0.24 -5.88 l
0.25 0 l
0.24 -8.54 l
0.25 0 l
0.24 0 l
0.25 -29.69 l
0.24 -32.33 l
0.25 0 l
0.24 31.51 l
0.25 0 l
0.24 0 l
0.25 -4.37 l
0.25 12.75 l
0.24 0 l
0.25 12.22 l
0.24 -0.36 l
0.25 7.56 l
0.24 0.56 l
0.25 -1.01 l
0.24 -12.93 l
0.25 0 l
0.24 -4.95 l
0.25 0 l
0.24 24.68 l
0.25 0 l
0.25 16.70 l
0.24 0 l
0.25 0 l
0.24 21.05 l
0.25 -20.80 l
0.24 19.28 l
0.25 -28.51 l
0.24 0 l
0.25 14.11 l
0.24 0 l
0.25 -25.47 l
0.24 0 l
0.25 22.81 l
0.24 -12.49 l
0.25 16.53 l
0.25 41.32 l
0.24 -18.98 l
0.25 14.29 l
0.24 0 l
0.25 0 l
0.24 0 l
0.25 0 l
0.24 0 l
0.25 -2.47 l
0.24 0 l
0.25 -0.58 l
0.24 -7.67 l
265.13 175.07 lineto
0.25 10.83 l
0.24 0 l
0.25 0 l
0.24 0 l
0.25 -18.91 l
0.24 -29.14 l
0.25 0 l
0.24 26.77 l
0.25 0.58 l
0.24 0 l
0.25 -21.45 l
0.24 -6.88 l
0.25 0 l
0.24 17.21 l
0.25 0 l
0.25 -5.73 l
0.24 0 l
0.25 54.70 l
0.24 0 l
0.25 11.27 l
0.24 0 l
0.25 0 l
0.24 0 l
0.25 0 l
0.24 -91.51 l
0.25 -8.71 l
0.24 40.79 l
0.25 0 l
0.25 29.84 l
0.24 0 l
0.25 0 l
0.24 26.84 l
0.25 0 l
0.24 0 l
0.25 11.87 l
0.24 0 l
0.25 0 l
0.24 0 l
0.25 0 l
0.24 -12.37 l
0.25 0 l
0.24 0 l
0.25 0 l
0.25 0 l
0.24 0 l
0.25 0 l
0.24 0 l
0.25 7.84 l
0.24 0 l
0.25 0 l
0.24 -13.73 l
0.25 0 l
0.24 0 l
0.25 0 l
0.24 -33.41 l
0.25 0 l
0.25 0 l
0.24 -30.45 l
0.25 -28.05 l
0.24 0 l
0.25 0 l
0.24 0 l
0.25 0 l
0.24 0 l
0.25 0 l
0.24 0 l
0.25 0 l
0.24 0 l
0.25 52.50 l
0.24 -11.71 l
0.25 0 l
0.25 22.60 l
0.24 16.65 l
0.25 0 l
0.24 0 l
0.25 0 l
0.24 0 l
0.25 -19.13 l
0.24 13.01 l
0.25 -1.34 l
0.24 0 l
0.25 0 l
0.24 -18.82 l
0.25 -35.29 l
0.25 30.29 l
0.24 0 l
0.25 0 l
0.24 0 l
0.25 0 l
0.24 0 l
0.25 -31.30 l
0.24 0 l
0.25 0 l
0.24 20.93 l
0.25 -39.40 l
0.24 22.22 l
0.25 18.62 l
0.24 -14.66 l
0.25 0 l
289.67 138.44 lineto
0.24 0 l
0.25 0 l
0.24 -1.16 l
0.25 0 l
0.24 0 l
0.25 0 l
0.24 36.54 l
0.25 0 l
0.24 -15.71 l
0.25 0 l
0.24 -24.51 l
0.25 0 l
0.25 0 l
0.24 8.27 l
0.25 0 l
0.24 0 l
0.25 0 l
0.24 0 l
0.25 0 l
0.24 48.70 l
0.25 0 l
0.24 0 l
0.25 0 l
0.24 0 l
0.25 0 l
0.24 0 l
0.25 -29.86 l
0.25 0 l
0.24 16.35 l
0.25 3.08 l
0.24 0 l
0.25 0 l
0.24 37.59 l
0.25 0 l
0.24 -28.88 l
0.25 0 l
0.24 0 l
0.25 0 l
0.24 -52.78 l
0.25 0 l
0.25 0 l
0.24 0 l
0.25 -1.52 l
0.24 0 l
0.25 0 l
0.24 0 l
0.25 31.96 l
0.24 0 l
0.25 -15.34 l
0.24 30.58 l
0.25 0 l
0.24 12.59 l
0.25 0 l
0.24 -6.69 l
0.25 14.56 l
0.25 0 l
0.24 0 l
0.25 -34.28 l
0.24 11.22 l
0.25 0 l
0.24 0 l
0.25 0 l
0.24 0 l
0.25 0 l
0.24 6.10 l
0.25 0 l
0.24 0 l
0.25 0 l
0.25 0 l
0.24 10.03 l
0.25 -36.59 l
0.24 0 l
0.25 0 l
0.24 0 l
0.25 27.52 l
0.24 0 l
0.25 0 l
0.24 0 l
0.25 13.54 l
0.24 -9.10 l
0.25 14.44 l
0.24 4.63 l
0.25 0 l
0.25 -5.71 l
0.24 0 l
0.25 -0.65 l
0.24 0.19 l
0.25 0 l
0.24 0 l
0.25 0 l
0.24 0 l
0.25 -12.58 l
0.24 0 l
0.25 9.04 l
0.24 0 l
0.25 0 l
0.25 0 l
0.24 0 l
0.25 0 l
o
0.00 0.00 354.00 297.75 cl
/Font1 findfont 12 s
0 0 0 srgb
170.06 18.72 (iter) 0 ta
-0.120 (ation) tb gr
12.96 156.08 (T0) .5 90 t
0.00 0.00 354.00 297.75 cl
0 0 0 srgb
0.75 setlinewidth
[] 0 setdash
1 setlinecap
1 setlinejoin
10.00 setmiterlimit
np
68.60 73.44 m
245.36 0 l
o
np
68.60 73.44 m
0 -7.20 l
o
np
117.67 73.44 m
0 -7.20 l
o
np
166.74 73.44 m
0 -7.20 l
o
np
215.81 73.44 m
0 -7.20 l
o
np
264.88 73.44 m
0 -7.20 l
o
np
313.96 73.44 m
0 -7.20 l
o
/Font1 findfont 12 s
68.60 47.52 (0) .5 0 t
117.67 47.52 (200) .5 0 t
166.74 47.52 (400) .5 0 t
215.81 47.52 (600) .5 0 t
264.88 47.52 (800) .5 0 t
313.96 47.52 (1000) .5 0 t
np
59.04 83.22 m
0 149.38 l
o
np
59.04 83.22 m
-7.20 0 l
o
np
59.04 113.09 m
-7.20 0 l
o
np
59.04 142.97 m
-7.20 0 l
o
np
59.04 172.85 m
-7.20 0 l
o
np
59.04 202.72 m
-7.20 0 l
o
np
59.04 232.60 m
-7.20 0 l
o
41.76 83.22 (-6.15) .5 90 t
41.76 142.97 (-6.05) .5 90 t
41.76 202.72 (-5.95) .5 90 t
59.04 73.44 323.76 238.71 cl
1 0 0 srgb
0.75 setlinewidth
[] 0 setdash
1 setlinecap
1 setlinejoin
10.00 setmiterlimit
np
71.05 172.53 m
242.91 0 l
o
0 1 0 srgb
np
71.05 106.88 m
242.91 0 l
o
np
71.05 229.32 m
242.91 0 l
o
ep
%%Trailer
%%Pages: 1
%%EOF
