%!PS-Adobe-3.0 EPSF-3.0
%%DocumentNeededResources: font Helvetica
%%+ font Helvetica-Bold
%%+ font Helvetica-Oblique
%%+ font Helvetica-BoldOblique
%%+ font Symbol
%%Title: R Graphics Output
%%Creator: R Software
%%Pages: (atend)
%%BoundingBox: 0 0 396 298
%%EndComments
%%BeginProlog
/bp  { gs sRGB gs } def
% begin .ps.prolog
/gs  { gsave } bind def
/gr  { grestore } bind def
/ep  { showpage gr gr } bind def
/m   { moveto } bind def
/l  { rlineto } bind def
/np  { newpath } bind def
/cp  { closepath } bind def
/f   { fill } bind def
/o   { stroke } bind def
/c   { newpath 0 360 arc } bind def
/r   { 4 2 roll moveto 1 copy 3 -1 roll exch 0 exch rlineto 0 rlineto -1 mul 0 exch rlineto closepath } bind def
/p1  { stroke } bind def
/p2  { gsave bg fill grestore newpath } bind def
/p3  { gsave bg fill grestore stroke } bind def
/p6  { gsave bg eofill grestore newpath } bind def
/p7  { gsave bg eofill grestore stroke } bind def
/t   { 5 -2 roll moveto gsave rotate
       1 index stringwidth pop
       mul neg 0 rmoveto show grestore } bind def
/ta  { 4 -2 roll moveto gsave rotate show } bind def
/tb  { 2 -1 roll 0 rmoveto show } bind def
/cl  { grestore gsave newpath 3 index 3 index moveto 1 index
       4 -1 roll lineto  exch 1 index lineto lineto
       closepath clip newpath } bind def
/rgb { setrgbcolor } bind def
/s   { scalefont setfont } bind def
% end   .ps.prolog
/sRGB { [ /CIEBasedABC
          << /DecodeLMN
               [ { dup 0.03928 le
                        {12.92321 div}
                        {0.055 add 1.055 div 2.4 exp }
                     ifelse
                 } bind dup dup
               ]
             /MatrixLMN [0.412457 0.212673 0.019334
                         0.357576 0.715152 0.119192
                         0.180437 0.072175 0.950301]
             /WhitePoint [0.9505 1.0 1.0890]
           >>
         ] setcolorspace } bind def
/srgb { setcolor } bind def
% begin encoding
/WinAnsiEncoding [
 /.notdef /.notdef /.notdef /.notdef /.notdef /.notdef /.notdef /.notdef
 /.notdef /.notdef /.notdef /.notdef /.notdef /.notdef /.notdef /.notdef
 /.notdef /.notdef /.notdef /.notdef /.notdef /.notdef /.notdef /.notdef
 /.notdef /.notdef /.notdef /.notdef /.notdef /.notdef /.notdef /.notdef
 /space /exclam /quotedbl /numbersign /dollar /percent /ampersand /quoteright
 /parenleft /parenright /asterisk /plus /comma /minus /period /slash
 /zero /one /two /three /four /five /six /seven
 /eight /nine /colon /semicolon /less /equal /greater /question
 /at /A /B /C /D /E /F /G
 /H /I /J /K /L /M /N /O
 /P /Q /R /S /T /U /V /W
 /X /Y /Z /bracketleft /backslash /bracketright /asciicircum /underscore
 /grave /a /b /c /d /e /f /g
 /h /i /j /k /l /m /n /o
 /p /q /r /s /t /u /v /w
 /x /y /z /braceleft /bar /braceright /asciitilde /.notdef
 /Euro /.notdef /quotesinglbase /florin /quotedblbase /ellipsis /dagger /daggerdbl
 /circumflex /perthousand /Scaron /guilsinglleft /OE /.notdef /Zcaron /.notdef
 /.notdef /quoteleft /quoteright /quotedblleft /quotedblright /bullet /endash /emdash
 /tilde /trademark /scaron /guilsinglright /oe /.notdef /zcaron /Ydieresis
 /space /exclamdown /cent /sterling /currency /yen /brokenbar /section
 /dieresis /copyright /ordfeminine /guillemotleft /logicalnot /hyphen /registered /macron
 /degree /plusminus /twosuperior /threesuperior /acute /mu /paragraph /periodcentered
 /cedilla /onesuperior /ordmasculine /guillemotright /onequarter /onehalf /threequarters /questiondown
 /Agrave /Aacute /Acircumflex /Atilde /Adieresis /Aring /AE /Ccedilla
 /Egrave /Eacute /Ecircumflex /Edieresis /Igrave /Iacute /Icircumflex /Idieresis
 /Eth /Ntilde /Ograve /Oacute /Ocircumflex /Otilde /Odieresis /multiply
 /Oslash /Ugrave /Uacute /Ucircumflex /Udieresis /Yacute /Thorn /germandbls
 /agrave /aacute /acircumflex /atilde /adieresis /aring /ae /ccedilla
 /egrave /eacute /ecircumflex /edieresis /igrave /iacute /icircumflex /idieresis
 /eth /ntilde /ograve /oacute /ocircumflex /otilde /odieresis /divide
 /oslash /ugrave /uacute /ucircumflex /udieresis /yacute /thorn /ydieresis
]
 def
% end encoding
%%IncludeResource: font Helvetica
/Helvetica findfont
dup length dict begin
  {1 index /FID ne {def} {pop pop} ifelse} forall
  /Encoding WinAnsiEncoding def
  currentdict
  end
/Font1 exch definefont pop
%%IncludeResource: font Helvetica-Bold
/Helvetica-Bold findfont
dup length dict begin
  {1 index /FID ne {def} {pop pop} ifelse} forall
  /Encoding WinAnsiEncoding def
  currentdict
  end
/Font2 exch definefont pop
%%IncludeResource: font Helvetica-Oblique
/Helvetica-Oblique findfont
dup length dict begin
  {1 index /FID ne {def} {pop pop} ifelse} forall
  /Encoding WinAnsiEncoding def
  currentdict
  end
/Font3 exch definefont pop
%%IncludeResource: font Helvetica-BoldOblique
/Helvetica-BoldOblique findfont
dup length dict begin
  {1 index /FID ne {def} {pop pop} ifelse} forall
  /Encoding WinAnsiEncoding def
  currentdict
  end
/Font4 exch definefont pop
%%IncludeResource: font Symbol
/Symbol findfont
dup length dict begin
  {1 index /FID ne {def} {pop pop} ifelse} forall
  currentdict
  end
/Font5 exch definefont pop
%%EndProlog
%%Page: 1 1
bp
/bg { 1 1 1 srgb } def
0.00 0.00 396.00 297.75 r p2
59.04 73.44 365.76 238.71 cl
59.04 73.44 365.76 238.71 cl
0 0 0 srgb
0.75 setlinewidth
[] 0 setdash
1 setlinecap
1 setlinejoin
10.00 setmiterlimit
np
70.40 82.34 m
0.28 -2.78 l
0.29 0 l
0.28 0 l
0.29 6.49 l
0.28 0 l
0.29 0 l
0.28 8.64 l
0.28 0 l
0.29 0 l
0.28 0 l
0.29 9.71 l
0.28 16.31 l
0.29 1.97 l
0.28 0 l
0.28 0 l
0.29 -6.78 l
0.28 0 l
0.29 0 l
0.28 0 l
0.29 0 l
0.28 1.87 l
0.28 -0.90 l
0.29 0 l
0.28 0 l
0.29 10.33 l
0.28 0.08 l
0.29 0 l
0.28 0 l
0.28 -5.28 l
0.29 0 l
0.28 10.72 l
0.29 0 l
0.28 0 l
0.29 0 l
0.28 -1.83 l
0.28 0 l
0.29 0 l
0.28 -6.19 l
0.29 0 l
0.28 0.21 l
0.29 6.71 l
0.28 0 l
0.28 0 l
0.29 30.15 l
0.28 0 l
0.29 0 l
0.28 0 l
0.29 0 l
0.28 -1.68 l
0.28 18.02 l
0.29 0 l
0.28 6.66 l
0.29 0 l
0.28 0 l
0.29 -3.66 l
0.28 0 l
0.28 0 l
0.29 0 l
0.28 -15.13 l
0.29 -23.89 l
0.28 -7.97 l
0.29 5.37 l
0.28 0 l
0.28 14.38 l
0.29 0 l
0.28 3.41 l
0.29 0 l
0.28 -10.27 l
0.29 0 l
0.28 0 l
0.28 -2.01 l
0.29 -9.02 l
0.28 -5.28 l
0.29 0 l
0.28 0 l
0.29 0 l
0.28 0 l
0.28 0 l
0.29 0 l
0.28 0 l
0.29 0 l
0.28 0 l
0.29 10.32 l
0.28 -3.32 l
0.28 -1.19 l
0.29 0 l
0.28 4.26 l
0.29 0 l
0.28 -14.20 l
0.29 11.23 l
0.28 0 l
0.28 0 l
0.29 0 l
0.28 -1.49 l
0.29 3.42 l
0.28 0 l
0.29 0 l
0.28 0 l
0.28 0 l
98.83 139.73 lineto
0.28 0 l
0.29 7.27 l
0.28 -4.46 l
0.29 0 l
0.28 0 l
0.28 4.04 l
0.29 -16.22 l
0.28 7.76 l
0.29 0 l
0.28 0 l
0.29 5.40 l
0.28 0 l
0.28 1.13 l
0.29 3.27 l
0.28 0 l
0.29 -2.00 l
0.28 0 l
0.29 0 l
0.28 0 l
0.28 0 l
0.29 0 l
0.28 3.11 l
0.29 0 l
0.28 0 l
0.29 0 l
0.28 0 l
0.28 10.12 l
0.29 0 l
0.28 -2.05 l
0.29 0 l
0.28 0 l
0.29 0 l
0.28 0 l
0.28 0 l
0.29 0 l
0.28 0 l
0.29 -7.29 l
0.28 -7.03 l
0.29 5.03 l
0.28 0 l
0.28 2.59 l
0.29 1.31 l
0.28 3.81 l
0.29 0 l
0.28 -12.48 l
0.29 0 l
0.28 0 l
0.28 0 l
0.29 0 l
0.28 0 l
0.29 0 l
0.28 0 l
0.29 0 l
0.28 0 l
0.28 0 l
0.29 0 l
0.28 -5.37 l
0.29 10.55 l
0.28 0 l
0.29 0 l
0.28 0 l
0.28 0 l
0.29 0 l
0.28 -7.22 l
0.29 0 l
0.28 0 l
0.29 0 l
0.28 -5.02 l
0.28 0 l
0.29 0 l
0.28 14.85 l
0.29 5.53 l
0.28 -12.01 l
0.29 0 l
0.28 0 l
0.28 0 l
0.29 0 l
0.28 0 l
0.29 18.36 l
0.28 -12.02 l
0.29 0 l
0.28 0 l
0.28 7.66 l
0.29 0 l
0.28 -6.59 l
0.29 9.93 l
0.28 0 l
0.29 0 l
0.28 0 l
0.28 -4.98 l
0.29 -8.88 l
0.28 0 l
0.29 -0.67 l
0.28 0 l
0.29 0 l
0.28 0 l
0.28 0 l
0.29 0 l
0.28 0 l
127.26 147.16 lineto
0.28 0 l
0.29 17.85 l
0.28 0 l
0.28 0 l
0.29 0.53 l
0.28 0 l
0.29 -0.49 l
0.28 0 l
0.29 0 l
0.28 -5.81 l
0.28 -9.82 l
0.29 -12.03 l
0.28 10.88 l
0.29 0 l
0.28 16.66 l
0.29 3.42 l
0.28 0 l
0.28 0 l
0.29 0 l
0.28 9.46 l
0.29 0 l
0.28 0 l
0.29 -14.23 l
0.28 0 l
0.28 0 l
0.29 0 l
0.28 0 l
0.29 0 l
0.28 0 l
0.29 0 l
0.28 0 l
0.28 0 l
0.29 -9.46 l
0.28 0 l
0.29 5.96 l
0.28 0 l
0.29 0 l
0.28 0 l
0.28 0 l
0.29 0 l
0.28 0 l
0.29 0 l
0.28 0 l
0.29 0 l
0.28 0 l
0.28 0 l
0.29 0 l
0.28 5.59 l
0.29 0 l
0.28 0 l
0.29 0 l
0.28 0 l
0.28 16.29 l
0.29 0 l
0.28 0 l
0.29 0 l
0.28 9.16 l
0.29 -18.96 l
0.28 11.87 l
0.28 0 l
0.29 0 l
0.28 0 l
0.29 0 l
0.28 -8.60 l
0.29 0 l
0.28 -12.02 l
0.28 5.36 l
0.29 0 l
0.28 0 l
0.29 -9.78 l
0.28 0 l
0.29 -11.05 l
0.28 0 l
0.28 0 l
0.29 0 l
0.28 4.96 l
0.29 0 l
0.28 6.36 l
0.29 14.27 l
0.28 0 l
0.28 0 l
0.29 0 l
0.28 0 l
0.29 0 l
0.28 0 l
0.29 -9.97 l
0.28 10.79 l
0.28 0 l
0.29 0 l
0.28 -6.49 l
0.29 0 l
0.28 0 l
0.29 0 l
0.28 0 l
0.28 0 l
0.29 0 l
0.28 0 l
0.29 0 l
0.28 0 l
155.69 167.86 lineto
0.28 -1.75 l
0.28 0 l
0.29 0 l
0.28 0 l
0.29 0 l
0.28 0 l
0.29 0 l
0.28 0 l
0.28 0 l
0.29 0 l
0.28 0 l
0.29 0 l
0.28 0 l
0.29 0 l
0.28 4.03 l
0.28 0 l
0.29 0 l
0.28 0 l
0.29 0 l
0.28 -1.31 l
0.29 0 l
0.28 11.76 l
0.28 0 l
0.29 0 l
0.28 0 l
0.29 -3.88 l
0.28 0 l
0.29 0 l
0.28 0 l
0.28 0 l
0.29 -1.92 l
0.28 -4.17 l
0.29 0 l
0.28 0 l
0.29 12.55 l
0.28 0 l
0.28 0 l
0.29 -13.09 l
0.28 3.02 l
0.29 0 l
0.28 0 l
0.29 8.72 l
0.28 0 l
0.28 6.88 l
0.29 0 l
0.28 0 l
0.29 0 l
0.28 0 l
0.29 0 l
0.28 0 l
0.28 0 l
0.29 -21.39 l
0.28 -2.46 l
0.29 0 l
0.28 0 l
0.29 0 l
0.28 -4.07 l
0.28 15.32 l
0.29 0 l
0.28 3.29 l
0.29 -21.37 l
0.28 0 l
0.29 0 l
0.28 0 l
0.28 0 l
0.29 0 l
0.28 -15.47 l
0.29 0 l
0.28 0 l
0.29 -7.05 l
0.28 0 l
0.28 -7.08 l
0.29 0 l
0.28 0 l
0.29 0 l
0.28 -2.29 l
0.29 0 l
0.28 0 l
0.28 2.77 l
0.29 6.52 l
0.28 0 l
0.29 0 l
0.28 0 l
0.29 0 l
0.28 0 l
0.28 25.82 l
0.29 0 l
0.28 0 l
0.29 0 l
0.28 0 l
0.29 0 l
0.28 0 l
0.28 0 l
0.29 -13.84 l
0.28 0 l
0.29 0 l
0.28 0 l
0.29 0 l
0.28 11.39 l
184.11 159.03 lineto
0.29 0 l
0.28 0 l
0.29 0 l
0.28 -14.03 l
0.29 10.74 l
0.28 -10.70 l
0.28 0 l
0.29 0 l
0.28 0 l
0.29 0 l
0.28 0 l
0.29 0 l
0.28 0 l
0.28 0 l
0.29 0 l
0.28 0 l
0.29 2.78 l
0.28 0 l
0.29 -5.61 l
0.28 0 l
0.28 -6.47 l
0.29 9.95 l
0.28 4.32 l
0.29 0 l
0.28 0 l
0.29 0 l
0.28 13.81 l
0.28 0 l
0.29 0 l
0.28 0 l
0.29 0 l
0.28 0 l
0.29 -1.97 l
0.28 0 l
0.28 0 l
0.29 0 l
0.28 0 l
0.29 17.30 l
0.28 0 l
0.29 0 l
0.28 0 l
0.28 0 l
0.29 9.49 l
0.28 -10.46 l
0.29 0 l
0.28 0 l
0.29 0 l
0.28 0 l
0.28 0 l
0.29 0 l
0.28 0 l
0.29 -13.34 l
0.28 0 l
0.29 0 l
0.28 0 l
0.28 0 l
0.29 0 l
0.28 0 l
0.29 0 l
0.28 0 l
0.29 0 l
0.28 -2.15 l
0.28 0 l
0.29 0 l
0.28 0 l
0.29 5.50 l
0.28 16.40 l
0.29 -5.44 l
0.28 2.36 l
0.28 0 l
0.29 0 l
0.28 4.31 l
0.29 0 l
0.28 0 l
0.29 0 l
0.28 0 l
0.28 -3.20 l
0.29 14.84 l
0.28 0 l
0.29 0 l
0.28 0 l
0.29 0 l
0.28 0 l
0.28 -16.13 l
0.29 0 l
0.28 0 l
0.29 0 l
0.28 0 l
0.29 0 l
0.28 -9.90 l
0.28 0 l
0.29 0 l
0.28 0 l
0.29 0 l
0.28 12.82 l
0.29 0 l
0.28 16.90 l
0.28 0 l
0.29 0 l
212.54 201.15 lineto
0.29 20.68 l
0.28 0 l
0.28 10.76 l
0.29 -11.88 l
0.28 0 l
0.29 0 l
0.28 -1.66 l
0.29 -7.76 l
0.28 0 l
0.28 15.74 l
0.29 0 l
0.28 -17.41 l
0.29 -14.22 l
0.28 10.34 l
0.29 0 l
0.28 3.36 l
0.28 0 l
0.29 0 l
0.28 0 l
0.29 -20.58 l
0.28 0 l
0.29 0 l
0.28 -6.71 l
0.28 0 l
0.29 0 l
0.28 0 l
0.29 0 l
0.28 0 l
0.29 -2.67 l
0.28 0 l
0.28 0 l
0.29 0 l
0.28 0 l
0.29 0 l
0.28 -22.46 l
0.29 0 l
0.28 0 l
0.28 0 l
0.29 0 l
0.28 16.44 l
0.29 0 l
0.28 0 l
0.29 0 l
0.28 0 l
0.28 0 l
0.29 0 l
0.28 0 l
0.29 0 l
0.28 -1.04 l
0.29 0 l
0.28 0 l
0.28 4.26 l
0.29 8.34 l
0.28 0 l
0.29 0 l
0.28 -17.17 l
0.29 0 l
0.28 -11.07 l
0.28 0 l
0.29 0 l
0.28 0 l
0.29 -2.44 l
0.28 0 l
0.29 0 l
0.28 7.92 l
0.28 0 l
0.29 2.13 l
0.28 0 l
0.29 0 l
0.28 -6.33 l
0.29 0 l
0.28 0 l
0.28 0 l
0.29 -3.33 l
0.28 0 l
0.29 5.49 l
0.28 2.54 l
0.29 -20.76 l
0.28 0 l
0.28 6.25 l
0.29 0 l
0.28 0 l
0.29 0 l
0.28 0 l
0.29 0 l
0.28 0 l
0.28 0 l
0.29 -4.68 l
0.28 -7.21 l
0.29 0 l
0.28 5.29 l
0.29 4.74 l
0.28 0 l
0.28 0 l
0.29 0 l
0.28 -6.58 l
0.29 0 l
0.28 0 l
0.29 12.20 l
240.97 151.67 lineto
0.28 0 l
0.29 0 l
0.28 0 l
0.29 0 l
0.28 11.95 l
0.29 0 l
0.28 6.77 l
0.28 0 l
0.29 0 l
0.28 0 l
0.29 0 l
0.28 0 l
0.29 0 l
0.28 0 l
0.28 0 l
0.29 0 l
0.28 0 l
0.29 0 l
0.28 0 l
0.29 0 l
0.28 0 l
0.28 0 l
0.29 0 l
0.28 0 l
0.29 0 l
0.28 0 l
0.29 0 l
0.28 -4.98 l
0.28 0 l
0.29 -6.58 l
0.28 0 l
0.29 0 l
0.28 0 l
0.29 0 l
0.28 -4.16 l
0.28 0 l
0.29 0 l
0.28 -13.31 l
0.29 0 l
0.28 0 l
0.29 0 l
0.28 0 l
0.28 -0.27 l
0.29 23.09 l
0.28 -13.05 l
0.29 0 l
0.28 12.28 l
0.29 0 l
0.28 0 l
0.28 0 l
0.29 -18.85 l
0.28 0 l
0.29 0 l
0.28 0 l
0.29 0 l
0.28 1.91 l
0.28 0 l
0.29 0 l
0.28 0 l
0.29 0 l
0.28 0 l
0.29 0 l
0.28 0 l
0.28 17.58 l
0.29 0 l
0.28 0 l
0.29 16.42 l
0.28 -1.43 l
0.29 6.04 l
0.28 3.57 l
0.28 -3.89 l
0.29 0 l
0.28 -14.28 l
0.29 0 l
0.28 0 l
0.29 -24.42 l
0.28 0 l
0.28 0 l
0.29 -3.63 l
0.28 0 l
0.29 0 l
0.28 3.87 l
0.29 0 l
0.28 0 l
0.28 -6.58 l
0.29 0 l
0.28 0 l
0.29 0 l
0.28 4.29 l
0.29 -8.49 l
0.28 -2.34 l
0.28 0 l
0.29 0 l
0.28 0 l
0.29 0 l
0.28 0 l
0.29 0 l
0.28 0 l
0.28 0 l
269.40 131.91 lineto
0.28 6.11 l
0.29 0 l
0.28 0 l
0.29 0 l
0.28 1.91 l
0.28 -4.77 l
0.29 24.58 l
0.28 0 l
0.29 10.36 l
0.28 0 l
0.29 0 l
0.28 0 l
0.28 0 l
0.29 0 l
0.28 0 l
0.29 0 l
0.28 0 l
0.29 0 l
0.28 0 l
0.28 0 l
0.29 0 l
0.28 8.91 l
0.29 -5.23 l
0.28 0 l
0.29 0 l
0.28 0 l
0.28 0 l
0.29 0 l
0.28 0 l
0.29 5.55 l
0.28 0 l
0.29 0 l
0.28 -11.74 l
0.28 0 l
0.29 0 l
0.28 0 l
0.29 3.05 l
0.28 -13.91 l
0.29 -7.80 l
0.28 -1.53 l
0.28 10.13 l
0.29 0 l
0.28 20.88 l
0.29 0 l
0.28 0 l
0.29 0 l
0.28 15.86 l
0.28 0 l
0.29 0 l
0.28 0 l
0.29 0 l
0.28 0 l
0.29 0 l
0.28 0 l
0.28 0 l
0.29 0 l
0.28 0 l
0.29 0 l
0.28 0 l
0.29 -6.85 l
0.28 0 l
0.28 -7.00 l
0.29 0 l
0.28 0 l
0.29 10.74 l
0.28 0 l
0.29 0 l
0.28 0 l
0.28 -4.40 l
0.29 -9.91 l
0.28 0 l
0.29 0 l
0.28 0 l
0.29 0 l
0.28 0 l
0.28 0 l
0.29 -19.36 l
0.28 14.20 l
0.29 0 l
0.28 10.96 l
0.29 0 l
0.28 0 l
0.28 0 l
0.29 0 l
0.28 2.41 l
0.29 0 l
0.28 0 l
0.29 -15.85 l
0.28 -3.01 l
0.28 0 l
0.29 0 l
0.28 0 l
0.29 1.43 l
0.28 0 l
0.29 0 l
0.28 0 l
0.28 0 l
0.29 -9.20 l
0.28 0 l
297.83 158.43 lineto
0.28 0 l
0.29 0 l
0.28 -2.63 l
0.28 9.10 l
0.29 0 l
0.28 -8.17 l
0.29 0 l
0.28 6.12 l
0.29 0 l
0.28 0 l
0.28 0 l
0.29 0 l
0.28 0 l
0.29 0 l
0.28 -7.34 l
0.29 -22.27 l
0.28 0 l
0.28 0 l
0.29 0 l
0.28 -0.88 l
0.29 0 l
0.28 0 l
0.29 0 l
0.28 2.03 l
0.28 0 l
0.29 0 l
0.28 0 l
0.29 0 l
0.28 0 l
0.29 0 l
0.28 -3.71 l
0.28 7.94 l
0.29 0 l
0.28 0 l
0.29 0 l
0.28 0 l
0.29 0 l
0.28 0 l
0.28 0 l
0.29 0 l
0.28 0 l
0.29 -1.71 l
0.28 -16.39 l
0.29 0 l
0.28 19.45 l
0.28 0 l
0.29 0 l
0.28 6.99 l
0.29 0.34 l
0.28 6.43 l
0.29 15.09 l
0.28 0 l
0.28 0 l
0.29 0 l
0.28 0 l
0.29 0 l
0.28 0 l
0.29 0 l
0.28 0 l
0.28 0 l
0.29 -0.86 l
0.28 0 l
0.29 0 l
0.28 4.02 l
0.29 2.05 l
0.28 0 l
0.28 0 l
0.29 0 l
0.28 0 l
0.29 0 l
0.28 0 l
0.29 0 l
0.28 0 l
0.28 0 l
0.29 0 l
0.28 0 l
0.29 9.08 l
0.28 -1.18 l
0.29 0 l
0.28 0 l
0.28 0 l
0.29 0 l
0.28 0 l
0.29 -1.65 l
0.28 7.28 l
0.29 -5.12 l
0.28 0 l
0.28 0 l
0.29 0 l
0.28 1.72 l
0.29 0 l
0.28 0 l
0.29 0 l
0.28 9.50 l
0.28 0 l
0.29 -3.66 l
0.28 0 l
0.29 0 l
0.28 0 l
326.26 190.00 lineto
0.28 0 l
0.28 0 l
0.29 5.04 l
0.28 0 l
0.29 0 l
0.28 0 l
0.29 -15.02 l
0.28 0 l
0.28 -5.46 l
0.29 0 l
0.28 0 l
0.29 -3.44 l
0.28 0 l
0.29 0 l
0.28 0 l
0.28 0 l
0.29 0 l
0.28 -15.87 l
0.29 0 l
0.28 0 l
0.29 0 l
0.28 0 l
0.28 0 l
0.29 2.44 l
0.28 0 l
0.29 -4.71 l
0.28 0 l
0.29 0 l
0.28 0 l
0.28 0 l
0.29 9.28 l
0.28 8.36 l
0.29 14.83 l
0.28 0 l
0.29 -17.86 l
0.28 0 l
0.28 0 l
0.29 0 l
0.28 0.77 l
0.29 0 l
0.28 0 l
0.29 0 l
0.28 0 l
0.28 0 l
0.29 0 l
0.28 -8.85 l
0.29 0 l
0.28 0 l
0.29 -17.16 l
0.28 0 l
0.28 0 l
0.29 0 l
0.28 8.76 l
0.29 0 l
0.28 -0.80 l
0.29 0 l
0.28 0 l
0.28 0 l
0.29 0 l
0.28 -5.17 l
0.29 0 l
0.28 0 l
0.29 0 l
0.28 0 l
0.28 0 l
0.29 2.32 l
0.28 0 l
0.29 5.86 l
0.28 0 l
0.29 0 l
0.28 -3.86 l
0.28 -2.26 l
0.29 4.59 l
0.28 -1.04 l
0.29 0 l
0.28 0 l
0.29 0 l
0.28 -8.82 l
0.28 0 l
0.29 20.16 l
0.28 0 l
0.29 -2.85 l
0.28 -8.51 l
0.29 0 l
0.28 -15.45 l
0.28 0 l
0.29 10.74 l
0.28 0 l
0.29 0 l
0.28 0 l
0.29 10.13 l
0.28 -18.61 l
0.28 20.21 l
0.29 -20.14 l
0.28 1.45 l
0.29 3.61 l
0.28 0 l
0.29 0 l
0.28 0 l
o
0.00 0.00 396.00 297.75 cl
/Font1 findfont 12 s
0 0 0 srgb
191.06 18.72 (iter) 0 ta
-0.120 (ation) tb gr
/Font5 findfont 12 s
12.76 152.95 (q) 0 90 t
0.00 0.00 396.00 297.75 cl
0 0 0 srgb
0.75 setlinewidth
[] 0 setdash
1 setlinecap
1 setlinejoin
10.00 setmiterlimit
np
70.12 73.44 m
284.28 0 l
o
np
70.12 73.44 m
0 -7.20 l
o
np
126.97 73.44 m
0 -7.20 l
o
np
183.83 73.44 m
0 -7.20 l
o
np
240.69 73.44 m
0 -7.20 l
o
np
297.54 73.44 m
0 -7.20 l
o
np
354.40 73.44 m
0 -7.20 l
o
/Font1 findfont 12 s
70.12 47.52 (0) .5 0 t
126.97 47.52 (200) .5 0 t
183.83 47.52 (400) .5 0 t
240.69 47.52 (600) .5 0 t
297.54 47.52 (800) .5 0 t
354.40 47.52 (1000) .5 0 t
np
59.04 82.03 m
0 137.44 l
o
np
59.04 82.03 m
-7.20 0 l
o
np
59.04 104.93 m
-7.20 0 l
o
np
59.04 127.84 m
-7.20 0 l
o
np
59.04 150.75 m
-7.20 0 l
o
np
59.04 173.66 m
-7.20 0 l
o
np
59.04 196.56 m
-7.20 0 l
o
np
59.04 219.47 m
-7.20 0 l
o
41.76 82.03 (0.4) .5 90 t
41.76 127.84 (0.6) .5 90 t
41.76 173.66 (0.8) .5 90 t
41.76 219.47 (1.0) .5 90 t
59.04 73.44 365.76 238.71 cl
1 0 0 srgb
0.75 setlinewidth
[] 0 setdash
1 setlinecap
1 setlinejoin
10.00 setmiterlimit
np
72.96 159.92 m
281.44 0 l
o
0 1 0 srgb
np
72.96 122.00 m
281.44 0 l
o
np
72.96 197.46 m
281.44 0 l
o
ep
%%Trailer
%%Pages: 1
%%EOF
