%!PS-Adobe-3.0 EPSF-3.0
%%DocumentNeededResources: font Helvetica
%%+ font Helvetica-Bold
%%+ font Helvetica-Oblique
%%+ font Helvetica-BoldOblique
%%+ font Symbol
%%Title: R Graphics Output
%%Creator: R Software
%%Pages: (atend)
%%BoundingBox: 0 0 396 298
%%EndComments
%%BeginProlog
/bp  { gs sRGB gs } def
% begin .ps.prolog
/gs  { gsave } bind def
/gr  { grestore } bind def
/ep  { showpage gr gr } bind def
/m   { moveto } bind def
/l  { rlineto } bind def
/np  { newpath } bind def
/cp  { closepath } bind def
/f   { fill } bind def
/o   { stroke } bind def
/c   { newpath 0 360 arc } bind def
/r   { 4 2 roll moveto 1 copy 3 -1 roll exch 0 exch rlineto 0 rlineto -1 mul 0 exch rlineto closepath } bind def
/p1  { stroke } bind def
/p2  { gsave bg fill grestore newpath } bind def
/p3  { gsave bg fill grestore stroke } bind def
/p6  { gsave bg eofill grestore newpath } bind def
/p7  { gsave bg eofill grestore stroke } bind def
/t   { 5 -2 roll moveto gsave rotate
       1 index stringwidth pop
       mul neg 0 rmoveto show grestore } bind def
/ta  { 4 -2 roll moveto gsave rotate show } bind def
/tb  { 2 -1 roll 0 rmoveto show } bind def
/cl  { grestore gsave newpath 3 index 3 index moveto 1 index
       4 -1 roll lineto  exch 1 index lineto lineto
       closepath clip newpath } bind def
/rgb { setrgbcolor } bind def
/s   { scalefont setfont } bind def
% end   .ps.prolog
/sRGB { [ /CIEBasedABC
          << /DecodeLMN
               [ { dup 0.03928 le
                        {12.92321 div}
                        {0.055 add 1.055 div 2.4 exp }
                     ifelse
                 } bind dup dup
               ]
             /MatrixLMN [0.412457 0.212673 0.019334
                         0.357576 0.715152 0.119192
                         0.180437 0.072175 0.950301]
             /WhitePoint [0.9505 1.0 1.0890]
           >>
         ] setcolorspace } bind def
/srgb { setcolor } bind def
% begin encoding
/WinAnsiEncoding [
 /.notdef /.notdef /.notdef /.notdef /.notdef /.notdef /.notdef /.notdef
 /.notdef /.notdef /.notdef /.notdef /.notdef /.notdef /.notdef /.notdef
 /.notdef /.notdef /.notdef /.notdef /.notdef /.notdef /.notdef /.notdef
 /.notdef /.notdef /.notdef /.notdef /.notdef /.notdef /.notdef /.notdef
 /space /exclam /quotedbl /numbersign /dollar /percent /ampersand /quoteright
 /parenleft /parenright /asterisk /plus /comma /minus /period /slash
 /zero /one /two /three /four /five /six /seven
 /eight /nine /colon /semicolon /less /equal /greater /question
 /at /A /B /C /D /E /F /G
 /H /I /J /K /L /M /N /O
 /P /Q /R /S /T /U /V /W
 /X /Y /Z /bracketleft /backslash /bracketright /asciicircum /underscore
 /grave /a /b /c /d /e /f /g
 /h /i /j /k /l /m /n /o
 /p /q /r /s /t /u /v /w
 /x /y /z /braceleft /bar /braceright /asciitilde /.notdef
 /Euro /.notdef /quotesinglbase /florin /quotedblbase /ellipsis /dagger /daggerdbl
 /circumflex /perthousand /Scaron /guilsinglleft /OE /.notdef /Zcaron /.notdef
 /.notdef /quoteleft /quoteright /quotedblleft /quotedblright /bullet /endash /emdash
 /tilde /trademark /scaron /guilsinglright /oe /.notdef /zcaron /Ydieresis
 /space /exclamdown /cent /sterling /currency /yen /brokenbar /section
 /dieresis /copyright /ordfeminine /guillemotleft /logicalnot /hyphen /registered /macron
 /degree /plusminus /twosuperior /threesuperior /acute /mu /paragraph /periodcentered
 /cedilla /onesuperior /ordmasculine /guillemotright /onequarter /onehalf /threequarters /questiondown
 /Agrave /Aacute /Acircumflex /Atilde /Adieresis /Aring /AE /Ccedilla
 /Egrave /Eacute /Ecircumflex /Edieresis /Igrave /Iacute /Icircumflex /Idieresis
 /Eth /Ntilde /Ograve /Oacute /Ocircumflex /Otilde /Odieresis /multiply
 /Oslash /Ugrave /Uacute /Ucircumflex /Udieresis /Yacute /Thorn /germandbls
 /agrave /aacute /acircumflex /atilde /adieresis /aring /ae /ccedilla
 /egrave /eacute /ecircumflex /edieresis /igrave /iacute /icircumflex /idieresis
 /eth /ntilde /ograve /oacute /ocircumflex /otilde /odieresis /divide
 /oslash /ugrave /uacute /ucircumflex /udieresis /yacute /thorn /ydieresis
]
 def
% end encoding
%%IncludeResource: font Helvetica
/Helvetica findfont
dup length dict begin
  {1 index /FID ne {def} {pop pop} ifelse} forall
  /Encoding WinAnsiEncoding def
  currentdict
  end
/Font1 exch definefont pop
%%IncludeResource: font Helvetica-Bold
/Helvetica-Bold findfont
dup length dict begin
  {1 index /FID ne {def} {pop pop} ifelse} forall
  /Encoding WinAnsiEncoding def
  currentdict
  end
/Font2 exch definefont pop
%%IncludeResource: font Helvetica-Oblique
/Helvetica-Oblique findfont
dup length dict begin
  {1 index /FID ne {def} {pop pop} ifelse} forall
  /Encoding WinAnsiEncoding def
  currentdict
  end
/Font3 exch definefont pop
%%IncludeResource: font Helvetica-BoldOblique
/Helvetica-BoldOblique findfont
dup length dict begin
  {1 index /FID ne {def} {pop pop} ifelse} forall
  /Encoding WinAnsiEncoding def
  currentdict
  end
/Font4 exch definefont pop
%%IncludeResource: font Symbol
/Symbol findfont
dup length dict begin
  {1 index /FID ne {def} {pop pop} ifelse} forall
  currentdict
  end
/Font5 exch definefont pop
%%EndProlog
%%Page: 1 1
bp
/bg { 1 1 1 srgb } def
0.00 0.00 396.00 297.75 r p2
59.04 73.44 365.76 238.71 cl
59.04 73.44 365.76 238.71 cl
0 0 0 srgb
0.75 setlinewidth
[] 0 setdash
1 setlinecap
1 setlinejoin
10.00 setmiterlimit
np
70.40 225.27 m
0.28 -16.71 l
0.29 0 l
0.28 0 l
0.29 4.76 l
0.28 0 l
0.29 0 l
0.28 -0.97 l
0.28 0 l
0.29 0 l
0.28 0 l
0.29 15.35 l
0.28 4.83 l
0.29 -32.85 l
0.28 0 l
0.28 0 l
0.29 9.86 l
0.28 0 l
0.29 0 l
0.28 0 l
0.29 0 l
0.28 12.59 l
0.28 10.46 l
0.29 0 l
0.28 0 l
0.29 -27.48 l
0.28 11.02 l
0.29 0 l
0.28 0 l
0.28 -6.16 l
0.29 0 l
0.28 -13.61 l
0.29 0 l
0.28 0 l
0.29 0 l
0.28 -15.13 l
0.28 0 l
0.29 0 l
0.28 3.28 l
0.29 0 l
0.28 -27.33 l
0.29 -6.12 l
0.28 0 l
0.28 0 l
0.29 3.86 l
0.28 0 l
0.29 0 l
0.28 0 l
0.29 0 l
0.28 15.51 l
0.28 -8.92 l
0.29 0 l
0.28 8.60 l
0.29 0 l
0.28 0 l
0.29 21.15 l
0.28 0 l
0.28 0 l
0.29 0 l
0.28 -9.82 l
0.29 12.82 l
0.28 -8.16 l
0.29 4.58 l
0.28 0 l
0.28 11.18 l
0.29 0 l
0.28 2.05 l
0.29 0 l
0.28 2.91 l
0.29 0 l
0.28 0 l
0.28 -9.82 l
0.29 14.07 l
0.28 -4.99 l
0.29 0 l
0.28 0 l
0.29 0 l
0.28 0 l
0.28 0 l
0.29 0 l
0.28 0 l
0.29 0 l
0.28 0 l
0.29 -6.28 l
0.28 -26.85 l
0.28 -17.35 l
0.29 0 l
0.28 20.31 l
0.29 0 l
0.28 -13.97 l
0.29 -2.23 l
0.28 0 l
0.28 0 l
0.29 0 l
0.28 12.13 l
0.29 -17.17 l
0.28 0 l
0.29 0 l
0.28 0 l
0.28 0 l
98.83 154.67 lineto
0.28 0 l
0.29 1.97 l
0.28 -21.11 l
0.29 0 l
0.28 0 l
0.28 26.42 l
0.29 -11.25 l
0.28 -9.86 l
0.29 0 l
0.28 0 l
0.29 9.49 l
0.28 0 l
0.28 11.51 l
0.29 -18.79 l
0.28 0 l
0.29 33.00 l
0.28 0 l
0.29 0 l
0.28 0 l
0.28 0 l
0.29 0 l
0.28 -17.77 l
0.29 0 l
0.28 0 l
0.29 0 l
0.28 0 l
0.28 2.07 l
0.29 0 l
0.28 18.34 l
0.29 0 l
0.28 0 l
0.29 0 l
0.28 0 l
0.28 0 l
0.29 0 l
0.28 0 l
0.29 22.58 l
0.28 5.94 l
0.29 10.38 l
0.28 0 l
0.28 2.86 l
0.29 -4.17 l
0.28 -8.71 l
0.29 0 l
0.28 5.56 l
0.29 0 l
0.28 0 l
0.28 0 l
0.29 0 l
0.28 0 l
0.29 0 l
0.28 0 l
0.29 0 l
0.28 0 l
0.28 0 l
0.29 0 l
0.28 -4.04 l
0.29 -14.74 l
0.28 0 l
0.29 0 l
0.28 0 l
0.28 0 l
0.29 0 l
0.28 -1.61 l
0.29 0 l
0.28 0 l
0.29 0 l
0.28 -17.77 l
0.28 0 l
0.29 0 l
0.28 -2.25 l
0.29 5.01 l
0.28 -12.40 l
0.29 0 l
0.28 0 l
0.28 0 l
0.29 0 l
0.28 0 l
0.29 -7.76 l
0.28 -16.13 l
0.29 0 l
0.28 0 l
0.28 -4.90 l
0.29 0 l
0.28 11.23 l
0.29 3.64 l
0.28 0 l
0.29 0 l
0.28 0 l
0.28 -7.50 l
0.29 -5.46 l
0.28 0 l
0.29 -17.46 l
0.28 0 l
0.29 0 l
0.28 0 l
0.28 0 l
0.29 0 l
0.28 0 l
127.26 120.99 lineto
0.28 0 l
0.29 -14.75 l
0.28 0 l
0.28 0 l
0.29 1.02 l
0.28 0 l
0.29 0.18 l
0.28 0 l
0.29 0 l
0.28 17.18 l
0.28 18.88 l
0.29 -26.85 l
0.28 -4.87 l
0.29 0 l
0.28 -4.29 l
0.29 -3.42 l
0.28 0 l
0.28 0 l
0.29 0 l
0.28 -7.68 l
0.29 0 l
0.28 0 l
0.29 14.97 l
0.28 0 l
0.28 0 l
0.29 0 l
0.28 0 l
0.29 0 l
0.28 0 l
0.29 0 l
0.28 0 l
0.28 0 l
0.29 -17.96 l
0.28 0 l
0.29 -9.20 l
0.28 0 l
0.29 0 l
0.28 0 l
0.28 0 l
0.29 0 l
0.28 0 l
0.29 0 l
0.28 0 l
0.29 0 l
0.28 0 l
0.28 0 l
0.29 0 l
0.28 10.03 l
0.29 0 l
0.28 0 l
0.29 0 l
0.28 0 l
0.28 5.36 l
0.29 0 l
0.28 0 l
0.29 0 l
0.28 19.41 l
0.29 6.81 l
0.28 4.15 l
0.28 0 l
0.29 0 l
0.28 0 l
0.29 0 l
0.28 -14.07 l
0.29 0 l
0.28 2.77 l
0.28 -18.32 l
0.29 0 l
0.28 0 l
0.29 7.15 l
0.28 0 l
0.29 24.74 l
0.28 0 l
0.28 0 l
0.29 0 l
0.28 -5.10 l
0.29 0 l
0.28 -19.12 l
0.29 3.46 l
0.28 0 l
0.28 0 l
0.29 0 l
0.28 0 l
0.29 0 l
0.28 0 l
0.29 -5.41 l
0.28 -7.52 l
0.28 0 l
0.29 0 l
0.28 2.28 l
0.29 0 l
0.28 0 l
0.29 0 l
0.28 0 l
0.28 0 l
0.29 0 l
0.28 0 l
0.29 0 l
0.28 0 l
155.69 100.82 lineto
0.28 -3.11 l
0.28 0 l
0.29 0 l
0.28 0 l
0.29 0 l
0.28 0 l
0.29 0 l
0.28 0 l
0.28 0 l
0.29 0 l
0.28 0 l
0.29 0 l
0.28 0 l
0.29 0 l
0.28 26.95 l
0.28 0 l
0.29 0 l
0.28 0 l
0.29 0 l
0.28 8.26 l
0.29 0 l
0.28 -17.67 l
0.28 0 l
0.29 0 l
0.28 0 l
0.29 17.45 l
0.28 0 l
0.29 0 l
0.28 0 l
0.28 0 l
0.29 -1.20 l
0.28 -14.39 l
0.29 0 l
0.28 0 l
0.29 -0.05 l
0.28 0 l
0.28 0 l
0.29 15.15 l
0.28 8.98 l
0.29 0 l
0.28 0 l
0.29 -16.70 l
0.28 0 l
0.28 -22.54 l
0.29 0 l
0.28 0 l
0.29 0 l
0.28 0 l
0.29 0 l
0.28 0 l
0.28 0 l
0.29 9.19 l
0.28 -8.39 l
0.29 0 l
0.28 0 l
0.29 0 l
0.28 -23.19 l
0.28 17.37 l
0.29 0 l
0.28 10.03 l
0.29 18.78 l
0.28 0 l
0.29 0 l
0.28 0 l
0.28 0 l
0.29 0 l
0.28 23.02 l
0.29 0 l
0.28 0 l
0.29 -7.96 l
0.28 0 l
0.28 -13.13 l
0.29 0 l
0.28 0 l
0.29 0 l
0.28 6.66 l
0.29 0 l
0.28 0 l
0.28 -13.56 l
0.29 -2.54 l
0.28 0 l
0.29 0 l
0.28 0 l
0.29 0 l
0.28 0 l
0.28 17.42 l
0.29 0 l
0.28 0 l
0.29 0 l
0.28 0 l
0.29 0 l
0.28 0 l
0.28 0 l
0.29 -25.25 l
0.28 0 l
0.29 0 l
0.28 0 l
0.29 0 l
0.28 6.48 l
184.11 125.16 lineto
0.29 0 l
0.28 0 l
0.29 0 l
0.28 -11.31 l
0.29 -7.92 l
0.28 9.49 l
0.28 0 l
0.29 0 l
0.28 0 l
0.29 0 l
0.28 0 l
0.29 0 l
0.28 0 l
0.28 0 l
0.29 0 l
0.28 0 l
0.29 4.87 l
0.28 0 l
0.29 13.14 l
0.28 0 l
0.28 0.10 l
0.29 26.01 l
0.28 -22.19 l
0.29 0 l
0.28 0 l
0.29 0 l
0.28 -9.50 l
0.28 0 l
0.29 0 l
0.28 0 l
0.29 0 l
0.28 0 l
0.29 10.70 l
0.28 0 l
0.28 0 l
0.29 0 l
0.28 0 l
0.29 -26.78 l
0.28 0 l
0.29 0 l
0.28 0 l
0.28 0 l
0.29 4.29 l
0.28 19.61 l
0.29 0 l
0.28 0 l
0.29 0 l
0.28 0 l
0.28 0 l
0.29 0 l
0.28 0 l
0.29 3.11 l
0.28 0 l
0.29 0 l
0.28 0 l
0.28 0 l
0.29 0 l
0.28 0 l
0.29 0 l
0.28 0 l
0.29 0 l
0.28 8.35 l
0.28 0 l
0.29 0 l
0.28 0 l
0.29 -16.63 l
0.28 -26.56 l
0.29 5.27 l
0.28 -3.62 l
0.28 0 l
0.29 0 l
0.28 11.60 l
0.29 0 l
0.28 0 l
0.29 0 l
0.28 0 l
0.28 -22.79 l
0.29 13.68 l
0.28 0 l
0.29 0 l
0.28 0 l
0.29 0 l
0.28 0 l
0.28 -6.69 l
0.29 0 l
0.28 0 l
0.29 0 l
0.28 0 l
0.29 0 l
0.28 2.75 l
0.28 0 l
0.29 0 l
0.28 0 l
0.29 0 l
0.28 -24.38 l
0.29 0 l
0.28 7.79 l
0.28 0 l
0.29 0 l
212.54 87.55 lineto
0.29 13.96 l
0.28 0 l
0.28 5.16 l
0.29 -18.30 l
0.28 0 l
0.29 0 l
0.28 12.23 l
0.29 10.54 l
0.28 0 l
0.28 -21.07 l
0.29 0 l
0.28 1.24 l
0.29 5.20 l
0.28 4.51 l
0.29 0 l
0.28 -4.09 l
0.28 0 l
0.29 0 l
0.28 0 l
0.29 16.32 l
0.28 0 l
0.29 0 l
0.28 5.45 l
0.28 0 l
0.29 0 l
0.28 0 l
0.29 0 l
0.28 0 l
0.29 -5.18 l
0.28 0 l
0.28 0 l
0.29 0 l
0.28 0 l
0.29 0 l
0.28 18.45 l
0.29 0 l
0.28 0 l
0.28 0 l
0.29 0 l
0.28 2.40 l
0.29 0 l
0.28 0 l
0.29 0 l
0.28 0 l
0.28 0 l
0.29 0 l
0.28 0 l
0.29 0 l
0.28 -4.95 l
0.29 0 l
0.28 0 l
0.28 12.46 l
0.29 3.00 l
0.28 0 l
0.29 0 l
0.28 -15.36 l
0.29 0 l
0.28 9.23 l
0.28 0 l
0.29 0 l
0.28 0 l
0.29 5.52 l
0.28 0 l
0.29 0 l
0.28 2.71 l
0.28 0 l
0.29 -10.94 l
0.28 0 l
0.29 0 l
0.28 29.54 l
0.29 0 l
0.28 0 l
0.28 0 l
0.29 -12.30 l
0.28 0 l
0.29 -0.53 l
0.28 3.34 l
0.29 1.97 l
0.28 0 l
0.28 -5.55 l
0.29 0 l
0.28 0 l
0.29 0 l
0.28 0 l
0.29 0 l
0.28 0 l
0.28 0 l
0.29 -0.31 l
0.28 16.85 l
0.29 0 l
0.28 -10.50 l
0.29 1.31 l
0.28 0 l
0.28 0 l
0.29 0 l
0.28 11.02 l
0.29 0 l
0.28 0 l
0.29 -1.69 l
240.97 169.19 lineto
0.28 0 l
0.29 0 l
0.28 0 l
0.29 0 l
0.28 -7.74 l
0.29 0 l
0.28 -6.13 l
0.28 0 l
0.29 0 l
0.28 0 l
0.29 0 l
0.28 0 l
0.29 0 l
0.28 0 l
0.28 0 l
0.29 0 l
0.28 0 l
0.29 0 l
0.28 0 l
0.29 0 l
0.28 0 l
0.28 0 l
0.29 0 l
0.28 0 l
0.29 0 l
0.28 0 l
0.29 0 l
0.28 -28.40 l
0.28 0 l
0.29 0.44 l
0.28 0 l
0.29 0 l
0.28 0 l
0.29 0 l
0.28 30.02 l
0.28 0 l
0.29 0 l
0.28 -25.28 l
0.29 0 l
0.28 0 l
0.29 0 l
0.28 0 l
0.28 2.26 l
0.29 16.37 l
0.28 5.35 l
0.29 0 l
0.28 -10.22 l
0.29 0 l
0.28 0 l
0.28 0 l
0.29 -16.44 l
0.28 0 l
0.29 0 l
0.28 0 l
0.29 0 l
0.28 -8.66 l
0.28 0 l
0.29 0 l
0.28 0 l
0.29 0 l
0.28 0 l
0.29 0 l
0.28 0 l
0.28 -16.99 l
0.29 0 l
0.28 0 l
0.29 18.29 l
0.28 -3.95 l
0.29 23.03 l
0.28 1.89 l
0.28 5.34 l
0.29 0 l
0.28 25.08 l
0.29 0 l
0.28 0 l
0.29 -0.79 l
0.28 0 l
0.28 0 l
0.29 -5.20 l
0.28 0 l
0.29 0 l
0.28 -2.77 l
0.29 0 l
0.28 0 l
0.28 10.21 l
0.29 0 l
0.28 0 l
0.29 0 l
0.28 -19.01 l
0.29 11.88 l
0.28 -16.32 l
0.28 0 l
0.29 0 l
0.28 0 l
0.29 0 l
0.28 0 l
0.29 0 l
0.28 0 l
0.28 0 l
269.40 152.45 lineto
0.28 13.38 l
0.29 0 l
0.28 0 l
0.29 0 l
0.28 3.58 l
0.28 18.89 l
0.29 -11.61 l
0.28 0 l
0.29 -5.30 l
0.28 0 l
0.29 0 l
0.28 0 l
0.28 0 l
0.29 0 l
0.28 0 l
0.29 0 l
0.28 0 l
0.29 0 l
0.28 0 l
0.28 0 l
0.29 0 l
0.28 -34.95 l
0.29 -3.08 l
0.28 0 l
0.29 0 l
0.28 0 l
0.28 0 l
0.29 0 l
0.28 0 l
0.29 -8.80 l
0.28 0 l
0.29 0 l
0.28 5.58 l
0.28 0 l
0.29 0 l
0.28 0 l
0.29 -17.33 l
0.28 1.41 l
0.29 -16.24 l
0.28 17.93 l
0.28 -2.66 l
0.29 0 l
0.28 -3.37 l
0.29 0 l
0.28 0 l
0.29 0 l
0.28 -23.92 l
0.28 0 l
0.29 0 l
0.28 0 l
0.29 0 l
0.28 0 l
0.29 0 l
0.28 0 l
0.28 0 l
0.29 0 l
0.28 0 l
0.29 0 l
0.28 0 l
0.29 22.75 l
0.28 0 l
0.28 12.81 l
0.29 0 l
0.28 0 l
0.29 0.32 l
0.28 0 l
0.29 0 l
0.28 0 l
0.28 -1.12 l
0.29 8.85 l
0.28 0 l
0.29 0 l
0.28 0 l
0.29 0 l
0.28 0 l
0.28 0 l
0.29 2.43 l
0.28 10.32 l
0.29 0 l
0.28 14.39 l
0.29 0 l
0.28 0 l
0.28 0 l
0.29 0 l
0.28 5.29 l
0.29 0 l
0.28 0 l
0.29 19.50 l
0.28 -5.37 l
0.28 0 l
0.29 0 l
0.28 0 l
0.29 -5.24 l
0.28 0 l
0.29 0 l
0.28 0 l
0.28 0 l
0.29 6.67 l
0.28 0 l
297.83 177.56 lineto
0.28 0 l
0.29 0 l
0.28 8.19 l
0.28 27.21 l
0.29 0 l
0.28 -20.05 l
0.29 0 l
0.28 1.78 l
0.29 0 l
0.28 0 l
0.28 0 l
0.29 0 l
0.28 0 l
0.29 0 l
0.28 10.99 l
0.29 -3.81 l
0.28 0 l
0.28 0 l
0.29 0 l
0.28 -4.61 l
0.29 0 l
0.28 0 l
0.29 0 l
0.28 -0.85 l
0.28 0 l
0.29 0 l
0.28 0 l
0.29 0 l
0.28 0 l
0.29 0 l
0.28 -25.07 l
0.28 8.76 l
0.29 0 l
0.28 0 l
0.29 0 l
0.28 0 l
0.29 0 l
0.28 0 l
0.28 0 l
0.29 0 l
0.28 0 l
0.29 -14.93 l
0.28 -5.94 l
0.29 0 l
0.28 2.88 l
0.28 0 l
0.29 0 l
0.28 -8.67 l
0.29 -2.16 l
0.28 -13.97 l
0.29 -22.01 l
0.28 0 l
0.28 0 l
0.29 0 l
0.28 0 l
0.29 0 l
0.28 0 l
0.29 0 l
0.28 0 l
0.28 0 l
0.29 4.96 l
0.28 0 l
0.29 0 l
0.28 31.66 l
0.29 3.49 l
0.28 0 l
0.28 0 l
0.29 0 l
0.28 0 l
0.29 0 l
0.28 0 l
0.29 0 l
0.28 0 l
0.28 0 l
0.29 0 l
0.28 0 l
0.29 -20.46 l
0.28 -19.77 l
0.29 0 l
0.28 0 l
0.28 0 l
0.29 0 l
0.28 0 l
0.29 8.59 l
0.28 3.35 l
0.29 5.96 l
0.28 0 l
0.28 0 l
0.29 0 l
0.28 -5.14 l
0.29 0 l
0.28 0 l
0.29 0 l
0.28 -5.51 l
0.28 0 l
0.29 -26.49 l
0.28 0 l
0.29 0 l
0.28 0 l
326.26 95.94 lineto
0.28 0 l
0.28 0 l
0.29 12.31 l
0.28 0 l
0.29 0 l
0.28 0 l
0.29 -2.91 l
0.28 0 l
0.28 3.48 l
0.29 0 l
0.28 0 l
0.29 7.56 l
0.28 0 l
0.29 0 l
0.28 0 l
0.28 0 l
0.29 0 l
0.28 -8.62 l
0.29 0 l
0.28 0 l
0.29 0 l
0.28 0 l
0.28 0 l
0.29 16.73 l
0.28 0 l
0.29 2.90 l
0.28 0 l
0.29 0 l
0.28 0 l
0.28 0 l
0.29 -20.34 l
0.28 4.19 l
0.29 -4.07 l
0.28 0 l
0.29 18.37 l
0.28 0 l
0.28 0 l
0.29 0 l
0.28 -13.02 l
0.29 0 l
0.28 0 l
0.29 0 l
0.28 0 l
0.28 0 l
0.29 0 l
0.28 6.15 l
0.29 0 l
0.28 0 l
0.29 24.10 l
0.28 0 l
0.28 0 l
0.29 0 l
0.28 -3.89 l
0.29 0 l
0.28 -6.52 l
0.29 0 l
0.28 0 l
0.28 0 l
0.29 0 l
0.28 11.16 l
0.29 0 l
0.28 0 l
0.29 0 l
0.28 0 l
0.28 0 l
0.29 -14.01 l
0.28 0 l
0.29 -6.04 l
0.28 0 l
0.29 0 l
0.28 9.52 l
0.28 20.43 l
0.29 14.60 l
0.28 -31.76 l
0.29 0 l
0.28 0 l
0.29 0 l
0.28 19.91 l
0.28 0 l
0.29 6.41 l
0.28 0 l
0.29 5.36 l
0.28 19.25 l
0.29 0 l
0.28 -18.40 l
0.28 0 l
0.29 -16.65 l
0.28 0 l
0.29 0 l
0.28 0 l
0.29 -25.05 l
0.28 9.83 l
0.28 19.93 l
0.29 -13.96 l
0.28 -1.11 l
0.29 25.31 l
0.28 0 l
0.29 0 l
0.28 0 l
o
0.00 0.00 396.00 297.75 cl
/Font1 findfont 12 s
0 0 0 srgb
191.06 18.72 (iter) 0 ta
-0.120 (ation) tb gr
12.96 156.08 (Tm) .5 90 t
0.00 0.00 396.00 297.75 cl
0 0 0 srgb
0.75 setlinewidth
[] 0 setdash
1 setlinecap
1 setlinejoin
10.00 setmiterlimit
np
70.12 73.44 m
284.28 0 l
o
np
70.12 73.44 m
0 -7.20 l
o
np
126.97 73.44 m
0 -7.20 l
o
np
183.83 73.44 m
0 -7.20 l
o
np
240.69 73.44 m
0 -7.20 l
o
np
297.54 73.44 m
0 -7.20 l
o
np
354.40 73.44 m
0 -7.20 l
o
/Font1 findfont 12 s
70.12 47.52 (0) .5 0 t
126.97 47.52 (200) .5 0 t
183.83 47.52 (400) .5 0 t
240.69 47.52 (600) .5 0 t
297.54 47.52 (800) .5 0 t
354.40 47.52 (1000) .5 0 t
np
59.04 94.28 m
0 123.30 l
o
np
59.04 94.28 m
-7.20 0 l
o
np
59.04 125.10 m
-7.20 0 l
o
np
59.04 155.93 m
-7.20 0 l
o
np
59.04 186.76 m
-7.20 0 l
o
np
59.04 217.58 m
-7.20 0 l
o
41.76 94.28 (0.9) .5 90 t
41.76 125.10 (1.0) .5 90 t
41.76 155.93 (1.1) .5 90 t
41.76 186.76 (1.2) .5 90 t
41.76 217.58 (1.3) .5 90 t
59.04 73.44 365.76 238.71 cl
1 0 0 srgb
0.75 setlinewidth
[] 0 setdash
1 setlinecap
1 setlinejoin
10.00 setmiterlimit
np
72.96 141.41 m
281.44 0 l
o
0 1 0 srgb
np
72.96 85.96 m
281.44 0 l
o
np
72.96 213.13 m
281.44 0 l
o
ep
%%Trailer
%%Pages: 1
%%EOF
