%!PS-Adobe-3.0 EPSF-3.0
%%DocumentNeededResources: font Helvetica
%%+ font Helvetica-Bold
%%+ font Helvetica-Oblique
%%+ font Helvetica-BoldOblique
%%+ font Symbol
%%Title: R Graphics Output
%%Creator: R Software
%%Pages: (atend)
%%BoundingBox: 0 0 502 312
%%EndComments
%%BeginProlog
/bp  { gs sRGB gs } def
% begin .ps.prolog
/gs  { gsave } bind def
/gr  { grestore } bind def
/ep  { showpage gr gr } bind def
/m   { moveto } bind def
/l  { rlineto } bind def
/np  { newpath } bind def
/cp  { closepath } bind def
/f   { fill } bind def
/o   { stroke } bind def
/c   { newpath 0 360 arc } bind def
/r   { 4 2 roll moveto 1 copy 3 -1 roll exch 0 exch rlineto 0 rlineto -1 mul 0 exch rlineto closepath } bind def
/p1  { stroke } bind def
/p2  { gsave bg fill grestore newpath } bind def
/p3  { gsave bg fill grestore stroke } bind def
/p6  { gsave bg eofill grestore newpath } bind def
/p7  { gsave bg eofill grestore stroke } bind def
/t   { 5 -2 roll moveto gsave rotate
       1 index stringwidth pop
       mul neg 0 rmoveto show grestore } bind def
/ta  { 4 -2 roll moveto gsave rotate show } bind def
/tb  { 2 -1 roll 0 rmoveto show } bind def
/cl  { grestore gsave newpath 3 index 3 index moveto 1 index
       4 -1 roll lineto  exch 1 index lineto lineto
       closepath clip newpath } bind def
/rgb { setrgbcolor } bind def
/s   { scalefont setfont } bind def
% end   .ps.prolog
/sRGB { [ /CIEBasedABC
          << /DecodeLMN
               [ { dup 0.03928 le
                        {12.92321 div}
                        {0.055 add 1.055 div 2.4 exp }
                     ifelse
                 } bind dup dup
               ]
             /MatrixLMN [0.412457 0.212673 0.019334
                         0.357576 0.715152 0.119192
                         0.180437 0.072175 0.950301]
             /WhitePoint [0.9505 1.0 1.0890]
           >>
         ] setcolorspace } bind def
/srgb { setcolor } bind def
% begin encoding
/WinAnsiEncoding [
 /.notdef /.notdef /.notdef /.notdef /.notdef /.notdef /.notdef /.notdef
 /.notdef /.notdef /.notdef /.notdef /.notdef /.notdef /.notdef /.notdef
 /.notdef /.notdef /.notdef /.notdef /.notdef /.notdef /.notdef /.notdef
 /.notdef /.notdef /.notdef /.notdef /.notdef /.notdef /.notdef /.notdef
 /space /exclam /quotedbl /numbersign /dollar /percent /ampersand /quoteright
 /parenleft /parenright /asterisk /plus /comma /minus /period /slash
 /zero /one /two /three /four /five /six /seven
 /eight /nine /colon /semicolon /less /equal /greater /question
 /at /A /B /C /D /E /F /G
 /H /I /J /K /L /M /N /O
 /P /Q /R /S /T /U /V /W
 /X /Y /Z /bracketleft /backslash /bracketright /asciicircum /underscore
 /grave /a /b /c /d /e /f /g
 /h /i /j /k /l /m /n /o
 /p /q /r /s /t /u /v /w
 /x /y /z /braceleft /bar /braceright /asciitilde /.notdef
 /Euro /.notdef /quotesinglbase /florin /quotedblbase /ellipsis /dagger /daggerdbl
 /circumflex /perthousand /Scaron /guilsinglleft /OE /.notdef /Zcaron /.notdef
 /.notdef /quoteleft /quoteright /quotedblleft /quotedblright /bullet /endash /emdash
 /tilde /trademark /scaron /guilsinglright /oe /.notdef /zcaron /Ydieresis
 /space /exclamdown /cent /sterling /currency /yen /brokenbar /section
 /dieresis /copyright /ordfeminine /guillemotleft /logicalnot /hyphen /registered /macron
 /degree /plusminus /twosuperior /threesuperior /acute /mu /paragraph /periodcentered
 /cedilla /onesuperior /ordmasculine /guillemotright /onequarter /onehalf /threequarters /questiondown
 /Agrave /Aacute /Acircumflex /Atilde /Adieresis /Aring /AE /Ccedilla
 /Egrave /Eacute /Ecircumflex /Edieresis /Igrave /Iacute /Icircumflex /Idieresis
 /Eth /Ntilde /Ograve /Oacute /Ocircumflex /Otilde /Odieresis /multiply
 /Oslash /Ugrave /Uacute /Ucircumflex /Udieresis /Yacute /Thorn /germandbls
 /agrave /aacute /acircumflex /atilde /adieresis /aring /ae /ccedilla
 /egrave /eacute /ecircumflex /edieresis /igrave /iacute /icircumflex /idieresis
 /eth /ntilde /ograve /oacute /ocircumflex /otilde /odieresis /divide
 /oslash /ugrave /uacute /ucircumflex /udieresis /yacute /thorn /ydieresis
]
 def
% end encoding
%%IncludeResource: font Helvetica
/Helvetica findfont
dup length dict begin
  {1 index /FID ne {def} {pop pop} ifelse} forall
  /Encoding WinAnsiEncoding def
  currentdict
  end
/Font1 exch definefont pop
%%IncludeResource: font Helvetica-Bold
/Helvetica-Bold findfont
dup length dict begin
  {1 index /FID ne {def} {pop pop} ifelse} forall
  /Encoding WinAnsiEncoding def
  currentdict
  end
/Font2 exch definefont pop
%%IncludeResource: font Helvetica-Oblique
/Helvetica-Oblique findfont
dup length dict begin
  {1 index /FID ne {def} {pop pop} ifelse} forall
  /Encoding WinAnsiEncoding def
  currentdict
  end
/Font3 exch definefont pop
%%IncludeResource: font Helvetica-BoldOblique
/Helvetica-BoldOblique findfont
dup length dict begin
  {1 index /FID ne {def} {pop pop} ifelse} forall
  /Encoding WinAnsiEncoding def
  currentdict
  end
/Font4 exch definefont pop
%%IncludeResource: font Symbol
/Symbol findfont
dup length dict begin
  {1 index /FID ne {def} {pop pop} ifelse} forall
  currentdict
  end
/Font5 exch definefont pop
%%EndProlog
%%Page: 1 1
bp
0.00 0.00 501.75 312.00 cl
0.00 0.00 501.75 312.00 cl
0.00 0.00 501.75 312.00 cl
0.00 0.00 501.75 312.00 cl
0.00 0.00 501.75 312.00 cl
0.00 0.00 501.75 312.00 cl
0.00 0.00 501.75 312.00 cl
0.00 0.00 501.75 312.00 cl
0.00 0.00 501.75 312.00 cl
/bg { 1 1 1 srgb } def
1 1 1 srgb
1.07 setlinewidth
[] 0 setdash
1 setlinecap
1 setlinejoin
10.00 setmiterlimit
0.00 0.00 501.75 312.00 r p3
0.00 0.00 501.75 312.00 cl
51.56 32.50 496.27 306.52 cl
/bg { 1 1 1 srgb } def
51.56 32.50 444.71 274.02 r p2
0.9216 0.9216 0.9216 srgb
0.53 setlinewidth
[] 0 setdash
0 setlinecap
1 setlinejoin
10.00 setmiterlimit
np
51.56 62.39 m
444.71 0 l
o
np
51.56 123.14 m
444.71 0 l
o
np
51.56 183.89 m
444.71 0 l
o
np
51.56 244.64 m
444.71 0 l
o
np
51.56 305.39 m
444.71 0 l
o
np
94.38 32.50 m
0 274.02 l
o
np
180.01 32.50 m
0 274.02 l
o
np
265.64 32.50 m
0 274.02 l
o
np
351.27 32.50 m
0 274.02 l
o
np
436.90 32.50 m
0 274.02 l
o
1.07 setlinewidth
[] 0 setdash
np
51.56 92.77 m
444.71 0 l
o
np
51.56 153.52 m
444.71 0 l
o
np
51.56 214.27 m
444.71 0 l
o
np
51.56 275.02 m
444.71 0 l
o
np
51.56 32.50 m
0 274.02 l
o
np
137.19 32.50 m
0 274.02 l
o
np
222.82 32.50 m
0 274.02 l
o
np
308.45 32.50 m
0 274.02 l
o
np
394.08 32.50 m
0 274.02 l
o
np
479.71 32.50 m
0 274.02 l
o
0.5294 0.8078 0.9216 srgb
0.71 setlinewidth
[] 0 setdash
1 setlinecap
51.56 52.16 1.95 c p1
54.58 84.75 1.95 c p1
57.56 151.33 1.95 c p1
60.54 173.48 1.95 c p1
63.52 175.15 1.95 c p1
66.50 163.33 1.95 c p1
69.48 247.24 1.95 c p1
72.45 180.48 1.95 c p1
75.43 176.97 1.95 c p1
78.41 154.56 1.95 c p1
81.39 160.81 1.95 c p1
84.37 121.31 1.95 c p1
87.35 180.83 1.95 c p1
90.33 171.84 1.95 c p1
93.31 124.19 1.95 c p1
96.29 130.10 1.95 c p1
99.27 176.30 1.95 c p1
102.24 118.27 1.95 c p1
105.22 58.44 1.95 c p1
108.20 106.69 1.95 c p1
111.18 204.05 1.95 c p1
114.95 161.80 1.95 c p1
117.93 142.49 1.95 c p1
120.91 146.28 1.95 c p1
123.89 195.57 1.95 c p1
126.87 188.85 1.95 c p1
129.85 123.29 1.95 c p1
132.83 127.10 1.95 c p1
135.80 232.57 1.95 c p1
138.78 68.97 1.95 c p1
141.76 100.28 1.95 c p1
144.74 149.10 1.95 c p1
147.72 167.37 1.95 c p1
150.70 158.91 1.95 c p1
153.67 158.23 1.95 c p1
156.65 120.14 1.95 c p1
159.63 157.56 1.95 c p1
162.61 83.36 1.95 c p1
165.59 208.13 1.95 c p1
168.57 294.06 1.95 c p1
171.55 169.26 1.95 c p1
174.53 147.68 1.95 c p1
177.51 233.58 1.95 c p1
180.49 174.78 1.95 c p1
183.47 166.10 1.95 c p1
186.45 159.86 1.95 c p1
189.43 173.42 1.95 c p1
192.41 193.47 1.95 c p1
195.39 154.61 1.95 c p1
198.37 227.78 1.95 c p1
201.35 164.64 1.95 c p1
204.33 107.86 1.95 c p1
207.31 250.75 1.95 c p1
210.28 137.41 1.95 c p1
213.26 206.04 1.95 c p1
216.24 118.35 1.95 c p1
219.22 134.26 1.95 c p1
222.20 69.65 1.95 c p1
225.18 165.30 1.95 c p1
228.16 141.39 1.95 c p1
231.13 78.26 1.95 c p1
234.11 186.89 1.95 c p1
237.09 246.59 1.95 c p1
240.07 256.04 1.95 c p1
243.05 136.00 1.95 c p1
246.03 94.79 1.95 c p1
249.01 115.63 1.95 c p1
251.98 167.85 1.95 c p1
254.96 162.70 1.95 c p1
257.94 176.07 1.95 c p1
260.92 47.92 1.95 c p1
263.90 127.32 1.95 c p1
266.88 146.37 1.95 c p1
269.86 167.46 1.95 c p1
272.83 144.63 1.95 c p1
275.81 150.12 1.95 c p1
278.79 229.19 1.95 c p1
281.77 166.15 1.95 c p1
284.75 111.51 1.95 c p1
287.73 149.22 1.95 c p1
290.71 127.31 1.95 c p1
293.69 166.12 1.95 c p1
296.67 123.13 1.95 c p1
299.65 44.96 1.95 c p1
302.63 138.41 1.95 c p1
305.61 128.57 1.95 c p1
308.59 175.65 1.95 c p1
311.57 227.36 1.95 c p1
314.55 154.42 1.95 c p1
317.52 139.82 1.95 c p1
320.50 203.18 1.95 c p1
323.48 127.18 1.95 c p1
326.46 170.77 1.95 c p1
329.44 101.37 1.95 c p1
332.42 145.03 1.95 c p1
335.40 120.91 1.95 c p1
338.38 115.11 1.95 c p1
341.36 174.62 1.95 c p1
344.33 130.42 1.95 c p1
347.31 136.24 1.95 c p1
350.29 238.52 1.95 c p1
353.27 103.90 1.95 c p1
356.25 142.91 1.95 c p1
359.23 93.50 1.95 c p1
362.21 168.55 1.95 c p1
365.19 225.85 1.95 c p1
368.17 101.81 1.95 c p1
371.15 92.84 1.95 c p1
374.12 150.16 1.95 c p1
377.10 129.19 1.95 c p1
380.08 174.53 1.95 c p1
383.06 146.31 1.95 c p1
386.04 263.52 1.95 c p1
389.02 120.17 1.95 c p1
392.00 138.55 1.95 c p1
394.98 274.08 1.95 c p1
397.96 168.90 1.95 c p1
400.93 143.96 1.95 c p1
403.91 87.05 1.95 c p1
406.89 92.86 1.95 c p1
409.87 140.51 1.95 c p1
412.85 159.36 1.95 c p1
415.83 189.31 1.95 c p1
418.81 128.67 1.95 c p1
421.79 165.62 1.95 c p1
424.77 146.71 1.95 c p1
427.75 191.18 1.95 c p1
430.73 64.81 1.95 c p1
433.71 149.26 1.95 c p1
436.69 53.64 1.95 c p1
439.67 125.01 1.95 c p1
442.65 177.93 1.95 c p1
445.63 136.16 1.95 c p1
448.61 88.40 1.95 c p1
451.59 196.72 1.95 c p1
454.57 158.22 1.95 c p1
457.55 93.66 1.95 c p1
460.53 111.53 1.95 c p1
463.50 137.15 1.95 c p1
466.48 139.87 1.95 c p1
469.46 130.43 1.95 c p1
472.44 109.55 1.95 c p1
475.42 118.28 1.95 c p1
478.40 160.41 1.95 c p1
481.38 234.17 1.95 c p1
484.36 128.93 1.95 c p1
487.34 152.58 1.95 c p1
490.31 217.09 1.95 c p1
493.29 163.14 1.95 c p1
496.27 179.28 1.95 c p1
0.5412 0.1686 0.8863 srgb
1.07 setlinewidth
[] 0 setdash
0 setlinecap
np
51.56 153.52 m
444.71 0 l
o
0.2000 0.2000 0.2000 srgb
1 setlinecap
51.56 32.50 444.71 274.02 r p1
0.00 0.00 501.75 312.00 cl
0.00 0.00 501.75 312.00 cl
0.00 0.00 501.75 312.00 cl
0.00 0.00 501.75 312.00 cl
0.00 0.00 501.75 312.00 cl
0.00 0.00 501.75 312.00 cl
0.00 0.00 501.75 312.00 cl
0.00 0.00 501.75 312.00 cl
0.00 0.00 501.75 312.00 cl
0.00 0.00 501.75 312.00 cl
0.00 0.00 501.75 312.00 cl
0.00 0.00 501.75 312.00 cl
0.00 0.00 501.75 312.00 cl
0.00 0.00 501.75 312.00 cl
0.00 0.00 501.75 312.00 cl
0.00 0.00 501.75 312.00 cl
/Font1 findfont 9 s
0.3020 0.3020 0.3020 srgb
46.63 89.54 (-0.025) 1 0 t
46.63 150.29 (0.000) 1 0 t
46.63 211.04 (0.025) 1 0 t
46.63 271.79 (0.050) 1 0 t
0.00 0.00 501.75 312.00 cl
0.00 0.00 501.75 312.00 cl
0.2000 0.2000 0.2000 srgb
1.07 setlinewidth
[] 0 setdash
0 setlinecap
1 setlinejoin
10.00 setmiterlimit
np
48.82 92.77 m
2.74 0 l
o
np
48.82 153.52 m
2.74 0 l
o
np
48.82 214.27 m
2.74 0 l
o
np
48.82 275.02 m
2.74 0 l
o
0.00 0.00 501.75 312.00 cl
0.00 0.00 501.75 312.00 cl
0.00 0.00 501.75 312.00 cl
0.00 0.00 501.75 312.00 cl
0.00 0.00 501.75 312.00 cl
0.00 0.00 501.75 312.00 cl
0.00 0.00 501.75 312.00 cl
0.00 0.00 501.75 312.00 cl
0.00 0.00 501.75 312.00 cl
0.00 0.00 501.75 312.00 cl
0.2000 0.2000 0.2000 srgb
1.07 setlinewidth
[] 0 setdash
0 setlinecap
1 setlinejoin
10.00 setmiterlimit
np
51.56 29.76 m
0 2.74 l
o
np
137.19 29.76 m
0 2.74 l
o
np
222.82 29.76 m
0 2.74 l
o
np
308.45 29.76 m
0 2.74 l
o
np
394.08 29.76 m
0 2.74 l
o
np
479.71 29.76 m
0 2.74 l
o
0.00 0.00 501.75 312.00 cl
0.00 0.00 501.75 312.00 cl
/Font1 findfont 9 s
0.3020 0.3020 0.3020 srgb
51.56 21.11 (0) .5 0 t
137.19 21.11 (10) .5 0 t
222.82 21.11 (20) .5 0 t
308.45 21.11 (30) .5 0 t
394.08 21.11 (40) .5 0 t
479.71 21.11 (50) .5 0 t
0.00 0.00 501.75 312.00 cl
0.00 0.00 501.75 312.00 cl
0.00 0.00 501.75 312.00 cl
0.00 0.00 501.75 312.00 cl
0.00 0.00 501.75 312.00 cl
0.00 0.00 501.75 312.00 cl
/Font1 findfont 11 s
0 0 0 srgb
273.92 7.73 (t \(s\)) .5 0 t
0.00 0.00 501.75 312.00 cl
0.00 0.00 501.75 312.00 cl
/Font1 findfont 11 s
0 0 0 srgb
13.38 169.51 (Residuals) .5 90 t
0.00 0.00 501.75 312.00 cl
0.00 0.00 501.75 312.00 cl
0.00 0.00 501.75 312.00 cl
0.00 0.00 501.75 312.00 cl
0.00 0.00 501.75 312.00 cl
0.00 0.00 501.75 312.00 cl
0.00 0.00 501.75 312.00 cl
0.00 0.00 501.75 312.00 cl
0.00 0.00 501.75 312.00 cl
0.00 0.00 501.75 312.00 cl
ep
%%Trailer
%%Pages: 1
%%EOF
