%!PS-Adobe-3.0 EPSF-3.0
%%DocumentNeededResources: font Helvetica
%%+ font Helvetica-Bold
%%+ font Helvetica-Oblique
%%+ font Helvetica-BoldOblique
%%+ font Symbol
%%Title: R Graphics Output
%%Creator: R Software
%%Pages: (atend)
%%BoundingBox: 0 0 638 439
%%EndComments
%%BeginProlog
/bp  { gs sRGB gs } def
% begin .ps.prolog
/gs  { gsave } bind def
/gr  { grestore } bind def
/ep  { showpage gr gr } bind def
/m   { moveto } bind def
/l  { rlineto } bind def
/np  { newpath } bind def
/cp  { closepath } bind def
/f   { fill } bind def
/o   { stroke } bind def
/c   { newpath 0 360 arc } bind def
/r   { 4 2 roll moveto 1 copy 3 -1 roll exch 0 exch rlineto 0 rlineto -1 mul 0 exch rlineto closepath } bind def
/p1  { stroke } bind def
/p2  { gsave bg fill grestore newpath } bind def
/p3  { gsave bg fill grestore stroke } bind def
/p6  { gsave bg eofill grestore newpath } bind def
/p7  { gsave bg eofill grestore stroke } bind def
/t   { 5 -2 roll moveto gsave rotate
       1 index stringwidth pop
       mul neg 0 rmoveto show grestore } bind def
/ta  { 4 -2 roll moveto gsave rotate show } bind def
/tb  { 2 -1 roll 0 rmoveto show } bind def
/cl  { grestore gsave newpath 3 index 3 index moveto 1 index
       4 -1 roll lineto  exch 1 index lineto lineto
       closepath clip newpath } bind def
/rgb { setrgbcolor } bind def
/s   { scalefont setfont } bind def
% end   .ps.prolog
/sRGB { [ /CIEBasedABC
          << /DecodeLMN
               [ { dup 0.03928 le
                        {12.92321 div}
                        {0.055 add 1.055 div 2.4 exp }
                     ifelse
                 } bind dup dup
               ]
             /MatrixLMN [0.412457 0.212673 0.019334
                         0.357576 0.715152 0.119192
                         0.180437 0.072175 0.950301]
             /WhitePoint [0.9505 1.0 1.0890]
           >>
         ] setcolorspace } bind def
/srgb { setcolor } bind def
% begin encoding
/WinAnsiEncoding [
 /.notdef /.notdef /.notdef /.notdef /.notdef /.notdef /.notdef /.notdef
 /.notdef /.notdef /.notdef /.notdef /.notdef /.notdef /.notdef /.notdef
 /.notdef /.notdef /.notdef /.notdef /.notdef /.notdef /.notdef /.notdef
 /.notdef /.notdef /.notdef /.notdef /.notdef /.notdef /.notdef /.notdef
 /space /exclam /quotedbl /numbersign /dollar /percent /ampersand /quoteright
 /parenleft /parenright /asterisk /plus /comma /minus /period /slash
 /zero /one /two /three /four /five /six /seven
 /eight /nine /colon /semicolon /less /equal /greater /question
 /at /A /B /C /D /E /F /G
 /H /I /J /K /L /M /N /O
 /P /Q /R /S /T /U /V /W
 /X /Y /Z /bracketleft /backslash /bracketright /asciicircum /underscore
 /grave /a /b /c /d /e /f /g
 /h /i /j /k /l /m /n /o
 /p /q /r /s /t /u /v /w
 /x /y /z /braceleft /bar /braceright /asciitilde /.notdef
 /Euro /.notdef /quotesinglbase /florin /quotedblbase /ellipsis /dagger /daggerdbl
 /circumflex /perthousand /Scaron /guilsinglleft /OE /.notdef /Zcaron /.notdef
 /.notdef /quoteleft /quoteright /quotedblleft /quotedblright /bullet /endash /emdash
 /tilde /trademark /scaron /guilsinglright /oe /.notdef /zcaron /Ydieresis
 /space /exclamdown /cent /sterling /currency /yen /brokenbar /section
 /dieresis /copyright /ordfeminine /guillemotleft /logicalnot /hyphen /registered /macron
 /degree /plusminus /twosuperior /threesuperior /acute /mu /paragraph /periodcentered
 /cedilla /onesuperior /ordmasculine /guillemotright /onequarter /onehalf /threequarters /questiondown
 /Agrave /Aacute /Acircumflex /Atilde /Adieresis /Aring /AE /Ccedilla
 /Egrave /Eacute /Ecircumflex /Edieresis /Igrave /Iacute /Icircumflex /Idieresis
 /Eth /Ntilde /Ograve /Oacute /Ocircumflex /Otilde /Odieresis /multiply
 /Oslash /Ugrave /Uacute /Ucircumflex /Udieresis /Yacute /Thorn /germandbls
 /agrave /aacute /acircumflex /atilde /adieresis /aring /ae /ccedilla
 /egrave /eacute /ecircumflex /edieresis /igrave /iacute /icircumflex /idieresis
 /eth /ntilde /ograve /oacute /ocircumflex /otilde /odieresis /divide
 /oslash /ugrave /uacute /ucircumflex /udieresis /yacute /thorn /ydieresis
]
 def
% end encoding
%%IncludeResource: font Helvetica
/Helvetica findfont
dup length dict begin
  {1 index /FID ne {def} {pop pop} ifelse} forall
  /Encoding WinAnsiEncoding def
  currentdict
  end
/Font1 exch definefont pop
%%IncludeResource: font Helvetica-Bold
/Helvetica-Bold findfont
dup length dict begin
  {1 index /FID ne {def} {pop pop} ifelse} forall
  /Encoding WinAnsiEncoding def
  currentdict
  end
/Font2 exch definefont pop
%%IncludeResource: font Helvetica-Oblique
/Helvetica-Oblique findfont
dup length dict begin
  {1 index /FID ne {def} {pop pop} ifelse} forall
  /Encoding WinAnsiEncoding def
  currentdict
  end
/Font3 exch definefont pop
%%IncludeResource: font Helvetica-BoldOblique
/Helvetica-BoldOblique findfont
dup length dict begin
  {1 index /FID ne {def} {pop pop} ifelse} forall
  /Encoding WinAnsiEncoding def
  currentdict
  end
/Font4 exch definefont pop
%%IncludeResource: font Symbol
/Symbol findfont
dup length dict begin
  {1 index /FID ne {def} {pop pop} ifelse} forall
  currentdict
  end
/Font5 exch definefont pop
%%EndProlog
%%Page: 1 1
bp
0.00 0.00 637.50 438.75 cl
0.00 0.00 637.50 438.75 cl
0.00 0.00 637.50 438.75 cl
0.00 0.00 637.50 438.75 cl
0.00 0.00 637.50 438.75 cl
0.00 0.00 637.50 438.75 cl
0.00 0.00 637.50 438.75 cl
0.00 0.00 637.50 438.75 cl
0.00 0.00 637.50 438.75 cl
/bg { 1 1 1 srgb } def
1 1 1 srgb
1.07 setlinewidth
[] 0 setdash
1 setlinecap
1 setlinejoin
10.00 setmiterlimit
0.00 0.00 637.50 438.75 r p3
0.00 0.00 637.50 438.75 cl
41.30 32.50 579.40 433.27 cl
/bg { 1 1 1 srgb } def
41.30 32.50 538.10 400.77 r p2
0.9216 0.9216 0.9216 srgb
0.53 setlinewidth
[] 0 setdash
0 setlinecap
1 setlinejoin
10.00 setmiterlimit
np
41.30 94.08 m
538.10 0 l
o
np
41.30 180.81 m
538.10 0 l
o
np
41.30 267.54 m
538.10 0 l
o
np
41.30 354.27 m
538.10 0 l
o
np
108.57 32.50 m
0 400.77 l
o
np
243.09 32.50 m
0 400.77 l
o
np
377.62 32.50 m
0 400.77 l
o
np
512.14 32.50 m
0 400.77 l
o
1.07 setlinewidth
[] 0 setdash
np
41.30 50.71 m
538.10 0 l
o
np
41.30 137.44 m
538.10 0 l
o
np
41.30 224.18 m
538.10 0 l
o
np
41.30 310.91 m
538.10 0 l
o
np
41.30 397.64 m
538.10 0 l
o
np
41.30 32.50 m
0 400.77 l
o
np
175.83 32.50 m
0 400.77 l
o
np
310.35 32.50 m
0 400.77 l
o
np
444.88 32.50 m
0 400.77 l
o
np
579.40 32.50 m
0 400.77 l
o
0.9725 0.4627 0.4275 srgb
1.00 setmiterlimit
np
50.27 50.79 m
8.97 0.48 l
8.97 1.22 l
8.97 2.16 l
8.96 3.26 l
8.97 4.43 l
8.97 5.65 l
8.97 6.84 l
8.97 8.01 l
8.97 9.10 l
8.96 10.11 l
8.97 11.02 l
8.97 11.81 l
8.97 12.49 l
8.97 13.05 l
8.97 13.50 l
8.96 13.82 l
8.97 14.04 l
8.97 14.14 l
8.97 14.14 l
8.97 14.05 l
8.97 13.87 l
8.96 13.60 l
8.97 13.27 l
8.97 12.86 l
8.97 12.40 l
8.97 11.89 l
8.97 11.32 l
8.96 10.74 l
8.97 10.10 l
8.97 9.45 l
8.97 8.78 l
8.97 8.10 l
8.97 7.41 l
8.96 6.70 l
8.97 6.02 l
8.97 5.32 l
8.97 4.63 l
8.97 3.96 l
8.97 3.30 l
8.96 2.66 l
8.97 2.03 l
8.97 1.42 l
8.97 0.84 l
8.97 0.27 l
8.97 -0.26 l
8.97 -0.78 l
8.96 -1.27 l
8.97 -1.74 l
8.97 -2.18 l
8.97 -2.59 l
8.97 -2.98 l
8.97 -3.34 l
8.96 -3.68 l
8.97 -3.99 l
8.97 -4.28 l
8.97 -4.54 l
8.97 -4.79 l
8.97 -5.00 l
8.96 -5.21 l
o
0.8275 0.5725 0 srgb
np
50.27 51.02 m
8.97 0.35 l
8.97 0.34 l
8.97 0.36 l
8.96 0.41 l
8.97 0.37 l
8.97 0.49 l
8.97 0.54 l
8.97 0.61 l
8.97 0.46 l
8.96 0.63 l
8.97 0.85 l
8.97 1.05 l
8.97 0.28 l
8.97 0.59 l
8.97 1.47 l
8.96 0.38 l
8.97 1.17 l
8.97 1.67 l
8.97 1.27 l
8.97 -1.20 l
8.97 2.81 l
8.96 -1.85 l
8.97 2.93 l
8.97 1.39 l
8.97 -0.62 l
8.97 -1.02 l
8.97 4.31 l
8.96 0.08 l
8.97 1.43 l
8.97 -1.77 l
8.97 0.93 l
8.97 -0.18 l
8.97 4.97 l
8.96 -0.64 l
8.97 -0.06 l
8.97 -1.45 l
8.97 -1.02 l
8.97 3.01 l
8.97 0.97 l
8.96 -0.76 l
8.97 0.93 l
8.97 1.27 l
8.97 -0.14 l
8.97 1.40 l
8.97 1.03 l
8.97 -2.45 l
8.96 -0.04 l
8.97 0.64 l
8.97 0.79 l
8.97 0.60 l
8.97 0.42 l
8.97 -3.07 l
8.96 2.06 l
8.97 1.51 l
8.97 -0.58 l
8.97 1.13 l
8.97 0.19 l
8.97 0.33 l
8.96 1.35 l
o
0.5765 0.6667 0 srgb
np
50.27 50.89 m
8.97 0.26 l
8.97 0.31 l
8.97 0.39 l
8.96 0.44 l
8.97 0.62 l
8.97 0.81 l
8.97 0.96 l
8.97 1.40 l
8.97 1.39 l
8.96 1.06 l
8.97 2.53 l
8.97 2.35 l
8.97 1.70 l
8.97 1.77 l
8.97 1.67 l
8.96 2.83 l
8.97 2.95 l
8.97 2.25 l
8.97 4.75 l
8.97 -3.02 l
8.97 9.23 l
8.96 0.28 l
8.97 1.34 l
8.97 3.92 l
8.97 -1.24 l
8.97 0.30 l
8.97 8.70 l
8.96 -2.98 l
8.97 1.55 l
8.97 4.50 l
8.97 -3.09 l
8.97 1.97 l
8.97 5.85 l
8.96 2.75 l
8.97 -2.90 l
8.97 0.22 l
8.97 0.43 l
8.97 4.75 l
8.97 -2.65 l
8.96 0 l
8.97 3.53 l
8.97 -1.06 l
8.97 0.94 l
8.97 1.06 l
8.97 -3.55 l
8.97 2.11 l
8.96 3.94 l
8.97 1.08 l
8.97 -2.39 l
8.97 -1.58 l
8.97 1.74 l
8.97 -4.95 l
8.96 0.99 l
8.97 3.16 l
8.97 -3.62 l
8.97 1.90 l
8.97 1.80 l
8.97 -1.93 l
8.96 0.61 l
o
0 0.7294 0.2196 srgb
np
50.27 50.75 m
8.97 0.14 l
8.97 0.27 l
8.97 0.40 l
8.96 0.74 l
8.97 0.97 l
8.97 1.58 l
8.97 1.40 l
8.97 2.52 l
8.97 2.94 l
8.96 2.41 l
8.97 4.75 l
8.97 3.37 l
8.97 5.36 l
8.97 3.75 l
8.97 3.83 l
8.96 5.90 l
8.97 2.22 l
8.97 9.31 l
8.97 2.47 l
8.97 7.09 l
8.97 4.88 l
8.96 2.69 l
8.97 5.65 l
8.97 7.44 l
8.97 -1.74 l
8.97 3.76 l
8.97 7.93 l
8.96 2.55 l
8.97 5.64 l
8.97 -0.41 l
8.97 5.32 l
8.97 3.40 l
8.97 0.70 l
8.96 -0.29 l
8.97 4.20 l
8.97 3.05 l
8.97 2.51 l
8.97 0.32 l
8.97 3.47 l
8.96 7.15 l
8.97 -3.59 l
8.97 -4.52 l
8.97 5.40 l
8.97 -5.76 l
8.97 3.13 l
8.97 -0.87 l
8.96 -2.20 l
8.97 1.78 l
8.97 -3.65 l
8.97 6.40 l
8.97 -5.05 l
8.97 -3.24 l
8.96 4.54 l
8.97 0.44 l
8.97 -1.28 l
8.97 -8.24 l
8.97 6.53 l
8.97 -7.55 l
8.96 -2.79 l
o
0 0.7569 0.6235 srgb
np
50.27 50.72 m
8.97 0.08 l
8.97 0.26 l
8.97 0.58 l
8.96 1.11 l
8.97 1.62 l
8.97 2.43 l
8.97 2.84 l
8.97 3.78 l
8.97 3.95 l
8.96 5.88 l
8.97 4.38 l
8.97 5.55 l
8.97 7.12 l
8.97 6.42 l
8.97 5.10 l
8.96 10.64 l
8.97 6.60 l
8.97 7.12 l
8.97 6.01 l
8.97 9.65 l
8.97 1.67 l
8.96 8.67 l
8.97 8.31 l
8.97 6.52 l
8.97 4.82 l
8.97 11.03 l
8.97 0.33 l
8.96 7.40 l
8.97 13.47 l
8.97 -2.36 l
8.97 2.02 l
8.97 1.72 l
8.97 8.18 l
8.96 5.02 l
8.97 -0.98 l
8.97 7.99 l
8.97 -0.89 l
8.97 11.94 l
8.97 0.46 l
8.96 -11.25 l
8.97 9.46 l
8.97 4.55 l
8.97 -4.29 l
8.97 -2.46 l
8.97 5.98 l
8.97 -0.38 l
8.96 5.40 l
8.97 -10.63 l
8.97 -0.86 l
8.97 2.99 l
8.97 -8.14 l
8.97 1.42 l
8.96 -2.73 l
8.97 4.71 l
8.97 -0.84 l
8.97 -5.07 l
8.97 -5.55 l
8.97 -3.89 l
8.96 -3.16 l
o
0 0.7255 0.8902 srgb
np
50.27 50.72 m
8.97 0.12 l
8.97 0.45 l
8.97 0.97 l
8.96 1.64 l
8.97 2.46 l
8.97 3.40 l
8.97 4.05 l
8.97 4.96 l
8.97 5.12 l
8.96 7.33 l
8.97 6.82 l
8.97 8.59 l
8.97 7.33 l
8.97 8.50 l
8.97 10.85 l
8.96 7.53 l
8.97 12.50 l
8.97 9.26 l
8.97 7.08 l
8.97 8.83 l
8.97 13.58 l
8.96 5.08 l
8.97 12.66 l
8.97 6.96 l
8.97 7.78 l
8.97 9.55 l
8.97 10.28 l
8.96 5.87 l
8.97 4.20 l
8.97 6.57 l
8.97 7.90 l
8.97 1.74 l
8.97 8.51 l
8.96 2.80 l
8.97 1.58 l
8.97 5.37 l
8.97 8.51 l
8.97 3.95 l
8.97 4.20 l
8.96 -2.07 l
8.97 -4.59 l
8.97 -0.87 l
8.97 7.28 l
8.97 0.31 l
8.97 -1.26 l
8.97 -6.28 l
8.96 3.63 l
8.97 7.74 l
8.97 -4.59 l
8.97 -4.63 l
8.97 -1.99 l
8.97 2.72 l
8.96 -9.86 l
8.97 3.02 l
8.97 -3.98 l
8.97 -2.57 l
8.97 -2.12 l
8.97 -3.80 l
8.96 -3.77 l
o
0.3804 0.6118 1 srgb
np
50.27 50.74 m
8.97 0.26 l
8.97 0.78 l
8.97 1.54 l
8.96 2.48 l
8.97 3.28 l
8.97 4.56 l
8.97 5.26 l
8.97 6.37 l
8.97 7.79 l
8.96 7.86 l
8.97 9.51 l
8.97 9.01 l
8.97 10.33 l
8.97 11.26 l
8.97 11.34 l
8.96 11.55 l
8.97 13.81 l
8.97 10.35 l
8.97 11.97 l
8.97 11.07 l
8.97 13.54 l
8.96 12.60 l
8.97 6.57 l
8.97 12.76 l
8.97 12.67 l
8.97 7.63 l
8.97 4.43 l
8.96 13.85 l
8.97 10.07 l
8.97 3.64 l
8.97 9.45 l
8.97 8.72 l
8.97 4.42 l
8.96 9.81 l
8.97 2.44 l
8.97 10.59 l
8.97 0.79 l
8.97 -1.57 l
8.97 6.22 l
8.96 -1.87 l
8.97 1.90 l
8.97 -0.86 l
8.97 4.40 l
8.97 6.22 l
8.97 -1.04 l
8.97 -10.99 l
8.96 3.34 l
8.97 1.57 l
8.97 -3.79 l
8.97 0.80 l
8.97 -7.09 l
8.97 -0.85 l
8.96 4.70 l
8.97 -7.02 l
8.97 -2.56 l
8.97 -5.94 l
8.97 -3.76 l
8.97 -6.06 l
8.96 -7.64 l
o
0.8588 0.4471 0.9843 srgb
np
50.27 50.78 m
8.97 0.44 l
8.97 1.11 l
8.97 2.06 l
8.96 3.11 l
8.97 4.23 l
8.97 5.39 l
8.97 6.55 l
8.97 7.65 l
8.97 8.78 l
8.96 10.00 l
8.97 10.71 l
8.97 10.38 l
8.97 12.73 l
8.97 12.33 l
8.97 14.30 l
8.96 12.87 l
8.97 13.21 l
8.97 14.00 l
8.97 12.48 l
8.97 14.54 l
8.97 13.28 l
8.96 13.46 l
8.97 11.39 l
8.97 13.45 l
8.97 11.64 l
8.97 10.92 l
8.97 12.74 l
8.96 10.38 l
8.97 9.06 l
8.97 10.60 l
8.97 9.40 l
8.97 4.66 l
8.97 9.97 l
8.96 5.56 l
8.97 4.69 l
8.97 5.80 l
8.97 2.64 l
8.97 4.50 l
8.97 4.56 l
8.96 2.93 l
8.97 3.19 l
8.97 -2.61 l
8.97 3.60 l
8.97 -1.98 l
8.97 0.45 l
8.97 -0.04 l
8.96 -3.46 l
8.97 1.43 l
8.97 -2.94 l
8.97 -4.68 l
8.97 -1.33 l
8.97 -1.89 l
8.96 -3.71 l
8.97 -4.81 l
8.97 -3.63 l
8.97 -4.84 l
8.97 -4.14 l
8.97 -7.23 l
8.96 -4.82 l
o
1 0.3804 0.7647 srgb
np
50.27 51.07 m
8.97 0.37 l
8.97 0.36 l
8.97 0.36 l
8.96 0.36 l
8.97 0.36 l
8.97 0.36 l
8.97 0.36 l
8.97 0.36 l
8.97 0.37 l
8.96 0.36 l
8.97 0.36 l
8.97 0.36 l
8.97 0.36 l
8.97 0.36 l
8.97 0.36 l
8.96 0.37 l
8.97 0.36 l
8.97 0.36 l
8.97 0.36 l
8.97 0.36 l
8.97 0.36 l
8.96 0.36 l
8.97 0.37 l
8.97 0.36 l
8.97 0.36 l
8.97 0.36 l
8.97 0.36 l
8.96 0.36 l
8.97 0.36 l
8.97 0.37 l
8.97 0.36 l
8.97 0.36 l
8.97 0.36 l
8.96 0.36 l
8.97 0.36 l
8.97 0.36 l
8.97 0.37 l
8.97 0.36 l
8.97 0.36 l
8.96 0.36 l
8.97 0.36 l
8.97 0.36 l
8.97 0.36 l
8.97 0.36 l
8.97 0.37 l
8.97 0.36 l
8.96 0.36 l
8.97 0.36 l
8.97 0.36 l
8.97 0.36 l
8.97 0.36 l
8.97 0.37 l
8.96 0.36 l
8.97 0.36 l
8.97 0.36 l
8.97 0.36 l
8.97 0.36 l
8.97 0.36 l
8.96 0.37 l
o
0.2000 0.2000 0.2000 srgb
1 setlinecap
10.00 setmiterlimit
41.30 32.50 538.10 400.77 r p1
0.00 0.00 637.50 438.75 cl
0.00 0.00 637.50 438.75 cl
0.00 0.00 637.50 438.75 cl
0.00 0.00 637.50 438.75 cl
0.00 0.00 637.50 438.75 cl
0.00 0.00 637.50 438.75 cl
0.00 0.00 637.50 438.75 cl
0.00 0.00 637.50 438.75 cl
0.00 0.00 637.50 438.75 cl
0.00 0.00 637.50 438.75 cl
0.00 0.00 637.50 438.75 cl
0.00 0.00 637.50 438.75 cl
0.00 0.00 637.50 438.75 cl
0.00 0.00 637.50 438.75 cl
0.00 0.00 637.50 438.75 cl
0.00 0.00 637.50 438.75 cl
/Font1 findfont 9 s
0.3020 0.3020 0.3020 srgb
36.37 47.48 (0.00) 1 0 t
36.37 134.21 (0.02) 1 0 t
36.37 220.94 (0.04) 1 0 t
36.37 307.68 (0.06) 1 0 t
36.37 394.41 (0.08) 1 0 t
0.00 0.00 637.50 438.75 cl
0.00 0.00 637.50 438.75 cl
0.2000 0.2000 0.2000 srgb
1.07 setlinewidth
[] 0 setdash
0 setlinecap
1 setlinejoin
10.00 setmiterlimit
np
38.56 50.71 m
2.74 0 l
o
np
38.56 137.44 m
2.74 0 l
o
np
38.56 224.18 m
2.74 0 l
o
np
38.56 310.91 m
2.74 0 l
o
np
38.56 397.64 m
2.74 0 l
o
0.00 0.00 637.50 438.75 cl
0.00 0.00 637.50 438.75 cl
0.00 0.00 637.50 438.75 cl
0.00 0.00 637.50 438.75 cl
0.00 0.00 637.50 438.75 cl
0.00 0.00 637.50 438.75 cl
0.00 0.00 637.50 438.75 cl
0.00 0.00 637.50 438.75 cl
0.00 0.00 637.50 438.75 cl
0.00 0.00 637.50 438.75 cl
0.2000 0.2000 0.2000 srgb
1.07 setlinewidth
[] 0 setdash
0 setlinecap
1 setlinejoin
10.00 setmiterlimit
np
41.30 29.76 m
0 2.74 l
o
np
175.83 29.76 m
0 2.74 l
o
np
310.35 29.76 m
0 2.74 l
o
np
444.88 29.76 m
0 2.74 l
o
np
579.40 29.76 m
0 2.74 l
o
0.00 0.00 637.50 438.75 cl
0.00 0.00 637.50 438.75 cl
/Font1 findfont 9 s
0.3020 0.3020 0.3020 srgb
41.30 21.11 (0.00) .5 0 t
175.83 21.11 (0.25) .5 0 t
310.35 21.11 (0.50) .5 0 t
444.88 21.11 (0.75) .5 0 t
579.40 21.11 (1.00) .5 0 t
0.00 0.00 637.50 438.75 cl
0.00 0.00 637.50 438.75 cl
0.00 0.00 637.50 438.75 cl
0.00 0.00 637.50 438.75 cl
0.00 0.00 637.50 438.75 cl
0.00 0.00 637.50 438.75 cl
/Font1 findfont 11 s
0 0 0 srgb
310.35 7.73 (t \(s\)) .5 0 t
0.00 0.00 637.50 438.75 cl
0.00 0.00 637.50 438.75 cl
/Font1 findfont 11 s
0 0 0 srgb
13.38 232.89 (T) .5 90 t
0.00 0.00 637.50 438.75 cl
0.00 0.00 637.50 438.75 cl
0.00 0.00 637.50 438.75 cl
0.00 0.00 637.50 438.75 cl
0.00 0.00 637.50 438.75 cl
0.00 0.00 637.50 438.75 cl
0.00 0.00 637.50 438.75 cl
0.00 0.00 637.50 438.75 cl
/bg { 1 1 1 srgb } def
590.74 142.80 41.28 180.18 r p2
0.00 0.00 637.50 438.75 cl
0.00 0.00 637.50 438.75 cl
/Font1 findfont 11 s
0 0 0 srgb
596.41 308.86 (k) 0 0 t
0.00 0.00 637.50 438.75 cl
0.00 0.00 637.50 438.75 cl
/bg { 1 1 1 srgb } def
596.41 286.71 17.28 17.28 r p2
0.00 0.00 637.50 438.75 cl
0.00 0.00 637.50 438.75 cl
0.9725 0.4627 0.4275 srgb
1.07 setlinewidth
[] 0 setdash
0 setlinecap
1 setlinejoin
10.00 setmiterlimit
np
598.14 295.35 m
13.82 0 l
o
0.00 0.00 637.50 438.75 cl
0.00 0.00 637.50 438.75 cl
/bg { 1 1 1 srgb } def
596.41 269.43 17.28 17.28 r p2
0.00 0.00 637.50 438.75 cl
0.00 0.00 637.50 438.75 cl
0.8275 0.5725 0 srgb
1.07 setlinewidth
[] 0 setdash
0 setlinecap
1 setlinejoin
10.00 setmiterlimit
np
598.14 278.07 m
13.82 0 l
o
0.00 0.00 637.50 438.75 cl
0.00 0.00 637.50 438.75 cl
/bg { 1 1 1 srgb } def
596.41 252.15 17.28 17.28 r p2
0.00 0.00 637.50 438.75 cl
0.00 0.00 637.50 438.75 cl
0.5765 0.6667 0 srgb
1.07 setlinewidth
[] 0 setdash
0 setlinecap
1 setlinejoin
10.00 setmiterlimit
np
598.14 260.79 m
13.82 0 l
o
0.00 0.00 637.50 438.75 cl
0.00 0.00 637.50 438.75 cl
/bg { 1 1 1 srgb } def
596.41 234.87 17.28 17.28 r p2
0.00 0.00 637.50 438.75 cl
0.00 0.00 637.50 438.75 cl
0 0.7294 0.2196 srgb
1.07 setlinewidth
[] 0 setdash
0 setlinecap
1 setlinejoin
10.00 setmiterlimit
np
598.14 243.51 m
13.82 0 l
o
0.00 0.00 637.50 438.75 cl
0.00 0.00 637.50 438.75 cl
/bg { 1 1 1 srgb } def
596.41 217.59 17.28 17.28 r p2
0.00 0.00 637.50 438.75 cl
0.00 0.00 637.50 438.75 cl
0 0.7569 0.6235 srgb
1.07 setlinewidth
[] 0 setdash
0 setlinecap
1 setlinejoin
10.00 setmiterlimit
np
598.14 226.23 m
13.82 0 l
o
0.00 0.00 637.50 438.75 cl
0.00 0.00 637.50 438.75 cl
/bg { 1 1 1 srgb } def
596.41 200.31 17.28 17.28 r p2
0.00 0.00 637.50 438.75 cl
0.00 0.00 637.50 438.75 cl
0 0.7255 0.8902 srgb
1.07 setlinewidth
[] 0 setdash
0 setlinecap
1 setlinejoin
10.00 setmiterlimit
np
598.14 208.95 m
13.82 0 l
o
0.00 0.00 637.50 438.75 cl
0.00 0.00 637.50 438.75 cl
/bg { 1 1 1 srgb } def
596.41 183.03 17.28 17.28 r p2
0.00 0.00 637.50 438.75 cl
0.00 0.00 637.50 438.75 cl
0.3804 0.6118 1 srgb
1.07 setlinewidth
[] 0 setdash
0 setlinecap
1 setlinejoin
10.00 setmiterlimit
np
598.14 191.67 m
13.82 0 l
o
0.00 0.00 637.50 438.75 cl
0.00 0.00 637.50 438.75 cl
/bg { 1 1 1 srgb } def
596.41 165.75 17.28 17.28 r p2
0.00 0.00 637.50 438.75 cl
0.00 0.00 637.50 438.75 cl
0.8588 0.4471 0.9843 srgb
1.07 setlinewidth
[] 0 setdash
0 setlinecap
1 setlinejoin
10.00 setmiterlimit
np
598.14 174.39 m
13.82 0 l
o
0.00 0.00 637.50 438.75 cl
0.00 0.00 637.50 438.75 cl
/bg { 1 1 1 srgb } def
596.41 148.47 17.28 17.28 r p2
0.00 0.00 637.50 438.75 cl
0.00 0.00 637.50 438.75 cl
1 0.3804 0.7647 srgb
1.07 setlinewidth
[] 0 setdash
0 setlinecap
1 setlinejoin
10.00 setmiterlimit
np
598.14 157.11 m
13.82 0 l
o
0.00 0.00 637.50 438.75 cl
0.00 0.00 637.50 438.75 cl
/Font1 findfont 9 s
0 0 0 srgb
615.85 292.11 (1) 0 0 t
0.00 0.00 637.50 438.75 cl
0.00 0.00 637.50 438.75 cl
/Font1 findfont 9 s
0 0 0 srgb
615.85 274.83 (2) 0 0 t
0.00 0.00 637.50 438.75 cl
0.00 0.00 637.50 438.75 cl
/Font1 findfont 9 s
0 0 0 srgb
615.85 257.55 (5) 0 0 t
0.00 0.00 637.50 438.75 cl
0.00 0.00 637.50 438.75 cl
/Font1 findfont 9 s
0 0 0 srgb
615.85 240.27 (10) 0 0 t
0.00 0.00 637.50 438.75 cl
0.00 0.00 637.50 438.75 cl
/Font1 findfont 9 s
0 0 0 srgb
615.85 222.99 (15) 0 0 t
0.00 0.00 637.50 438.75 cl
0.00 0.00 637.50 438.75 cl
/Font1 findfont 9 s
0 0 0 srgb
615.85 205.71 (20) 0 0 t
0.00 0.00 637.50 438.75 cl
0.00 0.00 637.50 438.75 cl
/Font1 findfont 9 s
0 0 0 srgb
615.85 188.43 (25) 0 0 t
0.00 0.00 637.50 438.75 cl
0.00 0.00 637.50 438.75 cl
/Font1 findfont 9 s
0 0 0 srgb
615.85 171.15 (29) 0 0 t
0.00 0.00 637.50 438.75 cl
0.00 0.00 637.50 438.75 cl
/Font1 findfont 9 s
0 0 0 srgb
615.85 153.87 (30) 0 0 t
0.00 0.00 637.50 438.75 cl
0.00 0.00 637.50 438.75 cl
0.00 0.00 637.50 438.75 cl
0.00 0.00 637.50 438.75 cl
0.00 0.00 637.50 438.75 cl
0.00 0.00 637.50 438.75 cl
0.00 0.00 637.50 438.75 cl
0.00 0.00 637.50 438.75 cl
0.00 0.00 637.50 438.75 cl
0.00 0.00 637.50 438.75 cl
ep
%%Trailer
%%Pages: 1
%%EOF
