%!PS-Adobe-3.0 EPSF-3.0
%%DocumentNeededResources: font Helvetica
%%+ font Helvetica-Bold
%%+ font Helvetica-Oblique
%%+ font Helvetica-BoldOblique
%%+ font Symbol
%%Title: R Graphics Output
%%Creator: R Software
%%Pages: (atend)
%%BoundingBox: 128 302 484 491
%%EndComments
%%BeginProlog
/bp  { gs gs } def
% begin .ps.prolog
/gs  { gsave } bind def
/gr  { grestore } bind def
/ep  { showpage gr gr } bind def
/m   { moveto } bind def
/l  { rlineto } bind def
/np  { newpath } bind def
/cp  { closepath } bind def
/f   { fill } bind def
/o   { stroke } bind def
/c   { newpath 0 360 arc } bind def
/r   { 4 2 roll moveto 1 copy 3 -1 roll exch 0 exch rlineto 0 rlineto -1 mul 0 exch rlineto closepath } bind def
/p1  { stroke } bind def
/p2  { gsave bg fill grestore newpath } bind def
/p3  { gsave bg fill grestore stroke } bind def
/p6  { gsave bg eofill grestore newpath } bind def
/p7  { gsave bg eofill grestore stroke } bind def
/t   { 5 -2 roll moveto gsave rotate
       1 index stringwidth pop
       mul neg 0 rmoveto show grestore } bind def
/ta  { 4 -2 roll moveto gsave rotate show } bind def
/tb  { 2 -1 roll 0 rmoveto show } bind def
/cl  { grestore gsave newpath 3 index 3 index moveto 1 index
       4 -1 roll lineto  exch 1 index lineto lineto
       closepath clip newpath } bind def
/rgb { setrgbcolor } bind def
/s   { scalefont setfont } bind def
% end   .ps.prolog
%%IncludeResource: font Helvetica
/Helvetica findfont
dup length dict begin
  {1 index /FID ne {def} {pop pop} ifelse} forall
  /Encoding ISOLatin1Encoding def
  currentdict
  end
/Font1 exch definefont pop
%%IncludeResource: font Helvetica-Bold
/Helvetica-Bold findfont
dup length dict begin
  {1 index /FID ne {def} {pop pop} ifelse} forall
  /Encoding ISOLatin1Encoding def
  currentdict
  end
/Font2 exch definefont pop
%%IncludeResource: font Helvetica-Oblique
/Helvetica-Oblique findfont
dup length dict begin
  {1 index /FID ne {def} {pop pop} ifelse} forall
  /Encoding ISOLatin1Encoding def
  currentdict
  end
/Font3 exch definefont pop
%%IncludeResource: font Helvetica-BoldOblique
/Helvetica-BoldOblique findfont
dup length dict begin
  {1 index /FID ne {def} {pop pop} ifelse} forall
  /Encoding ISOLatin1Encoding def
  currentdict
  end
/Font4 exch definefont pop
%%IncludeResource: font Symbol
/Symbol findfont
dup length dict begin
  {1 index /FID ne {def} {pop pop} ifelse} forall
  currentdict
  end
/Font5 exch definefont pop
%%EndProlog
%%Page: 1 1
bp
127.88 301.50 484.13 490.50 cl
127.88 301.50 484.13 490.50 cl
127.88 301.50 484.13 490.50 cl
127.88 301.50 484.13 490.50 cl
127.88 301.50 484.13 490.50 cl
127.88 301.50 484.13 490.50 cl
127.88 301.50 484.13 490.50 cl
127.88 301.50 484.13 490.50 cl
127.88 301.50 484.13 490.50 cl
/bg { 1 setgray } def
1 setgray
1.07 setlinewidth
[] 0 setdash
1 setlinecap
1 setlinejoin
10.00 setmiterlimit
127.88 301.50 356.25 189.00 r p3
127.88 301.50 484.13 490.50 cl
179.44 334.00 478.65 485.02 cl
/bg { 1 setgray } def
179.44 334.00 299.21 151.02 r p2
0.9216 setgray
0.53 setlinewidth
[] 0 setdash
0 setlinecap
1 setlinejoin
10.00 setmiterlimit
np
179.44 345.88 m
299.21 0 l
o
np
179.44 375.37 m
299.21 0 l
o
np
179.44 404.86 m
299.21 0 l
o
np
179.44 434.36 m
299.21 0 l
o
np
179.44 463.85 m
299.21 0 l
o
np
208.23 334.00 m
0 151.02 l
o
np
265.83 334.00 m
0 151.02 l
o
np
323.42 334.00 m
0 151.02 l
o
np
381.02 334.00 m
0 151.02 l
o
np
438.61 334.00 m
0 151.02 l
o
1.07 setlinewidth
[] 0 setdash
np
179.44 360.62 m
299.21 0 l
o
np
179.44 390.12 m
299.21 0 l
o
np
179.44 419.61 m
299.21 0 l
o
np
179.44 449.10 m
299.21 0 l
o
np
179.44 478.60 m
299.21 0 l
o
np
179.44 334.00 m
0 151.02 l
o
np
237.03 334.00 m
0 151.02 l
o
np
294.63 334.00 m
0 151.02 l
o
np
352.22 334.00 m
0 151.02 l
o
np
409.81 334.00 m
0 151.02 l
o
np
467.41 334.00 m
0 151.02 l
o
/bg { 0 0 1 rgb } def
0 0 1 rgb
0.71 setlinewidth
[] 0 setdash
1 setlinecap
179.44 358.14 1.95 c p3
181.67 439.92 1.95 c p3
183.68 384.61 1.95 c p3
185.68 377.49 1.95 c p3
187.69 367.26 1.95 c p3
189.69 356.52 1.95 c p3
191.69 408.20 1.95 c p3
193.70 400.05 1.95 c p3
195.70 373.42 1.95 c p3
197.70 382.30 1.95 c p3
199.71 390.98 1.95 c p3
201.71 414.19 1.95 c p3
203.71 378.26 1.95 c p3
205.72 381.39 1.95 c p3
207.72 393.05 1.95 c p3
209.72 377.42 1.95 c p3
211.73 396.24 1.95 c p3
213.73 390.59 1.95 c p3
215.74 407.91 1.95 c p3
217.74 397.49 1.95 c p3
219.74 370.52 1.95 c p3
222.17 384.45 1.95 c p3
224.18 392.68 1.95 c p3
226.18 389.04 1.95 c p3
228.19 470.91 1.95 c p3
230.19 398.88 1.95 c p3
232.20 359.01 1.95 c p3
234.20 451.14 1.95 c p3
236.20 358.53 1.95 c p3
238.20 359.45 1.95 c p3
240.21 370.77 1.95 c p3
242.21 397.88 1.95 c p3
244.22 383.34 1.95 c p3
246.22 363.99 1.95 c p3
248.22 353.75 1.95 c p3
250.22 353.97 1.95 c p3
252.23 358.77 1.95 c p3
254.23 392.70 1.95 c p3
256.24 378.10 1.95 c p3
258.24 473.32 1.95 c p3
260.24 429.80 1.95 c p3
262.25 383.83 1.95 c p3
264.25 422.53 1.95 c p3
266.25 394.08 1.95 c p3
268.26 392.14 1.95 c p3
270.26 387.67 1.95 c p3
272.27 381.80 1.95 c p3
274.27 382.82 1.95 c p3
276.27 355.20 1.95 c p3
278.27 342.67 1.95 c p3
280.28 345.42 1.95 c p3
282.28 360.73 1.95 c p3
284.29 403.70 1.95 c p3
286.29 409.50 1.95 c p3
288.30 416.69 1.95 c p3
290.30 376.45 1.95 c p3
292.30 418.32 1.95 c p3
294.30 415.87 1.95 c p3
296.31 354.06 1.95 c p3
298.31 388.75 1.95 c p3
300.32 383.64 1.95 c p3
302.32 351.17 1.95 c p3
304.33 373.32 1.95 c p3
306.32 370.19 1.95 c p3
308.33 382.22 1.95 c p3
310.33 391.08 1.95 c p3
312.34 359.46 1.95 c p3
314.34 377.84 1.95 c p3
316.35 392.25 1.95 c p3
318.35 380.24 1.95 c p3
320.35 377.46 1.95 c p3
322.35 441.63 1.95 c p3
324.36 340.86 1.95 c p3
326.36 367.36 1.95 c p3
328.37 402.23 1.95 c p3
330.37 400.18 1.95 c p3
332.38 419.87 1.95 c p3
334.38 386.37 1.95 c p3
336.38 403.64 1.95 c p3
338.38 388.59 1.95 c p3
340.39 379.47 1.95 c p3
342.39 412.60 1.95 c p3
344.40 384.70 1.95 c p3
346.40 405.78 1.95 c p3
348.41 375.92 1.95 c p3
350.41 387.68 1.95 c p3
352.41 430.30 1.95 c p3
354.41 362.15 1.95 c p3
356.42 394.87 1.95 c p3
358.42 447.38 1.95 c p3
360.43 365.29 1.95 c p3
362.43 437.55 1.95 c p3
364.44 398.88 1.95 c p3
366.44 363.22 1.95 c p3
368.44 389.76 1.95 c p3
370.44 438.34 1.95 c p3
372.45 387.15 1.95 c p3
374.45 372.38 1.95 c p3
376.46 393.92 1.95 c p3
378.46 415.51 1.95 c p3
380.46 411.25 1.95 c p3
382.47 397.80 1.95 c p3
384.47 358.56 1.95 c p3
386.47 429.70 1.95 c p3
388.48 418.49 1.95 c p3
390.48 393.60 1.95 c p3
392.49 405.69 1.95 c p3
394.49 357.62 1.95 c p3
396.49 408.26 1.95 c p3
398.50 406.81 1.95 c p3
400.50 389.35 1.95 c p3
402.50 390.27 1.95 c p3
404.51 382.62 1.95 c p3
406.51 385.57 1.95 c p3
408.51 439.32 1.95 c p3
410.52 391.18 1.95 c p3
412.52 416.12 1.95 c p3
414.53 379.07 1.95 c p3
416.53 465.14 1.95 c p3
418.54 388.04 1.95 c p3
420.54 434.91 1.95 c p3
422.55 440.20 1.95 c p3
424.54 406.53 1.95 c p3
426.55 418.97 1.95 c p3
428.55 399.97 1.95 c p3
430.56 417.13 1.95 c p3
432.56 419.26 1.95 c p3
434.57 406.13 1.95 c p3
436.57 370.95 1.95 c p3
438.57 412.37 1.95 c p3
440.57 382.36 1.95 c p3
442.58 415.94 1.95 c p3
444.58 354.08 1.95 c p3
446.59 416.44 1.95 c p3
448.59 403.94 1.95 c p3
450.60 466.63 1.95 c p3
452.60 415.24 1.95 c p3
454.60 398.95 1.95 c p3
456.60 478.16 1.95 c p3
458.61 400.90 1.95 c p3
460.61 418.22 1.95 c p3
462.62 410.11 1.95 c p3
464.62 393.91 1.95 c p3
466.62 404.34 1.95 c p3
468.63 411.89 1.95 c p3
470.63 408.74 1.95 c p3
472.63 411.20 1.95 c p3
474.64 397.80 1.95 c p3
476.64 369.74 1.95 c p3
478.65 457.08 1.95 c p3
0.2000 setgray
1.07 setlinewidth
[] 0 setdash
179.44 334.00 299.21 151.02 r p1
127.88 301.50 484.13 490.50 cl
127.88 301.50 484.13 490.50 cl
127.88 301.50 484.13 490.50 cl
127.88 301.50 484.13 490.50 cl
127.88 301.50 484.13 490.50 cl
127.88 301.50 484.13 490.50 cl
127.88 301.50 484.13 490.50 cl
127.88 301.50 484.13 490.50 cl
127.88 301.50 484.13 490.50 cl
127.88 301.50 484.13 490.50 cl
127.88 301.50 484.13 490.50 cl
127.88 301.50 484.13 490.50 cl
127.88 301.50 484.13 490.50 cl
127.88 301.50 484.13 490.50 cl
127.88 301.50 484.13 490.50 cl
127.88 301.50 484.13 490.50 cl
/Font1 findfont 9 s
0.3020 setgray
174.51 357.39 (-0.025) 1 0 t
174.51 386.88 (0.000) 1 0 t
174.51 416.38 (0.025) 1 0 t
174.51 445.87 (0.050) 1 0 t
174.51 475.37 (0.075) 1 0 t
127.88 301.50 484.13 490.50 cl
127.88 301.50 484.13 490.50 cl
0.2000 setgray
1.07 setlinewidth
[] 0 setdash
0 setlinecap
1 setlinejoin
10.00 setmiterlimit
np
176.70 360.62 m
2.74 0 l
o
np
176.70 390.12 m
2.74 0 l
o
np
176.70 419.61 m
2.74 0 l
o
np
176.70 449.10 m
2.74 0 l
o
np
176.70 478.60 m
2.74 0 l
o
127.88 301.50 484.13 490.50 cl
127.88 301.50 484.13 490.50 cl
127.88 301.50 484.13 490.50 cl
127.88 301.50 484.13 490.50 cl
127.88 301.50 484.13 490.50 cl
127.88 301.50 484.13 490.50 cl
127.88 301.50 484.13 490.50 cl
127.88 301.50 484.13 490.50 cl
127.88 301.50 484.13 490.50 cl
127.88 301.50 484.13 490.50 cl
0.2000 setgray
1.07 setlinewidth
[] 0 setdash
0 setlinecap
1 setlinejoin
10.00 setmiterlimit
np
179.44 331.26 m
0 2.74 l
o
np
237.03 331.26 m
0 2.74 l
o
np
294.63 331.26 m
0 2.74 l
o
np
352.22 331.26 m
0 2.74 l
o
np
409.81 331.26 m
0 2.74 l
o
np
467.41 331.26 m
0 2.74 l
o
127.88 301.50 484.13 490.50 cl
127.88 301.50 484.13 490.50 cl
/Font1 findfont 9 s
0.3020 setgray
179.44 322.61 (0) .5 0 t
237.03 322.61 (10) .5 0 t
294.63 322.61 (20) .5 0 t
352.22 322.61 (30) .5 0 t
409.81 322.61 (40) .5 0 t
467.41 322.61 (50) .5 0 t
127.88 301.50 484.13 490.50 cl
127.88 301.50 484.13 490.50 cl
127.88 301.50 484.13 490.50 cl
127.88 301.50 484.13 490.50 cl
127.88 301.50 484.13 490.50 cl
127.88 301.50 484.13 490.50 cl
/Font1 findfont 11 s
0 setgray
329.04 309.23 (t \(s\)) .5 0 t
127.88 301.50 484.13 490.50 cl
127.88 301.50 484.13 490.50 cl
/Font1 findfont 11 s
0 setgray
141.25 409.51 (Residuals) .5 90 t
127.88 301.50 484.13 490.50 cl
127.88 301.50 484.13 490.50 cl
127.88 301.50 484.13 490.50 cl
127.88 301.50 484.13 490.50 cl
127.88 301.50 484.13 490.50 cl
127.88 301.50 484.13 490.50 cl
127.88 301.50 484.13 490.50 cl
127.88 301.50 484.13 490.50 cl
127.88 301.50 484.13 490.50 cl
127.88 301.50 484.13 490.50 cl
ep
%%Trailer
%%Pages: 1
%%EOF
