%!PS-Adobe-3.0 EPSF-3.0
%%DocumentNeededResources: font Helvetica
%%+ font Helvetica-Bold
%%+ font Helvetica-Oblique
%%+ font Helvetica-BoldOblique
%%+ font Symbol
%%Title: R Graphics Output
%%Creator: R Software
%%Pages: (atend)
%%BoundingBox: 0 0 397 235
%%EndComments
%%BeginProlog
/bp  { gs sRGB gs } def
% begin .ps.prolog
/gs  { gsave } bind def
/gr  { grestore } bind def
/ep  { showpage gr gr } bind def
/m   { moveto } bind def
/l  { rlineto } bind def
/np  { newpath } bind def
/cp  { closepath } bind def
/f   { fill } bind def
/o   { stroke } bind def
/c   { newpath 0 360 arc } bind def
/r   { 4 2 roll moveto 1 copy 3 -1 roll exch 0 exch rlineto 0 rlineto -1 mul 0 exch rlineto closepath } bind def
/p1  { stroke } bind def
/p2  { gsave bg fill grestore newpath } bind def
/p3  { gsave bg fill grestore stroke } bind def
/p6  { gsave bg eofill grestore newpath } bind def
/p7  { gsave bg eofill grestore stroke } bind def
/t   { 5 -2 roll moveto gsave rotate
       1 index stringwidth pop
       mul neg 0 rmoveto show grestore } bind def
/ta  { 4 -2 roll moveto gsave rotate show } bind def
/tb  { 2 -1 roll 0 rmoveto show } bind def
/cl  { grestore gsave newpath 3 index 3 index moveto 1 index
       4 -1 roll lineto  exch 1 index lineto lineto
       closepath clip newpath } bind def
/rgb { setrgbcolor } bind def
/s   { scalefont setfont } bind def
% end   .ps.prolog
/sRGB { [ /CIEBasedABC
          << /DecodeLMN
               [ { dup 0.03928 le
                        {12.92321 div}
                        {0.055 add 1.055 div 2.4 exp }
                     ifelse
                 } bind dup dup
               ]
             /MatrixLMN [0.412457 0.212673 0.019334
                         0.357576 0.715152 0.119192
                         0.180437 0.072175 0.950301]
             /WhitePoint [0.9505 1.0 1.0890]
           >>
         ] setcolorspace } bind def
/srgb { setcolor } bind def
% begin encoding
/WinAnsiEncoding [
 /.notdef /.notdef /.notdef /.notdef /.notdef /.notdef /.notdef /.notdef
 /.notdef /.notdef /.notdef /.notdef /.notdef /.notdef /.notdef /.notdef
 /.notdef /.notdef /.notdef /.notdef /.notdef /.notdef /.notdef /.notdef
 /.notdef /.notdef /.notdef /.notdef /.notdef /.notdef /.notdef /.notdef
 /space /exclam /quotedbl /numbersign /dollar /percent /ampersand /quoteright
 /parenleft /parenright /asterisk /plus /comma /minus /period /slash
 /zero /one /two /three /four /five /six /seven
 /eight /nine /colon /semicolon /less /equal /greater /question
 /at /A /B /C /D /E /F /G
 /H /I /J /K /L /M /N /O
 /P /Q /R /S /T /U /V /W
 /X /Y /Z /bracketleft /backslash /bracketright /asciicircum /underscore
 /grave /a /b /c /d /e /f /g
 /h /i /j /k /l /m /n /o
 /p /q /r /s /t /u /v /w
 /x /y /z /braceleft /bar /braceright /asciitilde /.notdef
 /Euro /.notdef /quotesinglbase /florin /quotedblbase /ellipsis /dagger /daggerdbl
 /circumflex /perthousand /Scaron /guilsinglleft /OE /.notdef /Zcaron /.notdef
 /.notdef /quoteleft /quoteright /quotedblleft /quotedblright /bullet /endash /emdash
 /tilde /trademark /scaron /guilsinglright /oe /.notdef /zcaron /Ydieresis
 /space /exclamdown /cent /sterling /currency /yen /brokenbar /section
 /dieresis /copyright /ordfeminine /guillemotleft /logicalnot /hyphen /registered /macron
 /degree /plusminus /twosuperior /threesuperior /acute /mu /paragraph /periodcentered
 /cedilla /onesuperior /ordmasculine /guillemotright /onequarter /onehalf /threequarters /questiondown
 /Agrave /Aacute /Acircumflex /Atilde /Adieresis /Aring /AE /Ccedilla
 /Egrave /Eacute /Ecircumflex /Edieresis /Igrave /Iacute /Icircumflex /Idieresis
 /Eth /Ntilde /Ograve /Oacute /Ocircumflex /Otilde /Odieresis /multiply
 /Oslash /Ugrave /Uacute /Ucircumflex /Udieresis /Yacute /Thorn /germandbls
 /agrave /aacute /acircumflex /atilde /adieresis /aring /ae /ccedilla
 /egrave /eacute /ecircumflex /edieresis /igrave /iacute /icircumflex /idieresis
 /eth /ntilde /ograve /oacute /ocircumflex /otilde /odieresis /divide
 /oslash /ugrave /uacute /ucircumflex /udieresis /yacute /thorn /ydieresis
]
 def
% end encoding
%%IncludeResource: font Helvetica
/Helvetica findfont
dup length dict begin
  {1 index /FID ne {def} {pop pop} ifelse} forall
  /Encoding WinAnsiEncoding def
  currentdict
  end
/Font1 exch definefont pop
%%IncludeResource: font Helvetica-Bold
/Helvetica-Bold findfont
dup length dict begin
  {1 index /FID ne {def} {pop pop} ifelse} forall
  /Encoding WinAnsiEncoding def
  currentdict
  end
/Font2 exch definefont pop
%%IncludeResource: font Helvetica-Oblique
/Helvetica-Oblique findfont
dup length dict begin
  {1 index /FID ne {def} {pop pop} ifelse} forall
  /Encoding WinAnsiEncoding def
  currentdict
  end
/Font3 exch definefont pop
%%IncludeResource: font Helvetica-BoldOblique
/Helvetica-BoldOblique findfont
dup length dict begin
  {1 index /FID ne {def} {pop pop} ifelse} forall
  /Encoding WinAnsiEncoding def
  currentdict
  end
/Font4 exch definefont pop
%%IncludeResource: font Symbol
/Symbol findfont
dup length dict begin
  {1 index /FID ne {def} {pop pop} ifelse} forall
  currentdict
  end
/Font5 exch definefont pop
%%EndProlog
%%Page: 1 1
bp
0.00 0.00 396.75 235.50 cl
0.00 0.00 396.75 235.50 cl
0.00 0.00 396.75 235.50 cl
0.00 0.00 396.75 235.50 cl
0.00 0.00 396.75 235.50 cl
0.00 0.00 396.75 235.50 cl
0.00 0.00 396.75 235.50 cl
0.00 0.00 396.75 235.50 cl
0.00 0.00 396.75 235.50 cl
/bg { 1 1 1 srgb } def
1 1 1 srgb
1.07 setlinewidth
[] 0 setdash
1 setlinecap
1 setlinejoin
10.00 setmiterlimit
0.00 0.00 396.75 235.50 r p3
0.00 0.00 396.75 235.50 cl
0.00 0.00 396.75 235.50 cl
0.00 0.00 396.75 235.50 cl
42.40 31.35 295.32 230.02 cl
/bg { 0.9216 0.9216 0.9216 srgb } def
42.40 31.35 252.92 198.67 r p2
1 1 1 srgb
0.53 setlinewidth
[] 0 setdash
0 setlinecap
1 setlinejoin
10.00 setmiterlimit
np
42.40 62.11 m
252.92 0 l
o
np
42.40 105.59 m
252.92 0 l
o
np
42.40 149.07 m
252.92 0 l
o
np
42.40 192.55 m
252.92 0 l
o
np
74.01 31.35 m
0 198.67 l
o
np
137.24 31.35 m
0 198.67 l
o
np
200.47 31.35 m
0 198.67 l
o
np
263.70 31.35 m
0 198.67 l
o
1.07 setlinewidth
[] 0 setdash
np
42.40 40.37 m
252.92 0 l
o
np
42.40 83.85 m
252.92 0 l
o
np
42.40 127.33 m
252.92 0 l
o
np
42.40 170.81 m
252.92 0 l
o
np
42.40 214.28 m
252.92 0 l
o
np
42.40 31.35 m
0 198.67 l
o
np
105.63 31.35 m
0 198.67 l
o
np
168.86 31.35 m
0 198.67 l
o
np
232.09 31.35 m
0 198.67 l
o
np
295.32 31.35 m
0 198.67 l
o
1 0.3882 0.2784 srgb
1.00 setmiterlimit
np
42.40 220.99 m
0 0 l
0 0 l
0 0 l
0.64 0 l
0 0 l
0 0 l
0 0 l
0.64 -0.01 l
0 0 l
0 0 l
0 0 l
0.63 -0.02 l
0 0 l
0 0 l
0 0 l
0.64 -0.02 l
0 0 l
0 0 l
0 0 l
0.64 -0.03 l
0 0 l
0 0 l
0 0 l
0.64 -0.04 l
0 0 l
0 0 l
0 0 l
0.64 -0.04 l
0 0 l
0 0 l
0 0 l
0.64 -0.05 l
0 0 l
0 0 l
0 0 l
0.64 -0.06 l
0 0 l
0 0 l
0 0 l
0.64 -0.06 l
0 0 l
0 0 l
0 0 l
0.63 -0.07 l
0 0 l
0 0 l
0 0 l
0.64 -0.08 l
0 0 l
0 0 l
0 0 l
0.64 -0.08 l
0 0 l
0 0 l
0 0 l
0.64 -0.09 l
0 0 l
0 0 l
0 0 l
0.64 -0.09 l
0 0 l
0 0 l
0 0 l
0.64 -0.10 l
0 0 l
0 0 l
0 0 l
0.64 -0.11 l
0 0 l
0 0 l
0 0 l
0.63 -0.11 l
0 0 l
0 0 l
0 0 l
0.64 -0.12 l
0 0 l
0 0 l
0 0 l
0.64 -0.12 l
0 0 l
0 0 l
0 0 l
0.64 -0.13 l
0 0 l
0 0 l
0 0 l
0.64 -0.14 l
0 0 l
0 0 l
0 0 l
0.64 -0.14 l
0 0 l
0 0 l
0 0 l
0.64 -0.14 l
0 0 l
0 0 l
0 0 l
58.37 218.99 lineto
0 0 l
0 0 l
0 0 l
0.63 -0.15 l
0 0 l
0 0 l
0 0 l
0.64 -0.16 l
0 0 l
0 0 l
0 0 l
0.64 -0.16 l
0 0 l
0 0 l
0 0 l
0.64 -0.17 l
0 0 l
0 0 l
0 0 l
0.64 -0.17 l
0 0 l
0 0 l
0 0 l
0.64 -0.18 l
0 0 l
0 0 l
0 0 l
0.64 -0.18 l
0 0 l
0 0 l
0 0 l
0.64 -0.18 l
0 0 l
0 0 l
0 0 l
0.63 -0.19 l
0 0 l
0 0 l
0 0 l
0.64 -0.19 l
0 0 l
0 0 l
0 0 l
0.64 -0.19 l
0 0 l
0 0 l
0 0 l
0.64 -0.19 l
0 0 l
0 0 l
0 0 l
0.64 -0.20 l
0 0 l
0 0 l
0 0 l
0.64 -0.20 l
0 0 l
0 0 l
0 0 l
0.64 -0.20 l
0 0 l
0 0 l
0 0 l
0.63 -0.21 l
0 0 l
0 0 l
0 0 l
0.64 -0.20 l
0 0 l
0 0 l
0 0 l
0.64 -0.21 l
0 0 l
0 0 l
0 0 l
0.64 -0.21 l
0 0 l
0 0 l
0 0 l
0.64 -0.21 l
0 0 l
0 0 l
0 0 l
0.64 -0.21 l
0 0 l
0 0 l
0 0 l
0.64 -0.21 l
0 0 l
0 0 l
0 0 l
0.64 -0.22 l
0 0 l
0 0 l
0 0 l
0.63 -0.21 l
0 0 l
0 0 l
0 0 l
74.33 214.18 lineto
0 0 l
0 0 l
0 0 l
0.64 -0.22 l
0 0 l
0 0 l
0 0 l
0.64 -0.21 l
0 0 l
0 0 l
0 0 l
0.64 -0.21 l
0 0 l
0 0 l
0 0 l
0.64 -0.21 l
0 0 l
0 0 l
0 0 l
0.64 -0.21 l
0 0 l
0 0 l
0 0 l
0.63 -0.21 l
0 0 l
0 0 l
0 0 l
0.64 -0.21 l
0 0 l
0 0 l
0 0 l
0.64 -0.20 l
0 0 l
0 0 l
0 0 l
0.64 -0.21 l
0 0 l
0 0 l
0 0 l
0.64 -0.20 l
0 0 l
0 0 l
0 0 l
0.64 -0.20 l
0 0 l
0 0 l
0 0 l
0.64 -0.20 l
0 0 l
0 0 l
0 0 l
0.64 -0.19 l
0 0 l
0 0 l
0 0 l
0.63 -0.20 l
0 0 l
0 0 l
0 0 l
0.64 -0.19 l
0 0 l
0 0 l
0 0 l
0.64 -0.18 l
0 0 l
0 0 l
0 0 l
0.64 -0.18 l
0 0 l
0 0 l
0 0 l
0.64 -0.18 l
0 0 l
0 0 l
0 0 l
0.64 -0.18 l
0 0 l
0 0 l
0 0 l
0.64 -0.17 l
0 0 l
0 0 l
0 0 l
0.64 -0.17 l
0 0 l
0 0 l
0 0 l
0.63 -0.16 l
0 0 l
0 0 l
0 0 l
0.64 -0.16 l
0 0 l
0 0 l
0 0 l
0.64 -0.15 l
0 0 l
0 0 l
0 0 l
90.30 209.43 lineto
0 0 l
0 0 l
0 0 l
0.64 -0.15 l
0 0 l
0 0 l
0 0 l
0.64 -0.14 l
0 0 l
0 0 l
0 0 l
0.64 -0.13 l
0 0 l
0 0 l
0 0 l
0.63 -0.13 l
0 0 l
0 0 l
0 0 l
0.64 -0.12 l
0 0 l
0 0 l
0 0 l
0.64 -0.12 l
0 0 l
0 0 l
0 0 l
0.64 -0.11 l
0 0 l
0 0 l
0 0 l
0.64 -0.11 l
0 0 l
0 0 l
0 0 l
0.64 -0.10 l
0 0 l
0 0 l
0 0 l
0.64 -0.10 l
0 0 l
0 0 l
0 0 l
0.64 -0.08 l
0 0 l
0 0 l
0 0 l
0.63 -0.09 l
0 0 l
0 0 l
0 0 l
0.64 -0.07 l
0 0 l
0 0 l
0 0 l
0.64 -0.07 l
0 0 l
0 0 l
0 0 l
0.64 -0.07 l
0 0 l
0 0 l
0 0 l
0.64 -0.05 l
0 0 l
0 0 l
0 0 l
0.64 -0.05 l
0 0 l
0 0 l
0 0 l
0.64 -0.05 l
0 0 l
0 0 l
0 0 l
0.64 -0.03 l
0 0 l
0 0 l
0 0 l
0.63 -0.03 l
0 0 l
0 0 l
0 0 l
0.64 -0.03 l
0 0 l
0 0 l
0 0 l
0.64 -0.01 l
0 0 l
0 0 l
0 0 l
0.64 -0.01 l
0 0 l
0 0 l
0 0 l
0.64 -0.01 l
0 0 l
0 0 l
0 0 l
o
/bg { 0.8039 0.7451 0.4392 srgb } def
0.8039 0.7451 0.4392 srgb
0.71 setlinewidth
[] 0 setdash
1 setlinecap
10.00 setmiterlimit
42.40 195.51 0.67 c p3
43.04 195.50 0.67 c p3
43.68 195.47 0.67 c p3
44.31 195.42 0.67 c p3
44.95 195.35 0.67 c p3
45.59 195.27 0.67 c p3
46.23 195.16 0.67 c p3
46.87 195.03 0.67 c p3
47.51 194.88 0.67 c p3
48.15 194.71 0.67 c p3
48.79 194.53 0.67 c p3
49.42 194.32 0.67 c p3
50.06 194.09 0.67 c p3
50.70 193.85 0.67 c p3
51.34 193.59 0.67 c p3
51.98 193.30 0.67 c p3
52.62 193.00 0.67 c p3
53.26 192.68 0.67 c p3
53.89 192.34 0.67 c p3
54.53 191.98 0.67 c p3
55.17 191.61 0.67 c p3
55.81 191.21 0.67 c p3
56.45 190.80 0.67 c p3
57.09 190.37 0.67 c p3
57.73 189.92 0.67 c p3
58.37 189.45 0.67 c p3
59.00 188.97 0.67 c p3
59.64 188.47 0.67 c p3
60.28 187.95 0.67 c p3
60.92 187.41 0.67 c p3
61.56 186.86 0.67 c p3
62.20 186.29 0.67 c p3
62.84 185.71 0.67 c p3
63.48 185.10 0.67 c p3
64.11 184.49 0.67 c p3
64.75 183.85 0.67 c p3
65.39 183.21 0.67 c p3
66.03 182.54 0.67 c p3
66.67 181.86 0.67 c p3
67.31 181.17 0.67 c p3
67.95 180.46 0.67 c p3
68.58 179.74 0.67 c p3
69.22 179.01 0.67 c p3
69.86 178.26 0.67 c p3
70.50 177.49 0.67 c p3
71.14 176.72 0.67 c p3
71.78 175.93 0.67 c p3
72.42 175.13 0.67 c p3
73.06 174.31 0.67 c p3
73.69 173.49 0.67 c p3
74.33 172.65 0.67 c p3
74.97 171.80 0.67 c p3
75.61 170.94 0.67 c p3
76.25 170.07 0.67 c p3
76.89 169.19 0.67 c p3
77.53 168.30 0.67 c p3
78.16 167.39 0.67 c p3
78.80 166.48 0.67 c p3
79.44 165.56 0.67 c p3
80.08 164.63 0.67 c p3
80.72 163.69 0.67 c p3
81.36 162.74 0.67 c p3
82.00 161.79 0.67 c p3
82.64 160.82 0.67 c p3
83.27 159.85 0.67 c p3
83.91 158.87 0.67 c p3
84.55 157.89 0.67 c p3
85.19 156.89 0.67 c p3
85.83 155.89 0.67 c p3
86.47 154.89 0.67 c p3
87.11 153.88 0.67 c p3
87.75 152.86 0.67 c p3
88.38 151.84 0.67 c p3
89.02 150.82 0.67 c p3
89.66 149.78 0.67 c p3
90.30 148.75 0.67 c p3
90.94 147.71 0.67 c p3
91.58 146.67 0.67 c p3
92.22 145.62 0.67 c p3
92.85 144.58 0.67 c p3
93.49 143.52 0.67 c p3
94.13 142.47 0.67 c p3
94.77 141.41 0.67 c p3
95.41 140.36 0.67 c p3
96.05 139.30 0.67 c p3
96.69 138.24 0.67 c p3
97.33 137.18 0.67 c p3
97.96 136.11 0.67 c p3
98.60 135.05 0.67 c p3
99.24 133.99 0.67 c p3
99.88 132.93 0.67 c p3
100.52 131.86 0.67 c p3
101.16 130.80 0.67 c p3
101.80 129.74 0.67 c p3
102.44 128.68 0.67 c p3
103.07 127.62 0.67 c p3
103.71 126.57 0.67 c p3
104.35 125.51 0.67 c p3
104.99 124.46 0.67 c p3
105.63 123.41 0.67 c p3
42.40 53.10 0.67 c p3
43.04 53.43 0.67 c p3
43.68 53.76 0.67 c p3
44.31 54.10 0.67 c p3
44.95 54.44 0.67 c p3
45.59 54.80 0.67 c p3
46.23 55.15 0.67 c p3
46.87 55.52 0.67 c p3
47.51 55.89 0.67 c p3
48.15 56.27 0.67 c p3
48.79 56.66 0.67 c p3
49.42 57.05 0.67 c p3
50.06 57.45 0.67 c p3
50.70 57.86 0.67 c p3
51.34 58.28 0.67 c p3
51.98 58.70 0.67 c p3
52.62 59.14 0.67 c p3
53.26 59.58 0.67 c p3
53.89 60.02 0.67 c p3
54.53 60.48 0.67 c p3
55.17 60.94 0.67 c p3
55.81 61.41 0.67 c p3
56.45 61.89 0.67 c p3
57.09 62.38 0.67 c p3
57.73 62.87 0.67 c p3
58.37 63.38 0.67 c p3
59.00 63.89 0.67 c p3
59.64 64.41 0.67 c p3
60.28 64.94 0.67 c p3
60.92 65.47 0.67 c p3
61.56 66.02 0.67 c p3
62.20 66.57 0.67 c p3
62.84 67.14 0.67 c p3
63.48 67.71 0.67 c p3
64.11 68.29 0.67 c p3
64.75 68.87 0.67 c p3
65.39 69.47 0.67 c p3
66.03 70.08 0.67 c p3
66.67 70.69 0.67 c p3
67.31 71.31 0.67 c p3
67.95 71.95 0.67 c p3
68.58 72.59 0.67 c p3
69.22 73.24 0.67 c p3
69.86 73.90 0.67 c p3
70.50 74.56 0.67 c p3
71.14 75.24 0.67 c p3
71.78 75.92 0.67 c p3
72.42 76.62 0.67 c p3
73.06 77.32 0.67 c p3
73.69 78.03 0.67 c p3
74.33 78.75 0.67 c p3
74.97 79.48 0.67 c p3
75.61 80.22 0.67 c p3
76.25 80.96 0.67 c p3
76.89 81.72 0.67 c p3
77.53 82.48 0.67 c p3
78.16 83.25 0.67 c p3
78.80 84.04 0.67 c p3
79.44 84.82 0.67 c p3
80.08 85.62 0.67 c p3
80.72 86.43 0.67 c p3
81.36 87.24 0.67 c p3
82.00 88.07 0.67 c p3
82.64 88.90 0.67 c p3
83.27 89.74 0.67 c p3
83.91 90.59 0.67 c p3
84.55 91.44 0.67 c p3
85.19 92.31 0.67 c p3
85.83 93.18 0.67 c p3
86.47 94.06 0.67 c p3
87.11 94.94 0.67 c p3
87.75 95.84 0.67 c p3
88.38 96.74 0.67 c p3
89.02 97.65 0.67 c p3
89.66 98.57 0.67 c p3
90.30 99.49 0.67 c p3
90.94 100.42 0.67 c p3
91.58 101.36 0.67 c p3
92.22 102.30 0.67 c p3
92.85 103.26 0.67 c p3
93.49 104.21 0.67 c p3
94.13 105.18 0.67 c p3
94.77 106.15 0.67 c p3
95.41 107.12 0.67 c p3
96.05 108.11 0.67 c p3
96.69 109.09 0.67 c p3
97.33 110.09 0.67 c p3
97.96 111.08 0.67 c p3
98.60 112.09 0.67 c p3
99.24 113.10 0.67 c p3
99.88 114.11 0.67 c p3
100.52 115.13 0.67 c p3
101.16 116.15 0.67 c p3
101.80 117.18 0.67 c p3
102.44 118.21 0.67 c p3
103.07 119.24 0.67 c p3
103.71 120.28 0.67 c p3
104.35 121.32 0.67 c p3
104.99 122.36 0.67 c p3
105.63 123.41 0.67 c p3
42.40 53.10 0.67 c p3
43.04 52.79 0.67 c p3
43.68 52.47 0.67 c p3
44.31 52.17 0.67 c p3
44.95 51.87 0.67 c p3
45.59 51.58 0.67 c p3
46.23 51.29 0.67 c p3
46.87 51.01 0.67 c p3
47.51 50.73 0.67 c p3
48.15 50.46 0.67 c p3
48.79 50.20 0.67 c p3
49.42 49.94 0.67 c p3
50.06 49.69 0.67 c p3
50.70 49.44 0.67 c p3
51.34 49.20 0.67 c p3
51.98 48.97 0.67 c p3
52.62 48.73 0.67 c p3
53.26 48.51 0.67 c p3
53.89 48.29 0.67 c p3
54.53 48.07 0.67 c p3
55.17 47.86 0.67 c p3
55.81 47.66 0.67 c p3
56.45 47.45 0.67 c p3
57.09 47.26 0.67 c p3
57.73 47.07 0.67 c p3
58.37 46.88 0.67 c p3
59.00 46.70 0.67 c p3
59.64 46.52 0.67 c p3
60.28 46.34 0.67 c p3
60.92 46.17 0.67 c p3
61.56 46.01 0.67 c p3
62.20 45.85 0.67 c p3
62.84 45.69 0.67 c p3
63.48 45.53 0.67 c p3
64.11 45.38 0.67 c p3
64.75 45.24 0.67 c p3
65.39 45.09 0.67 c p3
66.03 44.95 0.67 c p3
66.67 44.82 0.67 c p3
67.31 44.69 0.67 c p3
67.95 44.56 0.67 c p3
68.58 44.43 0.67 c p3
69.22 44.31 0.67 c p3
69.86 44.19 0.67 c p3
70.50 44.08 0.67 c p3
71.14 43.96 0.67 c p3
71.78 43.85 0.67 c p3
72.42 43.75 0.67 c p3
73.06 43.64 0.67 c p3
73.69 43.54 0.67 c p3
74.33 43.44 0.67 c p3
74.97 43.35 0.67 c p3
75.61 43.25 0.67 c p3
76.25 43.16 0.67 c p3
76.89 43.07 0.67 c p3
77.53 42.99 0.67 c p3
78.16 42.90 0.67 c p3
78.80 42.82 0.67 c p3
79.44 42.75 0.67 c p3
80.08 42.67 0.67 c p3
80.72 42.59 0.67 c p3
81.36 42.52 0.67 c p3
82.00 42.45 0.67 c p3
82.64 42.38 0.67 c p3
83.27 42.32 0.67 c p3
83.91 42.25 0.67 c p3
84.55 42.19 0.67 c p3
85.19 42.13 0.67 c p3
85.83 42.07 0.67 c p3
86.47 42.02 0.67 c p3
87.11 41.96 0.67 c p3
87.75 41.91 0.67 c p3
88.38 41.86 0.67 c p3
89.02 41.80 0.67 c p3
89.66 41.76 0.67 c p3
90.30 41.71 0.67 c p3
90.94 41.66 0.67 c p3
91.58 41.62 0.67 c p3
92.22 41.58 0.67 c p3
92.85 41.53 0.67 c p3
93.49 41.49 0.67 c p3
94.13 41.45 0.67 c p3
94.77 41.42 0.67 c p3
95.41 41.38 0.67 c p3
96.05 41.34 0.67 c p3
96.69 41.31 0.67 c p3
97.33 41.28 0.67 c p3
97.96 41.24 0.67 c p3
98.60 41.21 0.67 c p3
99.24 41.18 0.67 c p3
99.88 41.15 0.67 c p3
100.52 41.12 0.67 c p3
101.16 41.10 0.67 c p3
101.80 41.07 0.67 c p3
102.44 41.05 0.67 c p3
103.07 41.02 0.67 c p3
103.71 41.00 0.67 c p3
104.35 40.97 0.67 c p3
104.99 40.95 0.67 c p3
105.63 40.93 0.67 c p3
42.40 40.38 0.67 c p3
43.04 40.38 0.67 c p3
43.68 40.38 0.67 c p3
44.31 40.38 0.67 c p3
44.95 40.38 0.67 c p3
45.59 40.38 0.67 c p3
46.23 40.38 0.67 c p3
46.87 40.38 0.67 c p3
47.51 40.38 0.67 c p3
48.15 40.38 0.67 c p3
48.79 40.38 0.67 c p3
49.42 40.38 0.67 c p3
50.06 40.38 0.67 c p3
50.70 40.38 0.67 c p3
51.34 40.38 0.67 c p3
51.98 40.38 0.67 c p3
52.62 40.39 0.67 c p3
53.26 40.39 0.67 c p3
53.89 40.39 0.67 c p3
54.53 40.39 0.67 c p3
55.17 40.39 0.67 c p3
55.81 40.39 0.67 c p3
56.45 40.39 0.67 c p3
57.09 40.39 0.67 c p3
57.73 40.39 0.67 c p3
58.37 40.39 0.67 c p3
59.00 40.39 0.67 c p3
59.64 40.40 0.67 c p3
60.28 40.40 0.67 c p3
60.92 40.40 0.67 c p3
61.56 40.40 0.67 c p3
62.20 40.40 0.67 c p3
62.84 40.40 0.67 c p3
63.48 40.40 0.67 c p3
64.11 40.41 0.67 c p3
64.75 40.41 0.67 c p3
65.39 40.41 0.67 c p3
66.03 40.41 0.67 c p3
66.67 40.41 0.67 c p3
67.31 40.42 0.67 c p3
67.95 40.42 0.67 c p3
68.58 40.42 0.67 c p3
69.22 40.42 0.67 c p3
69.86 40.42 0.67 c p3
70.50 40.43 0.67 c p3
71.14 40.43 0.67 c p3
71.78 40.43 0.67 c p3
72.42 40.44 0.67 c p3
73.06 40.44 0.67 c p3
73.69 40.44 0.67 c p3
74.33 40.44 0.67 c p3
74.97 40.45 0.67 c p3
75.61 40.45 0.67 c p3
76.25 40.46 0.67 c p3
76.89 40.46 0.67 c p3
77.53 40.46 0.67 c p3
78.16 40.47 0.67 c p3
78.80 40.47 0.67 c p3
79.44 40.48 0.67 c p3
80.08 40.48 0.67 c p3
80.72 40.49 0.67 c p3
81.36 40.49 0.67 c p3
82.00 40.50 0.67 c p3
82.64 40.50 0.67 c p3
83.27 40.51 0.67 c p3
83.91 40.51 0.67 c p3
84.55 40.52 0.67 c p3
85.19 40.53 0.67 c p3
85.83 40.53 0.67 c p3
86.47 40.54 0.67 c p3
87.11 40.55 0.67 c p3
87.75 40.55 0.67 c p3
88.38 40.56 0.67 c p3
89.02 40.57 0.67 c p3
89.66 40.58 0.67 c p3
90.30 40.59 0.67 c p3
90.94 40.60 0.67 c p3
91.58 40.61 0.67 c p3
92.22 40.62 0.67 c p3
92.85 40.63 0.67 c p3
93.49 40.64 0.67 c p3
94.13 40.65 0.67 c p3
94.77 40.66 0.67 c p3
95.41 40.67 0.67 c p3
96.05 40.68 0.67 c p3
96.69 40.70 0.67 c p3
97.33 40.71 0.67 c p3
97.96 40.72 0.67 c p3
98.60 40.74 0.67 c p3
99.24 40.75 0.67 c p3
99.88 40.77 0.67 c p3
100.52 40.78 0.67 c p3
101.16 40.80 0.67 c p3
101.80 40.81 0.67 c p3
102.44 40.83 0.67 c p3
103.07 40.85 0.67 c p3
103.71 40.87 0.67 c p3
104.35 40.89 0.67 c p3
104.99 40.91 0.67 c p3
105.63 40.93 0.67 c p3
0.5608 0.7373 0.5608 srgb
1.07 setlinewidth
[] 0 setdash
0 setlinecap
1.00 setmiterlimit
np
42.40 195.51 m
0.63 -0.01 l
0.64 -0.03 l
0.63 -0.04 l
0.63 -0.07 l
0.64 -0.09 l
0.63 -0.11 l
0.64 -0.12 l
0.63 -0.15 l
0.63 -0.16 l
0.64 -0.19 l
0.63 -0.20 l
0.63 -0.22 l
0.64 -0.25 l
0.63 -0.26 l
0.64 -0.27 l
0.63 -0.30 l
0.63 -0.32 l
0.64 -0.33 l
0.63 -0.36 l
0.64 -0.37 l
0.63 -0.39 l
0.63 -0.40 l
0.64 -0.43 l
0.63 -0.44 l
0.64 -0.46 l
0.63 -0.48 l
0.63 -0.49 l
0.64 -0.51 l
0.63 -0.53 l
0.63 -0.54 l
0.64 -0.57 l
0.63 -0.57 l
0.64 -0.59 l
0.63 -0.61 l
0.63 -0.63 l
0.64 -0.64 l
0.63 -0.65 l
0.64 -0.67 l
0.63 -0.68 l
0.63 -0.70 l
0.64 -0.71 l
0.63 -0.73 l
0.64 -0.74 l
0.63 -0.75 l
0.63 -0.77 l
0.64 -0.78 l
0.63 -0.79 l
0.63 -0.80 l
0.64 -0.82 l
0.63 -0.82 l
0.64 -0.84 l
0.63 -0.85 l
0.63 -0.86 l
0.64 -0.87 l
0.63 -0.88 l
0.64 -0.90 l
0.63 -0.90 l
0.63 -0.91 l
0.64 -0.92 l
0.63 -0.93 l
0.64 -0.93 l
0.63 -0.95 l
0.63 -0.95 l
0.64 -0.96 l
0.63 -0.97 l
0.63 -0.97 l
0.64 -0.99 l
0.63 -0.98 l
0.64 -1.00 l
0.63 -1.00 l
0.63 -1.00 l
0.64 -1.02 l
0.63 -1.01 l
0.64 -1.02 l
0.63 -1.03 l
0.63 -1.02 l
0.64 -1.04 l
0.63 -1.03 l
0.64 -1.04 l
0.63 -1.04 l
0.63 -1.05 l
0.64 -1.04 l
0.63 -1.05 l
0.63 -1.05 l
0.64 -1.05 l
0.63 -1.06 l
0.64 -1.05 l
0.63 -1.06 l
0.63 -1.05 l
0.64 -1.05 l
0.63 -1.06 l
0.64 -1.05 l
0.63 -1.06 l
0.63 -1.05 l
0.64 -1.05 l
0.63 -1.05 l
0.64 -1.05 l
0.63 -1.04 l
0.63 -1.05 l
105.79 123.15 lineto
0.63 -1.04 l
0.63 -1.03 l
0.64 -1.04 l
0.63 -1.02 l
0.64 -1.03 l
0.63 -1.02 l
0.63 -1.02 l
0.64 -1.01 l
0.63 -1.01 l
0.64 -1.01 l
0.63 -1.00 l
0.63 -0.99 l
0.64 -0.99 l
0.63 -0.99 l
0.64 -0.98 l
0.63 -0.97 l
0.63 -0.97 l
0.64 -0.96 l
0.63 -0.96 l
0.63 -0.95 l
0.64 -0.94 l
0.63 -0.94 l
0.64 -0.93 l
0.63 -0.92 l
0.63 -0.92 l
0.64 -0.91 l
0.63 -0.90 l
0.64 -0.90 l
0.63 -0.88 l
0.63 -0.88 l
0.64 -0.88 l
0.63 -0.86 l
0.64 -0.86 l
0.63 -0.85 l
0.63 -0.84 l
0.64 -0.83 l
0.63 -0.83 l
0.63 -0.82 l
0.64 -0.80 l
0.63 -0.81 l
0.64 -0.79 l
0.63 -0.78 l
0.63 -0.78 l
0.64 -0.76 l
0.63 -0.76 l
0.64 -0.75 l
0.63 -0.74 l
0.63 -0.74 l
0.64 -0.72 l
0.63 -0.72 l
0.64 -0.71 l
0.63 -0.69 l
0.63 -0.69 l
0.64 -0.68 l
0.63 -0.68 l
0.63 -0.66 l
0.64 -0.66 l
0.63 -0.64 l
0.64 -0.64 l
0.63 -0.63 l
0.63 -0.62 l
0.64 -0.61 l
0.63 -0.60 l
0.64 -0.60 l
0.63 -0.58 l
0.63 -0.58 l
0.64 -0.57 l
0.63 -0.56 l
0.64 -0.55 l
0.63 -0.54 l
0.63 -0.54 l
0.64 -0.53 l
0.63 -0.52 l
0.63 -0.51 l
0.64 -0.50 l
0.63 -0.49 l
0.64 -0.49 l
0.63 -0.48 l
0.63 -0.47 l
0.64 -0.46 l
0.63 -0.45 l
0.64 -0.45 l
0.63 -0.44 l
0.63 -0.43 l
0.64 -0.42 l
0.63 -0.42 l
0.64 -0.41 l
0.63 -0.40 l
0.63 -0.40 l
0.64 -0.38 l
0.63 -0.38 l
0.63 -0.38 l
0.64 -0.36 l
0.63 -0.36 l
0.64 -0.35 l
0.63 -0.35 l
0.63 -0.34 l
0.64 -0.33 l
0.63 -0.32 l
169.18 52.95 lineto
0.63 -0.32 l
0.63 -0.30 l
0.64 -0.30 l
0.63 -0.30 l
0.64 -0.29 l
0.63 -0.28 l
0.63 -0.27 l
0.64 -0.28 l
0.63 -0.26 l
0.63 -0.26 l
0.64 -0.25 l
0.63 -0.25 l
0.64 -0.24 l
0.63 -0.24 l
0.63 -0.23 l
0.64 -0.23 l
0.63 -0.22 l
0.64 -0.22 l
0.63 -0.21 l
0.63 -0.21 l
0.64 -0.20 l
0.63 -0.20 l
0.63 -0.19 l
0.64 -0.19 l
0.63 -0.19 l
0.64 -0.18 l
0.63 -0.17 l
0.63 -0.18 l
0.64 -0.16 l
0.63 -0.17 l
0.64 -0.16 l
0.63 -0.15 l
0.63 -0.15 l
0.64 -0.15 l
0.63 -0.15 l
0.64 -0.14 l
0.63 -0.14 l
0.63 -0.13 l
0.64 -0.13 l
0.63 -0.13 l
0.63 -0.12 l
0.64 -0.12 l
0.63 -0.12 l
0.64 -0.11 l
0.63 -0.12 l
0.63 -0.10 l
0.64 -0.11 l
0.63 -0.10 l
0.64 -0.10 l
0.63 -0.10 l
0.63 -0.09 l
0.64 -0.10 l
0.63 -0.09 l
0.64 -0.08 l
0.63 -0.09 l
0.63 -0.08 l
0.64 -0.08 l
0.63 -0.08 l
0.63 -0.08 l
0.64 -0.07 l
0.63 -0.07 l
0.64 -0.07 l
0.63 -0.07 l
0.63 -0.06 l
0.64 -0.07 l
0.63 -0.06 l
0.64 -0.06 l
0.63 -0.06 l
0.63 -0.05 l
0.64 -0.06 l
0.63 -0.05 l
0.64 -0.05 l
0.63 -0.05 l
0.63 -0.05 l
0.64 -0.05 l
0.63 -0.04 l
0.63 -0.05 l
0.64 -0.04 l
0.63 -0.04 l
0.64 -0.04 l
0.63 -0.04 l
0.63 -0.04 l
0.64 -0.04 l
0.63 -0.03 l
0.64 -0.04 l
0.63 -0.03 l
0.63 -0.03 l
0.64 -0.03 l
0.63 -0.03 l
0.64 -0.03 l
0.63 -0.03 l
0.63 -0.03 l
0.64 -0.02 l
0.63 -0.03 l
0.63 -0.02 l
0.64 -0.03 l
0.63 -0.02 l
0.64 -0.02 l
0.63 -0.03 l
232.56 40.91 lineto
0.64 -0.02 l
0.63 -0.02 l
0.64 -0.01 l
0.63 -0.02 l
0.63 -0.02 l
0.64 -0.02 l
0.63 -0.01 l
0.64 -0.02 l
0.63 -0.01 l
0.63 -0.02 l
0.64 -0.01 l
0.63 -0.02 l
0.63 -0.01 l
0.64 -0.01 l
0.63 -0.02 l
0.64 -0.01 l
0.63 -0.01 l
0.63 -0.01 l
0.64 -0.01 l
0.63 -0.01 l
0.64 -0.01 l
0.63 -0.01 l
0.63 -0.01 l
0.64 -0.01 l
0.63 -0.01 l
0.64 0 l
0.63 -0.01 l
0.63 -0.01 l
0.64 -0.01 l
0.63 0 l
0.63 -0.01 l
0.64 -0.01 l
0.63 0 l
0.64 -0.01 l
0.63 -0.01 l
0.63 0 l
0.64 -0.01 l
0.63 0 l
0.64 -0.01 l
0.63 0 l
0.63 -0.01 l
0.64 0 l
0.63 0 l
0.64 -0.01 l
0.63 0 l
0.63 -0.01 l
0.64 0 l
0.63 0 l
0.63 -0.01 l
0.64 0 l
0.63 0 l
0.64 -0.01 l
0.63 0 l
0.63 0 l
0.64 0 l
0.63 -0.01 l
0.64 0 l
0.63 0 l
0.63 0 l
0.64 0 l
0.63 -0.01 l
0.64 0 l
0.63 0 l
0.63 0 l
0.64 0 l
0.63 -0.01 l
0.63 0 l
0.64 0 l
0.63 0 l
0.64 0 l
0.63 0 l
0.63 0 l
0.64 -0.01 l
0.63 0 l
0.64 0 l
0.63 0 l
0.63 0 l
0.64 0 l
0.63 0 l
0.64 0 l
0.63 0 l
0.63 0 l
0.64 0 l
0.63 -0.01 l
0.63 0 l
0.64 0 l
0.63 0 l
0.64 0 l
0.63 0 l
0.63 0 l
0.64 0 l
0.63 0 l
0.64 0 l
0.63 0 l
0.63 0 l
0.64 0 l
0.63 0 l
0.64 0 l
0.63 0 l
o
/Font5 findfont 14 s
0 0 0 srgb
178.86 157.32 (w) 0 0 t
191.70 157.32 (=) 0 0 t
/Font1 findfont 14 s
202.63 157.32 (0.4) 0 0 t
1 0.6275 0.4784 srgb
0.21 setlinewidth
[ 0.85 0.85] 0 setdash
10.00 setmiterlimit
np
105.63 31.35 m
0 198.67 l
o
np
168.86 31.35 m
0 198.67 l
o
np
232.09 31.35 m
0 198.67 l
o
np
295.32 31.35 m
0 198.67 l
o
/bg { 0 1 0 srgb } def
0 1 0 srgb
0.71 setlinewidth
[] 0 setdash
1 setlinecap
105.63 124.19 1.42 c p3
105.63 124.19 1.42 c p3
105.63 124.19 1.42 c p3
105.63 124.19 1.42 c p3
105.63 124.19 1.42 c p3
105.63 124.19 1.42 c p3
105.63 124.19 1.42 c p3
105.63 124.19 1.42 c p3
105.63 124.19 1.42 c p3
105.63 124.19 1.42 c p3
105.63 124.19 1.42 c p3
105.63 124.19 1.42 c p3
105.63 124.19 1.42 c p3
105.63 124.19 1.42 c p3
105.63 124.19 1.42 c p3
105.63 124.19 1.42 c p3
105.63 124.19 1.42 c p3
105.63 124.19 1.42 c p3
105.63 124.19 1.42 c p3
105.63 124.19 1.42 c p3
105.63 124.19 1.42 c p3
105.63 124.19 1.42 c p3
105.63 124.19 1.42 c p3
105.63 124.19 1.42 c p3
105.63 124.19 1.42 c p3
105.63 124.19 1.42 c p3
105.63 124.19 1.42 c p3
105.63 124.19 1.42 c p3
105.63 124.19 1.42 c p3
105.63 124.19 1.42 c p3
105.63 124.19 1.42 c p3
105.63 124.19 1.42 c p3
105.63 124.19 1.42 c p3
105.63 124.19 1.42 c p3
105.63 124.19 1.42 c p3
105.63 124.19 1.42 c p3
105.63 124.19 1.42 c p3
105.63 124.19 1.42 c p3
105.63 124.19 1.42 c p3
105.63 124.19 1.42 c p3
105.63 124.19 1.42 c p3
105.63 124.19 1.42 c p3
105.63 124.19 1.42 c p3
105.63 124.19 1.42 c p3
105.63 124.19 1.42 c p3
105.63 124.19 1.42 c p3
105.63 124.19 1.42 c p3
105.63 124.19 1.42 c p3
105.63 124.19 1.42 c p3
105.63 124.19 1.42 c p3
105.63 124.19 1.42 c p3
105.63 124.19 1.42 c p3
105.63 124.19 1.42 c p3
105.63 124.19 1.42 c p3
105.63 124.19 1.42 c p3
105.63 124.19 1.42 c p3
105.63 124.19 1.42 c p3
105.63 124.19 1.42 c p3
105.63 124.19 1.42 c p3
105.63 124.19 1.42 c p3
105.63 124.19 1.42 c p3
105.63 124.19 1.42 c p3
105.63 124.19 1.42 c p3
105.63 124.19 1.42 c p3
105.63 124.19 1.42 c p3
105.63 124.19 1.42 c p3
105.63 124.19 1.42 c p3
105.63 124.19 1.42 c p3
105.63 124.19 1.42 c p3
105.63 124.19 1.42 c p3
105.63 124.19 1.42 c p3
105.63 124.19 1.42 c p3
105.63 124.19 1.42 c p3
105.63 124.19 1.42 c p3
105.63 124.19 1.42 c p3
105.63 124.19 1.42 c p3
105.63 124.19 1.42 c p3
105.63 124.19 1.42 c p3
105.63 124.19 1.42 c p3
105.63 124.19 1.42 c p3
105.63 124.19 1.42 c p3
105.63 124.19 1.42 c p3
105.63 124.19 1.42 c p3
105.63 124.19 1.42 c p3
105.63 124.19 1.42 c p3
105.63 124.19 1.42 c p3
105.63 124.19 1.42 c p3
105.63 124.19 1.42 c p3
105.63 124.19 1.42 c p3
105.63 124.19 1.42 c p3
105.63 124.19 1.42 c p3
105.63 124.19 1.42 c p3
105.63 124.19 1.42 c p3
105.63 124.19 1.42 c p3
105.63 124.19 1.42 c p3
105.63 124.19 1.42 c p3
105.63 124.19 1.42 c p3
105.63 124.19 1.42 c p3
105.63 124.19 1.42 c p3
105.63 124.19 1.42 c p3
105.63 124.19 1.42 c p3
105.63 124.19 1.42 c p3
105.63 124.19 1.42 c p3
105.63 124.19 1.42 c p3
105.63 124.19 1.42 c p3
105.63 124.19 1.42 c p3
105.63 124.19 1.42 c p3
105.63 124.19 1.42 c p3
105.63 124.19 1.42 c p3
105.63 124.19 1.42 c p3
105.63 124.19 1.42 c p3
105.63 124.19 1.42 c p3
105.63 124.19 1.42 c p3
105.63 124.19 1.42 c p3
105.63 124.19 1.42 c p3
105.63 124.19 1.42 c p3
105.63 124.19 1.42 c p3
105.63 124.19 1.42 c p3
105.63 124.19 1.42 c p3
105.63 124.19 1.42 c p3
105.63 124.19 1.42 c p3
105.63 124.19 1.42 c p3
105.63 124.19 1.42 c p3
105.63 124.19 1.42 c p3
105.63 124.19 1.42 c p3
105.63 124.19 1.42 c p3
105.63 124.19 1.42 c p3
105.63 124.19 1.42 c p3
105.63 124.19 1.42 c p3
105.63 124.19 1.42 c p3
105.63 124.19 1.42 c p3
105.63 124.19 1.42 c p3
105.63 124.19 1.42 c p3
105.63 124.19 1.42 c p3
105.63 124.19 1.42 c p3
105.63 124.19 1.42 c p3
105.63 124.19 1.42 c p3
105.63 124.19 1.42 c p3
105.63 124.19 1.42 c p3
105.63 124.19 1.42 c p3
105.63 124.19 1.42 c p3
105.63 124.19 1.42 c p3
105.63 124.19 1.42 c p3
105.63 124.19 1.42 c p3
105.63 124.19 1.42 c p3
105.63 124.19 1.42 c p3
105.63 124.19 1.42 c p3
105.63 124.19 1.42 c p3
105.63 124.19 1.42 c p3
105.63 124.19 1.42 c p3
105.63 124.19 1.42 c p3
105.63 124.19 1.42 c p3
105.63 124.19 1.42 c p3
105.63 124.19 1.42 c p3
105.63 124.19 1.42 c p3
105.63 124.19 1.42 c p3
105.63 124.19 1.42 c p3
105.63 124.19 1.42 c p3
105.63 124.19 1.42 c p3
105.63 124.19 1.42 c p3
105.63 124.19 1.42 c p3
105.63 124.19 1.42 c p3
105.63 124.19 1.42 c p3
105.63 124.19 1.42 c p3
105.63 124.19 1.42 c p3
105.63 124.19 1.42 c p3
105.63 124.19 1.42 c p3
105.63 124.19 1.42 c p3
105.63 124.19 1.42 c p3
105.63 124.19 1.42 c p3
105.63 124.19 1.42 c p3
105.63 124.19 1.42 c p3
105.63 124.19 1.42 c p3
105.63 124.19 1.42 c p3
105.63 124.19 1.42 c p3
105.63 124.19 1.42 c p3
105.63 124.19 1.42 c p3
105.63 124.19 1.42 c p3
105.63 124.19 1.42 c p3
105.63 124.19 1.42 c p3
105.63 124.19 1.42 c p3
105.63 124.19 1.42 c p3
105.63 124.19 1.42 c p3
105.63 124.19 1.42 c p3
105.63 124.19 1.42 c p3
105.63 124.19 1.42 c p3
105.63 124.19 1.42 c p3
105.63 124.19 1.42 c p3
105.63 124.19 1.42 c p3
105.63 124.19 1.42 c p3
105.63 124.19 1.42 c p3
105.63 124.19 1.42 c p3
105.63 124.19 1.42 c p3
105.63 124.19 1.42 c p3
105.63 124.19 1.42 c p3
105.63 124.19 1.42 c p3
105.63 124.19 1.42 c p3
105.63 124.19 1.42 c p3
105.63 124.19 1.42 c p3
105.63 124.19 1.42 c p3
105.63 124.19 1.42 c p3
105.63 124.19 1.42 c p3
105.63 124.19 1.42 c p3
105.63 124.19 1.42 c p3
105.63 124.19 1.42 c p3
105.63 124.19 1.42 c p3
105.63 124.19 1.42 c p3
105.63 124.19 1.42 c p3
105.63 124.19 1.42 c p3
105.63 124.19 1.42 c p3
105.63 124.19 1.42 c p3
105.63 124.19 1.42 c p3
105.63 124.19 1.42 c p3
105.63 124.19 1.42 c p3
105.63 124.19 1.42 c p3
105.63 124.19 1.42 c p3
105.63 124.19 1.42 c p3
105.63 124.19 1.42 c p3
105.63 124.19 1.42 c p3
105.63 124.19 1.42 c p3
105.63 124.19 1.42 c p3
105.63 124.19 1.42 c p3
105.63 124.19 1.42 c p3
105.63 124.19 1.42 c p3
105.63 124.19 1.42 c p3
105.63 124.19 1.42 c p3
105.63 124.19 1.42 c p3
105.63 124.19 1.42 c p3
105.63 124.19 1.42 c p3
105.63 124.19 1.42 c p3
105.63 124.19 1.42 c p3
105.63 124.19 1.42 c p3
105.63 124.19 1.42 c p3
105.63 124.19 1.42 c p3
105.63 124.19 1.42 c p3
105.63 124.19 1.42 c p3
105.63 124.19 1.42 c p3
105.63 124.19 1.42 c p3
105.63 124.19 1.42 c p3
105.63 124.19 1.42 c p3
105.63 124.19 1.42 c p3
105.63 124.19 1.42 c p3
105.63 124.19 1.42 c p3
105.63 124.19 1.42 c p3
105.63 124.19 1.42 c p3
105.63 124.19 1.42 c p3
105.63 124.19 1.42 c p3
105.63 124.19 1.42 c p3
105.63 124.19 1.42 c p3
105.63 124.19 1.42 c p3
105.63 124.19 1.42 c p3
105.63 124.19 1.42 c p3
105.63 124.19 1.42 c p3
105.63 124.19 1.42 c p3
105.63 124.19 1.42 c p3
105.63 124.19 1.42 c p3
105.63 124.19 1.42 c p3
105.63 124.19 1.42 c p3
105.63 124.19 1.42 c p3
105.63 124.19 1.42 c p3
105.63 124.19 1.42 c p3
105.63 124.19 1.42 c p3
105.63 124.19 1.42 c p3
105.63 124.19 1.42 c p3
105.63 124.19 1.42 c p3
105.63 124.19 1.42 c p3
105.63 124.19 1.42 c p3
105.63 124.19 1.42 c p3
105.63 124.19 1.42 c p3
105.63 124.19 1.42 c p3
105.63 124.19 1.42 c p3
105.63 124.19 1.42 c p3
105.63 124.19 1.42 c p3
105.63 124.19 1.42 c p3
105.63 124.19 1.42 c p3
105.63 124.19 1.42 c p3
105.63 124.19 1.42 c p3
105.63 124.19 1.42 c p3
105.63 124.19 1.42 c p3
105.63 124.19 1.42 c p3
105.63 124.19 1.42 c p3
105.63 124.19 1.42 c p3
105.63 124.19 1.42 c p3
105.63 124.19 1.42 c p3
105.63 124.19 1.42 c p3
105.63 124.19 1.42 c p3
105.63 124.19 1.42 c p3
105.63 124.19 1.42 c p3
105.63 124.19 1.42 c p3
105.63 124.19 1.42 c p3
105.63 124.19 1.42 c p3
105.63 124.19 1.42 c p3
105.63 124.19 1.42 c p3
105.63 124.19 1.42 c p3
105.63 124.19 1.42 c p3
105.63 124.19 1.42 c p3
105.63 124.19 1.42 c p3
105.63 124.19 1.42 c p3
105.63 124.19 1.42 c p3
105.63 124.19 1.42 c p3
105.63 124.19 1.42 c p3
105.63 124.19 1.42 c p3
105.63 124.19 1.42 c p3
105.63 124.19 1.42 c p3
105.63 124.19 1.42 c p3
105.63 124.19 1.42 c p3
105.63 124.19 1.42 c p3
105.63 124.19 1.42 c p3
105.63 124.19 1.42 c p3
105.63 124.19 1.42 c p3
105.63 124.19 1.42 c p3
105.63 124.19 1.42 c p3
105.63 124.19 1.42 c p3
105.63 124.19 1.42 c p3
105.63 124.19 1.42 c p3
105.63 124.19 1.42 c p3
105.63 124.19 1.42 c p3
105.63 124.19 1.42 c p3
105.63 124.19 1.42 c p3
105.63 124.19 1.42 c p3
105.63 124.19 1.42 c p3
105.63 124.19 1.42 c p3
105.63 124.19 1.42 c p3
105.63 124.19 1.42 c p3
105.63 124.19 1.42 c p3
105.63 124.19 1.42 c p3
105.63 124.19 1.42 c p3
105.63 124.19 1.42 c p3
105.63 124.19 1.42 c p3
105.63 124.19 1.42 c p3
105.63 124.19 1.42 c p3
105.63 124.19 1.42 c p3
105.63 124.19 1.42 c p3
105.63 124.19 1.42 c p3
105.63 124.19 1.42 c p3
105.63 124.19 1.42 c p3
105.63 124.19 1.42 c p3
105.63 124.19 1.42 c p3
105.63 124.19 1.42 c p3
105.63 124.19 1.42 c p3
105.63 124.19 1.42 c p3
105.63 124.19 1.42 c p3
105.63 124.19 1.42 c p3
105.63 124.19 1.42 c p3
105.63 124.19 1.42 c p3
105.63 124.19 1.42 c p3
105.63 124.19 1.42 c p3
105.63 124.19 1.42 c p3
105.63 124.19 1.42 c p3
105.63 124.19 1.42 c p3
105.63 124.19 1.42 c p3
105.63 124.19 1.42 c p3
105.63 124.19 1.42 c p3
105.63 124.19 1.42 c p3
105.63 124.19 1.42 c p3
105.63 124.19 1.42 c p3
105.63 124.19 1.42 c p3
105.63 124.19 1.42 c p3
105.63 124.19 1.42 c p3
105.63 124.19 1.42 c p3
105.63 124.19 1.42 c p3
105.63 124.19 1.42 c p3
105.63 124.19 1.42 c p3
105.63 124.19 1.42 c p3
105.63 124.19 1.42 c p3
105.63 124.19 1.42 c p3
105.63 124.19 1.42 c p3
105.63 124.19 1.42 c p3
105.63 124.19 1.42 c p3
105.63 124.19 1.42 c p3
105.63 124.19 1.42 c p3
105.63 124.19 1.42 c p3
105.63 124.19 1.42 c p3
105.63 124.19 1.42 c p3
105.63 124.19 1.42 c p3
105.63 124.19 1.42 c p3
105.63 124.19 1.42 c p3
105.63 124.19 1.42 c p3
105.63 124.19 1.42 c p3
105.63 124.19 1.42 c p3
105.63 124.19 1.42 c p3
105.63 124.19 1.42 c p3
105.63 124.19 1.42 c p3
105.63 124.19 1.42 c p3
105.63 124.19 1.42 c p3
105.63 124.19 1.42 c p3
105.63 124.19 1.42 c p3
105.63 124.19 1.42 c p3
105.63 124.19 1.42 c p3
105.63 124.19 1.42 c p3
105.63 124.19 1.42 c p3
105.63 124.19 1.42 c p3
105.63 124.19 1.42 c p3
105.63 124.19 1.42 c p3
105.63 124.19 1.42 c p3
105.63 124.19 1.42 c p3
105.63 124.19 1.42 c p3
105.63 124.19 1.42 c p3
105.63 124.19 1.42 c p3
105.63 124.19 1.42 c p3
168.86 53.27 1.42 c p3
168.86 53.27 1.42 c p3
168.86 53.27 1.42 c p3
168.86 53.27 1.42 c p3
168.86 53.27 1.42 c p3
168.86 53.27 1.42 c p3
168.86 53.27 1.42 c p3
168.86 53.27 1.42 c p3
168.86 53.27 1.42 c p3
168.86 53.27 1.42 c p3
168.86 53.27 1.42 c p3
168.86 53.27 1.42 c p3
168.86 53.27 1.42 c p3
168.86 53.27 1.42 c p3
168.86 53.27 1.42 c p3
168.86 53.27 1.42 c p3
168.86 53.27 1.42 c p3
168.86 53.27 1.42 c p3
168.86 53.27 1.42 c p3
168.86 53.27 1.42 c p3
168.86 53.27 1.42 c p3
168.86 53.27 1.42 c p3
168.86 53.27 1.42 c p3
168.86 53.27 1.42 c p3
168.86 53.27 1.42 c p3
168.86 53.27 1.42 c p3
168.86 53.27 1.42 c p3
168.86 53.27 1.42 c p3
168.86 53.27 1.42 c p3
168.86 53.27 1.42 c p3
168.86 53.27 1.42 c p3
168.86 53.27 1.42 c p3
168.86 53.27 1.42 c p3
168.86 53.27 1.42 c p3
168.86 53.27 1.42 c p3
168.86 53.27 1.42 c p3
168.86 53.27 1.42 c p3
168.86 53.27 1.42 c p3
168.86 53.27 1.42 c p3
168.86 53.27 1.42 c p3
168.86 53.27 1.42 c p3
168.86 53.27 1.42 c p3
168.86 53.27 1.42 c p3
168.86 53.27 1.42 c p3
168.86 53.27 1.42 c p3
168.86 53.27 1.42 c p3
168.86 53.27 1.42 c p3
168.86 53.27 1.42 c p3
168.86 53.27 1.42 c p3
168.86 53.27 1.42 c p3
168.86 53.27 1.42 c p3
168.86 53.27 1.42 c p3
168.86 53.27 1.42 c p3
168.86 53.27 1.42 c p3
168.86 53.27 1.42 c p3
168.86 53.27 1.42 c p3
168.86 53.27 1.42 c p3
168.86 53.27 1.42 c p3
168.86 53.27 1.42 c p3
168.86 53.27 1.42 c p3
168.86 53.27 1.42 c p3
168.86 53.27 1.42 c p3
168.86 53.27 1.42 c p3
168.86 53.27 1.42 c p3
168.86 53.27 1.42 c p3
168.86 53.27 1.42 c p3
168.86 53.27 1.42 c p3
168.86 53.27 1.42 c p3
168.86 53.27 1.42 c p3
168.86 53.27 1.42 c p3
168.86 53.27 1.42 c p3
168.86 53.27 1.42 c p3
168.86 53.27 1.42 c p3
168.86 53.27 1.42 c p3
168.86 53.27 1.42 c p3
168.86 53.27 1.42 c p3
168.86 53.27 1.42 c p3
168.86 53.27 1.42 c p3
168.86 53.27 1.42 c p3
168.86 53.27 1.42 c p3
168.86 53.27 1.42 c p3
168.86 53.27 1.42 c p3
168.86 53.27 1.42 c p3
168.86 53.27 1.42 c p3
168.86 53.27 1.42 c p3
168.86 53.27 1.42 c p3
168.86 53.27 1.42 c p3
168.86 53.27 1.42 c p3
168.86 53.27 1.42 c p3
168.86 53.27 1.42 c p3
168.86 53.27 1.42 c p3
168.86 53.27 1.42 c p3
168.86 53.27 1.42 c p3
168.86 53.27 1.42 c p3
168.86 53.27 1.42 c p3
168.86 53.27 1.42 c p3
168.86 53.27 1.42 c p3
168.86 53.27 1.42 c p3
168.86 53.27 1.42 c p3
168.86 53.27 1.42 c p3
168.86 53.27 1.42 c p3
168.86 53.27 1.42 c p3
168.86 53.27 1.42 c p3
168.86 53.27 1.42 c p3
168.86 53.27 1.42 c p3
168.86 53.27 1.42 c p3
168.86 53.27 1.42 c p3
168.86 53.27 1.42 c p3
168.86 53.27 1.42 c p3
168.86 53.27 1.42 c p3
168.86 53.27 1.42 c p3
168.86 53.27 1.42 c p3
168.86 53.27 1.42 c p3
168.86 53.27 1.42 c p3
168.86 53.27 1.42 c p3
168.86 53.27 1.42 c p3
168.86 53.27 1.42 c p3
168.86 53.27 1.42 c p3
168.86 53.27 1.42 c p3
168.86 53.27 1.42 c p3
168.86 53.27 1.42 c p3
168.86 53.27 1.42 c p3
168.86 53.27 1.42 c p3
168.86 53.27 1.42 c p3
168.86 53.27 1.42 c p3
168.86 53.27 1.42 c p3
168.86 53.27 1.42 c p3
168.86 53.27 1.42 c p3
168.86 53.27 1.42 c p3
168.86 53.27 1.42 c p3
168.86 53.27 1.42 c p3
168.86 53.27 1.42 c p3
168.86 53.27 1.42 c p3
168.86 53.27 1.42 c p3
168.86 53.27 1.42 c p3
168.86 53.27 1.42 c p3
168.86 53.27 1.42 c p3
168.86 53.27 1.42 c p3
168.86 53.27 1.42 c p3
168.86 53.27 1.42 c p3
168.86 53.27 1.42 c p3
168.86 53.27 1.42 c p3
168.86 53.27 1.42 c p3
168.86 53.27 1.42 c p3
168.86 53.27 1.42 c p3
168.86 53.27 1.42 c p3
168.86 53.27 1.42 c p3
168.86 53.27 1.42 c p3
168.86 53.27 1.42 c p3
168.86 53.27 1.42 c p3
168.86 53.27 1.42 c p3
168.86 53.27 1.42 c p3
168.86 53.27 1.42 c p3
168.86 53.27 1.42 c p3
168.86 53.27 1.42 c p3
168.86 53.27 1.42 c p3
168.86 53.27 1.42 c p3
168.86 53.27 1.42 c p3
168.86 53.27 1.42 c p3
168.86 53.27 1.42 c p3
168.86 53.27 1.42 c p3
168.86 53.27 1.42 c p3
168.86 53.27 1.42 c p3
168.86 53.27 1.42 c p3
168.86 53.27 1.42 c p3
168.86 53.27 1.42 c p3
168.86 53.27 1.42 c p3
168.86 53.27 1.42 c p3
168.86 53.27 1.42 c p3
168.86 53.27 1.42 c p3
168.86 53.27 1.42 c p3
168.86 53.27 1.42 c p3
168.86 53.27 1.42 c p3
168.86 53.27 1.42 c p3
168.86 53.27 1.42 c p3
168.86 53.27 1.42 c p3
168.86 53.27 1.42 c p3
168.86 53.27 1.42 c p3
168.86 53.27 1.42 c p3
168.86 53.27 1.42 c p3
168.86 53.27 1.42 c p3
168.86 53.27 1.42 c p3
168.86 53.27 1.42 c p3
168.86 53.27 1.42 c p3
168.86 53.27 1.42 c p3
168.86 53.27 1.42 c p3
168.86 53.27 1.42 c p3
168.86 53.27 1.42 c p3
168.86 53.27 1.42 c p3
168.86 53.27 1.42 c p3
168.86 53.27 1.42 c p3
168.86 53.27 1.42 c p3
168.86 53.27 1.42 c p3
168.86 53.27 1.42 c p3
168.86 53.27 1.42 c p3
168.86 53.27 1.42 c p3
168.86 53.27 1.42 c p3
168.86 53.27 1.42 c p3
168.86 53.27 1.42 c p3
168.86 53.27 1.42 c p3
168.86 53.27 1.42 c p3
168.86 53.27 1.42 c p3
168.86 53.27 1.42 c p3
168.86 53.27 1.42 c p3
168.86 53.27 1.42 c p3
168.86 53.27 1.42 c p3
168.86 53.27 1.42 c p3
168.86 53.27 1.42 c p3
168.86 53.27 1.42 c p3
168.86 53.27 1.42 c p3
168.86 53.27 1.42 c p3
168.86 53.27 1.42 c p3
168.86 53.27 1.42 c p3
168.86 53.27 1.42 c p3
168.86 53.27 1.42 c p3
168.86 53.27 1.42 c p3
168.86 53.27 1.42 c p3
168.86 53.27 1.42 c p3
168.86 53.27 1.42 c p3
168.86 53.27 1.42 c p3
168.86 53.27 1.42 c p3
168.86 53.27 1.42 c p3
168.86 53.27 1.42 c p3
168.86 53.27 1.42 c p3
168.86 53.27 1.42 c p3
168.86 53.27 1.42 c p3
168.86 53.27 1.42 c p3
168.86 53.27 1.42 c p3
168.86 53.27 1.42 c p3
168.86 53.27 1.42 c p3
168.86 53.27 1.42 c p3
168.86 53.27 1.42 c p3
168.86 53.27 1.42 c p3
168.86 53.27 1.42 c p3
168.86 53.27 1.42 c p3
168.86 53.27 1.42 c p3
168.86 53.27 1.42 c p3
168.86 53.27 1.42 c p3
168.86 53.27 1.42 c p3
168.86 53.27 1.42 c p3
168.86 53.27 1.42 c p3
168.86 53.27 1.42 c p3
168.86 53.27 1.42 c p3
168.86 53.27 1.42 c p3
168.86 53.27 1.42 c p3
168.86 53.27 1.42 c p3
168.86 53.27 1.42 c p3
168.86 53.27 1.42 c p3
168.86 53.27 1.42 c p3
168.86 53.27 1.42 c p3
168.86 53.27 1.42 c p3
168.86 53.27 1.42 c p3
168.86 53.27 1.42 c p3
168.86 53.27 1.42 c p3
168.86 53.27 1.42 c p3
168.86 53.27 1.42 c p3
168.86 53.27 1.42 c p3
168.86 53.27 1.42 c p3
168.86 53.27 1.42 c p3
168.86 53.27 1.42 c p3
168.86 53.27 1.42 c p3
168.86 53.27 1.42 c p3
168.86 53.27 1.42 c p3
168.86 53.27 1.42 c p3
168.86 53.27 1.42 c p3
168.86 53.27 1.42 c p3
168.86 53.27 1.42 c p3
168.86 53.27 1.42 c p3
168.86 53.27 1.42 c p3
168.86 53.27 1.42 c p3
168.86 53.27 1.42 c p3
168.86 53.27 1.42 c p3
168.86 53.27 1.42 c p3
168.86 53.27 1.42 c p3
168.86 53.27 1.42 c p3
168.86 53.27 1.42 c p3
168.86 53.27 1.42 c p3
168.86 53.27 1.42 c p3
168.86 53.27 1.42 c p3
168.86 53.27 1.42 c p3
168.86 53.27 1.42 c p3
168.86 53.27 1.42 c p3
168.86 53.27 1.42 c p3
168.86 53.27 1.42 c p3
168.86 53.27 1.42 c p3
168.86 53.27 1.42 c p3
168.86 53.27 1.42 c p3
168.86 53.27 1.42 c p3
168.86 53.27 1.42 c p3
168.86 53.27 1.42 c p3
168.86 53.27 1.42 c p3
168.86 53.27 1.42 c p3
168.86 53.27 1.42 c p3
168.86 53.27 1.42 c p3
168.86 53.27 1.42 c p3
168.86 53.27 1.42 c p3
168.86 53.27 1.42 c p3
168.86 53.27 1.42 c p3
168.86 53.27 1.42 c p3
168.86 53.27 1.42 c p3
168.86 53.27 1.42 c p3
168.86 53.27 1.42 c p3
168.86 53.27 1.42 c p3
168.86 53.27 1.42 c p3
168.86 53.27 1.42 c p3
168.86 53.27 1.42 c p3
168.86 53.27 1.42 c p3
168.86 53.27 1.42 c p3
168.86 53.27 1.42 c p3
168.86 53.27 1.42 c p3
168.86 53.27 1.42 c p3
168.86 53.27 1.42 c p3
168.86 53.27 1.42 c p3
168.86 53.27 1.42 c p3
168.86 53.27 1.42 c p3
168.86 53.27 1.42 c p3
168.86 53.27 1.42 c p3
168.86 53.27 1.42 c p3
168.86 53.27 1.42 c p3
168.86 53.27 1.42 c p3
168.86 53.27 1.42 c p3
168.86 53.27 1.42 c p3
168.86 53.27 1.42 c p3
168.86 53.27 1.42 c p3
168.86 53.27 1.42 c p3
168.86 53.27 1.42 c p3
168.86 53.27 1.42 c p3
168.86 53.27 1.42 c p3
168.86 53.27 1.42 c p3
168.86 53.27 1.42 c p3
168.86 53.27 1.42 c p3
168.86 53.27 1.42 c p3
168.86 53.27 1.42 c p3
168.86 53.27 1.42 c p3
168.86 53.27 1.42 c p3
168.86 53.27 1.42 c p3
168.86 53.27 1.42 c p3
168.86 53.27 1.42 c p3
168.86 53.27 1.42 c p3
168.86 53.27 1.42 c p3
168.86 53.27 1.42 c p3
168.86 53.27 1.42 c p3
168.86 53.27 1.42 c p3
168.86 53.27 1.42 c p3
168.86 53.27 1.42 c p3
168.86 53.27 1.42 c p3
168.86 53.27 1.42 c p3
168.86 53.27 1.42 c p3
168.86 53.27 1.42 c p3
168.86 53.27 1.42 c p3
168.86 53.27 1.42 c p3
168.86 53.27 1.42 c p3
168.86 53.27 1.42 c p3
168.86 53.27 1.42 c p3
168.86 53.27 1.42 c p3
168.86 53.27 1.42 c p3
168.86 53.27 1.42 c p3
168.86 53.27 1.42 c p3
168.86 53.27 1.42 c p3
168.86 53.27 1.42 c p3
168.86 53.27 1.42 c p3
168.86 53.27 1.42 c p3
168.86 53.27 1.42 c p3
168.86 53.27 1.42 c p3
168.86 53.27 1.42 c p3
168.86 53.27 1.42 c p3
168.86 53.27 1.42 c p3
168.86 53.27 1.42 c p3
168.86 53.27 1.42 c p3
168.86 53.27 1.42 c p3
168.86 53.27 1.42 c p3
168.86 53.27 1.42 c p3
168.86 53.27 1.42 c p3
168.86 53.27 1.42 c p3
168.86 53.27 1.42 c p3
168.86 53.27 1.42 c p3
168.86 53.27 1.42 c p3
168.86 53.27 1.42 c p3
168.86 53.27 1.42 c p3
168.86 53.27 1.42 c p3
168.86 53.27 1.42 c p3
168.86 53.27 1.42 c p3
168.86 53.27 1.42 c p3
168.86 53.27 1.42 c p3
168.86 53.27 1.42 c p3
168.86 53.27 1.42 c p3
168.86 53.27 1.42 c p3
168.86 53.27 1.42 c p3
168.86 53.27 1.42 c p3
168.86 53.27 1.42 c p3
168.86 53.27 1.42 c p3
168.86 53.27 1.42 c p3
168.86 53.27 1.42 c p3
168.86 53.27 1.42 c p3
168.86 53.27 1.42 c p3
168.86 53.27 1.42 c p3
168.86 53.27 1.42 c p3
168.86 53.27 1.42 c p3
168.86 53.27 1.42 c p3
168.86 53.27 1.42 c p3
232.09 40.93 1.42 c p3
232.09 40.93 1.42 c p3
232.09 40.93 1.42 c p3
232.09 40.93 1.42 c p3
232.09 40.93 1.42 c p3
232.09 40.93 1.42 c p3
232.09 40.93 1.42 c p3
232.09 40.93 1.42 c p3
232.09 40.93 1.42 c p3
232.09 40.93 1.42 c p3
232.09 40.93 1.42 c p3
232.09 40.93 1.42 c p3
232.09 40.93 1.42 c p3
232.09 40.93 1.42 c p3
232.09 40.93 1.42 c p3
232.09 40.93 1.42 c p3
232.09 40.93 1.42 c p3
232.09 40.93 1.42 c p3
232.09 40.93 1.42 c p3
232.09 40.93 1.42 c p3
232.09 40.93 1.42 c p3
232.09 40.93 1.42 c p3
232.09 40.93 1.42 c p3
232.09 40.93 1.42 c p3
232.09 40.93 1.42 c p3
232.09 40.93 1.42 c p3
232.09 40.93 1.42 c p3
232.09 40.93 1.42 c p3
232.09 40.93 1.42 c p3
232.09 40.93 1.42 c p3
232.09 40.93 1.42 c p3
232.09 40.93 1.42 c p3
232.09 40.93 1.42 c p3
232.09 40.93 1.42 c p3
232.09 40.93 1.42 c p3
232.09 40.93 1.42 c p3
232.09 40.93 1.42 c p3
232.09 40.93 1.42 c p3
232.09 40.93 1.42 c p3
232.09 40.93 1.42 c p3
232.09 40.93 1.42 c p3
232.09 40.93 1.42 c p3
232.09 40.93 1.42 c p3
232.09 40.93 1.42 c p3
232.09 40.93 1.42 c p3
232.09 40.93 1.42 c p3
232.09 40.93 1.42 c p3
232.09 40.93 1.42 c p3
232.09 40.93 1.42 c p3
232.09 40.93 1.42 c p3
232.09 40.93 1.42 c p3
232.09 40.93 1.42 c p3
232.09 40.93 1.42 c p3
232.09 40.93 1.42 c p3
232.09 40.93 1.42 c p3
232.09 40.93 1.42 c p3
232.09 40.93 1.42 c p3
232.09 40.93 1.42 c p3
232.09 40.93 1.42 c p3
232.09 40.93 1.42 c p3
232.09 40.93 1.42 c p3
232.09 40.93 1.42 c p3
232.09 40.93 1.42 c p3
232.09 40.93 1.42 c p3
232.09 40.93 1.42 c p3
232.09 40.93 1.42 c p3
232.09 40.93 1.42 c p3
232.09 40.93 1.42 c p3
232.09 40.93 1.42 c p3
232.09 40.93 1.42 c p3
232.09 40.93 1.42 c p3
232.09 40.93 1.42 c p3
232.09 40.93 1.42 c p3
232.09 40.93 1.42 c p3
232.09 40.93 1.42 c p3
232.09 40.93 1.42 c p3
232.09 40.93 1.42 c p3
232.09 40.93 1.42 c p3
232.09 40.93 1.42 c p3
232.09 40.93 1.42 c p3
232.09 40.93 1.42 c p3
232.09 40.93 1.42 c p3
232.09 40.93 1.42 c p3
232.09 40.93 1.42 c p3
232.09 40.93 1.42 c p3
232.09 40.93 1.42 c p3
232.09 40.93 1.42 c p3
232.09 40.93 1.42 c p3
232.09 40.93 1.42 c p3
232.09 40.93 1.42 c p3
232.09 40.93 1.42 c p3
232.09 40.93 1.42 c p3
232.09 40.93 1.42 c p3
232.09 40.93 1.42 c p3
232.09 40.93 1.42 c p3
232.09 40.93 1.42 c p3
232.09 40.93 1.42 c p3
232.09 40.93 1.42 c p3
232.09 40.93 1.42 c p3
232.09 40.93 1.42 c p3
232.09 40.93 1.42 c p3
232.09 40.93 1.42 c p3
232.09 40.93 1.42 c p3
232.09 40.93 1.42 c p3
232.09 40.93 1.42 c p3
232.09 40.93 1.42 c p3
232.09 40.93 1.42 c p3
232.09 40.93 1.42 c p3
232.09 40.93 1.42 c p3
232.09 40.93 1.42 c p3
232.09 40.93 1.42 c p3
232.09 40.93 1.42 c p3
232.09 40.93 1.42 c p3
232.09 40.93 1.42 c p3
232.09 40.93 1.42 c p3
232.09 40.93 1.42 c p3
232.09 40.93 1.42 c p3
232.09 40.93 1.42 c p3
232.09 40.93 1.42 c p3
232.09 40.93 1.42 c p3
232.09 40.93 1.42 c p3
232.09 40.93 1.42 c p3
232.09 40.93 1.42 c p3
232.09 40.93 1.42 c p3
232.09 40.93 1.42 c p3
232.09 40.93 1.42 c p3
232.09 40.93 1.42 c p3
232.09 40.93 1.42 c p3
232.09 40.93 1.42 c p3
232.09 40.93 1.42 c p3
232.09 40.93 1.42 c p3
232.09 40.93 1.42 c p3
232.09 40.93 1.42 c p3
232.09 40.93 1.42 c p3
232.09 40.93 1.42 c p3
232.09 40.93 1.42 c p3
232.09 40.93 1.42 c p3
232.09 40.93 1.42 c p3
232.09 40.93 1.42 c p3
232.09 40.93 1.42 c p3
232.09 40.93 1.42 c p3
232.09 40.93 1.42 c p3
232.09 40.93 1.42 c p3
232.09 40.93 1.42 c p3
232.09 40.93 1.42 c p3
232.09 40.93 1.42 c p3
232.09 40.93 1.42 c p3
232.09 40.93 1.42 c p3
232.09 40.93 1.42 c p3
232.09 40.93 1.42 c p3
232.09 40.93 1.42 c p3
232.09 40.93 1.42 c p3
232.09 40.93 1.42 c p3
232.09 40.93 1.42 c p3
232.09 40.93 1.42 c p3
232.09 40.93 1.42 c p3
232.09 40.93 1.42 c p3
232.09 40.93 1.42 c p3
232.09 40.93 1.42 c p3
232.09 40.93 1.42 c p3
232.09 40.93 1.42 c p3
232.09 40.93 1.42 c p3
232.09 40.93 1.42 c p3
232.09 40.93 1.42 c p3
232.09 40.93 1.42 c p3
232.09 40.93 1.42 c p3
232.09 40.93 1.42 c p3
232.09 40.93 1.42 c p3
232.09 40.93 1.42 c p3
232.09 40.93 1.42 c p3
232.09 40.93 1.42 c p3
232.09 40.93 1.42 c p3
232.09 40.93 1.42 c p3
232.09 40.93 1.42 c p3
232.09 40.93 1.42 c p3
232.09 40.93 1.42 c p3
232.09 40.93 1.42 c p3
232.09 40.93 1.42 c p3
232.09 40.93 1.42 c p3
232.09 40.93 1.42 c p3
232.09 40.93 1.42 c p3
232.09 40.93 1.42 c p3
232.09 40.93 1.42 c p3
232.09 40.93 1.42 c p3
232.09 40.93 1.42 c p3
232.09 40.93 1.42 c p3
232.09 40.93 1.42 c p3
232.09 40.93 1.42 c p3
232.09 40.93 1.42 c p3
232.09 40.93 1.42 c p3
232.09 40.93 1.42 c p3
232.09 40.93 1.42 c p3
232.09 40.93 1.42 c p3
232.09 40.93 1.42 c p3
232.09 40.93 1.42 c p3
232.09 40.93 1.42 c p3
232.09 40.93 1.42 c p3
232.09 40.93 1.42 c p3
232.09 40.93 1.42 c p3
232.09 40.93 1.42 c p3
232.09 40.93 1.42 c p3
232.09 40.93 1.42 c p3
232.09 40.93 1.42 c p3
232.09 40.93 1.42 c p3
232.09 40.93 1.42 c p3
232.09 40.93 1.42 c p3
232.09 40.93 1.42 c p3
232.09 40.93 1.42 c p3
232.09 40.93 1.42 c p3
232.09 40.93 1.42 c p3
232.09 40.93 1.42 c p3
232.09 40.93 1.42 c p3
232.09 40.93 1.42 c p3
232.09 40.93 1.42 c p3
232.09 40.93 1.42 c p3
232.09 40.93 1.42 c p3
232.09 40.93 1.42 c p3
232.09 40.93 1.42 c p3
232.09 40.93 1.42 c p3
232.09 40.93 1.42 c p3
232.09 40.93 1.42 c p3
232.09 40.93 1.42 c p3
232.09 40.93 1.42 c p3
232.09 40.93 1.42 c p3
232.09 40.93 1.42 c p3
232.09 40.93 1.42 c p3
232.09 40.93 1.42 c p3
232.09 40.93 1.42 c p3
232.09 40.93 1.42 c p3
232.09 40.93 1.42 c p3
232.09 40.93 1.42 c p3
232.09 40.93 1.42 c p3
232.09 40.93 1.42 c p3
232.09 40.93 1.42 c p3
232.09 40.93 1.42 c p3
232.09 40.93 1.42 c p3
232.09 40.93 1.42 c p3
232.09 40.93 1.42 c p3
232.09 40.93 1.42 c p3
232.09 40.93 1.42 c p3
232.09 40.93 1.42 c p3
232.09 40.93 1.42 c p3
232.09 40.93 1.42 c p3
232.09 40.93 1.42 c p3
232.09 40.93 1.42 c p3
232.09 40.93 1.42 c p3
232.09 40.93 1.42 c p3
232.09 40.93 1.42 c p3
232.09 40.93 1.42 c p3
232.09 40.93 1.42 c p3
232.09 40.93 1.42 c p3
232.09 40.93 1.42 c p3
232.09 40.93 1.42 c p3
232.09 40.93 1.42 c p3
232.09 40.93 1.42 c p3
232.09 40.93 1.42 c p3
232.09 40.93 1.42 c p3
232.09 40.93 1.42 c p3
232.09 40.93 1.42 c p3
232.09 40.93 1.42 c p3
232.09 40.93 1.42 c p3
232.09 40.93 1.42 c p3
232.09 40.93 1.42 c p3
232.09 40.93 1.42 c p3
232.09 40.93 1.42 c p3
232.09 40.93 1.42 c p3
232.09 40.93 1.42 c p3
232.09 40.93 1.42 c p3
232.09 40.93 1.42 c p3
232.09 40.93 1.42 c p3
232.09 40.93 1.42 c p3
232.09 40.93 1.42 c p3
232.09 40.93 1.42 c p3
232.09 40.93 1.42 c p3
232.09 40.93 1.42 c p3
232.09 40.93 1.42 c p3
232.09 40.93 1.42 c p3
232.09 40.93 1.42 c p3
232.09 40.93 1.42 c p3
232.09 40.93 1.42 c p3
232.09 40.93 1.42 c p3
232.09 40.93 1.42 c p3
232.09 40.93 1.42 c p3
232.09 40.93 1.42 c p3
232.09 40.93 1.42 c p3
232.09 40.93 1.42 c p3
232.09 40.93 1.42 c p3
232.09 40.93 1.42 c p3
232.09 40.93 1.42 c p3
232.09 40.93 1.42 c p3
232.09 40.93 1.42 c p3
232.09 40.93 1.42 c p3
232.09 40.93 1.42 c p3
232.09 40.93 1.42 c p3
232.09 40.93 1.42 c p3
232.09 40.93 1.42 c p3
232.09 40.93 1.42 c p3
232.09 40.93 1.42 c p3
232.09 40.93 1.42 c p3
232.09 40.93 1.42 c p3
232.09 40.93 1.42 c p3
232.09 40.93 1.42 c p3
232.09 40.93 1.42 c p3
232.09 40.93 1.42 c p3
232.09 40.93 1.42 c p3
232.09 40.93 1.42 c p3
232.09 40.93 1.42 c p3
232.09 40.93 1.42 c p3
232.09 40.93 1.42 c p3
232.09 40.93 1.42 c p3
232.09 40.93 1.42 c p3
232.09 40.93 1.42 c p3
232.09 40.93 1.42 c p3
232.09 40.93 1.42 c p3
232.09 40.93 1.42 c p3
232.09 40.93 1.42 c p3
232.09 40.93 1.42 c p3
232.09 40.93 1.42 c p3
232.09 40.93 1.42 c p3
232.09 40.93 1.42 c p3
232.09 40.93 1.42 c p3
232.09 40.93 1.42 c p3
232.09 40.93 1.42 c p3
232.09 40.93 1.42 c p3
232.09 40.93 1.42 c p3
232.09 40.93 1.42 c p3
232.09 40.93 1.42 c p3
232.09 40.93 1.42 c p3
232.09 40.93 1.42 c p3
232.09 40.93 1.42 c p3
232.09 40.93 1.42 c p3
232.09 40.93 1.42 c p3
232.09 40.93 1.42 c p3
232.09 40.93 1.42 c p3
232.09 40.93 1.42 c p3
232.09 40.93 1.42 c p3
232.09 40.93 1.42 c p3
232.09 40.93 1.42 c p3
232.09 40.93 1.42 c p3
232.09 40.93 1.42 c p3
232.09 40.93 1.42 c p3
232.09 40.93 1.42 c p3
232.09 40.93 1.42 c p3
232.09 40.93 1.42 c p3
232.09 40.93 1.42 c p3
232.09 40.93 1.42 c p3
232.09 40.93 1.42 c p3
232.09 40.93 1.42 c p3
232.09 40.93 1.42 c p3
232.09 40.93 1.42 c p3
232.09 40.93 1.42 c p3
232.09 40.93 1.42 c p3
232.09 40.93 1.42 c p3
232.09 40.93 1.42 c p3
232.09 40.93 1.42 c p3
232.09 40.93 1.42 c p3
232.09 40.93 1.42 c p3
232.09 40.93 1.42 c p3
232.09 40.93 1.42 c p3
232.09 40.93 1.42 c p3
232.09 40.93 1.42 c p3
232.09 40.93 1.42 c p3
232.09 40.93 1.42 c p3
232.09 40.93 1.42 c p3
232.09 40.93 1.42 c p3
232.09 40.93 1.42 c p3
232.09 40.93 1.42 c p3
232.09 40.93 1.42 c p3
232.09 40.93 1.42 c p3
232.09 40.93 1.42 c p3
232.09 40.93 1.42 c p3
232.09 40.93 1.42 c p3
232.09 40.93 1.42 c p3
232.09 40.93 1.42 c p3
232.09 40.93 1.42 c p3
232.09 40.93 1.42 c p3
232.09 40.93 1.42 c p3
232.09 40.93 1.42 c p3
232.09 40.93 1.42 c p3
232.09 40.93 1.42 c p3
232.09 40.93 1.42 c p3
232.09 40.93 1.42 c p3
232.09 40.93 1.42 c p3
232.09 40.93 1.42 c p3
232.09 40.93 1.42 c p3
232.09 40.93 1.42 c p3
232.09 40.93 1.42 c p3
232.09 40.93 1.42 c p3
232.09 40.93 1.42 c p3
232.09 40.93 1.42 c p3
232.09 40.93 1.42 c p3
232.09 40.93 1.42 c p3
232.09 40.93 1.42 c p3
232.09 40.93 1.42 c p3
232.09 40.93 1.42 c p3
232.09 40.93 1.42 c p3
232.09 40.93 1.42 c p3
232.09 40.93 1.42 c p3
232.09 40.93 1.42 c p3
232.09 40.93 1.42 c p3
295.32 40.38 1.42 c p3
295.32 40.38 1.42 c p3
295.32 40.38 1.42 c p3
295.32 40.38 1.42 c p3
295.32 40.38 1.42 c p3
295.32 40.38 1.42 c p3
295.32 40.38 1.42 c p3
295.32 40.38 1.42 c p3
295.32 40.38 1.42 c p3
295.32 40.38 1.42 c p3
295.32 40.38 1.42 c p3
295.32 40.38 1.42 c p3
295.32 40.38 1.42 c p3
295.32 40.38 1.42 c p3
295.32 40.38 1.42 c p3
295.32 40.38 1.42 c p3
295.32 40.38 1.42 c p3
295.32 40.38 1.42 c p3
295.32 40.38 1.42 c p3
295.32 40.38 1.42 c p3
295.32 40.38 1.42 c p3
295.32 40.38 1.42 c p3
295.32 40.38 1.42 c p3
295.32 40.38 1.42 c p3
295.32 40.38 1.42 c p3
295.32 40.38 1.42 c p3
295.32 40.38 1.42 c p3
295.32 40.38 1.42 c p3
295.32 40.38 1.42 c p3
295.32 40.38 1.42 c p3
295.32 40.38 1.42 c p3
295.32 40.38 1.42 c p3
295.32 40.38 1.42 c p3
295.32 40.38 1.42 c p3
295.32 40.38 1.42 c p3
295.32 40.38 1.42 c p3
295.32 40.38 1.42 c p3
295.32 40.38 1.42 c p3
295.32 40.38 1.42 c p3
295.32 40.38 1.42 c p3
295.32 40.38 1.42 c p3
295.32 40.38 1.42 c p3
295.32 40.38 1.42 c p3
295.32 40.38 1.42 c p3
295.32 40.38 1.42 c p3
295.32 40.38 1.42 c p3
295.32 40.38 1.42 c p3
295.32 40.38 1.42 c p3
295.32 40.38 1.42 c p3
295.32 40.38 1.42 c p3
295.32 40.38 1.42 c p3
295.32 40.38 1.42 c p3
295.32 40.38 1.42 c p3
295.32 40.38 1.42 c p3
295.32 40.38 1.42 c p3
295.32 40.38 1.42 c p3
295.32 40.38 1.42 c p3
295.32 40.38 1.42 c p3
295.32 40.38 1.42 c p3
295.32 40.38 1.42 c p3
295.32 40.38 1.42 c p3
295.32 40.38 1.42 c p3
295.32 40.38 1.42 c p3
295.32 40.38 1.42 c p3
295.32 40.38 1.42 c p3
295.32 40.38 1.42 c p3
295.32 40.38 1.42 c p3
295.32 40.38 1.42 c p3
295.32 40.38 1.42 c p3
295.32 40.38 1.42 c p3
295.32 40.38 1.42 c p3
295.32 40.38 1.42 c p3
295.32 40.38 1.42 c p3
295.32 40.38 1.42 c p3
295.32 40.38 1.42 c p3
295.32 40.38 1.42 c p3
295.32 40.38 1.42 c p3
295.32 40.38 1.42 c p3
295.32 40.38 1.42 c p3
295.32 40.38 1.42 c p3
295.32 40.38 1.42 c p3
295.32 40.38 1.42 c p3
295.32 40.38 1.42 c p3
295.32 40.38 1.42 c p3
295.32 40.38 1.42 c p3
295.32 40.38 1.42 c p3
295.32 40.38 1.42 c p3
295.32 40.38 1.42 c p3
295.32 40.38 1.42 c p3
295.32 40.38 1.42 c p3
295.32 40.38 1.42 c p3
295.32 40.38 1.42 c p3
295.32 40.38 1.42 c p3
295.32 40.38 1.42 c p3
295.32 40.38 1.42 c p3
295.32 40.38 1.42 c p3
295.32 40.38 1.42 c p3
295.32 40.38 1.42 c p3
295.32 40.38 1.42 c p3
295.32 40.38 1.42 c p3
295.32 40.38 1.42 c p3
295.32 40.38 1.42 c p3
295.32 40.38 1.42 c p3
295.32 40.38 1.42 c p3
295.32 40.38 1.42 c p3
295.32 40.38 1.42 c p3
295.32 40.38 1.42 c p3
295.32 40.38 1.42 c p3
295.32 40.38 1.42 c p3
295.32 40.38 1.42 c p3
295.32 40.38 1.42 c p3
295.32 40.38 1.42 c p3
295.32 40.38 1.42 c p3
295.32 40.38 1.42 c p3
295.32 40.38 1.42 c p3
295.32 40.38 1.42 c p3
295.32 40.38 1.42 c p3
295.32 40.38 1.42 c p3
295.32 40.38 1.42 c p3
295.32 40.38 1.42 c p3
295.32 40.38 1.42 c p3
295.32 40.38 1.42 c p3
295.32 40.38 1.42 c p3
295.32 40.38 1.42 c p3
295.32 40.38 1.42 c p3
295.32 40.38 1.42 c p3
295.32 40.38 1.42 c p3
295.32 40.38 1.42 c p3
295.32 40.38 1.42 c p3
295.32 40.38 1.42 c p3
295.32 40.38 1.42 c p3
295.32 40.38 1.42 c p3
295.32 40.38 1.42 c p3
295.32 40.38 1.42 c p3
295.32 40.38 1.42 c p3
295.32 40.38 1.42 c p3
295.32 40.38 1.42 c p3
295.32 40.38 1.42 c p3
295.32 40.38 1.42 c p3
295.32 40.38 1.42 c p3
295.32 40.38 1.42 c p3
295.32 40.38 1.42 c p3
295.32 40.38 1.42 c p3
295.32 40.38 1.42 c p3
295.32 40.38 1.42 c p3
295.32 40.38 1.42 c p3
295.32 40.38 1.42 c p3
295.32 40.38 1.42 c p3
295.32 40.38 1.42 c p3
295.32 40.38 1.42 c p3
295.32 40.38 1.42 c p3
295.32 40.38 1.42 c p3
295.32 40.38 1.42 c p3
295.32 40.38 1.42 c p3
295.32 40.38 1.42 c p3
295.32 40.38 1.42 c p3
295.32 40.38 1.42 c p3
295.32 40.38 1.42 c p3
295.32 40.38 1.42 c p3
295.32 40.38 1.42 c p3
295.32 40.38 1.42 c p3
295.32 40.38 1.42 c p3
295.32 40.38 1.42 c p3
295.32 40.38 1.42 c p3
295.32 40.38 1.42 c p3
295.32 40.38 1.42 c p3
295.32 40.38 1.42 c p3
295.32 40.38 1.42 c p3
295.32 40.38 1.42 c p3
295.32 40.38 1.42 c p3
295.32 40.38 1.42 c p3
295.32 40.38 1.42 c p3
295.32 40.38 1.42 c p3
295.32 40.38 1.42 c p3
295.32 40.38 1.42 c p3
295.32 40.38 1.42 c p3
295.32 40.38 1.42 c p3
295.32 40.38 1.42 c p3
295.32 40.38 1.42 c p3
295.32 40.38 1.42 c p3
295.32 40.38 1.42 c p3
295.32 40.38 1.42 c p3
295.32 40.38 1.42 c p3
295.32 40.38 1.42 c p3
295.32 40.38 1.42 c p3
295.32 40.38 1.42 c p3
295.32 40.38 1.42 c p3
295.32 40.38 1.42 c p3
295.32 40.38 1.42 c p3
295.32 40.38 1.42 c p3
295.32 40.38 1.42 c p3
295.32 40.38 1.42 c p3
295.32 40.38 1.42 c p3
295.32 40.38 1.42 c p3
295.32 40.38 1.42 c p3
295.32 40.38 1.42 c p3
295.32 40.38 1.42 c p3
295.32 40.38 1.42 c p3
295.32 40.38 1.42 c p3
295.32 40.38 1.42 c p3
295.32 40.38 1.42 c p3
295.32 40.38 1.42 c p3
295.32 40.38 1.42 c p3
295.32 40.38 1.42 c p3
295.32 40.38 1.42 c p3
295.32 40.38 1.42 c p3
295.32 40.38 1.42 c p3
295.32 40.38 1.42 c p3
295.32 40.38 1.42 c p3
295.32 40.38 1.42 c p3
295.32 40.38 1.42 c p3
295.32 40.38 1.42 c p3
295.32 40.38 1.42 c p3
295.32 40.38 1.42 c p3
295.32 40.38 1.42 c p3
295.32 40.38 1.42 c p3
295.32 40.38 1.42 c p3
295.32 40.38 1.42 c p3
295.32 40.38 1.42 c p3
295.32 40.38 1.42 c p3
295.32 40.38 1.42 c p3
295.32 40.38 1.42 c p3
295.32 40.38 1.42 c p3
295.32 40.38 1.42 c p3
295.32 40.38 1.42 c p3
295.32 40.38 1.42 c p3
295.32 40.38 1.42 c p3
295.32 40.38 1.42 c p3
295.32 40.38 1.42 c p3
295.32 40.38 1.42 c p3
295.32 40.38 1.42 c p3
295.32 40.38 1.42 c p3
295.32 40.38 1.42 c p3
295.32 40.38 1.42 c p3
295.32 40.38 1.42 c p3
295.32 40.38 1.42 c p3
295.32 40.38 1.42 c p3
295.32 40.38 1.42 c p3
295.32 40.38 1.42 c p3
295.32 40.38 1.42 c p3
295.32 40.38 1.42 c p3
295.32 40.38 1.42 c p3
295.32 40.38 1.42 c p3
295.32 40.38 1.42 c p3
295.32 40.38 1.42 c p3
295.32 40.38 1.42 c p3
295.32 40.38 1.42 c p3
295.32 40.38 1.42 c p3
295.32 40.38 1.42 c p3
295.32 40.38 1.42 c p3
295.32 40.38 1.42 c p3
295.32 40.38 1.42 c p3
295.32 40.38 1.42 c p3
295.32 40.38 1.42 c p3
295.32 40.38 1.42 c p3
295.32 40.38 1.42 c p3
295.32 40.38 1.42 c p3
295.32 40.38 1.42 c p3
295.32 40.38 1.42 c p3
295.32 40.38 1.42 c p3
295.32 40.38 1.42 c p3
295.32 40.38 1.42 c p3
295.32 40.38 1.42 c p3
295.32 40.38 1.42 c p3
295.32 40.38 1.42 c p3
295.32 40.38 1.42 c p3
295.32 40.38 1.42 c p3
295.32 40.38 1.42 c p3
295.32 40.38 1.42 c p3
295.32 40.38 1.42 c p3
295.32 40.38 1.42 c p3
295.32 40.38 1.42 c p3
295.32 40.38 1.42 c p3
295.32 40.38 1.42 c p3
295.32 40.38 1.42 c p3
295.32 40.38 1.42 c p3
295.32 40.38 1.42 c p3
295.32 40.38 1.42 c p3
295.32 40.38 1.42 c p3
295.32 40.38 1.42 c p3
295.32 40.38 1.42 c p3
295.32 40.38 1.42 c p3
295.32 40.38 1.42 c p3
295.32 40.38 1.42 c p3
295.32 40.38 1.42 c p3
295.32 40.38 1.42 c p3
295.32 40.38 1.42 c p3
295.32 40.38 1.42 c p3
295.32 40.38 1.42 c p3
295.32 40.38 1.42 c p3
295.32 40.38 1.42 c p3
295.32 40.38 1.42 c p3
295.32 40.38 1.42 c p3
295.32 40.38 1.42 c p3
295.32 40.38 1.42 c p3
295.32 40.38 1.42 c p3
295.32 40.38 1.42 c p3
295.32 40.38 1.42 c p3
295.32 40.38 1.42 c p3
295.32 40.38 1.42 c p3
295.32 40.38 1.42 c p3
295.32 40.38 1.42 c p3
295.32 40.38 1.42 c p3
295.32 40.38 1.42 c p3
295.32 40.38 1.42 c p3
295.32 40.38 1.42 c p3
295.32 40.38 1.42 c p3
295.32 40.38 1.42 c p3
295.32 40.38 1.42 c p3
295.32 40.38 1.42 c p3
295.32 40.38 1.42 c p3
295.32 40.38 1.42 c p3
295.32 40.38 1.42 c p3
295.32 40.38 1.42 c p3
295.32 40.38 1.42 c p3
295.32 40.38 1.42 c p3
295.32 40.38 1.42 c p3
295.32 40.38 1.42 c p3
295.32 40.38 1.42 c p3
295.32 40.38 1.42 c p3
295.32 40.38 1.42 c p3
295.32 40.38 1.42 c p3
295.32 40.38 1.42 c p3
295.32 40.38 1.42 c p3
295.32 40.38 1.42 c p3
295.32 40.38 1.42 c p3
295.32 40.38 1.42 c p3
295.32 40.38 1.42 c p3
295.32 40.38 1.42 c p3
295.32 40.38 1.42 c p3
295.32 40.38 1.42 c p3
295.32 40.38 1.42 c p3
295.32 40.38 1.42 c p3
295.32 40.38 1.42 c p3
295.32 40.38 1.42 c p3
295.32 40.38 1.42 c p3
295.32 40.38 1.42 c p3
295.32 40.38 1.42 c p3
295.32 40.38 1.42 c p3
295.32 40.38 1.42 c p3
295.32 40.38 1.42 c p3
295.32 40.38 1.42 c p3
295.32 40.38 1.42 c p3
295.32 40.38 1.42 c p3
295.32 40.38 1.42 c p3
295.32 40.38 1.42 c p3
295.32 40.38 1.42 c p3
295.32 40.38 1.42 c p3
295.32 40.38 1.42 c p3
295.32 40.38 1.42 c p3
295.32 40.38 1.42 c p3
295.32 40.38 1.42 c p3
295.32 40.38 1.42 c p3
295.32 40.38 1.42 c p3
295.32 40.38 1.42 c p3
295.32 40.38 1.42 c p3
295.32 40.38 1.42 c p3
295.32 40.38 1.42 c p3
295.32 40.38 1.42 c p3
295.32 40.38 1.42 c p3
295.32 40.38 1.42 c p3
295.32 40.38 1.42 c p3
295.32 40.38 1.42 c p3
295.32 40.38 1.42 c p3
295.32 40.38 1.42 c p3
295.32 40.38 1.42 c p3
295.32 40.38 1.42 c p3
295.32 40.38 1.42 c p3
295.32 40.38 1.42 c p3
295.32 40.38 1.42 c p3
295.32 40.38 1.42 c p3
295.32 40.38 1.42 c p3
295.32 40.38 1.42 c p3
295.32 40.38 1.42 c p3
295.32 40.38 1.42 c p3
295.32 40.38 1.42 c p3
295.32 40.38 1.42 c p3
295.32 40.38 1.42 c p3
295.32 40.38 1.42 c p3
295.32 40.38 1.42 c p3
295.32 40.38 1.42 c p3
295.32 40.38 1.42 c p3
295.32 40.38 1.42 c p3
295.32 40.38 1.42 c p3
295.32 40.38 1.42 c p3
295.32 40.38 1.42 c p3
295.32 40.38 1.42 c p3
295.32 40.38 1.42 c p3
295.32 40.38 1.42 c p3
295.32 40.38 1.42 c p3
295.32 40.38 1.42 c p3
295.32 40.38 1.42 c p3
295.32 40.38 1.42 c p3
295.32 40.38 1.42 c p3
295.32 40.38 1.42 c p3
295.32 40.38 1.42 c p3
295.32 40.38 1.42 c p3
295.32 40.38 1.42 c p3
295.32 40.38 1.42 c p3
295.32 40.38 1.42 c p3
0.00 0.00 396.75 235.50 cl
0.00 0.00 396.75 235.50 cl
0.00 0.00 396.75 235.50 cl
0.00 0.00 396.75 235.50 cl
0.00 0.00 396.75 235.50 cl
0.00 0.00 396.75 235.50 cl
/Font1 findfont 9 s
0.3020 0.3020 0.3020 srgb
37.47 37.14 (0.00) 1 0 t
37.47 80.62 (0.25) 1 0 t
37.47 124.10 (0.50) 1 0 t
37.47 167.58 (0.75) 1 0 t
37.47 211.05 (1.00) 1 0 t
0.00 0.00 396.75 235.50 cl
0.00 0.00 396.75 235.50 cl
0.2000 0.2000 0.2000 srgb
1.07 setlinewidth
[] 0 setdash
0 setlinecap
1 setlinejoin
10.00 setmiterlimit
np
39.66 40.37 m
2.74 0 l
o
np
39.66 83.85 m
2.74 0 l
o
np
39.66 127.33 m
2.74 0 l
o
np
39.66 170.81 m
2.74 0 l
o
np
39.66 214.28 m
2.74 0 l
o
0.00 0.00 396.75 235.50 cl
0.00 0.00 396.75 235.50 cl
0.00 0.00 396.75 235.50 cl
0.00 0.00 396.75 235.50 cl
0.00 0.00 396.75 235.50 cl
0.00 0.00 396.75 235.50 cl
0.00 0.00 396.75 235.50 cl
0.00 0.00 396.75 235.50 cl
0.2000 0.2000 0.2000 srgb
1.07 setlinewidth
[] 0 setdash
0 setlinecap
1 setlinejoin
10.00 setmiterlimit
np
42.40 28.61 m
0 2.74 l
o
np
105.63 28.61 m
0 2.74 l
o
np
168.86 28.61 m
0 2.74 l
o
np
232.09 28.61 m
0 2.74 l
o
np
295.32 28.61 m
0 2.74 l
o
0.00 0.00 396.75 235.50 cl
0.00 0.00 396.75 235.50 cl
/Font1 findfont 9 s
0.3020 0.3020 0.3020 srgb
42.40 19.95 (0) .5 0 t
105.63 19.95 (1) .5 0 t
168.86 19.95 (2) .5 0 t
232.09 19.95 (3) .5 0 t
295.32 19.95 (4) .5 0 t
0.00 0.00 396.75 235.50 cl
0.00 0.00 396.75 235.50 cl
0.00 0.00 396.75 235.50 cl
0.00 0.00 396.75 235.50 cl
/Font1 findfont 11 s
0 0 0 srgb
168.86 7.67 (x) .5 0 t
0.00 0.00 396.75 235.50 cl
0.00 0.00 396.75 235.50 cl
/Font1 findfont 11 s
0 0 0 srgb
15.57 130.68 (T) .5 90 t
0.00 0.00 396.75 235.50 cl
0.00 0.00 396.75 235.50 cl
0.00 0.00 396.75 235.50 cl
0.00 0.00 396.75 235.50 cl
/bg { 1 1 1 srgb } def
303.82 93.85 78.94 73.66 r p2
0.00 0.00 396.75 235.50 cl
0.00 0.00 396.75 235.50 cl
0.00 0.00 396.75 235.50 cl
0.00 0.00 396.75 235.50 cl
/bg { 0.9490 0.9490 0.9490 srgb } def
1 1 1 srgb
1.07 setlinewidth
[] 0 setdash
1 setlinecap
1 setlinejoin
10.00 setmiterlimit
308.07 132.66 17.28 17.28 r p3
0.00 0.00 396.75 235.50 cl
0.00 0.00 396.75 235.50 cl
1 0.3882 0.2784 srgb
1.07 setlinewidth
[] 0 setdash
0 setlinecap
1 setlinejoin
10.00 setmiterlimit
np
309.80 141.30 m
13.83 0 l
o
0.00 0.00 396.75 235.50 cl
0.00 0.00 396.75 235.50 cl
0.00 0.00 396.75 235.50 cl
0.00 0.00 396.75 235.50 cl
1 0.3882 0.2784 srgb
1.07 setlinewidth
[] 0 setdash
0 setlinecap
1 setlinejoin
10.00 setmiterlimit
np
309.80 141.30 m
13.83 0 l
o
0.00 0.00 396.75 235.50 cl
0.00 0.00 396.75 235.50 cl
/bg { 0.9490 0.9490 0.9490 srgb } def
1 1 1 srgb
1.07 setlinewidth
[] 0 setdash
1 setlinecap
1 setlinejoin
10.00 setmiterlimit
308.07 115.38 17.28 17.28 r p3
0.00 0.00 396.75 235.50 cl
0.00 0.00 396.75 235.50 cl
0.5608 0.7373 0.5608 srgb
1.07 setlinewidth
[] 0 setdash
0 setlinecap
1 setlinejoin
10.00 setmiterlimit
np
309.80 124.02 m
13.83 0 l
o
0.00 0.00 396.75 235.50 cl
0.00 0.00 396.75 235.50 cl
0.00 0.00 396.75 235.50 cl
0.00 0.00 396.75 235.50 cl
0.5608 0.7373 0.5608 srgb
1.07 setlinewidth
[] 0 setdash
0 setlinecap
1 setlinejoin
10.00 setmiterlimit
np
309.80 124.02 m
13.83 0 l
o
0.00 0.00 396.75 235.50 cl
0.00 0.00 396.75 235.50 cl
/bg { 0.9490 0.9490 0.9490 srgb } def
1 1 1 srgb
1.07 setlinewidth
[] 0 setdash
1 setlinecap
1 setlinejoin
10.00 setmiterlimit
308.07 98.10 17.28 17.28 r p3
0.00 0.00 396.75 235.50 cl
0.00 0.00 396.75 235.50 cl
0.00 0.00 396.75 235.50 cl
0.00 0.00 396.75 235.50 cl
0.8039 0.7451 0.4392 srgb
0.71 setlinewidth
[] 0 setdash
1 setlinecap
1 setlinejoin
10.00 setmiterlimit
np
315.76 106.74 m
0.95 0.96 l
0.96 -0.96 l
-0.96 -0.95 l
-0.95 0.95 l
o
0.00 0.00 396.75 235.50 cl
0.00 0.00 396.75 235.50 cl
0.00 0.00 396.75 235.50 cl
0.00 0.00 396.75 235.50 cl
/Font1 findfont 9 s
0 0 0 srgb
327.51 138.07 (finite) 0 0 t
0.00 0.00 396.75 235.50 cl
0.00 0.00 396.75 235.50 cl
/Font1 findfont 9 s
0 0 0 srgb
327.51 120.79 (semi-infinite) 0 0 t
0.00 0.00 396.75 235.50 cl
0.00 0.00 396.75 235.50 cl
/Font1 findfont 9 s
0 0 0 srgb
327.51 103.51 (f) 0 ta
-0.270 (olded) tb gr
0.00 0.00 396.75 235.50 cl
0.00 0.00 396.75 235.50 cl
0.00 0.00 396.75 235.50 cl
0.00 0.00 396.75 235.50 cl
0.00 0.00 396.75 235.50 cl
0.00 0.00 396.75 235.50 cl
ep
%%Trailer
%%Pages: 1
%%EOF
