%!PS-Adobe-3.0 EPSF-3.0
%%DocumentNeededResources: font Helvetica
%%+ font Helvetica-Bold
%%+ font Helvetica-Oblique
%%+ font Helvetica-BoldOblique
%%+ font Symbol
%%Title: R Graphics Output
%%Creator: R Software
%%Pages: (atend)
%%BoundingBox: 0 0 359 250
%%EndComments
%%BeginProlog
/bp  { gs sRGB gs } def
% begin .ps.prolog
/gs  { gsave } bind def
/gr  { grestore } bind def
/ep  { showpage gr gr } bind def
/m   { moveto } bind def
/l  { rlineto } bind def
/np  { newpath } bind def
/cp  { closepath } bind def
/f   { fill } bind def
/o   { stroke } bind def
/c   { newpath 0 360 arc } bind def
/r   { 4 2 roll moveto 1 copy 3 -1 roll exch 0 exch rlineto 0 rlineto -1 mul 0 exch rlineto closepath } bind def
/p1  { stroke } bind def
/p2  { gsave bg fill grestore newpath } bind def
/p3  { gsave bg fill grestore stroke } bind def
/p6  { gsave bg eofill grestore newpath } bind def
/p7  { gsave bg eofill grestore stroke } bind def
/t   { 5 -2 roll moveto gsave rotate
       1 index stringwidth pop
       mul neg 0 rmoveto show grestore } bind def
/ta  { 4 -2 roll moveto gsave rotate show } bind def
/tb  { 2 -1 roll 0 rmoveto show } bind def
/cl  { grestore gsave newpath 3 index 3 index moveto 1 index
       4 -1 roll lineto  exch 1 index lineto lineto
       closepath clip newpath } bind def
/rgb { setrgbcolor } bind def
/s   { scalefont setfont } bind def
% end   .ps.prolog
/sRGB { [ /CIEBasedABC
          << /DecodeLMN
               [ { dup 0.03928 le
                        {12.92321 div}
                        {0.055 add 1.055 div 2.4 exp }
                     ifelse
                 } bind dup dup
               ]
             /MatrixLMN [0.412457 0.212673 0.019334
                         0.357576 0.715152 0.119192
                         0.180437 0.072175 0.950301]
             /WhitePoint [0.9505 1.0 1.0890]
           >>
         ] setcolorspace } bind def
/srgb { setcolor } bind def
% begin encoding
/WinAnsiEncoding [
 /.notdef /.notdef /.notdef /.notdef /.notdef /.notdef /.notdef /.notdef
 /.notdef /.notdef /.notdef /.notdef /.notdef /.notdef /.notdef /.notdef
 /.notdef /.notdef /.notdef /.notdef /.notdef /.notdef /.notdef /.notdef
 /.notdef /.notdef /.notdef /.notdef /.notdef /.notdef /.notdef /.notdef
 /space /exclam /quotedbl /numbersign /dollar /percent /ampersand /quoteright
 /parenleft /parenright /asterisk /plus /comma /minus /period /slash
 /zero /one /two /three /four /five /six /seven
 /eight /nine /colon /semicolon /less /equal /greater /question
 /at /A /B /C /D /E /F /G
 /H /I /J /K /L /M /N /O
 /P /Q /R /S /T /U /V /W
 /X /Y /Z /bracketleft /backslash /bracketright /asciicircum /underscore
 /grave /a /b /c /d /e /f /g
 /h /i /j /k /l /m /n /o
 /p /q /r /s /t /u /v /w
 /x /y /z /braceleft /bar /braceright /asciitilde /.notdef
 /Euro /.notdef /quotesinglbase /florin /quotedblbase /ellipsis /dagger /daggerdbl
 /circumflex /perthousand /Scaron /guilsinglleft /OE /.notdef /Zcaron /.notdef
 /.notdef /quoteleft /quoteright /quotedblleft /quotedblright /bullet /endash /emdash
 /tilde /trademark /scaron /guilsinglright /oe /.notdef /zcaron /Ydieresis
 /space /exclamdown /cent /sterling /currency /yen /brokenbar /section
 /dieresis /copyright /ordfeminine /guillemotleft /logicalnot /hyphen /registered /macron
 /degree /plusminus /twosuperior /threesuperior /acute /mu /paragraph /periodcentered
 /cedilla /onesuperior /ordmasculine /guillemotright /onequarter /onehalf /threequarters /questiondown
 /Agrave /Aacute /Acircumflex /Atilde /Adieresis /Aring /AE /Ccedilla
 /Egrave /Eacute /Ecircumflex /Edieresis /Igrave /Iacute /Icircumflex /Idieresis
 /Eth /Ntilde /Ograve /Oacute /Ocircumflex /Otilde /Odieresis /multiply
 /Oslash /Ugrave /Uacute /Ucircumflex /Udieresis /Yacute /Thorn /germandbls
 /agrave /aacute /acircumflex /atilde /adieresis /aring /ae /ccedilla
 /egrave /eacute /ecircumflex /edieresis /igrave /iacute /icircumflex /idieresis
 /eth /ntilde /ograve /oacute /ocircumflex /otilde /odieresis /divide
 /oslash /ugrave /uacute /ucircumflex /udieresis /yacute /thorn /ydieresis
]
 def
% end encoding
%%IncludeResource: font Helvetica
/Helvetica findfont
dup length dict begin
  {1 index /FID ne {def} {pop pop} ifelse} forall
  /Encoding WinAnsiEncoding def
  currentdict
  end
/Font1 exch definefont pop
%%IncludeResource: font Helvetica-Bold
/Helvetica-Bold findfont
dup length dict begin
  {1 index /FID ne {def} {pop pop} ifelse} forall
  /Encoding WinAnsiEncoding def
  currentdict
  end
/Font2 exch definefont pop
%%IncludeResource: font Helvetica-Oblique
/Helvetica-Oblique findfont
dup length dict begin
  {1 index /FID ne {def} {pop pop} ifelse} forall
  /Encoding WinAnsiEncoding def
  currentdict
  end
/Font3 exch definefont pop
%%IncludeResource: font Helvetica-BoldOblique
/Helvetica-BoldOblique findfont
dup length dict begin
  {1 index /FID ne {def} {pop pop} ifelse} forall
  /Encoding WinAnsiEncoding def
  currentdict
  end
/Font4 exch definefont pop
%%IncludeResource: font Symbol
/Symbol findfont
dup length dict begin
  {1 index /FID ne {def} {pop pop} ifelse} forall
  currentdict
  end
/Font5 exch definefont pop
%%EndProlog
%%Page: 1 1
bp
0.00 0.00 359.25 249.75 cl
0.00 0.00 359.25 249.75 cl
0.00 0.00 359.25 249.75 cl
0.00 0.00 359.25 249.75 cl
0.00 0.00 359.25 249.75 cl
0.00 0.00 359.25 249.75 cl
0.00 0.00 359.25 249.75 cl
0.00 0.00 359.25 249.75 cl
0.00 0.00 359.25 249.75 cl
/bg { 1 1 1 srgb } def
1 1 1 srgb
1.07 setlinewidth
[] 0 setdash
1 setlinecap
1 setlinejoin
10.00 setmiterlimit
0.00 0.00 359.25 249.75 r p3
0.00 0.00 359.25 249.75 cl
0.00 0.00 359.25 249.75 cl
0.00 0.00 359.25 249.75 cl
29.89 31.35 290.07 244.27 cl
/bg { 0.9216 0.9216 0.9216 srgb } def
29.89 31.35 260.18 212.92 r p2
1 1 1 srgb
0.53 setlinewidth
[] 0 setdash
0 setlinecap
1 setlinejoin
10.00 setmiterlimit
np
29.89 63.08 m
260.18 0 l
o
np
29.89 131.83 m
260.18 0 l
o
np
29.89 200.59 m
260.18 0 l
o
np
62.41 31.35 m
0 212.92 l
o
np
127.46 31.35 m
0 212.92 l
o
np
192.50 31.35 m
0 212.92 l
o
np
257.55 31.35 m
0 212.92 l
o
1.07 setlinewidth
[] 0 setdash
np
29.89 97.46 m
260.18 0 l
o
np
29.89 166.21 m
260.18 0 l
o
np
29.89 234.96 m
260.18 0 l
o
np
29.89 31.35 m
0 212.92 l
o
np
94.93 31.35 m
0 212.92 l
o
np
159.98 31.35 m
0 212.92 l
o
np
225.02 31.35 m
0 212.92 l
o
np
290.07 31.35 m
0 212.92 l
o
1 0.3882 0.2784 srgb
1.07 setlinewidth
[ 7.47 3.20] 0 setdash
1.00 setmiterlimit
np
29.89 131.83 m
2.63 0 l
2.62 0 l
2.63 0 l
2.63 0 l
2.63 0 l
2.63 0 l
2.62 0 l
2.63 0 l
2.63 0 l
2.63 0 l
2.63 0 l
2.63 0 l
2.62 0 l
2.63 0 l
2.63 0 l
2.63 0 l
2.63 0 l
2.62 0 l
2.63 0 l
2.63 0 l
2.63 0 l
2.63 0 l
2.62 0 l
2.63 0 l
2.63 0 l
2.63 0 l
2.63 0 l
2.62 0 l
2.63 0 l
2.63 0 l
2.63 0 l
2.63 0 l
2.63 0 l
2.62 0 l
2.63 0 l
2.63 0 l
2.63 0 l
2.63 0 l
2.62 0 l
2.63 0 l
2.63 0 l
2.63 0 l
2.63 0 l
2.62 0 l
2.63 0 l
2.63 0 l
2.63 0 l
2.63 0 l
2.62 0 l
2.63 0 l
2.63 0 l
2.63 0 l
2.63 0 l
2.62 0 l
2.63 0 l
2.63 0 l
2.63 0 l
2.63 0 l
2.63 0 l
2.62 0 l
2.63 0 l
2.63 0 l
2.63 0 l
2.63 0 l
2.62 0 l
2.63 0 l
2.63 0 l
2.63 0 l
2.63 0 l
2.62 0 l
2.63 0 l
2.63 0 l
2.63 0 l
2.63 0 l
2.62 0 l
2.63 0 l
2.63 0 l
2.63 0 l
2.63 0 l
2.62 0 l
2.63 0 l
2.63 0 l
2.63 0 l
2.63 0 l
2.63 0 l
2.62 0 l
2.63 0 l
2.63 0 l
2.63 0 l
2.63 0 l
2.62 0 l
2.63 0 l
2.63 0 l
2.63 0 l
2.63 0 l
2.62 0 l
2.63 0 l
2.63 0 l
2.63 0 l
o
0.8039 0.7451 0.4392 srgb
np
29.89 153.89 m
2.63 -0.02 l
2.62 -0.09 l
2.63 -0.14 l
2.63 -0.20 l
2.63 -0.25 l
2.63 -0.32 l
2.62 -0.36 l
2.63 -0.42 l
2.63 -0.48 l
2.63 -0.53 l
2.63 -0.59 l
2.63 -0.64 l
2.62 -0.69 l
2.63 -0.74 l
2.63 -0.80 l
2.63 -0.84 l
2.63 -0.90 l
2.62 -0.94 l
2.63 -1.00 l
2.63 -1.03 l
2.63 -1.09 l
2.63 -1.13 l
2.62 -1.17 l
2.63 -1.22 l
2.63 -1.25 l
2.63 -1.30 l
2.63 -1.33 l
2.62 -1.38 l
2.63 -1.40 l
2.63 -1.44 l
2.63 -1.48 l
2.63 -1.51 l
2.63 -1.53 l
2.62 -1.57 l
2.63 -1.59 l
2.63 -1.62 l
2.63 -1.64 l
2.63 -1.66 l
2.62 -1.68 l
2.63 -1.70 l
2.63 -1.72 l
2.63 -1.74 l
2.63 -1.74 l
2.62 -1.76 l
2.63 -1.77 l
2.63 -1.78 l
2.63 -1.78 l
2.63 -1.79 l
2.62 -1.78 l
2.63 -1.80 l
2.63 -1.79 l
2.63 -1.78 l
2.63 -1.79 l
2.62 -1.77 l
2.63 -1.77 l
2.63 -1.76 l
2.63 -1.75 l
2.63 -1.73 l
2.63 -1.72 l
2.62 -1.70 l
2.63 -1.68 l
2.63 -1.66 l
2.63 -1.64 l
2.63 -1.62 l
2.62 -1.59 l
2.63 -1.57 l
2.63 -1.53 l
2.63 -1.51 l
2.63 -1.48 l
2.62 -1.44 l
2.63 -1.41 l
2.63 -1.37 l
2.63 -1.33 l
2.63 -1.30 l
2.62 -1.25 l
2.63 -1.22 l
2.63 -1.17 l
2.63 -1.13 l
2.63 -1.09 l
2.62 -1.03 l
2.63 -1.00 l
2.63 -0.94 l
2.63 -0.90 l
2.63 -0.84 l
2.63 -0.80 l
2.62 -0.74 l
2.63 -0.69 l
2.63 -0.64 l
2.63 -0.59 l
2.63 -0.53 l
2.62 -0.48 l
2.63 -0.42 l
2.63 -0.37 l
2.63 -0.31 l
2.63 -0.25 l
2.62 -0.20 l
2.63 -0.14 l
2.63 -0.09 l
2.63 -0.03 l
o
0.5608 0.7373 0.5608 srgb
np
29.89 128.68 m
2.63 -0.07 l
2.62 -0.19 l
2.63 -0.31 l
2.63 -0.44 l
2.63 -0.55 l
2.63 -0.68 l
2.62 -0.80 l
2.63 -0.90 l
2.63 -1.02 l
2.63 -1.12 l
2.63 -1.23 l
2.63 -1.32 l
2.62 -1.41 l
2.63 -1.50 l
2.63 -1.57 l
2.63 -1.65 l
2.63 -1.72 l
2.62 -1.77 l
2.63 -1.83 l
2.63 -1.87 l
2.63 -1.91 l
2.63 -1.94 l
2.62 -1.96 l
2.63 -1.98 l
2.63 -1.98 l
2.63 -1.97 l
2.63 -1.97 l
2.62 -1.95 l
2.63 -1.93 l
2.63 -1.89 l
2.63 -1.85 l
2.63 -1.80 l
2.63 -1.75 l
2.62 -1.68 l
2.63 -1.61 l
2.63 -1.54 l
2.63 -1.46 l
2.63 -1.36 l
2.62 -1.28 l
2.63 -1.17 l
2.63 -1.07 l
2.63 -0.97 l
2.63 -0.85 l
2.62 -0.73 l
2.63 -0.62 l
2.63 -0.50 l
2.63 -0.37 l
2.63 -0.25 l
2.62 -0.13 l
2.63 0 l
2.63 0.13 l
2.63 0.25 l
2.63 0.37 l
2.62 0.50 l
2.63 0.62 l
2.63 0.73 l
2.63 0.85 l
2.63 0.97 l
2.63 1.07 l
2.62 1.17 l
2.63 1.28 l
2.63 1.36 l
2.63 1.46 l
2.63 1.54 l
2.62 1.61 l
2.63 1.68 l
2.63 1.75 l
2.63 1.80 l
2.63 1.85 l
2.62 1.89 l
2.63 1.93 l
2.63 1.95 l
2.63 1.97 l
2.63 1.97 l
2.62 1.98 l
2.63 1.98 l
2.63 1.96 l
2.63 1.94 l
2.63 1.91 l
2.62 1.87 l
2.63 1.83 l
2.63 1.77 l
2.63 1.72 l
2.63 1.65 l
2.63 1.57 l
2.62 1.50 l
2.63 1.41 l
2.63 1.32 l
2.63 1.23 l
2.63 1.12 l
2.62 1.02 l
2.63 0.90 l
2.63 0.80 l
2.63 0.68 l
2.63 0.55 l
2.62 0.44 l
2.63 0.31 l
2.63 0.19 l
2.63 0.07 l
o
0.5294 0.8078 0.9804 srgb
np
29.89 109.09 m
2.63 -0.05 l
2.62 -0.16 l
2.63 -0.26 l
2.63 -0.36 l
2.63 -0.46 l
2.63 -0.55 l
2.62 -0.65 l
2.63 -0.72 l
2.63 -0.80 l
2.63 -0.87 l
2.63 -0.93 l
2.63 -0.99 l
2.62 -1.03 l
2.63 -1.06 l
2.63 -1.08 l
2.63 -1.11 l
2.63 -1.10 l
2.62 -1.11 l
2.63 -1.08 l
2.63 -1.07 l
2.63 -1.02 l
2.63 -0.99 l
2.62 -0.93 l
2.63 -0.87 l
2.63 -0.80 l
2.63 -0.73 l
2.63 -0.64 l
2.62 -0.55 l
2.63 -0.46 l
2.63 -0.36 l
2.63 -0.26 l
2.63 -0.16 l
2.63 -0.05 l
2.62 0.05 l
2.63 0.16 l
2.63 0.26 l
2.63 0.36 l
2.63 0.46 l
2.62 0.55 l
2.63 0.64 l
2.63 0.73 l
2.63 0.80 l
2.63 0.87 l
2.62 0.93 l
2.63 0.99 l
2.63 1.02 l
2.63 1.07 l
2.63 1.08 l
2.62 1.11 l
2.63 1.10 l
2.63 1.11 l
2.63 1.08 l
2.63 1.06 l
2.62 1.03 l
2.63 0.99 l
2.63 0.93 l
2.63 0.87 l
2.63 0.80 l
2.63 0.72 l
2.62 0.65 l
2.63 0.55 l
2.63 0.46 l
2.63 0.36 l
2.63 0.26 l
2.62 0.16 l
2.63 0.05 l
2.63 -0.05 l
2.63 -0.16 l
2.63 -0.26 l
2.62 -0.36 l
2.63 -0.46 l
2.63 -0.55 l
2.63 -0.65 l
2.63 -0.72 l
2.62 -0.80 l
2.63 -0.87 l
2.63 -0.93 l
2.63 -0.99 l
2.63 -1.03 l
2.62 -1.06 l
2.63 -1.08 l
2.63 -1.11 l
2.63 -1.10 l
2.63 -1.11 l
2.63 -1.08 l
2.62 -1.07 l
2.63 -1.02 l
2.63 -0.99 l
2.63 -0.93 l
2.63 -0.87 l
2.62 -0.80 l
2.63 -0.73 l
2.63 -0.64 l
2.63 -0.55 l
2.63 -0.46 l
2.62 -0.36 l
2.63 -0.26 l
2.63 -0.16 l
2.63 -0.05 l
o
1 0.6275 0.4784 srgb
np
29.89 100.38 m
2.63 -0.02 l
2.62 -0.07 l
2.63 -0.12 l
2.63 -0.16 l
2.63 -0.20 l
2.63 -0.24 l
2.62 -0.27 l
2.63 -0.30 l
2.63 -0.33 l
2.63 -0.34 l
2.63 -0.36 l
2.63 -0.37 l
2.62 -0.37 l
2.63 -0.37 l
2.63 -0.36 l
2.63 -0.34 l
2.63 -0.32 l
2.62 -0.29 l
2.63 -0.27 l
2.63 -0.23 l
2.63 -0.19 l
2.63 -0.15 l
2.62 -0.10 l
2.63 -0.06 l
2.63 -0.01 l
2.63 0.03 l
2.63 0.09 l
2.62 0.12 l
2.63 0.17 l
2.63 0.21 l
2.63 0.25 l
2.63 0.28 l
2.63 0.31 l
2.62 0.33 l
2.63 0.35 l
2.63 0.36 l
2.63 0.37 l
2.63 0.37 l
2.62 0.37 l
2.63 0.35 l
2.63 0.34 l
2.63 0.31 l
2.63 0.29 l
2.62 0.26 l
2.63 0.22 l
2.63 0.18 l
2.63 0.14 l
2.63 0.09 l
2.62 0.05 l
2.63 0 l
2.63 -0.05 l
2.63 -0.09 l
2.63 -0.14 l
2.62 -0.18 l
2.63 -0.22 l
2.63 -0.26 l
2.63 -0.29 l
2.63 -0.31 l
2.63 -0.34 l
2.62 -0.35 l
2.63 -0.37 l
2.63 -0.37 l
2.63 -0.37 l
2.63 -0.36 l
2.62 -0.35 l
2.63 -0.33 l
2.63 -0.31 l
2.63 -0.28 l
2.63 -0.25 l
2.62 -0.21 l
2.63 -0.17 l
2.63 -0.12 l
2.63 -0.09 l
2.63 -0.03 l
2.62 0.01 l
2.63 0.06 l
2.63 0.10 l
2.63 0.15 l
2.63 0.19 l
2.62 0.23 l
2.63 0.27 l
2.63 0.29 l
2.63 0.32 l
2.63 0.34 l
2.63 0.36 l
2.62 0.37 l
2.63 0.37 l
2.63 0.37 l
2.63 0.36 l
2.63 0.34 l
2.62 0.33 l
2.63 0.30 l
2.63 0.27 l
2.63 0.24 l
2.63 0.20 l
2.62 0.16 l
2.63 0.12 l
2.63 0.07 l
2.63 0.02 l
o
1 0.8941 0.7686 srgb
np
29.89 97.95 m
2.63 0 l
2.62 -0.02 l
2.63 -0.03 l
2.63 -0.04 l
2.63 -0.05 l
2.63 -0.06 l
2.62 -0.07 l
2.63 -0.07 l
2.63 -0.08 l
2.63 -0.08 l
2.63 -0.08 l
2.63 -0.07 l
2.62 -0.07 l
2.63 -0.07 l
2.63 -0.06 l
2.63 -0.05 l
2.63 -0.04 l
2.62 -0.02 l
2.63 -0.02 l
2.63 0 l
2.63 0 l
2.63 0.03 l
2.62 0.03 l
2.63 0.04 l
2.63 0.05 l
2.63 0.07 l
2.63 0.06 l
2.62 0.08 l
2.63 0.07 l
2.63 0.08 l
2.63 0.08 l
2.63 0.08 l
2.63 0.07 l
2.62 0.06 l
2.63 0.06 l
2.63 0.05 l
2.63 0.03 l
2.63 0.03 l
2.62 0.01 l
2.63 0 l
2.63 -0.01 l
2.63 -0.02 l
2.63 -0.04 l
2.62 -0.04 l
2.63 -0.06 l
2.63 -0.06 l
2.63 -0.07 l
2.63 -0.07 l
2.62 -0.08 l
2.63 -0.08 l
2.63 -0.08 l
2.63 -0.07 l
2.63 -0.07 l
2.62 -0.06 l
2.63 -0.06 l
2.63 -0.04 l
2.63 -0.04 l
2.63 -0.02 l
2.63 -0.01 l
2.62 0 l
2.63 0.01 l
2.63 0.03 l
2.63 0.03 l
2.63 0.05 l
2.62 0.06 l
2.63 0.06 l
2.63 0.07 l
2.63 0.08 l
2.63 0.08 l
2.62 0.07 l
2.63 0.08 l
2.63 0.08 l
2.63 0.06 l
2.63 0.07 l
2.62 0.05 l
2.63 0.04 l
2.63 0.03 l
2.63 0.03 l
2.63 0 l
2.62 0 l
2.63 -0.02 l
2.63 -0.02 l
2.63 -0.04 l
2.63 -0.05 l
2.63 -0.06 l
2.62 -0.07 l
2.63 -0.07 l
2.63 -0.07 l
2.63 -0.08 l
2.63 -0.08 l
2.62 -0.08 l
2.63 -0.07 l
2.63 -0.07 l
2.63 -0.06 l
2.63 -0.05 l
2.62 -0.04 l
2.63 -0.03 l
2.63 -0.02 l
2.63 0 l
o
0.7020 0.9333 0.2275 srgb
np
29.89 97.52 m
2.63 0 l
2.62 -0.01 l
2.63 0 l
2.63 -0.01 l
2.63 -0.01 l
2.63 -0.01 l
2.62 -0.01 l
2.63 -0.01 l
2.63 -0.01 l
2.63 -0.01 l
2.63 -0.01 l
2.63 -0.01 l
2.62 0 l
2.63 -0.01 l
2.63 0 l
2.63 -0.01 l
2.63 0 l
2.62 0.01 l
2.63 0 l
2.63 0.01 l
2.63 0 l
2.63 0.01 l
2.62 0.01 l
2.63 0.01 l
2.63 0.01 l
2.63 0.01 l
2.63 0.01 l
2.62 0.01 l
2.63 0.01 l
2.63 0.01 l
2.63 0 l
2.63 0.01 l
2.63 0 l
2.62 0 l
2.63 -0.01 l
2.63 0 l
2.63 -0.01 l
2.63 -0.01 l
2.62 -0.01 l
2.63 -0.01 l
2.63 -0.01 l
2.63 -0.01 l
2.63 -0.01 l
2.62 -0.01 l
2.63 -0.01 l
2.63 0 l
2.63 -0.01 l
2.63 0 l
2.62 -0.01 l
2.63 0 l
2.63 0.01 l
2.63 0 l
2.63 0.01 l
2.62 0 l
2.63 0.01 l
2.63 0.01 l
2.63 0.01 l
2.63 0.01 l
2.63 0.01 l
2.62 0.01 l
2.63 0.01 l
2.63 0.01 l
2.63 0.01 l
2.63 0 l
2.62 0.01 l
2.63 0 l
2.63 0 l
2.63 -0.01 l
2.63 0 l
2.62 -0.01 l
2.63 -0.01 l
2.63 -0.01 l
2.63 -0.01 l
2.63 -0.01 l
2.62 -0.01 l
2.63 -0.01 l
2.63 -0.01 l
2.63 -0.01 l
2.63 0 l
2.62 -0.01 l
2.63 0 l
2.63 -0.01 l
2.63 0 l
2.63 0.01 l
2.63 0 l
2.62 0.01 l
2.63 0 l
2.63 0.01 l
2.63 0.01 l
2.63 0.01 l
2.62 0.01 l
2.63 0.01 l
2.63 0.01 l
2.63 0.01 l
2.63 0.01 l
2.62 0.01 l
2.63 0 l
2.63 0.01 l
2.63 0 l
o
1 0.4314 0.7059 srgb
1.07 setlinewidth
[] 0 setdash
np
29.89 234.59 m
2.63 -0.17 l
2.62 -0.53 l
2.63 -0.86 l
2.63 -1.21 l
2.63 -1.53 l
2.63 -1.85 l
2.62 -2.15 l
2.63 -2.44 l
2.63 -2.71 l
2.63 -2.96 l
2.63 -3.19 l
2.63 -3.40 l
2.62 -3.58 l
2.63 -3.74 l
2.63 -3.88 l
2.63 -3.99 l
2.63 -4.08 l
2.62 -4.14 l
2.63 -4.18 l
2.63 -4.20 l
2.63 -4.20 l
2.63 -4.17 l
2.62 -4.13 l
2.63 -4.06 l
2.63 -3.99 l
2.63 -3.89 l
2.63 -3.78 l
2.62 -3.67 l
2.63 -3.54 l
2.63 -3.40 l
2.63 -3.25 l
2.63 -3.11 l
2.63 -2.96 l
2.62 -2.80 l
2.63 -2.64 l
2.63 -2.49 l
2.63 -2.33 l
2.63 -2.18 l
2.62 -2.04 l
2.63 -1.89 l
2.63 -1.74 l
2.63 -1.62 l
2.63 -1.48 l
2.62 -1.37 l
2.63 -1.24 l
2.63 -1.14 l
2.63 -1.03 l
2.63 -0.94 l
2.62 -0.84 l
2.63 -0.77 l
2.63 -0.68 l
2.63 -0.61 l
2.63 -0.55 l
2.62 -0.49 l
2.63 -0.43 l
2.63 -0.38 l
2.63 -0.34 l
2.63 -0.30 l
2.63 -0.26 l
2.62 -0.22 l
2.63 -0.20 l
2.63 -0.17 l
2.63 -0.15 l
2.63 -0.13 l
2.62 -0.11 l
2.63 -0.10 l
2.63 -0.08 l
2.63 -0.07 l
2.63 -0.06 l
2.62 -0.05 l
2.63 -0.04 l
2.63 -0.04 l
2.63 -0.03 l
2.63 -0.03 l
2.62 -0.02 l
2.63 -0.02 l
2.63 -0.02 l
2.63 -0.01 l
2.63 -0.01 l
2.62 -0.01 l
2.63 -0.01 l
2.63 -0.01 l
2.63 0 l
2.63 -0.01 l
2.63 0 l
2.62 0 l
2.63 -0.01 l
2.63 0 l
2.63 0 l
2.63 0 l
2.62 0 l
2.63 0 l
2.63 0 l
2.63 0 l
2.63 0 l
2.62 0 l
2.63 0 l
2.63 0 l
2.63 0 l
o
/Font5 findfont 14 s
0 0 0 srgb
199.52 216.42 (w) 0 0 t
212.36 216.42 (=) 0 0 t
/Font1 findfont 14 s
223.29 216.42 (0.01) 0 0 t
0.00 0.00 359.25 249.75 cl
0.00 0.00 359.25 249.75 cl
0.00 0.00 359.25 249.75 cl
0.00 0.00 359.25 249.75 cl
0.00 0.00 359.25 249.75 cl
0.00 0.00 359.25 249.75 cl
/Font1 findfont 9 s
0.3020 0.3020 0.3020 srgb
24.96 94.23 (0) 1 0 t
24.96 162.98 (2) 1 0 t
24.96 231.73 (4) 1 0 t
0.00 0.00 359.25 249.75 cl
0.00 0.00 359.25 249.75 cl
0.2000 0.2000 0.2000 srgb
1.07 setlinewidth
[] 0 setdash
0 setlinecap
1 setlinejoin
10.00 setmiterlimit
np
27.15 97.46 m
2.74 0 l
o
np
27.15 166.21 m
2.74 0 l
o
np
27.15 234.96 m
2.74 0 l
o
0.00 0.00 359.25 249.75 cl
0.00 0.00 359.25 249.75 cl
0.00 0.00 359.25 249.75 cl
0.00 0.00 359.25 249.75 cl
0.00 0.00 359.25 249.75 cl
0.00 0.00 359.25 249.75 cl
0.00 0.00 359.25 249.75 cl
0.00 0.00 359.25 249.75 cl
0.2000 0.2000 0.2000 srgb
1.07 setlinewidth
[] 0 setdash
0 setlinecap
1 setlinejoin
10.00 setmiterlimit
np
29.89 28.61 m
0 2.74 l
o
np
94.93 28.61 m
0 2.74 l
o
np
159.98 28.61 m
0 2.74 l
o
np
225.02 28.61 m
0 2.74 l
o
np
290.07 28.61 m
0 2.74 l
o
0.00 0.00 359.25 249.75 cl
0.00 0.00 359.25 249.75 cl
/Font1 findfont 9 s
0.3020 0.3020 0.3020 srgb
29.89 19.95 (0.00) .5 0 t
94.93 19.95 (0.25) .5 0 t
159.98 19.95 (0.50) .5 0 t
225.02 19.95 (0.75) .5 0 t
290.07 19.95 (1.00) .5 0 t
0.00 0.00 359.25 249.75 cl
0.00 0.00 359.25 249.75 cl
0.00 0.00 359.25 249.75 cl
0.00 0.00 359.25 249.75 cl
/Font1 findfont 11 s
0 0 0 srgb
159.98 7.67 (x) .5 0 t
0.00 0.00 359.25 249.75 cl
0.00 0.00 359.25 249.75 cl
/Font1 findfont 11 s
0 0 0 srgb
15.57 137.81 (T) .5 90 t
0.00 0.00 359.25 249.75 cl
0.00 0.00 359.25 249.75 cl
0.00 0.00 359.25 249.75 cl
0.00 0.00 359.25 249.75 cl
/bg { 1 1 1 srgb } def
298.57 57.78 46.69 160.06 r p2
0.00 0.00 359.25 249.75 cl
0.00 0.00 359.25 249.75 cl
/Font1 findfont 11 s
0 0 0 srgb
302.82 205.14 ( n =) 0 0 t
0.00 0.00 359.25 249.75 cl
0.00 0.00 359.25 249.75 cl
/bg { 0.9490 0.9490 0.9490 srgb } def
1 1 1 srgb
1.07 setlinewidth
[] 0 setdash
1 setlinecap
1 setlinejoin
10.00 setmiterlimit
302.82 182.99 17.28 17.28 r p3
0.00 0.00 359.25 249.75 cl
0.00 0.00 359.25 249.75 cl
1 0.3882 0.2784 srgb
1.07 setlinewidth
[ 7.47 3.20] 0 setdash
0 setlinecap
1 setlinejoin
10.00 setmiterlimit
np
304.55 191.63 m
13.83 0 l
o
0.00 0.00 359.25 249.75 cl
0.00 0.00 359.25 249.75 cl
1 0.3882 0.2784 srgb
1.07 setlinewidth
[ 7.47 3.20] 0 setdash
0 setlinecap
1 setlinejoin
10.00 setmiterlimit
np
304.55 191.63 m
13.83 0 l
o
0.00 0.00 359.25 249.75 cl
0.00 0.00 359.25 249.75 cl
1 0.3882 0.2784 srgb
1.07 setlinewidth
[ 7.47 3.20] 0 setdash
0 setlinecap
1 setlinejoin
10.00 setmiterlimit
np
304.55 191.63 m
13.83 0 l
o
0.00 0.00 359.25 249.75 cl
0.00 0.00 359.25 249.75 cl
1 0.3882 0.2784 srgb
1.07 setlinewidth
[ 7.47 3.20] 0 setdash
0 setlinecap
1 setlinejoin
10.00 setmiterlimit
np
304.55 191.63 m
13.83 0 l
o
0.00 0.00 359.25 249.75 cl
0.00 0.00 359.25 249.75 cl
1 0.3882 0.2784 srgb
1.07 setlinewidth
[ 7.47 3.20] 0 setdash
0 setlinecap
1 setlinejoin
10.00 setmiterlimit
np
304.55 191.63 m
13.83 0 l
o
0.00 0.00 359.25 249.75 cl
0.00 0.00 359.25 249.75 cl
1 0.3882 0.2784 srgb
1.07 setlinewidth
[ 7.47 3.20] 0 setdash
0 setlinecap
1 setlinejoin
10.00 setmiterlimit
np
304.55 191.63 m
13.83 0 l
o
0.00 0.00 359.25 249.75 cl
0.00 0.00 359.25 249.75 cl
1 0.3882 0.2784 srgb
1.07 setlinewidth
[ 7.47 3.20] 0 setdash
0 setlinecap
1 setlinejoin
10.00 setmiterlimit
np
304.55 191.63 m
13.83 0 l
o
0.00 0.00 359.25 249.75 cl
0.00 0.00 359.25 249.75 cl
1 0.3882 0.2784 srgb
1.07 setlinewidth
[ 7.47 3.20] 0 setdash
0 setlinecap
1 setlinejoin
10.00 setmiterlimit
np
304.55 191.63 m
13.83 0 l
o
0.00 0.00 359.25 249.75 cl
0.00 0.00 359.25 249.75 cl
/bg { 0.9490 0.9490 0.9490 srgb } def
1 1 1 srgb
1.07 setlinewidth
[] 0 setdash
1 setlinecap
1 setlinejoin
10.00 setmiterlimit
302.82 165.71 17.28 17.28 r p3
0.00 0.00 359.25 249.75 cl
0.00 0.00 359.25 249.75 cl
0.8039 0.7451 0.4392 srgb
1.07 setlinewidth
[ 7.47 3.20] 0 setdash
0 setlinecap
1 setlinejoin
10.00 setmiterlimit
np
304.55 174.35 m
13.83 0 l
o
0.00 0.00 359.25 249.75 cl
0.00 0.00 359.25 249.75 cl
0.8039 0.7451 0.4392 srgb
1.07 setlinewidth
[ 7.47 3.20] 0 setdash
0 setlinecap
1 setlinejoin
10.00 setmiterlimit
np
304.55 174.35 m
13.83 0 l
o
0.00 0.00 359.25 249.75 cl
0.00 0.00 359.25 249.75 cl
0.8039 0.7451 0.4392 srgb
1.07 setlinewidth
[ 7.47 3.20] 0 setdash
0 setlinecap
1 setlinejoin
10.00 setmiterlimit
np
304.55 174.35 m
13.83 0 l
o
0.00 0.00 359.25 249.75 cl
0.00 0.00 359.25 249.75 cl
0.8039 0.7451 0.4392 srgb
1.07 setlinewidth
[ 7.47 3.20] 0 setdash
0 setlinecap
1 setlinejoin
10.00 setmiterlimit
np
304.55 174.35 m
13.83 0 l
o
0.00 0.00 359.25 249.75 cl
0.00 0.00 359.25 249.75 cl
0.8039 0.7451 0.4392 srgb
1.07 setlinewidth
[ 7.47 3.20] 0 setdash
0 setlinecap
1 setlinejoin
10.00 setmiterlimit
np
304.55 174.35 m
13.83 0 l
o
0.00 0.00 359.25 249.75 cl
0.00 0.00 359.25 249.75 cl
0.8039 0.7451 0.4392 srgb
1.07 setlinewidth
[ 7.47 3.20] 0 setdash
0 setlinecap
1 setlinejoin
10.00 setmiterlimit
np
304.55 174.35 m
13.83 0 l
o
0.00 0.00 359.25 249.75 cl
0.00 0.00 359.25 249.75 cl
0.8039 0.7451 0.4392 srgb
1.07 setlinewidth
[ 7.47 3.20] 0 setdash
0 setlinecap
1 setlinejoin
10.00 setmiterlimit
np
304.55 174.35 m
13.83 0 l
o
0.00 0.00 359.25 249.75 cl
0.00 0.00 359.25 249.75 cl
0.8039 0.7451 0.4392 srgb
1.07 setlinewidth
[ 7.47 3.20] 0 setdash
0 setlinecap
1 setlinejoin
10.00 setmiterlimit
np
304.55 174.35 m
13.83 0 l
o
0.00 0.00 359.25 249.75 cl
0.00 0.00 359.25 249.75 cl
/bg { 0.9490 0.9490 0.9490 srgb } def
1 1 1 srgb
1.07 setlinewidth
[] 0 setdash
1 setlinecap
1 setlinejoin
10.00 setmiterlimit
302.82 148.43 17.28 17.28 r p3
0.00 0.00 359.25 249.75 cl
0.00 0.00 359.25 249.75 cl
0.5608 0.7373 0.5608 srgb
1.07 setlinewidth
[ 7.47 3.20] 0 setdash
0 setlinecap
1 setlinejoin
10.00 setmiterlimit
np
304.55 157.07 m
13.83 0 l
o
0.00 0.00 359.25 249.75 cl
0.00 0.00 359.25 249.75 cl
0.5608 0.7373 0.5608 srgb
1.07 setlinewidth
[ 7.47 3.20] 0 setdash
0 setlinecap
1 setlinejoin
10.00 setmiterlimit
np
304.55 157.07 m
13.83 0 l
o
0.00 0.00 359.25 249.75 cl
0.00 0.00 359.25 249.75 cl
0.5608 0.7373 0.5608 srgb
1.07 setlinewidth
[ 7.47 3.20] 0 setdash
0 setlinecap
1 setlinejoin
10.00 setmiterlimit
np
304.55 157.07 m
13.83 0 l
o
0.00 0.00 359.25 249.75 cl
0.00 0.00 359.25 249.75 cl
0.5608 0.7373 0.5608 srgb
1.07 setlinewidth
[ 7.47 3.20] 0 setdash
0 setlinecap
1 setlinejoin
10.00 setmiterlimit
np
304.55 157.07 m
13.83 0 l
o
0.00 0.00 359.25 249.75 cl
0.00 0.00 359.25 249.75 cl
0.5608 0.7373 0.5608 srgb
1.07 setlinewidth
[ 7.47 3.20] 0 setdash
0 setlinecap
1 setlinejoin
10.00 setmiterlimit
np
304.55 157.07 m
13.83 0 l
o
0.00 0.00 359.25 249.75 cl
0.00 0.00 359.25 249.75 cl
0.5608 0.7373 0.5608 srgb
1.07 setlinewidth
[ 7.47 3.20] 0 setdash
0 setlinecap
1 setlinejoin
10.00 setmiterlimit
np
304.55 157.07 m
13.83 0 l
o
0.00 0.00 359.25 249.75 cl
0.00 0.00 359.25 249.75 cl
0.5608 0.7373 0.5608 srgb
1.07 setlinewidth
[ 7.47 3.20] 0 setdash
0 setlinecap
1 setlinejoin
10.00 setmiterlimit
np
304.55 157.07 m
13.83 0 l
o
0.00 0.00 359.25 249.75 cl
0.00 0.00 359.25 249.75 cl
0.5608 0.7373 0.5608 srgb
1.07 setlinewidth
[ 7.47 3.20] 0 setdash
0 setlinecap
1 setlinejoin
10.00 setmiterlimit
np
304.55 157.07 m
13.83 0 l
o
0.00 0.00 359.25 249.75 cl
0.00 0.00 359.25 249.75 cl
/bg { 0.9490 0.9490 0.9490 srgb } def
1 1 1 srgb
1.07 setlinewidth
[] 0 setdash
1 setlinecap
1 setlinejoin
10.00 setmiterlimit
302.82 131.15 17.28 17.28 r p3
0.00 0.00 359.25 249.75 cl
0.00 0.00 359.25 249.75 cl
0.5294 0.8078 0.9804 srgb
1.07 setlinewidth
[ 7.47 3.20] 0 setdash
0 setlinecap
1 setlinejoin
10.00 setmiterlimit
np
304.55 139.79 m
13.83 0 l
o
0.00 0.00 359.25 249.75 cl
0.00 0.00 359.25 249.75 cl
0.5294 0.8078 0.9804 srgb
1.07 setlinewidth
[ 7.47 3.20] 0 setdash
0 setlinecap
1 setlinejoin
10.00 setmiterlimit
np
304.55 139.79 m
13.83 0 l
o
0.00 0.00 359.25 249.75 cl
0.00 0.00 359.25 249.75 cl
0.5294 0.8078 0.9804 srgb
1.07 setlinewidth
[ 7.47 3.20] 0 setdash
0 setlinecap
1 setlinejoin
10.00 setmiterlimit
np
304.55 139.79 m
13.83 0 l
o
0.00 0.00 359.25 249.75 cl
0.00 0.00 359.25 249.75 cl
0.5294 0.8078 0.9804 srgb
1.07 setlinewidth
[ 7.47 3.20] 0 setdash
0 setlinecap
1 setlinejoin
10.00 setmiterlimit
np
304.55 139.79 m
13.83 0 l
o
0.00 0.00 359.25 249.75 cl
0.00 0.00 359.25 249.75 cl
0.5294 0.8078 0.9804 srgb
1.07 setlinewidth
[ 7.47 3.20] 0 setdash
0 setlinecap
1 setlinejoin
10.00 setmiterlimit
np
304.55 139.79 m
13.83 0 l
o
0.00 0.00 359.25 249.75 cl
0.00 0.00 359.25 249.75 cl
0.5294 0.8078 0.9804 srgb
1.07 setlinewidth
[ 7.47 3.20] 0 setdash
0 setlinecap
1 setlinejoin
10.00 setmiterlimit
np
304.55 139.79 m
13.83 0 l
o
0.00 0.00 359.25 249.75 cl
0.00 0.00 359.25 249.75 cl
0.5294 0.8078 0.9804 srgb
1.07 setlinewidth
[ 7.47 3.20] 0 setdash
0 setlinecap
1 setlinejoin
10.00 setmiterlimit
np
304.55 139.79 m
13.83 0 l
o
0.00 0.00 359.25 249.75 cl
0.00 0.00 359.25 249.75 cl
0.5294 0.8078 0.9804 srgb
1.07 setlinewidth
[ 7.47 3.20] 0 setdash
0 setlinecap
1 setlinejoin
10.00 setmiterlimit
np
304.55 139.79 m
13.83 0 l
o
0.00 0.00 359.25 249.75 cl
0.00 0.00 359.25 249.75 cl
/bg { 0.9490 0.9490 0.9490 srgb } def
1 1 1 srgb
1.07 setlinewidth
[] 0 setdash
1 setlinecap
1 setlinejoin
10.00 setmiterlimit
302.82 113.87 17.28 17.28 r p3
0.00 0.00 359.25 249.75 cl
0.00 0.00 359.25 249.75 cl
1 0.6275 0.4784 srgb
1.07 setlinewidth
[ 7.47 3.20] 0 setdash
0 setlinecap
1 setlinejoin
10.00 setmiterlimit
np
304.55 122.51 m
13.83 0 l
o
0.00 0.00 359.25 249.75 cl
0.00 0.00 359.25 249.75 cl
1 0.6275 0.4784 srgb
1.07 setlinewidth
[ 7.47 3.20] 0 setdash
0 setlinecap
1 setlinejoin
10.00 setmiterlimit
np
304.55 122.51 m
13.83 0 l
o
0.00 0.00 359.25 249.75 cl
0.00 0.00 359.25 249.75 cl
1 0.6275 0.4784 srgb
1.07 setlinewidth
[ 7.47 3.20] 0 setdash
0 setlinecap
1 setlinejoin
10.00 setmiterlimit
np
304.55 122.51 m
13.83 0 l
o
0.00 0.00 359.25 249.75 cl
0.00 0.00 359.25 249.75 cl
1 0.6275 0.4784 srgb
1.07 setlinewidth
[ 7.47 3.20] 0 setdash
0 setlinecap
1 setlinejoin
10.00 setmiterlimit
np
304.55 122.51 m
13.83 0 l
o
0.00 0.00 359.25 249.75 cl
0.00 0.00 359.25 249.75 cl
1 0.6275 0.4784 srgb
1.07 setlinewidth
[ 7.47 3.20] 0 setdash
0 setlinecap
1 setlinejoin
10.00 setmiterlimit
np
304.55 122.51 m
13.83 0 l
o
0.00 0.00 359.25 249.75 cl
0.00 0.00 359.25 249.75 cl
1 0.6275 0.4784 srgb
1.07 setlinewidth
[ 7.47 3.20] 0 setdash
0 setlinecap
1 setlinejoin
10.00 setmiterlimit
np
304.55 122.51 m
13.83 0 l
o
0.00 0.00 359.25 249.75 cl
0.00 0.00 359.25 249.75 cl
1 0.6275 0.4784 srgb
1.07 setlinewidth
[ 7.47 3.20] 0 setdash
0 setlinecap
1 setlinejoin
10.00 setmiterlimit
np
304.55 122.51 m
13.83 0 l
o
0.00 0.00 359.25 249.75 cl
0.00 0.00 359.25 249.75 cl
1 0.6275 0.4784 srgb
1.07 setlinewidth
[ 7.47 3.20] 0 setdash
0 setlinecap
1 setlinejoin
10.00 setmiterlimit
np
304.55 122.51 m
13.83 0 l
o
0.00 0.00 359.25 249.75 cl
0.00 0.00 359.25 249.75 cl
/bg { 0.9490 0.9490 0.9490 srgb } def
1 1 1 srgb
1.07 setlinewidth
[] 0 setdash
1 setlinecap
1 setlinejoin
10.00 setmiterlimit
302.82 96.59 17.28 17.28 r p3
0.00 0.00 359.25 249.75 cl
0.00 0.00 359.25 249.75 cl
1 0.8941 0.7686 srgb
1.07 setlinewidth
[ 7.47 3.20] 0 setdash
0 setlinecap
1 setlinejoin
10.00 setmiterlimit
np
304.55 105.23 m
13.83 0 l
o
0.00 0.00 359.25 249.75 cl
0.00 0.00 359.25 249.75 cl
1 0.8941 0.7686 srgb
1.07 setlinewidth
[ 7.47 3.20] 0 setdash
0 setlinecap
1 setlinejoin
10.00 setmiterlimit
np
304.55 105.23 m
13.83 0 l
o
0.00 0.00 359.25 249.75 cl
0.00 0.00 359.25 249.75 cl
1 0.8941 0.7686 srgb
1.07 setlinewidth
[ 7.47 3.20] 0 setdash
0 setlinecap
1 setlinejoin
10.00 setmiterlimit
np
304.55 105.23 m
13.83 0 l
o
0.00 0.00 359.25 249.75 cl
0.00 0.00 359.25 249.75 cl
1 0.8941 0.7686 srgb
1.07 setlinewidth
[ 7.47 3.20] 0 setdash
0 setlinecap
1 setlinejoin
10.00 setmiterlimit
np
304.55 105.23 m
13.83 0 l
o
0.00 0.00 359.25 249.75 cl
0.00 0.00 359.25 249.75 cl
1 0.8941 0.7686 srgb
1.07 setlinewidth
[ 7.47 3.20] 0 setdash
0 setlinecap
1 setlinejoin
10.00 setmiterlimit
np
304.55 105.23 m
13.83 0 l
o
0.00 0.00 359.25 249.75 cl
0.00 0.00 359.25 249.75 cl
1 0.8941 0.7686 srgb
1.07 setlinewidth
[ 7.47 3.20] 0 setdash
0 setlinecap
1 setlinejoin
10.00 setmiterlimit
np
304.55 105.23 m
13.83 0 l
o
0.00 0.00 359.25 249.75 cl
0.00 0.00 359.25 249.75 cl
1 0.8941 0.7686 srgb
1.07 setlinewidth
[ 7.47 3.20] 0 setdash
0 setlinecap
1 setlinejoin
10.00 setmiterlimit
np
304.55 105.23 m
13.83 0 l
o
0.00 0.00 359.25 249.75 cl
0.00 0.00 359.25 249.75 cl
1 0.8941 0.7686 srgb
1.07 setlinewidth
[ 7.47 3.20] 0 setdash
0 setlinecap
1 setlinejoin
10.00 setmiterlimit
np
304.55 105.23 m
13.83 0 l
o
0.00 0.00 359.25 249.75 cl
0.00 0.00 359.25 249.75 cl
/bg { 0.9490 0.9490 0.9490 srgb } def
1 1 1 srgb
1.07 setlinewidth
[] 0 setdash
1 setlinecap
1 setlinejoin
10.00 setmiterlimit
302.82 79.31 17.28 17.28 r p3
0.00 0.00 359.25 249.75 cl
0.00 0.00 359.25 249.75 cl
0.7020 0.9333 0.2275 srgb
1.07 setlinewidth
[ 7.47 3.20] 0 setdash
0 setlinecap
1 setlinejoin
10.00 setmiterlimit
np
304.55 87.95 m
13.83 0 l
o
0.00 0.00 359.25 249.75 cl
0.00 0.00 359.25 249.75 cl
0.7020 0.9333 0.2275 srgb
1.07 setlinewidth
[ 7.47 3.20] 0 setdash
0 setlinecap
1 setlinejoin
10.00 setmiterlimit
np
304.55 87.95 m
13.83 0 l
o
0.00 0.00 359.25 249.75 cl
0.00 0.00 359.25 249.75 cl
0.7020 0.9333 0.2275 srgb
1.07 setlinewidth
[ 7.47 3.20] 0 setdash
0 setlinecap
1 setlinejoin
10.00 setmiterlimit
np
304.55 87.95 m
13.83 0 l
o
0.00 0.00 359.25 249.75 cl
0.00 0.00 359.25 249.75 cl
0.7020 0.9333 0.2275 srgb
1.07 setlinewidth
[ 7.47 3.20] 0 setdash
0 setlinecap
1 setlinejoin
10.00 setmiterlimit
np
304.55 87.95 m
13.83 0 l
o
0.00 0.00 359.25 249.75 cl
0.00 0.00 359.25 249.75 cl
0.7020 0.9333 0.2275 srgb
1.07 setlinewidth
[ 7.47 3.20] 0 setdash
0 setlinecap
1 setlinejoin
10.00 setmiterlimit
np
304.55 87.95 m
13.83 0 l
o
0.00 0.00 359.25 249.75 cl
0.00 0.00 359.25 249.75 cl
0.7020 0.9333 0.2275 srgb
1.07 setlinewidth
[ 7.47 3.20] 0 setdash
0 setlinecap
1 setlinejoin
10.00 setmiterlimit
np
304.55 87.95 m
13.83 0 l
o
0.00 0.00 359.25 249.75 cl
0.00 0.00 359.25 249.75 cl
0.7020 0.9333 0.2275 srgb
1.07 setlinewidth
[ 7.47 3.20] 0 setdash
0 setlinecap
1 setlinejoin
10.00 setmiterlimit
np
304.55 87.95 m
13.83 0 l
o
0.00 0.00 359.25 249.75 cl
0.00 0.00 359.25 249.75 cl
0.7020 0.9333 0.2275 srgb
1.07 setlinewidth
[ 7.47 3.20] 0 setdash
0 setlinecap
1 setlinejoin
10.00 setmiterlimit
np
304.55 87.95 m
13.83 0 l
o
0.00 0.00 359.25 249.75 cl
0.00 0.00 359.25 249.75 cl
/bg { 0.9490 0.9490 0.9490 srgb } def
1 1 1 srgb
1.07 setlinewidth
[] 0 setdash
1 setlinecap
1 setlinejoin
10.00 setmiterlimit
302.82 62.03 17.28 17.28 r p3
0.00 0.00 359.25 249.75 cl
0.00 0.00 359.25 249.75 cl
1 0.4314 0.7059 srgb
1.07 setlinewidth
[] 0 setdash
0 setlinecap
1 setlinejoin
10.00 setmiterlimit
np
304.55 70.67 m
13.83 0 l
o
0.00 0.00 359.25 249.75 cl
0.00 0.00 359.25 249.75 cl
1 0.4314 0.7059 srgb
1.07 setlinewidth
[] 0 setdash
0 setlinecap
1 setlinejoin
10.00 setmiterlimit
np
304.55 70.67 m
13.83 0 l
o
0.00 0.00 359.25 249.75 cl
0.00 0.00 359.25 249.75 cl
1 0.4314 0.7059 srgb
1.07 setlinewidth
[] 0 setdash
0 setlinecap
1 setlinejoin
10.00 setmiterlimit
np
304.55 70.67 m
13.83 0 l
o
0.00 0.00 359.25 249.75 cl
0.00 0.00 359.25 249.75 cl
1 0.4314 0.7059 srgb
1.07 setlinewidth
[] 0 setdash
0 setlinecap
1 setlinejoin
10.00 setmiterlimit
np
304.55 70.67 m
13.83 0 l
o
0.00 0.00 359.25 249.75 cl
0.00 0.00 359.25 249.75 cl
1 0.4314 0.7059 srgb
1.07 setlinewidth
[] 0 setdash
0 setlinecap
1 setlinejoin
10.00 setmiterlimit
np
304.55 70.67 m
13.83 0 l
o
0.00 0.00 359.25 249.75 cl
0.00 0.00 359.25 249.75 cl
1 0.4314 0.7059 srgb
1.07 setlinewidth
[] 0 setdash
0 setlinecap
1 setlinejoin
10.00 setmiterlimit
np
304.55 70.67 m
13.83 0 l
o
0.00 0.00 359.25 249.75 cl
0.00 0.00 359.25 249.75 cl
1 0.4314 0.7059 srgb
1.07 setlinewidth
[] 0 setdash
0 setlinecap
1 setlinejoin
10.00 setmiterlimit
np
304.55 70.67 m
13.83 0 l
o
0.00 0.00 359.25 249.75 cl
0.00 0.00 359.25 249.75 cl
1 0.4314 0.7059 srgb
1.07 setlinewidth
[] 0 setdash
0 setlinecap
1 setlinejoin
10.00 setmiterlimit
np
304.55 70.67 m
13.83 0 l
o
0.00 0.00 359.25 249.75 cl
0.00 0.00 359.25 249.75 cl
/Font1 findfont 9 s
0 0 0 srgb
322.26 188.40 (0) 0 0 t
0.00 0.00 359.25 249.75 cl
0.00 0.00 359.25 249.75 cl
/Font1 findfont 9 s
0 0 0 srgb
322.26 171.12 (1) 0 0 t
0.00 0.00 359.25 249.75 cl
0.00 0.00 359.25 249.75 cl
/Font1 findfont 9 s
0 0 0 srgb
322.26 153.84 (2) 0 0 t
0.00 0.00 359.25 249.75 cl
0.00 0.00 359.25 249.75 cl
/Font1 findfont 9 s
0 0 0 srgb
322.26 136.56 (3) 0 0 t
0.00 0.00 359.25 249.75 cl
0.00 0.00 359.25 249.75 cl
/Font1 findfont 9 s
0 0 0 srgb
322.26 119.28 (4) 0 0 t
0.00 0.00 359.25 249.75 cl
0.00 0.00 359.25 249.75 cl
/Font1 findfont 9 s
0 0 0 srgb
322.26 102.00 (5) 0 0 t
0.00 0.00 359.25 249.75 cl
0.00 0.00 359.25 249.75 cl
/Font1 findfont 9 s
0 0 0 srgb
322.26 84.72 (6) 0 0 t
0.00 0.00 359.25 249.75 cl
0.00 0.00 359.25 249.75 cl
/Font1 findfont 9 s
0 0 0 srgb
322.26 67.44 (sum) 0 0 t
0.00 0.00 359.25 249.75 cl
0.00 0.00 359.25 249.75 cl
0.00 0.00 359.25 249.75 cl
0.00 0.00 359.25 249.75 cl
0.00 0.00 359.25 249.75 cl
0.00 0.00 359.25 249.75 cl
ep
%%Trailer
%%Pages: 1
%%EOF
