^C:\USERS\JGEMBAROVIC\DOCUMENTS\VISUAL STUDIO 2013\PROJECTS\DEHOOG\LAPLACEINVERSIONDEHOOG.CPP
/c /ZI /nologo /W3 /WX- /sdl /Od /Oy- /D WIN32 /D _DEBUG /D _CONSOLE /D _LIB /D _UNICODE /D UNICODE /Gm /EHsc /RTC1 /MDd /GS /fp:precise /Zc:wchar_t /Zc:forScope /Fo"DEBUG\\" /Fd"DEBUG\VC120.PDB" /Gd /TP /analyze- C:\USERS\JGEMBAROVIC\DOCUMENTS\VISUAL STUDIO 2013\PROJECTS\DEHOOG\LAPLACEINVERSIONDEHOOG.CPP
^C:\USERS\JGEMBAROVIC\DOCUMENTS\VISUAL STUDIO 2013\PROJECTS\DEHOOG\LAPLACEINVERSIONDEHOOGFLASH.CPP
/c /ZI /nologo /W3 /WX- /sdl /Od /Oy- /D WIN32 /D _DEBUG /D _CONSOLE /D _LIB /D _UNICODE /D UNICODE /Gm /EHsc /RTC1 /MDd /GS /fp:precise /Zc:wchar_t /Zc:forScope /Fo"DEBUG\\" /Fd"DEBUG\VC120.PDB" /Gd /TP /analyze- C:\USERS\JGEMBAROVIC\DOCUMENTS\VISUAL STUDIO 2013\PROJECTS\DEHOOG\LAPLACEINVERSIONDEHOOGFLASH.CPP
^C:\USERS\JGEMBAROVIC\DOCUMENTS\VISUAL STUDIO 2013\PROJECTS\DEHOOG\DEHOOGSEMITRANSPFLASH.CPP
/c /ZI /nologo /W3 /WX- /sdl /Od /Oy- /D WIN32 /D _DEBUG /D _CONSOLE /D _LIB /D _UNICODE /D UNICODE /Gm /EHsc /RTC1 /MDd /GS /fp:precise /Zc:wchar_t /Zc:forScope /Fo"DEBUG\\" /Fd"DEBUG\VC120.PDB" /Gd /TP /analyze- C:\USERS\JGEMBAROVIC\DOCUMENTS\VISUAL STUDIO 2013\PROJECTS\DEHOOG\DEHOOGSEMITRANSPFLASH.CPP
^C:\USERS\JGEMBAROVIC\DOCUMENTS\VISUAL STUDIO 2013\PROJECTS\DEHOOG\STFLASH.CPP
/c /ZI /nologo /W3 /WX- /sdl /Od /Oy- /D WIN32 /D _DEBUG /D _CONSOLE /D _LIB /D _UNICODE /D UNICODE /Gm /EHsc /RTC1 /MDd /GS /fp:precise /Zc:wchar_t /Zc:forScope /Fo"DEBUG\\" /Fd"DEBUG\VC120.PDB" /Gd /TP /analyze- C:\USERS\JGEMBAROVIC\DOCUMENTS\VISUAL STUDIO 2013\PROJECTS\DEHOOG\STFLASH.CPP
^C:\USERS\JGEMBAROVIC\DOCUMENTS\REPOS\LATEXY\MYFLASHMETHODTHEORY\DEHOOG\STFLASH.CPP
/c /ZI /nologo /W3 /WX- /sdl /Od /Oy- /D WIN32 /D _DEBUG /D _CONSOLE /D _LIB /D _UNICODE /D UNICODE /Gm /EHsc /RTC1 /MDd /GS /fp:precise /Zc:wchar_t /Zc:forScope /Fo"DEBUG\\" /Fd"DEBUG\VC120.PDB" /Gd /TP /analyze- C:\USERS\JGEMBAROVIC\DOCUMENTS\REPOS\LATEXY\MYFLASHMETHODTHEORY\DEHOOG\STFLASH.CPP
